// Created by Crowbar 0.62

$modelname "weapons/tfa_cso/w_spas12.mdl"

$bodygroup "studio"
{
	studio "w_spas12_w_ref"
}

$collisionmodel "w_spas12_w_ref.smd"
{
	$mass 9
}

$CDMaterials "models\weapons\tfa_cso\spas12"

$attachment "0" "p-model" 29.50 1.00 0.70 rotate -0 0 0

$sequence "idle" {
	"w_spas12_anims\idle"
	fps 30
}
