version 1
nodes
  0 "p-model" -1
end
skeleton
  time 0
    0 -5.166362 -3.022362 0.271591 0.068938 -0.004374 0.684877
end
triangles
spas-12 pmodel.bmp
  0 -5.242430 -11.920816 -0.225833 0.699333 -0.080143 -0.710289 0.623529 0.560784
  0 -5.751080 -10.687132 0.585770 0.796933 0.604065 0.001866 0.654902 0.611765
  0 -4.671347 -11.518415 0.495512 0.991884 0.122772 -0.033059 0.666667 0.560784
spas-12 pmodel.bmp
  0 -4.671347 -11.518415 0.495512 0.991884 0.122772 -0.033059 0.666667 0.560784
  0 -5.751080 -10.687132 0.585770 0.796933 0.604065 0.001866 0.654902 0.611765
  0 -5.184148 -12.002176 1.220709 0.753676 -0.156003 0.638463 0.623529 0.560784
spas-12 pmodel.bmp
  0 -5.751080 -10.687132 0.585770 0.796933 0.604065 0.001866 0.654902 0.611765
  0 -6.263880 -11.170893 1.310968 0.403546 0.231994 0.885059 0.611765 0.611765
  0 -5.184148 -12.002176 1.220709 0.753676 -0.156003 0.638463 0.623529 0.560784
spas-12 pmodel.bmp
  0 -5.184148 -12.002176 1.220709 0.753676 -0.156003 0.638463 0.623529 0.560784
  0 -6.263880 -11.170893 1.310968 0.403546 0.231994 0.885059 0.611765 0.611765
  0 -6.640188 -13.191411 1.212486 0.113434 -0.780991 0.614154 0.556863 0.560784
spas-12 pmodel.bmp
  0 -6.263880 -11.170893 1.310968 0.403546 0.231994 0.885059 0.611765 0.611765
  0 -7.657961 -12.309522 1.303094 -0.513527 -0.368075 0.775120 0.549020 0.611765
  0 -6.640188 -13.191411 1.212486 0.113434 -0.780991 0.614154 0.556863 0.560784
spas-12 pmodel.bmp
  0 -6.640188 -13.191411 1.212486 0.113434 -0.780991 0.614154 0.556863 0.560784
  0 -7.657961 -12.309522 1.303094 -0.513527 -0.368075 0.775120 0.549020 0.611765
  0 -8.128762 -12.629127 0.572342 -0.848953 -0.528449 0.004483 0.513725 0.611765
spas-12 pmodel.bmp
  0 -7.657961 -12.309522 1.303094 -0.513527 -0.368075 0.775120 0.549020 0.611765
  0 -8.467848 -11.218675 0.665334 -0.985955 -0.164207 0.030490 0.533333 0.658824
  0 -8.128762 -12.629127 0.572342 -0.848953 -0.528449 0.004483 0.513725 0.611765
spas-12 pmodel.bmp
  0 -8.128762 -12.629127 0.572342 -0.848953 -0.528449 0.004483 0.513725 0.611765
  0 -8.467848 -11.218675 0.665334 -0.985955 -0.164207 0.030490 0.533333 0.658824
  0 -7.716243 -12.228162 -0.143448 -0.575692 -0.281297 -0.767757 0.549020 0.611765
spas-12 pmodel.bmp
  0 -8.467848 -11.218675 0.665334 -0.985955 -0.164207 0.030490 0.533333 0.658824
  0 -8.063074 -10.824036 -0.050499 -0.631140 -0.043131 -0.774469 0.568627 0.658824
  0 -7.716243 -12.228162 -0.143448 -0.575692 -0.281297 -0.767757 0.549020 0.611765
spas-12 pmodel.bmp
  0 -7.716243 -12.228162 -0.143448 -0.575692 -0.281297 -0.767757 0.549020 0.611765
  0 -8.063074 -10.824036 -0.050499 -0.631140 -0.043131 -0.774469 0.568627 0.658824
  0 -6.322162 -11.089533 -0.135575 0.332308 0.331438 -0.883018 0.611765 0.611765
spas-12 pmodel.bmp
  0 -8.063074 -10.824036 -0.050499 -0.631140 -0.043131 -0.774469 0.568627 0.658824
  0 -6.839381 -9.824572 -0.043589 0.462216 0.193224 -0.865460 0.623529 0.658824
  0 -6.322162 -11.089533 -0.135575 0.332308 0.331438 -0.883018 0.611765 0.611765
spas-12 pmodel.bmp
  0 -6.322162 -11.089533 -0.135575 0.332308 0.331438 -0.883018 0.611765 0.611765
  0 -6.839381 -9.824572 -0.043589 0.462216 0.193224 -0.865460 0.623529 0.658824
  0 -5.751080 -10.687132 0.585770 0.796933 0.604065 0.001866 0.654902 0.611765
spas-12 pmodel.bmp
  0 -6.839381 -9.824572 -0.043589 0.462216 0.193224 -0.865460 0.623529 0.658824
  0 -6.260553 -9.415846 0.677800 0.966032 0.257264 -0.024453 0.666667 0.658824
  0 -5.751080 -10.687132 0.585770 0.796933 0.604065 0.001866 0.654902 0.611765
spas-12 pmodel.bmp
  0 -5.751080 -10.687132 0.585770 0.796933 0.604065 0.001866 0.654902 0.611765
  0 -6.260553 -9.415846 0.677800 0.966032 0.257264 -0.024453 0.666667 0.658824
  0 -6.781099 -9.905932 1.402954 0.531002 0.097201 0.841777 0.623529 0.658824
spas-12 pmodel.bmp
  0 -6.260553 -9.415846 0.677800 0.966032 0.257264 -0.024453 0.666667 0.658824
  0 -7.049960 -8.154744 1.512281 0.590838 0.188922 0.784359 0.650980 0.721569
  0 -6.781099 -9.905932 1.402954 0.531002 0.097201 0.841777 0.623529 0.658824
spas-12 pmodel.bmp
  0 -6.781099 -9.905932 1.402954 0.531002 0.097201 0.841777 0.623529 0.658824
  0 -7.049960 -8.154744 1.512281 0.590838 0.188922 0.784359 0.650980 0.721569
  0 -8.134245 -9.040344 1.506157 -0.413837 -0.237370 0.878860 0.600000 0.721569
spas-12 pmodel.bmp
  0 -7.049960 -8.154744 1.512281 0.590838 0.188922 0.784359 0.650980 0.721569
  0 -8.500404 -8.592314 1.546109 -0.167262 -0.446931 0.878792 0.600000 0.741176
  0 -8.134245 -9.040344 1.506157 -0.413837 -0.237370 0.878860 0.600000 0.721569
spas-12 pmodel.bmp
  0 -8.134245 -9.040344 1.506157 -0.413837 -0.237370 0.878860 0.600000 0.721569
  0 -8.500404 -8.592314 1.546109 -0.167262 -0.446931 0.878792 0.600000 0.741176
  0 -8.597301 -9.353624 0.775449 -0.937494 -0.347524 0.018226 0.560784 0.721569
spas-12 pmodel.bmp
  0 -8.500404 -8.592314 1.546109 -0.167262 -0.446931 0.878792 0.600000 0.741176
  0 -8.963461 -8.905593 0.815401 -0.412474 -0.910313 -0.034581 0.560784 0.741176
  0 -8.597301 -9.353624 0.775449 -0.937494 -0.347524 0.018226 0.560784 0.721569
spas-12 pmodel.bmp
  0 -8.597301 -9.353624 0.775449 -0.937494 -0.347524 0.018226 0.560784 0.721569
  0 -8.963461 -8.905593 0.815401 -0.412474 -0.910313 -0.034581 0.560784 0.741176
  0 -8.192527 -8.958984 0.059615 -0.484053 -0.139351 -0.863871 0.600000 0.721569
spas-12 pmodel.bmp
  0 -8.963461 -8.905593 0.815401 -0.412474 -0.910313 -0.034581 0.560784 0.741176
  0 -8.558687 -8.510954 0.099567 -0.239215 -0.346488 -0.907040 0.600000 0.741176
  0 -8.192527 -8.958984 0.059615 -0.484053 -0.139351 -0.863871 0.600000 0.721569
spas-12 pmodel.bmp
  0 -8.192527 -8.958984 0.059615 -0.484053 -0.139351 -0.863871 0.600000 0.721569
  0 -8.558687 -8.510954 0.099567 -0.239215 -0.346488 -0.907040 0.600000 0.741176
  0 -7.108242 -8.073384 0.065739 0.526877 0.278208 -0.803120 0.650980 0.721569
spas-12 pmodel.bmp
  0 -8.558687 -8.510954 0.099567 -0.239215 -0.346488 -0.907040 0.600000 0.741176
  0 -8.120093 -6.645659 0.186808 0.206729 0.004177 -0.978389 0.658824 0.784314
  0 -7.108242 -8.073384 0.065739 0.526877 0.278208 -0.803120 0.650980 0.721569
spas-12 pmodel.bmp
  0 -7.108242 -8.073384 0.065739 0.526877 0.278208 -0.803120 0.650980 0.721569
  0 -8.120093 -6.645659 0.186808 0.206729 0.004177 -0.978389 0.658824 0.784314
  0 -7.732799 -6.868584 0.429311 0.867626 0.027867 -0.496436 0.666667 0.768627
spas-12 pmodel.bmp
  0 10.490401 10.092625 2.062432 0.040195 -0.056110 0.997615 0.537255 0.478431
  0 9.232147 9.799148 2.096621 -0.267424 0.321138 0.908490 0.478431 0.505882
  0 11.146962 9.289260 1.990794 0.040195 -0.056110 0.997615 0.537255 0.431373
spas-12 pmodel.bmp
  0 11.146962 9.289260 1.990794 0.040195 -0.056110 0.997615 0.537255 0.431373
  0 9.232147 9.799148 2.096621 -0.267424 0.321138 0.908490 0.478431 0.505882
  0 10.619074 7.801865 1.928405 0.427754 -0.449594 0.784150 0.470588 0.396078
spas-12 pmodel.bmp
  0 9.232147 9.799148 2.096621 -0.267424 0.321138 0.908490 0.478431 0.505882
  0 9.626361 6.630391 1.902513 0.460618 -0.479076 0.747206 0.403922 0.388235
  0 10.619074 7.801865 1.928405 0.427754 -0.449594 0.784150 0.470588 0.396078
spas-12 pmodel.bmp
  0 10.619074 7.801865 1.928405 0.427754 -0.449594 0.784150 0.470588 0.396078
  0 9.626361 6.630391 1.902513 0.460618 -0.479076 0.747206 0.403922 0.388235
  0 10.017911 6.236957 0.902314 0.701065 -0.709831 -0.068171 0.407843 0.333333
spas-12 pmodel.bmp
  0 9.626361 6.630391 1.902513 0.460618 -0.479076 0.747206 0.403922 0.388235
  0 8.716767 5.174236 0.894966 0.532546 -0.843592 -0.068904 0.337255 0.333333
  0 10.017911 6.236957 0.902314 0.701065 -0.709831 -0.068171 0.407843 0.333333
spas-12 pmodel.bmp
  0 10.017911 6.236957 0.902314 0.701065 -0.709831 -0.068171 0.407843 0.333333
  0 8.716767 5.174236 0.894966 0.532546 -0.843592 -0.068904 0.337255 0.333333
  0 9.549589 6.737562 -0.002932 0.397044 -0.390330 -0.830662 0.403922 0.388235
spas-12 pmodel.bmp
  0 8.716767 5.174236 0.894966 0.532546 -0.843592 -0.068904 0.337255 0.333333
  0 8.325896 5.738099 -0.009843 0.300643 -0.473468 -0.827914 0.337255 0.388235
  0 9.549589 6.737562 -0.002932 0.397044 -0.390330 -0.830662 0.403922 0.388235
spas-12 pmodel.bmp
  0 9.549589 6.737562 -0.002932 0.397044 -0.390330 -0.830662 0.403922 0.388235
  0 8.325896 5.738099 -0.009843 0.300643 -0.473468 -0.827914 0.337255 0.388235
  0 9.155376 9.906319 0.191176 -0.337970 0.419619 -0.842435 0.478431 0.505882
spas-12 pmodel.bmp
  0 8.325896 5.738099 -0.009843 0.300643 -0.473468 -0.827914 0.337255 0.388235
  0 6.635686 4.898603 0.011040 0.269641 -0.424083 -0.864550 0.258824 0.403922
  0 9.155376 9.906319 0.191176 -0.337970 0.419619 -0.842435 0.478431 0.505882
spas-12 pmodel.bmp
  0 9.155376 9.906319 0.191176 -0.337970 0.419619 -0.842435 0.478431 0.505882
  0 6.635686 4.898603 0.011040 0.269641 -0.424083 -0.864550 0.258824 0.403922
  0 0.752165 3.042916 0.143718 -0.910696 -0.179328 -0.372122 0.015686 0.505882
spas-12 pmodel.bmp
  0 6.635686 4.898603 0.011040 0.269641 -0.424083 -0.864550 0.258824 0.403922
  0 3.026565 1.950819 -0.009343 0.455372 -0.255736 -0.852781 0.058824 0.403922
  0 0.752165 3.042916 0.143718 -0.910696 -0.179328 -0.372122 0.015686 0.505882
spas-12 pmodel.bmp
  0 0.752165 3.042916 0.143718 -0.910696 -0.179328 -0.372122 0.015686 0.505882
  0 3.026565 1.950819 -0.009343 0.455372 -0.255736 -0.852781 0.058824 0.403922
  0 2.612576 1.351973 -0.136608 0.455372 -0.255736 -0.852781 0.031373 0.396078
spas-12 pmodel.bmp
  0 3.026565 1.950819 -0.009343 0.455372 -0.255736 -0.852781 0.058824 0.403922
  0 3.456161 1.418584 0.895684 0.794698 -0.603411 -0.065958 0.058824 0.345098
  0 2.612576 1.351973 -0.136608 0.455372 -0.255736 -0.852781 0.031373 0.396078
spas-12 pmodel.bmp
  0 2.612576 1.351973 -0.136608 0.455372 -0.255736 -0.852781 0.031373 0.396078
  0 3.456161 1.418584 0.895684 0.794698 -0.603411 -0.065958 0.058824 0.345098
  0 3.134976 0.705421 0.868513 0.794698 -0.603411 -0.065958 0.031373 0.337255
spas-12 pmodel.bmp
  0 3.456161 1.418584 0.895684 0.794698 -0.603411 -0.065958 0.058824 0.345098
  0 2.698190 1.232458 1.988312 0.521139 -0.347543 0.779505 0.031373 0.396078
  0 3.134976 0.705421 0.868513 0.794698 -0.603411 -0.065958 0.031373 0.337255
spas-12 pmodel.bmp
  0 3.134976 0.705421 0.868513 0.794698 -0.603411 -0.065958 0.031373 0.337255
  0 2.698190 1.232458 1.988312 0.521139 -0.347543 0.779505 0.031373 0.396078
  0 2.411629 0.998406 1.986694 -0.155531 -0.749642 0.643310 0.015686 0.396078
spas-12 pmodel.bmp
  0 2.698190 1.232458 1.988312 0.521139 -0.347543 0.779505 0.031373 0.396078
  0 0.828936 2.935745 2.049163 -0.792758 0.059902 0.606586 0.015686 0.505882
  0 2.411629 0.998406 1.986694 -0.155531 -0.749642 0.643310 0.015686 0.396078
spas-12 pmodel.bmp
  0 -1.401058 2.417251 0.927028 -0.040194 0.056109 -0.997615 0.717647 0.337255
  0 -1.017003 2.911265 0.939340 0.182111 0.233995 -0.955030 0.780392 0.352941
  0 -0.928620 2.803120 0.929696 0.226852 0.268870 -0.936081 0.780392 0.337255
spas-12 pmodel.bmp
  0 -0.928620 2.803120 0.929696 0.226852 0.268870 -0.936081 0.780392 0.337255
  0 -1.017003 2.911265 0.939340 0.182111 0.233995 -0.955030 0.780392 0.352941
  0 -0.801888 2.900404 1.000229 0.644621 0.572050 -0.507171 0.796078 0.337255
spas-12 pmodel.bmp
  0 -1.017003 2.911265 0.939340 0.182111 0.233995 -0.955030 0.780392 0.352941
  0 -0.890271 3.008549 1.009872 0.644621 0.572050 -0.507171 0.796078 0.352941
  0 -0.801888 2.900404 1.000229 0.644621 0.572050 -0.507171 0.796078 0.337255
spas-12 pmodel.bmp
  0 -0.801888 2.900404 1.000229 0.644621 0.572050 -0.507171 0.796078 0.337255
  0 -0.890271 3.008549 1.009872 0.644621 0.572050 -0.507171 0.796078 0.352941
  0 -0.749389 2.929942 1.150134 0.774489 0.632573 0.004375 0.807843 0.337255
spas-12 pmodel.bmp
  0 -0.890271 3.008549 1.009872 0.644621 0.572050 -0.507171 0.796078 0.352941
  0 -0.837773 3.038087 1.159777 0.774489 0.632573 0.004375 0.807843 0.352941
  0 -0.749389 2.929942 1.150134 0.774489 0.632573 0.004375 0.807843 0.337255
spas-12 pmodel.bmp
  0 -0.749389 2.929942 1.150134 0.774489 0.632573 0.004375 0.807843 0.337255
  0 -0.837773 3.038087 1.159777 0.774489 0.632573 0.004375 0.807843 0.352941
  0 -0.789428 2.883010 1.309490 0.685793 0.514577 0.514684 0.796078 0.337255
spas-12 pmodel.bmp
  0 -0.837773 3.038087 1.159777 0.774489 0.632573 0.004375 0.807843 0.352941
  0 -0.877811 2.991155 1.319133 0.685793 0.514577 0.514684 0.796078 0.352941
  0 -0.789428 2.883010 1.309490 0.685793 0.514577 0.514684 0.796078 0.337255
spas-12 pmodel.bmp
  0 -0.789428 2.883010 1.309490 0.685793 0.514577 0.514684 0.796078 0.337255
  0 -0.877811 2.991155 1.319133 0.685793 0.514577 0.514684 0.796078 0.352941
  0 -0.910935 2.778431 1.368647 0.302404 0.163404 0.939069 0.780392 0.337255
spas-12 pmodel.bmp
  0 -0.877811 2.991155 1.319133 0.685793 0.514577 0.514684 0.796078 0.352941
  0 -0.999318 2.886577 1.378290 0.259171 0.126425 0.957521 0.780392 0.352941
  0 -0.910935 2.778431 1.368647 0.302404 0.163404 0.939069 0.780392 0.337255
spas-12 pmodel.bmp
  0 -0.910935 2.778431 1.368647 0.302404 0.163404 0.939069 0.780392 0.337255
  0 -0.999318 2.886577 1.378290 0.259171 0.126425 0.957521 0.780392 0.352941
  0 -1.383373 2.392563 1.365979 0.040195 -0.056110 0.997615 0.717647 0.337255
spas-12 pmodel.bmp
  0 -0.999318 2.886577 1.378290 0.259171 0.126425 0.957521 0.780392 0.352941
  0 -1.606088 2.854705 1.400945 0.040195 -0.056110 0.997615 0.733333 0.384314
  0 -1.383373 2.392563 1.365979 0.040195 -0.056110 0.997615 0.717647 0.337255
spas-12 pmodel.bmp
  0 -1.383373 2.392563 1.365979 0.040195 -0.056110 0.997615 0.717647 0.337255
  0 -1.606088 2.854705 1.400945 0.040195 -0.056110 0.997615 0.733333 0.384314
  0 -1.755845 2.848318 1.406619 0.040195 -0.056110 0.997615 0.717647 0.396078
spas-12 pmodel.bmp
  0 -1.606088 2.854705 1.400945 0.040195 -0.056110 0.997615 0.733333 0.384314
  0 -1.662906 2.924227 1.407144 0.040195 -0.056110 0.997615 0.733333 0.396078
  0 -1.755845 2.848318 1.406619 0.040195 -0.056110 0.997615 0.717647 0.396078
spas-12 pmodel.bmp
  0 -6.263880 -11.170893 1.310968 0.403546 0.231994 0.885059 0.611765 0.611765
  0 -8.004792 -10.905396 1.396043 -0.567184 -0.132410 0.812878 0.568627 0.658824
  0 -7.657961 -12.309522 1.303094 -0.513527 -0.368075 0.775120 0.549020 0.611765
spas-12 pmodel.bmp
  0 -7.657961 -12.309522 1.303094 -0.513527 -0.368075 0.775120 0.549020 0.611765
  0 -8.004792 -10.905396 1.396043 -0.567184 -0.132410 0.812878 0.568627 0.658824
  0 -8.467848 -11.218675 0.665334 -0.985955 -0.164207 0.030490 0.533333 0.658824
spas-12 pmodel.bmp
  0 -8.004792 -10.905396 1.396043 -0.567184 -0.132410 0.812878 0.568627 0.658824
  0 -8.597301 -9.353624 0.775449 -0.937494 -0.347524 0.018226 0.560784 0.721569
  0 -8.467848 -11.218675 0.665334 -0.985955 -0.164207 0.030490 0.533333 0.658824
spas-12 pmodel.bmp
  0 -8.467848 -11.218675 0.665334 -0.985955 -0.164207 0.030490 0.533333 0.658824
  0 -8.597301 -9.353624 0.775449 -0.937494 -0.347524 0.018226 0.560784 0.721569
  0 -8.063074 -10.824036 -0.050499 -0.631140 -0.043131 -0.774469 0.568627 0.658824
spas-12 pmodel.bmp
  0 -8.597301 -9.353624 0.775449 -0.937494 -0.347524 0.018226 0.560784 0.721569
  0 -8.192527 -8.958984 0.059615 -0.484053 -0.139351 -0.863871 0.600000 0.721569
  0 -8.063074 -10.824036 -0.050499 -0.631140 -0.043131 -0.774469 0.568627 0.658824
spas-12 pmodel.bmp
  0 -8.063074 -10.824036 -0.050499 -0.631140 -0.043131 -0.774469 0.568627 0.658824
  0 -8.192527 -8.958984 0.059615 -0.484053 -0.139351 -0.863871 0.600000 0.721569
  0 -6.839381 -9.824572 -0.043589 0.462216 0.193224 -0.865460 0.623529 0.658824
spas-12 pmodel.bmp
  0 -8.192527 -8.958984 0.059615 -0.484053 -0.139351 -0.863871 0.600000 0.721569
  0 -7.108242 -8.073384 0.065739 0.526877 0.278208 -0.803120 0.650980 0.721569
  0 -6.839381 -9.824572 -0.043589 0.462216 0.193224 -0.865460 0.623529 0.658824
spas-12 pmodel.bmp
  0 -6.839381 -9.824572 -0.043589 0.462216 0.193224 -0.865460 0.623529 0.658824
  0 -7.108242 -8.073384 0.065739 0.526877 0.278208 -0.803120 0.650980 0.721569
  0 -6.260553 -9.415846 0.677800 0.966032 0.257264 -0.024453 0.666667 0.658824
spas-12 pmodel.bmp
  0 -7.108242 -8.073384 0.065739 0.526877 0.278208 -0.803120 0.650980 0.721569
  0 -6.518481 -7.836060 0.777046 0.915509 0.402044 -0.014274 0.686275 0.713725
  0 -6.260553 -9.415846 0.677800 0.966032 0.257264 -0.024453 0.666667 0.658824
spas-12 pmodel.bmp
  0 -6.260553 -9.415846 0.677800 0.966032 0.257264 -0.024453 0.666667 0.658824
  0 -6.518481 -7.836060 0.777046 0.915509 0.402044 -0.014274 0.686275 0.713725
  0 -7.049960 -8.154744 1.512281 0.590838 0.188922 0.784359 0.650980 0.721569
spas-12 pmodel.bmp
  0 -6.518481 -7.836060 0.777046 0.915509 0.402044 -0.014274 0.686275 0.713725
  0 -7.696624 -6.919083 1.327165 0.904915 -0.023680 0.424932 0.666667 0.768627
  0 -7.049960 -8.154744 1.512281 0.590838 0.188922 0.784359 0.650980 0.721569
spas-12 pmodel.bmp
  0 -7.049960 -8.154744 1.512281 0.590838 0.188922 0.784359 0.650980 0.721569
  0 -7.696624 -6.919083 1.327165 0.904915 -0.023680 0.424932 0.666667 0.768627
  0 -8.061811 -6.727019 1.633350 0.284545 -0.104450 0.952956 0.658824 0.784314
spas-12 pmodel.bmp
  0 -10.539795 -6.011191 0.801132 0.049047 0.997329 0.054118 0.905882 0.509804
  0 -10.764547 -6.005102 0.850626 -0.126613 0.990088 0.060788 0.905882 0.494118
  0 -10.520502 -6.038124 1.279988 0.049047 0.997329 0.054118 0.933333 0.509804
spas-12 pmodel.bmp
  0 -10.520502 -6.038124 1.279988 0.049047 0.997329 0.054118 0.933333 0.509804
  0 -10.764547 -6.005102 0.850626 -0.126613 0.990088 0.060788 0.905882 0.494118
  0 -10.748067 -6.028108 1.259648 -0.126613 0.990088 0.060788 0.933333 0.494118
spas-12 pmodel.bmp
  0 -10.764547 -6.005102 0.850626 -0.126613 0.990088 0.060788 0.905882 0.494118
  0 -11.125433 -6.132408 0.858006 -0.631308 0.772467 0.068883 0.905882 0.470588
  0 -10.748067 -6.028108 1.259648 -0.126613 0.990088 0.060788 0.933333 0.494118
spas-12 pmodel.bmp
  0 -10.748067 -6.028108 1.259648 -0.126613 0.990088 0.060788 0.933333 0.494118
  0 -11.125433 -6.132408 0.858006 -0.631308 0.772467 0.068883 0.905882 0.470588
  0 -11.108953 -6.155413 1.267028 -0.631308 0.772467 0.068883 0.933333 0.470588
spas-12 pmodel.bmp
  0 -11.125433 -6.132408 0.858006 -0.631308 0.772467 0.068883 0.905882 0.470588
  0 -11.314434 -6.454228 0.847520 -0.974928 0.216490 0.051457 0.905882 0.447059
  0 -11.108953 -6.155413 1.267028 -0.631308 0.772467 0.068883 0.933333 0.470588
spas-12 pmodel.bmp
  0 -11.108953 -6.155413 1.267028 -0.631308 0.772467 0.068883 0.933333 0.470588
  0 -11.314434 -6.454228 0.847520 -0.974928 0.216490 0.051457 0.905882 0.447059
  0 -11.297955 -6.477234 1.256542 -0.974928 0.216490 0.051457 0.933333 0.447059
spas-12 pmodel.bmp
  0 -11.314434 -6.454228 0.847520 -0.974928 0.216490 0.051457 0.905882 0.447059
  0 -11.259569 -6.821606 0.824647 -0.913437 -0.406742 0.013926 0.905882 0.423529
  0 -11.297955 -6.477234 1.256542 -0.974928 0.216490 0.051457 0.933333 0.447059
spas-12 pmodel.bmp
  0 -11.297955 -6.477234 1.256542 -0.974928 0.216490 0.051457 0.933333 0.447059
  0 -11.259569 -6.821606 0.824647 -0.913437 -0.406742 0.013926 0.905882 0.423529
  0 -11.243089 -6.844612 1.233669 -0.913437 -0.406742 0.013926 0.933333 0.423529
spas-12 pmodel.bmp
  0 -11.259569 -6.821606 0.824647 -0.913437 -0.406742 0.013926 0.905882 0.423529
  0 -11.155286 -6.964732 0.772299 -0.809986 -0.586449 -0.000349 0.905882 0.415686
  0 -11.243089 -6.844612 1.233669 -0.913437 -0.406742 0.013926 0.933333 0.423529
spas-12 pmodel.bmp
  0 -11.243089 -6.844612 1.233669 -0.913437 -0.406742 0.013926 0.933333 0.423529
  0 -11.155286 -6.964732 0.772299 -0.809986 -0.586449 -0.000349 0.905882 0.415686
  0 -11.135993 -6.991665 1.251155 -0.809986 -0.586449 -0.000349 0.933333 0.415686
spas-12 pmodel.bmp
  0 -5.698107 -5.254328 1.119751 0.040195 -0.056110 0.997615 0.686275 0.478431
  0 -4.997355 -6.111766 1.043291 0.040195 -0.056110 0.997615 0.686275 0.427451
  0 -3.994231 -3.862670 1.129373 0.040195 -0.056110 0.997615 0.788235 0.478431
spas-12 pmodel.bmp
  0 -3.994231 -3.862670 1.129373 0.040195 -0.056110 0.997615 0.788235 0.478431
  0 -4.997355 -6.111766 1.043291 0.040195 -0.056110 0.997615 0.686275 0.427451
  0 -4.877146 -6.116632 1.038174 0.040195 -0.056110 0.997615 0.690196 0.423529
spas-12 pmodel.bmp
  0 -4.997355 -6.111766 1.043291 0.040195 -0.056110 0.997615 0.686275 0.427451
  0 -5.080400 -6.926688 1.000802 0.040195 -0.056110 0.997615 0.658824 0.400000
  0 -4.877146 -6.116632 1.038174 0.040195 -0.056110 0.997615 0.690196 0.423529
spas-12 pmodel.bmp
  0 -4.877146 -6.116632 1.038174 0.040195 -0.056110 0.997615 0.690196 0.423529
  0 -5.080400 -6.926688 1.000802 0.040195 -0.056110 0.997615 0.658824 0.400000
  0 -4.961623 -6.945604 0.994952 0.040195 -0.056110 0.997615 0.662745 0.396078
spas-12 pmodel.bmp
  0 -5.080400 -6.926688 1.000802 0.040195 -0.056110 0.997615 0.658824 0.400000
  0 -5.630287 -7.375814 0.997696 0.040195 -0.056110 0.997615 0.627451 0.400000
  0 -4.961623 -6.945604 0.994952 0.040195 -0.056110 0.997615 0.662745 0.396078
spas-12 pmodel.bmp
  0 -4.961623 -6.945604 0.994952 0.040195 -0.056110 0.997615 0.662745 0.396078
  0 -5.630287 -7.375814 0.997696 0.040195 -0.056110 0.997615 0.627451 0.400000
  0 -5.635429 -7.495942 0.991147 0.040195 -0.056110 0.997615 0.623529 0.396078
spas-12 pmodel.bmp
  0 -5.630287 -7.375814 0.997696 0.040195 -0.056110 0.997615 0.627451 0.400000
  0 -6.539955 -7.732366 1.014293 0.040195 -0.056110 0.997615 0.592157 0.411765
  0 -5.635429 -7.495942 0.991147 0.040195 -0.056110 0.997615 0.623529 0.396078
spas-12 pmodel.bmp
  0 -5.635429 -7.495942 0.991147 0.040195 -0.056110 0.997615 0.623529 0.396078
  0 -6.539955 -7.732366 1.014293 0.040195 -0.056110 0.997615 0.592157 0.411765
  0 -6.416297 -7.773057 1.007023 0.040195 -0.056110 0.997615 0.588235 0.407843
spas-12 pmodel.bmp
  0 -6.539955 -7.732366 1.014293 0.040195 -0.056110 0.997615 0.592157 0.411765
  0 -6.704876 -7.957233 1.008291 0.040195 -0.056110 0.997615 0.576471 0.407843
  0 -6.416297 -7.773057 1.007023 0.040195 -0.056110 0.997615 0.588235 0.407843
spas-12 pmodel.bmp
  0 -6.723365 -7.931422 0.549388 -0.040194 0.056109 -0.997615 0.576471 0.407843
  0 -6.558445 -7.706555 0.555390 -0.040194 0.056109 -0.997615 0.592157 0.411765
  0 -6.434787 -7.747246 0.548120 -0.040194 0.056109 -0.997615 0.588235 0.407843
spas-12 pmodel.bmp
  0 -6.434787 -7.747246 0.548120 -0.040194 0.056109 -0.997615 0.588235 0.407843
  0 -6.558445 -7.706555 0.555390 -0.040194 0.056109 -0.997615 0.592157 0.411765
  0 -5.653918 -7.470131 0.532244 -0.040194 0.056109 -0.997615 0.623529 0.396078
spas-12 pmodel.bmp
  0 -6.558445 -7.706555 0.555390 -0.040194 0.056109 -0.997615 0.592157 0.411765
  0 -5.648777 -7.350003 0.538793 -0.040194 0.056109 -0.997615 0.627451 0.400000
  0 -5.653918 -7.470131 0.532244 -0.040194 0.056109 -0.997615 0.623529 0.396078
spas-12 pmodel.bmp
  0 -5.653918 -7.470131 0.532244 -0.040194 0.056109 -0.997615 0.623529 0.396078
  0 -5.648777 -7.350003 0.538793 -0.040194 0.056109 -0.997615 0.627451 0.400000
  0 -4.980113 -6.919793 0.536049 -0.040194 0.056109 -0.997615 0.662745 0.396078
spas-12 pmodel.bmp
  0 -5.648777 -7.350003 0.538793 -0.040194 0.056109 -0.997615 0.627451 0.400000
  0 -5.098890 -6.900877 0.541899 -0.040194 0.056109 -0.997615 0.658824 0.400000
  0 -4.980113 -6.919793 0.536049 -0.040194 0.056109 -0.997615 0.662745 0.396078
spas-12 pmodel.bmp
  0 -4.980113 -6.919793 0.536049 -0.040194 0.056109 -0.997615 0.662745 0.396078
  0 -5.098890 -6.900877 0.541899 -0.040194 0.056109 -0.997615 0.658824 0.400000
  0 -4.895636 -6.090821 0.579271 -0.040194 0.056109 -0.997615 0.690196 0.423529
spas-12 pmodel.bmp
  0 -5.098890 -6.900877 0.541899 -0.040194 0.056109 -0.997615 0.658824 0.400000
  0 -5.015844 -6.085955 0.584388 -0.040194 0.056109 -0.997615 0.686275 0.427451
  0 -4.895636 -6.090821 0.579271 -0.040194 0.056109 -0.997615 0.690196 0.423529
spas-12 pmodel.bmp
  0 -4.895636 -6.090821 0.579271 -0.040194 0.056109 -0.997615 0.690196 0.423529
  0 -5.015844 -6.085955 0.584388 -0.040194 0.056109 -0.997615 0.686275 0.427451
  0 -4.012720 -3.836859 0.670471 -0.040194 0.056109 -0.997615 0.788235 0.478431
spas-12 pmodel.bmp
  0 -5.015844 -6.085955 0.584388 -0.040194 0.056109 -0.997615 0.686275 0.427451
  0 -5.716597 -5.228517 0.660848 -0.040194 0.056109 -0.997615 0.686275 0.478431
  0 -4.012720 -3.836859 0.670471 -0.040194 0.056109 -0.997615 0.788235 0.478431
spas-12 pmodel.bmp
  0 -3.975094 -4.929040 1.068625 0.956461 -0.286697 -0.054662 0.717647 0.513725
  0 -4.877146 -6.116632 1.038174 0.930325 -0.362145 -0.057852 0.654902 0.513725
  0 -3.993584 -4.903229 0.609722 0.956461 -0.286697 -0.054662 0.717647 0.490196
spas-12 pmodel.bmp
  0 -3.993584 -4.903229 0.609722 0.956461 -0.286697 -0.054662 0.717647 0.490196
  0 -4.877146 -6.116632 1.038174 0.930325 -0.362145 -0.057852 0.654902 0.513725
  0 -4.895636 -6.090821 0.579271 0.930325 -0.362145 -0.057852 0.654902 0.490196
spas-12 pmodel.bmp
  0 -4.877146 -6.116632 1.038174 0.930325 -0.362145 -0.057852 0.654902 0.513725
  0 -4.961623 -6.945604 0.994952 0.880335 -0.470293 -0.061921 0.619608 0.513725
  0 -4.895636 -6.090821 0.579271 0.930325 -0.362145 -0.057852 0.654902 0.490196
spas-12 pmodel.bmp
  0 -4.895636 -6.090821 0.579271 0.930325 -0.362145 -0.057852 0.654902 0.490196
  0 -4.961623 -6.945604 0.994952 0.880335 -0.470293 -0.061921 0.619608 0.513725
  0 -4.980113 -6.919793 0.536049 0.880335 -0.470293 -0.061921 0.619608 0.490196
spas-12 pmodel.bmp
  0 -4.961623 -6.945604 0.994952 0.880335 -0.470293 -0.061921 0.619608 0.513725
  0 -5.635429 -7.495942 0.991147 0.485608 -0.871482 -0.068582 0.584314 0.513725
  0 -4.980113 -6.919793 0.536049 0.880335 -0.470293 -0.061921 0.619608 0.490196
spas-12 pmodel.bmp
  0 -4.980113 -6.919793 0.536049 0.880335 -0.470293 -0.061921 0.619608 0.490196
  0 -5.635429 -7.495942 0.991147 0.485608 -0.871482 -0.068582 0.584314 0.513725
  0 -5.653918 -7.470131 0.532244 0.485608 -0.871482 -0.068582 0.584314 0.490196
spas-12 pmodel.bmp
  0 -5.635429 -7.495942 0.991147 0.485608 -0.871482 -0.068582 0.584314 0.513725
  0 -6.416297 -7.773057 1.007023 0.432338 -0.899145 -0.067991 0.549020 0.513725
  0 -5.653918 -7.470131 0.532244 0.485608 -0.871482 -0.068582 0.584314 0.490196
spas-12 pmodel.bmp
  0 -5.653918 -7.470131 0.532244 0.485608 -0.871482 -0.068582 0.584314 0.490196
  0 -6.416297 -7.773057 1.007023 0.432338 -0.899145 -0.067991 0.549020 0.513725
  0 -6.434787 -7.747246 0.548120 0.432338 -0.899145 -0.067991 0.549020 0.490196
spas-12 pmodel.bmp
  0 -6.416297 -7.773057 1.007023 0.432338 -0.899145 -0.067991 0.549020 0.513725
  0 -6.723365 -7.931422 0.549388 0.532546 -0.843592 -0.068904 0.537255 0.490196
  0 -6.434787 -7.747246 0.548120 0.432338 -0.899145 -0.067991 0.549020 0.490196
spas-12 pmodel.bmp
  0 17.843942 15.034949 1.693295 0.040195 -0.056110 0.997615 0.890196 0.960784
  0 17.440638 15.532656 1.126079 -0.631308 0.772467 0.068883 0.890196 0.988235
  0 12.987893 11.068724 1.665870 0.040195 -0.056110 0.997615 0.705882 0.960784
spas-12 pmodel.bmp
  0 12.987893 11.068724 1.665870 0.040195 -0.056110 0.997615 0.705882 0.960784
  0 17.440638 15.532656 1.126079 -0.631308 0.772467 0.068883 0.890196 0.988235
  0 12.584589 11.566432 1.098654 -0.631308 0.772467 0.068883 0.705882 0.988235
spas-12 pmodel.bmp
  0 17.440638 15.532656 1.126079 -0.631308 0.772467 0.068883 0.890196 0.988235
  0 17.794905 15.103404 0.476204 -0.040194 0.056109 -0.997615 0.890196 0.960784
  0 12.584589 11.566432 1.098654 -0.631308 0.772467 0.068883 0.705882 0.988235
spas-12 pmodel.bmp
  0 12.584589 11.566432 1.098654 -0.631308 0.772467 0.068883 0.705882 0.988235
  0 17.794905 15.103404 0.476204 -0.040194 0.056109 -0.997615 0.890196 0.960784
  0 12.938855 11.137179 0.448779 -0.040194 0.056109 -0.997615 0.705882 0.960784
spas-12 pmodel.bmp
  0 17.794905 15.103404 0.476204 -0.040194 0.056109 -0.997615 0.890196 0.960784
  0 18.204521 14.597972 1.042731 0.631308 -0.772467 -0.068883 0.890196 0.933333
  0 12.938855 11.137179 0.448779 -0.040194 0.056109 -0.997615 0.705882 0.960784
spas-12 pmodel.bmp
  0 12.938855 11.137179 0.448779 -0.040194 0.056109 -0.997615 0.705882 0.960784
  0 18.204521 14.597972 1.042731 0.631308 -0.772467 -0.068883 0.890196 0.933333
  0 13.348472 10.631747 1.015306 0.631308 -0.772467 -0.068883 0.705882 0.933333
spas-12 pmodel.bmp
  0 18.204521 14.597972 1.042731 0.631308 -0.772467 -0.068883 0.890196 0.933333
  0 17.843942 15.034949 1.693295 0.040195 -0.056110 0.997615 0.890196 0.960784
  0 13.348472 10.631747 1.015306 0.631308 -0.772467 -0.068883 0.705882 0.933333
spas-12 pmodel.bmp
  0 13.348472 10.631747 1.015306 0.631308 -0.772467 -0.068883 0.705882 0.933333
  0 17.843942 15.034949 1.693295 0.040195 -0.056110 0.997615 0.890196 0.960784
  0 12.987893 11.068724 1.665870 0.040195 -0.056110 0.997615 0.705882 0.960784
spas-12 pmodel.bmp
  0 15.521807 15.086565 0.737248 -0.731793 -0.563943 -0.382684 0.901961 0.952941
  0 16.067448 14.668709 1.132813 -0.192858 -0.980083 -0.047354 0.909804 0.913725
  0 15.823581 14.714266 1.145201 -0.192858 -0.980083 -0.047354 0.901961 0.925490
spas-12 pmodel.bmp
  0 15.823581 14.714266 1.145201 -0.192858 -0.980083 -0.047354 0.901961 0.925490
  0 16.067448 14.668709 1.132813 -0.192858 -0.980083 -0.047354 0.909804 0.913725
  0 15.557580 15.036627 1.625125 -0.701282 -0.606535 0.374591 0.901961 0.952941
spas-12 pmodel.bmp
  0 16.067448 14.668709 1.132813 -0.192858 -0.980083 -0.047354 0.909804 0.913725
  0 15.689135 15.127177 1.815372 -0.701282 -0.606535 0.374591 0.909804 0.952941
  0 15.557580 15.036627 1.625125 -0.701282 -0.606535 0.374591 0.901961 0.952941
spas-12 pmodel.bmp
  0 15.557580 15.036627 1.625125 -0.701282 -0.606535 0.374591 0.901961 0.952941
  0 15.689135 15.127177 1.815372 -0.701282 -0.606535 0.374591 0.909804 0.952941
  0 15.261716 15.401761 1.206507 -0.999153 0.006497 0.040622 0.901961 0.980392
spas-12 pmodel.bmp
  0 15.689135 15.127177 1.815372 -0.701282 -0.606535 0.374591 0.909804 0.952941
  0 15.265686 15.649742 1.220295 -0.999153 0.006497 0.040622 0.909804 0.988235
  0 15.261716 15.401761 1.206507 -0.999153 0.006497 0.040622 0.901961 0.980392
spas-12 pmodel.bmp
  0 15.261716 15.401761 1.206507 -0.999153 0.006497 0.040622 0.901961 0.980392
  0 15.265686 15.649742 1.220295 -0.999153 0.006497 0.040622 0.909804 0.988235
  0 15.521807 15.086565 0.737248 -0.731793 -0.563943 -0.382684 0.901961 0.952941
spas-12 pmodel.bmp
  0 15.265686 15.649742 1.220295 -0.999153 0.006497 0.040622 0.909804 0.988235
  0 15.638088 15.198437 0.548401 -0.731793 -0.563943 -0.382684 0.909804 0.952941
  0 15.521807 15.086565 0.737248 -0.731793 -0.563943 -0.382684 0.901961 0.952941
spas-12 pmodel.bmp
  0 15.521807 15.086565 0.737248 -0.731793 -0.563943 -0.382684 0.901961 0.952941
  0 15.638088 15.198437 0.548401 -0.731793 -0.563943 -0.382684 0.909804 0.952941
  0 16.067448 14.668709 1.132813 -0.192858 -0.980083 -0.047354 0.909804 0.913725
spas-12 pmodel.bmp
  0 7.026558 4.334740 0.915848 0.532546 -0.843592 -0.068904 0.254902 0.345098
  0 3.103336 1.843648 1.896102 0.521139 -0.347543 0.779505 0.058824 0.403922
  0 3.456161 1.418584 0.895684 0.794698 -0.603411 -0.065958 0.058824 0.345098
spas-12 pmodel.bmp
  0 7.026558 4.334740 0.915848 0.532546 -0.843592 -0.068904 0.254902 0.345098
  0 6.712457 4.791432 1.916485 0.336193 -0.516986 0.787210 0.258824 0.403922
  0 3.103336 1.843648 1.896102 0.521139 -0.347543 0.779505 0.058824 0.403922
spas-12 pmodel.bmp
  0 7.026558 4.334740 0.915848 0.532546 -0.843592 -0.068904 0.254902 0.345098
  0 8.402667 5.630928 1.895602 0.363934 -0.561818 0.742908 0.337255 0.388235
  0 6.712457 4.791432 1.916485 0.336193 -0.516986 0.787210 0.258824 0.403922
spas-12 pmodel.bmp
  0 7.026558 4.334740 0.915848 0.532546 -0.843592 -0.068904 0.254902 0.345098
  0 8.716767 5.174236 0.894966 0.532546 -0.843592 -0.068904 0.337255 0.333333
  0 8.402667 5.630928 1.895602 0.363934 -0.561818 0.742908 0.337255 0.388235
spas-12 pmodel.bmp
  0 7.026558 4.334740 0.915848 0.532546 -0.843592 -0.068904 0.254902 0.345098
  0 8.325896 5.738099 -0.009843 0.300643 -0.473468 -0.827914 0.337255 0.388235
  0 8.716767 5.174236 0.894966 0.532546 -0.843592 -0.068904 0.337255 0.333333
spas-12 pmodel.bmp
  0 7.026558 4.334740 0.915848 0.532546 -0.843592 -0.068904 0.254902 0.345098
  0 6.635686 4.898603 0.011040 0.269641 -0.424083 -0.864550 0.258824 0.403922
  0 8.325896 5.738099 -0.009843 0.300643 -0.473468 -0.827914 0.337255 0.388235
spas-12 pmodel.bmp
  0 7.026558 4.334740 0.915848 0.532546 -0.843592 -0.068904 0.254902 0.345098
  0 3.026565 1.950819 -0.009343 0.455372 -0.255736 -0.852781 0.058824 0.403922
  0 6.635686 4.898603 0.011040 0.269641 -0.424083 -0.864550 0.258824 0.403922
spas-12 pmodel.bmp
  0 7.026558 4.334740 0.915848 0.532546 -0.843592 -0.068904 0.254902 0.345098
  0 3.456161 1.418584 0.895684 0.794698 -0.603411 -0.065958 0.058824 0.345098
  0 3.026565 1.950819 -0.009343 0.455372 -0.255736 -0.852781 0.058824 0.403922
spas-12 pmodel.bmp
  0 -1.662906 2.924227 1.407144 0.101113 0.993525 0.051806 0.639216 0.380392
  0 -1.606088 2.854705 1.400945 0.399526 0.916037 0.035425 0.623529 0.380392
  0 -1.680592 2.948915 0.968194 0.101113 0.993525 0.051806 0.639216 0.333333
spas-12 pmodel.bmp
  0 -1.680592 2.948915 0.968194 0.101113 0.993525 0.051806 0.639216 0.333333
  0 -1.606088 2.854705 1.400945 0.399526 0.916037 0.035425 0.623529 0.380392
  0 -1.623774 2.879393 0.961994 0.399526 0.916037 0.035425 0.623529 0.333333
spas-12 pmodel.bmp
  0 -1.606088 2.854705 1.400945 0.399526 0.916037 0.035425 0.623529 0.380392
  0 -0.999318 2.886577 1.378290 -0.279044 0.958067 0.065129 0.592157 0.380392
  0 -1.623774 2.879393 0.961994 0.399526 0.916037 0.035425 0.623529 0.333333
spas-12 pmodel.bmp
  0 -1.623774 2.879393 0.961994 0.399526 0.916037 0.035425 0.623529 0.333333
  0 -0.999318 2.886577 1.378290 -0.279044 0.958067 0.065129 0.592157 0.380392
  0 -1.017003 2.911265 0.939340 -0.279044 0.958067 0.065129 0.592157 0.333333
spas-12 pmodel.bmp
  0 -0.999318 2.886577 1.378290 -0.279044 0.958067 0.065129 0.592157 0.380392
  0 -0.877811 2.991155 1.319133 -0.631308 0.772467 0.068883 0.576471 0.372549
  0 -1.017003 2.911265 0.939340 -0.279044 0.958067 0.065129 0.592157 0.333333
spas-12 pmodel.bmp
  0 -1.017003 2.911265 0.939340 -0.279044 0.958067 0.065129 0.592157 0.333333
  0 -0.877811 2.991155 1.319133 -0.631308 0.772467 0.068883 0.576471 0.372549
  0 -0.890271 3.008549 1.009872 -0.631308 0.772467 0.068883 0.576471 0.341176
spas-12 pmodel.bmp
  0 -0.877811 2.991155 1.319133 -0.631308 0.772467 0.068883 0.576471 0.372549
  0 -0.837773 3.038087 1.159777 -0.631308 0.772467 0.068883 0.572549 0.356863
  0 -0.890271 3.008549 1.009872 -0.631308 0.772467 0.068883 0.576471 0.341176
spas-12 pmodel.bmp
  0 3.456161 1.418584 0.895684 0.794698 -0.603411 -0.065958 0.058824 0.345098
  0 3.103336 1.843648 1.896102 0.521139 -0.347543 0.779505 0.058824 0.403922
  0 2.698190 1.232458 1.988312 0.521139 -0.347543 0.779505 0.031373 0.396078
spas-12 pmodel.bmp
  0 2.698190 1.232458 1.988312 0.521139 -0.347543 0.779505 0.031373 0.396078
  0 3.103336 1.843648 1.896102 0.521139 -0.347543 0.779505 0.058824 0.403922
  0 0.828936 2.935745 2.049163 -0.792758 0.059902 0.606586 0.015686 0.505882
spas-12 pmodel.bmp
  0 3.103336 1.843648 1.896102 0.521139 -0.347543 0.779505 0.058824 0.403922
  0 6.712457 4.791432 1.916485 0.336193 -0.516986 0.787210 0.258824 0.403922
  0 0.828936 2.935745 2.049163 -0.792758 0.059902 0.606586 0.015686 0.505882
spas-12 pmodel.bmp
  0 0.828936 2.935745 2.049163 -0.792758 0.059902 0.606586 0.015686 0.505882
  0 6.712457 4.791432 1.916485 0.336193 -0.516986 0.787210 0.258824 0.403922
  0 9.232147 9.799148 2.096621 -0.267424 0.321138 0.908490 0.478431 0.505882
spas-12 pmodel.bmp
  0 6.712457 4.791432 1.916485 0.336193 -0.516986 0.787210 0.258824 0.403922
  0 8.402667 5.630928 1.895602 0.363934 -0.561818 0.742908 0.337255 0.388235
  0 9.232147 9.799148 2.096621 -0.267424 0.321138 0.908490 0.478431 0.505882
spas-12 pmodel.bmp
  0 9.232147 9.799148 2.096621 -0.267424 0.321138 0.908490 0.478431 0.505882
  0 8.402667 5.630928 1.895602 0.363934 -0.561818 0.742908 0.337255 0.388235
  0 9.626361 6.630391 1.902513 0.460618 -0.479076 0.747206 0.403922 0.388235
spas-12 pmodel.bmp
  0 8.402667 5.630928 1.895602 0.363934 -0.561818 0.742908 0.337255 0.388235
  0 8.716767 5.174236 0.894966 0.532546 -0.843592 -0.068904 0.337255 0.333333
  0 9.626361 6.630391 1.902513 0.460618 -0.479076 0.747206 0.403922 0.388235
spas-12 pmodel.bmp
  0 9.155376 9.906319 0.191176 -0.337970 0.419619 -0.842435 0.478431 0.505882
  0 10.542302 7.909036 0.022960 0.361456 -0.357046 -0.861318 0.470588 0.396078
  0 9.549589 6.737562 -0.002932 0.397044 -0.390330 -0.830662 0.403922 0.388235
spas-12 pmodel.bmp
  0 9.549589 6.737562 -0.002932 0.397044 -0.390330 -0.830662 0.403922 0.388235
  0 10.542302 7.909036 0.022960 0.361456 -0.357046 -0.861318 0.470588 0.396078
  0 10.017911 6.236957 0.902314 0.701065 -0.709831 -0.068171 0.407843 0.333333
spas-12 pmodel.bmp
  0 10.542302 7.909036 0.022960 0.361456 -0.357046 -0.861318 0.470588 0.396078
  0 10.954976 7.350100 0.927167 0.701065 -0.709831 -0.068171 0.470588 0.341176
  0 10.017911 6.236957 0.902314 0.701065 -0.709831 -0.068171 0.407843 0.333333
spas-12 pmodel.bmp
  0 10.017911 6.236957 0.902314 0.701065 -0.709831 -0.068171 0.407843 0.333333
  0 10.954976 7.350100 0.927167 0.701065 -0.709831 -0.068171 0.470588 0.341176
  0 10.619074 7.801865 1.928405 0.427754 -0.449594 0.784150 0.470588 0.396078
spas-12 pmodel.bmp
  0 10.954976 7.350100 0.927167 0.701065 -0.709831 -0.068171 0.470588 0.341176
  0 12.050447 8.958072 1.935764 0.404398 -0.502385 0.764246 0.556863 0.396078
  0 10.619074 7.801865 1.928405 0.427754 -0.449594 0.784150 0.470588 0.396078
spas-12 pmodel.bmp
  0 10.619074 7.801865 1.928405 0.427754 -0.449594 0.784150 0.470588 0.396078
  0 12.050447 8.958072 1.935764 0.404398 -0.502385 0.764246 0.556863 0.396078
  0 11.146962 9.289260 1.990794 0.040195 -0.056110 0.997615 0.537255 0.431373
spas-12 pmodel.bmp
  0 12.050447 8.958072 1.935764 0.404398 -0.502385 0.764246 0.556863 0.396078
  0 11.797924 9.267059 1.963317 0.040195 -0.056110 0.997615 0.556863 0.411765
  0 11.146962 9.289260 1.990794 0.040195 -0.056110 0.997615 0.537255 0.431373
spas-12 pmodel.bmp
  0 -9.233768 -5.198204 1.766557 -0.392344 0.349101 0.850996 0.019608 0.705882
  0 -2.543276 1.142744 1.121891 -0.631308 0.772467 0.068883 0.470588 0.764706
  0 -9.722793 -4.721195 1.081344 -0.745186 0.663448 0.067340 0.019608 0.764706
spas-12 pmodel.bmp
  0 -9.722793 -4.721195 1.081344 -0.745186 0.663448 0.067340 0.019608 0.764706
  0 -2.543276 1.142744 1.121891 -0.631308 0.772467 0.068883 0.470588 0.764706
  0 -9.292050 -5.116844 0.320015 -0.457750 0.440405 -0.772340 0.019608 0.705882
spas-12 pmodel.bmp
  0 -2.543276 1.142744 1.121891 -0.631308 0.772467 0.068883 0.470588 0.764706
  0 -2.174491 0.696490 0.360211 -0.381317 0.472360 -0.794653 0.470588 0.705882
  0 -9.292050 -5.116844 0.320015 -0.457750 0.440405 -0.772340 0.019608 0.705882
spas-12 pmodel.bmp
  0 -9.292050 -5.116844 0.320015 -0.457750 0.440405 -0.772340 0.019608 0.705882
  0 -2.174491 0.696490 0.360211 -0.381317 0.472360 -0.794653 0.470588 0.705882
  0 -8.120093 -6.645659 0.186808 0.206729 0.004177 -0.978389 0.019608 0.611765
spas-12 pmodel.bmp
  0 -2.174491 0.696490 0.360211 -0.381317 0.472360 -0.794653 0.470588 0.705882
  0 -0.956066 -0.794371 0.227268 0.254421 -0.305157 -0.917687 0.470588 0.611765
  0 -8.120093 -6.645659 0.186808 0.206729 0.004177 -0.978389 0.019608 0.611765
spas-12 pmodel.bmp
  0 -8.120093 -6.645659 0.186808 0.206729 0.004177 -0.978389 0.019608 0.611765
  0 -0.956066 -0.794371 0.227268 0.254421 -0.305157 -0.917687 0.470588 0.611765
  0 -0.692690 -1.118507 0.469071 0.589488 -0.719089 -0.367989 0.470588 0.576471
spas-12 pmodel.bmp
  0 12.938855 11.137179 0.448779 0.600899 0.543369 -0.586234 0.827451 0.858824
  0 12.391227 11.550192 1.105531 -0.090313 0.994131 0.059553 0.819608 0.905882
  0 12.584589 11.566432 1.098654 -0.090313 0.994131 0.059553 0.827451 0.898039
spas-12 pmodel.bmp
  0 12.584589 11.566432 1.098654 -0.090313 0.994131 0.059553 0.827451 0.898039
  0 12.391227 11.550192 1.105531 -0.090313 0.994131 0.059553 0.819608 0.905882
  0 12.987893 11.068724 1.665870 0.648424 0.477027 0.593289 0.827451 0.858824
spas-12 pmodel.bmp
  0 12.391227 11.550192 1.105531 -0.090313 0.994131 0.059553 0.819608 0.905882
  0 12.868396 10.961341 1.774908 0.648424 0.477027 0.593289 0.819608 0.858824
  0 12.987893 11.068724 1.665870 0.648424 0.477027 0.593289 0.827451 0.858824
spas-12 pmodel.bmp
  0 12.987893 11.068724 1.665870 0.648424 0.477027 0.593289 0.827451 0.858824
  0 12.868396 10.961341 1.774908 0.648424 0.477027 0.593289 0.819608 0.858824
  0 13.348472 10.631747 1.015306 0.956461 -0.286697 -0.054662 0.827451 0.815686
spas-12 pmodel.bmp
  0 12.868396 10.961341 1.774908 0.648424 0.477027 0.593289 0.819608 0.858824
  0 13.293998 10.445564 1.007029 0.956461 -0.286697 -0.054662 0.819608 0.807843
  0 13.348472 10.631747 1.015306 0.956461 -0.286697 -0.054662 0.827451 0.815686
spas-12 pmodel.bmp
  0 13.348472 10.631747 1.015306 0.956461 -0.286697 -0.054662 0.827451 0.815686
  0 13.293998 10.445564 1.007029 0.956461 -0.286697 -0.054662 0.819608 0.807843
  0 12.810516 11.042140 0.338342 0.600899 0.543369 -0.586234 0.819608 0.858824
spas-12 pmodel.bmp
  0 12.810516 11.042140 0.338342 -0.040194 0.056109 -0.997615 0.819608 0.858824
  0 11.965258 11.202278 1.103126 -0.631308 0.772467 0.068883 0.792157 0.905882
  0 12.391227 11.550192 1.105531 -0.631308 0.772467 0.068883 0.819608 0.905882
spas-12 pmodel.bmp
  0 12.391227 11.550192 1.105531 -0.631308 0.772467 0.068883 0.819608 0.905882
  0 11.965258 11.202278 1.103126 -0.631308 0.772467 0.068883 0.792157 0.905882
  0 12.868396 10.961341 1.774908 0.040195 -0.056110 0.997615 0.819608 0.858824
spas-12 pmodel.bmp
  0 11.965258 11.202278 1.103126 -0.631308 0.772467 0.068883 0.792157 0.905882
  0 12.442427 10.613427 1.772502 0.040195 -0.056110 0.997615 0.792157 0.858824
  0 12.868396 10.961341 1.774908 0.040195 -0.056110 0.997615 0.819608 0.858824
spas-12 pmodel.bmp
  0 12.868396 10.961341 1.774908 0.040195 -0.056110 0.997615 0.819608 0.858824
  0 12.442427 10.613427 1.772502 0.040195 -0.056110 0.997615 0.792157 0.858824
  0 13.293998 10.445564 1.007029 0.631308 -0.772467 -0.068883 0.819608 0.807843
spas-12 pmodel.bmp
  0 12.442427 10.613427 1.772502 0.040195 -0.056110 0.997615 0.792157 0.858824
  0 12.868029 10.097650 1.004623 0.631308 -0.772467 -0.068883 0.792157 0.807843
  0 13.293998 10.445564 1.007029 0.631308 -0.772467 -0.068883 0.819608 0.807843
spas-12 pmodel.bmp
  0 13.293998 10.445564 1.007029 0.631308 -0.772467 -0.068883 0.819608 0.807843
  0 12.868029 10.097650 1.004623 0.631308 -0.772467 -0.068883 0.792157 0.807843
  0 12.384547 10.694226 0.335936 -0.040194 0.056109 -0.997615 0.792157 0.858824
spas-12 pmodel.bmp
  0 12.384547 10.694226 0.335936 -0.676969 -0.505562 -0.534902 0.792157 0.858824
  0 11.923410 11.000646 1.093471 -0.974928 0.216490 0.051457 0.784314 0.898039
  0 11.965258 11.202278 1.103126 -0.974928 0.216490 0.051457 0.792157 0.905882
spas-12 pmodel.bmp
  0 11.965258 11.202278 1.103126 -0.974928 0.216490 0.051457 0.792157 0.905882
  0 11.923410 11.000646 1.093471 -0.974928 0.216490 0.051457 0.784314 0.898039
  0 12.442427 10.613427 1.772502 -0.634163 -0.565316 0.527498 0.792157 0.858824
spas-12 pmodel.bmp
  0 11.923410 11.000646 1.093471 -0.974928 0.216490 0.051457 0.784314 0.898039
  0 12.313284 10.519510 1.642112 -0.634163 -0.565316 0.527498 0.784314 0.858824
  0 12.442427 10.613427 1.772502 -0.634163 -0.565316 0.527498 0.792157 0.858824
spas-12 pmodel.bmp
  0 12.442427 10.613427 1.772502 -0.634163 -0.565316 0.527498 0.792157 0.858824
  0 12.313284 10.519510 1.642112 -0.634163 -0.565316 0.527498 0.784314 0.858824
  0 12.868029 10.097650 1.004623 0.017811 -0.998223 -0.056862 0.792157 0.807843
spas-12 pmodel.bmp
  0 12.313284 10.519510 1.642112 -0.634163 -0.565316 0.527498 0.784314 0.858824
  0 12.662041 10.096860 1.012878 0.017811 -0.998223 -0.056862 0.784314 0.815686
  0 12.868029 10.097650 1.004623 0.017811 -0.998223 -0.056862 0.792157 0.807843
spas-12 pmodel.bmp
  0 12.868029 10.097650 1.004623 0.017811 -0.998223 -0.056862 0.792157 0.807843
  0 12.662041 10.096860 1.012878 0.017811 -0.998223 -0.056862 0.784314 0.815686
  0 12.265854 10.585720 0.464926 -0.676969 -0.505562 -0.534902 0.784314 0.858824
spas-12 pmodel.bmp
  0 12.265854 10.585720 0.464926 -0.040194 0.056109 -0.997615 0.772549 0.858824
  0 10.575798 9.899971 1.085860 -0.631308 0.772467 0.068883 0.713725 0.898039
  0 11.923410 11.000646 1.093471 -0.631308 0.772467 0.068883 0.772549 0.898039
spas-12 pmodel.bmp
  0 11.923410 11.000646 1.093471 -0.631308 0.772467 0.068883 0.772549 0.898039
  0 10.575798 9.899971 1.085860 -0.631308 0.772467 0.068883 0.713725 0.898039
  0 12.313284 10.519510 1.642112 0.040195 -0.056110 0.997615 0.772549 0.858824
spas-12 pmodel.bmp
  0 10.575798 9.899971 1.085860 -0.631308 0.772467 0.068883 0.713725 0.898039
  0 10.965672 9.418835 1.634501 0.040195 -0.056110 0.997615 0.713725 0.858824
  0 12.313284 10.519510 1.642112 0.040195 -0.056110 0.997615 0.772549 0.858824
spas-12 pmodel.bmp
  0 12.313284 10.519510 1.642112 0.040195 -0.056110 0.997615 0.772549 0.858824
  0 10.965672 9.418835 1.634501 0.040195 -0.056110 0.997615 0.713725 0.858824
  0 12.662041 10.096860 1.012878 0.631308 -0.772467 -0.068883 0.772549 0.819608
spas-12 pmodel.bmp
  0 10.965672 9.418835 1.634501 0.040195 -0.056110 0.997615 0.713725 0.858824
  0 11.314429 8.996185 1.005268 0.631308 -0.772467 -0.068883 0.713725 0.819608
  0 12.662041 10.096860 1.012878 0.631308 -0.772467 -0.068883 0.772549 0.819608
spas-12 pmodel.bmp
  0 12.662041 10.096860 1.012878 0.631308 -0.772467 -0.068883 0.772549 0.819608
  0 11.314429 8.996185 1.005268 0.631308 -0.772467 -0.068883 0.713725 0.819608
  0 10.918243 9.485045 0.457315 -0.040194 0.056109 -0.997615 0.713725 0.858824
spas-12 pmodel.bmp
  0 17.140598 16.425626 0.556886 -0.040194 0.056109 -0.997615 0.992157 0.952941
  0 15.265686 15.649742 1.220295 -0.631308 0.772467 0.068883 0.909804 0.988235
  0 16.768196 16.876931 1.228780 -0.631308 0.772467 0.068883 0.992157 0.988235
spas-12 pmodel.bmp
  0 16.768196 16.876931 1.228780 -0.631308 0.772467 0.068883 0.992157 0.988235
  0 15.265686 15.649742 1.220295 -0.631308 0.772467 0.068883 0.909804 0.988235
  0 17.191645 16.354366 1.823858 0.040195 -0.056110 0.997615 0.992157 0.952941
spas-12 pmodel.bmp
  0 15.265686 15.649742 1.220295 -0.631308 0.772467 0.068883 0.909804 0.988235
  0 15.689135 15.127177 1.815372 0.040195 -0.056110 0.997615 0.909804 0.952941
  0 17.191645 16.354366 1.823858 0.040195 -0.056110 0.997615 0.992157 0.952941
spas-12 pmodel.bmp
  0 17.191645 16.354366 1.823858 0.040195 -0.056110 0.997615 0.992157 0.952941
  0 15.689135 15.127177 1.815372 0.040195 -0.056110 0.997615 0.909804 0.952941
  0 17.569958 15.895898 1.141299 0.631308 -0.772467 -0.068883 0.992157 0.913725
spas-12 pmodel.bmp
  0 15.689135 15.127177 1.815372 0.040195 -0.056110 0.997615 0.909804 0.952941
  0 16.067448 14.668709 1.132813 0.631308 -0.772467 -0.068883 0.909804 0.913725
  0 17.569958 15.895898 1.141299 0.631308 -0.772467 -0.068883 0.992157 0.913725
spas-12 pmodel.bmp
  0 17.569958 15.895898 1.141299 0.631308 -0.772467 -0.068883 0.992157 0.913725
  0 16.067448 14.668709 1.132813 0.631308 -0.772467 -0.068883 0.909804 0.913725
  0 15.638088 15.198437 0.548401 -0.040194 0.056109 -0.997615 0.909804 0.952941
spas-12 pmodel.bmp
  0 15.521807 15.086565 0.737248 -0.040194 0.056109 -0.997615 0.309804 0.039216
  0 9.592454 10.771337 1.174489 -0.631308 0.772467 0.068883 0.513725 0.062745
  0 15.261716 15.401761 1.206507 -0.631308 0.772467 0.068883 0.309804 0.062745
spas-12 pmodel.bmp
  0 15.261716 15.401761 1.206507 -0.631308 0.772467 0.068883 0.309804 0.062745
  0 9.592454 10.771337 1.174489 -0.631308 0.772467 0.068883 0.513725 0.062745
  0 15.557580 15.036627 1.625125 0.040195 -0.056110 0.997615 0.309804 0.039216
spas-12 pmodel.bmp
  0 9.592454 10.771337 1.174489 -0.631308 0.772467 0.068883 0.513725 0.062745
  0 9.888317 10.406202 1.593108 0.040195 -0.056110 0.997615 0.513725 0.039216
  0 15.557580 15.036627 1.625125 0.040195 -0.056110 0.997615 0.309804 0.039216
spas-12 pmodel.bmp
  0 15.557580 15.036627 1.625125 0.040195 -0.056110 0.997615 0.309804 0.039216
  0 9.888317 10.406202 1.593108 0.040195 -0.056110 0.997615 0.513725 0.039216
  0 15.823581 14.714266 1.145201 0.631308 -0.772467 -0.068883 0.309804 0.011765
spas-12 pmodel.bmp
  0 9.888317 10.406202 1.593108 0.040195 -0.056110 0.997615 0.513725 0.039216
  0 10.154318 10.083842 1.113184 0.631308 -0.772467 -0.068883 0.513725 0.011765
  0 15.823581 14.714266 1.145201 0.631308 -0.772467 -0.068883 0.309804 0.011765
spas-12 pmodel.bmp
  0 15.823581 14.714266 1.145201 0.631308 -0.772467 -0.068883 0.309804 0.011765
  0 10.154318 10.083842 1.113184 0.631308 -0.772467 -0.068883 0.513725 0.011765
  0 9.852544 10.456140 0.705230 -0.040194 0.056109 -0.997615 0.513725 0.039216
spas-12 pmodel.bmp
  0 12.050447 8.958072 1.935764 0.404398 -0.502385 0.764246 0.556863 0.396078
  0 10.954976 7.350100 0.927167 0.701065 -0.709831 -0.068171 0.470588 0.341176
  0 12.403272 8.533009 0.935346 0.631308 -0.772467 -0.068883 0.556863 0.345098
spas-12 pmodel.bmp
  0 12.403272 8.533009 0.935346 0.631308 -0.772467 -0.068883 0.556863 0.345098
  0 10.954976 7.350100 0.927167 0.701065 -0.709831 -0.068171 0.470588 0.341176
  0 11.973676 9.065243 0.030319 0.339534 -0.411838 -0.845639 0.556863 0.396078
spas-12 pmodel.bmp
  0 10.954976 7.350100 0.927167 0.701065 -0.709831 -0.068171 0.470588 0.341176
  0 10.542302 7.909036 0.022960 0.361456 -0.357046 -0.861318 0.470588 0.396078
  0 11.973676 9.065243 0.030319 0.339534 -0.411838 -0.845639 0.556863 0.396078
spas-12 pmodel.bmp
  0 11.973676 9.065243 0.030319 0.339534 -0.411838 -0.845639 0.556863 0.396078
  0 10.542302 7.909036 0.022960 0.361456 -0.357046 -0.861318 0.470588 0.396078
  0 11.070190 9.396430 0.085349 -0.040194 0.056109 -0.997615 0.537255 0.431373
spas-12 pmodel.bmp
  0 10.542302 7.909036 0.022960 0.361456 -0.357046 -0.861318 0.470588 0.396078
  0 9.155376 9.906319 0.191176 -0.337970 0.419619 -0.842435 0.478431 0.505882
  0 11.070190 9.396430 0.085349 -0.040194 0.056109 -0.997615 0.537255 0.431373
spas-12 pmodel.bmp
  0 11.070190 9.396430 0.085349 -0.040194 0.056109 -0.997615 0.537255 0.431373
  0 9.155376 9.906319 0.191176 -0.337970 0.419619 -0.842435 0.478431 0.505882
  0 10.413629 10.199796 0.156987 -0.040194 0.056109 -0.997615 0.537255 0.478431
spas-12 pmodel.bmp
  0 -8.061811 -6.727019 1.633350 0.284545 -0.104450 0.952956 0.019608 0.611765
  0 -9.233768 -5.198204 1.766557 -0.392344 0.349101 0.850996 0.019608 0.705882
  0 -9.458630 -5.523553 1.757317 -0.357965 0.313415 0.879564 0.003922 0.698039
spas-12 pmodel.bmp
  0 -8.061811 -6.727019 1.633350 0.284545 -0.104450 0.952956 0.019608 0.611765
  0 -2.116209 0.615130 1.806753 -0.314224 0.378702 0.870545 0.470588 0.705882
  0 -9.233768 -5.198204 1.766557 -0.392344 0.349101 0.850996 0.019608 0.705882
spas-12 pmodel.bmp
  0 -8.061811 -6.727019 1.633350 0.284545 -0.104450 0.952956 0.019608 0.611765
  0 -0.897784 -0.875731 1.673810 0.325820 -0.404825 0.854376 0.470588 0.611765
  0 -2.116209 0.615130 1.806753 -0.314224 0.378702 0.870545 0.470588 0.705882
spas-12 pmodel.bmp
  0 -8.061811 -6.727019 1.633350 0.284545 -0.104450 0.952956 0.019608 0.611765
  0 -0.656515 -1.169007 1.366924 0.613800 -0.753143 0.236696 0.470588 0.576471
  0 -0.897784 -0.875731 1.673810 0.325820 -0.404825 0.854376 0.470588 0.611765
spas-12 pmodel.bmp
  0 -8.061811 -6.727019 1.633350 0.284545 -0.104450 0.952956 0.019608 0.611765
  0 -7.696624 -6.919083 1.327165 0.904915 -0.023680 0.424932 0.031373 0.576471
  0 -0.656515 -1.169007 1.366924 0.613800 -0.753143 0.236696 0.470588 0.576471
spas-12 pmodel.bmp
  0 -8.500404 -8.592314 1.546109 -0.167262 -0.446931 0.878792 0.600000 0.741176
  0 -10.762828 -8.636838 1.634759 -0.451629 -0.662405 0.597705 0.529412 0.796078
  0 -8.963461 -8.905593 0.815401 -0.412474 -0.910313 -0.034581 0.560784 0.741176
spas-12 pmodel.bmp
  0 -8.500404 -8.592314 1.546109 -0.167262 -0.446931 0.878792 0.600000 0.741176
  0 -11.276336 -7.265801 1.732562 -0.756379 0.045794 0.652529 0.552941 0.850980
  0 -10.762828 -8.636838 1.634759 -0.451629 -0.662405 0.597705 0.529412 0.796078
spas-12 pmodel.bmp
  0 -8.500404 -8.592314 1.546109 -0.167262 -0.446931 0.878792 0.600000 0.741176
  0 -10.500807 -6.065618 1.768819 -0.481863 0.521652 0.704051 0.607843 0.866667
  0 -11.276336 -7.265801 1.732562 -0.756379 0.045794 0.652529 0.552941 0.850980
spas-12 pmodel.bmp
  0 -8.500404 -8.592314 1.546109 -0.167262 -0.446931 0.878792 0.600000 0.741176
  0 -8.061811 -6.727019 1.633350 0.284545 -0.104450 0.952956 0.658824 0.784314
  0 -10.500807 -6.065618 1.768819 -0.481863 0.521652 0.704051 0.607843 0.866667
spas-12 pmodel.bmp
  0 -8.500404 -8.592314 1.546109 -0.167262 -0.446931 0.878792 0.600000 0.741176
  0 -7.049960 -8.154744 1.512281 0.590838 0.188922 0.784359 0.650980 0.721569
  0 -8.061811 -6.727019 1.633350 0.284545 -0.104450 0.952956 0.658824 0.784314
spas-12 pmodel.bmp
  0 -10.559089 -5.984258 0.322277 -0.534417 0.595014 -0.600298 0.760784 0.745098
  0 -11.334618 -7.184441 0.286020 -0.806060 0.115146 -0.580524 0.760784 0.674510
  0 -10.530149 -6.024658 1.040560 -0.778131 0.624574 0.066481 0.792157 0.745098
spas-12 pmodel.bmp
  0 -10.530149 -6.024658 1.040560 -0.778131 0.624574 0.066481 0.792157 0.745098
  0 -11.334618 -7.184441 0.286020 -0.806060 0.115146 -0.580524 0.760784 0.674510
  0 -11.276336 -7.265801 1.732562 -0.756379 0.045794 0.652529 0.827451 0.674510
spas-12 pmodel.bmp
  0 -11.334618 -7.184441 0.286020 -0.806060 0.115146 -0.580524 0.760784 0.674510
  0 -10.821110 -8.555478 0.188217 -0.501092 -0.593356 -0.629949 0.760784 0.600000
  0 -11.276336 -7.265801 1.732562 -0.756379 0.045794 0.652529 0.827451 0.674510
spas-12 pmodel.bmp
  0 -11.276336 -7.265801 1.732562 -0.756379 0.045794 0.652529 0.827451 0.674510
  0 -10.821110 -8.555478 0.188217 -0.501092 -0.593356 -0.629949 0.760784 0.600000
  0 -10.762828 -8.636838 1.634759 -0.451629 -0.662405 0.597705 0.827451 0.600000
spas-12 pmodel.bmp
  0 -10.821110 -8.555478 0.188217 -0.501092 -0.593356 -0.629949 0.760784 0.600000
  0 -8.963461 -8.905593 0.815401 -0.412474 -0.910313 -0.034581 0.792157 0.505882
  0 -10.762828 -8.636838 1.634759 -0.451629 -0.662405 0.597705 0.827451 0.600000
spas-12 pmodel.bmp
  0 15.365171 15.115349 1.446851 -0.455800 0.553238 0.697262 0.850980 0.411765
  0 15.142487 15.389210 1.270748 -0.267424 0.321138 0.908490 0.850980 0.427451
  0 14.644897 14.527059 1.442783 -0.455800 0.553238 0.697262 0.800000 0.411765
spas-12 pmodel.bmp
  0 14.644897 14.527059 1.442783 -0.455800 0.553238 0.697262 0.800000 0.411765
  0 15.142487 15.389210 1.270748 -0.267424 0.321138 0.908490 0.850980 0.427451
  0 14.422213 14.800920 1.266680 -0.245746 0.294493 0.923517 0.800000 0.427451
spas-12 pmodel.bmp
  0 15.142487 15.389210 1.270748 -0.267424 0.321138 0.908490 0.850980 0.427451
  0 14.434684 15.907764 1.308384 -0.397849 0.481707 0.780817 0.839216 0.474510
  0 14.422213 14.800920 1.266680 -0.245746 0.294493 0.923517 0.800000 0.427451
spas-12 pmodel.bmp
  0 14.422213 14.800920 1.266680 -0.245746 0.294493 0.923517 0.800000 0.427451
  0 14.434684 15.907764 1.308384 -0.397849 0.481707 0.780817 0.839216 0.474510
  0 13.884797 15.458638 1.305278 -0.431334 0.523021 0.735119 0.800000 0.474510
spas-12 pmodel.bmp
  0 14.434684 15.907764 1.308384 -0.397849 0.481707 0.780817 0.839216 0.474510
  0 13.881582 15.463127 1.225469 -0.486536 0.600081 -0.634969 0.800000 0.482353
  0 13.884797 15.458638 1.305278 -0.431334 0.523021 0.735119 0.800000 0.474510
spas-12 pmodel.bmp
  0 -7.423787 -6.650912 1.110729 0.774489 0.632573 0.004375 0.537255 0.525490
  0 -6.539955 -7.732366 1.014293 0.254426 0.966087 0.044086 0.603922 0.525490
  0 -7.442277 -6.625102 0.651826 0.774489 0.632573 0.004375 0.537255 0.545098
spas-12 pmodel.bmp
  0 -7.442277 -6.625102 0.651826 0.774489 0.632573 0.004375 0.537255 0.545098
  0 -6.539955 -7.732366 1.014293 0.254426 0.966087 0.044086 0.603922 0.525490
  0 -6.558445 -7.706555 0.555390 0.254426 0.966087 0.044086 0.603922 0.545098
spas-12 pmodel.bmp
  0 -6.539955 -7.732366 1.014293 0.254426 0.966087 0.044086 0.603922 0.525490
  0 -5.630287 -7.375814 0.997696 -0.504228 0.860831 0.068733 0.639216 0.525490
  0 -6.558445 -7.706555 0.555390 0.254426 0.966087 0.044086 0.603922 0.545098
spas-12 pmodel.bmp
  0 -6.558445 -7.706555 0.555390 0.254426 0.966087 0.044086 0.603922 0.545098
  0 -5.630287 -7.375814 0.997696 -0.504228 0.860831 0.068733 0.639216 0.525490
  0 -5.648777 -7.350003 0.538793 -0.504228 0.860831 0.068733 0.639216 0.545098
spas-12 pmodel.bmp
  0 -5.630287 -7.375814 0.997696 -0.504228 0.860831 0.068733 0.639216 0.525490
  0 -5.098890 -6.900877 0.541899 -0.881206 0.468667 0.061865 0.670588 0.545098
  0 -5.648777 -7.350003 0.538793 -0.504228 0.860831 0.068733 0.639216 0.545098
spas-12 pmodel.bmp
  0 -6.808215 -6.139244 1.014467 0.991884 0.122772 -0.033059 0.992157 0.270588
  0 -6.760768 -6.718777 0.979960 0.884972 0.465548 -0.009472 0.960784 0.270588
  0 -6.818264 -6.125216 0.765063 0.991884 0.122772 -0.033059 0.992157 0.258824
spas-12 pmodel.bmp
  0 -6.818264 -6.125216 0.765063 0.991884 0.122772 -0.033059 0.992157 0.258824
  0 -6.760768 -6.718777 0.979960 0.884972 0.465548 -0.009472 0.960784 0.270588
  0 -6.770817 -6.704749 0.730556 0.884972 0.465548 -0.009472 0.960784 0.258824
spas-12 pmodel.bmp
  0 -6.760768 -6.718777 0.979960 0.884972 0.465548 -0.009472 0.960784 0.270588
  0 -6.086180 -7.275561 0.921464 0.848613 -0.525162 -0.063729 0.917647 0.270588
  0 -6.770817 -6.704749 0.730556 0.884972 0.465548 -0.009472 0.960784 0.258824
spas-12 pmodel.bmp
  0 -6.770817 -6.704749 0.730556 0.884972 0.465548 -0.009472 0.960784 0.258824
  0 -6.086180 -7.275561 0.921464 0.848613 -0.525162 -0.063729 0.917647 0.270588
  0 -6.096229 -7.261533 0.672060 0.848613 -0.525162 -0.063729 0.917647 0.258824
spas-12 pmodel.bmp
  0 -6.086180 -7.275561 0.921464 0.848613 -0.525162 -0.063729 0.917647 0.270588
  0 -7.067727 -6.831324 0.735400 -0.680010 -0.733072 -0.013833 0.862745 0.258824
  0 -6.096229 -7.261533 0.672060 0.848613 -0.525162 -0.063729 0.917647 0.258824
spas-12 pmodel.bmp
  0 -2.756091 1.361211 0.350864 -0.834844 0.113172 -0.538728 0.874510 0.109804
  0 -1.026306 -0.755348 0.162125 -0.328833 -0.658521 -0.676918 0.874510 0.027451
  0 -2.692182 1.271995 1.937072 -0.792758 0.059902 0.606586 0.913725 0.109804
spas-12 pmodel.bmp
  0 -2.692182 1.271995 1.937072 -0.792758 0.059902 0.606586 0.913725 0.109804
  0 -1.026306 -0.755348 0.162125 -0.328833 -0.658521 -0.676918 0.874510 0.027451
  0 -0.962397 -0.844563 1.748333 -0.213885 -0.714816 0.665801 0.913725 0.027451
spas-12 pmodel.bmp
  0 -1.026306 -0.755348 0.162125 -0.328833 -0.658521 -0.676918 0.874510 0.027451
  0 -0.684477 -1.174855 0.305188 -0.774490 -0.632571 -0.004374 0.878431 0.011765
  0 -0.962397 -0.844563 1.748333 -0.213885 -0.714816 0.665801 0.913725 0.027451
spas-12 pmodel.bmp
  0 -0.962397 -0.844563 1.748333 -0.213885 -0.714816 0.665801 0.913725 0.027451
  0 -0.684477 -1.174855 0.305188 -0.774490 -0.632571 -0.004374 0.878431 0.011765
  0 -0.486976 -1.422268 1.115299 -0.031780 -0.985243 0.168183 0.898039 0.003922
spas-12 pmodel.bmp
  0 -0.684477 -1.174855 0.305188 -0.774490 -0.632571 -0.004374 0.878431 0.011765
  0 -0.504259 -1.398140 0.686325 -0.099621 -0.959833 -0.262290 0.890196 0.003922
  0 -0.486976 -1.422268 1.115299 -0.031780 -0.985243 0.168183 0.898039 0.003922
spas-12 pmodel.bmp
  0 9.430142 10.928006 0.397952 -0.434487 0.536964 -0.723112 0.776471 0.321569
  0 2.087983 4.931227 0.356487 -0.358245 0.618732 -0.699164 0.313725 0.321569
  0 9.494052 10.838790 1.984160 -0.372668 0.450669 0.811182 0.776471 0.235294
spas-12 pmodel.bmp
  0 9.494052 10.838790 1.984160 -0.372668 0.450669 0.811182 0.776471 0.235294
  0 2.087983 4.931227 0.356487 -0.358245 0.618732 -0.699164 0.313725 0.321569
  0 2.151892 4.842011 1.942695 -0.298225 0.534947 0.790502 0.313725 0.235294
spas-12 pmodel.bmp
  0 2.087983 4.931227 0.356487 -0.358245 0.618732 -0.699164 0.313725 0.321569
  0 1.224784 4.612629 0.373346 -0.392620 0.680238 -0.618972 0.270588 0.321569
  0 2.151892 4.842011 1.942695 -0.298225 0.534947 0.790502 0.313725 0.235294
spas-12 pmodel.bmp
  0 2.151892 4.842011 1.942695 -0.298225 0.534947 0.790502 0.313725 0.235294
  0 1.224784 4.612629 0.373346 -0.392620 0.680238 -0.618972 0.270588 0.321569
  0 1.288694 4.523414 1.959554 -0.338642 0.604888 0.720717 0.270588 0.235294
spas-12 pmodel.bmp
  0 1.224784 4.612629 0.373346 -0.392620 0.680238 -0.618972 0.270588 0.321569
  0 -2.692182 1.271995 1.937072 -0.792758 0.059902 0.606586 0.011765 0.235294
  0 1.288694 4.523414 1.959554 -0.338642 0.604888 0.720717 0.270588 0.235294
spas-12 pmodel.bmp
  0 11.703488 8.534410 1.184146 0.613800 -0.753143 0.236696 0.803922 0.027451
  0 11.228067 9.112115 1.817180 0.325820 -0.404825 0.854376 0.803922 0.078431
  0 -0.486976 -1.422268 1.115299 -0.031780 -0.985243 0.168183 0.007843 0.027451
spas-12 pmodel.bmp
  0 -0.486976 -1.422268 1.115299 -0.031780 -0.985243 0.168183 0.007843 0.027451
  0 11.228067 9.112115 1.817180 0.325820 -0.404825 0.854376 0.803922 0.078431
  0 -0.962397 -0.844563 1.748333 -0.213885 -0.714816 0.665801 0.007843 0.078431
spas-12 pmodel.bmp
  0 11.228067 9.112115 1.817180 0.325820 -0.404825 0.854376 0.803922 0.078431
  0 10.161156 10.417583 1.933592 0.040195 -0.056110 0.997615 0.803922 0.164706
  0 -0.962397 -0.844563 1.748333 -0.213885 -0.714816 0.665801 0.007843 0.078431
spas-12 pmodel.bmp
  0 -0.962397 -0.844563 1.748333 -0.213885 -0.714816 0.665801 0.007843 0.078431
  0 10.161156 10.417583 1.933592 0.040195 -0.056110 0.997615 0.803922 0.164706
  0 2.151892 4.842011 1.942695 -0.298225 0.534947 0.790502 0.313725 0.207843
spas-12 pmodel.bmp
  0 10.161156 10.417583 1.933592 0.040195 -0.056110 0.997615 0.803922 0.164706
  0 9.494052 10.838790 1.984160 -0.372668 0.450669 0.811182 0.788235 0.207843
  0 2.151892 4.842011 1.942695 -0.298225 0.534947 0.790502 0.313725 0.207843
spas-12 pmodel.bmp
  0 -1.026306 -0.755348 0.162125 -0.328833 -0.658521 -0.676918 0.007843 0.078431
  0 11.164158 9.201330 0.230972 0.254421 -0.305157 -0.917687 0.803922 0.078431
  0 -0.504259 -1.398140 0.686325 -0.099621 -0.959833 -0.262290 0.007843 0.027451
spas-12 pmodel.bmp
  0 -1.026306 -0.755348 0.162125 -0.328833 -0.658521 -0.676918 0.007843 0.078431
  0 10.097246 10.506799 0.347384 -0.040194 0.056109 -0.997615 0.803922 0.164706
  0 11.164158 9.201330 0.230972 0.254421 -0.305157 -0.917687 0.803922 0.078431
spas-12 pmodel.bmp
  0 -1.026306 -0.755348 0.162125 -0.328833 -0.658521 -0.676918 0.007843 0.078431
  0 2.087983 4.931227 0.356487 -0.358245 0.618732 -0.699164 0.313725 0.207843
  0 10.097246 10.506799 0.347384 -0.040194 0.056109 -0.997615 0.803922 0.164706
spas-12 pmodel.bmp
  0 -1.026306 -0.755348 0.162125 -0.328833 -0.658521 -0.676918 0.007843 0.078431
  0 1.224784 4.612629 0.373346 -0.392620 0.680238 -0.618972 0.266667 0.223529
  0 2.087983 4.931227 0.356487 -0.358245 0.618732 -0.699164 0.313725 0.207843
spas-12 pmodel.bmp
  0 -1.026306 -0.755348 0.162125 -0.328833 -0.658521 -0.676918 0.007843 0.078431
  0 -2.756091 1.361211 0.350864 -0.834844 0.113172 -0.538728 0.007843 0.223529
  0 1.224784 4.612629 0.373346 -0.392620 0.680238 -0.618972 0.266667 0.223529
spas-12 pmodel.bmp
  0 -9.722793 -4.721195 1.081344 -0.745186 0.663448 0.067340 0.847059 0.019608
  0 -9.458630 -5.523553 1.757317 -0.357965 0.313415 0.879564 0.815686 0.074510
  0 -9.233768 -5.198204 1.766557 -0.392344 0.349101 0.850996 0.831373 0.074510
spas-12 pmodel.bmp
  0 -9.722793 -4.721195 1.081344 -0.745186 0.663448 0.067340 0.847059 0.019608
  0 -10.530149 -6.024658 1.040560 -0.778131 0.624574 0.066481 0.760784 0.019608
  0 -9.458630 -5.523553 1.757317 -0.357965 0.313415 0.879564 0.815686 0.074510
spas-12 pmodel.bmp
  0 -9.722793 -4.721195 1.081344 -0.745186 0.663448 0.067340 0.847059 0.019608
  0 -9.516912 -5.442193 0.310775 -0.425934 0.408296 -0.807387 0.815686 0.074510
  0 -10.530149 -6.024658 1.040560 -0.778131 0.624574 0.066481 0.760784 0.019608
spas-12 pmodel.bmp
  0 -9.722793 -4.721195 1.081344 -0.745186 0.663448 0.067340 0.847059 0.019608
  0 -9.292050 -5.116844 0.320015 -0.457750 0.440405 -0.772340 0.831373 0.074510
  0 -9.516912 -5.442193 0.310775 -0.425934 0.408296 -0.807387 0.815686 0.074510
spas-12 pmodel.bmp
  0 -8.597301 -9.353624 0.775449 -0.937494 -0.347524 0.018226 0.560784 0.721569
  0 -8.004792 -10.905396 1.396043 -0.567184 -0.132410 0.812878 0.568627 0.658824
  0 -8.134245 -9.040344 1.506157 -0.413837 -0.237370 0.878860 0.600000 0.721569
spas-12 pmodel.bmp
  0 -8.134245 -9.040344 1.506157 -0.413837 -0.237370 0.878860 0.600000 0.721569
  0 -8.004792 -10.905396 1.396043 -0.567184 -0.132410 0.812878 0.568627 0.658824
  0 -6.781099 -9.905932 1.402954 0.531002 0.097201 0.841777 0.623529 0.658824
spas-12 pmodel.bmp
  0 -8.004792 -10.905396 1.396043 -0.567184 -0.132410 0.812878 0.568627 0.658824
  0 -6.263880 -11.170893 1.310968 0.403546 0.231994 0.885059 0.611765 0.611765
  0 -6.781099 -9.905932 1.402954 0.531002 0.097201 0.841777 0.623529 0.658824
spas-12 pmodel.bmp
  0 -6.781099 -9.905932 1.402954 0.531002 0.097201 0.841777 0.623529 0.658824
  0 -6.263880 -11.170893 1.310968 0.403546 0.231994 0.885059 0.611765 0.611765
  0 -5.751080 -10.687132 0.585770 0.796933 0.604065 0.001866 0.654902 0.611765
spas-12 pmodel.bmp
  0 -6.640188 -13.191411 1.212486 0.113434 -0.780991 0.614154 0.556863 0.560784
  0 -8.128762 -12.629127 0.572342 -0.848953 -0.528449 0.004483 0.513725 0.611765
  0 -7.110990 -13.511016 0.481734 -0.114272 -0.992129 -0.051198 0.517647 0.560784
spas-12 pmodel.bmp
  0 -7.110990 -13.511016 0.481734 -0.114272 -0.992129 -0.051198 0.517647 0.560784
  0 -8.128762 -12.629127 0.572342 -0.848953 -0.528449 0.004483 0.513725 0.611765
  0 -6.698471 -13.110051 -0.234056 0.060291 -0.706805 -0.704834 0.556863 0.560784
spas-12 pmodel.bmp
  0 -8.128762 -12.629127 0.572342 -0.848953 -0.528449 0.004483 0.513725 0.611765
  0 -7.716243 -12.228162 -0.143448 -0.575692 -0.281297 -0.767757 0.549020 0.611765
  0 -6.698471 -13.110051 -0.234056 0.060291 -0.706805 -0.704834 0.556863 0.560784
spas-12 pmodel.bmp
  0 -6.698471 -13.110051 -0.234056 0.060291 -0.706805 -0.704834 0.556863 0.560784
  0 -7.716243 -12.228162 -0.143448 -0.575692 -0.281297 -0.767757 0.549020 0.611765
  0 -6.322162 -11.089533 -0.135575 0.332308 0.331438 -0.883018 0.611765 0.611765
spas-12 pmodel.bmp
  0 -5.184148 -12.002176 1.220709 0.753676 -0.156003 0.638463 0.925490 0.282353
  0 -5.242430 -11.920816 -0.225833 0.699333 -0.080143 -0.710289 0.925490 0.321569
  0 -4.671347 -11.518415 0.495512 0.991884 0.122772 -0.033059 0.905882 0.301961
spas-12 pmodel.bmp
  0 -5.184148 -12.002176 1.220709 0.753676 -0.156003 0.638463 0.925490 0.282353
  0 -6.698471 -13.110051 -0.234056 0.060291 -0.706805 -0.704834 0.972549 0.321569
  0 -5.242430 -11.920816 -0.225833 0.699333 -0.080143 -0.710289 0.925490 0.321569
spas-12 pmodel.bmp
  0 -5.184148 -12.002176 1.220709 0.753676 -0.156003 0.638463 0.925490 0.282353
  0 -7.110990 -13.511016 0.481734 -0.114272 -0.992129 -0.051198 0.988235 0.301961
  0 -6.698471 -13.110051 -0.234056 0.060291 -0.706805 -0.704834 0.972549 0.321569
spas-12 pmodel.bmp
  0 -5.184148 -12.002176 1.220709 0.753676 -0.156003 0.638463 0.925490 0.282353
  0 -6.640188 -13.191411 1.212486 0.113434 -0.780991 0.614154 0.972549 0.282353
  0 -7.110990 -13.511016 0.481734 -0.114272 -0.992129 -0.051198 0.988235 0.301961
spas-12 pmodel.bmp
  0 15.142487 15.389210 1.270748 0.709893 0.704224 0.011006 0.874510 0.419608
  0 14.431468 15.912252 1.228575 0.591976 0.805670 0.021463 0.882353 0.482353
  0 14.434684 15.907764 1.308384 0.591976 0.805670 0.021463 0.878431 0.482353
spas-12 pmodel.bmp
  0 15.142487 15.389210 1.270748 0.709893 0.704224 0.011006 0.874510 0.419608
  0 15.137664 15.395943 1.151034 0.709893 0.704224 0.011006 0.882353 0.419608
  0 14.431468 15.912252 1.228575 0.591976 0.805670 0.021463 0.882353 0.482353
spas-12 pmodel.bmp
  0 15.142487 15.389210 1.270748 0.709893 0.704224 0.011006 0.874510 0.419608
  0 15.344270 15.144527 0.928091 0.774489 0.632573 0.004375 0.898039 0.407843
  0 15.137664 15.395943 1.151034 0.709893 0.704224 0.011006 0.882353 0.419608
spas-12 pmodel.bmp
  0 15.142487 15.389210 1.270748 0.709893 0.704224 0.011006 0.874510 0.419608
  0 15.365171 15.115349 1.446851 0.774489 0.632573 0.004375 0.858824 0.407843
  0 15.344270 15.144527 0.928091 0.774489 0.632573 0.004375 0.898039 0.407843
spas-12 pmodel.bmp
  0 15.137664 15.395943 1.151034 -0.337970 0.419619 -0.842435 0.850980 0.427451
  0 13.881582 15.463127 1.225469 -0.486536 0.600081 -0.634969 0.800000 0.474510
  0 14.431468 15.912252 1.228575 -0.457010 0.564294 -0.687542 0.839216 0.474510
spas-12 pmodel.bmp
  0 15.137664 15.395943 1.151034 -0.337970 0.419619 -0.842435 0.850980 0.427451
  0 14.417390 14.807653 1.146967 -0.317687 0.394921 -0.862040 0.800000 0.427451
  0 13.881582 15.463127 1.225469 -0.486536 0.600081 -0.634969 0.800000 0.474510
spas-12 pmodel.bmp
  0 15.137664 15.395943 1.151034 -0.337970 0.419619 -0.842435 0.850980 0.427451
  0 14.623996 14.556236 0.924023 -0.507750 0.625759 -0.592128 0.800000 0.411765
  0 14.417390 14.807653 1.146967 -0.317687 0.394921 -0.862040 0.800000 0.427451
spas-12 pmodel.bmp
  0 15.137664 15.395943 1.151034 -0.337970 0.419619 -0.842435 0.850980 0.427451
  0 15.344270 15.144527 0.928091 -0.507750 0.625759 -0.592128 0.850980 0.411765
  0 14.623996 14.556236 0.924023 -0.507750 0.625759 -0.592128 0.800000 0.411765
spas-12 pmodel.bmp
  0 14.417390 14.807653 1.146967 -0.774490 -0.632571 -0.004374 0.874510 0.419608
  0 13.884797 15.458638 1.305278 -0.774490 -0.632571 -0.004374 0.882353 0.482353
  0 13.881582 15.463127 1.225469 -0.774490 -0.632571 -0.004374 0.878431 0.482353
spas-12 pmodel.bmp
  0 14.417390 14.807653 1.146967 -0.774490 -0.632571 -0.004374 0.874510 0.419608
  0 14.422213 14.800920 1.266680 -0.774490 -0.632571 -0.004374 0.882353 0.419608
  0 13.884797 15.458638 1.305278 -0.774490 -0.632571 -0.004374 0.882353 0.482353
spas-12 pmodel.bmp
  0 14.417390 14.807653 1.146967 -0.774490 -0.632571 -0.004374 0.874510 0.419608
  0 14.644897 14.527059 1.442783 -0.774490 -0.632571 -0.004374 0.898039 0.407843
  0 14.422213 14.800920 1.266680 -0.774490 -0.632571 -0.004374 0.882353 0.419608
spas-12 pmodel.bmp
  0 14.417390 14.807653 1.146967 -0.774490 -0.632571 -0.004374 0.874510 0.419608
  0 14.623996 14.556236 0.924023 -0.774490 -0.632571 -0.004374 0.858824 0.407843
  0 14.644897 14.527059 1.442783 -0.774490 -0.632571 -0.004374 0.898039 0.407843
spas-12 pmodel.bmp
  0 -4.997355 -6.111766 1.043291 -0.956481 -0.290951 0.022173 0.705882 0.525490
  0 -5.098890 -6.900877 0.541899 -0.881206 0.468667 0.061865 0.670588 0.545098
  0 -5.080400 -6.926688 1.000802 -0.881206 0.468667 0.061865 0.670588 0.525490
spas-12 pmodel.bmp
  0 -4.997355 -6.111766 1.043291 -0.956481 -0.290951 0.022173 0.705882 0.525490
  0 -5.015844 -6.085955 0.584388 -0.956481 -0.290951 0.022173 0.705882 0.545098
  0 -5.098890 -6.900877 0.541899 -0.881206 0.468667 0.061865 0.670588 0.545098
spas-12 pmodel.bmp
  0 -4.997355 -6.111766 1.043291 -0.956481 -0.290951 0.022173 0.705882 0.525490
  0 -5.716597 -5.228517 0.660848 -0.774490 -0.632571 -0.004374 0.756863 0.545098
  0 -5.015844 -6.085955 0.584388 -0.956481 -0.290951 0.022173 0.705882 0.545098
spas-12 pmodel.bmp
  0 -4.997355 -6.111766 1.043291 -0.956481 -0.290951 0.022173 0.705882 0.525490
  0 -5.698107 -5.254328 1.119751 -0.774490 -0.632571 -0.004374 0.756863 0.525490
  0 -5.716597 -5.228517 0.660848 -0.774490 -0.632571 -0.004374 0.756863 0.545098
spas-12 pmodel.bmp
  0 -1.383373 2.392563 1.365979 -0.774490 -0.632571 -0.004374 0.709804 0.376471
  0 -1.755845 2.848318 1.406619 -0.994040 0.099008 0.045620 0.658824 0.376471
  0 -1.401058 2.417251 0.927028 -0.774490 -0.632571 -0.004374 0.709804 0.333333
spas-12 pmodel.bmp
  0 -1.401058 2.417251 0.927028 -0.774490 -0.632571 -0.004374 0.709804 0.333333
  0 -1.755845 2.848318 1.406619 -0.994040 0.099008 0.045620 0.658824 0.376471
  0 -1.773530 2.873007 0.967669 -0.994040 0.099008 0.045620 0.658824 0.333333
spas-12 pmodel.bmp
  0 -1.755845 2.848318 1.406619 -0.994040 0.099008 0.045620 0.658824 0.376471
  0 -1.662906 2.924227 1.407144 0.101113 0.993525 0.051806 0.650980 0.376471
  0 -1.773530 2.873007 0.967669 -0.994040 0.099008 0.045620 0.658824 0.333333
spas-12 pmodel.bmp
  0 -1.773530 2.873007 0.967669 -0.994040 0.099008 0.045620 0.658824 0.333333
  0 -1.662906 2.924227 1.407144 0.101113 0.993525 0.051806 0.650980 0.376471
  0 -1.680592 2.948915 0.968194 0.101113 0.993525 0.051806 0.650980 0.333333
spas-12 pmodel.bmp
  0 -8.558687 -8.510954 0.099567 -0.239215 -0.346488 -0.907040 0.600000 0.741176
  0 -10.559089 -5.984258 0.322277 -0.534417 0.595014 -0.600298 0.607843 0.866667
  0 -8.120093 -6.645659 0.186808 0.206729 0.004177 -0.978389 0.658824 0.784314
spas-12 pmodel.bmp
  0 -8.558687 -8.510954 0.099567 -0.239215 -0.346488 -0.907040 0.600000 0.741176
  0 -11.334618 -7.184441 0.286020 -0.806060 0.115146 -0.580524 0.552941 0.850980
  0 -10.559089 -5.984258 0.322277 -0.534417 0.595014 -0.600298 0.607843 0.866667
spas-12 pmodel.bmp
  0 -8.558687 -8.510954 0.099567 -0.239215 -0.346488 -0.907040 0.600000 0.741176
  0 -10.821110 -8.555478 0.188217 -0.501092 -0.593356 -0.629949 0.529412 0.796078
  0 -11.334618 -7.184441 0.286020 -0.806060 0.115146 -0.580524 0.552941 0.850980
spas-12 pmodel.bmp
  0 -8.558687 -8.510954 0.099567 -0.239215 -0.346488 -0.907040 0.600000 0.741176
  0 -8.963461 -8.905593 0.815401 -0.412474 -0.910313 -0.034581 0.560784 0.741176
  0 -10.821110 -8.555478 0.188217 -0.501092 -0.593356 -0.629949 0.529412 0.796078
spas-12 pmodel.bmp
  0 0.828936 2.935745 2.049163 -0.792758 0.059902 0.606586 0.984314 0.090196
  0 2.326015 1.117921 -0.138226 -0.774490 -0.632571 -0.004374 0.921569 0.027451
  0 2.411629 0.998406 1.986694 -0.155531 -0.749642 0.643310 0.988235 0.027451
spas-12 pmodel.bmp
  0 0.828936 2.935745 2.049163 -0.792758 0.059902 0.606586 0.984314 0.090196
  0 0.752165 3.042916 0.143718 -0.910696 -0.179328 -0.372122 0.925490 0.090196
  0 2.326015 1.117921 -0.138226 -0.774490 -0.632571 -0.004374 0.921569 0.027451
spas-12 pmodel.bmp
  0 0.828936 2.935745 2.049163 -0.792758 0.059902 0.606586 0.984314 0.090196
  0 9.155376 9.906319 0.191176 -0.337970 0.419619 -0.842435 0.925490 0.243137
  0 0.752165 3.042916 0.143718 -0.910696 -0.179328 -0.372122 0.925490 0.090196
spas-12 pmodel.bmp
  0 0.828936 2.935745 2.049163 -0.792758 0.059902 0.606586 0.984314 0.090196
  0 9.232147 9.799148 2.096621 -0.267424 0.321138 0.908490 0.984314 0.243137
  0 9.155376 9.906319 0.191176 -0.337970 0.419619 -0.842435 0.925490 0.243137
spas-12 pmodel.bmp
  0 -7.732799 -6.868584 0.429311 0.867626 0.027867 -0.496436 0.023529 0.521569
  0 -0.692690 -1.118507 0.469071 0.589488 -0.719089 -0.367989 0.447059 0.521569
  0 -7.445072 -6.686484 0.879036 0.972702 -0.226346 -0.051163 0.039216 0.545098
spas-12 pmodel.bmp
  0 -7.445072 -6.686484 0.879036 0.972702 -0.226346 -0.051163 0.039216 0.545098
  0 -0.692690 -1.118507 0.469071 0.589488 -0.719089 -0.367989 0.447059 0.521569
  0 -7.696624 -6.919083 1.327165 0.904915 -0.023680 0.424932 0.023529 0.564706
spas-12 pmodel.bmp
  0 -0.692690 -1.118507 0.469071 0.589488 -0.719089 -0.367989 0.447059 0.521569
  0 -0.656515 -1.169007 1.366924 0.613800 -0.753143 0.236696 0.447059 0.564706
  0 -7.696624 -6.919083 1.327165 0.904915 -0.023680 0.424932 0.023529 0.564706
spas-12 pmodel.bmp
  0 -6.086180 -7.275561 0.921464 0.040195 -0.056110 0.997615 0.600000 0.458824
  0 -6.760768 -6.718777 0.979960 0.040195 -0.056110 0.997615 0.647059 0.447059
  0 -7.057678 -6.845352 0.984803 0.040195 -0.056110 0.997615 0.654902 0.431373
spas-12 pmodel.bmp
  0 -7.057678 -6.845352 0.984803 0.040195 -0.056110 0.997615 0.654902 0.431373
  0 -6.760768 -6.718777 0.979960 0.040195 -0.056110 0.997615 0.647059 0.447059
  0 -7.241929 -6.493484 1.012018 0.040195 -0.056110 0.997615 0.674510 0.435294
spas-12 pmodel.bmp
  0 -6.760768 -6.718777 0.979960 0.040195 -0.056110 0.997615 0.647059 0.447059
  0 -6.808215 -6.139244 1.014467 0.040195 -0.056110 0.997615 0.674510 0.466667
  0 -7.241929 -6.493484 1.012018 0.040195 -0.056110 0.997615 0.674510 0.435294
spas-12 pmodel.bmp
  0 -7.251978 -6.479457 0.762614 -0.880554 -0.473863 0.008826 0.843137 0.258824
  0 -7.067727 -6.831324 0.735400 -0.680010 -0.733072 -0.013833 0.862745 0.258824
  0 -7.241929 -6.493484 1.012018 -0.880554 -0.473863 0.008826 0.843137 0.270588
spas-12 pmodel.bmp
  0 -7.241929 -6.493484 1.012018 -0.880554 -0.473863 0.008826 0.843137 0.270588
  0 -7.067727 -6.831324 0.735400 -0.680010 -0.733072 -0.013833 0.862745 0.258824
  0 -7.057678 -6.845352 0.984803 -0.680010 -0.733072 -0.013833 0.862745 0.270588
spas-12 pmodel.bmp
  0 -7.067727 -6.831324 0.735400 -0.680010 -0.733072 -0.013833 0.862745 0.258824
  0 -6.086180 -7.275561 0.921464 0.848613 -0.525162 -0.063729 0.917647 0.270588
  0 -7.057678 -6.845352 0.984803 -0.680010 -0.733072 -0.013833 0.862745 0.270588
spas-12 pmodel.bmp
  0 -6.818264 -6.125216 0.765063 -0.040194 0.056109 -0.997615 0.674510 0.466667
  0 -6.770817 -6.704749 0.730556 -0.040194 0.056109 -0.997615 0.647059 0.447059
  0 -7.251978 -6.479457 0.762614 -0.040194 0.056109 -0.997615 0.674510 0.435294
spas-12 pmodel.bmp
  0 -7.251978 -6.479457 0.762614 -0.040194 0.056109 -0.997615 0.674510 0.435294
  0 -6.770817 -6.704749 0.730556 -0.040194 0.056109 -0.997615 0.647059 0.447059
  0 -7.067727 -6.831324 0.735400 -0.040194 0.056109 -0.997615 0.654902 0.431373
spas-12 pmodel.bmp
  0 -6.770817 -6.704749 0.730556 -0.040194 0.056109 -0.997615 0.647059 0.447059
  0 -6.096229 -7.261533 0.672060 -0.040194 0.056109 -0.997615 0.600000 0.458824
  0 -7.067727 -6.831324 0.735400 -0.040194 0.056109 -0.997615 0.654902 0.431373
spas-12 pmodel.bmp
  0 -1.680592 2.948915 0.968194 -0.040194 0.056109 -0.997615 0.733333 0.396078
  0 -1.623774 2.879393 0.961994 -0.040194 0.056109 -0.997615 0.733333 0.384314
  0 -1.773530 2.873007 0.967669 -0.040194 0.056109 -0.997615 0.717647 0.396078
spas-12 pmodel.bmp
  0 -1.773530 2.873007 0.967669 -0.040194 0.056109 -0.997615 0.717647 0.396078
  0 -1.623774 2.879393 0.961994 -0.040194 0.056109 -0.997615 0.733333 0.384314
  0 -1.401058 2.417251 0.927028 -0.040194 0.056109 -0.997615 0.717647 0.337255
spas-12 pmodel.bmp
  0 -1.623774 2.879393 0.961994 -0.040194 0.056109 -0.997615 0.733333 0.384314
  0 -1.017003 2.911265 0.939340 0.182111 0.233995 -0.955030 0.780392 0.352941
  0 -1.401058 2.417251 0.927028 -0.040194 0.056109 -0.997615 0.717647 0.337255
spas-12 pmodel.bmp
  0 -7.696624 -6.919083 1.327165 0.904915 -0.023680 0.424932 0.666667 0.768627
  0 -6.518481 -7.836060 0.777046 0.915509 0.402044 -0.014274 0.686275 0.713725
  0 -7.445072 -6.686484 0.879036 0.972702 -0.226346 -0.051163 0.686275 0.768627
spas-12 pmodel.bmp
  0 -7.445072 -6.686484 0.879036 0.972702 -0.226346 -0.051163 0.686275 0.768627
  0 -6.518481 -7.836060 0.777046 0.915509 0.402044 -0.014274 0.686275 0.713725
  0 -7.732799 -6.868584 0.429311 0.867626 0.027867 -0.496436 0.666667 0.768627
spas-12 pmodel.bmp
  0 -6.518481 -7.836060 0.777046 0.915509 0.402044 -0.014274 0.686275 0.713725
  0 -7.108242 -8.073384 0.065739 0.526877 0.278208 -0.803120 0.650980 0.721569
  0 -7.732799 -6.868584 0.429311 0.867626 0.027867 -0.496436 0.666667 0.768627
spas-12 pmodel.bmp
  0 2.848415 0.471370 0.866895 -0.338285 -0.940225 -0.039253 0.015686 0.337255
  0 2.326015 1.117921 -0.138226 -0.210002 -0.673603 -0.708631 0.015686 0.396078
  0 3.134976 0.705421 0.868513 0.794698 -0.603411 -0.065958 0.031373 0.337255
spas-12 pmodel.bmp
  0 3.134976 0.705421 0.868513 0.794698 -0.603411 -0.065958 0.031373 0.337255
  0 2.326015 1.117921 -0.138226 -0.210002 -0.673603 -0.708631 0.015686 0.396078
  0 2.612576 1.351973 -0.136608 0.455372 -0.255736 -0.852781 0.031373 0.396078
spas-12 pmodel.bmp
  0 2.326015 1.117921 -0.138226 -0.210002 -0.673603 -0.708631 0.015686 0.396078
  0 0.752165 3.042916 0.143718 -0.910696 -0.179328 -0.372122 0.015686 0.505882
  0 2.612576 1.351973 -0.136608 0.455372 -0.255736 -0.852781 0.031373 0.396078
spas-12 pmodel.bmp
  0 2.848415 0.471370 0.866895 -0.338285 -0.940225 -0.039253 0.956863 0.003922
  0 2.411629 0.998406 1.986694 -0.774490 -0.632571 -0.004374 0.921569 0.027451
  0 2.326015 1.117921 -0.138226 -0.210002 -0.673603 -0.708631 0.988235 0.027451
spas-12 pmodel.bmp
  0 2.326015 1.117921 -0.138226 -0.210002 -0.673603 -0.708631 0.988235 0.027451
  0 2.411629 0.998406 1.986694 -0.774490 -0.632571 -0.004374 0.921569 0.027451
  0 0.752165 3.042916 0.143718 -0.910696 -0.179328 -0.372122 0.984314 0.090196
spas-12 pmodel.bmp
  0 2.411629 0.998406 1.986694 -0.774490 -0.632571 -0.004374 0.921569 0.027451
  0 0.828936 2.935745 2.049163 -0.774490 -0.632571 -0.004374 0.925490 0.090196
  0 0.752165 3.042916 0.143718 -0.910696 -0.179328 -0.372122 0.984314 0.090196
spas-12 pmodel.bmp
  0 12.403272 8.533009 0.935346 0.774489 0.632573 0.004375 0.745098 0.062745
  0 11.973676 9.065243 0.030319 0.774489 0.632573 0.004375 0.709804 0.113725
  0 12.050447 8.958072 1.935764 0.774489 0.632573 0.004375 0.709804 0.015686
spas-12 pmodel.bmp
  0 12.050447 8.958072 1.935764 0.774489 0.632573 0.004375 0.709804 0.015686
  0 11.973676 9.065243 0.030319 0.774489 0.632573 0.004375 0.709804 0.113725
  0 11.797924 9.267059 1.963317 0.774489 0.632573 0.004375 0.690196 0.015686
spas-12 pmodel.bmp
  0 11.973676 9.065243 0.030319 0.774489 0.632573 0.004375 0.709804 0.113725
  0 11.721153 9.374230 0.057872 0.774489 0.632573 0.004375 0.690196 0.113725
  0 11.797924 9.267059 1.963317 0.774489 0.632573 0.004375 0.690196 0.015686
spas-12 pmodel.bmp
  0 -9.458630 -5.523553 1.757317 -0.357965 0.313415 0.879564 0.827451 0.800000
  0 -10.530149 -6.024658 1.040560 -0.778131 0.624574 0.066481 0.792157 0.745098
  0 -10.500807 -6.065618 1.768819 -0.481863 0.521652 0.704051 0.827451 0.745098
spas-12 pmodel.bmp
  0 -10.500807 -6.065618 1.768819 -0.481863 0.521652 0.704051 0.827451 0.745098
  0 -10.530149 -6.024658 1.040560 -0.778131 0.624574 0.066481 0.792157 0.745098
  0 -11.276336 -7.265801 1.732562 -0.756379 0.045794 0.652529 0.827451 0.674510
spas-12 pmodel.bmp
  0 -6.698471 -13.110051 -0.234056 0.060291 -0.706805 -0.704834 0.556863 0.560784
  0 -6.322162 -11.089533 -0.135575 0.332308 0.331438 -0.883018 0.611765 0.611765
  0 -5.242430 -11.920816 -0.225833 0.699333 -0.080143 -0.710289 0.623529 0.560784
spas-12 pmodel.bmp
  0 -5.242430 -11.920816 -0.225833 0.699333 -0.080143 -0.710289 0.623529 0.560784
  0 -6.322162 -11.089533 -0.135575 0.332308 0.331438 -0.883018 0.611765 0.611765
  0 -5.751080 -10.687132 0.585770 0.796933 0.604065 0.001866 0.654902 0.611765
spas-12 pmodel.bmp
  0 17.440638 15.532656 1.126079 0.774489 0.632573 0.004375 0.960784 0.392157
  0 17.843942 15.034949 1.693295 0.774489 0.632573 0.004375 0.941176 0.368627
  0 17.794905 15.103404 0.476204 0.774489 0.632573 0.004375 0.984314 0.368627
spas-12 pmodel.bmp
  0 17.794905 15.103404 0.476204 0.774489 0.632573 0.004375 0.984314 0.368627
  0 17.843942 15.034949 1.693295 0.774489 0.632573 0.004375 0.941176 0.368627
  0 18.204521 14.597972 1.042731 0.774489 0.632573 0.004375 0.960784 0.349020
spas-12 pmodel.bmp
  0 16.768196 16.876931 1.228780 0.774489 0.632573 0.004375 0.968627 0.454902
  0 17.191645 16.354366 1.823858 0.774489 0.632573 0.004375 0.945098 0.431373
  0 17.140598 16.425626 0.556886 0.774489 0.632573 0.004375 0.992157 0.431373
spas-12 pmodel.bmp
  0 17.140598 16.425626 0.556886 0.774489 0.632573 0.004375 0.992157 0.431373
  0 17.191645 16.354366 1.823858 0.774489 0.632573 0.004375 0.945098 0.431373
  0 17.569958 15.895898 1.141299 0.774489 0.632573 0.004375 0.968627 0.411765
spas-12 pmodel.bmp
  0 12.391227 11.550192 1.105531 -0.090313 0.994131 0.059553 0.819608 0.905882
  0 12.938855 11.137179 0.448779 0.600899 0.543369 -0.586234 0.827451 0.858824
  0 12.810516 11.042140 0.338342 0.600899 0.543369 -0.586234 0.819608 0.858824
spas-12 pmodel.bmp
  0 12.810516 11.042140 0.338342 0.600899 0.543369 -0.586234 0.819608 0.858824
  0 12.938855 11.137179 0.448779 0.600899 0.543369 -0.586234 0.827451 0.858824
  0 13.348472 10.631747 1.015306 0.956461 -0.286697 -0.054662 0.827451 0.815686
spas-12 pmodel.bmp
  0 11.965258 11.202278 1.103126 -0.631308 0.772467 0.068883 0.792157 0.905882
  0 12.810516 11.042140 0.338342 -0.040194 0.056109 -0.997615 0.819608 0.858824
  0 12.384547 10.694226 0.335936 -0.040194 0.056109 -0.997615 0.792157 0.858824
spas-12 pmodel.bmp
  0 12.384547 10.694226 0.335936 -0.040194 0.056109 -0.997615 0.792157 0.858824
  0 12.810516 11.042140 0.338342 -0.040194 0.056109 -0.997615 0.819608 0.858824
  0 13.293998 10.445564 1.007029 0.631308 -0.772467 -0.068883 0.819608 0.807843
spas-12 pmodel.bmp
  0 11.923410 11.000646 1.093471 -0.974928 0.216490 0.051457 0.784314 0.898039
  0 12.384547 10.694226 0.335936 -0.676969 -0.505562 -0.534902 0.792157 0.858824
  0 12.265854 10.585720 0.464926 -0.676969 -0.505562 -0.534902 0.784314 0.858824
spas-12 pmodel.bmp
  0 12.265854 10.585720 0.464926 -0.676969 -0.505562 -0.534902 0.784314 0.858824
  0 12.384547 10.694226 0.335936 -0.676969 -0.505562 -0.534902 0.792157 0.858824
  0 12.868029 10.097650 1.004623 0.017811 -0.998223 -0.056862 0.792157 0.807843
spas-12 pmodel.bmp
  0 10.575798 9.899971 1.085860 -0.631308 0.772467 0.068883 0.713725 0.898039
  0 12.265854 10.585720 0.464926 -0.040194 0.056109 -0.997615 0.772549 0.858824
  0 10.918243 9.485045 0.457315 -0.040194 0.056109 -0.997615 0.713725 0.858824
spas-12 pmodel.bmp
  0 10.918243 9.485045 0.457315 -0.040194 0.056109 -0.997615 0.713725 0.858824
  0 12.265854 10.585720 0.464926 -0.040194 0.056109 -0.997615 0.772549 0.858824
  0 12.662041 10.096860 1.012878 0.631308 -0.772467 -0.068883 0.772549 0.819608
spas-12 pmodel.bmp
  0 15.265686 15.649742 1.220295 -0.631308 0.772467 0.068883 0.909804 0.988235
  0 17.140598 16.425626 0.556886 -0.040194 0.056109 -0.997615 0.992157 0.952941
  0 15.638088 15.198437 0.548401 -0.040194 0.056109 -0.997615 0.909804 0.952941
spas-12 pmodel.bmp
  0 15.638088 15.198437 0.548401 -0.040194 0.056109 -0.997615 0.909804 0.952941
  0 17.140598 16.425626 0.556886 -0.040194 0.056109 -0.997615 0.992157 0.952941
  0 17.569958 15.895898 1.141299 0.631308 -0.772467 -0.068883 0.992157 0.913725
spas-12 pmodel.bmp
  0 9.592454 10.771337 1.174489 -0.631308 0.772467 0.068883 0.513725 0.062745
  0 15.521807 15.086565 0.737248 -0.040194 0.056109 -0.997615 0.309804 0.039216
  0 9.852544 10.456140 0.705230 -0.040194 0.056109 -0.997615 0.513725 0.039216
spas-12 pmodel.bmp
  0 9.852544 10.456140 0.705230 -0.040194 0.056109 -0.997615 0.513725 0.039216
  0 15.521807 15.086565 0.737248 -0.040194 0.056109 -0.997615 0.309804 0.039216
  0 15.823581 14.714266 1.145201 0.631308 -0.772467 -0.068883 0.309804 0.011765
spas-12 pmodel.bmp
  0 -7.772307 -6.935569 1.108761 0.040195 -0.056110 0.997615 0.568627 0.478431
  0 -6.704876 -7.957233 1.008291 0.040195 -0.056110 0.997615 0.576471 0.407843
  0 -7.423787 -6.650912 1.110729 0.040195 -0.056110 0.997615 0.592157 0.478431
spas-12 pmodel.bmp
  0 -7.423787 -6.650912 1.110729 0.040195 -0.056110 0.997615 0.592157 0.478431
  0 -6.704876 -7.957233 1.008291 0.040195 -0.056110 0.997615 0.576471 0.407843
  0 -6.539955 -7.732366 1.014293 0.040195 -0.056110 0.997615 0.592157 0.411765
spas-12 pmodel.bmp
  0 -7.790797 -6.909759 0.649858 -0.040194 0.056109 -0.997615 0.568627 0.478431
  0 -7.442277 -6.625102 0.651826 -0.040194 0.056109 -0.997615 0.592157 0.478431
  0 -6.723365 -7.931422 0.549388 -0.040194 0.056109 -0.997615 0.576471 0.407843
spas-12 pmodel.bmp
  0 -6.723365 -7.931422 0.549388 -0.040194 0.056109 -0.997615 0.576471 0.407843
  0 -7.442277 -6.625102 0.651826 -0.040194 0.056109 -0.997615 0.592157 0.478431
  0 -6.558445 -7.706555 0.555390 -0.040194 0.056109 -0.997615 0.592157 0.411765
spas-12 pmodel.bmp
  0 -4.012720 -3.836859 0.670471 0.999168 0.009096 -0.039746 0.764706 0.490196
  0 -3.994231 -3.862670 1.129373 0.999168 0.009096 -0.039746 0.764706 0.513725
  0 -3.993584 -4.903229 0.609722 0.956461 -0.286697 -0.054662 0.717647 0.490196
spas-12 pmodel.bmp
  0 -3.993584 -4.903229 0.609722 0.956461 -0.286697 -0.054662 0.717647 0.490196
  0 -3.994231 -3.862670 1.129373 0.999168 0.009096 -0.039746 0.764706 0.513725
  0 -3.975094 -4.929040 1.068625 0.956461 -0.286697 -0.054662 0.717647 0.513725
spas-12 pmodel.bmp
  0 -11.314434 -6.454228 0.847520 -0.040194 0.056109 -0.997615 0.705882 0.592157
  0 -11.125433 -6.132408 0.858006 -0.040194 0.056109 -0.997615 0.721569 0.592157
  0 -11.259569 -6.821606 0.824647 -0.040194 0.056109 -0.997615 0.690196 0.580392
spas-12 pmodel.bmp
  0 -11.259569 -6.821606 0.824647 -0.040194 0.056109 -0.997615 0.690196 0.580392
  0 -11.125433 -6.132408 0.858006 -0.040194 0.056109 -0.997615 0.721569 0.592157
  0 -10.764547 -6.005102 0.850626 -0.040194 0.056109 -0.997615 0.737255 0.580392
spas-12 pmodel.bmp
  0 -11.243089 -6.844612 1.233669 0.040195 -0.056110 0.997615 0.690196 0.580392
  0 -10.748067 -6.028108 1.259648 0.040195 -0.056110 0.997615 0.737255 0.580392
  0 -11.297955 -6.477234 1.256542 0.040195 -0.056110 0.997615 0.705882 0.592157
spas-12 pmodel.bmp
  0 -11.297955 -6.477234 1.256542 0.040195 -0.056110 0.997615 0.705882 0.592157
  0 -10.748067 -6.028108 1.259648 0.040195 -0.056110 0.997615 0.737255 0.580392
  0 -11.108953 -6.155413 1.267028 0.040195 -0.056110 0.997615 0.721569 0.592157
spas-12 pmodel.bmp
  0 10.413629 10.199796 0.156987 -0.219424 0.973555 0.063598 0.600000 0.113725
  0 9.155376 9.906319 0.191176 -0.219424 0.973555 0.063598 0.529412 0.113725
  0 10.490401 10.092625 2.062432 -0.219424 0.973555 0.063598 0.600000 0.015686
spas-12 pmodel.bmp
  0 10.490401 10.092625 2.062432 -0.219424 0.973555 0.063598 0.600000 0.015686
  0 9.155376 9.906319 0.191176 -0.219424 0.973555 0.063598 0.529412 0.113725
  0 9.232147 9.799148 2.096621 -0.219424 0.973555 0.063598 0.529412 0.015686
spas-12 pmodel.bmp
  0 11.070190 9.396430 0.085349 0.774489 0.632573 0.004375 0.654902 0.113725
  0 10.413629 10.199796 0.156987 0.774489 0.632573 0.004375 0.600000 0.113725
  0 11.146962 9.289260 1.990794 0.774489 0.632573 0.004375 0.654902 0.015686
spas-12 pmodel.bmp
  0 11.146962 9.289260 1.990794 0.774489 0.632573 0.004375 0.654902 0.015686
  0 10.413629 10.199796 0.156987 0.774489 0.632573 0.004375 0.600000 0.113725
  0 10.490401 10.092625 2.062432 0.774489 0.632573 0.004375 0.600000 0.015686
spas-12 pmodel.bmp
  0 11.797924 9.267059 1.963317 0.049047 0.997329 0.054118 0.690196 0.015686
  0 11.721153 9.374230 0.057872 0.049047 0.997329 0.054118 0.690196 0.113725
  0 11.146962 9.289260 1.990794 0.049047 0.997329 0.054118 0.654902 0.015686
spas-12 pmodel.bmp
  0 11.146962 9.289260 1.990794 0.049047 0.997329 0.054118 0.654902 0.015686
  0 11.721153 9.374230 0.057872 0.049047 0.997329 0.054118 0.690196 0.113725
  0 11.070190 9.396430 0.085349 0.049047 0.997329 0.054118 0.654902 0.113725
spas-12 pmodel.bmp
  0 9.494052 10.838790 1.984160 0.537635 0.842785 0.025740 0.839216 0.207843
  0 10.161156 10.417583 1.933592 0.537635 0.842785 0.025740 0.839216 0.160784
  0 9.430142 10.928006 0.397952 0.537635 0.842785 0.025740 0.917647 0.207843
spas-12 pmodel.bmp
  0 9.430142 10.928006 0.397952 0.537635 0.842785 0.025740 0.917647 0.207843
  0 10.161156 10.417583 1.933592 0.537635 0.842785 0.025740 0.839216 0.160784
  0 10.097246 10.506799 0.347384 0.537635 0.842785 0.025740 0.917647 0.160784
spas-12 pmodel.bmp
  0 11.703488 8.534410 1.184146 0.613800 -0.753143 0.236696 0.803922 0.027451
  0 -0.486976 -1.422268 1.115299 -0.031780 -0.985243 0.168183 0.007843 0.027451
  0 11.686204 8.558538 0.755171 0.589488 -0.719089 -0.367989 0.803922 0.007843
spas-12 pmodel.bmp
  0 11.686204 8.558538 0.755171 0.589488 -0.719089 -0.367989 0.803922 0.007843
  0 -0.486976 -1.422268 1.115299 -0.031780 -0.985243 0.168183 0.007843 0.027451
  0 -0.504259 -1.398140 0.686325 -0.099621 -0.959833 -0.262290 0.007843 0.007843
spas-12 pmodel.bmp
  0 -2.692182 1.271995 1.937072 -0.792758 0.059902 0.606586 0.007843 0.223529
  0 -0.962397 -0.844563 1.748333 -0.213885 -0.714816 0.665801 0.007843 0.078431
  0 1.288694 4.523414 1.959554 -0.338642 0.604888 0.720717 0.266667 0.223529
spas-12 pmodel.bmp
  0 1.288694 4.523414 1.959554 -0.338642 0.604888 0.720717 0.266667 0.223529
  0 -0.962397 -0.844563 1.748333 -0.213885 -0.714816 0.665801 0.007843 0.078431
  0 2.151892 4.842011 1.942695 -0.298225 0.534947 0.790502 0.313725 0.207843
spas-12 pmodel.bmp
  0 10.161156 10.417583 1.933592 0.774489 0.632573 0.004375 0.839216 0.160784
  0 10.476810 10.031350 1.899150 0.774489 0.632573 0.004375 0.839216 0.125490
  0 10.097246 10.506799 0.347384 0.774489 0.632573 0.004375 0.917647 0.160784
spas-12 pmodel.bmp
  0 10.097246 10.506799 0.347384 0.774489 0.632573 0.004375 0.917647 0.160784
  0 10.476810 10.031350 1.899150 0.774489 0.632573 0.004375 0.839216 0.125490
  0 10.412900 10.120565 0.312942 0.774489 0.632573 0.004375 0.917647 0.125490
spas-12 pmodel.bmp
  0 -2.543276 1.142744 1.121891 -0.631308 0.772467 0.068883 0.470588 0.764706
  0 -9.233768 -5.198204 1.766557 -0.392344 0.349101 0.850996 0.019608 0.705882
  0 -2.116209 0.615130 1.806753 -0.314224 0.378702 0.870545 0.470588 0.705882
spas-12 pmodel.bmp
  0 -10.500807 -6.065618 1.768819 -0.481863 0.521652 0.704051 0.607843 0.866667
  0 -8.061811 -6.727019 1.633350 0.284545 -0.104450 0.952956 0.658824 0.784314
  0 -9.458630 -5.523553 1.757317 -0.357965 0.313415 0.879564 0.650980 0.858824
spas-12 pmodel.bmp
  0 -8.120093 -6.645659 0.186808 0.206729 0.004177 -0.978389 0.019608 0.611765
  0 -0.692690 -1.118507 0.469071 0.589488 -0.719089 -0.367989 0.470588 0.576471
  0 -7.732799 -6.868584 0.429311 0.867626 0.027867 -0.496436 0.027451 0.576471
spas-12 pmodel.bmp
  0 -9.292050 -5.116844 0.320015 -0.457750 0.440405 -0.772340 0.019608 0.705882
  0 -8.120093 -6.645659 0.186808 0.206729 0.004177 -0.978389 0.019608 0.611765
  0 -9.516912 -5.442193 0.310775 -0.425934 0.408296 -0.807387 0.003922 0.698039
spas-12 pmodel.bmp
  0 -10.559089 -5.984258 0.322277 -0.534417 0.595014 -0.600298 0.827451 0.745098
  0 -10.530149 -6.024658 1.040560 -0.778131 0.624574 0.066481 0.792157 0.745098
  0 -9.516912 -5.442193 0.310775 -0.425934 0.408296 -0.807387 0.827451 0.800000
spas-12 pmodel.bmp
  0 13.881582 15.463127 1.225469 -0.486536 0.600081 -0.634969 0.800000 0.482353
  0 14.434684 15.907764 1.308384 -0.397849 0.481707 0.780817 0.839216 0.474510
  0 14.431468 15.912252 1.228575 -0.457010 0.564294 -0.687542 0.839216 0.482353
spas-12 pmodel.bmp
  0 -3.994231 -3.862670 1.129373 0.040195 -0.056110 0.997615 0.788235 0.478431
  0 -4.877146 -6.116632 1.038174 0.040195 -0.056110 0.997615 0.690196 0.423529
  0 -3.975094 -4.929040 1.068625 0.040195 -0.056110 0.997615 0.756863 0.439216
spas-12 pmodel.bmp
  0 -5.098890 -6.900877 0.541899 -0.881206 0.468667 0.061865 0.670588 0.545098
  0 -5.630287 -7.375814 0.997696 -0.504228 0.860831 0.068733 0.639216 0.525490
  0 -5.080400 -6.926688 1.000802 -0.881206 0.468667 0.061865 0.670588 0.525490
spas-12 pmodel.bmp
  0 -3.993584 -4.903229 0.609722 -0.040194 0.056109 -0.997615 0.756863 0.439216
  0 -4.895636 -6.090821 0.579271 -0.040194 0.056109 -0.997615 0.690196 0.423529
  0 -4.012720 -3.836859 0.670471 -0.040194 0.056109 -0.997615 0.788235 0.478431
spas-12 pmodel.bmp
  0 -6.723365 -7.931422 0.549388 0.532546 -0.843592 -0.068904 0.537255 0.490196
  0 -6.416297 -7.773057 1.007023 0.432338 -0.899145 -0.067991 0.549020 0.513725
  0 -6.704876 -7.957233 1.008291 0.532546 -0.843592 -0.068904 0.537255 0.513725
spas-12 pmodel.bmp
  0 -10.764547 -6.005102 0.850626 -0.363379 0.245586 -0.898690 0.737255 0.580392
  0 -11.155286 -6.964732 0.772299 -0.363379 0.245586 -0.898690 0.686275 0.572549
  0 -11.259569 -6.821606 0.824647 -0.363379 0.245586 -0.898690 0.690196 0.580392
spas-12 pmodel.bmp
  0 -11.155286 -6.964732 0.772299 -0.300993 0.223206 -0.927137 0.686275 0.572549
  0 -10.764547 -6.005102 0.850626 -0.300993 0.223206 -0.927137 0.737255 0.580392
  0 -10.539795 -6.011191 0.801132 -0.300993 0.223206 -0.927137 0.741176 0.572549
spas-12 pmodel.bmp
  0 -10.520502 -6.038124 1.279988 -0.277079 0.151218 0.948873 0.741176 0.572549
  0 -11.243089 -6.844612 1.233669 -0.277079 0.151218 0.948873 0.690196 0.580392
  0 -11.135993 -6.991665 1.251155 -0.277079 0.151218 0.948873 0.686275 0.572549
spas-12 pmodel.bmp
  0 -11.243089 -6.844612 1.233669 -0.225782 0.103383 0.968677 0.690196 0.580392
  0 -10.520502 -6.038124 1.279988 -0.225782 0.103383 0.968677 0.741176 0.572549
  0 -10.748067 -6.028108 1.259648 -0.225782 0.103383 0.968677 0.737255 0.580392
spas-12 pmodel.bmp
  0 -8.120093 -6.645659 0.186808 0.206729 0.004177 -0.978389 0.658824 0.784314
  0 -10.559089 -5.984258 0.322277 -0.534417 0.595014 -0.600298 0.607843 0.866667
  0 -9.516912 -5.442193 0.310775 -0.425934 0.408296 -0.807387 0.650980 0.858824
spas-12 pmodel.bmp
  0 3.134976 0.705421 0.868513 0.794698 -0.603411 -0.065958 0.031373 0.337255
  0 2.411629 0.998406 1.986694 -0.155531 -0.749642 0.643310 0.015686 0.396078
  0 2.848415 0.471370 0.866895 -0.338285 -0.940225 -0.039253 0.015686 0.337255
spas-12 pmodel.bmp
  0 2.411629 0.998406 1.986694 -0.155531 -0.749642 0.643310 0.988235 0.027451
  0 2.326015 1.117921 -0.138226 -0.774490 -0.632571 -0.004374 0.921569 0.027451
  0 2.848415 0.471370 0.866895 -0.338285 -0.940225 -0.039253 0.956863 0.003922
spas-12 pmodel.bmp
  0 11.973676 9.065243 0.030319 0.339534 -0.411838 -0.845639 0.556863 0.396078
  0 11.070190 9.396430 0.085349 -0.040194 0.056109 -0.997615 0.537255 0.431373
  0 11.721153 9.374230 0.057872 -0.040194 0.056109 -0.997615 0.556863 0.411765
spas-12 pmodel.bmp
  0 -2.692182 1.271995 1.937072 -0.792758 0.059902 0.606586 0.011765 0.235294
  0 1.224784 4.612629 0.373346 -0.392620 0.680238 -0.618972 0.270588 0.321569
  0 -2.756091 1.361211 0.350864 -0.834844 0.113172 -0.538728 0.011765 0.321569
spas-12 pmodel.bmp
  0 -0.504259 -1.398140 0.686325 -0.099621 -0.959833 -0.262290 0.007843 0.027451
  0 11.164158 9.201330 0.230972 0.254421 -0.305157 -0.917687 0.803922 0.078431
  0 11.686204 8.558538 0.755171 0.589488 -0.719089 -0.367989 0.803922 0.027451
spas-12 pmodel.bmp
  0 10.097246 10.506799 0.347384 -0.040194 0.056109 -0.997615 0.803922 0.164706
  0 2.087983 4.931227 0.356487 -0.358245 0.618732 -0.699164 0.313725 0.207843
  0 9.430142 10.928006 0.397952 -0.434487 0.536964 -0.723112 0.788235 0.207843
end
