version 1
nodes
  0 "root_bone_R" -1
  1 "Bone048" 0
  2 "Bone047" 0
  3 "Bone046" 0
  4 "root_bone_L" -1
  5 "Bone049" 4
  6 "Bone050" 4
  7 "Bone051" 4
  8 "root" -1
  9 "Bone01" 8
  10 "Bone_L_Upper" 9
  11 "Bone_Lefthand" 9
  12 "Bone13" 11
  13 "Bone14" 12
  14 "Bone15" 13
  15 "Bone17" 11
  16 "Bone18" 15
  17 "Bone19" 16
  18 "Bone21" 11
  19 "Bone22" 18
  20 "Bone23" 19
  21 "Bone09" 11
  22 "Bone10" 21
  23 "Bone11" 22
  24 "Bone05" 11
  25 "Bone06" 24
  26 "Bone07" 25
  27 "Bone_Se_Hand-L" 11
  28 "Bone04" 8
  29 "Bone_Righthand" 28
  30 "Bone39" 29
  31 "Bone40" 30
  32 "Bone41" 31
  33 "Bone35" 29
  34 "Bone36" 33
  35 "Bone37" 34
  36 "Bone31" 29
  37 "Bone32" 36
  38 "Bone33" 37
  39 "Bone43" 29
  40 "Bone44" 39
  41 "Bone45" 40
  42 "Bone27" 29
  43 "Bone28" 42
  44 "Bone29" 43
  45 "Bone_Se_Hand-R" 29
  46 "Bone_R_Upper" 28
end
skeleton
  time 0
    0 -10.432216 -9.582629 -9.461226 3.514362 -0.045920 -1.287235
    1 6.476018 0.000008 0.000000 0.000000 0.000000 0.000000
    2 5.254123 0.000007 0.000000 0.000000 0.000000 0.000000
    3 2.851940 0.000004 0.000000 0.000000 0.000000 0.000000
    4 10.630927 -9.218726 -9.387005 5.986952 3.122270 -5.018406
    5 6.476018 0.000008 0.000000 0.000000 0.000000 0.000000
    6 5.254123 0.000007 0.000000 0.000000 0.000000 0.000000
    7 2.851939 0.000004 0.000000 0.000000 0.000000 0.000000
    8 -0.006659 -2.770881 -8.546517 0.000000 0.000000 0.000000
    9 11.247663 -4.233175 -1.823256 6.257191 -2.864653 -0.294370
    10 7.847225 2.641304 -0.341219 1.566812 -3.120784 0.403738
    11 -0.071921 -8.467485 -0.104134 -0.048140 0.285146 0.018577
    12 -0.488518 -2.755602 -0.228260 -0.995951 0.025313 -0.222832
    13 0.039887 -1.554011 0.029854 -2.250474 0.001474 0.047736
    14 0.028786 -1.255424 -0.116862 -1.764391 -0.009779 0.040280
    15 0.250027 -2.820665 -0.238396 -0.761537 -0.062484 -0.082880
    16 -0.049759 -1.606323 -0.012806 -2.127197 -0.014238 -0.049726
    17 -0.034142 -1.199095 0.045718 -1.842578 -0.005813 -0.045769
    18 0.957766 -2.746780 -0.090302 -0.800052 -0.225939 0.081504
    19 -0.033420 -1.404942 -0.038602 -1.826880 -0.026450 -0.075947
    20 -0.022360 -0.984781 -0.012467 -1.818474 -0.026618 -0.075287
    21 -1.180681 -2.507217 -0.193859 -1.245140 0.431448 -0.249812
    22 -0.024967 -1.123934 0.017597 -1.936554 -0.027481 -0.069510
    23 -0.020057 -0.898781 0.053060 -1.890972 -0.022363 -0.068816
    24 0.583510 -1.169932 0.177566 0.581293 -0.545996 -1.349137
    25 1.524208 -0.146009 0.044073 0.013431 -0.151089 -0.501938
    26 0.975767 -0.194698 0.051823 0.126817 -0.270099 -1.213533
    27 0.120153 -0.050270 -0.054489 0.287569 3.110905 1.561085
    28 -10.989846 -4.653117 -2.020876 0.053034 -3.484503 0.301971
    29 0.096944 -8.450418 -0.009365 -0.032965 -0.297907 -0.004663
    30 0.447953 -2.798986 -0.200443 -0.996376 -0.017299 0.228397
    31 -0.032909 -1.488017 0.044004 -2.234464 0.014933 -0.048248
    32 -0.027022 -1.139422 -0.012397 -1.685480 0.024077 -0.035103
    33 -0.249534 -2.846964 -0.174213 -0.764740 0.056298 0.061246
    34 0.043235 -1.664409 0.045229 -2.225444 -0.024430 0.022807
    35 0.031729 -1.141298 0.047119 -1.767120 -0.018737 0.011440
    36 -0.963866 -2.785145 -0.085350 -0.820915 0.215272 -0.153505
    37 0.028479 -1.422599 -0.032793 -1.854137 -0.064201 -0.034180
    38 0.021413 -0.938249 0.000514 -1.830566 -0.063303 -0.033928
    39 1.164475 -2.543940 -0.170330 -1.256915 -0.410234 0.261737
    40 0.024032 -1.168106 -0.001725 -1.966781 0.059551 0.071525
    41 0.014898 -0.903521 -0.000316 -1.766859 0.044655 0.072015
    42 -0.586770 -1.264477 0.200161 -0.517382 -0.348637 -1.864756
    43 1.542367 0.046962 0.016848 -0.007938 -0.002245 0.472906
    44 1.110134 0.040611 -0.005766 -0.036904 -0.031778 1.301786
    45 -0.139399 -0.111698 0.014397 0.285382 -0.030687 1.580508
    46 -7.835073 3.272601 -0.438658 1.573422 -0.031501 -0.480189
  time 1
    0 -8.025892 -11.817072 -8.281503 3.212918 0.042446 -1.040833
    1 6.476018 0.000008 0.000000 0.000000 0.000000 0.000000
    2 5.254123 0.000007 0.000000 0.000000 0.000000 0.000000
    3 2.851940 0.000004 0.000000 0.000000 0.000000 0.000000
    4 11.029377 -8.089785 -10.719077 5.810791 3.068684 -4.961700
    5 6.476018 0.000008 0.000000 0.000000 0.000000 0.000000
    6 5.254123 0.000007 0.000000 0.000000 0.000000 0.000000
    7 2.851939 0.000004 0.000000 0.000000 0.000000 0.000000
    8 -0.006659 -2.770881 -8.546517 0.000000 0.000000 0.000000
    9 11.353135 -2.983137 -2.999073 6.195063 -2.690179 -0.207212
    10 8.038637 1.539708 -0.364657 1.568154 -3.118196 0.266896
    11 -0.071921 -8.467485 -0.104134 -0.048140 0.285146 0.018577
    12 -0.488518 -2.755602 -0.228260 -0.995951 0.025313 -0.222832
    13 0.039887 -1.554011 0.029854 -2.250474 0.001474 0.047736
    14 0.028786 -1.255424 -0.116862 -1.764391 -0.009779 0.040280
    15 0.250027 -2.820665 -0.238396 -0.761537 -0.062484 -0.082880
    16 -0.049759 -1.606323 -0.012806 -2.127197 -0.014238 -0.049726
    17 -0.034142 -1.199095 0.045718 -1.842633 -0.005813 -0.045769
    18 0.957766 -2.746780 -0.090302 -0.800052 -0.225939 0.081504
    19 -0.033420 -1.404942 -0.038602 -1.826880 -0.026450 -0.075947
    20 -0.022360 -0.984781 -0.012467 -1.818474 -0.026618 -0.075287
    21 -1.180681 -2.507217 -0.193859 -1.245140 0.431448 -0.249812
    22 -0.024967 -1.123934 0.017597 -1.936554 -0.027481 -0.069510
    23 -0.020057 -0.898781 0.053060 -1.890972 -0.022363 -0.068816
    24 0.583510 -1.169932 0.177566 0.581293 -0.545996 -1.349137
    25 1.524208 -0.146009 0.044073 0.013431 -0.151089 -0.501938
    26 0.975767 -0.194698 0.051823 0.126817 -0.270099 -1.213533
    27 0.120153 -0.050270 -0.054489 0.287569 3.110905 1.561085
    28 -9.392141 -7.157100 -0.614583 -0.038846 -3.183500 0.530111
    29 0.096944 -8.450418 -0.009365 -0.032965 -0.297907 -0.004663
    30 0.447953 -2.798986 -0.200443 -0.996376 -0.017299 0.228397
    31 -0.032909 -1.488017 0.044004 -2.234464 0.014933 -0.048248
    32 -0.027022 -1.139422 -0.012397 -1.685480 0.024077 -0.035103
    33 -0.249534 -2.846964 -0.174213 -0.764740 0.056298 0.061246
    34 0.043235 -1.664409 0.045229 -2.225444 -0.024430 0.022807
    35 0.031729 -1.141298 0.047119 -1.767120 -0.018737 0.011440
    36 -0.963866 -2.785145 -0.085350 -0.820915 0.215272 -0.153505
    37 0.028479 -1.422599 -0.032793 -1.854137 -0.064201 -0.034180
    38 0.021413 -0.938249 0.000514 -1.830566 -0.063303 -0.033928
    39 1.164475 -2.543940 -0.170330 -1.256915 -0.410234 0.261737
    40 0.024032 -1.168106 -0.001725 -1.966781 0.059551 0.071525
    41 0.014898 -0.903521 -0.000316 -1.766859 0.044655 0.072015
    42 -0.586770 -1.264477 0.200161 -0.517382 -0.348637 -1.864756
    43 1.542367 0.046962 0.016848 -0.007938 -0.002245 0.472906
    44 1.110134 0.040611 -0.005766 -0.036904 -0.031778 1.301786
    45 -0.139399 -0.111698 0.014397 0.285382 -0.030687 1.580508
    46 -7.131926 4.850774 -0.415220 1.577065 -0.027295 -0.690243
  time 2
    0 -7.135240 -11.469405 -7.816645 3.025058 0.204528 -0.679379
    1 6.476018 0.000008 0.000000 0.000000 0.000000 0.000000
    2 5.254123 0.000007 0.000000 0.000000 0.000000 0.000000
    3 2.851940 0.000004 0.000000 0.000000 0.000000 0.000000
    4 10.869215 -5.816279 -12.476943 5.508896 3.002827 -4.852383
    5 6.476018 0.000008 0.000000 0.000000 0.000000 0.000000
    6 5.254123 0.000007 0.000000 0.000000 0.000000 0.000000
    7 2.851939 0.000004 0.000000 0.000000 0.000000 0.000000
    8 -0.006659 -2.770881 -8.546517 0.000000 0.000000 0.000000
    9 10.673426 -0.623690 -4.491306 6.084134 -2.396547 -0.002722
    10 7.999573 -0.397851 -0.392002 -1.570274 -0.027230 -3.113254
    11 -0.071921 -8.467485 -0.104134 -0.048140 0.285146 0.018577
    12 -0.488518 -2.755602 -0.228260 -0.995951 0.025313 -0.222832
    13 0.039887 -1.554011 0.029854 -2.250474 0.001474 0.047736
    14 0.028786 -1.255424 -0.116862 -1.764391 -0.009779 0.040280
    15 0.250027 -2.820665 -0.238396 -0.761537 -0.062484 -0.082880
    16 -0.049759 -1.606323 -0.012806 -2.127197 -0.014238 -0.049726
    17 -0.034142 -1.199095 0.045718 -1.842578 -0.005813 -0.045769
    18 0.957766 -2.746780 -0.090302 -0.800052 -0.225939 0.081504
    19 -0.033420 -1.404942 -0.038602 -1.826880 -0.026450 -0.075947
    20 -0.022360 -0.984781 -0.012467 -1.818474 -0.026618 -0.075287
    21 -1.180681 -2.507217 -0.193859 -1.245140 0.431448 -0.249812
    22 -0.024967 -1.123934 0.017597 -1.936554 -0.027481 -0.069510
    23 -0.020057 -0.898781 0.053060 -1.890972 -0.022363 -0.068816
    24 0.583510 -1.169932 0.177566 0.581293 -0.545996 -1.349137
    25 1.524208 -0.146009 0.044073 0.013431 -0.151089 -0.501938
    26 0.975767 -0.194698 0.051823 0.126817 -0.270099 -1.213533
    27 0.120153 -0.050270 -0.054489 0.287569 3.110905 1.561085
    28 -9.274950 -7.496954 0.295601 -0.203497 -2.998952 0.923212
    29 0.096944 -8.450418 -0.009365 -0.032965 -0.297907 -0.004663
    30 0.447953 -2.798986 -0.200443 -0.996376 -0.017299 0.228397
    31 -0.032909 -1.488017 0.044004 -2.234464 0.014933 -0.048248
    32 -0.027022 -1.139422 -0.012397 -1.685480 0.024077 -0.035103
    33 -0.249534 -2.846964 -0.174213 -0.764740 0.056298 0.061246
    34 0.043235 -1.664409 0.045229 -2.225444 -0.024430 0.022807
    35 0.031729 -1.141298 0.047119 -1.767120 -0.018737 0.011440
    36 -0.963866 -2.785145 -0.085350 -0.820915 0.215272 -0.153505
    37 0.028479 -1.422599 -0.032793 -1.854137 -0.064201 -0.034180
    38 0.021413 -0.938249 0.000514 -1.830566 -0.063303 -0.033928
    39 1.164475 -2.543940 -0.170330 -1.256915 -0.410234 0.261737
    40 0.024032 -1.168106 -0.001725 -1.966781 0.059551 0.071525
    41 0.014898 -0.903521 -0.000316 -1.766859 0.044655 0.072015
    42 -0.586770 -1.264477 0.200161 -0.517382 -0.348637 -1.864756
    43 1.542367 0.046962 0.016848 -0.007938 -0.002245 0.472906
    44 1.110134 0.040611 -0.005766 -0.036904 -0.031778 1.301786
    45 -0.139399 -0.111698 0.014397 0.285382 -0.030687 1.580508
    46 -8.194459 1.604581 -0.462096 1.569012 -0.034943 -0.272700
  time 3
    0 -7.018049 -10.844386 -7.699454 3.010220 0.360132 -0.458363
    1 6.476018 0.000008 0.000000 0.000000 0.000000 0.000000
    2 5.254123 0.000007 0.000000 0.000000 0.000000 0.000000
    3 2.851940 0.000004 0.000000 0.000000 0.000000 0.000000
    4 10.408264 -4.609210 -13.066805 5.356281 2.976370 -4.780825
    5 6.476018 0.000008 0.000000 0.000000 0.000000 0.000000
    6 5.254123 0.000007 0.000000 0.000000 0.000000 0.000000
    7 2.851939 0.000004 0.000000 0.000000 0.000000 0.000000
    8 -0.006659 -2.770881 -8.546517 0.000000 0.000000 0.000000
    9 9.903872 0.571659 -4.924913 6.007241 -2.252654 0.148286
    10 7.792536 -1.409601 -0.403721 -1.568261 -0.028956 -3.240268
    11 -0.071921 -8.467485 -0.104134 -0.048140 0.285146 0.018577
    12 -0.488518 -2.755602 -0.228260 -0.995951 0.025313 -0.222832
    13 0.039887 -1.554011 0.029854 -2.250474 0.001474 0.047736
    14 0.028786 -1.255424 -0.116862 -1.764391 -0.009779 0.040280
    15 0.250027 -2.820665 -0.238396 -0.761537 -0.062484 -0.082880
    16 -0.049759 -1.606323 -0.012806 -2.127197 -0.014238 -0.049726
    17 -0.034142 -1.199095 0.045718 -1.842578 -0.005813 -0.045769
    18 0.957766 -2.746780 -0.090302 -0.800052 -0.225939 0.081504
    19 -0.033420 -1.404942 -0.038602 -1.826880 -0.026450 -0.075947
    20 -0.022360 -0.984781 -0.012467 -1.818585 -0.026618 -0.075287
    21 -1.180681 -2.507217 -0.193859 -1.245140 0.431448 -0.249812
    22 -0.024967 -1.123934 0.017597 -1.936554 -0.027481 -0.069510
    23 -0.020057 -0.898781 0.053060 -1.890972 -0.022363 -0.068816
    24 0.583510 -1.169932 0.177566 0.581293 -0.545996 -1.349137
    25 1.524208 -0.146009 0.044073 0.013431 -0.151089 -0.501938
    26 0.975767 -0.194698 0.051823 0.126817 -0.270099 -1.213533
    27 0.120153 -0.050270 -0.054489 0.287569 3.110905 1.561085
    28 -9.403860 -7.356325 0.795616 -0.361141 -2.991715 1.171407
    29 0.096944 -8.450418 -0.009365 -0.032965 -0.297907 -0.004663
    30 0.447953 -2.798986 -0.200443 -0.996376 -0.017299 0.228397
    31 -0.032909 -1.488017 0.044004 -2.234464 0.014933 -0.048248
    32 -0.027022 -1.139422 -0.012397 -1.685480 0.024077 -0.035103
    33 -0.249534 -2.846964 -0.174213 -0.764740 0.056298 0.061246
    34 0.043235 -1.664409 0.045229 -2.225444 -0.024430 0.022807
    35 0.031729 -1.141298 0.047119 -1.767120 -0.018737 0.011440
    36 -0.963866 -2.785145 -0.085350 -0.820915 0.215272 -0.153505
    37 0.028479 -1.422599 -0.032793 -1.854137 -0.064201 -0.034180
    38 0.021413 -0.938249 0.000514 -1.830566 -0.063303 -0.033928
    39 1.164475 -2.543940 -0.170330 -1.256915 -0.410234 0.261737
    40 0.024032 -1.168106 -0.001725 -1.966781 0.059551 0.071525
    41 0.014898 -0.903521 -0.000316 -1.766859 0.044655 0.072015
    42 -0.586770 -1.264477 0.200161 -0.517382 -0.348637 -1.864756
    43 1.542367 0.046962 0.016848 -0.007938 -0.002245 0.472906
    44 1.110134 0.040611 -0.005766 -0.036904 -0.031778 1.301786
    45 -0.139399 -0.111698 0.014397 0.285382 -0.030687 1.580508
    46 -8.042110 -1.083001 -0.481628 1.560864 -0.038193 0.055539
end
