// Created by Crowbar 0.34.0.0

$ModelName "weapons/tfa_cso/w_wa2000desert.mdl"

$BodyGroup "studio"
{
	studio "w_wa2000desert"
}

$collisionmodel "w_wa2000desert.smd"
{
	$mass 9
}

$CDMaterials "models\weapons\tfa_cso\wa2000desert\"

$attachment "0" "root" -0.00 -14.50 -0.40 rotate -0 -90 0

$Sequence "idle" {
	"anims\idle.smd"
	fps 30
}