// Created by Crowbar 0.68

$modelname "s_usp45.mdl"
$cd "."
$cdtexture "."
$cliptotextures
$scale 1.0

$bodygroup "studio"
{
	studio "reference_usp"
}

$flags 0


$cbox 0 0 0 0 0 0

$bbox 0 0 0 0 0 0

$hbox 0 "Bip01 R Thigh" 0 0 0 6.470918 2.37921 2.176055
$hbox 0 "Bone_Pisotol" 0 0 0 1.547253 1.009768 1.377146
$hbox 0 "CSO_USP_Shop" -0.64 -7.05 -2.77 2.06 1.89 5.67

$sequence "idle" {
	"s_usp45_anims\idle"
	fps 30
}
