// Created by Crowbar 0.68

$modelname "weapons/tfa_cso/c_drakar3.mdl"

$include "csonline_gmod.qci"

$bodygroup "weapon"
{
	studio "v_y23s3trans_up"
}
$bodygroup "glow"
{
	studio "v_y23s3trans_up_glow0"
	studio "v_y23s3trans_up_glow1"
	studio "v_y23s3trans_up_glow2"
}
$bodygroup "weapon"
{
	studio "v_y23s3trans_up_ef"
}
$bodygroup "weapon"
{
	studio "v_y23s3trans_up"
}
$bodygroup "weapon"
{
	studio "v_transadv_fx_ef"
}

$cdmaterials "models/weapons/tfa_cso/drakar3"

$attachment 0 "Bone_transform" 31 0 0
//$attachment 1 "Bone_transform" 4 0 -1

$sequence "idle" {
	"v_transformgunadv_anims\idle"
	fps 20
	activity "ACT_VM_IDLE" 1
	loop
}
$sequence "shoot1" {
	"v_transformgunadv_anims\shoot1"
	{ event 5001 0 "#I341 S0.16 R2 F0 P30 T999 A1 L0 O0 X0" }
	fps 30
	activity "ACT_VM_PRIMARYATTACK" 1
	snap
}
$sequence "shoot2" {
	"v_transformgunadv_anims\shoot2"
	{ event 5001 0 "#I341 S0.16 R2 F0 P30 T999 A1 L0 O0 X0" }
	fps 30
	activity "ACT_VM_PRIMARYATTACK" 1
	snap
}
$sequence "reload" {
	"v_transformgunadv_anims\reload"
	{ event 5004 18 "Drakar1.ClipOut" }
	{ event 5004 44 "Drakar1.ClipIn" }
	{ event 5004 68 "Drakar1.Boltpull" }
	fps 36
	activity "ACT_VM_RELOAD" 1
	snap
}
$sequence "draw" {
	"v_transformgunadv_anims\draw"
	{ event 5004 3 "Drakar1.Draw" }
	fps 30
	activity "ACT_VM_DRAW" 1
	snap
}
$sequence "shoot3" {
	"v_transformgunadv_anims\shoot3"
	fps 30
	snap
}
$sequence "shoot4" {
	"v_transformgunadv_anims\shoot4"
	fps 30
	snap
}
$sequence "shoot5" {
	"v_transformgunadv_anims\shoot5"
	fps 30
	snap
}
$sequence "idle1" {
	"v_transformgunadv_anims\idle1"
	fps 20
	loop
}
$sequence "shoot11" {
	"v_transformgunadv_anims\shoot11"
	{ event 5001 0 "#I342 S0.16 R2 F0 P30 T999 A1 L0 O0 X0" }
	fps 30
	snap
}
$sequence "shoot12" {
	"v_transformgunadv_anims\shoot12"
	{ event 5001 0 "#I342 S0.16 R2 F0 P30 T999 A1 L0 O0 X0" }
	fps 30
	snap
}
$sequence "reload1" {
	"v_transformgunadv_anims\reload1"
	{ event 5004 18 "Drakar1.ClipOut" }
	{ event 5004 44 "Drakar1.ClipIn" }
	{ event 5004 68 "Drakar1.Boltpull" }
	fps 36
	snap
}
$sequence "draw1" {
	"v_transformgunadv_anims\draw1"
	{ event 5004 3 "Drakar1.Draw" }
	fps 30
}
$sequence "shoot13" {
	"v_transformgunadv_anims\shoot13"
	fps 30
	snap
}
$sequence "shoot14" {
	"v_transformgunadv_anims\shoot14"
	fps 30
	snap
}
$sequence "shoot15" {
	"v_transformgunadv_anims\shoot15"
	fps 30
	snap
}
$sequence "idle2" {
	"v_transformgunadv_anims\idle2"
	fps 20
	loop
}
$sequence "shoot21" {
	"v_transformgunadv_anims\shoot21"
	{ event 5001 0 "#I343 S0.16 R2 F0 P30 T999 A1 L0 O0 X0" }
	fps 30
	snap
}
$sequence "shoot22" {
	"v_transformgunadv_anims\shoot22"
	{ event 5001 0 "#I343 S0.16 R2 F0 P30 T999 A1 L0 O0 X0" }
	fps 30
	snap
}
$sequence "reload2" {
	"v_transformgunadv_anims\reload2"
	{ event 5004 18 "Drakar1.ClipOut" }
	{ event 5004 44 "Drakar1.ClipIn" }
	{ event 5004 68 "Drakar1.Boltpull" }
	fps 36
	snap
}
$sequence "draw2" {
	"v_transformgunadv_anims\draw2"
	{ event 5004 3 "Drakar1.Draw" }
	fps 30
}
$sequence "shoot23" {
	"v_transformgunadv_anims\shoot23"
	fps 30
	snap
}
$sequence "shoot24" {
	"v_transformgunadv_anims\shoot24"
	fps 30
	snap
}
$sequence "shoot25" {
	"v_transformgunadv_anims\shoot25"
	fps 30
	snap
}
$sequence "reload01" {
	"v_transformgunadv_anims\reload01"
	{ event 5004 18 "Drakar1.ClipOut" }
	{ event 5004 44 "Drakar1.ClipIn" }
	{ event 5004 68 "Drakar3.Boltpull01" }
	fps 36
	snap
}
$sequence "reload10" {
	"v_transformgunadv_anims\reload10"
	{ event 5004 18 "Drakar1.ClipOut" }
	{ event 5004 44 "Drakar1.ClipIn" }
	{ event 5004 68 "Drakar3.Boltpull10" }
	fps 36
	snap
}
$sequence "reload12" {
	"v_transformgunadv_anims\reload12"
	{ event 5004 18 "Drakar1.ClipOut" }
	{ event 5004 44 "Drakar1.ClipIn" }
	{ event 5004 68 "Drakar3.Boltpull12" }
	fps 36
	snap
}
$sequence "reload20" {
	"v_transformgunadv_anims\reload20"
	{ event 5004 18 "Drakar1.ClipOut" }
	{ event 5004 44 "Drakar3.ClipIn20" }
	{ event 5004 68 "Drakar3.Boltpull10" }
	fps 36
	snap
}
$sequence "reload21" {
	"v_transformgunadv_anims\reload21"
	{ event 5004 18 "Drakar1.ClipOut" }
	{ event 5004 44 "Drakar1.ClipIn" }
	{ event 5004 68 "Drakar3.Boltpull10" }
	fps 36
	snap
}
$sequence "slash11" {
	"v_transformgunadvfx_anims\slash11"
	fps 30
	snap
}
$sequence "slash12" {
	"v_transformgunadvfx_anims\slash12"
	fps 30
	snap
}
$sequence "slash13" {
	"v_transformgunadvfx_anims\slash13"
	fps 30
	snap
}
$sequence "slash14" {
	"v_transformgunadvfx_anims\slash14"
	fps 30
	snap
}
$sequence "slash21" {
	"v_transformgunadvfx_anims\slash21"
	fps 30
	snap
}
$sequence "slash22" {
	"v_transformgunadvfx_anims\slash22"
	fps 30
	snap
}
$sequence "slash23" {
	"v_transformgunadvfx_anims\slash23"
	fps 30
	snap
}
$sequence "slash24" {
	"v_transformgunadvfx_anims\slash24"
	fps 30
	snap
}
$sequence "slash31" {
	"v_transformgunadvfx_anims\slash31"
	fps 30
	snap
}
$sequence "slash32" {
	"v_transformgunadvfx_anims\slash32"
	fps 30
	snap
}
$sequence "slash33" {
	"v_transformgunadvfx_anims\slash33"
	fps 30
	snap
}
$sequence "slash34" {
	"v_transformgunadvfx_anims\slash34"
	fps 30
	snap
}