// Created by Crowbar 0.34.0.0
version 1
nodes
  0 "phantom_1" -1
  1 "phantom_11" -1
  2 "phantom_22" -1
  3 "phantom_2" -1
  4 "slashfx1" -1
  5 "fxtrail" -1
  6 "fxtrailend" 5
  7 "flare_phantom" -1
  8 "root" -1
  9 "Bone01" 8
  10 "Bone_L_Upper" 9
  11 "Bone_Lefthand" 9
  12 "Bone13" 11
  13 "Bone14" 12
  14 "Bone15" 13
  15 "Bone17" 11
  16 "Bone18" 15
  17 "Bone19" 16
  18 "Bone21" 11
  19 "Bone22" 18
  20 "Bone23" 19
  21 "Bone09" 11
  22 "Bone10" 21
  23 "Bone11" 22
  24 "Bone05" 11
  25 "Bone06" 24
  26 "Bone07" 25
  27 "Bone_Se_Hand-L" 11
  28 "Bone04" 8
  29 "Bone_Righthand" 28
  30 "Bone39" 29
  31 "Bone40" 30
  32 "Bone41" 31
  33 "Bone35" 29
  34 "Bone36" 33
  35 "Bone37" 34
  36 "Bone31" 29
  37 "Bone32" 36
  38 "Bone33" 37
  39 "Bone43" 29
  40 "Bone44" 39
  41 "Bone45" 40
  42 "Bone27" 29
  43 "Bone28" 42
  44 "Bone29" 43
  45 "Bone_Se_Hand-R" 29
  46 "Bone_R_Upper" 28
end
skeleton
  time 0
    0 0.000000 -0.000002 48.828247 -3.141592 1.570796 0.000000
    1 0.000000 -9.548562 37.551598 -3.141592 1.570796 0.000000
    2 -0.000001 -30.405510 37.551598 -3.141592 1.570796 0.000000
    3 -0.000001 -20.525276 48.828247 -3.141592 1.570796 0.000000
    4 240.570129 -36.214401 -20.636955 -0.106269 -0.488402 -1.520787
    5 42.017227 0.218965 -3.926810 -0.538348 -0.212717 0.428276
    6 0.000004 99.890709 0.000021 0.000000 0.000000 0.000000
    7 -42.359509 -4.725811 -10.784075 -0.873495 2.881110 1.272517
    8 0.001265 -0.569176 -20.601572 0.000000 0.000000 0.000000
    9 9.310103 -5.299614 -12.557959 3.138909 -0.000224 -1.566807
    10 1.257180 8.762585 -0.153713 -1.570562 0.002683 -1.566807
    11 -0.071921 -8.498736 -0.104134 -0.025046 0.287591 0.014898
    12 -0.488518 -2.755602 -0.228260 0.106454 0.010332 -0.264490
    13 0.039887 -1.479790 0.029854 -0.055395 0.000000 0.000001
    14 0.028786 -1.075731 -0.023109 0.002099 0.000000 0.000000
    15 0.250027 -2.820665 -0.238396 0.041826 -0.002921 0.008443
    16 -0.049759 -1.680544 0.100479 0.019826 0.000000 -0.000002
    17 -0.034142 -1.148312 0.084782 -0.040115 0.000000 0.000000
    18 0.957766 -2.746780 -0.090302 -0.017221 -0.162277 0.191558
    19 -0.033420 -1.397129 -0.011257 0.013931 0.000000 -0.000001
    20 -0.022360 -0.957436 0.018784 0.003845 0.000000 0.000000
    21 -1.180681 -2.507217 -0.193859 0.082999 0.013294 -0.477915
    22 -0.024967 -1.123934 0.017597 -0.018065 0.000000 0.000001
    23 -0.020057 -0.890968 0.010090 -0.060797 0.000000 0.000000
    24 0.583510 -1.197277 0.185379 0.158049 -0.404973 -0.364290
    25 1.535927 0.010246 0.005009 -0.002964 -0.012979 0.000887
    26 1.100771 0.004527 -0.010679 -0.002796 0.015973 0.003458
    27 0.120153 -0.050270 -0.054489 0.287569 3.110905 1.561085
    28 -9.310107 -5.231260 -12.513384 0.004984 -3.131565 -1.566847
    29 0.096944 -8.450418 -0.009365 -0.032965 -0.297907 -0.004663
    30 0.447953 -2.798986 -0.200443 0.106456 -0.010396 0.265094
    31 -0.032909 -1.480204 0.004940 -0.055403 0.000000 0.000002
    32 -0.027022 -1.076920 -0.020210 0.002094 0.000000 0.000000
    33 -0.249534 -2.846964 -0.174213 0.041903 -0.000125 -0.008396
    34 0.043235 -1.683941 0.096012 0.019757 0.002823 -0.000167
    35 0.031729 -1.160830 0.058838 -0.040181 0.000642 0.008372
    36 -0.963866 -2.785145 -0.085350 -0.017227 0.162276 -0.191556
    37 0.028479 -1.403067 0.006271 0.013941 0.000000 0.000000
    38 0.021413 -0.957781 0.020046 0.003851 0.000000 0.000000
    39 1.164475 -2.543940 -0.170330 0.083003 -0.013294 0.477915
    40 0.024032 -1.129042 0.017807 -0.018074 0.000000 0.000001
    41 0.014898 -0.883989 -0.019848 -0.060801 0.000000 0.000000
    42 -0.586770 -1.264477 0.200161 -0.152092 -0.410513 -2.814816
    43 1.522835 0.058681 0.016848 0.001410 0.008985 -0.046880
    44 1.117947 0.048424 -0.005766 -0.000243 -0.025198 0.065422
    45 -0.139399 -0.111698 0.014397 0.285382 -0.030687 1.580508
    46 -1.393470 8.839177 -0.239433 1.580804 -0.005023 -1.566847
end
triangles
$0b_slashfx.bmp
  4 2.159107 -29.176074 -1.984362 0.082613 0.471287 0.878102 0.000000 1.000000
  4 2.863646 -43.252471 5.504315 0.082613 0.471287 0.878102 0.000000 0.000000
  4 478.276613 -29.176331 -46.778225 0.082613 0.471287 0.878102 1.000000 1.000000
$0b_slashfx.bmp
  4 478.276613 -29.176331 -46.778225 0.082613 0.471287 0.878102 1.000000 1.000000
  4 2.863646 -43.252471 5.504315 0.082613 0.471287 0.878102 0.000000 0.000000
  4 478.981152 -43.252728 -39.289549 0.082613 0.471287 0.878102 1.000000 0.000000
$0b_slashna.bmp
  6 1.662349 76.072147 -57.448434 0.377819 -0.391136 -0.839205 1.000000 0.000000
  6 30.809657 89.378944 -50.528038 0.377819 -0.391136 -0.839205 1.000000 1.000000
  5 27.443573 -6.434434 -7.387008 0.377819 -0.391136 -0.839205 0.000000 0.000000
$0b_slashna.bmp
  5 27.443573 -6.434434 -7.387008 0.377819 -0.391136 -0.839205 0.000000 0.000000
  6 30.809657 89.378944 -50.528038 0.377819 -0.391136 -0.839205 1.000000 1.000000
  5 56.590881 6.872364 -0.466612 0.377819 -0.391136 -0.839205 0.000000 1.000000
end
