version 1
nodes
  0 "Bone02" -1
  1 "Bone03" 0
  2 "Dummy01" 0
  3 "Bone08" 2
  4 "Bone38" -1
  5 "Dummy06" -1
  6 "Dummy03" 5
  7 "Dummy05" 5
  8 "Dummy04" 5
  9 "Dummy02" 5
  10 "root" -1
  11 "Bone01" 10
  12 "Bone_L_Upper" 11
  13 "Bone_Lefthand" 11
  14 "Bone13" 13
  15 "Bone14" 14
  16 "Bone15" 15
  17 "Bone17" 13
  18 "Bone18" 17
  19 "Bone19" 18
  20 "Bone21" 13
  21 "Bone22" 20
  22 "Bone23" 21
  23 "Bone09" 13
  24 "Bone10" 23
  25 "Bone11" 24
  26 "Bone05" 13
  27 "Bone06" 26
  28 "Bone07" 27
  29 "Bone_Se_Hand-L" 13
  30 "Bone04" 10
  31 "Bone_Righthand" 30
  32 "Bone39" 31
  33 "Bone40" 32
  34 "Bone41" 33
  35 "Bone35" 31
  36 "Bone36" 35
  37 "Bone37" 36
  38 "Bone31" 31
  39 "Bone32" 38
  40 "Bone33" 39
  41 "Bone43" 31
  42 "Bone44" 41
  43 "Bone45" 42
  44 "Bone27" 31
  45 "Bone28" 44
  46 "Bone29" 45
  47 "Bone_Se_Hand-R" 31
  48 "Bone_R_Upper" 30
end
skeleton
  time 0
    0 0.000000 0.000000 0.000000 1.570796 -1.570796 0.000000
    1 0.933258 0.000000 2.308187 0.000000 2.175901 -0.000001
    2 5.544233 -0.042046 1.127308 1.269062 3.141592 1.570796
    3 0.000000 0.000000 0.000000 -0.198956 -0.223036 -0.813854
    4 12.588787 0.000000 2.008068 1.570796 -1.570796 0.000000
    5 1.329033 7.436825 -55.238083 1.570796 0.000000 0.000000
    6 -7.500001 -7.500000 0.000001 0.000000 0.000000 0.000000
    7 -7.499998 7.500000 0.000000 0.000000 0.000000 0.000000
    8 7.500018 7.499996 0.000000 0.000000 0.000000 0.000000
    9 7.500006 -7.500000 0.000001 0.000000 0.000000 0.000000
    10 0.001265 -0.569176 -20.601572 0.000000 0.000000 0.000000
    11 9.310103 -5.299614 -12.557959 3.138909 -0.000224 -1.566807
    12 1.257180 8.762585 -0.153713 -1.570562 0.002683 -1.566807
    13 -0.071921 -8.498736 -0.104134 -0.025046 0.287591 0.014898
    14 -0.488518 -2.755602 -0.228260 0.106454 0.010332 -0.264490
    15 0.039887 -1.479790 0.029854 -0.055395 0.000000 0.000001
    16 0.028786 -1.075731 -0.023109 0.002099 0.000000 0.000000
    17 0.250027 -2.820665 -0.238396 0.041826 -0.002921 0.008443
    18 -0.049759 -1.680544 0.100479 0.019826 0.000000 -0.000002
    19 -0.034142 -1.148312 0.084782 -0.040115 0.000000 0.000000
    20 0.957766 -2.746780 -0.090302 -0.017221 -0.162277 0.191558
    21 -0.033420 -1.397129 -0.011257 0.013931 0.000000 -0.000001
    22 -0.022360 -0.957436 0.018784 0.003845 0.000000 0.000000
    23 -1.180681 -2.507217 -0.193859 0.082999 0.013294 -0.477915
    24 -0.024967 -1.123934 0.017597 -0.018065 0.000000 0.000001
    25 -0.020057 -0.890968 0.010090 -0.060797 0.000000 0.000000
    26 0.583510 -1.197277 0.185379 0.158049 -0.404973 -0.364290
    27 1.535927 0.010246 0.005009 -0.002964 -0.012979 0.000887
    28 1.100771 0.004527 -0.010679 -0.002796 0.015973 0.003458
    29 0.120153 -0.050270 -0.054489 0.287569 3.110905 1.561085
    30 -9.310107 -5.231260 -12.513384 0.004984 -3.131565 -1.566847
    31 0.096944 -8.450418 -0.009365 -0.032965 -0.297907 -0.004663
    32 0.447953 -2.798986 -0.200443 0.106456 -0.010396 0.265094
    33 -0.032909 -1.480204 0.004940 -0.055403 0.000000 0.000002
    34 -0.027022 -1.076920 -0.020210 0.002094 0.000000 0.000000
    35 -0.249534 -2.846964 -0.174213 0.041903 -0.000125 -0.008396
    36 0.043235 -1.683941 0.096012 0.019757 0.002823 -0.000167
    37 0.031729 -1.160830 0.058838 -0.040181 0.000642 0.008372
    38 -0.963866 -2.785145 -0.085350 -0.017227 0.162276 -0.191556
    39 0.028479 -1.403067 0.006271 0.013941 0.000000 0.000000
    40 0.021413 -0.957781 0.020046 0.003851 0.000000 0.000000
    41 1.164475 -2.543940 -0.170330 0.083003 -0.013294 0.477915
    42 0.024032 -1.129042 0.017807 -0.018074 0.000000 0.000001
    43 0.014898 -0.883989 -0.019848 -0.060801 0.000000 0.000000
    44 -0.586770 -1.264477 0.200161 -0.152092 -0.410513 -2.814816
    45 1.522835 0.058681 0.016848 0.001410 0.008985 -0.046880
    46 1.117947 0.048424 -0.005766 -0.000243 -0.025198 0.065422
    47 -0.139399 -0.111698 0.014397 0.285382 -0.030687 1.580508
    48 -1.393470 8.839177 -0.239433 1.580804 -0.005023 -1.566847
end
triangles
nongyakspray.bmp
  7 -6.170965 7.436827 -47.738083 0.000000 1.000000 0.000000 0.000000 1.000000
  8 8.829051 7.436827 -47.738087 0.000000 1.000000 0.000000 1.000000 1.000000
  6 -6.170968 7.436821 -62.738083 0.000000 1.000000 0.000000 0.000000 0.000000
nongyakspray.bmp
  6 -6.170968 7.436821 -62.738083 0.000000 1.000000 0.000000 0.000000 0.000000
  8 8.829051 7.436827 -47.738087 0.000000 1.000000 0.000000 1.000000 1.000000
  9 8.829039 7.436821 -62.738083 0.000000 1.000000 0.000000 1.000000 0.000000
end
