// Created by Crowbar 0.34.0.0

$ModelName "weapons/tfa_cso/w_cannonex.mdl"

$BodyGroup "studio"
{
	studio "w_rdc"
}

$collisionmodel "w_rdc.smd"
{
	$mass 9
}

$CDMaterials "models\weapons\tfa_cso\cannonex\"

$attachment "0" "root" -0.10 -7.50 -0.50 rotate -0 -90 0

$Sequence "idle" {
	"anims\idle.smd"
	fps 30
}