version 1
nodes
  0 "root" -1
  1 "Bone01" 0
  2 "Bone_L_Upper" 1
  3 "Bone_Lefthand" 1
  4 "Bone13" 3
  5 "Bone14" 4
  6 "Bone15" 5
  7 "Bone17" 3
  8 "Bone18" 7
  9 "Bone19" 8
  10 "Bone21" 3
  11 "Bone22" 10
  12 "Bone23" 11
  13 "Bone09" 3
  14 "Bone10" 13
  15 "Bone11" 14
  16 "Bone05" 3
  17 "Bone06" 16
  18 "Bone07" 17
  19 "Bone_Se_Hand-L" 3
  20 "Bone04" 0
  21 "Bone_Righthand" 20
  22 "Bone39" 21
  23 "Bone40" 22
  24 "Bone41" 23
  25 "Bone35" 21
  26 "Bone36" 25
  27 "Bone37" 26
  28 "Bone31" 21
  29 "Bone32" 28
  30 "Bone33" 29
  31 "Bone43" 21
  32 "Bone44" 31
  33 "Bone45" 32
  34 "Bone27" 21
  35 "Bone28" 34
  36 "Bone29" 35
  37 "Bone_Se_Hand-R" 21
  38 "Bone_R_Upper" 20
  39 "y20s1bow_root" 21
  40 "bow_bone01" 39
  41 "bow_bone13" 40
  42 "bow_bone02" 41
  43 "bow_bone03" 42
  44 "dummy02" 43
  45 "bow_bone04" 44
  46 "dummy03" 45
  47 "bow_bone05" 40
  48 "bow_bone06" 47
  49 "bow_bone07" 48
  50 "dummy07" 49
  51 "bow_bone08" 50
  52 "dummy04" 51
  53 "bow_bone09" 40
  54 "bow_bone10" 53
  55 "dummy01" 39
  56 "bow_bone11" 55
  57 "bow_bone12" 55
end
skeleton
  time 0
    0 -0.002752 1.627691 0.539698 0.000000 0.000000 0.000000
    1 11.814086 9.017229 -14.503330 4.346518 -0.846493 1.192012
    2 1.257180 8.762585 -0.153713 -1.570562 0.002683 -1.566807
    3 -0.071921 -8.498736 -0.104134 0.462574 0.407593 -0.216357
    4 -0.488518 -2.755602 -0.228260 -0.994014 -0.049100 -0.303116
    5 0.039887 -1.479790 0.029854 -1.787370 0.000000 0.000001
    6 0.028786 -1.075731 -0.023109 -1.477381 0.000000 0.000000
    7 0.250027 -2.820665 -0.238396 -0.630435 -0.172479 -0.156422
    8 -0.049759 -1.680544 0.100479 -1.899212 0.000000 -0.000002
    9 -0.034142 -1.148312 0.084782 -1.711774 0.000000 0.000000
    10 0.957766 -2.746780 -0.090302 -0.319622 -0.278596 -0.051542
    11 -0.033420 -1.397129 -0.011257 -1.363671 0.000000 -0.000001
    12 -0.022360 -0.957436 0.018784 -1.378380 0.000000 0.000000
    13 -1.180681 -2.507217 -0.193859 -0.904725 0.015547 -0.451705
    14 -0.024967 -1.123934 0.017597 -1.855827 0.000000 0.000001
    15 -0.020057 -0.890968 0.010090 -1.671895 0.000000 0.000000
    16 0.583510 -1.197277 0.185379 0.048210 -0.366994 -0.814622
    17 1.535927 0.010246 0.005009 -0.002964 -0.012979 -0.998522
    18 1.100771 0.004527 -0.010679 -0.002520 0.016009 0.021004
    19 0.120153 -0.050270 -0.054489 0.307128 3.311263 1.416131
    20 0.112055 -2.500708 -5.540515 0.044742 -3.420545 0.151319
    21 0.096944 -8.450418 -0.009365 0.092645 -0.025530 0.151280
    22 0.447953 -2.798986 -0.200443 -0.653159 0.087866 0.178829
    23 -0.032909 -1.480204 0.004940 -1.833495 0.000000 0.000002
    24 -0.027022 -1.076920 -0.020210 -0.930273 0.000000 0.000000
    25 -0.249534 -2.846964 -0.174213 -0.609311 0.058647 0.154463
    26 0.043235 -1.683941 0.096012 -1.902768 0.002823 -0.000167
    27 0.031729 -1.160830 0.058838 -1.001341 0.000642 0.008372
    28 -0.963866 -2.785145 -0.085350 -0.589404 0.158501 0.157028
    29 0.028479 -1.403067 0.006271 -1.731640 0.000000 0.000000
    30 0.021413 -0.957781 0.020046 -0.780749 0.000000 0.000000
    31 1.164475 -2.543940 -0.170330 -0.674602 -0.089480 0.155889
    32 0.024032 -1.129042 0.017807 -1.450287 0.000000 0.000001
    33 0.014898 -0.883989 -0.019848 -1.242513 0.000000 0.000000
    34 -0.586770 -1.264477 0.200161 0.408263 -0.817934 -3.052147
    35 1.522835 0.058681 0.016848 0.001410 0.008985 0.689974
    36 1.117947 0.048424 -0.005766 0.009764 -0.023233 -0.342294
    37 -0.139399 -0.111698 0.014397 -0.045310 0.208681 1.417745
    38 -1.393470 8.839177 -0.239433 1.580804 -0.005023 -1.566847
    39 -2.022848 -2.339003 0.868779 3.098285 0.057459 -1.531947
    40 0.558611 0.968780 -0.089846 0.000000 0.000000 0.000000
    41 0.000000 -0.705283 -0.062950 0.000001 0.000000 1.570796
    42 3.295873 0.000000 -0.000001 0.000000 0.000000 -0.028985
    43 3.010893 -0.484526 0.000002 0.000000 -3.141592 0.745318
    44 -13.094625 -1.958421 0.062963 0.000002 0.000002 -1.016276
    45 0.000002 0.000000 0.000000 0.012678 3.130109 -0.906895
    46 -2.953225 0.000501 -0.014695 0.004976 3.141590 1.570628
    47 -0.000001 -4.637308 -0.062952 0.000000 0.000000 -1.570796
    48 3.144783 0.000000 -0.000001 0.000000 0.000000 0.041198
    49 2.703411 0.538742 0.000005 0.000000 0.000000 -0.744201
    50 13.664381 2.455671 -0.062817 0.000001 0.000002 2.136413
    51 0.000003 0.000004 0.000000 0.230759 -0.009029 2.105028
    52 -2.953224 0.000499 -0.014695 -0.004976 -0.000002 1.570628
    53 -15.747961 -0.088897 0.147679 0.000353 0.058113 -0.035845
    54 25.306986 0.000014 -0.222672 0.000000 0.000000 0.000000
    55 -15.173745 0.985556 0.001780 0.000001 -3.141592 0.000000
    56 0.000000 -0.000001 0.000000 -0.012668 -3.130974 -1.068758
    57 0.000000 -0.000001 0.000000 -0.230782 -3.133258 1.173788
  time 1
    0 -0.002752 1.627691 0.539698 0.000000 0.000000 0.000000
    1 11.837524 9.349271 -14.718181 4.344997 -0.847032 1.193256
    2 1.257180 8.762585 -0.153713 -1.570562 0.002683 -1.566807
    3 -0.071921 -8.498736 -0.104134 0.462574 0.407593 -0.216357
    4 -0.488518 -2.755602 -0.228260 -0.994014 -0.049100 -0.303116
    5 0.039887 -1.479790 0.029854 -1.787370 0.000000 0.000001
    6 0.028786 -1.075731 -0.023109 -1.477381 0.000000 0.000000
    7 0.250027 -2.820665 -0.238396 -0.630435 -0.172479 -0.156422
    8 -0.049759 -1.680544 0.100479 -1.899212 0.000000 -0.000002
    9 -0.034142 -1.148312 0.084782 -1.711774 0.000000 0.000000
    10 0.957766 -2.746780 -0.090302 -0.319622 -0.278596 -0.051542
    11 -0.033420 -1.397129 -0.011257 -1.363671 0.000000 -0.000001
    12 -0.022360 -0.957436 0.018784 -1.378380 0.000000 0.000000
    13 -1.180681 -2.507217 -0.193859 -0.904725 0.015547 -0.451705
    14 -0.024967 -1.123934 0.017597 -1.855827 0.000000 0.000001
    15 -0.020057 -0.890968 0.010090 -1.671895 0.000000 0.000000
    16 0.583510 -1.197277 0.185379 0.048210 -0.366994 -0.814622
    17 1.535927 0.010246 0.005009 -0.002964 -0.012979 -0.998522
    18 1.100771 0.004527 -0.010679 -0.002520 0.016009 0.021004
    19 0.120153 -0.050270 -0.054489 0.307128 3.311263 1.416131
    20 0.127681 -2.168666 -5.770991 0.044742 -3.421685 0.151384
    21 0.096944 -8.450418 -0.009365 0.092645 -0.025530 0.151280
    22 0.447953 -2.798986 -0.200443 -0.653159 0.087866 0.178829
    23 -0.032909 -1.480204 0.004940 -1.833495 0.000000 0.000002
    24 -0.027022 -1.076920 -0.020210 -0.930273 0.000000 0.000000
    25 -0.249534 -2.846964 -0.174213 -0.609311 0.058647 0.154463
    26 0.043235 -1.683941 0.096012 -1.902768 0.002823 -0.000167
    27 0.031729 -1.160830 0.058838 -1.001341 0.000642 0.008372
    28 -0.963866 -2.785145 -0.085350 -0.589404 0.158501 0.157028
    29 0.028479 -1.403067 0.006271 -1.731640 0.000000 0.000000
    30 0.021413 -0.957781 0.020046 -0.780749 0.000000 0.000000
    31 1.164475 -2.543940 -0.170330 -0.674602 -0.089480 0.155889
    32 0.024032 -1.129042 0.017807 -1.450287 0.000000 0.000001
    33 0.014898 -0.883989 -0.019848 -1.242513 0.000000 0.000000
    34 -0.586770 -1.264477 0.200161 0.408263 -0.817934 -3.052147
    35 1.522835 0.058681 0.016848 0.001410 0.008985 0.689974
    36 1.117947 0.048424 -0.005766 0.009764 -0.023233 -0.342294
    37 -0.139399 -0.111698 0.014397 -0.045310 0.208681 1.417745
    38 -1.393470 8.839177 -0.239433 1.580804 -0.005023 -1.566847
    39 -2.022848 -2.339003 0.868779 3.098285 0.057459 -1.531947
    40 0.558611 0.968780 -0.089846 0.000000 0.000000 0.000000
    41 0.000000 -0.705283 -0.062950 0.000001 0.000000 1.570796
    42 3.295873 0.000000 -0.000001 0.000000 0.000000 -0.028985
    43 3.010893 -0.484526 0.000002 0.000000 -3.141592 0.745318
    44 -13.094625 -1.958421 0.062963 0.000002 0.000002 -1.016276
    45 0.000002 0.000000 0.000000 0.013444 3.130109 -0.906895
    46 -2.953225 0.000501 -0.014695 0.004976 3.141590 1.570628
    47 -0.000001 -4.637308 -0.062952 0.000000 0.000000 -1.570796
    48 3.144783 0.000000 -0.000001 0.000000 0.000000 0.041198
    49 2.703411 0.538742 0.000005 0.000000 0.000000 -0.744201
    50 13.664381 2.455671 -0.062817 0.000001 0.000002 2.136413
    51 0.000003 0.000004 0.000000 0.231010 -0.009029 2.105028
    52 -2.953224 0.000499 -0.014695 -0.004976 -0.000002 1.570628
    53 -15.747961 -0.088897 0.147679 0.000353 0.058113 -0.035845
    54 25.306986 0.000014 -0.222672 0.000000 0.000000 0.000000
    55 -15.173745 0.985556 0.001780 0.000001 -3.141592 0.000000
    56 0.000000 -0.000001 0.000000 -0.013434 -3.130974 -1.068758
    57 0.000000 -0.000001 0.000000 -0.231064 -3.133258 1.173788
  time 2
    0 -0.002752 1.627691 0.539698 0.000000 0.000000 0.000000
    1 11.841431 9.607091 -14.909593 4.346518 -0.846493 1.192012
    2 1.257180 8.762585 -0.153713 -1.570562 0.002683 -1.566807
    3 -0.071921 -8.498736 -0.104134 0.462574 0.407593 -0.216357
    4 -0.488518 -2.755602 -0.228260 -0.994014 -0.049100 -0.303116
    5 0.039887 -1.479790 0.029854 -1.787370 0.000000 0.000001
    6 0.028786 -1.075731 -0.023109 -1.477381 0.000000 0.000000
    7 0.250027 -2.820665 -0.238396 -0.630435 -0.172479 -0.156422
    8 -0.049759 -1.680544 0.100479 -1.899212 0.000000 -0.000002
    9 -0.034142 -1.148312 0.084782 -1.711774 0.000000 0.000000
    10 0.957766 -2.746780 -0.090302 -0.319622 -0.278596 -0.051542
    11 -0.033420 -1.397129 -0.011257 -1.363671 0.000000 -0.000001
    12 -0.022360 -0.957436 0.018784 -1.378380 0.000000 0.000000
    13 -1.180681 -2.507217 -0.193859 -0.904695 0.015547 -0.451705
    14 -0.024967 -1.123934 0.017597 -1.855827 0.000000 0.000001
    15 -0.020057 -0.890968 0.010090 -1.671895 0.000000 0.000000
    16 0.583510 -1.197277 0.185379 0.048210 -0.366994 -0.814622
    17 1.535927 0.010246 0.005009 -0.002964 -0.012979 -0.998522
    18 1.100771 0.004527 -0.010679 -0.002520 0.016009 0.021004
    19 0.120153 -0.050270 -0.054489 0.307128 3.311263 1.416131
    20 0.139400 -1.910846 -5.946777 0.044742 -3.420545 0.151319
    21 0.096944 -8.450418 -0.009365 0.092645 -0.025530 0.151280
    22 0.447953 -2.798986 -0.200443 -0.653159 0.087866 0.178829
    23 -0.032909 -1.480204 0.004940 -1.833495 0.000000 0.000002
    24 -0.027022 -1.076920 -0.020210 -0.930273 0.000000 0.000000
    25 -0.249534 -2.846964 -0.174213 -0.609311 0.058647 0.154463
    26 0.043235 -1.683941 0.096012 -1.902768 0.002823 -0.000167
    27 0.031729 -1.160830 0.058838 -1.001341 0.000642 0.008372
    28 -0.963866 -2.785145 -0.085350 -0.589404 0.158501 0.157028
    29 0.028479 -1.403067 0.006271 -1.731640 0.000000 0.000000
    30 0.021413 -0.957781 0.020046 -0.780749 0.000000 0.000000
    31 1.164475 -2.543940 -0.170330 -0.674602 -0.089480 0.155889
    32 0.024032 -1.129042 0.017807 -1.450287 0.000000 0.000001
    33 0.014898 -0.883989 -0.019848 -1.242513 0.000000 0.000000
    34 -0.586770 -1.264477 0.200161 0.408263 -0.817934 -3.052147
    35 1.522835 0.058681 0.016848 0.001410 0.008985 0.689974
    36 1.117947 0.048424 -0.005766 0.009764 -0.023233 -0.342294
    37 -0.139399 -0.111698 0.014397 -0.045310 0.208681 1.417745
    38 -1.393470 8.839177 -0.239433 1.580804 -0.005023 -1.566847
    39 -2.022848 -2.339003 0.868779 3.098285 0.057459 -1.531947
    40 0.558611 0.968780 -0.089846 0.000000 0.000000 0.000000
    41 0.000000 -0.705283 -0.062950 0.000001 0.000000 1.570796
    42 3.295873 0.000000 -0.000001 0.000000 0.000000 -0.028985
    43 3.010893 -0.484526 0.000002 0.000000 -3.141592 0.745318
    44 -13.094625 -1.958421 0.062963 0.000002 0.000002 -1.016276
    45 0.000002 0.000000 0.000000 0.012678 3.130109 -0.906895
    46 -2.953225 0.000501 -0.014695 0.004976 3.141590 1.570628
    47 -0.000001 -4.637308 -0.062952 0.000000 0.000000 -1.570796
    48 3.144783 0.000000 -0.000001 0.000000 0.000000 0.041198
    49 2.703411 0.538742 0.000005 0.000000 0.000000 -0.744201
    50 13.664381 2.455671 -0.062817 0.000001 0.000002 2.136413
    51 0.000003 0.000004 0.000000 0.230759 -0.009029 2.105028
    52 -2.953224 0.000499 -0.014695 -0.004976 -0.000002 1.570628
    53 -15.747961 -0.088897 0.147679 0.000353 0.058113 -0.035845
    54 25.306986 0.000014 -0.222672 0.000000 0.000000 0.000000
    55 -15.173745 0.985556 0.001780 0.000001 -3.141592 0.000000
    56 0.000000 -0.000001 0.000000 -0.012668 -3.130974 -1.068758
    57 0.000000 -0.000001 0.000000 -0.230782 -3.133258 1.173788
  time 3
    0 -0.002752 1.627691 0.539698 0.000000 0.000000 0.000000
    1 11.825805 9.603185 -14.858810 4.346518 -0.846493 1.192012
    2 1.257180 8.762585 -0.153713 -1.570562 0.002683 -1.566807
    3 -0.071921 -8.498736 -0.104134 0.462574 0.407593 -0.216357
    4 -0.488518 -2.755602 -0.228260 -0.994014 -0.049100 -0.303116
    5 0.039887 -1.479790 0.029854 -1.787370 0.000000 0.000001
    6 0.028786 -1.075731 -0.023109 -1.477381 0.000000 0.000000
    7 0.250027 -2.820665 -0.238396 -0.630435 -0.172479 -0.156422
    8 -0.049759 -1.680544 0.100479 -1.899212 0.000000 -0.000002
    9 -0.034142 -1.148312 0.084782 -1.711774 0.000000 0.000000
    10 0.957766 -2.746780 -0.090302 -0.319622 -0.278596 -0.051542
    11 -0.033420 -1.397129 -0.011257 -1.363671 0.000000 -0.000001
    12 -0.022360 -0.957436 0.018784 -1.378380 0.000000 0.000000
    13 -1.180681 -2.507217 -0.193859 -0.904725 0.015547 -0.451705
    14 -0.024967 -1.123934 0.017597 -1.855827 0.000000 0.000001
    15 -0.020057 -0.890968 0.010090 -1.671895 0.000000 0.000000
    16 0.583510 -1.197277 0.185379 0.048210 -0.366994 -0.814622
    17 1.535927 0.010246 0.005009 -0.002964 -0.012979 -0.998522
    18 1.100771 0.004527 -0.010679 -0.002520 0.016009 0.021004
    19 0.120153 -0.050270 -0.054489 0.307128 3.311263 1.416131
    20 0.123774 -1.914752 -5.895994 0.044742 -3.420545 0.151319
    21 0.096944 -8.450418 -0.009365 0.092645 -0.025530 0.151280
    22 0.447953 -2.798986 -0.200443 -0.653159 0.087866 0.178829
    23 -0.032909 -1.480204 0.004940 -1.833495 0.000000 0.000002
    24 -0.027022 -1.076920 -0.020210 -0.930273 0.000000 0.000000
    25 -0.249534 -2.846964 -0.174213 -0.609311 0.058647 0.154463
    26 0.043235 -1.683941 0.096012 -1.902768 0.002823 -0.000167
    27 0.031729 -1.160830 0.058838 -1.001341 0.000642 0.008372
    28 -0.963866 -2.785145 -0.085350 -0.589404 0.158501 0.157028
    29 0.028479 -1.403067 0.006271 -1.731640 0.000000 0.000000
    30 0.021413 -0.957781 0.020046 -0.780749 0.000000 0.000000
    31 1.164475 -2.543940 -0.170330 -0.674625 -0.089480 0.155889
    32 0.024032 -1.129042 0.017807 -1.450287 0.000000 0.000001
    33 0.014898 -0.883989 -0.019848 -1.242513 0.000000 0.000000
    34 -0.586770 -1.264477 0.200161 0.408263 -0.817934 -3.052147
    35 1.522835 0.058681 0.016848 0.001410 0.008985 0.689974
    36 1.117947 0.048424 -0.005766 0.009764 -0.023233 -0.342294
    37 -0.139399 -0.111698 0.014397 -0.045310 0.208681 1.417745
    38 -1.393470 8.839177 -0.239433 1.580804 -0.005023 -1.566847
    39 -2.022848 -2.339003 0.868779 3.098285 0.057459 -1.531947
    40 0.558611 0.968780 -0.089846 0.000000 0.000000 0.000000
    41 0.000000 -0.705283 -0.062950 0.000001 0.000000 1.570796
    42 3.295873 0.000000 -0.000001 0.000000 0.000000 -0.028985
    43 3.010893 -0.484526 0.000002 0.000000 -3.141592 0.745318
    44 -13.094625 -1.958421 0.062963 0.000002 0.000002 -1.016276
    45 0.000002 0.000000 0.000000 0.012678 3.130109 -0.906895
    46 -2.953225 0.000501 -0.014695 0.004976 3.141590 1.570628
    47 -0.000001 -4.637308 -0.062952 0.000000 0.000000 -1.570796
    48 3.144783 0.000000 -0.000001 0.000000 0.000000 0.041198
    49 2.703411 0.538742 0.000005 0.000000 0.000000 -0.744201
    50 13.664381 2.455671 -0.062817 0.000001 0.000002 2.136413
    51 0.000003 0.000004 0.000000 0.230759 -0.009029 2.105028
    52 -2.953224 0.000499 -0.014695 -0.004976 -0.000002 1.570628
    53 -15.747961 -0.088897 0.147679 0.000353 0.058113 -0.035845
    54 25.306986 0.000014 -0.222672 0.000000 0.000000 0.000000
    55 -15.173745 0.985556 0.001780 0.000001 -3.141592 0.000000
    56 0.000000 -0.000001 0.000000 -0.012668 -3.130974 -1.068758
    57 0.000000 -0.000001 0.000000 -0.230782 -3.133258 1.173788
  time 4
    0 -0.002752 1.627691 0.539698 0.000000 0.000000 0.000000
    1 11.802367 9.548495 -14.741619 4.346518 -0.846493 1.192012
    2 1.257180 8.762585 -0.153713 -1.570562 0.002683 -1.566807
    3 -0.071921 -8.498736 -0.104134 0.462574 0.407593 -0.216357
    4 -0.488518 -2.755602 -0.228260 -0.994014 -0.049100 -0.303116
    5 0.039887 -1.479790 0.029854 -1.787370 0.000000 0.000001
    6 0.028786 -1.075731 -0.023109 -1.477381 0.000000 0.000000
    7 0.250027 -2.820665 -0.238396 -0.630435 -0.172479 -0.156422
    8 -0.049759 -1.680544 0.100479 -1.899212 0.000000 -0.000002
    9 -0.034142 -1.148312 0.084782 -1.711774 0.000000 0.000000
    10 0.957766 -2.746780 -0.090302 -0.319622 -0.278596 -0.051558
    11 -0.033420 -1.397129 -0.011257 -1.363671 0.000000 -0.000001
    12 -0.022360 -0.957436 0.018784 -1.378380 0.000000 0.000000
    13 -1.180681 -2.507217 -0.193859 -0.904695 0.015547 -0.451705
    14 -0.024967 -1.123934 0.017597 -1.855827 0.000000 0.000001
    15 -0.020057 -0.890968 0.010090 -1.671895 0.000000 0.000000
    16 0.583510 -1.197277 0.185379 0.048210 -0.366994 -0.814622
    17 1.535927 0.010246 0.005009 -0.002964 -0.012979 -0.998522
    18 1.100771 0.004527 -0.010679 -0.002520 0.016009 0.021004
    19 0.120153 -0.050270 -0.054489 0.307128 3.311263 1.416131
    20 0.100336 -1.969442 -5.778803 0.044742 -3.420545 0.151319
    21 0.096944 -8.450418 -0.009365 0.092645 -0.025530 0.151280
    22 0.447953 -2.798986 -0.200443 -0.653159 0.087866 0.178829
    23 -0.032909 -1.480204 0.004940 -1.833495 0.000000 0.000002
    24 -0.027022 -1.076920 -0.020210 -0.930273 0.000000 0.000000
    25 -0.249534 -2.846964 -0.174213 -0.609311 0.058647 0.154463
    26 0.043235 -1.683941 0.096012 -1.902768 0.002823 -0.000167
    27 0.031729 -1.160830 0.058838 -1.001341 0.000642 0.008372
    28 -0.963866 -2.785145 -0.085350 -0.589404 0.158501 0.157028
    29 0.028479 -1.403067 0.006271 -1.731640 0.000000 0.000000
    30 0.021413 -0.957781 0.020046 -0.780749 0.000000 0.000000
    31 1.164475 -2.543940 -0.170330 -0.674625 -0.089480 0.155889
    32 0.024032 -1.129042 0.017807 -1.450287 0.000000 0.000001
    33 0.014898 -0.883989 -0.019848 -1.242513 0.000000 0.000000
    34 -0.586770 -1.264477 0.200161 0.408263 -0.817934 -3.052147
    35 1.522835 0.058681 0.016848 0.001410 0.008985 0.689974
    36 1.117947 0.048424 -0.005766 0.009764 -0.023233 -0.342294
    37 -0.139399 -0.111698 0.014397 -0.045310 0.208681 1.417745
    38 -1.393470 8.839177 -0.239433 1.580804 -0.005023 -1.566847
    39 -2.022848 -2.339003 0.868779 3.098285 0.057459 -1.531947
    40 0.558611 0.968780 -0.089846 0.000000 0.000000 0.000000
    41 0.000000 -0.705283 -0.062950 0.000001 0.000000 1.570796
    42 3.295873 0.000000 -0.000001 0.000000 0.000000 -0.028985
    43 3.010893 -0.484526 0.000002 0.000000 -3.141592 0.745318
    44 -13.094625 -1.958421 0.062963 0.000002 0.000002 -1.016276
    45 0.000002 0.000000 0.000000 0.012678 3.130109 -0.906895
    46 -2.953225 0.000501 -0.014695 0.004976 3.141590 1.570628
    47 -0.000001 -4.637308 -0.062952 0.000000 0.000000 -1.570796
    48 3.144783 0.000000 -0.000001 0.000000 0.000000 0.041198
    49 2.703411 0.538742 0.000005 0.000000 0.000000 -0.744201
    50 13.664381 2.455671 -0.062817 0.000001 0.000002 2.136413
    51 0.000003 0.000004 0.000000 0.230759 -0.009029 2.105028
    52 -2.953224 0.000499 -0.014695 -0.004976 -0.000002 1.570628
    53 -15.747961 -0.088897 0.147679 0.000353 0.058113 -0.035845
    54 25.306986 0.000014 -0.222672 0.000000 0.000000 0.000000
    55 -15.173745 0.985556 0.001780 0.000001 -3.141592 0.000000
    56 0.000000 -0.000001 0.000000 -0.012668 -3.130974 -1.068758
    57 0.000000 -0.000001 0.000000 -0.230782 -3.133258 1.173788
  time 5
    0 -0.002752 1.627691 0.539698 0.000000 0.000000 0.000000
    1 11.786741 9.372709 -14.604896 4.346518 -0.846493 1.192012
    2 1.257180 8.762585 -0.153713 -1.570562 0.002683 -1.566807
    3 -0.071921 -8.498736 -0.104134 0.462574 0.407593 -0.216357
    4 -0.488518 -2.755602 -0.228260 -0.994014 -0.049100 -0.303116
    5 0.039887 -1.479790 0.029854 -1.787370 0.000000 0.000001
    6 0.028786 -1.075731 -0.023109 -1.477381 0.000000 0.000000
    7 0.250027 -2.820665 -0.238396 -0.630435 -0.172479 -0.156422
    8 -0.049759 -1.680544 0.100479 -1.899212 0.000000 -0.000002
    9 -0.034142 -1.148312 0.084782 -1.711774 0.000000 0.000000
    10 0.957766 -2.746780 -0.090302 -0.319622 -0.278596 -0.051542
    11 -0.033420 -1.397129 -0.011257 -1.363671 0.000000 -0.000001
    12 -0.022360 -0.957436 0.018784 -1.378380 0.000000 0.000000
    13 -1.180681 -2.507217 -0.193859 -0.904725 0.015547 -0.451705
    14 -0.024967 -1.123934 0.017597 -1.855827 0.000000 0.000001
    15 -0.020057 -0.890968 0.010090 -1.671895 0.000000 0.000000
    16 0.583510 -1.197277 0.185379 0.048210 -0.366994 -0.814622
    17 1.535927 0.010246 0.005009 -0.002964 -0.012979 -0.998522
    18 1.100771 0.004527 -0.010679 -0.002520 0.016009 0.021004
    19 0.120153 -0.050270 -0.054489 0.307128 3.311263 1.416131
    20 0.084711 -2.141322 -5.642080 0.044742 -3.420545 0.151319
    21 0.096944 -8.450418 -0.009365 0.092645 -0.025530 0.151280
    22 0.447953 -2.798986 -0.200443 -0.653159 0.087866 0.178829
    23 -0.032909 -1.480204 0.004940 -1.833495 0.000000 0.000002
    24 -0.027022 -1.076920 -0.020210 -0.930273 0.000000 0.000000
    25 -0.249534 -2.846964 -0.174213 -0.609311 0.058647 0.154463
    26 0.043235 -1.683941 0.096012 -1.902768 0.002823 -0.000167
    27 0.031729 -1.160830 0.058838 -1.001341 0.000642 0.008372
    28 -0.963866 -2.785145 -0.085350 -0.589404 0.158501 0.157028
    29 0.028479 -1.403067 0.006271 -1.731640 0.000000 0.000000
    30 0.021413 -0.957781 0.020046 -0.780749 0.000000 0.000000
    31 1.164475 -2.543940 -0.170330 -0.674602 -0.089480 0.155889
    32 0.024032 -1.129042 0.017807 -1.450287 0.000000 0.000001
    33 0.014898 -0.883989 -0.019848 -1.242513 0.000000 0.000000
    34 -0.586770 -1.264477 0.200161 0.408263 -0.817934 -3.052147
    35 1.522835 0.058681 0.016848 0.001410 0.008985 0.689974
    36 1.117947 0.048424 -0.005766 0.009764 -0.023233 -0.342294
    37 -0.139399 -0.111698 0.014397 -0.045310 0.208681 1.417745
    38 -1.393470 8.839177 -0.239433 1.580804 -0.005023 -1.566847
    39 -2.022848 -2.339003 0.868779 3.098285 0.057459 -1.531947
    40 0.558611 0.968780 -0.089846 0.000000 0.000000 0.000000
    41 0.000000 -0.705283 -0.062950 0.000001 0.000000 1.570796
    42 3.295873 0.000000 -0.000001 0.000000 0.000000 -0.019134
    43 3.010893 -0.484526 0.000002 0.000000 -3.141592 0.758237
    44 -13.094625 -1.958421 0.062963 0.000002 0.000002 -1.016276
    45 0.000002 0.000000 0.000000 0.009900 3.129919 -0.893203
    46 -2.953225 0.000501 -0.014695 0.004976 3.141590 1.570628
    47 -0.000001 -4.637308 -0.062952 0.000000 0.000000 -1.570796
    48 3.144783 0.000000 -0.000001 0.000000 0.000000 0.031826
    49 2.703411 0.538742 0.000005 0.000000 0.000000 -0.757120
    50 13.664381 2.455671 -0.062817 0.000001 0.000002 2.136413
    51 0.000003 0.000004 0.000000 0.229082 -0.009125 2.118645
    52 -2.953224 0.000499 -0.014695 -0.004976 -0.000002 1.570628
    53 -15.747961 -0.088897 0.147679 0.000353 0.058113 -0.035845
    54 25.306986 0.000014 -0.222672 0.000000 0.000000 0.000000
    55 -15.173745 0.985556 0.001780 0.000001 -3.141592 0.000000
    56 0.000000 -0.000001 0.000000 -0.009890 -3.130879 -1.077820
    57 0.000000 -0.000001 0.000000 -0.229091 -3.133162 1.182488
  time 6
    0 -0.002752 1.627691 0.539698 0.000000 0.000000 0.000000
    1 11.814086 9.017229 -14.503330 4.346518 -0.846493 1.192012
    2 1.257180 8.762585 -0.153713 -1.570562 0.002683 -1.566807
    3 -0.071921 -8.498736 -0.104134 0.462574 0.407593 -0.216357
    4 -0.488518 -2.755602 -0.228260 -0.994014 -0.049100 -0.303116
    5 0.039887 -1.479790 0.029854 -1.787370 0.000000 0.000001
    6 0.028786 -1.075731 -0.023109 -1.477381 0.000000 0.000000
    7 0.250027 -2.820665 -0.238396 -0.630435 -0.172479 -0.156422
    8 -0.049759 -1.680544 0.100479 -1.899212 0.000000 -0.000002
    9 -0.034142 -1.148312 0.084782 -1.711774 0.000000 0.000000
    10 0.957766 -2.746780 -0.090302 -0.319622 -0.278596 -0.051542
    11 -0.033420 -1.397129 -0.011257 -1.363671 0.000000 -0.000001
    12 -0.022360 -0.957436 0.018784 -1.378380 0.000000 0.000000
    13 -1.180681 -2.507217 -0.193859 -0.904725 0.015547 -0.451705
    14 -0.024967 -1.123934 0.017597 -1.855827 0.000000 0.000001
    15 -0.020057 -0.890968 0.010090 -1.671895 0.000000 0.000000
    16 0.583510 -1.197277 0.185379 0.048210 -0.366994 -0.814622
    17 1.535927 0.010246 0.005009 -0.002964 -0.012979 -0.998522
    18 1.100771 0.004527 -0.010679 -0.002520 0.016009 0.021004
    19 0.120153 -0.050270 -0.054489 0.307128 3.311263 1.416131
    20 0.112055 -2.500708 -5.540515 0.044742 -3.420545 0.151319
    21 0.096944 -8.450418 -0.009365 0.092645 -0.025530 0.151280
    22 0.447953 -2.798986 -0.200443 -0.653159 0.087866 0.178829
    23 -0.032909 -1.480204 0.004940 -1.833495 0.000000 0.000002
    24 -0.027022 -1.076920 -0.020210 -0.930273 0.000000 0.000000
    25 -0.249534 -2.846964 -0.174213 -0.609311 0.058647 0.154463
    26 0.043235 -1.683941 0.096012 -1.902768 0.002823 -0.000167
    27 0.031729 -1.160830 0.058838 -1.001341 0.000642 0.008372
    28 -0.963866 -2.785145 -0.085350 -0.589404 0.158501 0.157028
    29 0.028479 -1.403067 0.006271 -1.731640 0.000000 0.000000
    30 0.021413 -0.957781 0.020046 -0.780749 0.000000 0.000000
    31 1.164475 -2.543940 -0.170330 -0.674602 -0.089480 0.155889
    32 0.024032 -1.129042 0.017807 -1.450287 0.000000 0.000001
    33 0.014898 -0.883989 -0.019848 -1.242513 0.000000 0.000000
    34 -0.586770 -1.264477 0.200161 0.408263 -0.817934 -3.052147
    35 1.522835 0.058681 0.016848 0.001410 0.008985 0.689974
    36 1.117947 0.048424 -0.005766 0.009764 -0.023233 -0.342294
    37 -0.139399 -0.111698 0.014397 -0.045310 0.208681 1.417745
    38 -1.393470 8.839177 -0.239433 1.580804 -0.005023 -1.566847
    39 -2.022848 -2.339003 0.868779 3.098285 0.057459 -1.531947
    40 0.558611 0.968780 -0.089846 0.000000 0.000000 0.000000
    41 0.000000 -0.705283 -0.062950 0.000001 0.000000 1.570796
    42 3.295873 0.000000 -0.000001 0.000000 0.000000 0.006861
    43 3.010893 -0.484526 0.000002 0.000000 -3.141592 0.790560
    44 -13.094625 -1.958421 0.062963 0.000002 0.000002 -1.016276
    45 0.000002 0.000000 0.000000 0.002812 3.129443 -0.857858
    46 -2.953225 0.000501 -0.014695 0.004976 3.141590 1.570628
    47 -0.000001 -4.637308 -0.062952 0.000000 0.000000 -1.570796
    48 3.144783 0.000000 -0.000001 0.000000 0.000000 0.007090
    49 2.703411 0.538742 0.000005 0.000000 0.000000 -0.789443
    50 13.664381 2.455671 -0.062817 0.000001 0.000002 2.136413
    51 0.000003 0.000004 0.000000 0.224765 -0.009377 2.153598
    52 -2.953224 0.000499 -0.014695 -0.004976 -0.000002 1.570628
    53 -15.747961 -0.088897 0.147679 0.000353 0.058113 -0.035845
    54 25.306986 0.000014 -0.222672 0.000000 0.000000 0.000000
    55 -15.173745 0.985556 0.001780 0.000001 -3.141592 0.000000
    56 0.000000 -0.000001 0.000000 -0.002801 -3.130402 -1.100770
    57 0.000000 -0.000001 0.000000 -0.224767 -3.132971 1.204634
  time 7
    0 -0.002752 1.627691 0.539698 0.000000 0.000000 0.000000
    1 11.896120 8.357053 -14.444735 4.346518 -0.846493 1.192012
    2 1.257180 8.762585 -0.153713 -1.570562 0.002683 -1.566807
    3 -0.071921 -8.498736 -0.104134 0.462574 0.407593 -0.216357
    4 -0.488518 -2.755602 -0.228260 -0.994014 -0.049100 -0.303116
    5 0.039887 -1.479790 0.029854 -1.787370 0.000000 0.000001
    6 0.028786 -1.075731 -0.023109 -1.477381 0.000000 0.000000
    7 0.250027 -2.820665 -0.238396 -0.630435 -0.172479 -0.156422
    8 -0.049759 -1.680544 0.100479 -1.899212 0.000000 -0.000002
    9 -0.034142 -1.148312 0.084782 -1.711774 0.000000 0.000000
    10 0.957766 -2.746780 -0.090302 -0.319622 -0.278596 -0.051542
    11 -0.033420 -1.397129 -0.011257 -1.363671 0.000000 -0.000001
    12 -0.022360 -0.957436 0.018784 -1.378380 0.000000 0.000000
    13 -1.180681 -2.507217 -0.193859 -0.904725 0.015547 -0.451705
    14 -0.024967 -1.123934 0.017597 -1.855827 0.000000 0.000001
    15 -0.020057 -0.890968 0.010090 -1.671895 0.000000 0.000000
    16 0.583510 -1.197277 0.185379 0.048210 -0.366994 -0.814622
    17 1.535927 0.010246 0.005009 -0.002964 -0.012979 -0.998522
    18 1.100771 0.004527 -0.010679 -0.002520 0.016009 0.021004
    19 0.120153 -0.050270 -0.054489 0.307128 3.311263 1.416131
    20 0.194089 -3.160884 -5.481919 0.044742 -3.420545 0.151319
    21 0.096944 -8.450418 -0.009365 0.092645 -0.025530 0.151280
    22 0.447953 -2.798986 -0.200443 -0.653159 0.087866 0.178829
    23 -0.032909 -1.480204 0.004940 -1.833495 0.000000 0.000002
    24 -0.027022 -1.076920 -0.020210 -0.930273 0.000000 0.000000
    25 -0.249534 -2.846964 -0.174213 -0.609311 0.058647 0.154463
    26 0.043235 -1.683941 0.096012 -1.902768 0.002823 -0.000167
    27 0.031729 -1.160830 0.058838 -1.001341 0.000642 0.008372
    28 -0.963866 -2.785145 -0.085350 -0.589404 0.158501 0.157028
    29 0.028479 -1.403067 0.006271 -1.731640 0.000000 0.000000
    30 0.021413 -0.957781 0.020046 -0.780749 0.000000 0.000000
    31 1.164475 -2.543940 -0.170330 -0.674602 -0.089480 0.155889
    32 0.024032 -1.129042 0.017807 -1.450287 0.000000 0.000001
    33 0.014898 -0.883989 -0.019848 -1.242513 0.000000 0.000000
    34 -0.586770 -1.264477 0.200161 0.408263 -0.817934 -3.052147
    35 1.522835 0.058681 0.016848 0.001410 0.008985 0.689974
    36 1.117947 0.048424 -0.005766 0.009764 -0.023233 -0.342294
    37 -0.139399 -0.111698 0.014397 -0.045310 0.208681 1.417745
    38 -1.393470 8.839177 -0.239433 1.580804 -0.005023 -1.566847
    39 -2.022848 -2.339003 0.868779 3.098285 0.057459 -1.531947
    40 0.558611 0.968780 -0.089846 0.000000 0.000000 0.000000
    41 0.000000 -0.705283 -0.062950 0.000001 0.000000 1.570796
    42 3.295873 0.000000 -0.000001 0.000000 0.000000 0.043606
    43 3.010893 -0.484526 0.000002 0.000000 -3.141592 0.832578
    44 -13.094625 -1.958421 0.062963 0.000002 0.000002 -1.016276
    45 0.000002 0.000000 0.000000 -0.001307 3.128871 -0.792423
    46 -2.953225 0.000501 -0.014695 0.004976 3.141590 1.570628
    47 -0.000001 -4.637308 -0.062952 0.000000 0.000000 -1.570796
    48 3.144783 0.000000 -0.000001 0.000000 0.000000 -0.027881
    49 2.703411 0.538742 0.000005 0.000000 0.000000 -0.831461
    50 13.664381 2.455671 -0.062817 0.000001 0.000002 2.136413
    51 0.000003 0.000004 0.000000 0.221621 -0.009712 2.214867
    52 -2.953224 0.000499 -0.014695 -0.004976 -0.000002 1.570628
    53 -16.122973 -0.073271 0.171117 0.000353 0.058113 -0.035845
    54 25.306986 0.000014 -0.222672 0.000000 0.000000 0.000000
    55 -15.501880 0.985556 0.001780 0.000001 -3.141592 0.000000
    56 0.000000 -0.000001 0.000000 0.001317 -3.129925 -1.114150
    57 0.000000 -0.000001 0.000000 -0.221666 -3.132685 1.220277
  time 8
    0 -0.002752 1.627691 0.539698 0.000000 0.000000 0.000000
    1 12.021124 7.458588 -14.401765 4.346518 -0.846493 1.192012
    2 1.257180 8.762585 -0.153713 -1.570562 0.002683 -1.566807
    3 -0.071921 -8.498736 -0.104134 0.462574 0.407593 -0.216357
    4 -0.488518 -2.755602 -0.228260 -0.994014 -0.049100 -0.303116
    5 0.039887 -1.479790 0.029854 -1.787370 0.000000 0.000001
    6 0.028786 -1.075731 -0.023109 -1.477381 0.000000 0.000000
    7 0.250027 -2.820665 -0.238396 -0.630435 -0.172479 -0.156422
    8 -0.049759 -1.680544 0.100479 -1.899212 0.000000 -0.000002
    9 -0.034142 -1.148312 0.084782 -1.711774 0.000000 0.000000
    10 0.957766 -2.746780 -0.090302 -0.319622 -0.278596 -0.051542
    11 -0.033420 -1.397129 -0.011257 -1.363671 0.000000 -0.000001
    12 -0.022360 -0.957436 0.018784 -1.378380 0.000000 0.000000
    13 -1.180681 -2.507217 -0.193859 -0.904725 0.015547 -0.451705
    14 -0.024967 -1.123934 0.017597 -1.855827 0.000000 0.000001
    15 -0.020057 -0.890968 0.010090 -1.671895 0.000000 0.000000
    16 0.583510 -1.197277 0.185379 0.048210 -0.366994 -0.814622
    17 1.535927 0.010246 0.005009 -0.002964 -0.012979 -0.998522
    18 1.100771 0.004527 -0.010679 -0.002520 0.016009 0.021004
    19 0.120153 -0.050270 -0.054489 0.307128 3.311263 1.416131
    20 0.319093 -4.059349 -5.438949 0.044742 -3.420545 0.151319
    21 0.096944 -8.450418 -0.009365 0.092645 -0.025530 0.151280
    22 0.447953 -2.798986 -0.200443 -0.653159 0.087866 0.178829
    23 -0.032909 -1.480204 0.004940 -1.833495 0.000000 0.000002
    24 -0.027022 -1.076920 -0.020210 -0.930273 0.000000 0.000000
    25 -0.249534 -2.846964 -0.174213 -0.609311 0.058647 0.154463
    26 0.043235 -1.683941 0.096012 -1.902768 0.002823 -0.000167
    27 0.031729 -1.160830 0.058838 -1.001341 0.000642 0.008372
    28 -0.963866 -2.785145 -0.085350 -0.589404 0.158501 0.157028
    29 0.028479 -1.403067 0.006271 -1.731640 0.000000 0.000000
    30 0.021413 -0.957781 0.020046 -0.780749 0.000000 0.000000
    31 1.164475 -2.543940 -0.170330 -0.674602 -0.089480 0.155889
    32 0.024032 -1.129042 0.017807 -1.450287 0.000000 0.000001
    33 0.014898 -0.883989 -0.019848 -1.242513 0.000000 0.000000
    34 -0.586770 -1.264477 0.200161 0.408263 -0.817934 -3.052147
    35 1.522835 0.058681 0.016848 0.001410 0.008985 0.689974
    36 1.117947 0.048424 -0.005766 0.009764 -0.023233 -0.342294
    37 -0.139399 -0.111698 0.014397 -0.045310 0.208681 1.417745
    38 -1.393470 8.839177 -0.239433 1.580804 -0.005023 -1.566847
    39 -2.022848 -2.339003 0.868779 3.098285 0.057459 -1.531947
    40 0.558611 0.968780 -0.089846 0.000000 0.000000 0.000000
    41 0.000000 -0.705283 -0.062950 0.000001 0.000000 1.570796
    42 3.295873 0.000000 -0.000001 0.000000 0.000000 0.085732
    43 3.010893 -0.484526 0.000002 0.000000 -3.141592 0.874596
    44 -13.094625 -1.958421 0.062963 0.000002 0.000002 -1.016276
    45 0.000002 0.000000 0.000000 0.003195 3.128299 -0.693554
    46 -2.953225 0.000501 -0.014695 0.004976 3.141590 1.570628
    47 -0.000001 -4.637308 -0.062952 0.000000 0.000000 -1.570796
    48 3.144783 0.000000 -0.000001 0.000000 0.000000 -0.067958
    49 2.703411 0.538742 0.000005 0.000000 0.000000 -0.873479
    50 13.664381 2.455671 -0.062817 0.000001 0.000002 2.136413
    51 0.000003 0.000004 0.000000 0.222752 -0.010036 2.302512
    52 -2.953224 0.000499 -0.014695 -0.004976 -0.000002 1.570628
    53 -17.064408 -0.042020 0.225807 0.000353 0.058113 -0.035845
    54 25.306986 0.000014 -0.222672 0.000000 0.000000 0.000000
    55 -16.326124 0.985556 0.001780 0.000001 -3.141592 0.000000
    56 0.000000 -0.000001 0.000000 -0.003185 -3.129353 -1.099415
    57 0.000000 -0.000001 0.000000 -0.222794 -3.132303 1.214740
  time 9
    0 -0.002752 1.627691 0.539698 0.000000 0.000000 0.000000
    1 12.150034 6.548404 -14.374420 4.346518 -0.846493 1.192012
    2 1.257180 8.762585 -0.153713 -1.570562 0.002683 -1.566807
    3 -0.071921 -8.498736 -0.104134 0.462574 0.407593 -0.216357
    4 -0.488518 -2.755602 -0.228260 -0.994014 -0.049100 -0.303116
    5 0.039887 -1.479790 0.029854 -1.787370 0.000000 0.000001
    6 0.028786 -1.075731 -0.023109 -1.477381 0.000000 0.000000
    7 0.250027 -2.820665 -0.238396 -0.630435 -0.172479 -0.156422
    8 -0.049759 -1.680544 0.100479 -1.899212 0.000000 -0.000002
    9 -0.034142 -1.148312 0.084782 -1.711774 0.000000 0.000000
    10 0.957766 -2.746780 -0.090302 -0.319622 -0.278596 -0.051542
    11 -0.033420 -1.397129 -0.011257 -1.363671 0.000000 -0.000001
    12 -0.022360 -0.957436 0.018784 -1.378380 0.000000 0.000000
    13 -1.180681 -2.507217 -0.193859 -0.904725 0.015547 -0.451705
    14 -0.024967 -1.123934 0.017597 -1.855827 0.000000 0.000001
    15 -0.020057 -0.890968 0.010090 -1.671895 0.000000 0.000000
    16 0.583510 -1.197277 0.185379 0.048210 -0.366994 -0.814622
    17 1.535927 0.010246 0.005009 -0.002964 -0.012979 -0.998522
    18 1.100771 0.004527 -0.010679 -0.002520 0.016009 0.021004
    19 0.120153 -0.050270 -0.054489 0.307128 3.311263 1.416131
    20 0.448003 -4.969533 -5.411605 0.044742 -3.420545 0.151319
    21 0.096944 -8.450418 -0.009365 0.092645 -0.025530 0.151280
    22 0.447953 -2.798986 -0.200443 -0.653159 0.087866 0.178829
    23 -0.032909 -1.480204 0.004940 -1.833495 0.000000 0.000002
    24 -0.027022 -1.076920 -0.020210 -0.930273 0.000000 0.000000
    25 -0.249534 -2.846964 -0.174213 -0.609311 0.058647 0.154463
    26 0.043235 -1.683941 0.096012 -1.902768 0.002823 -0.000167
    27 0.031729 -1.160830 0.058838 -1.001341 0.000642 0.008372
    28 -0.963866 -2.785145 -0.085350 -0.589404 0.158501 0.157028
    29 0.028479 -1.403067 0.006271 -1.731640 0.000000 0.000000
    30 0.021413 -0.957781 0.020046 -0.780749 0.000000 0.000000
    31 1.164475 -2.543940 -0.170330 -0.674602 -0.089480 0.155889
    32 0.024032 -1.129042 0.017807 -1.450287 0.000000 0.000001
    33 0.014898 -0.883989 -0.019848 -1.242513 0.000000 0.000000
    34 -0.586770 -1.264477 0.200161 0.408263 -0.817934 -3.052147
    35 1.522835 0.058681 0.016848 0.001410 0.008985 0.689974
    36 1.117947 0.048424 -0.005766 0.009764 -0.023233 -0.342294
    37 -0.139399 -0.111698 0.014397 -0.045310 0.208681 1.417745
    38 -1.393470 8.839177 -0.239433 1.580804 -0.005023 -1.566847
    39 -2.022848 -2.339003 0.868779 3.098285 0.057459 -1.531947
    40 0.558611 0.968780 -0.089846 0.000000 0.000000 0.000000
    41 0.000000 -0.705283 -0.062950 0.000001 0.000000 1.570796
    42 3.295873 0.000000 -0.000001 0.000000 0.000000 0.127857
    43 3.010893 -0.484526 0.000002 0.000000 -3.141592 0.906918
    44 -13.094625 -1.958421 0.062963 0.000002 0.000002 -1.016276
    45 0.000002 0.000000 0.000000 0.014690 3.127918 -0.582106
    46 -2.953225 0.000501 -0.014695 0.004976 3.141590 1.570628
    47 -0.000001 -4.637308 -0.062952 0.000000 0.000000 -1.570796
    48 3.144783 0.000000 -0.000001 0.000000 0.000000 -0.108046
    49 2.703411 0.538742 0.000005 0.000000 0.000000 -0.905801
    50 13.664381 2.455671 -0.062817 0.000001 0.000002 2.136413
    51 0.000003 0.000004 0.000000 0.227363 -0.010300 2.397914
    52 -2.953224 0.000499 -0.014695 -0.004976 -0.000002 1.570628
    53 -18.287101 0.004856 0.296121 0.000353 0.058113 -0.035845
    54 25.306986 0.000014 -0.222672 0.000000 0.000000 0.000000
    55 -17.396469 0.985556 0.001780 0.000001 -3.141592 0.000000
    56 0.000000 -0.000001 0.000000 -0.014679 -3.128972 -1.062407
    57 0.000000 -0.000001 0.000000 -0.227399 -3.132112 1.191716
  time 10
    0 -0.002752 1.627691 0.539698 0.000000 0.000000 0.000000
    1 12.247693 5.837445 -14.350982 4.346518 -0.846493 1.192012
    2 1.257180 8.762585 -0.153713 -1.570562 0.002683 -1.566807
    3 -0.071921 -8.498736 -0.104134 0.462574 0.407593 -0.216357
    4 -0.488518 -2.755602 -0.228260 -0.994014 -0.049100 -0.303116
    5 0.039887 -1.479790 0.029854 -1.787370 0.000000 0.000001
    6 0.028786 -1.075731 -0.023109 -1.477381 0.000000 0.000000
    7 0.250027 -2.820665 -0.238396 -0.630435 -0.172479 -0.156422
    8 -0.049759 -1.680544 0.100479 -1.899212 0.000000 -0.000002
    9 -0.034142 -1.148312 0.084782 -1.711774 0.000000 0.000000
    10 0.957766 -2.746780 -0.090302 -0.319622 -0.278596 -0.051542
    11 -0.033420 -1.397129 -0.011257 -1.363671 0.000000 -0.000001
    12 -0.022360 -0.957436 0.018784 -1.378380 0.000000 0.000000
    13 -1.180681 -2.507217 -0.193859 -0.904725 0.015547 -0.451705
    14 -0.024967 -1.123934 0.017597 -1.855827 0.000000 0.000001
    15 -0.020057 -0.890968 0.010090 -1.671895 0.000000 0.000000
    16 0.583510 -1.197277 0.185379 0.048210 -0.366994 -0.814622
    17 1.535927 0.010246 0.005009 -0.002964 -0.012979 -0.998522
    18 1.100771 0.004527 -0.010679 -0.002520 0.016009 0.021004
    19 0.120153 -0.050270 -0.054489 0.307128 3.311263 1.416131
    20 0.545662 -5.676586 -5.388166 0.044742 -3.420545 0.151319
    21 0.096944 -8.450418 -0.009365 0.092645 -0.025530 0.151280
    22 0.447953 -2.798986 -0.200443 -0.653159 0.087866 0.178829
    23 -0.032909 -1.480204 0.004940 -1.833495 0.000000 0.000002
    24 -0.027022 -1.076920 -0.020210 -0.930273 0.000000 0.000000
    25 -0.249534 -2.846964 -0.174213 -0.609311 0.058647 0.154463
    26 0.043235 -1.683941 0.096012 -1.902768 0.002823 -0.000167
    27 0.031729 -1.160830 0.058838 -1.001341 0.000642 0.008372
    28 -0.963866 -2.785145 -0.085350 -0.589404 0.158501 0.157028
    29 0.028479 -1.403067 0.006271 -1.731640 0.000000 0.000000
    30 0.021413 -0.957781 0.020046 -0.780749 0.000000 0.000000
    31 1.164475 -2.543940 -0.170330 -0.674602 -0.089480 0.155889
    32 0.024032 -1.129042 0.017807 -1.450287 0.000000 0.000001
    33 0.014898 -0.883989 -0.019848 -1.242513 0.000000 0.000000
    34 -0.586770 -1.264477 0.200161 0.408263 -0.817934 -3.052147
    35 1.522835 0.058681 0.016848 0.001410 0.008985 0.689974
    36 1.117947 0.048424 -0.005766 0.009764 -0.023233 -0.342294
    37 -0.139399 -0.111698 0.014397 -0.045310 0.208681 1.417745
    38 -1.393470 8.839177 -0.239433 1.580804 -0.005023 -1.566847
    39 -2.022848 -2.339003 0.868779 3.098285 0.057459 -1.531947
    40 0.558611 0.968780 -0.089846 0.000000 0.000000 0.000000
    41 0.000000 -0.705283 -0.062950 0.000001 0.000000 1.570796
    42 3.295873 0.000000 -0.000001 0.000000 0.000000 0.164602
    43 3.010893 -0.484526 0.000002 0.000000 -3.141592 0.919850
    44 -13.094625 -1.958421 0.062963 0.000002 0.000002 -1.016276
    45 0.000002 0.000000 0.000000 0.028962 3.127728 -0.485864
    46 -2.953225 0.000501 -0.014695 0.004976 3.141590 1.570628
    47 -0.000001 -4.637308 -0.062952 0.000000 0.000000 -1.570796
    48 3.144783 0.000000 -0.000001 0.000000 0.000000 -0.143005
    49 2.703411 0.538742 0.000005 0.000000 0.000000 -0.918733
    50 13.664381 2.455671 -0.062817 0.000001 0.000002 2.136413
    51 0.000003 0.000004 0.000000 0.233609 -0.010431 2.478330
    52 -2.953224 0.000499 -0.014695 -0.004976 -0.000002 1.570628
    53 -19.509795 0.047826 0.366436 0.000353 0.058113 -0.035845
    54 25.306986 0.000014 -0.222672 0.000000 0.000000 0.000000
    55 -18.466814 0.985556 0.001780 0.000001 -3.141592 0.000000
    56 0.000000 -0.000001 0.000000 -0.028952 -3.128877 -1.015829
    57 0.000000 -0.000001 0.000000 -0.233602 -3.132017 1.159200
  time 11
    0 -0.002752 1.627691 0.539698 0.000000 0.000000 0.000000
    1 12.271131 5.681190 -14.350982 4.346518 -0.846493 1.192012
    2 1.257180 8.762585 -0.153713 -1.570562 0.002683 -1.566807
    3 -0.071921 -8.498736 -0.104134 0.462574 0.407593 -0.216357
    4 -0.488518 -2.755602 -0.228260 -0.994014 -0.049100 -0.303116
    5 0.039887 -1.479790 0.029854 -1.787370 0.000000 0.000001
    6 0.028786 -1.075731 -0.023109 -1.477381 0.000000 0.000000
    7 0.250027 -2.820665 -0.238396 -0.630435 -0.172479 -0.156422
    8 -0.049759 -1.680544 0.100479 -1.899212 0.000000 -0.000002
    9 -0.034142 -1.148312 0.084782 -1.711774 0.000000 0.000000
    10 0.957766 -2.746780 -0.090302 -0.319622 -0.278596 -0.051558
    11 -0.033420 -1.397129 -0.011257 -1.363671 0.000000 -0.000001
    12 -0.022360 -0.957436 0.018784 -1.378380 0.000000 0.000000
    13 -1.180681 -2.507217 -0.193859 -0.904725 0.015547 -0.451705
    14 -0.024967 -1.123934 0.017597 -1.855827 0.000000 0.000001
    15 -0.020057 -0.890968 0.010090 -1.671895 0.000000 0.000000
    16 0.583510 -1.197277 0.185379 0.048210 -0.366994 -0.814622
    17 1.535927 0.010246 0.005009 -0.002964 -0.012979 -0.998522
    18 1.100771 0.004527 -0.010679 -0.002520 0.016009 0.021004
    19 0.120153 -0.050270 -0.054489 0.307128 3.311263 1.416131
    20 0.569100 -5.832841 -5.388166 0.044742 -3.420545 0.151319
    21 0.096944 -8.450418 -0.009365 0.092645 -0.025530 0.151280
    22 0.447953 -2.798986 -0.200443 -0.653159 0.087866 0.178829
    23 -0.032909 -1.480204 0.004940 -1.833495 0.000000 0.000002
    24 -0.027022 -1.076920 -0.020210 -0.930273 0.000000 0.000000
    25 -0.249534 -2.846964 -0.174213 -0.609311 0.058647 0.154463
    26 0.043235 -1.683941 0.096012 -1.902768 0.002823 -0.000167
    27 0.031729 -1.160830 0.058838 -1.001341 0.000642 0.008372
    28 -0.963866 -2.785145 -0.085350 -0.589404 0.158501 0.157028
    29 0.028479 -1.403067 0.006271 -1.731640 0.000000 0.000000
    30 0.021413 -0.957781 0.020046 -0.780749 0.000000 0.000000
    31 1.164475 -2.543940 -0.170330 -0.674602 -0.089480 0.155889
    32 0.024032 -1.129042 0.017807 -1.450287 0.000000 0.000001
    33 0.014898 -0.883989 -0.019848 -1.242513 0.000000 0.000000
    34 -0.586770 -1.264477 0.200161 0.408263 -0.817934 -3.052147
    35 1.522835 0.058681 0.016848 0.001410 0.008985 0.689974
    36 1.117947 0.048424 -0.005766 0.009764 -0.023233 -0.342294
    37 -0.139399 -0.111698 0.014397 -0.045310 0.208681 1.417745
    38 -1.393470 8.839177 -0.239433 1.580804 -0.005023 -1.566847
    39 -2.022848 -2.339003 0.868779 3.098285 0.057459 -1.531947
    40 0.558611 0.968780 -0.089846 0.000000 0.000000 0.000000
    41 0.000000 -0.705283 -0.062950 0.000001 0.000000 1.614420
    42 3.295873 0.000000 -0.000001 0.000000 0.000000 0.190597
    43 3.010893 -0.484526 0.000002 0.000000 -3.141592 0.919850
    44 -13.094625 -1.958421 0.062963 0.000002 0.000002 -1.016276
    45 0.000002 0.000000 0.000000 0.036337 3.127061 -0.392328
    46 -2.953225 0.000501 -0.014695 0.004976 3.141590 1.570628
    47 -0.000001 -4.637308 -0.062952 0.000000 0.000000 -1.614420
    48 3.144783 0.000000 -0.000001 0.000000 0.000000 -0.167741
    49 2.703411 0.538742 0.000005 0.000000 0.000000 -0.918733
    50 13.664381 2.455671 -0.062817 0.000001 0.000002 2.136413
    51 0.000003 0.000004 0.000000 0.235747 -0.010791 2.557965
    52 -2.953224 0.000499 -0.014695 -0.004976 -0.000002 1.570628
    53 -20.451230 0.082983 0.421125 0.000353 0.058113 -0.035845
    54 25.306986 0.000014 -0.222672 0.000000 0.000000 0.000000
    55 -19.291058 0.985556 0.001780 0.000001 -3.141592 0.000000
    56 0.000000 -0.000001 0.000000 -0.036328 -3.128305 -0.991948
    57 0.000000 -0.000001 0.000000 -0.235764 -3.131635 1.147951
  time 12
    0 -0.002752 1.627691 0.539698 0.000000 0.000000 0.000000
    1 12.259412 5.786662 -14.366608 4.346518 -0.846493 1.192012
    2 1.257180 8.762585 -0.153713 -1.570562 0.002683 -1.566807
    3 -0.071921 -8.498736 -0.104134 0.462574 0.407593 -0.216357
    4 -0.488518 -2.755602 -0.228260 -0.994014 -0.049100 -0.303116
    5 0.039887 -1.479790 0.029854 -1.787370 0.000000 0.000001
    6 0.028786 -1.075731 -0.023109 -1.477381 0.000000 0.000000
    7 0.250027 -2.820665 -0.238396 -0.630435 -0.172479 -0.156422
    8 -0.049759 -1.680544 0.100479 -1.899212 0.000000 -0.000002
    9 -0.034142 -1.148312 0.084782 -1.711774 0.000000 0.000000
    10 0.957766 -2.746780 -0.090302 -0.319622 -0.278596 -0.051542
    11 -0.033420 -1.397129 -0.011257 -1.363671 0.000000 -0.000001
    12 -0.022360 -0.957436 0.018784 -1.378380 0.000000 0.000000
    13 -1.180681 -2.507217 -0.193859 -0.904725 0.015547 -0.451705
    14 -0.024967 -1.123934 0.017597 -1.855827 0.000000 0.000001
    15 -0.020057 -0.890968 0.010090 -1.671895 0.000000 0.000000
    16 0.583510 -1.197277 0.185379 0.048210 -0.366994 -0.814622
    17 1.535927 0.010246 0.005009 -0.002964 -0.012979 -0.998522
    18 1.100771 0.004527 -0.010679 -0.002520 0.016009 0.021004
    19 0.120153 -0.050270 -0.054489 0.307128 3.311263 1.416131
    20 0.557381 -5.727369 -5.403792 0.044742 -3.420545 0.151319
    21 0.096944 -8.450418 -0.009365 0.092645 -0.025530 0.151280
    22 0.447953 -2.798986 -0.200443 -0.653159 0.087866 0.178829
    23 -0.032909 -1.480204 0.004940 -1.833495 0.000000 0.000002
    24 -0.027022 -1.076920 -0.020210 -0.930273 0.000000 0.000000
    25 -0.249534 -2.846964 -0.174213 -0.609311 0.058647 0.154463
    26 0.043235 -1.683941 0.096012 -1.902768 0.002823 -0.000167
    27 0.031729 -1.160830 0.058838 -1.001341 0.000642 0.008372
    28 -0.963866 -2.785145 -0.085350 -0.589404 0.158501 0.157028
    29 0.028479 -1.403067 0.006271 -1.731640 0.000000 0.000000
    30 0.021413 -0.957781 0.020046 -0.780749 0.000000 0.000000
    31 1.164475 -2.543940 -0.170330 -0.674625 -0.089480 0.155889
    32 0.024032 -1.129042 0.017807 -1.450287 0.000000 0.000001
    33 0.014898 -0.883989 -0.019848 -1.242513 0.000000 0.000000
    34 -0.586770 -1.264477 0.200161 0.408263 -0.817934 -3.052147
    35 1.522835 0.058681 0.016848 0.001410 0.008985 0.689974
    36 1.117947 0.048424 -0.005766 0.009764 -0.023233 -0.342294
    37 -0.139399 -0.111698 0.014397 -0.045310 0.208681 1.417745
    38 -1.393470 8.839177 -0.239433 1.580804 -0.005023 -1.566847
    39 -2.022848 -2.339003 0.868779 3.098285 0.057459 -1.531947
    40 0.558611 0.968780 -0.089846 0.000000 0.000000 0.000000
    41 0.000000 -0.705283 -0.062950 0.000001 0.000000 1.658056
    42 3.295873 0.000000 -0.000001 0.000000 0.000000 0.200448
    43 3.010893 -0.484526 0.000002 0.000000 -3.141592 0.919850
    44 -13.094625 -1.958421 0.062963 0.000002 0.000002 -1.016276
    45 0.000002 0.000000 0.000000 0.037583 3.126394 -0.334534
    46 -2.953225 0.000501 -0.014695 0.004976 3.141590 1.570628
    47 -0.000001 -4.637308 -0.062952 0.000000 0.000000 -1.658056
    48 3.144783 0.000000 -0.000001 0.000000 0.000000 -0.177125
    49 2.703411 0.538742 0.000005 0.000000 0.000000 -0.918733
    50 13.664381 2.455671 -0.062817 0.000001 0.000002 2.136413
    51 0.000003 0.000004 0.000000 0.235034 -0.011186 2.607141
    52 -2.953224 0.000499 -0.014695 -0.004976 -0.000002 1.570628
    53 -20.826241 0.094702 0.444563 0.000353 0.058113 -0.035845
    54 25.306986 0.000014 -0.222672 0.000000 0.000000 0.000000
    55 -19.619193 0.985556 0.001780 0.000001 -3.141592 0.000000
    56 0.000000 -0.000001 0.000000 -0.037573 -3.127637 -0.987629
    57 0.000000 -0.000001 0.000000 -0.235106 -3.131253 1.151730
end
