// Created by Crowbar 0.68

$modelname "weapons/tfa_cso/c_dvhammer.mdl"

$include "csonline_gmod.qci"

$bodygroup "weapon"
{
	studio "v_ref"
	studio "v_ref_2"
}
$bodygroup "weapon"
{
	studio "v_ref_booster"
}
$bodygroup "weapon"
{
	studio "v_ref_lightning"
}
$bodygroup "weapon"
{
	studio "ef_slash1_ref"
}
$bodygroup "weapon"
{
	studio "ef_slash1_b_ref"
}

$cdmaterials "models/weapons/tfa_cso/dvhammer"

//$attachment 0 "dvhammer_root" 24.1 -3.5 0

$sequence "idle" {
	"v_dvhammer_anims\idle"
	fps 30
	loop
}
$sequence "draw" {
	"v_dvhammer_anims\draw"
	{ event 5004 3 "DVHammer.Draw" }
	fps 30
}
$sequence "slash1" {
	"v_dvhammer_anims\slash1"
	fps 30
}
$sequence "slash2" {
	"v_dvhammer_anims\slash2"
	fps 30
}
$sequence "change" {
	"v_dvhammer_anims\change"
	{ event 5004 5 "weapons/dvhammer_change.wav" }
	fps 30
}
$sequence "idle_b" {
	"v_dvhammer_anims\idle_b"
	{ event 5004 0 "DVHammer.Idle2" }
	fps 30
	activity "ACT_VM_IDLE" 1
	snap
	loop
}
$sequence "draw_b" {
	"v_dvhammer_anims\draw_b"
	{ event 5004 3 "DVHammer.Draw" }
	fps 30
	activity "ACT_VM_DRAW" 1
	snap
}
$sequence "slash1_b" {
	"v_dvhammer_anims\slash1_b"
	{ event 5004 1 "DVHammer.Slash1B" }
	fps 30
	activity "ACT_VM_PRIMARYATTACK" 1
	snap
}
$sequence "slash2_b" {
	"v_dvhammer_anims\slash2_b"
	{ event 5004 0 "DVHammer.Slash1B" }
	fps 30
	activity "ACT_VM_SECONDARYATTACK" 1
	snap
}
$sequence "skill1" {
	"v_dvhammer_anims\skill1"
	fps 30
}
$sequence "skill2" {
	"v_dvhammer_anims\skill2"
	fps 30
}
