"UnlitGeneric"
{
	"$baseTexture" "sprites/ef_winggun_tracer"
    "$translucent" 1
	"$additive" 1
	"$nocull" 1
	"Proxies"
	{
	"AnimatedTexture"
		{
		"animatedTextureVar" "$basetexture"
		"animatedTextureFrameNumVar" "$frame"
		"animatedTextureFrameRate" "43"
		}
	}
}