"UnlitGeneric"
{
	"$baseTexture" "sprites/ef_y21s4janus_muzzleflashb"
    "$translucent" 1
	"$additive" 1
	"Proxies"
	{
	"AnimatedTexture"
		{
		"animatedTextureVar" "$basetexture"
		"animatedTextureFrameNumVar" "$frame"
		"animatedTextureFrameRate" "34"
		}
	}
}