version 1
nodes
  0 "root" -1
  1 "Bone01" 0
  2 "Bone_Lefthand" 1
  3 "hk-g11_root" 2
  4 "hk-g11_trigger" 3
  5 "hk-g11_bullet" 3
  6 "hk-g11_handle01" 3
  7 "hk-g11_handle02" 6
  8 "Bone_L_Upper" 1
  9 "Bone13" 2
  10 "Bone14" 9
  11 "Bone15" 10
  12 "Bone17" 2
  13 "Bone18" 12
  14 "Bone19" 13
  15 "Bone21" 2
  16 "Bone22" 15
  17 "Bone23" 16
  18 "Bone09" 2
  19 "Bone10" 18
  20 "Bone11" 19
  21 "Bone05" 2
  22 "Bone06" 21
  23 "Bone07" 22
  24 "Bone_Se_Hand-L" 2
  25 "Bone04" 0
  26 "Bone_Righthand" 25
  27 "Bone39" 26
  28 "Bone40" 27
  29 "Bone41" 28
  30 "Bone35" 26
  31 "Bone36" 30
  32 "Bone37" 31
  33 "Bone31" 26
  34 "Bone32" 33
  35 "Bone33" 34
  36 "Bone43" 26
  37 "Bone44" 36
  38 "Bone45" 37
  39 "Bone27" 26
  40 "Bone28" 39
  41 "Bone29" 40
  42 "Bone_Se_Hand-R" 26
  43 "Bone_R_Upper" 25
end
skeleton
  time 0
    0 5.644372 -9.675594 -18.250772 -0.051234 -0.596202 -0.451793
    1 7.384263 3.561215 -0.030885 0.750898 -2.386457 -1.389558
    2 -0.071920 -8.498735 -0.104136 0.172148 0.444829 -0.486173
    3 1.301309 -2.858450 0.533806 -0.317190 -0.156087 -3.649922
    4 -0.633172 1.164522 0.000000 0.000000 0.000000 0.542622
    5 -4.694041 4.765071 0.000002 0.000000 0.000000 1.961197
    6 0.471631 -4.176224 -0.013908 0.390400 -1.570796 0.000000
    7 0.798002 0.010359 -0.002600 0.000002 1.570796 0.000000
    8 1.257180 8.762585 -0.153713 -1.570562 0.002683 -1.566807
    9 -0.488518 -2.755602 -0.228260 -0.721249 -0.081949 -0.452612
    10 0.039887 -1.479790 0.029854 -1.744424 0.000000 0.000001
    11 0.028786 -1.075731 -0.023109 -1.070625 0.000000 0.000000
    12 0.125023 -3.051141 -0.574344 -0.799992 -0.047048 -0.393136
    13 -0.049759 -1.680544 0.100479 -1.454033 0.000000 -0.000002
    14 -0.034142 -1.148312 0.084782 -0.497169 0.000000 0.000000
    15 0.957766 -2.746780 -0.090302 0.273204 -0.158969 -0.144550
    16 -0.033420 -1.397129 -0.011257 -0.488110 0.000000 -0.000001
    17 -0.022360 -0.957436 0.018784 -0.183883 0.000000 0.000000
    18 -1.200213 -2.612689 -0.084481 -0.819559 0.107002 -0.434663
    19 -0.024967 -1.123934 0.017597 -1.746587 0.000000 0.000001
    20 -0.020057 -0.890968 0.010090 -0.424577 0.000000 0.000000
    21 0.583510 -1.197277 0.185379 0.041775 -0.932219 -0.526993
    22 1.535927 0.010246 0.005009 0.076853 0.243530 -0.543356
    23 1.100771 0.004527 -0.010679 0.034536 0.117363 -0.105045
    24 0.018587 -0.093240 -0.167774 3.423244 6.142883 -1.288278
    25 -6.817844 -3.649180 0.733114 -0.863544 -5.331780 0.008016
    26 0.096944 -8.450418 -0.009365 -0.323059 -0.882257 0.488076
    27 0.447953 -2.798986 -0.200443 -0.805857 -0.098878 0.556583
    28 -0.032909 -1.480204 0.004940 -1.135932 0.000000 0.000002
    29 -0.027022 -1.076920 -0.020210 0.165353 0.000000 0.000000
    30 -0.249534 -2.846964 -0.174213 -0.518785 -0.091543 0.444345
    31 0.043235 -1.683941 0.096012 -0.687139 0.002823 -0.000167
    32 0.031729 -1.160830 0.058838 0.106677 0.000642 0.008372
    33 -0.963866 -2.785145 -0.085350 -0.084261 0.036917 0.292995
    34 0.028479 -1.403067 0.006271 -0.602182 0.000000 0.000000
    35 0.021413 -0.957781 0.020046 0.230199 0.000000 0.000000
    36 1.164475 -2.543940 -0.170330 -0.843965 -0.017414 0.527819
    37 0.024032 -1.129042 0.017807 -1.014874 0.000000 0.000001
    38 0.014898 -0.883989 -0.019848 0.153136 0.000000 0.000000
    39 -0.500830 -1.428545 0.403292 -0.012660 -0.227293 -2.752590
    40 1.522835 0.058681 0.016848 -0.205792 -0.210418 0.318099
    41 1.117947 0.048424 -0.005766 0.004299 -0.024829 -0.115852
    42 -0.115961 -0.170294 -0.005135 0.565529 0.160611 1.289258
    43 -1.393470 8.839177 -0.239433 1.580804 -0.005023 -1.566847
  time 1
    0 5.636559 -9.675594 -17.942169 -0.055656 -0.557411 -0.441224
    1 7.384263 3.561215 -0.030885 0.750898 -2.386457 -1.389558
    2 -0.071920 -8.498735 -0.104136 0.172316 0.446651 -0.485810
    3 1.301309 -2.858450 0.533806 -0.317190 -0.156087 -3.649922
    4 -0.633172 1.164522 0.000000 0.000000 0.000000 0.542622
    5 -4.694041 4.765071 0.000002 0.000000 0.000000 1.961197
    6 0.471631 -4.176224 -0.013908 0.390400 -1.570796 0.000000
    7 0.798002 0.010359 -0.002600 0.000002 1.570796 0.000000
    8 1.257180 8.762585 -0.153713 -1.570562 0.002683 -1.566807
    9 -0.488518 -2.755602 -0.228260 -0.721249 -0.081949 -0.452612
    10 0.039887 -1.479790 0.029854 -1.744424 0.000000 0.000001
    11 0.028786 -1.075731 -0.023109 -1.070625 0.000000 0.000000
    12 0.125023 -3.051141 -0.574344 -0.799992 -0.047048 -0.393136
    13 -0.049759 -1.680544 0.100479 -1.454033 0.000000 -0.000002
    14 -0.034142 -1.148312 0.084782 -0.497169 0.000000 0.000000
    15 0.957766 -2.746780 -0.090302 0.273204 -0.158969 -0.144550
    16 -0.033420 -1.397129 -0.011257 -0.488110 0.000000 -0.000001
    17 -0.022360 -0.957436 0.018784 -0.183883 0.000000 0.000000
    18 -1.200213 -2.612689 -0.084481 -0.819559 0.107002 -0.434663
    19 -0.024967 -1.123934 0.017597 -1.746587 0.000000 0.000001
    20 -0.020057 -0.890968 0.010090 -0.424577 0.000000 0.000000
    21 0.583510 -1.197277 0.185379 0.041775 -0.932219 -0.526993
    22 1.535927 0.010246 0.005009 0.076853 0.243530 -0.543356
    23 1.100771 0.004527 -0.010679 0.034536 0.117363 -0.105045
    24 0.018587 -0.093240 -0.167774 3.423244 6.142883 -1.288278
    25 -6.817844 -3.649180 0.740927 -0.863544 -5.331780 0.008016
    26 0.096944 -8.450418 -0.009365 -0.323059 -0.882257 0.488076
    27 0.447953 -2.798986 -0.200443 -0.805857 -0.098878 0.556583
    28 -0.032909 -1.480204 0.004940 -1.135932 0.000000 0.000002
    29 -0.027022 -1.076920 -0.020210 0.165353 0.000000 0.000000
    30 -0.249534 -2.846964 -0.174213 -0.518785 -0.091543 0.444345
    31 0.043235 -1.683941 0.096012 -0.628445 0.060517 -0.028127
    32 0.031729 -1.160830 0.058838 0.106677 0.000642 0.008372
    33 -0.963866 -2.785145 -0.085350 -0.084261 0.036917 0.292995
    34 0.028479 -1.403067 0.006271 -0.590473 0.000000 0.000000
    35 0.021413 -0.957781 0.020046 0.228639 0.000000 0.000000
    36 1.164475 -2.543940 -0.170330 -0.843965 -0.017414 0.527819
    37 0.024032 -1.129042 0.017807 -1.014874 0.000000 0.000001
    38 0.014898 -0.883989 -0.019848 0.153136 0.000000 0.000000
    39 -0.500830 -1.428545 0.403292 -0.020458 -0.225841 -2.750740
    40 1.522835 0.058681 0.016848 -0.205684 -0.204274 0.310105
    41 1.117947 0.048424 -0.005766 0.004299 -0.024829 -0.116038
    42 -0.115961 -0.170294 -0.005135 0.565529 0.160611 1.289258
    43 -1.393470 8.839177 -0.239433 1.580804 -0.005023 -1.566847
  time 2
    0 5.617027 -9.667781 -17.223397 -0.065747 -0.477882 -0.415377
    1 7.384263 3.561215 -0.030885 0.750898 -2.386457 -1.389558
    2 -0.071920 -8.498735 -0.104136 0.172772 0.451648 -0.484815
    3 1.301309 -2.858450 0.533806 -0.317190 -0.156087 -3.649938
    4 -0.633172 1.164522 0.000000 0.000000 0.000000 0.542622
    5 -4.694041 4.765071 0.000002 0.000000 0.000000 1.961197
    6 0.471631 -4.176224 -0.013908 0.390400 -1.570796 0.000000
    7 0.798002 0.010359 -0.002600 0.000002 1.570796 0.000000
    8 1.257180 8.762585 -0.153713 -1.570562 0.002683 -1.566807
    9 -0.488518 -2.755602 -0.228260 -0.721249 -0.081949 -0.452612
    10 0.039887 -1.479790 0.029854 -1.744424 0.000000 0.000001
    11 0.028786 -1.075731 -0.023109 -1.070625 0.000000 0.000000
    12 0.125023 -3.051141 -0.574344 -0.799992 -0.047048 -0.393136
    13 -0.049759 -1.680544 0.100479 -1.454033 0.000000 -0.000002
    14 -0.034142 -1.148312 0.084782 -0.497169 0.000000 0.000000
    15 0.957766 -2.746780 -0.090302 0.273204 -0.158969 -0.144550
    16 -0.033420 -1.397129 -0.011257 -0.488110 0.000000 -0.000001
    17 -0.022360 -0.957436 0.018784 -0.183883 0.000000 0.000000
    18 -1.200213 -2.612689 -0.084481 -0.819559 0.107002 -0.434663
    19 -0.024967 -1.123934 0.017597 -1.746587 0.000000 0.000001
    20 -0.020057 -0.890968 0.010090 -0.424577 0.000000 0.000000
    21 0.583510 -1.197277 0.185379 0.041775 -0.932219 -0.526993
    22 1.535927 0.010246 0.005009 0.076853 0.243530 -0.543356
    23 1.100771 0.004527 -0.010679 0.034536 0.117363 -0.105045
    24 0.018587 -0.093240 -0.167774 3.423244 6.142883 -1.288278
    25 -6.817844 -3.653087 0.756552 -0.863544 -5.331780 0.008016
    26 0.096944 -8.450418 -0.009365 -0.323059 -0.882257 0.488076
    27 0.447953 -2.798986 -0.200443 -0.805857 -0.098878 0.556583
    28 -0.032909 -1.480204 0.004940 -1.135932 0.000000 0.000002
    29 -0.027022 -1.076920 -0.020210 0.165353 0.000000 0.000000
    30 -0.249534 -2.846964 -0.174213 -0.518785 -0.091543 0.444345
    31 0.043235 -1.683941 0.096012 -0.531165 0.167659 -0.080068
    32 0.031729 -1.160830 0.058838 0.106677 0.000642 0.008372
    33 -0.963866 -2.785145 -0.085350 -0.084261 0.036917 0.292995
    34 0.028479 -1.403067 0.006271 -0.574025 0.000000 0.000000
    35 0.021413 -0.957781 0.020046 0.223804 0.000000 0.000000
    36 1.164475 -2.543940 -0.170330 -0.843965 -0.017414 0.527819
    37 0.024032 -1.129042 0.017807 -1.014874 0.000000 0.000001
    38 0.014898 -0.883989 -0.019848 0.153136 0.000000 0.000000
    39 -0.500830 -1.428545 0.403292 -0.041391 -0.221723 -2.745745
    40 1.522835 0.058681 0.016848 -0.205408 -0.187617 0.295014
    41 1.117947 0.048424 -0.005766 0.004311 -0.024829 -0.116560
    42 -0.115961 -0.170294 -0.005135 0.565529 0.160611 1.289258
    43 -1.393470 8.839177 -0.239433 1.580804 -0.005023 -1.566847
  time 3
    0 5.585776 -9.659969 -16.399153 -0.076737 -0.412836 -0.383093
    1 7.384263 3.561215 -0.030885 0.750898 -2.386457 -1.389558
    2 -0.071920 -8.498735 -0.104136 0.173455 0.459114 -0.483323
    3 1.301309 -2.858450 0.533806 -0.317190 -0.156087 -3.649922
    4 -0.633172 1.164522 0.000000 0.000000 0.000000 0.542622
    5 -4.694041 4.765071 0.000002 0.000000 0.000000 1.961197
    6 0.471631 -4.176224 -0.013908 0.390400 -1.570796 0.000000
    7 0.798002 0.010359 -0.002600 0.000002 1.570796 0.000000
    8 1.257180 8.762585 -0.153713 -1.570562 0.002683 -1.566807
    9 -0.488518 -2.755602 -0.228260 -0.721249 -0.081949 -0.452612
    10 0.039887 -1.479790 0.029854 -1.744424 0.000000 0.000001
    11 0.028786 -1.075731 -0.023109 -1.070625 0.000000 0.000000
    12 0.125023 -3.051141 -0.574344 -0.799992 -0.047048 -0.393136
    13 -0.049759 -1.680544 0.100479 -1.454033 0.000000 -0.000002
    14 -0.034142 -1.148312 0.084782 -0.497169 0.000000 0.000000
    15 0.957766 -2.746780 -0.090302 0.273204 -0.158969 -0.144550
    16 -0.033420 -1.397129 -0.011257 -0.488110 0.000000 -0.000001
    17 -0.022360 -0.957436 0.018784 -0.183883 0.000000 0.000000
    18 -1.200213 -2.612689 -0.084481 -0.819559 0.107002 -0.434663
    19 -0.024967 -1.123934 0.017597 -1.746587 0.000000 0.000001
    20 -0.020057 -0.890968 0.010090 -0.424577 0.000000 0.000000
    21 0.583510 -1.197277 0.185379 0.041775 -0.932219 -0.526993
    22 1.535927 0.010246 0.005009 0.076853 0.243530 -0.543356
    23 1.100771 0.004527 -0.010679 0.034536 0.117363 -0.105045
    24 0.018587 -0.093240 -0.167774 3.423244 6.142883 -1.288278
    25 -6.817844 -3.656993 0.783897 -0.863544 -5.331780 0.008016
    26 0.096944 -8.450418 -0.009365 -0.323059 -0.882257 0.488076
    27 0.447953 -2.798986 -0.200443 -0.805857 -0.098878 0.556583
    28 -0.032909 -1.480204 0.004940 -1.135932 0.000000 0.000002
    29 -0.027022 -1.076920 -0.020210 0.165353 0.000000 0.000000
    30 -0.249534 -2.846964 -0.174213 -0.518785 -0.091543 0.444345
    31 0.043235 -1.683941 0.096012 -0.479862 0.225365 -0.108040
    32 0.031729 -1.160830 0.058838 0.106677 0.000642 0.008372
    33 -0.963866 -2.785145 -0.085350 -0.084261 0.036917 0.292995
    34 0.028479 -1.403067 0.006271 -0.554434 0.000000 0.000000
    35 0.021413 -0.957781 0.020046 0.215380 0.000000 0.000000
    36 1.164475 -2.543940 -0.170330 -0.843965 -0.017414 0.527819
    37 0.024032 -1.129042 0.017807 -1.014874 0.000000 0.000001
    38 0.014898 -0.883989 -0.019848 0.153136 0.000000 0.000000
    39 -0.500830 -1.428545 0.403292 -0.071670 -0.215236 -2.738468
    40 1.522835 0.058681 0.016848 -0.204989 -0.163143 0.274972
    41 1.117947 0.048424 -0.005766 0.004335 -0.024829 -0.117301
    42 -0.115961 -0.170294 -0.005135 0.565529 0.160611 1.289258
    43 -1.393470 8.839177 -0.239433 1.580804 -0.005023 -1.566847
  time 4
    0 5.554525 -9.648250 -15.555377 -0.088255 -0.376192 -0.347349
    1 7.384263 3.561215 -0.030885 0.750898 -2.386457 -1.389558
    2 -0.071920 -8.498735 -0.104136 0.174294 0.468331 -0.481507
    3 1.301309 -2.858450 0.533806 -0.317190 -0.156087 -3.649922
    4 -0.633172 1.164522 0.000000 0.000000 0.000000 0.542622
    5 -4.694041 4.765071 0.000002 0.000000 0.000000 1.961197
    6 0.471631 -4.176224 -0.013908 0.390400 -1.570796 0.000000
    7 0.798002 0.010359 -0.002600 0.000002 1.570796 0.000000
    8 1.257180 8.762585 -0.153713 -1.570562 0.002683 -1.566807
    9 -0.488518 -2.755602 -0.228260 -0.721249 -0.081949 -0.452612
    10 0.039887 -1.479790 0.029854 -1.744424 0.000000 0.000001
    11 0.028786 -1.075731 -0.023109 -1.070625 0.000000 0.000000
    12 0.125023 -3.051141 -0.574344 -0.799992 -0.047060 -0.393136
    13 -0.049759 -1.680544 0.100479 -1.454033 0.000000 -0.000002
    14 -0.034142 -1.148312 0.084782 -0.497169 0.000000 0.000000
    15 0.957766 -2.746780 -0.090302 0.273204 -0.158969 -0.144550
    16 -0.033420 -1.397129 -0.011257 -0.488110 0.000000 -0.000001
    17 -0.022360 -0.957436 0.018784 -0.183883 0.000000 0.000000
    18 -1.200213 -2.612689 -0.084481 -0.819559 0.107002 -0.434663
    19 -0.024967 -1.123934 0.017597 -1.746587 0.000000 0.000001
    20 -0.020057 -0.890968 0.010090 -0.424577 0.000000 0.000000
    21 0.583510 -1.197277 0.185379 0.041775 -0.932219 -0.526993
    22 1.535927 0.010246 0.005009 0.076853 0.243530 -0.543356
    23 1.100771 0.004527 -0.010679 0.034536 0.117363 -0.105045
    24 0.018587 -0.093240 -0.167774 3.423244 6.142883 -1.288278
    25 -6.813937 -3.664806 0.815148 -0.863544 -5.331780 0.008016
    26 0.096944 -8.450418 -0.009365 -0.323059 -0.882257 0.488076
    27 0.447953 -2.798986 -0.200443 -0.805857 -0.098878 0.556583
    28 -0.032909 -1.480204 0.004940 -1.135932 0.000000 0.000002
    29 -0.027022 -1.076920 -0.020210 0.165353 0.000000 0.000000
    30 -0.249534 -2.846964 -0.174213 -0.518785 -0.091543 0.444345
    31 0.043235 -1.683941 0.096012 -0.548767 0.208874 -0.100047
    32 0.031729 -1.160830 0.058838 0.106677 0.000642 0.008372
    33 -0.963866 -2.785145 -0.085350 -0.084261 0.036917 0.292995
    34 0.028479 -1.403067 0.006271 -0.533339 0.000000 0.000000
    35 0.021413 -0.957781 0.020046 0.202978 0.000000 0.000000
    36 1.164475 -2.543940 -0.170330 -0.843965 -0.017414 0.527819
    37 0.024032 -1.129042 0.017807 -1.014874 0.000000 0.000001
    38 0.014898 -0.883989 -0.019848 0.153136 0.000000 0.000000
    39 -0.500830 -1.428545 0.403292 -0.107580 -0.206704 -2.729773
    40 1.522835 0.058681 0.016848 -0.204485 -0.133549 0.252161
    41 1.117947 0.048424 -0.005766 0.004359 -0.024829 -0.118178
    42 -0.115961 -0.170294 -0.005135 0.565529 0.160611 1.289258
    43 -1.393470 8.839177 -0.239433 1.580804 -0.005023 -1.566847
  time 5
    0 5.519368 -9.636530 -14.606129 -0.101881 -0.344261 -0.307186
    1 7.384263 3.561215 -0.030885 0.750898 -2.386457 -1.389558
    2 -0.071920 -8.498735 -0.104136 0.175228 0.478589 -0.479460
    3 1.301309 -2.858450 0.533806 -0.317190 -0.156087 -3.649922
    4 -0.633172 1.164522 0.000000 0.000000 0.000000 0.542622
    5 -4.694041 4.765071 0.000002 0.000000 0.000000 1.961197
    6 0.471631 -4.176224 -0.013908 0.390400 -1.570796 0.000000
    7 0.798002 0.010359 -0.002600 0.000002 1.570796 0.000000
    8 1.257180 8.762585 -0.153713 -1.570562 0.002683 -1.566807
    9 -0.488518 -2.755602 -0.228260 -0.721249 -0.081949 -0.452612
    10 0.039887 -1.479790 0.029854 -1.744424 0.000000 0.000001
    11 0.028786 -1.075731 -0.023109 -1.070625 0.000000 0.000000
    12 0.125023 -3.051141 -0.574344 -0.799992 -0.047048 -0.393136
    13 -0.049759 -1.680544 0.100479 -1.454033 0.000000 -0.000002
    14 -0.034142 -1.148312 0.084782 -0.497169 0.000000 0.000000
    15 0.957766 -2.746780 -0.090302 0.273204 -0.158969 -0.144550
    16 -0.033420 -1.397129 -0.011257 -0.488110 0.000000 -0.000001
    17 -0.022360 -0.957436 0.018784 -0.183883 0.000000 0.000000
    18 -1.200213 -2.612689 -0.084481 -0.819559 0.107002 -0.434663
    19 -0.024967 -1.123934 0.017597 -1.746587 0.000000 0.000001
    20 -0.020057 -0.890968 0.010090 -0.424577 0.000000 0.000000
    21 0.583510 -1.197277 0.185379 0.041775 -0.932219 -0.526993
    22 1.535927 0.010246 0.005009 0.076853 0.243530 -0.543356
    23 1.100771 0.004527 -0.010679 0.034536 0.117363 -0.105045
    24 0.018587 -0.093240 -0.167774 3.423244 6.142883 -1.288278
    25 -6.813937 -3.672619 0.846399 -0.863544 -5.331780 0.008016
    26 0.096944 -8.450418 -0.009365 -0.323059 -0.882257 0.488076
    27 0.447953 -2.798986 -0.200443 -0.805857 -0.098878 0.556583
    28 -0.032909 -1.480204 0.004940 -1.135932 0.000000 0.000002
    29 -0.027022 -1.076920 -0.020210 0.165353 0.000000 0.000000
    30 -0.249534 -2.846964 -0.174213 -0.518785 -0.091543 0.444345
    31 0.043235 -1.683941 0.096012 -0.721028 0.167659 -0.080068
    32 0.031729 -1.160830 0.058838 0.106677 0.000642 0.008372
    33 -0.963866 -2.785145 -0.085350 -0.084261 0.036917 0.292995
    34 0.028479 -1.403067 0.006271 -0.512381 0.000000 0.000000
    35 0.021413 -0.957781 0.020046 0.186326 0.000000 0.000000
    36 1.164475 -2.543940 -0.170330 -0.843965 -0.017414 0.527819
    37 0.024032 -1.129042 0.017807 -1.014874 0.000000 0.000001
    38 0.014898 -0.883989 -0.019848 0.153136 0.000000 0.000000
    39 -0.500830 -1.428545 0.403292 -0.145362 -0.196455 -2.720525
    40 1.522835 0.058681 0.016848 -0.203922 -0.101530 0.228687
    41 1.117947 0.048424 -0.005766 0.004383 -0.024816 -0.119088
    42 -0.115961 -0.170294 -0.005135 0.565529 0.160611 1.289258
    43 -1.393470 8.839177 -0.239433 1.580804 -0.005023 -1.566847
  time 6
    0 5.480304 -9.613092 -13.629537 -0.115723 -0.315968 -0.265437
    1 7.384263 3.561215 -0.030885 0.750898 -2.386457 -1.389558
    2 -0.071920 -8.498735 -0.104136 0.176211 0.489184 -0.477338
    3 1.301309 -2.858450 0.533806 -0.317190 -0.156087 -3.649922
    4 -0.633172 1.164522 0.000000 0.000000 0.000000 0.542622
    5 -4.694041 4.765071 0.000002 0.000000 0.000000 1.961197
    6 0.471631 -4.176224 -0.013908 0.390400 -1.570796 0.000000
    7 0.798002 0.010359 -0.002600 0.000002 1.570796 0.000000
    8 1.257180 8.762585 -0.153713 -1.570562 0.002683 -1.566807
    9 -0.488518 -2.755602 -0.228260 -0.721249 -0.081949 -0.452612
    10 0.039887 -1.479790 0.029854 -1.744424 0.000000 0.000001
    11 0.028786 -1.075731 -0.023109 -1.070625 0.000000 0.000000
    12 0.125023 -3.051141 -0.574344 -0.799992 -0.047060 -0.393136
    13 -0.049759 -1.680544 0.100479 -1.454033 0.000000 -0.000002
    14 -0.034142 -1.148312 0.084782 -0.497169 0.000000 0.000000
    15 0.957766 -2.746780 -0.090302 0.273204 -0.158969 -0.144550
    16 -0.033420 -1.397129 -0.011257 -0.488110 0.000000 -0.000001
    17 -0.022360 -0.957436 0.018784 -0.183883 0.000000 0.000000
    18 -1.200213 -2.612689 -0.084481 -0.819559 0.107002 -0.434663
    19 -0.024967 -1.123934 0.017597 -1.746587 0.000000 0.000001
    20 -0.020057 -0.890968 0.010090 -0.424577 0.000000 0.000000
    21 0.583510 -1.197277 0.185379 0.041775 -0.932219 -0.526993
    22 1.535927 0.010246 0.005009 0.076853 0.243530 -0.543356
    23 1.100771 0.004527 -0.010679 0.034536 0.117363 -0.105045
    24 0.018587 -0.093240 -0.167774 3.423244 6.142883 -1.288278
    25 -6.813937 -3.680431 0.873743 -0.863544 -5.331780 0.008016
    26 0.096944 -8.450418 -0.009365 -0.323059 -0.882257 0.488076
    27 0.447953 -2.798986 -0.200443 -0.805857 -0.098878 0.556583
    28 -0.032909 -1.480204 0.004940 -1.135932 0.000000 0.000002
    29 -0.027022 -1.076920 -0.020210 0.165353 0.000000 0.000000
    30 -0.249534 -2.846964 -0.174213 -0.518785 -0.091543 0.444345
    31 0.043235 -1.683941 0.096012 -0.944904 0.114088 -0.054098
    32 0.031729 -1.160830 0.058838 0.106677 0.000642 0.008372
    33 -0.963866 -2.785145 -0.085350 -0.084261 0.036917 0.292995
    34 0.028479 -1.403067 0.006271 -0.493245 0.000000 0.000000
    35 0.021413 -0.957781 0.020046 0.165111 0.000000 0.000000
    36 1.164475 -2.543940 -0.170330 -0.843965 -0.017414 0.527819
    37 0.024032 -1.129042 0.017807 -1.014874 0.000000 0.000001
    38 0.014898 -0.883989 -0.019848 0.153136 0.000000 0.000000
    39 -0.500830 -1.428545 0.403292 -0.181272 -0.184768 -2.711588
    40 1.522835 0.058681 0.016848 -0.203347 -0.069782 0.206694
    41 1.117947 0.048424 -0.005766 0.004395 -0.024816 -0.119981
    42 -0.115961 -0.170294 -0.005135 0.565529 0.160611 1.289258
    43 -1.393470 8.839177 -0.239433 1.580804 -0.005023 -1.566847
  time 7
    0 5.441241 -9.570122 -12.707634 -0.127924 -0.290186 -0.224841
    1 7.384263 3.561215 -0.030885 0.750898 -2.386457 -1.389558
    2 -0.071920 -8.498735 -0.104136 0.177158 0.499407 -0.475291
    3 1.301309 -2.858450 0.533806 -0.317190 -0.156087 -3.649938
    4 -0.633172 1.164522 0.000000 0.000000 0.000000 0.542622
    5 -4.694041 4.765071 0.000002 0.000000 0.000000 1.961197
    6 0.471631 -4.176224 -0.013908 0.390400 -1.570796 0.000000
    7 0.798002 0.010359 -0.002600 0.000002 1.570796 0.000000
    8 1.257180 8.762585 -0.153713 -1.570562 0.002683 -1.566807
    9 -0.488518 -2.755602 -0.228260 -0.721249 -0.081949 -0.452612
    10 0.039887 -1.479790 0.029854 -1.744424 0.000000 0.000001
    11 0.028786 -1.075731 -0.023109 -1.070625 0.000000 0.000000
    12 0.125023 -3.051141 -0.574344 -0.799992 -0.047048 -0.393136
    13 -0.049759 -1.680544 0.100479 -1.454033 0.000000 -0.000002
    14 -0.034142 -1.148312 0.084782 -0.497169 0.000000 0.000000
    15 0.957766 -2.746780 -0.090302 0.273204 -0.158969 -0.144550
    16 -0.033420 -1.397129 -0.011257 -0.488110 0.000000 -0.000001
    17 -0.022360 -0.957436 0.018784 -0.183883 0.000000 0.000000
    18 -1.200213 -2.612689 -0.084481 -0.819559 0.107002 -0.434663
    19 -0.024967 -1.123934 0.017597 -1.746587 0.000000 0.000001
    20 -0.020057 -0.890968 0.010090 -0.424577 0.000000 0.000000
    21 0.583510 -1.197277 0.185379 0.041775 -0.932219 -0.526993
    22 1.535927 0.010246 0.005009 0.076853 0.243530 -0.543356
    23 1.100771 0.004527 -0.010679 0.034536 0.117363 -0.105045
    24 0.018587 -0.093240 -0.167774 3.423244 6.142883 -1.288278
    25 -6.813937 -3.684338 0.901088 -0.863544 -5.331780 0.008016
    26 0.096944 -8.450418 -0.009365 -0.323059 -0.882257 0.488076
    27 0.447953 -2.798986 -0.200443 -0.805857 -0.098878 0.556583
    28 -0.032909 -1.480204 0.004940 -1.135932 0.000000 0.000002
    29 -0.027022 -1.076920 -0.020210 0.165353 0.000000 0.000000
    30 -0.249534 -2.846964 -0.174213 -0.518785 -0.091543 0.444345
    31 0.043235 -1.683941 0.096012 -1.168781 0.060517 -0.028127
    32 0.031729 -1.160830 0.058838 0.106677 0.000642 0.008372
    33 -0.963866 -2.785145 -0.085350 -0.084261 0.036917 0.292995
    34 0.028479 -1.403067 0.006271 -0.477572 0.000000 0.000000
    35 0.021413 -0.957781 0.020046 0.138981 0.000000 0.000000
    36 1.164475 -2.543940 -0.170330 -0.843965 -0.017414 0.527819
    37 0.024032 -1.129042 0.017807 -1.014874 0.000000 0.000001
    38 0.014898 -0.883989 -0.019848 0.153136 0.000000 0.000000
    39 -0.500830 -1.428545 0.403292 -0.211550 -0.172001 -2.703798
    40 1.522835 0.058681 0.016848 -0.202795 -0.040986 0.188328
    41 1.117947 0.048424 -0.005766 0.004419 -0.024816 -0.120722
    42 -0.115961 -0.170294 -0.005135 0.565529 0.160611 1.289258
    43 -1.393470 8.839177 -0.239433 1.580804 -0.005023 -1.566847
  time 8
    0 5.402177 -9.491995 -11.918547 -0.136624 -0.265824 -0.188137
    1 7.384263 3.561215 -0.030885 0.750898 -2.386457 -1.389558
    2 -0.071920 -8.498735 -0.104136 0.178009 0.508539 -0.473455
    3 1.301309 -2.858450 0.533806 -0.317190 -0.156087 -3.649922
    4 -0.633172 1.164522 0.000000 0.000000 0.000000 0.542622
    5 -4.694041 4.765071 0.000002 0.000000 0.000000 1.961197
    6 0.471631 -4.176224 -0.013908 0.390400 -1.570796 0.000000
    7 0.798002 0.010359 -0.002600 0.000002 1.570796 0.000000
    8 1.257180 8.762585 -0.153713 -1.570562 0.002683 -1.566807
    9 -0.488518 -2.755602 -0.228260 -0.721249 -0.081949 -0.452612
    10 0.039887 -1.479790 0.029854 -1.744424 0.000000 0.000001
    11 0.028786 -1.075731 -0.023109 -1.070625 0.000000 0.000000
    12 0.125023 -3.051141 -0.574344 -0.799992 -0.047060 -0.393136
    13 -0.049759 -1.680544 0.100479 -1.454033 0.000000 -0.000002
    14 -0.034142 -1.148312 0.084782 -0.497169 0.000000 0.000000
    15 0.957766 -2.746780 -0.090302 0.273204 -0.158969 -0.144550
    16 -0.033420 -1.397129 -0.011257 -0.488110 0.000000 -0.000001
    17 -0.022360 -0.957436 0.018784 -0.183883 0.000000 0.000000
    18 -1.200213 -2.612689 -0.084481 -0.819559 0.107002 -0.434663
    19 -0.024967 -1.123934 0.017597 -1.746587 0.000000 0.000001
    20 -0.020057 -0.890968 0.010090 -0.424577 0.000000 0.000000
    21 0.583510 -1.197277 0.185379 0.041775 -0.932219 -0.526993
    22 1.535927 0.010246 0.005009 0.076853 0.243530 -0.543356
    23 1.100771 0.004527 -0.010679 0.034536 0.117363 -0.105045
    24 0.018587 -0.093240 -0.167774 3.423244 6.142883 -1.288278
    25 -6.813937 -3.688244 0.916713 -0.863544 -5.331780 0.008016
    26 0.096944 -8.450418 -0.009365 -0.323059 -0.882257 0.488076
    27 0.447953 -2.798986 -0.200443 -0.805857 -0.098878 0.556583
    28 -0.032909 -1.480204 0.004940 -1.135932 0.000000 0.000002
    29 -0.027022 -1.076920 -0.020210 0.165353 0.000000 0.000000
    30 -0.249534 -2.846964 -0.174213 -0.518785 -0.091543 0.444345
    31 0.043235 -1.683941 0.096012 -1.340979 0.019302 -0.008149
    32 0.031729 -1.160830 0.058838 0.106677 0.000642 0.008372
    33 -0.963866 -2.785145 -0.085350 -0.084261 0.036917 0.292995
    34 0.028479 -1.403067 0.006271 -0.466957 0.000000 0.000000
    35 0.021413 -0.957781 0.020046 0.107627 0.000000 0.000000
    36 1.164475 -2.543940 -0.170330 -0.843965 -0.017414 0.527819
    37 0.024032 -1.129042 0.017807 -1.014874 0.000000 0.000001
    38 0.014898 -0.883989 -0.019848 0.153136 0.000000 0.000000
    39 -0.500830 -1.428545 0.403292 -0.232468 -0.158433 -2.698033
    40 1.522835 0.058681 0.016848 -0.202304 -0.017838 0.175734
    41 1.117947 0.048424 -0.005766 0.004431 -0.024816 -0.121228
    42 -0.115961 -0.170294 -0.005135 0.565529 0.160611 1.289258
    43 -1.393470 8.839177 -0.239433 1.580804 -0.005023 -1.566847
  time 9
    0 5.355301 -9.374804 -11.332592 -0.139932 -0.241752 -0.158207
    1 7.384263 3.561215 -0.030885 0.750898 -2.386457 -1.389558
    2 -0.071920 -8.498735 -0.104136 0.178716 0.515885 -0.471964
    3 1.301309 -2.858450 0.533806 -0.317190 -0.156087 -3.649922
    4 -0.633172 1.164522 0.000000 0.000000 0.000000 0.542622
    5 -4.694041 4.765071 0.000002 0.000000 0.000000 1.961197
    6 0.471631 -4.176224 -0.013908 0.390400 -1.570796 0.000000
    7 0.798002 0.010359 -0.002600 0.000002 1.570796 0.000000
    8 1.257180 8.762585 -0.153713 -1.570562 0.002683 -1.566807
    9 -0.488518 -2.755602 -0.228260 -0.721249 -0.081949 -0.452612
    10 0.039887 -1.479790 0.029854 -1.744424 0.000000 0.000001
    11 0.028786 -1.075731 -0.023109 -1.070625 0.000000 0.000000
    12 0.125023 -3.051141 -0.574344 -0.799992 -0.047048 -0.393136
    13 -0.049759 -1.680544 0.100479 -1.454033 0.000000 -0.000002
    14 -0.034142 -1.148312 0.084782 -0.497169 0.000000 0.000000
    15 0.957766 -2.746780 -0.090302 0.273204 -0.158969 -0.144550
    16 -0.033420 -1.397129 -0.011257 -0.488110 0.000000 -0.000001
    17 -0.022360 -0.957436 0.018784 -0.183883 0.000000 0.000000
    18 -1.200213 -2.612689 -0.084481 -0.819559 0.107002 -0.434663
    19 -0.024967 -1.123934 0.017597 -1.746587 0.000000 0.000001
    20 -0.020057 -0.890968 0.010090 -0.424577 0.000000 0.000000
    21 0.583510 -1.197277 0.185379 0.041775 -0.932219 -0.526993
    22 1.535927 0.010246 0.005009 0.076853 0.243530 -0.543356
    23 1.100771 0.004527 -0.010679 0.034536 0.117363 -0.105045
    24 0.018587 -0.093240 -0.167774 3.423244 6.142883 -1.288278
    25 -6.813937 -3.692150 0.924526 -0.863544 -5.331780 0.008016
    26 0.096944 -8.450418 -0.009365 -0.323059 -0.882257 0.488076
    27 0.447953 -2.798986 -0.200443 -0.805857 -0.098878 0.556583
    28 -0.032909 -1.480204 0.004940 -1.135932 0.000000 0.000002
    29 -0.027022 -1.076920 -0.020210 0.165353 0.000000 0.000000
    30 -0.249534 -2.846964 -0.174213 -0.518785 -0.091543 0.444345
    31 0.043235 -1.683941 0.096012 -1.409884 0.002823 -0.000167
    32 0.031729 -1.160830 0.058838 0.106677 0.000642 0.008372
    33 -0.963866 -2.785145 -0.085350 -0.084261 0.036917 0.292995
    34 0.028479 -1.403067 0.006271 -0.463038 0.000000 0.000000
    35 0.021413 -0.957781 0.020046 0.070695 0.000000 0.000000
    36 1.164475 -2.543940 -0.170330 -0.843965 -0.017414 0.527819
    37 0.024032 -1.129042 0.017807 -1.014874 0.000000 0.000001
    38 0.014898 -0.883989 -0.019848 0.153136 0.000000 0.000000
    39 -0.500830 -1.428545 0.403292 -0.240281 -0.144407 -2.695157
    40 1.522835 0.058681 0.016848 -0.201933 -0.003033 0.171054
    41 1.117947 0.048424 -0.005766 0.004431 -0.024816 -0.121413
    42 -0.115961 -0.170294 -0.005135 0.565529 0.160611 1.289258
    43 -1.393470 8.839177 -0.239433 1.580804 -0.005023 -1.566847
  time 10
    0 5.304518 -9.214643 -10.930236 -0.129697 -0.215934 -0.133465
    1 7.384263 3.561215 -0.030885 0.750898 -2.386457 -1.389558
    2 -0.071920 -8.498735 -0.104136 0.179339 0.522117 -0.470682
    3 1.301309 -2.858450 0.533806 -0.317190 -0.156087 -3.649922
    4 -0.633172 1.164522 0.000000 0.000000 0.000000 0.542622
    5 -4.694041 4.765071 0.000002 0.000000 0.000000 1.961197
    6 0.471631 -4.176224 -0.013908 0.390400 -1.570796 0.000000
    7 0.798002 0.010359 -0.002600 0.000002 1.570796 0.000000
    8 1.257180 8.762585 -0.153713 -1.570562 0.002683 -1.566807
    9 -0.488518 -2.755602 -0.228260 -0.721249 -0.081949 -0.452612
    10 0.039887 -1.479790 0.029854 -1.744424 0.000000 0.000001
    11 0.028786 -1.075731 -0.023109 -1.070625 0.000000 0.000000
    12 0.125023 -3.051141 -0.574344 -0.799992 -0.047048 -0.393136
    13 -0.049759 -1.680544 0.100479 -1.454033 0.000000 -0.000002
    14 -0.034142 -1.148312 0.084782 -0.497169 0.000000 0.000000
    15 0.957766 -2.746780 -0.090302 0.273204 -0.158969 -0.144550
    16 -0.033420 -1.397129 -0.011257 -0.488110 0.000000 -0.000001
    17 -0.022360 -0.957436 0.018784 -0.183883 0.000000 0.000000
    18 -1.200213 -2.612689 -0.084481 -0.819559 0.107002 -0.434663
    19 -0.024967 -1.123934 0.017597 -1.746587 0.000000 0.000001
    20 -0.020057 -0.890968 0.010090 -0.424577 0.000000 0.000000
    21 0.583510 -1.197277 0.185379 0.041775 -0.932219 -0.526993
    22 1.535927 0.010246 0.005009 0.076853 0.243530 -0.543356
    23 1.100771 0.004527 -0.010679 0.034536 0.117363 -0.105045
    24 0.018587 -0.093240 -0.167774 3.423244 6.142883 -1.288278
    25 -6.813937 -3.688244 0.916713 -0.868978 -5.334546 0.004735
    26 0.096944 -8.450418 -0.009365 -0.312984 -0.882257 0.488076
    27 0.447953 -2.798986 -0.200443 -0.805857 -0.098878 0.556583
    28 -0.032909 -1.480204 0.004940 -1.135932 0.000000 0.000002
    29 -0.027022 -1.076920 -0.020210 0.165353 0.000000 0.000000
    30 -0.249534 -2.846964 -0.174213 -0.518785 -0.091543 0.444345
    31 0.043235 -1.683941 0.096012 -1.409884 0.002823 -0.000167
    32 0.031729 -1.160830 0.058838 0.106677 0.000642 0.008372
    33 -0.963866 -2.785145 -0.085350 -0.084261 0.036917 0.292995
    34 0.028479 -1.403067 0.006271 -0.496617 0.000000 0.000000
    35 0.021413 -0.957781 0.020046 0.018047 0.000000 0.000000
    36 1.164475 -2.543940 -0.170330 -0.843965 -0.017414 0.527819
    37 0.024032 -1.129042 0.017807 -1.014874 0.000000 0.000001
    38 0.014898 -0.883989 -0.019848 0.153136 0.000000 0.000000
    39 -0.500830 -1.428545 0.403292 -0.236986 -0.128291 -2.694131
    40 1.522835 0.058681 0.016848 -0.201693 0.005039 0.174096
    41 1.117947 0.048424 -0.005766 0.003448 -0.024854 -0.082000
    42 -0.115961 -0.170294 -0.005135 0.563624 0.154702 1.291536
    43 -1.393470 8.839177 -0.239433 1.580804 -0.005023 -1.566847
  time 11
    0 5.242016 -9.023230 -10.621633 -0.102720 -0.188096 -0.110741
    1 7.384263 3.561215 -0.030885 0.750898 -2.386457 -1.389558
    2 -0.071920 -8.498735 -0.104136 0.179974 0.528266 -0.469401
    3 1.301309 -2.858450 0.533806 -0.317190 -0.156087 -3.649922
    4 -0.633172 1.164522 0.000000 0.000000 0.000000 0.542622
    5 -4.694041 4.765071 0.000002 0.000000 0.000000 1.961197
    6 0.471631 -4.176224 -0.013908 0.390400 -1.570796 0.000000
    7 0.798002 0.010359 -0.002600 0.000002 1.570796 0.000000
    8 1.257180 8.762585 -0.153713 -1.570562 0.002683 -1.566807
    9 -0.488518 -2.755602 -0.228260 -0.721249 -0.081949 -0.452612
    10 0.039887 -1.479790 0.029854 -1.744424 0.000000 0.000001
    11 0.028786 -1.075731 -0.023109 -1.070625 0.000000 0.000000
    12 0.125023 -3.051141 -0.574344 -0.799992 -0.047048 -0.393136
    13 -0.049759 -1.680544 0.100479 -1.459862 0.000000 -0.000002
    14 -0.034142 -1.148312 0.084782 -0.531250 0.000000 0.000000
    15 0.957766 -2.746780 -0.090302 0.273204 -0.158969 -0.144550
    16 -0.033420 -1.397129 -0.011257 -0.488110 0.000000 -0.000001
    17 -0.022360 -0.957436 0.018784 -0.183883 0.000000 0.000000
    18 -1.200213 -2.612689 -0.084481 -0.819559 0.107002 -0.434663
    19 -0.024967 -1.123934 0.017597 -1.746587 0.000000 0.000001
    20 -0.020057 -0.890968 0.010090 -0.424577 0.000000 0.000000
    21 0.583510 -1.197277 0.185379 0.041775 -0.932219 -0.526993
    22 1.535927 0.010246 0.005009 0.066211 0.242669 -0.586662
    23 1.100771 0.004527 -0.010679 0.029514 0.116883 -0.147433
    24 0.018587 -0.093240 -0.167774 3.423244 6.142883 -1.288278
    25 -6.813937 -3.684338 0.893275 -0.883091 -5.342014 -0.003795
    26 0.096944 -8.450418 -0.009365 -0.286460 -0.882257 0.488076
    27 0.447953 -2.798986 -0.200443 -0.805857 -0.098878 0.556583
    28 -0.032909 -1.480204 0.004940 -1.135932 0.000000 0.000002
    29 -0.027022 -1.076920 -0.020210 0.165353 0.000000 0.000000
    30 -0.249534 -2.846964 -0.174213 -0.518785 -0.091543 0.444345
    31 0.043235 -1.683941 0.096012 -1.409884 0.002823 -0.000167
    32 0.031729 -1.160830 0.058838 0.106677 0.000642 0.008372
    33 -0.963866 -2.785145 -0.085350 -0.084261 0.036917 0.292995
    34 0.028479 -1.403067 0.006271 -0.585142 0.000000 0.000000
    35 0.021413 -0.957781 0.020046 -0.054764 0.000000 0.000000
    36 1.164475 -2.543940 -0.170330 -0.843965 -0.017414 0.527819
    37 0.024032 -1.129042 0.017807 -1.014874 0.000000 0.000001
    38 0.014898 -0.883989 -0.019848 0.153136 0.000000 0.000000
    39 -0.500830 -1.428545 0.403292 -0.227950 -0.108977 -2.693321
    40 1.522835 0.058681 0.016848 -0.201549 0.010280 0.182596
    41 1.117947 0.048424 -0.005766 0.001267 -0.024969 0.004728
    42 -0.115961 -0.170294 -0.005135 0.558577 0.139123 1.297540
    43 -1.393470 8.839177 -0.239433 1.580804 -0.005023 -1.566847
  time 12
    0 5.175608 -8.808380 -10.395063 -0.064573 -0.159931 -0.090179
    1 7.384263 3.561215 -0.030885 0.750898 -2.386457 -1.389558
    2 -0.071920 -8.498735 -0.104136 0.180598 0.534078 -0.468177
    3 1.301309 -2.858450 0.533806 -0.317190 -0.156087 -3.649922
    4 -0.633172 1.164522 0.000000 0.000000 0.000000 0.542622
    5 -4.694041 4.765071 0.000002 0.000000 0.000000 1.961197
    6 0.471631 -4.176224 -0.013908 0.390400 -1.570796 0.000000
    7 0.798002 0.010359 -0.002600 0.000002 1.570796 0.000000
    8 1.257180 8.762585 -0.153713 -1.570562 0.002683 -1.566807
    9 -0.488518 -2.755602 -0.228260 -0.721249 -0.081949 -0.452612
    10 0.039887 -1.479790 0.029854 -1.744424 0.000000 0.000001
    11 0.028786 -1.075731 -0.023109 -1.070625 0.000000 0.000000
    12 0.125023 -3.051141 -0.574344 -0.799992 -0.047048 -0.393136
    13 -0.049759 -1.680544 0.100479 -1.474795 0.000000 -0.000002
    14 -0.034142 -1.148312 0.084782 -0.619217 0.000000 0.000000
    15 0.957766 -2.746780 -0.090302 0.273204 -0.158969 -0.144550
    16 -0.033420 -1.397129 -0.011257 -0.488110 0.000000 -0.000001
    17 -0.022360 -0.957436 0.018784 -0.183883 0.000000 0.000000
    18 -1.200213 -2.612689 -0.084481 -0.819559 0.107002 -0.434663
    19 -0.024967 -1.123934 0.017597 -1.746587 0.000000 0.000001
    20 -0.020057 -0.890968 0.010090 -0.424577 0.000000 0.000000
    21 0.583510 -1.197277 0.185379 0.041775 -0.932219 -0.526993
    22 1.535927 0.010246 0.005009 0.038778 0.240471 -0.698368
    23 1.100771 0.004527 -0.010679 0.016559 0.115649 -0.256709
    24 0.018587 -0.093240 -0.167774 3.423244 6.142883 -1.288278
    25 -6.813937 -3.676525 0.865931 -0.903202 -5.352454 -0.015888
    26 0.096944 -8.450418 -0.009365 -0.248961 -0.882257 0.488076
    27 0.447953 -2.798986 -0.200443 -0.805857 -0.098878 0.556583
    28 -0.032909 -1.480204 0.004940 -1.135932 0.000000 0.000002
    29 -0.027022 -1.076920 -0.020210 0.165353 0.000000 0.000000
    30 -0.249534 -2.846964 -0.174213 -0.518785 -0.091543 0.444345
    31 0.043235 -1.683941 0.096012 -1.409884 0.002823 -0.000167
    32 0.031729 -1.160830 0.058838 0.106677 0.000642 0.008372
    33 -0.963866 -2.785145 -0.085350 -0.084261 0.036917 0.292995
    34 0.028479 -1.403067 0.006271 -0.710299 0.000000 0.000000
    35 0.021413 -0.957781 0.020046 -0.139391 0.000000 0.000000
    36 1.164475 -2.543940 -0.170330 -0.843965 -0.017414 0.527819
    37 0.024032 -1.129042 0.017807 -1.014874 0.000000 0.000001
    38 0.014898 -0.883989 -0.019848 0.153136 0.000000 0.000000
    39 -0.500830 -1.428545 0.403292 -0.214397 -0.087559 -2.692727
    40 1.522835 0.058681 0.016848 -0.201477 0.013458 0.195737
    41 1.117947 0.048424 -0.005766 -0.000890 -0.025071 0.091456
    42 -0.115961 -0.170294 -0.005135 0.551432 0.117092 1.306049
    43 -1.393470 8.839177 -0.239433 1.580804 -0.005023 -1.566847
  time 13
    0 5.109199 -8.577904 -10.238809 -0.020841 -0.133130 -0.071874
    1 7.384263 3.561215 -0.030885 0.750898 -2.386457 -1.389558
    2 -0.071920 -8.498735 -0.104136 0.181185 0.539351 -0.467049
    3 1.301309 -2.858450 0.533806 -0.317190 -0.156087 -3.649922
    4 -0.633172 1.164522 0.000000 0.000000 0.000000 0.542622
    5 -4.694041 4.765071 0.000002 0.000000 0.000000 1.961197
    6 0.471631 -4.176224 -0.013908 0.390400 -1.570796 0.000000
    7 0.798002 0.010359 -0.002600 0.000002 1.570796 0.000000
    8 1.257180 8.762585 -0.153713 -1.570562 0.002683 -1.566807
    9 -0.488518 -2.755602 -0.228260 -0.721249 -0.081949 -0.452612
    10 0.039887 -1.479790 0.029854 -1.744424 0.000000 0.000001
    11 0.028786 -1.075731 -0.023109 -1.070625 0.000000 0.000000
    12 0.125023 -3.051141 -0.574344 -0.799992 -0.047048 -0.393136
    13 -0.049759 -1.680544 0.100479 -1.495220 0.000000 -0.000002
    14 -0.034142 -1.148312 0.084782 -0.739496 0.000000 0.000000
    15 0.957766 -2.746780 -0.090302 0.273204 -0.158969 -0.144550
    16 -0.033420 -1.397129 -0.011257 -0.488110 0.000000 -0.000001
    17 -0.022360 -0.957436 0.018784 -0.183883 0.000000 0.000000
    18 -1.200213 -2.612689 -0.084481 -0.819559 0.107002 -0.434663
    19 -0.024967 -1.123934 0.017597 -1.746587 0.000000 0.000001
    20 -0.020057 -0.890968 0.010090 -0.424577 0.000000 0.000000
    21 0.583510 -1.197277 0.185379 0.041775 -0.932219 -0.526993
    22 1.535927 0.010246 0.005009 0.001267 0.237473 -0.851114
    23 1.100771 0.004527 -0.010679 -0.001166 0.113959 -0.406160
    24 0.018587 -0.093240 -0.167774 3.423244 6.142883 -1.288278
    25 -6.813937 -3.668712 0.830773 -0.926136 -5.364485 -0.029856
    26 0.096944 -8.450418 -0.009365 -0.205962 -0.882257 0.488076
    27 0.447953 -2.798986 -0.200443 -0.805857 -0.098878 0.556583
    28 -0.032909 -1.480204 0.004940 -1.135932 0.000000 0.000002
    29 -0.027022 -1.076920 -0.020210 0.165353 0.000000 0.000000
    30 -0.249534 -2.846964 -0.174213 -0.518785 -0.091543 0.444345
    31 0.043235 -1.683941 0.096012 -1.409884 0.002823 -0.000167
    32 0.031729 -1.160830 0.058838 0.106677 0.000642 0.008372
    33 -0.963866 -2.785145 -0.085350 -0.084261 0.036917 0.292995
    34 0.028479 -1.403067 0.006271 -0.853771 0.000000 0.000000
    35 0.021413 -0.957781 0.020046 -0.227450 0.000000 0.000000
    36 1.164475 -2.543940 -0.170330 -0.843965 -0.017414 0.527819
    37 0.024032 -1.129042 0.017807 -1.014874 0.000000 0.000001
    38 0.014898 -0.883989 -0.019848 0.153136 0.000000 0.000000
    39 -0.500830 -1.428545 0.403292 -0.197579 -0.065105 -2.692308
    40 1.522835 0.058681 0.016848 -0.201417 0.015265 0.212699
    41 1.117947 0.048424 -0.005766 -0.001885 -0.025109 0.130868
    42 -0.115961 -0.170294 -0.005135 0.543257 0.091828 1.315792
    43 -1.393470 8.839177 -0.239433 1.580804 -0.005023 -1.566847
  time 14
    0 5.046697 -8.339616 -10.137243 0.022867 -0.109368 -0.055876
    1 7.384263 3.561215 -0.030885 0.750898 -2.386457 -1.389558
    2 -0.071920 -8.498735 -0.104136 0.181688 0.543846 -0.466073
    3 1.301309 -2.858450 0.533806 -0.317190 -0.156087 -3.649938
    4 -0.633172 1.164522 0.000000 0.000000 0.000000 0.542622
    5 -4.694041 4.765071 0.000002 0.000000 0.000000 1.961197
    6 0.471631 -4.176224 -0.013908 0.390400 -1.570796 0.000000
    7 0.798002 0.010359 -0.002600 0.000002 1.570796 0.000000
    8 1.257180 8.762585 -0.153713 -1.570562 0.002683 -1.566807
    9 -0.488518 -2.755602 -0.228260 -0.721249 -0.081949 -0.452612
    10 0.039887 -1.479790 0.029854 -1.744424 0.000000 0.000001
    11 0.028786 -1.075731 -0.023109 -1.070625 0.000000 0.000000
    12 0.125023 -3.051141 -0.574344 -0.799992 -0.047048 -0.393136
    13 -0.049759 -1.680544 0.100479 -1.517475 0.000000 -0.000002
    14 -0.034142 -1.148312 0.084782 -0.870513 0.000000 0.000000
    15 0.957766 -2.746780 -0.090302 0.273204 -0.158969 -0.144550
    16 -0.033420 -1.397129 -0.011257 -0.488110 0.000000 -0.000001
    17 -0.022360 -0.957436 0.018784 -0.183883 0.000000 0.000000
    18 -1.200213 -2.612689 -0.084481 -0.819559 0.107002 -0.434663
    19 -0.024967 -1.123934 0.017597 -1.746587 0.000000 0.000001
    20 -0.020057 -0.890968 0.010090 -0.424577 0.000000 0.000000
    21 0.583510 -1.197277 0.185379 0.041775 -0.932219 -0.526993
    22 1.535927 0.010246 0.005009 -0.039601 0.234198 -1.017540
    23 1.100771 0.004527 -0.010679 -0.020461 0.112113 -0.568994
    24 0.018587 -0.093240 -0.167774 3.423244 6.142883 -1.288278
    25 -6.817844 -3.660899 0.795616 -0.949141 -5.376516 -0.043729
    26 0.096944 -8.450418 -0.009365 -0.162964 -0.882257 0.488076
    27 0.447953 -2.798986 -0.200443 -0.805857 -0.098878 0.556583
    28 -0.032909 -1.480204 0.004940 -1.135932 0.000000 0.000002
    29 -0.027022 -1.076920 -0.020210 0.165353 0.000000 0.000000
    30 -0.249534 -2.846964 -0.174213 -0.518785 -0.091543 0.444345
    31 0.043235 -1.683941 0.096012 -1.409884 0.002823 -0.000167
    32 0.031729 -1.160830 0.058838 0.106677 0.000642 0.008372
    33 -0.963866 -2.785145 -0.085350 -0.084261 0.036917 0.292995
    34 0.028479 -1.403067 0.006271 -0.997243 0.000000 0.000000
    35 0.021413 -0.957781 0.020046 -0.310556 0.000000 0.000000
    36 1.164475 -2.543940 -0.170330 -0.843965 -0.017414 0.527819
    37 0.024032 -1.129042 0.017807 -1.014874 0.000000 0.000001
    38 0.014898 -0.883989 -0.019848 0.153136 0.000000 0.000000
    39 -0.500830 -1.428545 0.403292 -0.178734 -0.042710 -2.692025
    40 1.522835 0.058681 0.016848 -0.201333 0.016470 0.232664
    41 1.117947 0.048424 -0.005766 -0.001154 -0.025096 0.101650
    42 -0.115961 -0.170294 -0.005135 0.535081 0.066578 1.325536
    43 -1.393470 8.839177 -0.239433 1.580804 -0.005023 -1.566847
  time 15
    0 4.995915 -8.101327 -10.078647 0.061014 -0.090318 -0.042424
    1 7.384263 3.561215 -0.030885 0.750898 -2.386457 -1.389558
    2 -0.071920 -8.498735 -0.104136 0.182084 0.547333 -0.465328
    3 1.301309 -2.858450 0.533806 -0.317190 -0.156087 -3.649922
    4 -0.633172 1.164522 0.000000 0.000000 0.000000 0.542622
    5 -4.694041 4.765071 0.000002 0.000000 0.000000 1.961197
    6 0.471631 -4.176224 -0.013908 0.390400 -1.570796 0.000000
    7 0.798002 0.010359 -0.002600 0.000002 1.570796 0.000000
    8 1.257180 8.762585 -0.153713 -1.570562 0.002683 -1.566807
    9 -0.488518 -2.755602 -0.228260 -0.721249 -0.081949 -0.452612
    10 0.039887 -1.479790 0.029854 -1.744424 0.000000 0.000001
    11 0.028786 -1.075731 -0.023109 -1.070625 0.000000 0.000000
    12 0.125023 -3.051141 -0.574344 -0.799992 -0.047048 -0.393136
    13 -0.049759 -1.680544 0.100479 -1.537900 0.000000 -0.000002
    14 -0.034142 -1.148312 0.084782 -0.990792 0.000000 0.000000
    15 0.957766 -2.746780 -0.090302 0.273204 -0.158969 -0.144550
    16 -0.033420 -1.397129 -0.011257 -0.488110 0.000000 -0.000001
    17 -0.022360 -0.957436 0.018784 -0.183883 0.000000 0.000000
    18 -1.200213 -2.612689 -0.084481 -0.819559 0.107002 -0.434663
    19 -0.024967 -1.123934 0.017597 -1.746587 0.000000 0.000001
    20 -0.020057 -0.890968 0.010090 -0.424577 0.000000 0.000000
    21 0.583510 -1.197277 0.185379 0.041775 -0.932219 -0.526993
    22 1.535927 0.010246 0.005009 -0.077113 0.231200 -1.170285
    23 1.100771 0.004527 -0.010679 -0.038175 0.110436 -0.718418
    24 0.018587 -0.093240 -0.167774 3.423244 6.142883 -1.288278
    25 -6.817844 -3.653087 0.764365 -0.969181 -5.387026 -0.055822
    26 0.096944 -8.450418 -0.009365 -0.125439 -0.882257 0.488076
    27 0.447953 -2.798986 -0.200443 -0.805857 -0.098878 0.556583
    28 -0.032909 -1.480204 0.004940 -1.135932 0.000000 0.000002
    29 -0.027022 -1.076920 -0.020210 0.165353 0.000000 0.000000
    30 -0.249534 -2.846964 -0.174213 -0.518785 -0.091543 0.444345
    31 0.043235 -1.683941 0.096012 -1.409884 0.002823 -0.000167
    32 0.031729 -1.160830 0.058838 0.106677 0.000642 0.008372
    33 -0.963866 -2.785145 -0.085350 -0.084261 0.036917 0.292995
    34 0.028479 -1.403067 0.006271 -1.122399 0.000000 0.000000
    35 0.021413 -0.957781 0.020046 -0.380286 0.000000 0.000000
    36 1.164475 -2.543940 -0.170330 -0.843965 -0.017414 0.527819
    37 0.024032 -1.129042 0.017807 -1.014874 0.000000 0.000001
    38 0.014898 -0.883989 -0.019848 0.153136 0.000000 0.000000
    39 -0.500830 -1.428545 0.403292 -0.159085 -0.021425 -2.691863
    40 1.522835 0.058681 0.016848 -0.201201 0.017795 0.254773
    41 1.117947 0.048424 -0.005766 0.000500 -0.025045 0.035614
    42 -0.115961 -0.170294 -0.005135 0.527936 0.044547 1.334033
    43 -1.393470 8.839177 -0.239433 1.580804 -0.005023 -1.566847
  time 16
    0 4.960757 -7.870852 -10.055209 0.087991 -0.077655 -0.031567
    1 7.384263 3.561215 -0.030885 0.750898 -2.386457 -1.389558
    2 -0.071920 -8.498735 -0.104136 0.182347 0.549598 -0.464830
    3 1.301309 -2.858450 0.533806 -0.317190 -0.156087 -3.649922
    4 -0.633172 1.164522 0.000000 0.000000 0.000000 0.542622
    5 -4.694041 4.765071 0.000002 0.000000 0.000000 1.961197
    6 0.471631 -4.176224 -0.013908 0.390400 -1.570796 0.000000
    7 0.798002 0.010359 -0.002600 0.000002 1.570796 0.000000
    8 1.257180 8.762585 -0.153713 -1.570562 0.002683 -1.566807
    9 -0.488518 -2.755602 -0.228260 -0.721249 -0.081949 -0.452612
    10 0.039887 -1.479790 0.029854 -1.744424 0.000000 0.000001
    11 0.028786 -1.075731 -0.023109 -1.070625 0.000000 0.000000
    12 0.125023 -3.051141 -0.574344 -0.799992 -0.047048 -0.393136
    13 -0.049759 -1.680544 0.100479 -1.552833 0.000000 -0.000002
    14 -0.034142 -1.148312 0.084782 -1.078759 0.000000 0.000000
    15 0.957766 -2.746780 -0.090302 0.273204 -0.158969 -0.144550
    16 -0.033420 -1.397129 -0.011257 -0.488110 0.000000 -0.000001
    17 -0.022360 -0.957436 0.018784 -0.183883 0.000000 0.000000
    18 -1.200213 -2.612689 -0.084481 -0.819559 0.107002 -0.434663
    19 -0.024967 -1.123934 0.017597 -1.746587 0.000000 0.000001
    20 -0.020057 -0.890968 0.010090 -0.424577 0.000000 0.000000
    21 0.583510 -1.197277 0.185379 0.041775 -0.932219 -0.526993
    22 1.535927 0.010246 0.005009 -0.104545 0.229002 -1.281991
    23 1.100771 0.004527 -0.010679 -0.051142 0.109201 -0.827721
    24 0.018587 -0.093240 -0.167774 3.423244 6.142883 -1.288278
    25 -6.817844 -3.649180 0.740927 -0.983365 -5.394424 -0.064446
    26 0.096944 -8.450418 -0.009365 -0.098915 -0.882257 0.488076
    27 0.447953 -2.798986 -0.200443 -0.805857 -0.098878 0.556583
    28 -0.032909 -1.480204 0.004940 -1.135932 0.000000 0.000002
    29 -0.027022 -1.076920 -0.020210 0.165353 0.000000 0.000000
    30 -0.249534 -2.846964 -0.174213 -0.518785 -0.091543 0.444345
    31 0.043235 -1.683941 0.096012 -1.409884 0.002823 -0.000167
    32 0.031729 -1.160830 0.058838 0.106677 0.000642 0.008372
    33 -0.963866 -2.785145 -0.085350 -0.084261 0.036917 0.292995
    34 0.028479 -1.403067 0.006271 -1.210879 0.000000 0.000000
    35 0.021413 -0.957781 0.020046 -0.428254 0.000000 0.000000
    36 1.164475 -2.543940 -0.170330 -0.843965 -0.017414 0.527819
    37 0.024032 -1.129042 0.017807 -1.014874 0.000000 0.000001
    38 0.014898 -0.883989 -0.019848 0.153136 0.000000 0.000000
    39 -0.500830 -1.428545 0.403292 -0.139916 -0.002363 -2.691782
    40 1.522835 0.058681 0.016848 -0.200962 0.019964 0.278208
    41 1.117947 0.048424 -0.005766 0.002274 -0.024994 -0.034837
    42 -0.115961 -0.170294 -0.005135 0.522889 0.028968 1.340037
    43 -1.393470 8.839177 -0.239433 1.580804 -0.005023 -1.566847
  time 17
    0 4.945132 -7.659908 -10.047397 0.098226 -0.073070 -0.023400
    1 7.384263 3.561215 -0.030885 0.750898 -2.386457 -1.389558
    2 -0.071920 -8.498735 -0.104136 0.182431 0.550401 -0.464658
    3 1.301309 -2.858450 0.533806 -0.317190 -0.156087 -3.649922
    4 -0.633172 1.164522 0.000000 0.000000 0.000000 0.542622
    5 -4.694041 4.765071 0.000002 0.000000 0.000000 1.961197
    6 0.471631 -4.176224 -0.013908 0.390400 -1.570796 0.000000
    7 0.798002 0.010359 -0.002600 0.000002 1.570796 0.000000
    8 1.257180 8.762585 -0.153713 -1.570562 0.002683 -1.566807
    9 -0.488518 -2.755602 -0.228260 -0.721249 -0.081949 -0.452612
    10 0.039887 -1.479790 0.029854 -1.744424 0.000000 0.000001
    11 0.028786 -1.075731 -0.023109 -1.070625 0.000000 0.000000
    12 0.125023 -3.051141 -0.574344 -0.799992 -0.047048 -0.393136
    13 -0.049759 -1.680544 0.100479 -1.558614 0.000000 -0.000002
    14 -0.034142 -1.148312 0.084782 -1.112872 0.000000 0.000000
    15 0.957766 -2.746780 -0.090302 0.273204 -0.158969 -0.144550
    16 -0.033420 -1.397129 -0.011257 -0.488110 0.000000 -0.000001
    17 -0.022360 -0.957436 0.018784 -0.183883 0.000000 0.000000
    18 -1.200213 -2.612689 -0.084481 -0.819559 0.107002 -0.434663
    19 -0.024967 -1.123934 0.017597 -1.746587 0.000000 0.000001
    20 -0.020057 -0.890968 0.010090 -0.424577 0.000000 0.000000
    21 0.583510 -1.197277 0.185379 0.041775 -0.932219 -0.526993
    22 1.535927 0.010246 0.005009 -0.115188 0.228157 -1.325298
    23 1.100771 0.004527 -0.010679 -0.056163 0.108722 -0.870082
    24 0.018587 -0.093240 -0.167774 3.423244 6.142883 -1.288278
    25 -6.817844 -3.649180 0.733114 -0.988728 -5.397259 -0.067634
    26 0.096944 -8.450418 -0.009365 -0.088840 -0.882257 0.488076
    27 0.447953 -2.798986 -0.200443 -0.805857 -0.098878 0.556583
    28 -0.032909 -1.480204 0.004940 -1.135932 0.000000 0.000002
    29 -0.027022 -1.076920 -0.020210 0.165353 0.000000 0.000000
    30 -0.249534 -2.846964 -0.174213 -0.518785 -0.091543 0.444345
    31 0.043235 -1.683941 0.096012 -1.409884 0.002823 -0.000167
    32 0.031729 -1.160830 0.058838 0.106677 0.000642 0.008372
    33 -0.963866 -2.785145 -0.085350 -0.084261 0.036917 0.292995
    34 0.028479 -1.403067 0.006271 -1.244457 0.000000 0.000000
    35 0.021413 -0.957781 0.020046 -0.446116 0.000000 0.000000
    36 1.164475 -2.543940 -0.170330 -0.843965 -0.017414 0.527819
    37 0.024032 -1.129042 0.017807 -1.014874 0.000000 0.000001
    38 0.014898 -0.883989 -0.019848 0.153136 0.000000 0.000000
    39 -0.500830 -1.428545 0.403292 -0.122402 0.013412 -2.691768
    40 1.522835 0.058681 0.016848 -0.200578 0.023729 0.302150
    41 1.117947 0.048424 -0.005766 0.003328 -0.024943 -0.077249
    42 -0.115961 -0.170294 -0.005135 0.520984 0.023059 1.342314
    43 -1.393470 8.839177 -0.239433 1.580804 -0.005023 -1.566847
  time 18
    0 4.945132 -7.433338 -10.059116 0.089429 -0.073233 -0.018019
    1 7.384263 3.561215 -0.030885 0.750898 -2.386457 -1.389558
    2 -0.071920 -8.498735 -0.104136 0.182323 0.549406 -0.464869
    3 1.301309 -2.858450 0.533806 -0.317190 -0.156087 -3.649922
    4 -0.633172 1.164522 0.000000 0.000000 0.000000 0.542622
    5 -4.694041 4.765071 0.000002 0.000000 0.000000 1.961197
    6 0.471631 -4.176224 -0.013908 0.390400 -1.570796 0.000000
    7 0.798002 0.010359 -0.002600 0.000002 1.570796 0.000000
    8 1.257180 8.762585 -0.153713 -1.570562 0.002683 -1.566807
    9 -0.488518 -2.755602 -0.228260 -0.721249 -0.081949 -0.452612
    10 0.039887 -1.479790 0.029854 -1.744424 0.000000 0.000001
    11 0.028786 -1.075731 -0.023109 -1.070625 0.000000 0.000000
    12 0.125023 -3.051141 -0.574344 -0.799992 -0.047048 -0.393136
    13 -0.049759 -1.680544 0.100479 -1.558614 0.000000 -0.000002
    14 -0.034142 -1.148312 0.084782 -1.112872 0.000000 0.000000
    15 0.957766 -2.746780 -0.090302 0.273204 -0.158969 -0.144550
    16 -0.033420 -1.397129 -0.011257 -0.488978 0.000000 -0.000001
    17 -0.022360 -0.957436 0.018784 -0.200442 0.000000 0.000000
    18 -1.200213 -2.612689 -0.084481 -0.819559 0.107002 -0.434663
    19 -0.024967 -1.123934 0.017597 -1.746587 0.000000 0.000001
    20 -0.020057 -0.890968 0.010090 -0.424577 0.000000 0.000000
    21 0.583510 -1.197277 0.185379 0.041775 -0.932219 -0.526993
    22 1.535927 0.010246 0.005009 -0.115188 0.228157 -1.325298
    23 1.100771 0.004527 -0.010679 -0.054306 0.109429 -0.853767
    24 0.018587 -0.093240 -0.167774 3.423244 6.142883 -1.288278
    25 -6.817844 -3.649180 0.733114 -0.988728 -5.397259 -0.067634
    26 0.096944 -8.450418 -0.009365 -0.090151 -0.880323 0.487761
    27 0.447953 -2.798986 -0.200443 -0.805857 -0.098878 0.556583
    28 -0.032909 -1.480204 0.004940 -1.135932 0.000000 0.000002
    29 -0.027022 -1.076920 -0.020210 0.165353 0.000000 0.000000
    30 -0.249534 -2.846964 -0.174213 -0.518785 -0.091543 0.444345
    31 0.043235 -1.683941 0.096012 -1.409884 0.002823 -0.000167
    32 0.031729 -1.160830 0.058838 0.106677 0.000642 0.008372
    33 -0.963866 -2.785145 -0.085350 -0.084261 0.036917 0.292995
    34 0.028479 -1.403067 0.006271 -1.244457 0.000000 0.000000
    35 0.021413 -0.957781 0.020046 -0.446116 0.000000 0.000000
    36 1.164475 -2.543940 -0.170330 -0.843965 -0.017414 0.527819
    37 0.024032 -1.129042 0.017807 -1.014874 0.000000 0.000001
    38 0.014898 -0.883989 -0.019848 0.153136 0.000000 0.000000
    39 -0.500830 -1.428545 0.403292 -0.105243 0.025572 -2.694819
    40 1.522835 0.058681 0.016848 -0.199584 0.030070 0.333813
    41 1.117947 0.048424 -0.005766 0.003712 -0.024918 -0.092313
    42 -0.115961 -0.170294 -0.005135 0.524280 0.033247 1.338383
    43 -1.393470 8.839177 -0.239433 1.580804 -0.005023 -1.566847
  time 19
    0 4.941225 -7.187237 -10.082554 0.067449 -0.073688 -0.014896
    1 7.384263 3.561215 -0.030885 0.750898 -2.386457 -1.389558
    2 -0.071920 -8.498735 -0.104136 0.182024 0.546698 -0.465442
    3 1.301309 -2.858450 0.533806 -0.317190 -0.156087 -3.649938
    4 -0.633172 1.164522 0.000000 0.000000 0.000000 0.542622
    5 -4.694041 4.765071 0.000002 0.000000 0.000000 1.961197
    6 0.471631 -4.176224 -0.013908 0.390400 -1.570796 0.000000
    7 0.798002 0.010359 -0.002600 0.000002 1.570796 0.000000
    8 1.257180 8.762585 -0.153713 -1.570562 0.002683 -1.566807
    9 -0.488518 -2.755602 -0.228260 -0.721249 -0.081949 -0.452612
    10 0.039887 -1.479790 0.029854 -1.744424 0.000000 0.000001
    11 0.028786 -1.075731 -0.023109 -1.070625 0.000000 0.000000
    12 0.125023 -3.051141 -0.574344 -0.799992 -0.047048 -0.393136
    13 -0.049759 -1.680544 0.100479 -1.558614 0.000000 -0.000002
    14 -0.034142 -1.148312 0.084782 -1.112872 0.000000 0.000000
    15 0.957766 -2.746780 -0.090302 0.273204 -0.158969 -0.144550
    16 -0.033420 -1.397129 -0.011257 -0.491411 0.000000 -0.000001
    17 -0.022360 -0.957436 0.018784 -0.245334 0.000000 0.000000
    18 -1.200213 -2.612689 -0.084481 -0.819559 0.107002 -0.434663
    19 -0.024967 -1.123934 0.017597 -1.746587 0.000000 0.000001
    20 -0.020057 -0.890968 0.010090 -0.424577 0.000000 0.000000
    21 0.583510 -1.197277 0.185379 0.041775 -0.932219 -0.526993
    22 1.535927 0.010246 0.005009 -0.115188 0.228157 -1.325298
    23 1.100771 0.004527 -0.010679 -0.049656 0.111203 -0.812925
    24 0.018587 -0.093240 -0.167774 3.423244 6.142883 -1.288278
    25 -6.817844 -3.649180 0.733114 -0.988728 -5.397259 -0.067634
    26 0.096944 -8.450418 -0.009365 -0.093441 -0.875479 0.486939
    27 0.447953 -2.798986 -0.200443 -0.805857 -0.098878 0.556583
    28 -0.032909 -1.480204 0.004940 -1.135932 0.000000 0.000002
    29 -0.027022 -1.076920 -0.020210 0.165353 0.000000 0.000000
    30 -0.249534 -2.846964 -0.174213 -0.518785 -0.091543 0.444345
    31 0.043235 -1.683941 0.096012 -1.409884 0.002823 -0.000167
    32 0.031729 -1.160830 0.058838 0.106677 0.000642 0.008372
    33 -0.963866 -2.785145 -0.085350 -0.084261 0.036917 0.292995
    34 0.028479 -1.403067 0.006271 -1.244457 0.000000 0.000000
    35 0.021413 -0.957781 0.020046 -0.446116 0.000000 0.000000
    36 1.164475 -2.543940 -0.170330 -0.843965 -0.017414 0.527819
    37 0.024032 -1.129042 0.017807 -1.014874 0.000000 0.000001
    38 0.014898 -0.883989 -0.019848 0.153136 0.000000 0.000000
    39 -0.500830 -1.428545 0.403292 -0.086708 0.034726 -2.702704
    40 1.522835 0.058681 0.016848 -0.197834 0.038504 0.376121
    41 1.117947 0.048424 -0.005766 0.003976 -0.024892 -0.102878
    42 -0.115961 -0.170294 -0.005135 0.532532 0.058722 1.328568
    43 -1.393470 8.839177 -0.239433 1.580804 -0.005023 -1.566847
  time 20
    0 4.941225 -6.945042 -10.117711 0.038878 -0.074271 -0.013215
    1 7.384263 3.561215 -0.030885 0.750898 -2.386457 -1.389558
    2 -0.071920 -8.498735 -0.104136 0.181568 0.542683 -0.466322
    3 1.301309 -2.858450 0.533806 -0.317190 -0.156087 -3.649922
    4 -0.633172 1.164522 0.000000 0.000000 0.000000 0.542622
    5 -4.694041 4.765071 0.000002 0.000000 0.000000 1.961197
    6 0.471631 -4.176224 -0.013908 0.390400 -1.570796 0.000000
    7 0.798002 0.010359 -0.002600 0.000002 1.570796 0.000000
    8 1.257180 8.762585 -0.153713 -1.570562 0.002683 -1.566807
    9 -0.488518 -2.755602 -0.228260 -0.721249 -0.081949 -0.452612
    10 0.039887 -1.479790 0.029854 -1.744424 0.000000 0.000001
    11 0.028786 -1.075731 -0.023109 -1.070625 0.000000 0.000000
    12 0.125023 -3.051141 -0.574344 -0.799992 -0.047048 -0.393136
    13 -0.049759 -1.680544 0.100479 -1.558614 0.000000 -0.000002
    14 -0.034142 -1.148312 0.084782 -1.112872 0.000000 0.000000
    15 0.957766 -2.746780 -0.090302 0.273204 -0.158969 -0.144550
    16 -0.033420 -1.397129 -0.011257 -0.494944 0.000000 -0.000001
    17 -0.022360 -0.957436 0.018784 -0.311487 0.000000 0.000000
    18 -1.200213 -2.612689 -0.084481 -0.819559 0.107002 -0.434663
    19 -0.024967 -1.123934 0.017597 -1.746587 0.000000 0.000001
    20 -0.020057 -0.890968 0.010090 -0.424577 0.000000 0.000000
    21 0.583510 -1.197277 0.185379 0.041775 -0.932219 -0.526993
    22 1.535927 0.010246 0.005009 -0.115188 0.228157 -1.325298
    23 1.100771 0.004527 -0.010679 -0.043628 0.113516 -0.759847
    24 0.018587 -0.093240 -0.167774 3.423244 6.142883 -1.288278
    25 -6.817844 -3.649180 0.733114 -0.988728 -5.397259 -0.067634
    26 0.096944 -8.450418 -0.009365 -0.097707 -0.869200 0.485889
    27 0.447953 -2.798986 -0.200443 -0.805857 -0.098878 0.556583
    28 -0.032909 -1.480204 0.004940 -1.135932 0.000000 0.000002
    29 -0.027022 -1.076920 -0.020210 0.165353 0.000000 0.000000
    30 -0.249534 -2.846964 -0.174213 -0.518785 -0.091543 0.444345
    31 0.043235 -1.683941 0.096012 -1.409884 0.002823 -0.000167
    32 0.031729 -1.160830 0.058838 0.106677 0.000642 0.008372
    33 -0.963866 -2.785145 -0.085350 -0.084261 0.036917 0.292995
    34 0.028479 -1.403067 0.006271 -1.244457 0.000000 0.000000
    35 0.021413 -0.957781 0.020046 -0.446116 0.000000 0.000000
    36 1.164475 -2.543940 -0.170330 -0.843965 -0.017414 0.527819
    37 0.024032 -1.129042 0.017807 -1.014874 0.000000 0.000001
    38 0.014898 -0.883989 -0.019848 0.153136 0.000000 0.000000
    39 -0.500830 -1.428545 0.403292 -0.067508 0.041243 -2.713505
    40 1.522835 0.058681 0.016848 -0.195737 0.047600 0.421782
    41 1.117947 0.048424 -0.005766 0.004143 -0.024867 -0.109736
    42 -0.115961 -0.170294 -0.005135 0.543257 0.091828 1.315792
    43 -1.393470 8.839177 -0.239433 1.580804 -0.005023 -1.566847
  time 21
    0 4.941225 -6.738004 -10.152869 0.010307 -0.074853 -0.012254
    1 7.384263 3.561215 -0.030885 0.750898 -2.386457 -1.389558
    2 -0.071920 -8.498735 -0.104136 0.181029 0.537769 -0.467374
    3 1.301309 -2.858450 0.533806 -0.317190 -0.156087 -3.649938
    4 -0.633172 1.164522 0.000000 0.000000 0.000000 0.542622
    5 -4.694041 4.765071 0.000002 0.000000 0.000000 1.961197
    6 0.471631 -4.176224 -0.013908 0.390400 -1.570796 0.000000
    7 0.798002 0.010359 -0.002600 0.000002 1.570796 0.000000
    8 1.257180 8.762585 -0.153713 -1.570562 0.002683 -1.566807
    9 -0.488518 -2.755602 -0.228260 -0.721249 -0.081949 -0.452612
    10 0.039887 -1.479790 0.029854 -1.744424 0.000000 0.000001
    11 0.028786 -1.075731 -0.023109 -1.070625 0.000000 0.000000
    12 0.125023 -3.051141 -0.574344 -0.799992 -0.047060 -0.393136
    13 -0.049759 -1.680544 0.100479 -1.558614 0.000000 -0.000002
    14 -0.034142 -1.148312 0.084782 -1.112872 0.000000 0.000000
    15 0.957766 -2.746780 -0.090302 0.273204 -0.158969 -0.144550
    16 -0.033420 -1.397129 -0.011257 -0.499230 0.000000 -0.000001
    17 -0.022360 -0.957436 0.018784 -0.391828 0.000000 0.000000
    18 -1.200213 -2.612689 -0.084481 -0.819559 0.107002 -0.434663
    19 -0.024967 -1.123934 0.017597 -1.746587 0.000000 0.000001
    20 -0.020057 -0.890968 0.010090 -0.424577 0.000000 0.000000
    21 0.583510 -1.197277 0.185379 0.041775 -0.932219 -0.526993
    22 1.535927 0.010246 0.005009 -0.115188 0.228157 -1.325298
    23 1.100771 0.004527 -0.010679 -0.037587 0.115829 -0.706768
    24 0.018587 -0.093240 -0.167774 3.423244 6.142883 -1.288278
    25 -6.817844 -3.649180 0.733114 -0.988728 -5.397259 -0.067634
    26 0.096944 -8.450418 -0.009365 -0.101974 -0.862920 0.484822
    27 0.447953 -2.798986 -0.200443 -0.805857 -0.098878 0.556583
    28 -0.032909 -1.480204 0.004940 -1.135932 0.000000 0.000002
    29 -0.027022 -1.076920 -0.020210 0.165353 0.000000 0.000000
    30 -0.249534 -2.846964 -0.174213 -0.518785 -0.091543 0.444345
    31 0.043235 -1.683941 0.096012 -1.409884 0.002823 -0.000167
    32 0.031729 -1.160830 0.058838 0.106677 0.000642 0.008372
    33 -0.963866 -2.785145 -0.085350 -0.084261 0.036917 0.292995
    34 0.028479 -1.403067 0.006271 -1.244457 0.000000 0.000000
    35 0.021413 -0.957781 0.020046 -0.446116 0.000000 0.000000
    36 1.164475 -2.543940 -0.170330 -0.843965 -0.017414 0.527819
    37 0.024032 -1.129042 0.017807 -1.014874 0.000000 0.000001
    38 0.014898 -0.883989 -0.019848 0.153136 0.000000 0.000000
    39 -0.500830 -1.428545 0.403292 -0.048323 0.045449 -2.725332
    40 1.522835 0.058681 0.016848 -0.193723 0.055884 0.463466
    41 1.117947 0.048424 -0.005766 0.004239 -0.024854 -0.113662
    42 -0.115961 -0.170294 -0.005135 0.553981 0.124948 1.303017
    43 -1.393470 8.839177 -0.239433 1.580804 -0.005023 -1.566847
  time 22
    0 4.941225 -6.593469 -10.184119 -0.011661 -0.075308 -0.011245
    1 7.384263 3.561215 -0.030885 0.750898 -2.386457 -1.389558
    2 -0.071920 -8.498735 -0.104136 0.180442 0.532364 -0.468521
    3 1.301309 -2.858450 0.533806 -0.317190 -0.156087 -3.649922
    4 -0.633172 1.164522 0.000000 0.000000 0.000000 0.542622
    5 -4.694041 4.765071 0.000002 0.000000 0.000000 1.961197
    6 0.471631 -4.176224 -0.013908 0.390400 -1.570796 0.000000
    7 0.798002 0.010359 -0.002600 0.000002 1.570796 0.000000
    8 1.257180 8.762585 -0.153713 -1.570562 0.002683 -1.566807
    9 -0.488518 -2.755602 -0.228260 -0.721249 -0.081949 -0.452612
    10 0.039887 -1.479790 0.029854 -1.744424 0.000000 0.000001
    11 0.028786 -1.075731 -0.023109 -1.070625 0.000000 0.000000
    12 0.125023 -3.051141 -0.574344 -0.799992 -0.047048 -0.393136
    13 -0.049759 -1.680544 0.100479 -1.558614 0.000000 -0.000002
    14 -0.034142 -1.148312 0.084782 -1.112872 0.000000 0.000000
    15 0.957766 -2.746780 -0.090302 0.273204 -0.158969 -0.144550
    16 -0.033420 -1.397129 -0.011257 -0.503921 0.000000 -0.000001
    17 -0.022360 -0.957436 0.018784 -0.479241 0.000000 0.000000
    18 -1.200213 -2.612689 -0.084481 -0.819559 0.107002 -0.434663
    19 -0.024967 -1.123934 0.017597 -1.746587 0.000000 0.000001
    20 -0.020057 -0.890968 0.010090 -0.424577 0.000000 0.000000
    21 0.583510 -1.197277 0.185379 0.041775 -0.932219 -0.526993
    22 1.535927 0.010246 0.005009 -0.115188 0.228157 -1.325298
    23 1.100771 0.004527 -0.010679 -0.032937 0.117614 -0.665927
    24 0.018587 -0.093240 -0.167774 3.423244 6.142883 -1.288278
    25 -6.817844 -3.649180 0.733114 -0.988728 -5.397259 -0.067634
    26 0.096944 -8.450418 -0.009365 -0.105264 -0.858077 0.484017
    27 0.447953 -2.798986 -0.200443 -0.805857 -0.098878 0.556583
    28 -0.032909 -1.480204 0.004940 -1.135932 0.000000 0.000002
    29 -0.027022 -1.076920 -0.020210 0.165353 0.000000 0.000000
    30 -0.249534 -2.846964 -0.174213 -0.518785 -0.091543 0.444345
    31 0.043235 -1.683941 0.096012 -1.409884 0.002823 -0.000167
    32 0.031729 -1.160830 0.058838 0.106677 0.000642 0.008372
    33 -0.963866 -2.785145 -0.085350 -0.084261 0.036917 0.292995
    34 0.028479 -1.403067 0.006271 -1.244457 0.000000 0.000000
    35 0.021413 -0.957781 0.020046 -0.446116 0.000000 0.000000
    36 1.164475 -2.543940 -0.170330 -0.843965 -0.017414 0.527819
    37 0.024032 -1.129042 0.017807 -1.014874 0.000000 0.000001
    38 0.014898 -0.883989 -0.019848 0.153136 0.000000 0.000000
    39 -0.500830 -1.428545 0.403292 -0.029880 0.047730 -2.736254
    40 1.522835 0.058681 0.016848 -0.192201 0.061908 0.493842
    41 1.117947 0.048424 -0.005766 0.004287 -0.024841 -0.115431
    42 -0.115961 -0.170294 -0.005135 0.562233 0.150423 1.293189
    43 -1.393470 8.839177 -0.239433 1.580804 -0.005023 -1.566847
  time 23
    0 4.941225 -6.538780 -10.203651 -0.020458 -0.075490 -0.009371
    1 7.384263 3.561215 -0.030885 0.750898 -2.386457 -1.389558
    2 -0.071920 -8.498735 -0.104136 0.179867 0.526887 -0.469669
    3 1.301309 -2.858450 0.533806 -0.317190 -0.156087 -3.649922
    4 -0.633172 1.164522 0.000000 0.000000 0.000000 0.542622
    5 -4.694041 4.765071 0.000002 0.000000 0.000000 1.961197
    6 0.471631 -4.176224 -0.013908 0.390400 -1.570796 0.000000
    7 0.798002 0.010359 -0.002600 0.000002 1.570796 0.000000
    8 1.257180 8.762585 -0.153713 -1.570562 0.002683 -1.566807
    9 -0.488518 -2.755602 -0.228260 -0.721249 -0.081949 -0.452612
    10 0.039887 -1.479790 0.029854 -1.744424 0.000000 0.000001
    11 0.028786 -1.075731 -0.023109 -1.070625 0.000000 0.000000
    12 0.125023 -3.051141 -0.574344 -0.799992 -0.047048 -0.393136
    13 -0.049759 -1.680544 0.100479 -1.558614 0.000000 -0.000002
    14 -0.034142 -1.148312 0.084782 -1.112872 0.000000 0.000000
    15 0.957766 -2.746780 -0.090302 0.273204 -0.158969 -0.144550
    16 -0.033420 -1.397129 -0.011257 -0.508613 0.000000 -0.000001
    17 -0.022360 -0.957436 0.018784 -0.566655 0.000000 0.000000
    18 -1.200213 -2.612689 -0.084481 -0.819559 0.107002 -0.434663
    19 -0.024967 -1.123934 0.017597 -1.746587 0.000000 0.000001
    20 -0.020057 -0.890968 0.010090 -0.424577 0.000000 0.000000
    21 0.583510 -1.197277 0.185379 0.041775 -0.932219 -0.526993
    22 1.535927 0.010246 0.005009 -0.115188 0.228157 -1.325298
    23 1.100771 0.004527 -0.010679 -0.031080 0.118321 -0.649585
    24 0.018587 -0.093240 -0.167774 3.423244 6.142883 -1.288278
    25 -6.817844 -3.649180 0.733114 -0.988728 -5.397259 -0.067634
    26 0.096944 -8.450418 -0.009365 -0.106574 -0.856143 0.483685
    27 0.447953 -2.798986 -0.200443 -0.805857 -0.098878 0.556583
    28 -0.032909 -1.480204 0.004940 -1.135932 0.000000 0.000002
    29 -0.027022 -1.076920 -0.020210 0.165353 0.000000 0.000000
    30 -0.249534 -2.846964 -0.174213 -0.518785 -0.091543 0.444345
    31 0.043235 -1.683941 0.096012 -1.409884 0.002823 -0.000167
    32 0.031729 -1.160830 0.058838 0.106677 0.000642 0.008372
    33 -0.963866 -2.785145 -0.085350 -0.084261 0.036917 0.292995
    34 0.028479 -1.403067 0.006271 -1.244457 0.000000 0.000000
    35 0.021413 -0.957781 0.020046 -0.446116 0.000000 0.000000
    36 1.164475 -2.543940 -0.170330 -0.843965 -0.017414 0.527819
    37 0.024032 -1.129042 0.017807 -1.014874 0.000000 0.000001
    38 0.014898 -0.883989 -0.019848 0.153136 0.000000 0.000000
    39 -0.500830 -1.428545 0.403292 -0.012862 0.048412 -2.744368
    40 1.522835 0.058681 0.016848 -0.191602 0.064242 0.505579
    41 1.117947 0.048424 -0.005766 0.004299 -0.024829 -0.115852
    42 -0.115961 -0.170294 -0.005135 0.565529 0.160611 1.289258
    43 -1.393470 8.839177 -0.239433 1.580804 -0.005023 -1.566847
  time 24
    0 4.941225 -6.558311 -10.215370 -0.017054 -0.075380 -0.006104
    1 7.384263 3.561215 -0.030885 0.750898 -2.386457 -1.389558
    2 -0.071920 -8.498735 -0.104136 0.179064 0.519133 -0.471275
    3 1.301309 -2.858450 0.533806 -0.317190 -0.156087 -3.649938
    4 -0.633172 1.164522 0.000000 0.000000 0.000000 0.542622
    5 -4.694041 4.765071 0.000002 0.000000 0.000000 1.961197
    6 0.471631 -4.176224 -0.013908 0.390400 -1.570796 0.000000
    7 0.798002 0.010359 -0.002600 0.000002 1.570796 0.000000
    8 1.257180 8.762585 -0.153713 -1.570562 0.002683 -1.566807
    9 -0.488518 -2.755602 -0.228260 -0.721249 -0.081949 -0.452612
    10 0.039887 -1.479790 0.029854 -1.744424 0.000000 0.000001
    11 0.028786 -1.075731 -0.023109 -1.070625 0.000000 0.000000
    12 0.125023 -3.051141 -0.574344 -0.799992 -0.047048 -0.393136
    13 -0.049759 -1.680544 0.100479 -1.558614 0.000000 -0.000002
    14 -0.034142 -1.148312 0.084782 -1.112872 0.000000 0.000000
    15 0.957766 -2.746780 -0.090302 0.273204 -0.158969 -0.144550
    16 -0.033420 -1.397129 -0.011257 -0.512957 0.000000 -0.000001
    17 -0.022360 -0.957436 0.018784 -0.646995 0.000000 0.000000
    18 -1.200213 -2.612689 -0.084481 -0.819559 0.107002 -0.434663
    19 -0.024967 -1.123934 0.017597 -1.746587 0.000000 0.000001
    20 -0.020057 -0.890968 0.010090 -0.424577 0.000000 0.000000
    21 0.583510 -1.197277 0.185379 0.041775 -0.932219 -0.526993
    22 1.535927 0.010246 0.005009 -0.115188 0.228157 -1.325298
    23 1.100771 0.004527 -0.010679 -0.031080 0.118321 -0.649585
    24 0.018587 -0.093240 -0.167774 3.423244 6.142883 -1.288278
    25 -6.817844 -3.649180 0.733114 -0.988728 -5.397190 -0.067634
    26 0.096944 -8.450418 -0.009365 -0.103799 -0.860221 0.484367
    27 0.447953 -2.798986 -0.200443 -0.805857 -0.098878 0.556583
    28 -0.032909 -1.480204 0.004940 -1.135932 0.000000 0.000002
    29 -0.027022 -1.076920 -0.020210 0.165353 0.000000 0.000000
    30 -0.249534 -2.846964 -0.174213 -0.518785 -0.091543 0.444345
    31 0.043235 -1.683941 0.096012 -1.409884 0.002823 -0.000167
    32 0.031729 -1.160830 0.058838 0.106677 0.000642 0.008372
    33 -0.963866 -2.785145 -0.085350 -0.084261 0.036917 0.292995
    34 0.028479 -1.403067 0.006271 -1.244457 0.000000 0.000000
    35 0.021413 -0.957781 0.020046 -0.446116 0.000000 0.000000
    36 1.164475 -2.543940 -0.170330 -0.843965 -0.017414 0.527819
    37 0.024032 -1.129042 0.017807 -1.014874 0.000000 0.000001
    38 0.014898 -0.883989 -0.019848 0.153136 0.000000 0.000000
    39 -0.500830 -1.428545 0.403292 0.004173 0.042828 -2.749080
    40 1.522835 0.058681 0.016848 -0.191602 0.064242 0.505579
    41 1.117947 0.048424 -0.005766 0.004299 -0.024829 -0.115852
    42 -0.115961 -0.170294 -0.005135 0.565529 0.160611 1.289258
    43 -1.393470 8.839177 -0.239433 1.580804 -0.005023 -1.566847
  time 25
    0 4.941225 -6.613001 -10.223183 -0.009588 -0.075162 -0.002309
    1 7.384263 3.561215 -0.030885 0.750898 -2.386457 -1.389558
    2 -0.071920 -8.498735 -0.104136 0.178045 0.509066 -0.473360
    3 1.301309 -2.858450 0.533806 -0.317190 -0.156087 -3.649938
    4 -0.633172 1.164522 0.000000 0.000000 0.000000 0.542622
    5 -4.694041 4.765071 0.000002 0.000000 0.000000 1.961197
    6 0.471631 -4.176224 -0.013908 0.390400 -1.570796 0.000000
    7 0.798002 0.010359 -0.002600 0.000002 1.570796 0.000000
    8 1.257180 8.762585 -0.153713 -1.570562 0.002683 -1.566807
    9 -0.488518 -2.755602 -0.228260 -0.721249 -0.081949 -0.452612
    10 0.039887 -1.479790 0.029854 -1.744424 0.000000 0.000001
    11 0.028786 -1.075731 -0.023109 -1.070625 0.000000 0.000000
    12 0.125023 -3.051141 -0.574344 -0.799992 -0.047048 -0.393136
    13 -0.049759 -1.680544 0.100479 -1.558614 0.000000 -0.000002
    14 -0.034142 -1.148312 0.084782 -1.112872 0.000000 0.000000
    15 0.957766 -2.746780 -0.090302 0.273204 -0.158969 -0.144550
    16 -0.033420 -1.397129 -0.011257 -0.516490 0.000000 -0.000001
    17 -0.022360 -0.957436 0.018784 -0.713148 0.000000 0.000000
    18 -1.200213 -2.612689 -0.084481 -0.819559 0.107002 -0.434663
    19 -0.024967 -1.123934 0.017597 -1.746587 0.000000 0.000001
    20 -0.020057 -0.890968 0.010090 -0.424577 0.000000 0.000000
    21 0.583510 -1.197277 0.185379 0.041775 -0.932219 -0.526993
    22 1.535927 0.010246 0.005009 -0.115188 0.228157 -1.325298
    23 1.100771 0.004527 -0.010679 -0.031080 0.118321 -0.649585
    24 0.018587 -0.093240 -0.167774 3.423244 6.142883 -1.288278
    25 -6.817844 -3.649180 0.733114 -0.988728 -5.397259 -0.067634
    26 0.096944 -8.450418 -0.009365 -0.097707 -0.869200 0.485889
    27 0.447953 -2.798986 -0.200443 -0.805857 -0.098878 0.556583
    28 -0.032909 -1.480204 0.004940 -1.135932 0.000000 0.000002
    29 -0.027022 -1.076920 -0.020210 0.165353 0.000000 0.000000
    30 -0.249534 -2.846964 -0.174213 -0.518785 -0.091543 0.444345
    31 0.043235 -1.683941 0.096012 -1.409884 0.002823 -0.000167
    32 0.031729 -1.160830 0.058838 0.106677 0.000642 0.008372
    33 -0.963866 -2.785145 -0.085350 -0.084261 0.036917 0.292995
    34 0.028479 -1.403067 0.006271 -1.244457 0.000000 0.000000
    35 0.021413 -0.957781 0.020046 -0.446116 0.000000 0.000000
    36 1.164475 -2.543940 -0.170330 -0.843965 -0.017414 0.527819
    37 0.024032 -1.129042 0.017807 -1.014874 0.000000 0.000001
    38 0.014898 -0.883989 -0.019848 0.153136 0.000000 0.000000
    39 -0.500830 -1.428545 0.403292 0.020759 0.030534 -2.751524
    40 1.522835 0.058681 0.016848 -0.191602 0.064242 0.505579
    41 1.117947 0.048424 -0.005766 0.004299 -0.024829 -0.115852
    42 -0.115961 -0.170294 -0.005135 0.565529 0.160611 1.289258
    43 -1.393470 8.839177 -0.239433 1.580804 -0.005023 -1.566847
  time 26
    0 4.945132 -6.675503 -10.223183 -0.002109 -0.074944 0.000814
    1 7.384263 3.561215 -0.030885 0.750898 -2.386457 -1.389558
    2 -0.071920 -8.498735 -0.104136 0.177170 0.500341 -0.475157
    3 1.301309 -2.858450 0.533806 -0.317190 -0.156087 -3.649922
    4 -0.633172 1.164522 0.000000 0.000000 0.000000 0.542622
    5 -4.694041 4.765071 0.000002 0.000000 0.000000 1.961197
    6 0.471631 -4.176224 -0.013908 0.390400 -1.570796 0.000000
    7 0.798002 0.010359 -0.002600 0.000002 1.570796 0.000000
    8 1.257180 8.762585 -0.153713 -1.570562 0.002683 -1.566807
    9 -0.488518 -2.755602 -0.228260 -0.721249 -0.081949 -0.452612
    10 0.039887 -1.479790 0.029854 -1.744424 0.000000 0.000001
    11 0.028786 -1.075731 -0.023109 -1.070625 0.000000 0.000000
    12 0.125023 -3.051141 -0.574344 -0.799992 -0.047048 -0.393136
    13 -0.049759 -1.680544 0.100479 -1.558614 0.000000 -0.000002
    14 -0.034142 -1.148312 0.084782 -1.112839 0.000000 0.000000
    15 0.957766 -2.746780 -0.090302 0.273204 -0.158969 -0.144550
    16 -0.033420 -1.397129 -0.011257 -0.518922 0.000000 -0.000001
    17 -0.022360 -0.957436 0.018784 -0.758041 0.000000 0.000000
    18 -1.200213 -2.612689 -0.084481 -0.819559 0.107002 -0.434663
    19 -0.024967 -1.123934 0.017597 -1.746587 0.000000 0.000001
    20 -0.020057 -0.890968 0.010090 -0.424577 0.000000 0.000000
    21 0.583510 -1.197277 0.185379 0.041775 -0.932219 -0.526993
    22 1.535927 0.010246 0.005009 -0.115188 0.228157 -1.325298
    23 1.100771 0.004527 -0.010679 -0.031080 0.118321 -0.649585
    24 0.018587 -0.093240 -0.167774 3.423244 6.142883 -1.288278
    25 -6.817844 -3.649180 0.733114 -0.988728 -5.397259 -0.067634
    26 0.096944 -8.450418 -0.009365 -0.091616 -0.878179 0.487394
    27 0.447953 -2.798986 -0.200443 -0.805857 -0.098878 0.556583
    28 -0.032909 -1.480204 0.004940 -1.135932 0.000000 0.000002
    29 -0.027022 -1.076920 -0.020210 0.165353 0.000000 0.000000
    30 -0.249534 -2.846964 -0.174213 -0.518785 -0.091543 0.444345
    31 0.043235 -1.683941 0.096012 -1.409884 0.002823 -0.000167
    32 0.031729 -1.160830 0.058838 0.106677 0.000642 0.008372
    33 -0.963866 -2.785145 -0.085350 -0.084261 0.036917 0.292995
    34 0.028479 -1.403067 0.006271 -1.244457 0.000000 0.000000
    35 0.021413 -0.957781 0.020046 -0.446116 0.000000 0.000000
    36 1.164475 -2.543940 -0.170330 -0.843965 -0.017414 0.527819
    37 0.024032 -1.129042 0.017807 -1.014874 0.000000 0.000001
    38 0.014898 -0.883989 -0.019848 0.153136 0.000000 0.000000
    39 -0.500830 -1.428545 0.403292 0.033322 0.018255 -2.752442
    40 1.522835 0.058681 0.016848 -0.191602 0.064242 0.505579
    41 1.117947 0.048424 -0.005766 0.004299 -0.024829 -0.115852
    42 -0.115961 -0.170294 -0.005135 0.565529 0.160611 1.289258
    43 -1.393470 8.839177 -0.239433 1.580804 -0.005023 -1.566847
  time 27
    0 4.945132 -6.722379 -10.223183 0.001270 -0.074853 0.002159
    1 7.384263 3.561215 -0.030885 0.750898 -2.386457 -1.389558
    2 -0.071920 -8.498735 -0.104136 0.176798 0.496626 -0.475922
    3 1.301309 -2.858450 0.533806 -0.317190 -0.156087 -3.649922
    4 -0.633172 1.164522 0.000000 0.000000 0.000000 0.542622
    5 -4.694041 4.765071 0.000002 0.000000 0.000000 1.961197
    6 0.471631 -4.176224 -0.013908 0.390400 -1.570796 0.000000
    7 0.798002 0.010359 -0.002600 0.000002 1.570796 0.000000
    8 1.257180 8.762585 -0.153713 -1.570562 0.002683 -1.566807
    9 -0.488518 -2.755602 -0.228260 -0.721249 -0.081949 -0.452612
    10 0.039887 -1.479790 0.029854 -1.744424 0.000000 0.000001
    11 0.028786 -1.075731 -0.023109 -1.070625 0.000000 0.000000
    12 0.125023 -3.051141 -0.574344 -0.799992 -0.047048 -0.393136
    13 -0.049759 -1.680544 0.100479 -1.558614 0.000000 -0.000002
    14 -0.034142 -1.148312 0.084782 -1.112872 0.000000 0.000000
    15 0.957766 -2.746780 -0.090302 0.273204 -0.158969 -0.144550
    16 -0.033420 -1.397129 -0.011257 -0.519791 0.000000 -0.000001
    17 -0.022360 -0.957436 0.018784 -0.774559 0.000000 0.000000
    18 -1.200213 -2.612689 -0.084481 -0.819559 0.107002 -0.434663
    19 -0.024967 -1.123934 0.017597 -1.746587 0.000000 0.000001
    20 -0.020057 -0.890968 0.010090 -0.424577 0.000000 0.000000
    21 0.583510 -1.197277 0.185379 0.041775 -0.932219 -0.526993
    22 1.535927 0.010246 0.005009 -0.115188 0.228157 -1.325298
    23 1.100771 0.004527 -0.010679 -0.031080 0.118321 -0.649585
    24 0.018587 -0.093240 -0.167774 3.423244 6.142883 -1.288278
    25 -6.817844 -3.649180 0.733114 -0.988728 -5.397190 -0.067634
    26 0.096944 -8.450418 -0.009365 -0.088840 -0.882257 0.488076
    27 0.447953 -2.798986 -0.200443 -0.805857 -0.098878 0.556583
    28 -0.032909 -1.480204 0.004940 -1.135932 0.000000 0.000002
    29 -0.027022 -1.076920 -0.020210 0.165353 0.000000 0.000000
    30 -0.249534 -2.846964 -0.174213 -0.518785 -0.091543 0.444345
    31 0.043235 -1.683941 0.096012 -1.409884 0.002823 -0.000167
    32 0.031729 -1.160830 0.058838 0.106677 0.000642 0.008372
    33 -0.963866 -2.785145 -0.085350 -0.084261 0.036917 0.292995
    34 0.028479 -1.403067 0.006271 -1.244457 0.000000 0.000000
    35 0.021413 -0.957781 0.020046 -0.446116 0.000000 0.000000
    36 1.164475 -2.543940 -0.170330 -0.843965 -0.017414 0.527819
    37 0.024032 -1.129042 0.017807 -1.014874 0.000000 0.000001
    38 0.014898 -0.883989 -0.019848 0.153136 0.000000 0.000000
    39 -0.500830 -1.428545 0.403292 0.038304 0.012671 -2.752590
    40 1.522835 0.058681 0.016848 -0.191602 0.064242 0.505579
    41 1.117947 0.048424 -0.005766 0.004299 -0.024829 -0.115852
    42 -0.115961 -0.170294 -0.005135 0.565529 0.160611 1.289258
    43 -1.393470 8.839177 -0.239433 1.580804 -0.005023 -1.566847
  time 28
    0 4.945132 -6.749724 -10.223183 0.001043 -0.074926 0.001727
    1 7.384263 3.561215 -0.030885 0.750898 -2.386457 -1.389558
    2 -0.071920 -8.498735 -0.104136 0.177098 0.499634 -0.475310
    3 1.301309 -2.858450 0.533806 -0.317190 -0.156087 -3.649938
    4 -0.633172 1.164522 0.000000 0.000000 0.000000 0.542622
    5 -4.694041 4.765071 0.000002 0.000000 0.000000 1.961197
    6 0.471631 -4.176224 -0.013908 0.390400 -1.570796 0.000000
    7 0.798002 0.010359 -0.002600 0.000002 1.570796 0.000000
    8 1.257180 8.762585 -0.153713 -1.570562 0.002683 -1.566807
    9 -0.488518 -2.755602 -0.228260 -0.721249 -0.081949 -0.452612
    10 0.039887 -1.479790 0.029854 -1.744424 0.000000 0.000001
    11 0.028786 -1.075731 -0.023109 -1.070625 0.000000 0.000000
    12 0.125023 -3.051141 -0.574344 -0.799992 -0.047048 -0.393136
    13 -0.049759 -1.680544 0.100479 -1.558614 0.000000 -0.000002
    14 -0.034142 -1.148312 0.084782 -1.112839 0.000000 0.000000
    15 0.957766 -2.746780 -0.090302 0.273204 -0.158969 -0.144550
    16 -0.033420 -1.397129 -0.011257 -0.514868 0.000000 -0.000001
    17 -0.022360 -0.957436 0.018784 -0.774559 0.000000 0.000000
    18 -1.200213 -2.612689 -0.084481 -0.819559 0.107002 -0.434663
    19 -0.024967 -1.123934 0.017597 -1.746587 0.000000 0.000001
    20 -0.020057 -0.890968 0.010090 -0.424577 0.000000 0.000000
    21 0.583510 -1.197277 0.185379 0.041775 -0.932219 -0.526993
    22 1.535927 0.010246 0.005009 -0.115188 0.228157 -1.325298
    23 1.100771 0.004527 -0.010679 -0.031080 0.118321 -0.649585
    24 0.018587 -0.093240 -0.167774 3.423244 6.142883 -1.288278
    25 -6.817844 -3.649180 0.733114 -0.988728 -5.397259 -0.067634
    26 0.096944 -8.450418 -0.009365 -0.088840 -0.882257 0.488076
    27 0.447953 -2.798986 -0.200443 -0.805857 -0.098878 0.556583
    28 -0.032909 -1.480204 0.004940 -1.135932 0.000000 0.000002
    29 -0.027022 -1.076920 -0.020210 0.165353 0.000000 0.000000
    30 -0.249534 -2.846964 -0.174213 -0.518785 -0.091543 0.444345
    31 0.043235 -1.683941 0.096012 -1.409884 0.002823 -0.000167
    32 0.031729 -1.160830 0.058838 0.106677 0.000642 0.008372
    33 -0.963866 -2.785145 -0.085350 -0.084261 0.036917 0.292995
    34 0.028479 -1.403067 0.006271 -1.244457 0.000000 0.000000
    35 0.021413 -0.957781 0.020046 -0.446116 0.000000 0.000000
    36 1.164475 -2.543940 -0.170330 -0.843965 -0.017414 0.527819
    37 0.024032 -1.129042 0.017807 -1.014874 0.000000 0.000001
    38 0.014898 -0.883989 -0.019848 0.153136 0.000000 0.000000
    39 -0.500830 -1.428545 0.403292 0.030336 0.012671 -2.752590
    40 1.522835 0.058681 0.016848 -0.191602 0.064242 0.505579
    41 1.117947 0.048424 -0.005766 0.004299 -0.024829 -0.115852
    42 -0.115961 -0.170294 -0.005135 0.565529 0.160611 1.289258
    43 -1.393470 8.839177 -0.239433 1.580804 -0.005023 -1.566847
  time 29
    0 4.945132 -6.777068 -10.215370 0.000515 -0.075071 0.000862
    1 7.384263 3.561215 -0.030885 0.750898 -2.386457 -1.389558
    2 -0.071920 -8.498735 -0.104136 0.177757 0.506250 -0.473953
    3 1.301309 -2.858450 0.533806 -0.317190 -0.156087 -3.649922
    4 -0.633172 1.164522 0.000000 0.000000 0.000000 0.542622
    5 -4.694041 4.765071 0.000002 0.000000 0.000000 1.961197
    6 0.471631 -4.176224 -0.013908 0.390400 -1.570796 0.000000
    7 0.798002 0.010359 -0.002600 0.000002 1.570796 0.000000
    8 1.257180 8.762585 -0.153713 -1.570562 0.002683 -1.566807
    9 -0.488518 -2.755602 -0.228260 -0.721249 -0.081949 -0.452612
    10 0.039887 -1.479790 0.029854 -1.744424 0.000000 0.000001
    11 0.028786 -1.075731 -0.023109 -1.070625 0.000000 0.000000
    12 0.125023 -3.051141 -0.574344 -0.799992 -0.047048 -0.393136
    13 -0.049759 -1.680544 0.100479 -1.558614 0.000000 -0.000002
    14 -0.034142 -1.148312 0.084782 -1.112872 0.000000 0.000000
    15 0.957766 -2.746780 -0.090302 0.273204 -0.158969 -0.144550
    16 -0.033420 -1.397129 -0.011257 -0.503921 0.000000 -0.000001
    17 -0.022360 -0.957436 0.018784 -0.774559 0.000000 0.000000
    18 -1.200213 -2.612689 -0.084481 -0.819559 0.107002 -0.434663
    19 -0.024967 -1.123934 0.017597 -1.746587 0.000000 0.000001
    20 -0.020057 -0.890968 0.010090 -0.424577 0.000000 0.000000
    21 0.583510 -1.197277 0.185379 0.041775 -0.932219 -0.526993
    22 1.535927 0.010246 0.005009 -0.115188 0.228157 -1.325298
    23 1.100771 0.004527 -0.010679 -0.031080 0.118321 -0.649585
    24 0.018587 -0.093240 -0.167774 3.423244 6.142883 -1.288278
    25 -6.817844 -3.649180 0.733114 -0.988728 -5.397259 -0.067634
    26 0.096944 -8.450418 -0.009365 -0.088840 -0.882257 0.488076
    27 0.447953 -2.798986 -0.200443 -0.805857 -0.098878 0.556583
    28 -0.032909 -1.480204 0.004940 -1.135932 0.000000 0.000002
    29 -0.027022 -1.076920 -0.020210 0.165353 0.000000 0.000000
    30 -0.249534 -2.846964 -0.174213 -0.518785 -0.091543 0.444345
    31 0.043235 -1.683941 0.096012 -1.409884 0.002823 -0.000167
    32 0.031729 -1.160830 0.058838 0.106677 0.000642 0.008372
    33 -0.963866 -2.785145 -0.085350 -0.084261 0.036917 0.292995
    34 0.028479 -1.403067 0.006271 -1.244457 0.000000 0.000000
    35 0.021413 -0.957781 0.020046 -0.446116 0.000000 0.000000
    36 1.164475 -2.543940 -0.170330 -0.843965 -0.017414 0.527819
    37 0.024032 -1.129042 0.017807 -1.014874 0.000000 0.000001
    38 0.014898 -0.883989 -0.019848 0.153136 0.000000 0.000000
    39 -0.500830 -1.428545 0.403292 0.012822 0.012671 -2.752590
    40 1.522835 0.058681 0.016848 -0.191602 0.064242 0.505579
    41 1.117947 0.048424 -0.005766 0.004299 -0.024829 -0.115852
    42 -0.115961 -0.170294 -0.005135 0.565529 0.160611 1.289258
    43 -1.393470 8.839177 -0.239433 1.580804 -0.005023 -1.566847
  time 30
    0 4.945132 -6.792694 -10.211464 0.000000 -0.075235 -0.000003
    1 7.384263 3.561215 -0.030885 0.750898 -2.386457 -1.389558
    2 -0.071920 -8.498735 -0.104136 0.178416 0.512877 -0.472595
    3 1.301309 -2.858450 0.533806 -0.317190 -0.156087 -3.649922
    4 -0.633172 1.164522 0.000000 0.000000 0.000000 0.542622
    5 -4.694041 4.765071 0.000002 0.000000 0.000000 1.961197
    6 0.471631 -4.176224 -0.013908 0.390400 -1.570796 0.000000
    7 0.798002 0.010359 -0.002600 0.000002 1.570796 0.000000
    8 1.257180 8.762585 -0.153713 -1.570562 0.002683 -1.566807
    9 -0.488518 -2.755602 -0.228260 -0.721249 -0.081949 -0.452612
    10 0.039887 -1.479790 0.029854 -1.744424 0.000000 0.000001
    11 0.028786 -1.075731 -0.023109 -1.070625 0.000000 0.000000
    12 0.125023 -3.051141 -0.574344 -0.799992 -0.047048 -0.393136
    13 -0.049759 -1.680544 0.100479 -1.558614 0.000000 -0.000002
    14 -0.034142 -1.148312 0.084782 -1.112872 0.000000 0.000000
    15 0.957766 -2.746780 -0.090302 0.273204 -0.158969 -0.144550
    16 -0.033420 -1.397129 -0.011257 -0.493033 0.000000 -0.000001
    17 -0.022360 -0.957436 0.018784 -0.774559 0.000000 0.000000
    18 -1.200213 -2.612689 -0.084481 -0.819559 0.107002 -0.434663
    19 -0.024967 -1.123934 0.017597 -1.746587 0.000000 0.000001
    20 -0.020057 -0.890968 0.010090 -0.424577 0.000000 0.000000
    21 0.583510 -1.197277 0.185379 0.041775 -0.932219 -0.526993
    22 1.535927 0.010246 0.005009 -0.115188 0.228157 -1.325298
    23 1.100771 0.004527 -0.010679 -0.031080 0.118321 -0.649585
    24 0.018587 -0.093240 -0.167774 3.423244 6.142883 -1.288278
    25 -6.817844 -3.649180 0.733114 -0.988728 -5.397259 -0.067634
    26 0.096944 -8.450418 -0.009365 -0.088840 -0.882257 0.488076
    27 0.447953 -2.798986 -0.200443 -0.805857 -0.098878 0.556583
    28 -0.032909 -1.480204 0.004940 -1.135932 0.000000 0.000002
    29 -0.027022 -1.076920 -0.020210 0.165353 0.000000 0.000000
    30 -0.249534 -2.846964 -0.174213 -0.518785 -0.091543 0.444345
    31 0.043235 -1.683941 0.096012 -1.409884 0.002823 -0.000167
    32 0.031729 -1.160830 0.058838 0.106677 0.000642 0.008372
    33 -0.963866 -2.785145 -0.085350 -0.084261 0.036917 0.292995
    34 0.028479 -1.403067 0.006271 -1.244457 0.000000 0.000000
    35 0.021413 -0.957781 0.020046 -0.446116 0.000000 0.000000
    36 1.164475 -2.543940 -0.170330 -0.843965 -0.017414 0.527819
    37 0.024032 -1.129042 0.017807 -1.014874 0.000000 0.000001
    38 0.014898 -0.883989 -0.019848 0.153136 0.000000 0.000000
    39 -0.500830 -1.428545 0.403292 -0.004692 0.012671 -2.752590
    40 1.522835 0.058681 0.016848 -0.191602 0.064242 0.505579
    41 1.117947 0.048424 -0.005766 0.004299 -0.024829 -0.115852
    42 -0.115961 -0.170294 -0.005135 0.565529 0.160611 1.289258
    43 -1.393470 8.839177 -0.239433 1.580804 -0.005023 -1.566847
end
