version 1
nodes
  0 "Bone01" -1
  1 "Bone_Lefthand" 0
  2 "Bone02" 1
  3 "Bone03" 2
  4 "Bone48" 3
  5 "Bone25" 3
  6 "Bone52" 3
  7 "Bone50" 3
  8 "Bone 04" 1
  9 "Bone13" 8
  10 "Bone14" 9
  11 "Bone15" 10
  12 "Bone17" 8
  13 "Bone18" 12
  14 "Bone19" 13
  15 "Bone21" 8
  16 "Bone22" 15
  17 "Bone23" 16
  18 "Bone05" 8
  19 "Bone06" 18
  20 "Bone07" 19
  21 "Bone09" 8
  22 "Bone10" 21
  23 "Bone11" 22
  24 "Bone04" -1
  25 "Bone_Righthand" 24
  26 "Bone26" 25
  27 "Bone35" 26
  28 "Bone36" 27
  29 "Bone37" 28
  30 "Bone31" 26
  31 "Bone32" 30
  32 "Bone33" 31
  33 "Bone39" 26
  34 "Bone40" 33
  35 "Bone41" 34
  36 "Bone43" 26
  37 "Bone44" 36
  38 "Bone45" 37
  39 "Bone27" 26
  40 "Bone28" 39
  41 "Bone29" 40
end
skeleton
  time 0
    0 10.536327 2.470322 -8.256560 1.551092 -1.106914 -2.508957
    1 0.000000 -8.563281 0.000000 0.191877 -0.079091 -0.385221
    2 -0.687785 -3.268885 0.771382 -0.649191 1.517736 -0.634003
    3 0.000000 1.978415 0.899280 0.000000 0.000000 0.000000
    4 0.000000 -4.488900 2.000896 0.000000 0.000000 0.000000
    5 0.000000 -1.806052 0.681954 0.000000 0.000000 0.000000
    6 -0.000001 2.795271 0.337227 0.000000 0.000000 0.000000
    7 -0.000001 -6.827026 1.101617 -1.534104 0.000000 0.000000
    8 -0.003480 -0.404829 0.000000 0.000000 0.000000 0.000000
    9 -0.519309 -2.501154 -0.278957 -1.025939 -0.112116 -0.189874
    10 -0.010598 -1.208184 0.000000 -1.226964 0.000000 0.000000
    11 0.000000 -0.763065 0.000000 -0.982627 0.000000 0.000000
    12 0.105981 -2.607134 -0.278957 -0.842755 -0.023454 -0.169254
    13 0.000000 -1.250579 0.000000 -1.291539 0.000000 0.000000
    14 0.000000 -0.932635 0.000000 -1.195552 0.000000 0.000000
    15 0.763064 -2.490555 -0.278957 -0.349058 0.000000 0.130900
    16 -0.012322 -1.280917 0.000000 -0.474706 0.000000 0.000000
    17 -0.001697 -0.749371 0.000000 -0.687659 0.000000 0.000000
    18 0.354567 0.016266 0.318133 0.488948 -0.453366 -1.121476
    19 1.887164 0.012878 0.000000 -0.301418 -0.050167 -0.561348
    20 1.001874 -0.000270 -0.000001 0.000000 0.000000 -0.703360
    21 -1.123359 -2.195093 -0.278957 -1.166683 -0.116814 -0.133119
    22 0.010772 -0.963791 0.000000 -0.657988 0.000000 0.000000
    23 -0.010412 -0.631916 -0.000001 -1.359599 0.000000 0.000000
    24 3.246679 1.974909 -16.100395 -4.782915 1.223294 -5.193421
    25 0.089929 -8.543163 0.000000 0.880817 -0.018644 0.571739
    26 0.000000 -0.359713 0.000002 -0.718137 -0.804822 -0.084144
    27 -0.170479 -2.636147 -0.277654 -1.781942 0.000000 0.000000
    28 0.010599 -1.261177 0.000001 -0.493919 0.000000 0.000000
    29 -0.000001 -0.943233 -0.000001 -0.924996 0.000000 0.000000
    30 -0.827563 -2.508973 -0.277656 -1.710405 0.000000 0.000000
    31 0.000001 -1.292971 0.000002 -0.602126 0.000000 0.000000
    32 0.000000 -0.752466 0.000001 -1.078594 0.000000 0.000000
    33 0.444213 -2.561960 -0.277654 -1.701143 -0.045387 -0.024911
    34 0.021022 -1.208186 -0.000001 -0.548020 0.000000 0.000000
    35 0.010597 -0.741867 -0.000002 -0.872658 0.000000 0.000000
    36 1.047445 -2.222821 -0.277654 -1.508123 -0.078971 -0.038609
    37 0.000000 -0.996223 -0.000001 -0.570729 0.000000 0.000000
    38 -0.000001 -0.614690 0.000000 -0.523599 0.000000 0.000000
    39 -0.308254 -0.007814 0.307166 0.334142 -0.676682 -2.416499
    40 1.978377 0.019544 0.000000 -0.091217 0.051488 1.062266
    41 0.982426 0.003186 0.000000 0.000000 0.000000 1.137933
  time 1
    0 10.536327 2.294535 -7.901081 -1.528029 -1.944729 0.627177
    1 0.000000 -8.563281 0.000000 0.215607 -0.075021 -0.380523
    2 -0.687785 -3.268885 0.771382 -0.649191 1.517736 -0.634003
    3 0.000000 1.978415 0.899280 0.000000 0.000000 0.000000
    4 0.000000 -4.488900 2.000896 0.000000 0.000000 0.000000
    5 0.000000 -1.806052 0.681954 0.000000 0.000000 0.000000
    6 -0.000001 2.795271 0.337227 0.000000 0.000000 0.000000
    7 -0.000001 -6.827026 1.101617 -1.539246 0.000000 0.000000
    8 -0.003480 -0.404829 0.000000 0.000000 0.000000 0.000000
    9 -0.519309 -2.501154 -0.278957 -1.025939 -0.112116 -0.189874
    10 -0.010598 -1.208184 0.000000 -1.226964 0.000000 0.000000
    11 0.000000 -0.763065 0.000000 -0.982627 0.000000 0.000000
    12 0.105981 -2.607134 -0.278957 -0.842755 -0.023454 -0.169254
    13 0.000000 -1.250579 0.000000 -1.291539 0.000000 0.000000
    14 0.000000 -0.932635 0.000000 -1.195552 0.000000 0.000000
    15 0.763064 -2.490555 -0.278957 -0.349058 0.000000 0.130900
    16 -0.012322 -1.280917 0.000000 -0.474706 0.000000 0.000000
    17 -0.001697 -0.749371 0.000000 -0.687659 0.000000 0.000000
    18 0.354567 0.016266 0.318133 0.488948 -0.453366 -1.121476
    19 1.887164 0.012878 0.000000 -0.301418 -0.050167 -0.561348
    20 1.001874 -0.000270 -0.000001 0.000000 0.000000 -0.703360
    21 -1.123359 -2.195093 -0.278957 -1.166683 -0.116814 -0.133119
    22 0.010772 -0.963791 0.000000 -0.657988 0.000000 0.000000
    23 -0.010412 -0.631916 -0.000001 -1.359599 0.000000 0.000000
    24 3.160739 0.580335 -16.967609 -4.921618 1.387497 -5.263414
    25 0.089929 -8.543163 0.000000 0.816395 0.082024 0.552077
    26 0.000000 -0.359713 0.000002 -0.666898 -0.759187 -0.099484
    27 -0.170479 -2.636147 -0.277654 -1.490925 0.000000 0.000000
    28 0.010599 -1.261177 0.000001 -0.493919 0.000000 0.000000
    29 -0.000001 -0.943233 -0.000001 -0.924996 0.000000 0.000000
    30 -0.827563 -2.508973 -0.277656 -1.380257 0.000000 0.000000
    31 0.000001 -1.292971 0.000002 -0.602126 0.000000 0.000000
    32 0.000000 -0.752466 0.000001 -1.078594 0.000000 0.000000
    33 0.444213 -2.561960 -0.277654 -1.398421 -0.045387 -0.024911
    34 0.021022 -1.208186 -0.000001 -0.548020 0.000000 0.000000
    35 0.010597 -0.741867 -0.000002 -0.872658 0.000000 0.000000
    36 1.047445 -2.222821 -0.277654 -1.224340 -0.078971 -0.038609
    37 0.000000 -0.996223 -0.000001 -0.570729 0.000000 0.000000
    38 -0.000001 -0.614690 0.000000 -0.523599 0.000000 0.000000
    39 -0.308254 -0.007814 0.307166 0.301029 -0.620570 -2.351128
    40 1.978377 0.019544 0.000000 -0.095124 0.043878 0.980523
    41 0.982426 0.003186 0.000000 0.000000 0.000000 1.005837
  time 2
    0 10.536327 2.130468 -7.592478 -1.435062 -1.858085 0.591928
    1 0.000000 -8.563281 0.000000 0.240139 -0.070900 -0.375513
    2 -0.687785 -3.268885 0.771382 -0.649191 1.517736 -0.634003
    3 0.000000 1.978415 0.899280 0.000000 0.000000 0.000000
    4 0.000000 -4.488900 2.000896 0.000000 0.000000 0.000000
    5 0.000000 -1.806052 0.681954 0.000000 0.000000 0.000000
    6 -0.000001 2.795271 0.337227 0.000000 0.000000 0.000000
    7 -0.000001 -6.827026 1.101617 -1.551810 0.000000 0.000000
    8 -0.003480 -0.404829 0.000000 0.000000 0.000000 0.000000
    9 -0.519309 -2.501154 -0.278957 -1.025939 -0.112116 -0.189874
    10 -0.010598 -1.208184 0.000000 -1.226964 0.000000 0.000000
    11 0.000000 -0.763065 0.000000 -0.982627 0.000000 0.000000
    12 0.105981 -2.607134 -0.278957 -0.842755 -0.023454 -0.169254
    13 0.000000 -1.250579 0.000000 -1.291539 0.000000 0.000000
    14 0.000000 -0.932635 0.000000 -1.195552 0.000000 0.000000
    15 0.763064 -2.490555 -0.278957 -0.349058 0.000000 0.130900
    16 -0.012322 -1.280917 0.000000 -0.474706 0.000000 0.000000
    17 -0.001697 -0.749371 0.000000 -0.687659 0.000000 0.000000
    18 0.354567 0.016266 0.318133 0.488948 -0.453366 -1.121476
    19 1.887164 0.012878 0.000000 -0.301418 -0.050167 -0.561348
    20 1.001874 -0.000270 -0.000001 0.000000 0.000000 -0.703360
    21 -1.123359 -2.195093 -0.278957 -1.166683 -0.116814 -0.133119
    22 0.010772 -0.963791 0.000000 -0.657988 0.000000 0.000000
    23 -0.010412 -0.631916 -0.000001 -1.359599 0.000000 0.000000
    24 2.969327 -0.716580 -17.416841 0.037415 1.530096 -0.235169
    25 0.089929 -8.543163 0.000000 0.745645 0.190860 0.523912
    26 0.000000 -0.359713 0.000002 -0.617018 -0.711391 -0.111529
    27 -0.170479 -2.636147 -0.277654 -1.158773 0.000000 0.000000
    28 0.010599 -1.261177 0.000001 -0.493919 0.000000 0.000000
    29 -0.000001 -0.943233 -0.000001 -0.924996 0.000000 0.000000
    30 -0.827563 -2.508973 -0.277656 -1.003288 0.000000 0.000000
    31 0.000001 -1.292971 0.000002 -0.602126 0.000000 0.000000
    32 0.000000 -0.752466 0.000001 -1.078594 0.000000 0.000000
    33 0.444213 -2.561960 -0.277654 -1.053053 -0.045387 -0.024911
    34 0.021022 -1.208186 -0.000001 -0.548020 0.000000 0.000000
    35 0.010597 -0.741867 -0.000002 -0.872658 0.000000 0.000000
    36 1.047445 -2.222821 -0.277654 -0.900383 -0.078971 -0.038609
    37 0.000000 -0.996223 -0.000001 -0.570729 0.000000 0.000000
    38 -0.000001 -0.614690 0.000000 -0.523599 0.000000 0.000000
    39 -0.308254 -0.007814 0.307166 0.270072 -0.554669 -2.282211
    40 1.978377 0.019544 0.000000 -0.098755 0.034781 0.887313
    41 0.982426 0.003186 0.000000 0.000000 0.000000 0.855078
  time 3
    0 10.536327 1.978119 -7.319032 -1.288727 -1.773337 0.502848
    1 0.000000 -8.563281 0.000000 0.265379 -0.066830 -0.370348
    2 -0.687785 -3.268885 0.771382 -0.649191 1.517736 -0.634003
    3 0.000000 1.978415 0.899280 0.000000 0.000000 0.000000
    4 0.000000 -4.488900 2.000896 0.000000 0.000000 0.000000
    5 0.000000 -1.806052 0.681954 0.000000 0.000000 0.000000
    6 -0.000001 2.795271 0.337227 0.000000 0.000000 0.000000
    7 -0.000001 -6.827026 1.101617 -1.567333 0.000000 0.000000
    8 -0.003480 -0.404829 0.000000 0.000000 0.000000 0.000000
    9 -0.519309 -2.501154 -0.278957 -1.025939 -0.112116 -0.189874
    10 -0.010598 -1.208184 0.000000 -1.226964 0.000000 0.000000
    11 0.000000 -0.763065 0.000000 -0.982627 0.000000 0.000000
    12 0.105981 -2.607134 -0.278957 -0.842755 -0.023454 -0.169254
    13 0.000000 -1.250579 0.000000 -1.291539 0.000000 0.000000
    14 0.000000 -0.932635 0.000000 -1.195552 0.000000 0.000000
    15 0.763064 -2.490555 -0.278957 -0.349058 0.000000 0.130900
    16 -0.012322 -1.280917 0.000000 -0.474706 0.000000 0.000000
    17 -0.001697 -0.749371 0.000000 -0.687659 0.000000 0.000000
    18 0.354567 0.016266 0.318133 0.488948 -0.453366 -1.121476
    19 1.887164 0.012878 0.000000 -0.301418 -0.050167 -0.561348
    20 1.001874 -0.000270 -0.000001 0.000000 0.000000 -0.703360
    21 -1.123359 -2.195093 -0.278957 -1.166683 -0.116814 -0.133119
    22 0.010772 -0.963791 0.000000 -0.657988 0.000000 0.000000
    23 -0.010412 -0.631916 -0.000001 -1.359599 0.000000 0.000000
    24 2.668537 -1.935367 -17.451999 -1.403071 1.388253 -1.606231
    25 0.089929 -8.543163 0.000000 0.668305 0.301123 0.486071
    26 0.000000 -0.359713 0.000002 -0.568408 -0.661900 -0.120193
    27 -0.170479 -2.636147 -0.277654 -0.810218 0.000000 0.000000
    28 0.010599 -1.261177 0.000001 -0.493919 0.000000 0.000000
    29 -0.000001 -0.943233 -0.000001 -0.924996 0.000000 0.000000
    30 -0.827563 -2.508973 -0.277656 -0.607707 0.000000 0.000000
    31 0.000001 -1.292971 0.000002 -0.602126 0.000000 0.000000
    32 0.000000 -0.752466 0.000001 -1.078594 0.000000 0.000000
    33 0.444213 -2.561960 -0.277654 -0.690493 -0.045387 -0.024911
    34 0.021022 -1.208186 -0.000001 -0.548020 0.000000 0.000000
    35 0.010597 -0.741867 -0.000002 -0.872658 0.000000 0.000000
    36 1.047445 -2.222821 -0.277654 -0.560494 -0.078971 -0.038609
    37 0.000000 -0.996223 -0.000001 -0.570729 0.000000 0.000000
    38 -0.000001 -0.614690 0.000000 -0.523599 0.000000 0.000000
    39 -0.308254 -0.007814 0.307166 0.244437 -0.483823 -2.215170
    40 1.978377 0.019544 0.000000 -0.101692 0.024942 0.789534
    41 0.982426 0.003186 0.000000 0.000000 0.000000 0.696889
  time 4
    0 10.536327 1.841397 -7.084650 -0.997124 -1.691375 0.265913
    1 0.000000 -8.563281 0.000000 0.290894 -0.062825 -0.364967
    2 -0.687785 -3.268885 0.771382 -0.649191 1.517736 -0.634003
    3 0.000000 1.978415 0.899280 0.000000 0.000000 0.000000
    4 0.000000 -4.488900 2.000896 0.000000 0.000000 0.000000
    5 0.000000 -1.806052 0.681954 0.000000 0.000000 0.000000
    6 -0.000001 2.795271 0.337227 0.000000 0.000000 0.000000
    7 -0.000001 -6.827026 1.101617 -1.581400 0.000000 0.000000
    8 -0.003480 -0.404829 0.000000 0.000000 0.000000 0.000000
    9 -0.519309 -2.501154 -0.278957 -1.025939 -0.112116 -0.189874
    10 -0.010598 -1.208184 0.000000 -1.226964 0.000000 0.000000
    11 0.000000 -0.763065 0.000000 -0.982627 0.000000 0.000000
    12 0.105981 -2.607134 -0.278957 -0.842755 -0.023454 -0.169254
    13 0.000000 -1.250579 0.000000 -1.291539 0.000000 0.000000
    14 0.000000 -0.932635 0.000000 -1.195552 0.000000 0.000000
    15 0.763064 -2.490555 -0.278957 -0.349058 0.000000 0.130900
    16 -0.012322 -1.280917 0.000000 -0.474706 0.000000 0.000000
    17 -0.001697 -0.749371 0.000000 -0.687659 0.000000 0.000000
    18 0.354567 0.016266 0.318133 0.488948 -0.453366 -1.121476
    19 1.887164 0.012878 0.000000 -0.301418 -0.050167 -0.561348
    20 1.001874 -0.000270 -0.000001 0.000000 0.000000 -0.703360
    21 -1.123359 -2.195093 -0.278957 -1.166683 -0.116814 -0.133119
    22 0.010772 -0.963791 0.000000 -0.657988 0.000000 0.000000
    23 -0.010412 -0.631916 -0.000001 -1.359599 0.000000 0.000000
    24 2.262274 -3.068214 -17.061362 -1.549888 1.212586 -1.682518
    25 0.089929 -8.543163 0.000000 0.584111 0.406196 0.438165
    26 0.000000 -0.359713 0.000002 -0.521224 -0.611132 -0.125718
    27 -0.170479 -2.636147 -0.277654 -0.469865 0.000000 0.000000
    28 0.010599 -1.261177 0.000001 -0.493919 0.000000 0.000000
    29 -0.000001 -0.943233 -0.000001 -0.924996 0.000000 0.000000
    30 -0.827563 -2.508973 -0.277656 -0.221577 0.000000 0.000000
    31 0.000001 -1.292971 0.000002 -0.602126 0.000000 0.000000
    32 0.000000 -0.752466 0.000001 -1.078594 0.000000 0.000000
    33 0.444213 -2.561960 -0.277654 -0.336729 -0.045387 -0.024911
    34 0.021022 -1.208186 -0.000001 -0.548020 0.000000 0.000000
    35 0.010597 -0.741867 -0.000002 -0.872658 0.000000 0.000000
    36 1.047445 -2.222821 -0.277654 -0.228602 -0.078971 -0.038609
    37 0.000000 -0.996223 -0.000001 -0.570729 0.000000 0.000000
    38 -0.000001 -0.614690 0.000000 -0.523599 0.000000 0.000000
    39 -0.308254 -0.007814 0.307166 0.225322 -0.413424 -2.153826
    40 1.978377 0.019544 0.000000 -0.103585 0.015127 0.694055
    41 0.982426 0.003186 0.000000 0.000000 0.000000 0.542397
  time 5
    0 10.536327 1.716393 -6.897144 -0.051416 -1.633955 -0.628872
    1 0.000000 -8.563281 0.000000 0.316553 -0.058950 -0.359478
    2 -0.687785 -3.268885 0.771382 -0.649191 1.517736 -0.634003
    3 0.000000 1.978415 0.899280 0.000000 0.000000 0.000000
    4 0.000000 -4.488900 2.000896 0.000000 0.000000 0.000000
    5 0.000000 -1.806052 0.681954 0.000000 0.000000 0.000000
    6 -0.000001 2.795271 0.337227 0.000000 0.000000 0.000000
    7 -0.000001 -6.827026 1.101617 -1.589550 0.000000 0.000000
    8 -0.003480 -0.404829 0.000000 0.000000 0.000000 0.000000
    9 -0.519309 -2.501154 -0.278957 -1.025939 -0.112116 -0.189874
    10 -0.010598 -1.208184 0.000000 -1.226964 0.000000 0.000000
    11 0.000000 -0.763065 0.000000 -0.982627 0.000000 0.000000
    12 0.105981 -2.607134 -0.278957 -0.842755 -0.023454 -0.169254
    13 0.000000 -1.250579 0.000000 -1.291539 0.000000 0.000000
    14 0.000000 -0.932635 0.000000 -1.195552 0.000000 0.000000
    15 0.763064 -2.490555 -0.278957 -0.349058 0.000000 0.130900
    16 -0.012322 -1.280917 0.000000 -0.474706 0.000000 0.000000
    17 -0.001697 -0.749371 0.000000 -0.687659 0.000000 0.000000
    18 0.354567 0.016266 0.318133 0.488948 -0.453366 -1.121476
    19 1.887164 0.012878 0.000000 -0.301418 -0.050167 -0.561348
    20 1.001874 -0.000270 -0.000001 0.000000 0.000000 -0.703360
    21 -1.123359 -2.195093 -0.278957 -1.166683 -0.116814 -0.133119
    22 0.010772 -0.963791 0.000000 -0.657988 0.000000 0.000000
    23 -0.010412 -0.631916 -0.000001 -1.359599 0.000000 0.000000
    24 1.750540 -4.115121 -16.272275 -4.765350 2.097658 -4.826959
    25 0.089929 -8.543163 0.000000 0.494201 0.499668 0.381131
    26 0.000000 -0.359713 0.000002 -0.475420 -0.559480 -0.128235
    27 -0.170479 -2.636147 -0.277654 -0.162317 0.000000 0.000000
    28 0.010599 -1.261177 0.000001 -0.493919 0.000000 0.000000
    29 -0.000001 -0.943233 -0.000001 -0.924996 0.000000 0.000000
    30 -0.827563 -2.508973 -0.277656 0.127401 0.000000 0.000000
    31 0.000001 -1.292971 0.000002 -0.602126 0.000000 0.000000
    32 0.000000 -0.752466 0.000001 -1.078594 0.000000 0.000000
    33 0.444213 -2.561960 -0.277654 -0.016882 -0.045387 -0.024911
    34 0.021022 -1.208186 -0.000001 -0.548020 0.000000 0.000000
    35 0.010597 -0.741867 -0.000002 -0.872658 0.000000 0.000000
    36 1.047445 -2.222821 -0.277654 0.071238 -0.078971 -0.038609
    37 0.000000 -0.996223 -0.000001 -0.570729 0.000000 0.000000
    38 -0.000001 -0.614690 0.000000 -0.523599 0.000000 0.000000
    39 -0.308254 -0.007814 0.307166 0.212426 -0.349008 -2.101114
    40 1.978377 0.019544 0.000000 -0.104532 0.006102 0.607896
    41 0.982426 0.003186 0.000000 0.000000 0.000000 0.402835
  time 6
    0 10.536327 1.607014 -6.748702 -2.003082 -1.459519 1.368764
    1 0.000000 -8.563281 0.000000 0.342056 -0.055243 -0.353929
    2 -0.687785 -3.268885 0.771382 -0.649191 1.517736 -0.634003
    3 0.000000 1.978415 0.899280 0.000000 0.000000 0.000000
    4 0.000000 -4.488900 2.000896 0.000000 0.000000 0.000000
    5 0.000000 -1.806052 0.681954 0.000000 0.000000 0.000000
    6 -0.000001 2.795271 0.337227 0.000000 0.000000 0.000000
    7 -0.000001 -6.827026 1.101617 -1.587319 0.000000 0.000000
    8 -0.003480 -0.404829 0.000000 0.000000 0.000000 0.000000
    9 -0.519309 -2.501154 -0.278957 -1.025939 -0.112116 -0.189874
    10 -0.010598 -1.208184 0.000000 -1.226964 0.000000 0.000000
    11 0.000000 -0.763065 0.000000 -0.982627 0.000000 0.000000
    12 0.105981 -2.607134 -0.278957 -0.842755 -0.023454 -0.169254
    13 0.000000 -1.250579 0.000000 -1.291539 0.000000 0.000000
    14 0.000000 -0.932635 0.000000 -1.195552 0.000000 0.000000
    15 0.763064 -2.490555 -0.278957 -0.349058 0.000000 0.130900
    16 -0.012322 -1.280917 0.000000 -0.474706 0.000000 0.000000
    17 -0.001697 -0.749371 0.000000 -0.687659 0.000000 0.000000
    18 0.354567 0.016266 0.318133 0.488948 -0.453366 -1.121476
    19 1.887164 0.012878 0.000000 -0.301418 -0.050167 -0.561348
    20 1.001874 -0.000270 -0.000001 0.000000 0.000000 -0.703360
    21 -1.123359 -2.195093 -0.278957 -1.166683 -0.116814 -0.133119
    22 0.010772 -0.963791 0.000000 -0.657988 0.000000 0.000000
    23 -0.010412 -0.631916 -0.000001 -1.359599 0.000000 0.000000
    24 1.027862 -5.158122 -14.795668 -4.821958 2.252666 -4.811225
    25 0.089929 -8.543163 0.000000 0.401627 0.575789 0.318206
    26 0.000000 -0.359713 0.000002 -0.430799 -0.507484 -0.127971
    27 -0.170479 -2.636147 -0.277654 0.087822 0.000000 0.000000
    28 0.010599 -1.261177 0.000001 -0.493919 0.000000 0.000000
    29 -0.000001 -0.943233 -0.000001 -0.924996 0.000000 0.000000
    30 -0.827563 -2.508973 -0.277656 0.411236 0.000000 0.000000
    31 0.000001 -1.292971 0.000002 -0.602126 0.000000 0.000000
    32 0.000000 -0.752466 0.000001 -1.078594 0.000000 0.000000
    33 0.444213 -2.561960 -0.277654 0.243327 -0.045387 -0.024911
    34 0.021022 -1.208186 -0.000001 -0.548020 0.000000 0.000000
    35 0.010597 -0.741867 -0.000002 -0.872658 0.000000 0.000000
    36 1.047445 -2.222821 -0.277654 0.315221 -0.078971 -0.038609
    37 0.000000 -0.996223 -0.000001 -0.570729 0.000000 0.000000
    38 -0.000001 -0.614690 0.000000 -0.523599 0.000000 0.000000
    39 -0.308254 -0.007814 0.307166 0.204792 -0.296194 -2.059725
    40 1.978377 0.019544 0.000000 -0.104700 -0.001244 0.537835
    41 0.982426 0.003186 0.000000 0.000000 0.000000 0.289295
  time 7
    0 10.536327 1.513262 -6.643230 -1.456707 -1.303875 0.844812
    1 0.000000 -8.563281 0.000000 0.367128 -0.051717 -0.348344
    2 -0.687785 -3.268885 0.771382 -0.649191 1.517736 -0.634003
    3 0.000000 1.978415 0.899280 0.000000 0.000000 0.000000
    4 0.000000 -4.488900 2.000896 0.000000 0.000000 0.000000
    5 0.000000 -1.806052 0.681954 0.000000 0.000000 0.000000
    6 -0.000001 2.795271 0.337227 0.000000 0.000000 0.000000
    7 -0.000001 -6.827026 1.101617 -1.570292 0.000000 0.000000
    8 -0.003480 -0.404829 0.000000 0.000000 0.000000 0.000000
    9 -0.519309 -2.501154 -0.278957 -1.025939 -0.112116 -0.189874
    10 -0.010598 -1.208184 0.000000 -1.226964 0.000000 0.000000
    11 0.000000 -0.763065 0.000000 -0.982627 0.000000 0.000000
    12 0.105981 -2.607134 -0.278957 -0.842755 -0.023454 -0.169254
    13 0.000000 -1.250579 0.000000 -1.291539 0.000000 0.000000
    14 0.000000 -0.932635 0.000000 -1.195552 0.000000 0.000000
    15 0.763064 -2.490555 -0.278957 -0.349058 0.000000 0.130900
    16 -0.012322 -1.280917 0.000000 -0.474706 0.000000 0.000000
    17 -0.001697 -0.749371 0.000000 -0.687659 0.000000 0.000000
    18 0.354567 0.016266 0.318133 0.488948 -0.453366 -1.121476
    19 1.887164 0.012878 0.000000 -0.301418 -0.050167 -0.561348
    20 1.001874 -0.000270 -0.000001 0.000000 0.000000 -0.703360
    21 -1.123359 -2.195093 -0.278957 -1.166683 -0.116814 -0.133119
    22 0.010772 -0.963791 0.000000 -0.657988 0.000000 0.000000
    23 -0.010412 -0.631916 -0.000001 -1.359599 0.000000 0.000000
    24 0.195805 -6.115182 -12.908891 -4.871406 2.387455 -4.789006
    25 0.089929 -8.543163 0.000000 0.312808 0.629928 0.255750
    26 0.000000 -0.359713 0.000002 -0.387340 -0.455586 -0.125119
    27 -0.170479 -2.636147 -0.277654 0.255948 0.000000 0.000000
    28 0.010599 -1.261177 0.000001 -0.493919 0.000000 0.000000
    29 -0.000001 -0.943233 -0.000001 -0.924996 0.000000 0.000000
    30 -0.827563 -2.508973 -0.277656 0.602011 0.000000 0.000000
    31 0.000001 -1.292971 0.000002 -0.602126 0.000000 0.000000
    32 0.000000 -0.752466 0.000001 -1.078594 0.000000 0.000000
    33 0.444213 -2.561960 -0.277654 0.418243 -0.045387 -0.024911
    34 0.021022 -1.208186 -0.000001 -0.548020 0.000000 0.000000
    35 0.010597 -0.741867 -0.000002 -0.872658 0.000000 0.000000
    36 1.047445 -2.222821 -0.277654 0.479043 -0.078971 -0.038609
    37 0.000000 -0.996223 -0.000001 -0.570729 0.000000 0.000000
    38 -0.000001 -0.614690 0.000000 -0.523599 0.000000 0.000000
    39 -0.308254 -0.007814 0.307166 0.200993 -0.260577 -2.032485
    40 1.978377 0.019544 0.000000 -0.104532 -0.006218 0.490709
    41 0.982426 0.003186 0.000000 0.000000 0.000000 0.212973
  time 8
    0 10.536327 1.431228 -6.569009 -1.284399 -1.162003 0.670401
    1 0.000000 -8.563281 0.000000 0.391553 -0.048451 -0.342867
    2 -0.687785 -3.268885 0.771382 -0.649191 1.517736 -0.634003
    3 0.000000 1.978415 0.899280 0.000000 0.000000 0.000000
    4 0.000000 -4.488900 2.000896 0.000000 0.000000 0.000000
    5 0.000000 -1.806052 0.681954 0.000000 0.000000 0.000000
    6 -0.000001 2.795271 0.337227 0.000000 0.000000 0.000000
    7 -0.000001 -6.827026 1.101617 -1.534104 0.000000 0.000000
    8 -0.003480 -0.404829 0.000000 0.000000 0.000000 0.000000
    9 -0.519309 -2.501154 -0.278957 -1.025939 -0.112116 -0.189874
    10 -0.010598 -1.208184 0.000000 -1.226964 0.000000 0.000000
    11 0.000000 -0.763065 0.000000 -0.982627 0.000000 0.000000
    12 0.105981 -2.607134 -0.278957 -0.842755 -0.023454 -0.169254
    13 0.000000 -1.250579 0.000000 -1.291539 0.000000 0.000000
    14 0.000000 -0.932635 0.000000 -1.195552 0.000000 0.000000
    15 0.763064 -2.490555 -0.278957 -0.349058 0.000000 0.130900
    16 -0.012322 -1.280917 0.000000 -0.474706 0.000000 0.000000
    17 -0.001697 -0.749371 0.000000 -0.687659 0.000000 0.000000
    18 0.354567 0.016266 0.318133 0.488948 -0.453366 -1.121476
    19 1.887164 0.012878 0.000000 -0.301418 -0.050167 -0.561348
    20 1.001874 -0.000270 -0.000001 0.000000 0.000000 -0.703360
    21 -1.123359 -2.195093 -0.278957 -1.166683 -0.116814 -0.133119
    22 0.010772 -0.963791 0.000000 -0.657988 0.000000 0.000000
    23 -0.010412 -0.631916 -0.000001 -1.359599 0.000000 0.000000
    24 -0.429214 -6.732388 -11.365875 -4.917036 2.496357 -4.765262
    25 0.089929 -8.543163 0.000000 0.236994 0.658962 0.202968
    26 0.000000 -0.359713 0.000002 -0.344999 -0.404130 -0.119966
    27 -0.170479 -2.636147 -0.277654 0.317458 0.000000 0.000000
    28 0.010599 -1.261177 0.000001 -0.493919 0.000000 0.000000
    29 -0.000001 -0.943233 -0.000001 -0.924996 0.000000 0.000000
    30 -0.827563 -2.508973 -0.277656 0.671879 0.000000 0.000000
    31 0.000001 -1.292971 0.000002 -0.602126 0.000000 0.000000
    32 0.000000 -0.752466 0.000001 -1.078594 0.000000 0.000000
    33 0.444213 -2.561960 -0.277654 0.482279 -0.045387 -0.024911
    34 0.021022 -1.208186 -0.000001 -0.548020 0.000000 0.000000
    35 0.010597 -0.741867 -0.000002 -0.872658 0.000000 0.000000
    36 1.047445 -2.222821 -0.277654 0.539148 -0.078971 -0.038609
    37 0.000000 -0.996223 -0.000001 -0.570729 0.000000 0.000000
    38 -0.000001 -0.614690 0.000000 -0.523599 0.000000 0.000000
    39 -0.308254 -0.007814 0.307166 0.199891 -0.247531 -2.022604
    40 1.978377 0.019544 0.000000 -0.104376 -0.008004 0.473416
    41 0.982426 0.003186 0.000000 0.000000 0.000000 0.185068
  time 9
    0 10.536327 1.380445 -6.569009 -1.218044 -1.120291 0.596553
    1 0.000000 -8.563281 0.000000 0.415007 -0.045431 -0.337582
    2 -0.687785 -3.268885 0.771382 -0.649191 1.517736 -0.634003
    3 0.000000 1.978415 0.899280 0.000000 0.000000 0.000000
    4 0.000000 -4.488900 2.000896 0.000000 0.000000 0.000000
    5 0.000000 -1.806052 0.681954 0.000000 0.000000 0.000000
    6 -0.000001 2.795271 0.337227 0.000000 0.000000 0.000000
    7 -0.000001 -6.827026 1.101617 -1.445478 0.000000 0.000000
    8 -0.003480 -0.404829 0.000000 0.000000 0.000000 0.000000
    9 -0.519309 -2.501154 -0.278957 -1.025939 -0.112116 -0.189874
    10 -0.010598 -1.208184 0.000000 -1.226964 0.000000 0.000000
    11 0.000000 -0.763065 0.000000 -0.982627 0.000000 0.000000
    12 0.105981 -2.607134 -0.278957 -0.842755 -0.023454 -0.169254
    13 0.000000 -1.250579 0.000000 -1.291539 0.000000 0.000000
    14 0.000000 -0.932635 0.000000 -1.195552 0.000000 0.000000
    15 0.763064 -2.490555 -0.278957 -0.349058 0.000000 0.130900
    16 -0.012322 -1.280917 0.000000 -0.474706 0.000000 0.000000
    17 -0.001697 -0.749371 0.000000 -0.687659 0.000000 0.000000
    18 0.354567 0.016266 0.318133 0.488948 -0.453366 -1.121476
    19 1.887164 0.012878 0.000000 -0.301418 -0.050167 -0.561348
    20 1.001874 -0.000270 -0.000001 0.000000 0.000000 -0.703360
    21 -1.123359 -2.195093 -0.278957 -1.166683 -0.116814 -0.133119
    22 0.010772 -0.963791 0.000000 -0.657988 0.000000 0.000000
    23 -0.010412 -0.631916 -0.000001 -1.359599 0.000000 0.000000
    24 -0.659690 -6.755827 -10.545538 -4.961329 2.534589 -4.750863
    25 0.089929 -8.543163 0.000000 0.229749 0.620643 0.215685
    26 0.000000 -0.359713 0.000002 -0.303819 -0.353583 -0.112643
    27 -0.170479 -2.636147 -0.277654 0.267225 0.000000 0.000000
    28 0.010599 -1.261177 0.000001 -0.493919 0.000000 0.000000
    29 -0.000001 -0.943233 -0.000001 -0.924996 0.000000 0.000000
    30 -0.827563 -2.508973 -0.277656 0.614807 0.000000 0.000000
    31 0.000001 -1.292971 0.000002 -0.602126 0.000000 0.000000
    32 0.000000 -0.752466 0.000001 -1.078594 0.000000 0.000000
    33 0.444213 -2.561960 -0.277654 0.429971 -0.045387 -0.024911
    34 0.021022 -1.208186 -0.000001 -0.548020 0.000000 0.000000
    35 0.010597 -0.741867 -0.000002 -0.872658 0.000000 0.000000
    36 1.047445 -2.222821 -0.277654 0.490164 -0.078971 -0.038609
    37 0.000000 -0.996223 -0.000001 -0.570729 0.000000 0.000000
    38 -0.000001 -0.614690 0.000000 -0.523599 0.000000 0.000000
    39 -0.308254 -0.007814 0.307166 0.200765 -0.258196 -2.030682
    40 1.978377 0.019544 0.000000 -0.104508 -0.006529 0.487490
    41 0.982426 0.003186 0.000000 0.000000 0.000000 0.207863
  time 10
    0 10.536327 1.372632 -6.654949 -1.161200 -1.082195 0.531239
    1 0.000000 -8.563281 0.000000 0.437226 -0.042683 -0.332453
    2 -0.687785 -3.268885 0.771382 -0.649191 1.517736 -0.634003
    3 0.000000 1.978415 0.899280 0.000000 0.000000 0.000000
    4 0.000000 -4.488900 2.000896 0.000000 0.000000 0.000000
    5 0.000000 -1.806052 0.681954 0.000000 0.000000 0.000000
    6 -0.000001 2.795271 0.337227 0.000000 0.000000 0.000000
    7 -0.000001 -6.827026 1.101617 -1.297719 0.000000 0.000000
    8 -0.003480 -0.404829 0.000000 0.000000 0.000000 0.000000
    9 -0.519309 -2.501154 -0.278957 -1.025939 -0.112116 -0.189874
    10 -0.010598 -1.208184 0.000000 -1.226964 0.000000 0.000000
    11 0.000000 -0.763065 0.000000 -0.982627 0.000000 0.000000
    12 0.105981 -2.607134 -0.278957 -0.842755 -0.023454 -0.169254
    13 0.000000 -1.250579 0.000000 -1.291539 0.000000 0.000000
    14 0.000000 -0.932635 0.000000 -1.195552 0.000000 0.000000
    15 0.763064 -2.490555 -0.278957 -0.349058 0.000000 0.130900
    16 -0.012322 -1.280917 0.000000 -0.474706 0.000000 0.000000
    17 -0.001697 -0.749371 0.000000 -0.687659 0.000000 0.000000
    18 0.354567 0.016266 0.318133 0.488948 -0.453366 -1.121476
    19 1.887164 0.012878 0.000000 -0.301418 -0.050167 -0.561348
    20 1.001874 -0.000270 -0.000001 0.000000 0.000000 -0.703360
    21 -1.123359 -2.195093 -0.278957 -1.166683 -0.116814 -0.133119
    22 0.010772 -0.963791 0.000000 -0.657988 0.000000 0.000000
    23 -0.010412 -0.631916 -0.000001 -1.359599 0.000000 0.000000
    24 -0.632345 -6.330032 -10.143182 -5.003045 2.494593 -4.751530
    25 0.089929 -8.543163 0.000000 0.285136 0.510979 0.286373
    26 0.000000 -0.359713 0.000002 -0.263757 -0.304387 -0.103547
    27 -0.170479 -2.636147 -0.277654 0.129661 0.000000 0.000000
    28 0.010599 -1.261177 0.000001 -0.493919 0.000000 0.000000
    29 -0.000001 -0.943233 -0.000001 -0.924996 0.000000 0.000000
    30 -0.827563 -2.508973 -0.277656 0.458712 0.000000 0.000000
    31 0.000001 -1.292971 0.000002 -0.602126 0.000000 0.000000
    32 0.000000 -0.752466 0.000001 -1.078594 0.000000 0.000000
    33 0.444213 -2.561960 -0.277654 0.286906 -0.045387 -0.024911
    34 0.021022 -1.208186 -0.000001 -0.548020 0.000000 0.000000
    35 0.010597 -0.741867 -0.000002 -0.872658 0.000000 0.000000
    36 1.047445 -2.222821 -0.277654 0.355958 -0.078971 -0.038609
    37 0.000000 -0.996223 -0.000001 -0.570729 0.000000 0.000000
    38 -0.000001 -0.614690 0.000000 -0.523599 0.000000 0.000000
    39 -0.308254 -0.007814 0.307166 0.203762 -0.287361 -2.052909
    40 1.978377 0.019544 0.000000 -0.104676 -0.002503 0.526061
    41 0.982426 0.003186 0.000000 0.000000 0.000000 0.270305
  time 11
    0 10.536327 1.399977 -6.803391 -1.110884 -1.047201 0.471586
    1 0.000000 -8.563281 0.000000 0.457971 -0.040221 -0.327623
    2 -0.687785 -3.268885 0.771382 -0.649191 1.517736 -0.634003
    3 0.000000 1.978415 0.899280 0.000000 0.000000 0.000000
    4 0.000000 -4.488900 2.000896 0.000000 0.000000 0.000000
    5 0.000000 -1.806052 0.681954 0.000000 0.000000 0.000000
    6 -0.000001 2.795271 0.337227 0.000000 0.000000 0.000000
    7 -0.000001 -6.827026 1.101617 -1.126336 0.000000 0.000000
    8 -0.003480 -0.404829 0.000000 0.000000 0.000000 0.000000
    9 -0.519309 -2.501154 -0.278957 -1.025939 -0.112116 -0.189874
    10 -0.010598 -1.208184 0.000000 -1.226964 0.000000 0.000000
    11 0.000000 -0.763065 0.000000 -0.982627 0.000000 0.000000
    12 0.105981 -2.607134 -0.278957 -0.842755 -0.023454 -0.169254
    13 0.000000 -1.250579 0.000000 -1.291539 0.000000 0.000000
    14 0.000000 -0.932635 0.000000 -1.195552 0.000000 0.000000
    15 0.763064 -2.490555 -0.278957 -0.349058 0.000000 0.130900
    16 -0.012322 -1.280917 0.000000 -0.474706 0.000000 0.000000
    17 -0.001697 -0.749371 0.000000 -0.687659 0.000000 0.000000
    18 0.354567 0.016266 0.318133 0.488948 -0.453366 -1.121476
    19 1.887164 0.012878 0.000000 -0.301418 -0.050167 -0.561348
    20 1.001874 -0.000270 -0.000001 0.000000 0.000000 -0.703360
    21 -1.123359 -2.195093 -0.278957 -1.166683 -0.116814 -0.133119
    22 0.010772 -0.963791 0.000000 -0.657988 0.000000 0.000000
    23 -0.010412 -0.631916 -0.000001 -1.359599 0.000000 0.000000
    24 -0.499529 -5.779234 -9.951770 -5.037792 2.425624 -4.760494
    25 0.089929 -8.543163 0.000000 0.332798 0.386695 0.341301
    26 0.000000 -0.359713 0.000002 -0.224900 -0.256910 -0.092845
    27 -0.170479 -2.636147 -0.277654 -0.075947 0.000000 0.000000
    28 0.010599 -1.261177 0.000001 -0.493919 0.000000 0.000000
    29 -0.000001 -0.943233 -0.000001 -0.924996 0.000000 0.000000
    30 -0.827563 -2.508973 -0.277656 0.225478 0.000000 0.000000
    31 0.000001 -1.292971 0.000002 -0.602126 0.000000 0.000000
    32 0.000000 -0.752466 0.000001 -1.078594 0.000000 0.000000
    33 0.444213 -2.561960 -0.277654 0.073075 -0.045387 -0.024911
    34 0.021022 -1.208186 -0.000001 -0.548020 0.000000 0.000000
    35 0.010597 -0.741867 -0.000002 -0.872658 0.000000 0.000000
    36 1.047445 -2.222821 -0.277654 0.155523 -0.078971 -0.038609
    37 0.000000 -0.996223 -0.000001 -0.570729 0.000000 0.000000
    38 -0.000001 -0.614690 0.000000 -0.523599 0.000000 0.000000
    39 -0.308254 -0.007814 0.307166 0.209502 -0.330813 -2.086688
    40 1.978377 0.019544 0.000000 -0.104640 0.003574 0.583674
    41 0.982426 0.003186 0.000000 0.000000 0.000000 0.363624
  time 12
    0 10.536327 1.446853 -7.006522 -1.065820 -1.014776 0.416320
    1 0.000000 -8.563281 0.000000 0.477039 -0.038056 -0.323140
    2 -0.687785 -3.268885 0.771382 -0.649191 1.517736 -0.634003
    3 0.000000 1.978415 0.899280 0.000000 0.000000 0.000000
    4 0.000000 -4.488900 2.000896 0.000000 0.000000 0.000000
    5 0.000000 -1.806052 0.681954 0.000000 0.000000 0.000000
    6 -0.000001 2.795271 0.337227 0.000000 0.000000 0.000000
    7 -0.000001 -6.827026 1.101617 -0.966789 0.000000 0.000000
    8 -0.003480 -0.404829 0.000000 0.000000 0.000000 0.000000
    9 -0.519309 -2.501154 -0.278957 -1.025939 -0.112116 -0.189874
    10 -0.010598 -1.208184 0.000000 -1.226964 0.000000 0.000000
    11 0.000000 -0.763065 0.000000 -0.982627 0.000000 0.000000
    12 0.105981 -2.607134 -0.278957 -0.842755 -0.023454 -0.169254
    13 0.000000 -1.250579 0.000000 -1.291539 0.000000 0.000000
    14 0.000000 -0.932635 0.000000 -1.195552 0.000000 0.000000
    15 0.763064 -2.490555 -0.278957 -0.349058 0.000000 0.130900
    16 -0.012322 -1.280917 0.000000 -0.474706 0.000000 0.000000
    17 -0.001697 -0.749371 0.000000 -0.687659 0.000000 0.000000
    18 0.354567 0.016266 0.318133 0.488948 -0.453366 -1.121476
    19 1.887164 0.012878 0.000000 -0.301418 -0.050167 -0.561348
    20 1.001874 -0.000270 -0.000001 0.000000 0.000000 -0.703360
    21 -1.123359 -2.195093 -0.278957 -1.166683 -0.116814 -0.133119
    22 0.010772 -0.963791 0.000000 -0.657988 0.000000 0.000000
    23 -0.010412 -0.631916 -0.000001 -1.359599 0.000000 0.000000
    24 -0.417495 -5.423755 -9.752545 -5.057075 2.376684 -4.763927
    25 0.089929 -8.543163 0.000000 0.332099 0.313200 0.335371
    26 0.000000 -0.359713 0.000002 -0.187271 -0.211472 -0.080800
    27 -0.170479 -2.636147 -0.277654 -0.329931 0.000000 0.000000
    28 0.010599 -1.261177 0.000001 -0.493919 0.000000 0.000000
    29 -0.000001 -0.943233 -0.000001 -0.924996 0.000000 0.000000
    30 -0.827563 -2.508973 -0.277656 -0.062792 0.000000 0.000000
    31 0.000001 -1.292971 0.000002 -0.602126 0.000000 0.000000
    32 0.000000 -0.752466 0.000001 -1.078594 0.000000 0.000000
    33 0.444213 -2.561960 -0.277654 -0.191132 -0.045387 -0.024911
    34 0.021022 -1.208186 -0.000001 -0.548020 0.000000 0.000000
    35 0.010597 -0.741867 -0.000002 -0.872658 0.000000 0.000000
    36 1.047445 -2.222821 -0.277654 -0.092209 -0.078971 -0.038609
    37 0.000000 -0.996223 -0.000001 -0.570729 0.000000 0.000000
    38 -0.000001 -0.614690 0.000000 -0.523599 0.000000 0.000000
    39 -0.308254 -0.007814 0.307166 0.218922 -0.384198 -2.129568
    40 1.978377 0.019544 0.000000 -0.104100 0.011016 0.654869
    41 0.982426 0.003186 0.000000 0.000000 0.000000 0.478904
  time 13
    0 10.536327 1.505449 -7.236998 -1.025298 -0.984426 0.365121
    1 0.000000 -8.563281 0.000000 0.494105 -0.036190 -0.319126
    2 -0.687785 -3.268885 0.771382 -0.649191 1.517736 -0.634003
    3 0.000000 1.978415 0.899280 0.000000 0.000000 0.000000
    4 0.000000 -4.488900 2.000896 0.000000 0.000000 0.000000
    5 0.000000 -1.806052 0.681954 0.000000 0.000000 0.000000
    6 -0.000001 2.795271 0.337227 0.000000 0.000000 0.000000
    7 -0.000001 -6.827026 1.101617 -0.977461 0.000000 0.000000
    8 -0.003480 -0.404829 0.000000 0.000000 0.000000 0.000000
    9 -0.519309 -2.501154 -0.278957 -1.025939 -0.112116 -0.189874
    10 -0.010598 -1.208184 0.000000 -1.226964 0.000000 0.000000
    11 0.000000 -0.763065 0.000000 -0.982627 0.000000 0.000000
    12 0.105981 -2.607134 -0.278957 -0.842755 -0.023454 -0.169254
    13 0.000000 -1.250579 0.000000 -1.291539 0.000000 0.000000
    14 0.000000 -0.932635 0.000000 -1.195552 0.000000 0.000000
    15 0.763064 -2.490555 -0.278957 -0.349058 0.000000 0.130900
    16 -0.012322 -1.280917 0.000000 -0.474706 0.000000 0.000000
    17 -0.001697 -0.749371 0.000000 -0.687659 0.000000 0.000000
    18 0.354567 0.016266 0.318133 0.488948 -0.453366 -1.121476
    19 1.887164 0.012878 0.000000 -0.301418 -0.050167 -0.561348
    20 1.001874 -0.000270 -0.000001 0.000000 0.000000 -0.703360
    21 -1.123359 -2.195093 -0.278957 -1.166683 -0.116814 -0.133119
    22 0.010772 -0.963791 0.000000 -0.657988 0.000000 0.000000
    23 -0.010412 -0.631916 -0.000001 -1.359599 0.000000 0.000000
    24 -0.409682 -5.392504 -9.549414 -5.054593 2.357851 -4.754868
    25 0.089929 -8.543163 0.000000 0.275359 0.301206 0.257778
    26 0.000000 -0.359713 0.000002 -0.151088 -0.168490 -0.067857
    27 -0.170479 -2.636147 -0.277654 -0.613003 0.000000 0.000000
    28 0.010599 -1.261177 0.000001 -0.493919 0.000000 0.000000
    29 -0.000001 -0.943233 -0.000001 -0.924996 0.000000 0.000000
    30 -0.827563 -2.508973 -0.277656 -0.384070 0.000000 0.000000
    31 0.000001 -1.292971 0.000002 -0.602126 0.000000 0.000000
    32 0.000000 -0.752466 0.000001 -1.078594 0.000000 0.000000
    33 0.444213 -2.561960 -0.277654 -0.485391 -0.045387 -0.024911
    34 0.021022 -1.208186 -0.000001 -0.548020 0.000000 0.000000
    35 0.010597 -0.741867 -0.000002 -0.872658 0.000000 0.000000
    36 1.047445 -2.222821 -0.277654 -0.368244 -0.078971 -0.038609
    37 0.000000 -0.996223 -0.000001 -0.570729 0.000000 0.000000
    38 -0.000001 -0.614690 0.000000 -0.523599 0.000000 0.000000
    39 -0.308254 -0.007814 0.307166 0.232668 -0.443159 -2.179191
    40 1.978377 0.019544 0.000000 -0.102938 0.019261 0.734252
    41 0.982426 0.003186 0.000000 0.000000 0.000000 0.607376
  time 14
    0 10.536327 1.560138 -7.490912 -0.988821 -0.955617 0.317671
    1 0.000000 -8.563281 0.000000 0.505382 -0.035296 -0.316897
    2 -0.687785 -3.268885 0.771382 -0.649191 1.517736 -0.634003
    3 0.000000 1.978415 0.899280 0.000000 0.000000 0.000000
    4 0.000000 -4.488900 2.000896 0.000000 0.000000 0.000000
    5 0.000000 -1.806052 0.681954 0.000000 0.000000 0.000000
    6 -0.000001 2.795271 0.337227 0.000000 0.000000 0.000000
    7 -0.000001 -6.827026 1.101617 -1.002637 0.000000 0.000000
    8 -0.003480 -0.404829 0.000000 0.000000 0.000000 0.000000
    9 -0.519309 -2.501154 -0.278957 -1.025939 -0.112116 -0.189874
    10 -0.010598 -1.208184 0.000000 -1.226964 0.000000 0.000000
    11 0.000000 -0.763065 0.000000 -0.982627 0.000000 0.000000
    12 0.105981 -2.607134 -0.278957 -0.842755 -0.023454 -0.169254
    13 0.000000 -1.250579 0.000000 -1.291539 0.000000 0.000000
    14 0.000000 -0.932635 0.000000 -1.195552 0.000000 0.000000
    15 0.763064 -2.490555 -0.278957 -0.349058 0.000000 0.130900
    16 -0.012322 -1.280917 0.000000 -0.474706 0.000000 0.000000
    17 -0.001697 -0.749371 0.000000 -0.687659 0.000000 0.000000
    18 0.354567 0.016266 0.318133 0.488948 -0.453366 -1.121476
    19 1.887164 0.012878 0.000000 -0.301418 -0.050167 -0.561348
    20 1.001874 -0.000270 -0.000001 0.000000 0.000000 -0.703360
    21 -1.123359 -2.195093 -0.278957 -1.166683 -0.116814 -0.133119
    22 0.010772 -0.963791 0.000000 -0.657988 0.000000 0.000000
    23 -0.010412 -0.631916 -0.000001 -1.359599 0.000000 0.000000
    24 -0.397963 -5.540946 -9.486912 -5.037983 2.344624 -4.740373
    25 0.089929 -8.543163 0.000000 0.187674 0.305156 0.138132
    26 0.000000 -0.359713 0.000002 -0.116526 -0.128234 -0.054158
    27 -0.170479 -2.636147 -0.277654 -0.905622 0.000000 0.000000
    28 0.010599 -1.261177 0.000001 -0.493919 0.000000 0.000000
    29 -0.000001 -0.943233 -0.000001 -0.924996 0.000000 0.000000
    30 -0.827563 -2.508973 -0.277656 -0.715963 0.000000 0.000000
    31 0.000001 -1.292971 0.000002 -0.602126 0.000000 0.000000
    32 0.000000 -0.752466 0.000001 -1.078594 0.000000 0.000000
    33 0.444213 -2.561960 -0.277654 -0.789779 -0.045387 -0.024911
    34 0.021022 -1.208186 -0.000001 -0.548020 0.000000 0.000000
    35 0.010597 -0.741867 -0.000002 -0.872658 0.000000 0.000000
    36 1.047445 -2.222821 -0.277654 -0.653526 -0.078971 -0.038609
    37 0.000000 -0.996223 -0.000001 -0.570729 0.000000 0.000000
    38 -0.000001 -0.614690 0.000000 -0.523599 0.000000 0.000000
    39 -0.308254 -0.007814 0.307166 0.250801 -0.503381 -2.233057
    40 1.978377 0.019544 0.000000 -0.100972 0.027687 0.816301
    41 0.982426 0.003186 0.000000 0.000000 0.000000 0.740196
  time 15
    0 10.536327 1.603108 -7.756545 -0.956530 -0.927875 0.273888
    1 0.000000 -8.563281 0.000000 0.509002 -0.035594 -0.317040
    2 -0.687785 -3.268885 0.771382 -0.649191 1.517736 -0.634003
    3 0.000000 1.978415 0.899280 0.000000 0.000000 0.000000
    4 0.000000 -4.488900 2.000896 0.000000 0.000000 0.000000
    5 0.000000 -1.806052 0.681954 0.000000 0.000000 0.000000
    6 -0.000001 2.795271 0.337227 0.000000 0.000000 0.000000
    7 -0.000001 -6.827026 1.101617 -1.031306 0.000000 0.000000
    8 -0.003480 -0.404829 0.000000 0.000000 0.000000 0.000000
    9 -0.519309 -2.501154 -0.278957 -1.025939 -0.112116 -0.189874
    10 -0.010598 -1.208184 0.000000 -1.226964 0.000000 0.000000
    11 0.000000 -0.763065 0.000000 -0.982627 0.000000 0.000000
    12 0.105981 -2.607134 -0.278957 -0.842755 -0.023454 -0.169254
    13 0.000000 -1.250579 0.000000 -1.291539 0.000000 0.000000
    14 0.000000 -0.932635 0.000000 -1.195552 0.000000 0.000000
    15 0.763064 -2.490555 -0.278957 -0.349058 0.000000 0.130900
    16 -0.012322 -1.280917 0.000000 -0.474706 0.000000 0.000000
    17 -0.001697 -0.749371 0.000000 -0.687659 0.000000 0.000000
    18 0.354567 0.016266 0.318133 0.488948 -0.453366 -1.121476
    19 1.887164 0.012878 0.000000 -0.301418 -0.050167 -0.561348
    20 1.001874 -0.000270 -0.000001 0.000000 0.000000 -0.703360
    21 -1.123359 -2.195093 -0.278957 -1.166683 -0.116814 -0.133119
    22 0.010772 -0.963791 0.000000 -0.657988 0.000000 0.000000
    23 -0.010412 -0.631916 -0.000001 -1.359611 0.000000 0.000000
    24 -0.386244 -5.779234 -9.502537 -5.013832 2.333287 -4.723400
    25 0.089929 -8.543163 0.000000 0.086328 0.308878 -0.000123
    26 0.000000 -0.359713 0.000002 -0.083894 -0.090999 -0.040160
    27 -0.170479 -2.636147 -0.277654 -1.188310 0.000000 0.000000
    28 0.010599 -1.261177 0.000001 -0.493919 0.000000 0.000000
    29 -0.000001 -0.943233 -0.000001 -0.924996 0.000000 0.000000
    30 -0.827563 -2.508973 -0.277656 -1.036732 0.000000 0.000000
    31 0.000001 -1.292971 0.000002 -0.602126 0.000000 0.000000
    32 0.000000 -0.752466 0.000001 -1.078594 0.000000 0.000000
    33 0.444213 -2.561960 -0.277654 -1.083705 -0.045387 -0.024911
    34 0.021022 -1.208186 -0.000001 -0.548020 0.000000 0.000000
    35 0.010597 -0.741867 -0.000002 -0.872658 0.000000 0.000000
    36 1.047445 -2.222821 -0.277654 -0.929124 -0.078971 -0.038609
    37 0.000000 -0.996223 -0.000001 -0.570729 0.000000 0.000000
    38 -0.000001 -0.614690 0.000000 -0.523599 0.000000 0.000000
    39 -0.308254 -0.007814 0.307166 0.272553 -0.560592 -2.288126
    40 1.978377 0.019544 0.000000 -0.098480 0.035608 0.895561
    41 0.982426 0.003186 0.000000 0.000000 0.000000 0.868487
  time 16
    0 10.536327 1.622640 -8.006553 -0.928286 -0.900745 0.234413
    1 0.000000 -8.563281 0.000000 0.507288 -0.036449 -0.318478
    2 -0.687785 -3.268885 0.771382 -0.649191 1.517736 -0.634003
    3 0.000000 1.978415 0.899280 0.000000 0.000000 0.000000
    4 0.000000 -4.488900 2.000896 0.000000 0.000000 0.000000
    5 0.000000 -1.806052 0.681954 0.000000 0.000000 0.000000
    6 -0.000001 2.795271 0.337227 0.000000 0.000000 0.000000
    7 -0.000001 -6.827026 1.101617 -1.052844 0.000000 0.000000
    8 -0.003480 -0.404829 0.000000 0.000000 0.000000 0.000000
    9 -0.519309 -2.501154 -0.278957 -1.025939 -0.112116 -0.189874
    10 -0.010598 -1.208184 0.000000 -1.226964 0.000000 0.000000
    11 0.000000 -0.763065 0.000000 -0.982627 0.000000 0.000000
    12 0.105981 -2.607134 -0.278957 -0.842755 -0.023454 -0.169254
    13 0.000000 -1.250579 0.000000 -1.291539 0.000000 0.000000
    14 0.000000 -0.932635 0.000000 -1.195552 0.000000 0.000000
    15 0.763064 -2.490555 -0.278957 -0.349058 0.000000 0.130900
    16 -0.012322 -1.280917 0.000000 -0.474706 0.000000 0.000000
    17 -0.001697 -0.749371 0.000000 -0.687659 0.000000 0.000000
    18 0.354567 0.016266 0.318133 0.488948 -0.453366 -1.121476
    19 1.887164 0.012878 0.000000 -0.301418 -0.050167 -0.561348
    20 1.001874 -0.000270 -0.000001 0.000000 0.000000 -0.703360
    21 -1.123359 -2.195093 -0.278957 -1.166683 -0.116814 -0.133119
    22 0.010772 -0.963791 0.000000 -0.657988 0.000000 0.000000
    23 -0.010412 -0.631916 -0.000001 -1.359611 0.000000 0.000000
    24 -0.374525 -6.013616 -9.486912 -1.848295 0.821761 -1.565322
    25 0.089929 -8.543163 0.000000 -0.008471 0.303977 -0.130849
    26 0.000000 -0.359713 0.000002 -0.053277 -0.057031 -0.026210
    27 -0.170479 -2.636147 -0.277654 -1.441589 0.000000 0.000000
    28 0.010599 -1.261177 0.000001 -0.493919 0.000000 0.000000
    29 -0.000001 -0.943233 -0.000001 -0.924996 0.000000 0.000000
    30 -0.827563 -2.508973 -0.277656 -1.324203 0.000000 0.000000
    31 0.000001 -1.292971 0.000002 -0.602126 0.000000 0.000000
    32 0.000000 -0.752466 0.000001 -1.078594 0.000000 0.000000
    33 0.444213 -2.561960 -0.277654 -1.347112 -0.045387 -0.024911
    34 0.021022 -1.208186 -0.000001 -0.548020 0.000000 0.000000
    35 0.010597 -0.741867 -0.000002 -0.872658 0.000000 0.000000
    36 1.047445 -2.222821 -0.277654 -1.176106 -0.078971 -0.038609
    37 0.000000 -0.996223 -0.000001 -0.570729 0.000000 0.000000
    38 -0.000001 -0.614690 0.000000 -0.523599 0.000000 0.000000
    39 -0.308254 -0.007814 0.307166 0.295983 -0.610903 -2.340538
    40 1.978377 0.019544 0.000000 -0.095687 0.042547 0.966664
    41 0.982426 0.003186 0.000000 0.000000 0.000000 0.983441
  time 17
    0 10.536327 1.607014 -8.225309 -0.904299 -0.873833 0.199323
    1 0.000000 -8.563281 0.000000 0.502626 -0.037266 -0.320060
    2 -0.687785 -3.268885 0.771382 -0.649191 1.517736 -0.634003
    3 0.000000 1.978415 0.899280 0.000000 0.000000 0.000000
    4 0.000000 -4.488900 2.000896 0.000000 0.000000 0.000000
    5 0.000000 -1.806052 0.681954 0.000000 0.000000 0.000000
    6 -0.000001 2.795271 0.337227 0.000000 0.000000 0.000000
    7 -0.000001 -6.827026 1.101617 -1.056434 0.000000 0.000000
    8 -0.003480 -0.404829 0.000000 0.000000 0.000000 0.000000
    9 -0.519309 -2.501154 -0.278957 -1.025939 -0.112116 -0.189874
    10 -0.010598 -1.208184 0.000000 -1.226964 0.000000 0.000000
    11 0.000000 -0.763065 0.000000 -0.982627 0.000000 0.000000
    12 0.105981 -2.607134 -0.278957 -0.842755 -0.023454 -0.169254
    13 0.000000 -1.250579 0.000000 -1.291539 0.000000 0.000000
    14 0.000000 -0.932635 0.000000 -1.195552 0.000000 0.000000
    15 0.763064 -2.490555 -0.278957 -0.349058 0.000000 0.130900
    16 -0.012322 -1.280917 0.000000 -0.474706 0.000000 0.000000
    17 -0.001697 -0.749371 0.000000 -0.687659 0.000000 0.000000
    18 0.354567 0.016266 0.318133 0.488948 -0.453366 -1.121476
    19 1.887164 0.012878 0.000000 -0.301418 -0.050167 -0.561348
    20 1.001874 -0.000270 -0.000001 0.000000 0.000000 -0.703360
    21 -1.123359 -2.195093 -0.278957 -1.166683 -0.116814 -0.133119
    22 0.010772 -0.963791 0.000000 -0.657988 0.000000 0.000000
    23 -0.010412 -0.631916 -0.000001 -1.359599 0.000000 0.000000
    24 -0.370618 -6.150339 -9.389253 -1.831112 0.841476 -1.552640
    25 0.089929 -8.543163 0.000000 -0.075206 0.291528 -0.226817
    26 0.000000 -0.359713 0.000002 -0.025181 -0.026624 -0.012716
    27 -0.170479 -2.636147 -0.277654 -1.645916 0.000000 0.000000
    28 0.010599 -1.261177 0.000001 -0.493919 0.000000 0.000000
    29 -0.000001 -0.943233 -0.000001 -0.924996 0.000000 0.000000
    30 -0.827563 -2.508973 -0.277656 -1.555982 0.000000 0.000000
    31 0.000001 -1.292971 0.000002 -0.602126 0.000000 0.000000
    32 0.000000 -0.752466 0.000001 -1.078594 0.000000 0.000000
    33 0.444213 -2.561960 -0.277654 -1.559677 -0.045387 -0.024911
    34 0.021022 -1.208186 -0.000001 -0.548020 0.000000 0.000000
    35 0.010597 -0.741867 -0.000002 -0.872658 0.000000 0.000000
    36 1.047445 -2.222821 -0.277654 -1.375541 -0.078971 -0.038609
    37 0.000000 -0.996223 -0.000001 -0.570729 0.000000 0.000000
    38 -0.000001 -0.614690 0.000000 -0.523599 0.000000 0.000000
    39 -0.308254 -0.007814 0.307166 0.317939 -0.650692 -2.385316
    40 1.978377 0.019544 0.000000 -0.093111 0.047989 1.024093
    41 0.982426 0.003186 0.000000 0.000000 0.000000 1.076216
  time 18
    0 10.536327 1.548419 -8.412815 -0.884925 -0.846743 0.169178
    1 0.000000 -8.563281 0.000000 0.497425 -0.037382 -0.320672
    2 -0.687785 -3.268885 0.771382 -0.649191 1.517736 -0.634003
    3 0.000000 1.978415 0.899280 0.000000 0.000000 0.000000
    4 0.000000 -4.488900 2.000896 0.000000 0.000000 0.000000
    5 0.000000 -1.806052 0.681954 0.000000 0.000000 0.000000
    6 -0.000001 2.795271 0.337227 0.000000 0.000000 0.000000
    7 -0.000001 -6.827026 1.101617 -1.031306 0.000000 0.000000
    8 -0.003480 -0.404829 0.000000 0.000000 0.000000 0.000000
    9 -0.519309 -2.501154 -0.278957 -1.025939 -0.112116 -0.189874
    10 -0.010598 -1.208184 0.000000 -1.226964 0.000000 0.000000
    11 0.000000 -0.763065 0.000000 -0.982627 0.000000 0.000000
    12 0.105981 -2.607134 -0.278957 -0.842755 -0.023454 -0.169254
    13 0.000000 -1.250579 0.000000 -1.291539 0.000000 0.000000
    14 0.000000 -0.932635 0.000000 -1.195552 0.000000 0.000000
    15 0.763064 -2.490555 -0.278957 -0.349058 0.000000 0.130900
    16 -0.012322 -1.280917 0.000000 -0.474706 0.000000 0.000000
    17 -0.001697 -0.749371 0.000000 -0.687659 0.000000 0.000000
    18 0.354567 0.016266 0.318133 0.488948 -0.453366 -1.121476
    19 1.887164 0.012878 0.000000 -0.301418 -0.050167 -0.561348
    20 1.001874 -0.000270 -0.000001 0.000000 0.000000 -0.703360
    21 -1.123359 -2.195093 -0.278957 -1.166683 -0.116814 -0.133119
    22 0.010772 -0.963791 0.000000 -0.657988 0.000000 0.000000
    23 -0.010412 -0.631916 -0.000001 -1.359599 0.000000 0.000000
    24 -0.374525 -6.095650 -9.147058 -1.828439 0.871898 -1.547204
    25 0.089929 -8.543163 0.000000 -0.093930 0.277859 -0.262043
    26 0.000000 -0.359713 0.000002 0.000000 0.000000 0.000000
    27 -0.170479 -2.636147 -0.277654 -1.781942 0.000000 0.000000
    28 0.010599 -1.261177 0.000001 -0.493919 0.000000 0.000000
    29 -0.000001 -0.943233 -0.000001 -0.924996 0.000000 0.000000
    30 -0.827563 -2.508973 -0.277656 -1.710405 0.000000 0.000000
    31 0.000001 -1.292971 0.000002 -0.602126 0.000000 0.000000
    32 0.000000 -0.752466 0.000001 -1.078594 0.000000 0.000000
    33 0.444213 -2.561960 -0.277654 -1.701143 -0.045387 -0.024911
    34 0.021022 -1.208186 -0.000001 -0.548020 0.000000 0.000000
    35 0.010597 -0.741867 -0.000002 -0.872658 0.000000 0.000000
    36 1.047445 -2.222821 -0.277654 -1.508123 -0.078971 -0.038609
    37 0.000000 -0.996223 -0.000001 -0.570729 0.000000 0.000000
    38 -0.000001 -0.614690 0.000000 -0.523599 0.000000 0.000000
    39 -0.308254 -0.007814 0.307166 0.334142 -0.676682 -2.416499
    40 1.978377 0.019544 0.000000 -0.091217 0.051488 1.062266
    41 0.982426 0.003186 0.000000 0.000000 0.000000 1.137933
  time 19
    0 10.536327 1.431228 -8.545632 -0.870164 -0.819139 0.144535
    1 0.000000 -8.563281 0.000000 0.494105 -0.036190 -0.319126
    2 -0.687785 -3.268885 0.771382 -0.649191 1.517736 -0.634003
    3 0.000000 1.978415 0.899280 0.000000 0.000000 0.000000
    4 0.000000 -4.488900 2.000896 0.000000 0.000000 0.000000
    5 0.000000 -1.806052 0.681954 0.000000 0.000000 0.000000
    6 -0.000001 2.795271 0.337227 0.000000 0.000000 0.000000
    7 -0.000001 -6.827026 1.101617 -0.966789 0.000000 0.000000
    8 -0.003480 -0.404829 0.000000 0.000000 0.000000 0.000000
    9 -0.519309 -2.501154 -0.278957 -1.025939 -0.112116 -0.189874
    10 -0.010598 -1.208184 0.000000 -1.226964 0.000000 0.000000
    11 0.000000 -0.763065 0.000000 -0.982627 0.000000 0.000000
    12 0.105981 -2.607134 -0.278957 -0.842755 -0.023454 -0.169254
    13 0.000000 -1.250579 0.000000 -1.291539 0.000000 0.000000
    14 0.000000 -0.932635 0.000000 -1.195552 0.000000 0.000000
    15 0.763064 -2.490555 -0.278957 -0.349058 0.000000 0.130900
    16 -0.012322 -1.280917 0.000000 -0.474706 0.000000 0.000000
    17 -0.001697 -0.749371 0.000000 -0.687659 0.000000 0.000000
    18 0.354567 0.016266 0.318133 0.488948 -0.453366 -1.121476
    19 1.887164 0.012878 0.000000 -0.301418 -0.050167 -0.561348
    20 1.001874 -0.000270 -0.000001 0.000000 0.000000 -0.703360
    21 -1.123359 -2.195093 -0.278957 -1.166683 -0.116814 -0.133119
    22 0.010772 -0.963791 0.000000 -0.657988 0.000000 0.000000
    23 -0.010412 -0.631916 -0.000001 -1.359599 0.000000 0.000000
    24 -0.390150 -5.767515 -8.639230 -1.844572 0.921908 -1.556454
    25 0.089929 -8.543163 0.000000 -0.058664 0.267044 -0.225139
    26 0.000000 -0.359713 0.000002 0.019965 0.020631 0.010439
    27 -0.170479 -2.636147 -0.277654 -1.862097 0.000000 0.000000
    28 0.010599 -1.261177 0.000001 -0.493919 0.000000 0.000000
    29 -0.000001 -0.943233 -0.000001 -0.924996 0.000000 0.000000
    30 -0.827563 -2.508973 -0.277656 -1.801285 0.000000 0.000000
    31 0.000001 -1.292971 0.000002 -0.602126 0.000000 0.000000
    32 0.000000 -0.752466 0.000001 -1.078594 0.000000 0.000000
    33 0.444213 -2.561960 -0.277654 -1.784370 -0.045387 -0.024911
    34 0.021022 -1.208186 -0.000001 -0.548020 0.000000 0.000000
    35 0.010597 -0.741867 -0.000002 -0.872658 0.000000 0.000000
    36 1.047445 -2.222821 -0.277654 -1.586223 -0.078971 -0.038609
    37 0.000000 -0.996223 -0.000001 -0.570729 0.000000 0.000000
    38 -0.000001 -0.614690 0.000000 -0.523599 0.000000 0.000000
    39 -0.308254 -0.007814 0.307166 0.344341 -0.691783 -2.435432
    40 1.978377 0.019544 0.000000 -0.090054 0.053501 1.084802
    41 0.982426 0.003186 0.000000 0.000000 0.000000 1.174282
  time 20
    0 10.536327 1.235909 -8.662823 -0.860725 -0.790646 0.125555
    1 0.000000 -8.563281 0.000000 0.487969 -0.027765 -0.302539
    2 -0.687785 -3.268885 0.771382 -0.649191 1.517736 -0.634003
    3 0.000000 1.978415 0.899280 0.000000 0.000000 0.000000
    4 0.000000 -4.488900 2.000896 0.000000 0.000000 0.000000
    5 0.000000 -1.806052 0.681954 0.000000 0.000000 0.000000
    6 -0.000001 2.795271 0.337227 0.000000 0.000000 0.000000
    7 -0.000001 -6.827026 1.101617 -0.782745 0.000000 0.000000
    8 -0.003480 -0.404829 0.000000 0.000000 0.000000 0.000000
    9 -0.519309 -2.501154 -0.278957 -1.025939 -0.112116 -0.189874
    10 -0.010598 -1.208184 0.000000 -1.226964 0.000000 0.000000
    11 0.000000 -0.763065 0.000000 -0.982627 0.000000 0.000000
    12 0.105981 -2.607134 -0.278957 -0.842755 -0.023454 -0.169254
    13 0.000000 -1.250579 0.000000 -1.291539 0.000000 0.000000
    14 0.000000 -0.932635 0.000000 -1.195552 0.000000 0.000000
    15 0.763064 -2.490555 -0.278957 -0.349058 0.000000 0.130900
    16 -0.012322 -1.280917 0.000000 -0.474706 0.000000 0.000000
    17 -0.001697 -0.749371 0.000000 -0.687659 0.000000 0.000000
    18 0.354567 0.016266 0.318133 0.488948 -0.453366 -1.121476
    19 1.887164 0.012878 0.000000 -0.301418 -0.050167 -0.561348
    20 1.001874 -0.000270 -0.000001 0.000000 0.000000 -0.703360
    21 -1.123359 -2.195093 -0.278957 -1.166683 -0.116814 -0.133119
    22 0.010772 -0.963791 0.000000 -0.657988 0.000000 0.000000
    23 -0.010412 -0.631916 -0.000001 -1.359599 0.000000 0.000000
    24 -0.409682 -5.220623 -7.897020 -5.020323 2.151826 -4.725402
    25 0.089929 -8.543163 0.000000 0.014574 0.255442 -0.135531
    26 0.000000 -0.359713 0.000002 0.033181 0.034017 0.017474
    27 -0.170479 -2.636147 -0.277654 -1.914444 0.000000 0.000000
    28 0.010599 -1.261177 0.000001 -0.493919 0.000000 0.000000
    29 -0.000001 -0.943233 -0.000001 -0.924996 0.000000 0.000000
    30 -0.827563 -2.508973 -0.277656 -1.860684 0.000000 0.000000
    31 0.000001 -1.292971 0.000002 -0.602126 0.000000 0.000000
    32 0.000000 -0.752466 0.000001 -1.078594 0.000000 0.000000
    33 0.444213 -2.561960 -0.277654 -1.838744 -0.045387 -0.024911
    34 0.021022 -1.208186 -0.000001 -0.548020 0.000000 0.000000
    35 0.010597 -0.741867 -0.000002 -0.872658 0.000000 0.000000
    36 1.047445 -2.222821 -0.277654 -1.637331 -0.078971 -0.038609
    37 0.000000 -0.996223 -0.000001 -0.570729 0.000000 0.000000
    38 -0.000001 -0.614690 0.000000 -0.523599 0.000000 0.000000
    39 -0.308254 -0.007814 0.307166 0.351280 -0.701593 -2.448030
    40 1.978377 0.019544 0.000000 -0.089264 0.054844 1.099519
    41 0.982426 0.003186 0.000000 0.000000 0.000000 1.198019
  time 21
    0 10.536327 0.993714 -8.780014 -0.870802 -0.756403 0.122684
    1 0.000000 -8.563281 0.000000 0.481413 -0.019496 -0.295288
    2 -0.687785 -3.268885 0.771382 -0.649191 1.517736 -0.634003
    3 0.000000 1.978415 0.899280 0.000000 0.000000 0.000000
    4 0.000000 -4.488900 2.000896 0.000000 0.000000 0.000000
    5 0.000000 -1.806052 0.681954 0.000000 0.000000 0.000000
    6 -0.000001 2.795271 0.337227 0.000000 0.000000 0.000000
    7 -0.000001 -6.827026 1.101617 -0.483346 0.000000 0.000000
    8 -0.003480 -0.404829 0.000000 0.000000 0.000000 0.000000
    9 -0.519309 -2.501154 -0.278957 -1.025939 -0.112116 -0.189874
    10 -0.010598 -1.208184 0.000000 -1.226964 0.000000 0.000000
    11 0.000000 -0.763065 0.000000 -0.982627 0.000000 0.000000
    12 0.105981 -2.607134 -0.278957 -0.842755 -0.023454 -0.169254
    13 0.000000 -1.250579 0.000000 -1.291539 0.000000 0.000000
    14 0.000000 -0.932635 0.000000 -1.195552 0.000000 0.000000
    15 0.763064 -2.490555 -0.278957 -0.349058 0.000000 0.130900
    16 -0.012322 -1.280917 0.000000 -0.474706 0.000000 0.000000
    17 -0.001697 -0.749371 0.000000 -0.687659 0.000000 0.000000
    18 0.354567 0.016266 0.318133 0.488948 -0.453366 -1.121476
    19 1.887164 0.012878 0.000000 -0.301418 -0.050167 -0.561348
    20 1.001874 -0.000270 -0.000001 0.000000 0.000000 -0.703360
    21 -1.123359 -2.195093 -0.278957 -1.166683 -0.116814 -0.133119
    22 0.010772 -0.963791 0.000000 -0.657988 0.000000 0.000000
    23 -0.010412 -0.631916 -0.000001 -1.359599 0.000000 0.000000
    24 -0.433120 -4.576073 -7.076682 -5.073303 2.078574 -4.768600
    25 0.089929 -8.543163 0.000000 0.111512 0.236231 -0.014831
    26 0.000000 -0.359713 0.000002 0.040457 0.041238 0.021381
    27 -0.170479 -2.636147 -0.277654 -1.942956 0.000000 0.000000
    28 0.010599 -1.261177 0.000001 -0.493919 0.000000 0.000000
    29 -0.000001 -0.943233 -0.000001 -0.924996 0.000000 0.000000
    30 -0.827563 -2.508973 -0.277656 -1.893110 0.000000 0.000000
    31 0.000001 -1.292971 0.000002 -0.602126 0.000000 0.000000
    32 0.000000 -0.752466 0.000001 -1.078594 0.000000 0.000000
    33 0.444213 -2.561960 -0.277654 -1.868530 -0.045387 -0.024911
    34 0.021022 -1.208186 -0.000001 -0.548020 0.000000 0.000000
    35 0.010597 -0.741867 -0.000002 -0.872658 0.000000 0.000000
    36 1.047445 -2.222821 -0.277654 -1.665072 -0.078971 -0.038609
    37 0.000000 -0.996223 -0.000001 -0.570729 0.000000 0.000000
    38 -0.000001 -0.614690 0.000000 -0.523599 0.000000 0.000000
    39 -0.308254 -0.007814 0.307166 0.355163 -0.706885 -2.454990
    40 1.978377 0.019544 0.000000 -0.088796 0.055563 1.107491
    41 0.982426 0.003186 0.000000 0.000000 0.000000 1.210993
  time 22
    0 10.536327 0.763239 -8.846422 -0.899615 -0.724018 0.137278
    1 0.000000 -8.563281 0.000000 0.480227 -0.018187 -0.325226
    2 -0.687785 -3.268885 0.771382 -0.649191 1.517736 -0.634003
    3 0.000000 1.978415 0.899280 0.000000 0.000000 0.000000
    4 0.000000 -4.488900 2.000896 0.000000 0.000000 0.000000
    5 0.000000 -1.806052 0.681954 0.000000 0.000000 0.000000
    6 -0.000001 2.795271 0.337227 0.000000 0.000000 0.000000
    7 -0.000001 -6.827026 1.101617 -0.183947 0.000000 0.000000
    8 -0.003480 -0.404829 0.000000 0.000000 0.000000 0.000000
    9 -0.519309 -2.501154 -0.278957 -1.025939 -0.112116 -0.189874
    10 -0.010598 -1.208184 0.000000 -1.226964 0.000000 0.000000
    11 0.000000 -0.763065 0.000000 -0.982627 0.000000 0.000000
    12 0.105981 -2.607134 -0.278957 -0.842755 -0.023454 -0.169254
    13 0.000000 -1.250579 0.000000 -1.291539 0.000000 0.000000
    14 0.000000 -0.932635 0.000000 -1.195552 0.000000 0.000000
    15 0.763064 -2.490555 -0.278957 -0.349058 0.000000 0.130900
    16 -0.012322 -1.280917 0.000000 -0.474706 0.000000 0.000000
    17 -0.001697 -0.749371 0.000000 -0.687659 0.000000 0.000000
    18 0.354567 0.016266 0.318133 0.488948 -0.453366 -1.121476
    19 1.887164 0.012878 0.000000 -0.301418 -0.050167 -0.561348
    20 1.001874 -0.000270 -0.000001 0.000000 0.000000 -0.703360
    21 -1.123359 -2.195093 -0.278957 -1.166683 -0.116814 -0.133119
    22 0.010772 -0.963791 0.000000 -0.657988 0.000000 0.000000
    23 -0.010412 -0.631916 -0.000001 -1.359599 0.000000 0.000000
    24 -0.464371 -3.954960 -6.307127 -5.143275 2.011557 -4.822858
    25 0.089929 -8.543163 0.000000 0.217528 0.205977 0.114959
    26 0.000000 -0.359713 0.000002 0.042604 0.043424 0.022579
    27 -0.170479 -2.636147 -0.277654 -1.951542 0.000000 0.000000
    28 0.010599 -1.261177 0.000001 -0.493919 0.000000 0.000000
    29 -0.000001 -0.943233 -0.000001 -0.924996 0.000000 0.000000
    30 -0.827563 -2.508973 -0.277656 -1.902852 0.000000 0.000000
    31 0.000001 -1.292971 0.000002 -0.602126 0.000000 0.000000
    32 0.000000 -0.752466 0.000001 -1.078594 0.000000 0.000000
    33 0.444213 -2.561960 -0.277654 -1.877459 -0.045387 -0.024911
    34 0.021022 -1.208186 -0.000001 -0.548020 0.000000 0.000000
    35 0.010597 -0.741867 -0.000002 -0.872658 0.000000 0.000000
    36 1.047445 -2.222821 -0.277654 -1.673507 -0.078971 -0.038609
    37 0.000000 -0.996223 -0.000001 -0.570729 0.000000 0.000000
    38 -0.000001 -0.614690 0.000000 -0.523599 0.000000 0.000000
    39 -0.308254 -0.007814 0.307166 0.356325 -0.708493 -2.457094
    40 1.978377 0.019544 0.000000 -0.088664 0.055766 1.109944
    41 0.982426 0.003186 0.000000 0.000000 0.000000 1.214871
  time 23
    0 10.536327 0.610890 -8.815171 -0.925802 -0.711806 0.159448
    1 0.000000 -8.563281 0.000000 0.480562 -0.018265 -0.369173
    2 -0.687785 -3.268885 0.771382 -0.649191 1.517736 -0.634003
    3 0.000000 1.978415 0.899280 0.000000 0.000000 0.000000
    4 0.000000 -4.488900 2.000896 0.000000 0.000000 0.000000
    5 0.000000 -1.806052 0.681954 0.000000 0.000000 0.000000
    6 -0.000001 2.795271 0.337227 0.000000 0.000000 0.000000
    7 -0.000001 -6.827026 1.101617 0.000000 0.000000 0.000000
    8 -0.003480 -0.404829 0.000000 0.000000 0.000000 0.000000
    9 -0.519309 -2.501154 -0.278957 -1.025939 -0.112116 -0.189874
    10 -0.010598 -1.208184 0.000000 -1.226964 0.000000 0.000000
    11 0.000000 -0.763065 0.000000 -0.982627 0.000000 0.000000
    12 0.105981 -2.607134 -0.278957 -0.842755 -0.023454 -0.169254
    13 0.000000 -1.250579 0.000000 -1.291539 0.000000 0.000000
    14 0.000000 -0.932635 0.000000 -1.195552 0.000000 0.000000
    15 0.763064 -2.490555 -0.278957 -0.349058 0.000000 0.130900
    16 -0.012322 -1.280917 0.000000 -0.474706 0.000000 0.000000
    17 -0.001697 -0.749371 0.000000 -0.687659 0.000000 0.000000
    18 0.354567 0.016266 0.318133 0.488948 -0.453366 -1.121476
    19 1.887164 0.012878 0.000000 -0.301418 -0.050167 -0.561348
    20 1.001874 -0.000270 -0.000001 0.000000 0.000000 -0.703360
    21 -1.123359 -2.195093 -0.278957 -1.166683 -0.116814 -0.133119
    22 0.010772 -0.963791 0.000000 -0.657988 0.000000 0.000000
    23 -0.010412 -0.631916 -0.000001 -1.359611 0.000000 0.000000
    24 -0.495622 -3.490102 -5.744610 -5.218402 1.961736 -4.873208
    25 0.089929 -8.543163 0.000000 0.319355 0.167989 0.232889
    26 0.000000 -0.359713 0.000002 0.040741 0.041582 0.021536
    27 -0.170479 -2.636147 -0.277654 -1.944238 0.000000 0.000000
    28 0.010599 -1.261177 0.000001 -0.493919 0.000000 0.000000
    29 -0.000001 -0.943233 -0.000001 -0.924996 0.000000 0.000000
    30 -0.827563 -2.508973 -0.277656 -1.894564 0.000000 0.000000
    31 0.000001 -1.292971 0.000002 -0.602126 0.000000 0.000000
    32 0.000000 -0.752466 0.000001 -1.078594 0.000000 0.000000
    33 0.444213 -2.561960 -0.277654 -1.869796 -0.045387 -0.024911
    34 0.021022 -1.208186 -0.000001 -0.548020 0.000000 0.000000
    35 0.010597 -0.741867 -0.000002 -0.872658 0.000000 0.000000
    36 1.047445 -2.222821 -0.277654 -1.666322 -0.078971 -0.038609
    37 0.000000 -0.996223 -0.000001 -0.570729 0.000000 0.000000
    38 -0.000001 -0.614690 0.000000 -0.523599 0.000000 0.000000
    39 -0.308254 -0.007814 0.307166 0.355343 -0.707150 -2.455303
    40 1.978377 0.019544 0.000000 -0.088772 0.055587 1.107890
    41 0.982426 0.003186 0.000000 0.000000 0.000000 1.211609
  time 24
    0 10.536327 0.548388 -8.709699 -0.931550 -0.738817 0.182895
    1 0.000000 -8.563281 0.000000 0.480574 -0.020650 -0.405642
    2 -0.687785 -3.268885 0.771382 -0.649191 1.517736 -0.634003
    3 0.000000 1.978415 0.899280 0.000000 0.000000 0.000000
    4 0.000000 -4.488900 2.000896 0.000000 0.000000 0.000000
    5 0.000000 -1.806052 0.681954 0.000000 0.000000 0.000000
    6 -0.000001 2.795271 0.337227 0.000000 0.000000 0.000000
    7 -0.000001 -6.827026 1.101617 0.064566 0.000000 0.000000
    8 -0.003480 -0.404829 0.000000 0.000000 0.000000 0.000000
    9 -0.519309 -2.501154 -0.278957 -1.025939 -0.112116 -0.189874
    10 -0.010598 -1.208184 0.000000 -1.226964 0.000000 0.000000
    11 0.000000 -0.763065 0.000000 -0.982627 0.000000 0.000000
    12 0.105981 -2.607134 -0.278957 -0.842755 -0.023454 -0.169254
    13 0.000000 -1.250579 0.000000 -1.291539 0.000000 0.000000
    14 0.000000 -0.932635 0.000000 -1.195552 0.000000 0.000000
    15 0.763064 -2.490555 -0.278957 -0.349058 0.000000 0.130900
    16 -0.012322 -1.280917 0.000000 -0.474706 0.000000 0.000000
    17 -0.001697 -0.749371 0.000000 -0.687659 0.000000 0.000000
    18 0.354567 0.016266 0.318133 0.488948 -0.453366 -1.121476
    19 1.887164 0.012878 0.000000 -0.301418 -0.050167 -0.561348
    20 1.001874 -0.000270 -0.000001 0.000000 0.000000 -0.703360
    21 -1.123359 -2.195093 -0.278957 -1.166683 -0.116814 -0.133119
    22 0.010772 -0.963791 0.000000 -0.657988 0.000000 0.000000
    23 -0.010412 -0.631916 -0.000001 -1.359599 0.000000 0.000000
    24 -0.530780 -3.294783 -5.514134 1.011103 1.938116 -4.890277
    25 0.089929 -8.543163 0.000000 0.406690 0.131986 0.320742
    26 0.000000 -0.359713 0.000002 0.035920 0.036719 0.018924
    27 -0.170479 -2.636147 -0.277654 -1.925080 0.000000 0.000000
    28 0.010599 -1.261177 0.000001 -0.493919 0.000000 0.000000
    29 -0.000001 -0.943233 -0.000001 -0.924996 0.000000 0.000000
    30 -0.827563 -2.508973 -0.277656 -1.872680 0.000000 0.000000
    31 0.000001 -1.292971 0.000002 -0.602126 0.000000 0.000000
    32 0.000000 -0.752466 0.000001 -1.078594 0.000000 0.000000
    33 0.444213 -2.561960 -0.277654 -1.849938 -0.045387 -0.024911
    34 0.021022 -1.208186 -0.000001 -0.548020 0.000000 0.000000
    35 0.010597 -0.741867 -0.000002 -0.872658 0.000000 0.000000
    36 1.047445 -2.222821 -0.277654 -1.647703 -0.078971 -0.038609
    37 0.000000 -0.996223 -0.000001 -0.570729 0.000000 0.000000
    38 -0.000001 -0.614690 0.000000 -0.523599 0.000000 0.000000
    39 -0.308254 -0.007814 0.307166 0.352706 -0.703547 -2.450627
    40 1.978377 0.019544 0.000000 -0.089108 0.055083 1.102494
    41 0.982426 0.003186 0.000000 0.000000 0.000000 1.202876
  time 25
    0 10.536327 0.540576 -8.510474 -0.916860 -0.805723 0.206500
    1 0.000000 -8.563281 0.000000 0.478285 -0.026443 -0.413025
    2 -0.687785 -3.268885 0.771382 -0.649191 1.517736 -0.634003
    3 0.000000 1.978415 0.899280 0.000000 0.000000 0.000000
    4 0.000000 -4.488900 2.000896 0.000000 0.000000 0.000000
    5 0.000000 -1.806052 0.681954 0.000000 0.000000 0.000000
    6 -0.000001 2.795271 0.337227 0.000000 0.000000 0.000000
    7 -0.000001 -6.827026 1.101617 0.089597 0.000000 0.000000
    8 -0.003480 -0.404829 0.000000 0.000000 0.000000 0.000000
    9 -0.519309 -2.501154 -0.278957 -1.025939 -0.112116 -0.189874
    10 -0.010598 -1.208184 0.000000 -1.226964 0.000000 0.000000
    11 0.000000 -0.763065 0.000000 -0.982627 0.000000 0.000000
    12 0.105981 -2.607134 -0.278957 -0.842755 -0.023454 -0.169254
    13 0.000000 -1.250579 0.000000 -1.291539 0.000000 0.000000
    14 0.000000 -0.932635 0.000000 -1.195552 0.000000 0.000000
    15 0.763064 -2.490555 -0.278957 -0.349058 0.000000 0.130900
    16 -0.012322 -1.280917 0.000000 -0.474706 0.000000 0.000000
    17 -0.001697 -0.749371 0.000000 -0.687659 0.000000 0.000000
    18 0.354567 0.016266 0.318133 0.488948 -0.453366 -1.121476
    19 1.887164 0.012878 0.000000 -0.301418 -0.050167 -0.561348
    20 1.001874 -0.000270 -0.000001 0.000000 0.000000 -0.703360
    21 -1.123359 -2.195093 -0.278957 -1.166683 -0.116814 -0.133119
    22 0.010772 -0.963791 0.000000 -0.657988 0.000000 0.000000
    23 -0.010412 -0.631916 -0.000001 -1.359599 0.000000 0.000000
    24 -0.573750 -3.286971 -5.584449 0.995352 1.943659 -4.854231
    25 0.089929 -8.543163 0.000000 0.484729 0.103841 0.380936
    26 0.000000 -0.359713 0.000002 0.029017 0.029768 0.015196
    27 -0.170479 -2.636147 -0.277654 -1.897849 0.000000 0.000000
    28 0.010599 -1.261177 0.000001 -0.493919 0.000000 0.000000
    29 -0.000001 -0.943233 -0.000001 -0.924996 0.000000 0.000000
    30 -0.827563 -2.508973 -0.277656 -1.841999 0.000000 0.000000
    31 0.000001 -1.292971 0.000002 -0.602126 0.000000 0.000000
    32 0.000000 -0.752466 0.000001 -1.078594 0.000000 0.000000
    33 0.444213 -2.561960 -0.277654 -1.821619 -0.045387 -0.024911
    34 0.021022 -1.208186 -0.000001 -0.548020 0.000000 0.000000
    35 0.010597 -0.741867 -0.000002 -0.872658 0.000000 0.000000
    36 1.047445 -2.222821 -0.277654 -1.621149 -0.078971 -0.038609
    37 0.000000 -0.996223 -0.000001 -0.570729 0.000000 0.000000
    38 -0.000001 -0.614690 0.000000 -0.523599 0.000000 0.000000
    39 -0.308254 -0.007814 0.307166 0.349075 -0.698479 -2.444027
    40 1.978377 0.019544 0.000000 -0.089491 0.054400 1.094890
    41 0.982426 0.003186 0.000000 0.000000 0.000000 1.190518
  time 26
    0 10.536327 0.591358 -8.252654 -0.894150 -0.895193 0.232339
    1 0.000000 -8.563281 0.000000 0.468230 -0.050045 -0.323176
    2 -0.687785 -3.268885 0.771382 -0.649191 1.517736 -0.634003
    3 0.000000 1.978415 0.899280 0.000000 0.000000 0.000000
    4 0.000000 -4.488900 2.000896 0.000000 0.000000 0.000000
    5 0.000000 -1.806052 0.681954 0.000000 0.000000 0.000000
    6 -0.000001 2.795271 0.337227 0.000000 0.000000 0.000000
    7 -0.000001 -6.827026 1.101617 0.086007 0.000000 0.000000
    8 -0.003480 -0.404829 0.000000 0.000000 0.000000 0.000000
    9 -0.519309 -2.501154 -0.278957 -1.025939 -0.112116 -0.189874
    10 -0.010598 -1.208184 0.000000 -1.226964 0.000000 0.000000
    11 0.000000 -0.763065 0.000000 -0.982627 0.000000 0.000000
    12 0.105981 -2.607134 -0.278957 -0.842755 -0.023454 -0.169254
    13 0.000000 -1.250579 0.000000 -1.291539 0.000000 0.000000
    14 0.000000 -0.932635 0.000000 -1.195552 0.000000 0.000000
    15 0.763064 -2.490555 -0.278957 -0.349058 0.000000 0.130900
    16 -0.012322 -1.280917 0.000000 -0.474706 0.000000 0.000000
    17 -0.001697 -0.749371 0.000000 -0.687659 0.000000 0.000000
    18 0.354567 0.016266 0.318133 0.488948 -0.453366 -1.121476
    19 1.887164 0.012878 0.000000 -0.301418 -0.050167 -0.561348
    20 1.001874 -0.000270 -0.000001 0.000000 0.000000 -0.703360
    21 -1.123359 -2.195093 -0.278957 -1.166683 -0.116814 -0.133119
    22 0.010772 -0.963791 0.000000 -0.657988 0.000000 0.000000
    23 -0.010412 -0.631916 -0.000001 -1.359599 0.000000 0.000000
    24 -0.620626 -3.427600 -5.857895 1.002511 1.971309 -4.781187
    25 0.089929 -8.543163 0.000000 0.563860 0.079791 0.429232
    26 0.000000 -0.359713 0.000002 0.021193 0.021810 0.011050
    27 -0.170479 -2.636147 -0.277654 -1.866774 0.000000 0.000000
    28 0.010599 -1.261177 0.000001 -0.493919 0.000000 0.000000
    29 -0.000001 -0.943233 -0.000001 -0.924996 0.000000 0.000000
    30 -0.827563 -2.508973 -0.277656 -1.806519 0.000000 0.000000
    31 0.000001 -1.292971 0.000002 -0.602126 0.000000 0.000000
    32 0.000000 -0.752466 0.000001 -1.078594 0.000000 0.000000
    33 0.444213 -2.561960 -0.277654 -1.789301 -0.045387 -0.024911
    34 0.021022 -1.208186 -0.000001 -0.548020 0.000000 0.000000
    35 0.010597 -0.741867 -0.000002 -0.872658 0.000000 0.000000
    36 1.047445 -2.222821 -0.277654 -1.590784 -0.078971 -0.038609
    37 0.000000 -0.996223 -0.000001 -0.570729 0.000000 0.000000
    38 -0.000001 -0.614690 0.000000 -0.523599 0.000000 0.000000
    39 -0.308254 -0.007814 0.307166 0.344928 -0.692679 -2.436538
    40 1.978377 0.019544 0.000000 -0.089995 0.053621 1.086090
    41 0.982426 0.003186 0.000000 0.000000 0.000000 1.176384
  time 27
    0 10.536327 0.696830 -7.912800 -0.866473 -0.999996 0.258656
    1 0.000000 -8.563281 0.000000 0.452051 -0.063642 -0.208172
    2 -0.687785 -3.268885 0.771382 -0.649191 1.517736 -0.634003
    3 0.000000 1.978415 0.899280 0.000000 0.000000 0.000000
    4 0.000000 -4.488900 2.000896 0.000000 0.000000 0.000000
    5 0.000000 -1.806052 0.681954 0.000000 0.000000 0.000000
    6 -0.000001 2.795271 0.337227 0.000000 0.000000 0.000000
    7 -0.000001 -6.827026 1.101617 0.064566 0.000000 0.000000
    8 -0.003480 -0.404829 0.000000 0.000000 0.000000 0.000000
    9 -0.519309 -2.501154 -0.278957 -1.025939 -0.112116 -0.189874
    10 -0.010598 -1.208184 0.000000 -1.226964 0.000000 0.000000
    11 0.000000 -0.763065 0.000000 -0.982627 0.000000 0.000000
    12 0.105981 -2.607134 -0.278957 -0.842755 -0.023454 -0.169254
    13 0.000000 -1.250579 0.000000 -1.291539 0.000000 0.000000
    14 0.000000 -0.932635 0.000000 -1.195552 0.000000 0.000000
    15 0.763064 -2.490555 -0.278957 -0.349058 0.000000 0.130900
    16 -0.012322 -1.280917 0.000000 -0.474706 0.000000 0.000000
    17 -0.001697 -0.749371 0.000000 -0.687659 0.000000 0.000000
    18 0.354567 0.016266 0.318133 0.488948 -0.453366 -1.121476
    19 1.887164 0.012878 0.000000 -0.301418 -0.050167 -0.561348
    20 1.001874 -0.000270 -0.000001 0.000000 0.000000 -0.703360
    21 -1.123359 -2.195093 -0.278957 -1.166683 -0.116814 -0.133119
    22 0.010772 -0.963791 0.000000 -0.657988 0.000000 0.000000
    23 -0.010412 -0.631916 -0.000001 -1.359599 0.000000 0.000000
    24 -0.644064 -3.927615 -6.369629 -2.125701 1.127052 -1.551019
    25 0.089929 -8.543163 0.000000 0.643906 0.057994 0.469257
    26 0.000000 -0.359713 0.000002 0.013391 0.013853 0.006903
    27 -0.170479 -2.636147 -0.277654 -1.835571 0.000000 0.000000
    28 0.010599 -1.261177 0.000001 -0.493919 0.000000 0.000000
    29 -0.000001 -0.943233 -0.000001 -0.924996 0.000000 0.000000
    30 -0.827563 -2.508973 -0.277656 -1.771185 0.000000 0.000000
    31 0.000001 -1.292971 0.000002 -0.602126 0.000000 0.000000
    32 0.000000 -0.752466 0.000001 -1.078594 0.000000 0.000000
    33 0.444213 -2.561960 -0.277654 -1.756850 -0.045387 -0.024911
    34 0.021022 -1.208186 -0.000001 -0.548020 0.000000 0.000000
    35 0.010597 -0.741867 -0.000002 -0.872658 0.000000 0.000000
    36 1.047445 -2.222821 -0.277654 -1.560294 -0.078971 -0.038609
    37 0.000000 -0.996223 -0.000001 -0.570729 0.000000 0.000000
    38 -0.000001 -0.614690 0.000000 -0.523599 0.000000 0.000000
    39 -0.308254 -0.007814 0.307166 0.340889 -0.686777 -2.429121
    40 1.978377 0.019544 0.000000 -0.090474 0.052830 1.077351
    41 0.982426 0.003186 0.000000 0.000000 0.000000 1.162250
  time 28
    0 10.536327 0.856992 -7.498725 -0.835815 -1.112684 0.283857
    1 0.000000 -8.563281 0.000000 0.440126 -0.041996 -0.158340
    2 -0.687785 -3.268885 0.771382 -0.649191 1.517736 -0.634003
    3 0.000000 1.978415 0.899280 0.000000 0.000000 0.000000
    4 0.000000 -4.488900 2.000896 0.000000 0.000000 0.000000
    5 0.000000 -1.806052 0.681954 0.000000 0.000000 0.000000
    6 -0.000001 2.795271 0.337227 0.000000 0.000000 0.000000
    7 -0.000001 -6.827026 1.101617 0.035800 0.000000 0.000000
    8 -0.003480 -0.404829 0.000000 0.000000 0.000000 0.000000
    9 -0.519309 -2.501154 -0.278957 -1.025939 -0.112116 -0.189874
    10 -0.010598 -1.208184 0.000000 -1.226964 0.000000 0.000000
    11 0.000000 -0.763065 0.000000 -0.982627 0.000000 0.000000
    12 0.105981 -2.607134 -0.278957 -0.842755 -0.023454 -0.169254
    13 0.000000 -1.250579 0.000000 -1.291539 0.000000 0.000000
    14 0.000000 -0.932635 0.000000 -1.195552 0.000000 0.000000
    15 0.763064 -2.490555 -0.278957 -0.349058 0.000000 0.130900
    16 -0.012322 -1.280917 0.000000 -0.474706 0.000000 0.000000
    17 -0.001697 -0.749371 0.000000 -0.687659 0.000000 0.000000
    18 0.354567 0.016266 0.318133 0.488948 -0.453366 -1.121476
    19 1.887164 0.012878 0.000000 -0.301418 -0.050167 -0.561348
    20 1.001874 -0.000270 -0.000001 0.000000 0.000000 -0.703360
    21 -1.123359 -2.195093 -0.278957 -1.166683 -0.116814 -0.133119
    22 0.010772 -0.963791 0.000000 -0.657988 0.000000 0.000000
    23 -0.010412 -0.631916 -0.000001 -1.359599 0.000000 0.000000
    24 -0.636252 -4.857331 -7.119652 -2.117968 1.075971 -1.462145
    25 0.089929 -8.543163 0.000000 0.724302 0.036198 0.504445
    26 0.000000 -0.359713 0.000002 0.006597 0.006853 0.003404
    27 -0.170479 -2.636147 -0.277654 -1.808404 0.000000 0.000000
    28 0.010599 -1.261177 0.000001 -0.493919 0.000000 0.000000
    29 -0.000001 -0.943233 -0.000001 -0.924996 0.000000 0.000000
    30 -0.827563 -2.508973 -0.277656 -1.740432 0.000000 0.000000
    31 0.000001 -1.292971 0.000002 -0.602126 0.000000 0.000000
    32 0.000000 -0.752466 0.000001 -1.078594 0.000000 0.000000
    33 0.444213 -2.561960 -0.277654 -1.728597 -0.045387 -0.024911
    34 0.021022 -1.208186 -0.000001 -0.548020 0.000000 0.000000
    35 0.010597 -0.741867 -0.000002 -0.872658 0.000000 0.000000
    36 1.047445 -2.222821 -0.277654 -1.533865 -0.078971 -0.038609
    37 0.000000 -0.996223 -0.000001 -0.570729 0.000000 0.000000
    38 -0.000001 -0.614690 0.000000 -0.523599 0.000000 0.000000
    39 -0.308254 -0.007814 0.307166 0.337450 -0.681689 -2.422702
    40 1.978377 0.019544 0.000000 -0.090833 0.052135 1.069717
    41 0.982426 0.003186 0.000000 0.000000 0.000000 1.149929
  time 29
    0 10.536327 1.075748 -7.006522 -0.804093 -1.225687 0.306426
    1 0.000000 -8.563281 0.000000 0.430347 -0.007559 -0.126054
    2 -0.687785 -3.268885 0.771382 -0.649191 1.517736 -0.634003
    3 0.000000 1.978415 0.899280 0.000000 0.000000 0.000000
    4 0.000000 -4.488900 2.000896 0.000000 0.000000 0.000000
    5 0.000000 -1.806052 0.681954 0.000000 0.000000 0.000000
    6 -0.000001 2.795271 0.337227 0.000000 0.000000 0.000000
    7 -0.000001 -6.827026 1.101617 0.010721 0.000000 0.000000
    8 -0.003480 -0.404829 0.000000 0.000000 0.000000 0.000000
    9 -0.519309 -2.501154 -0.278957 -1.025939 -0.112116 -0.189874
    10 -0.010598 -1.208184 0.000000 -1.226964 0.000000 0.000000
    11 0.000000 -0.763065 0.000000 -0.982627 0.000000 0.000000
    12 0.105981 -2.607134 -0.278957 -0.842755 -0.023454 -0.169254
    13 0.000000 -1.250579 0.000000 -1.291539 0.000000 0.000000
    14 0.000000 -0.932635 0.000000 -1.195552 0.000000 0.000000
    15 0.763064 -2.490555 -0.278957 -0.349058 0.000000 0.130900
    16 -0.012322 -1.280917 0.000000 -0.474706 0.000000 0.000000
    17 -0.001697 -0.749371 0.000000 -0.687659 0.000000 0.000000
    18 0.354567 0.016266 0.318133 0.488948 -0.453366 -1.121476
    19 1.887164 0.012878 0.000000 -0.301418 -0.050167 -0.561348
    20 1.001874 -0.000270 -0.000001 0.000000 0.000000 -0.703360
    21 -1.123359 -2.195093 -0.278957 -1.166683 -0.116814 -0.133119
    22 0.010772 -0.963791 0.000000 -0.657988 0.000000 0.000000
    23 -0.010412 -0.631916 -0.000001 -1.359599 0.000000 0.000000
    24 -0.605001 -6.146433 -8.107964 -2.119496 1.024763 -1.381471
    25 0.089929 -8.543163 0.000000 0.803694 0.011693 0.537799
    26 0.000000 -0.359713 0.000002 0.001731 0.001867 0.000923
    27 -0.170479 -2.636147 -0.277654 -1.789118 0.000000 0.000000
    28 0.010599 -1.261177 0.000001 -0.493919 0.000000 0.000000
    29 -0.000001 -0.943233 -0.000001 -0.924996 0.000000 0.000000
    30 -0.827563 -2.508973 -0.277656 -1.718621 0.000000 0.000000
    31 0.000001 -1.292971 0.000002 -0.602126 0.000000 0.000000
    32 0.000000 -0.752466 0.000001 -1.078594 0.000000 0.000000
    33 0.444213 -2.561960 -0.277654 -1.708673 -0.045387 -0.024911
    34 0.021022 -1.208186 -0.000001 -0.548020 0.000000 0.000000
    35 0.010597 -0.741867 -0.000002 -0.872658 0.000000 0.000000
    36 1.047445 -2.222821 -0.277654 -1.515121 -0.078971 -0.038609
    37 0.000000 -0.996223 -0.000001 -0.570729 0.000000 0.000000
    38 -0.000001 -0.614690 0.000000 -0.523599 0.000000 0.000000
    39 -0.308254 -0.007814 0.307166 0.335041 -0.678066 -2.418206
    40 1.978377 0.019544 0.000000 -0.091109 0.051668 1.064290
    41 0.982426 0.003186 0.000000 0.000000 0.000000 1.141195
  time 30
    0 10.536327 1.349194 -6.444005 -0.774287 -1.331380 0.326283
    1 0.000000 -8.563281 0.000000 0.421670 0.027177 -0.094067
    2 -0.687785 -3.268885 0.771382 -0.649191 1.517736 -0.634003
    3 0.000000 1.978415 0.899280 0.000000 0.000000 0.000000
    4 0.000000 -4.488900 2.000896 0.000000 0.000000 0.000000
    5 0.000000 -1.806052 0.681954 0.000000 0.000000 0.000000
    6 -0.000001 2.795271 0.337227 0.000000 0.000000 0.000000
    7 -0.000001 -6.827026 1.101617 0.000000 0.000000 0.000000
    8 -0.003480 -0.404829 0.000000 0.000000 0.000000 0.000000
    9 -0.519309 -2.501154 -0.278957 -1.025939 -0.112116 -0.189874
    10 -0.010598 -1.208184 0.000000 -1.226964 0.000000 0.000000
    11 0.000000 -0.763065 0.000000 -0.982627 0.000000 0.000000
    12 0.105981 -2.607134 -0.278957 -0.842755 -0.023454 -0.169254
    13 0.000000 -1.250579 0.000000 -1.291539 0.000000 0.000000
    14 0.000000 -0.932635 0.000000 -1.195552 0.000000 0.000000
    15 0.763064 -2.490555 -0.278957 -0.349058 0.000000 0.130900
    16 -0.012322 -1.280917 0.000000 -0.474706 0.000000 0.000000
    17 -0.001697 -0.749371 0.000000 -0.687659 0.000000 0.000000
    18 0.354567 0.016266 0.318133 0.488948 -0.453366 -1.121476
    19 1.887164 0.012878 0.000000 -0.301418 -0.050167 -0.561348
    20 1.001874 -0.000270 -0.000001 0.000000 0.000000 -0.703360
    21 -1.123359 -2.195093 -0.278957 -1.166683 -0.116814 -0.133119
    22 0.010772 -0.963791 0.000000 -0.657988 0.000000 0.000000
    23 -0.010412 -0.631916 -0.000001 -1.359599 0.000000 0.000000
    24 -0.554218 -7.791014 -9.326751 -2.130092 0.981744 -1.313958
    25 0.089929 -8.543163 0.000000 0.880817 -0.018644 0.571739
    26 0.000000 -0.359713 0.000002 0.000000 0.000000 0.000000
    27 -0.170479 -2.636147 -0.277654 -1.781942 0.000000 0.000000
    28 0.010599 -1.261177 0.000001 -0.493919 0.000000 0.000000
    29 -0.000001 -0.943233 -0.000001 -0.924996 0.000000 0.000000
    30 -0.827563 -2.508973 -0.277656 -1.710405 0.000000 0.000000
    31 0.000001 -1.292971 0.000002 -0.602126 0.000000 0.000000
    32 0.000000 -0.752466 0.000001 -1.078594 0.000000 0.000000
    33 0.444213 -2.561960 -0.277654 -1.701143 -0.045387 -0.024911
    34 0.021022 -1.208186 -0.000001 -0.548020 0.000000 0.000000
    35 0.010597 -0.741867 -0.000002 -0.872658 0.000000 0.000000
    36 1.047445 -2.222821 -0.277654 -1.508123 -0.078971 -0.038609
    37 0.000000 -0.996223 -0.000001 -0.570729 0.000000 0.000000
    38 -0.000001 -0.614690 0.000000 -0.523599 0.000000 0.000000
    39 -0.308254 -0.007814 0.307166 0.334142 -0.676682 -2.416499
    40 1.978377 0.019544 0.000000 -0.091217 0.051488 1.062266
    41 0.982426 0.003186 0.000000 0.000000 0.000000 1.137933
end
