version 1
nodes
  0 "root" -1
  1 "Bone01" 0
  2 "Bone_Lefthand" 1
  3 "psg1_root" 2
  4 "magazine" 3
  5 "reload2" 3
  6 "reload1" 3
  7 "trigger" 3
  8 "Bone_L_Upper" 1
  9 "Bone13" 2
  10 "Bone14" 9
  11 "Bone15" 10
  12 "Bone17" 2
  13 "Bone18" 12
  14 "Bone19" 13
  15 "Bone21" 2
  16 "Bone22" 15
  17 "Bone23" 16
  18 "Bone09" 2
  19 "Bone10" 18
  20 "Bone11" 19
  21 "Bone05" 2
  22 "Bone06" 21
  23 "Bone07" 22
  24 "Bone_Se_Hand-L" 2
  25 "Bone04" 0
  26 "Bone_Righthand" 25
  27 "Bone39" 26
  28 "Bone40" 27
  29 "Bone41" 28
  30 "Bone35" 26
  31 "Bone36" 30
  32 "Bone37" 31
  33 "Bone31" 26
  34 "Bone32" 33
  35 "Bone33" 34
  36 "Bone43" 26
  37 "Bone44" 36
  38 "Bone45" 37
  39 "Bone27" 26
  40 "Bone28" 39
  41 "Bone29" 40
  42 "Bone_Se_Hand-R" 26
  43 "Bone_R_Upper" 25
end
skeleton
  time 0
    0 -0.999830 0.003876 1.798878 0.527729 0.264080 -0.421049
    1 9.213061 3.757194 -9.113669 -0.149965 -1.612728 -0.045697
    2 -0.071918 -8.498731 -0.104137 0.151252 0.282508 0.057556
    3 2.756743 -2.082877 1.536135 -0.053752 0.246035 3.130544
    4 -0.237589 6.949795 0.000000 0.000000 0.000000 0.000000
    5 -0.722473 4.836429 0.000000 0.000000 0.000000 1.570796
    6 -0.982018 11.724739 0.000000 0.000000 0.000000 1.570796
    7 1.922158 2.816859 -0.000001 0.000000 0.000000 0.000000
    8 1.257180 8.762585 -0.153713 -1.570562 0.002683 -1.566807
    9 -0.488518 -2.755602 -0.228260 -0.871614 -0.202562 -0.209541
    10 0.039887 -1.479790 0.029854 -1.884480 0.000000 0.000001
    11 0.028786 -1.075731 -0.023109 -0.606348 0.000000 0.000000
    12 0.250027 -2.820665 -0.238396 -0.797118 -0.167517 -0.114938
    13 -0.049759 -1.680544 0.100479 -1.760238 0.000000 -0.000002
    14 -0.034142 -1.148312 0.084782 -0.925879 0.000000 0.000000
    15 0.957766 -2.746780 -0.090302 0.034253 -0.159185 -0.078874
    16 -0.033420 -1.397129 -0.011257 -0.519373 -0.043396 -0.075732
    17 -0.022360 -0.957436 0.018784 -0.277373 0.000000 0.000000
    18 -1.180681 -2.507217 -0.193859 -0.671429 -0.081516 -0.261329
    19 -0.024967 -1.123934 0.017597 -1.881775 0.000000 0.000001
    20 -0.020057 -0.890968 0.010090 -0.677843 0.000000 0.000000
    21 0.583510 -1.197277 0.185379 0.180209 -0.812077 -1.291294
    22 1.535927 0.010246 0.005009 -0.002964 -0.012979 -0.506650
    23 1.100771 0.004527 -0.010679 -0.014337 0.007572 -0.908779
    24 0.120153 -0.050270 -0.054489 0.287569 3.110905 1.561085
    25 -0.516870 -12.208035 -11.224282 -1.199547 -5.086433 -0.350912
    26 0.096944 -8.450418 -0.009365 0.162466 -1.145423 -0.075760
    27 0.447953 -2.798986 -0.200443 -0.611959 -0.067958 0.142839
    28 -0.032909 -1.480204 0.004940 -1.340051 0.000000 0.000002
    29 -0.027022 -1.076920 -0.020210 -0.581968 0.000000 0.000000
    30 -0.249534 -2.846964 -0.174213 -0.128719 0.012411 0.088176
    31 0.043235 -1.683941 0.096012 -1.570874 0.002823 -0.000167
    32 0.031729 -1.160830 0.058838 -0.744926 0.000642 0.008372
    33 -0.963866 -2.785145 -0.085350 0.029515 0.160514 0.097512
    34 0.028479 -1.403067 0.006271 -0.585006 0.000000 0.000000
    35 0.021413 -0.957781 0.020046 -1.174510 0.000000 0.000000
    36 1.164475 -2.543940 -0.170330 -0.872460 -0.190582 0.231608
    37 0.024032 -1.129042 0.017807 -0.709841 0.000000 0.000001
    38 0.014898 -0.883989 -0.019848 -0.845487 0.000000 0.000000
    39 -0.586770 -1.264477 0.200161 0.029405 -0.425539 -2.676430
    40 1.522835 0.058681 0.016848 0.001410 0.008985 0.586077
    41 1.117947 0.048424 -0.005766 0.001267 -0.025174 0.005115
    42 -0.139399 -0.111698 0.014397 0.653645 -0.030687 1.580508
    43 -1.393470 8.839177 -0.239433 1.580804 -0.005023 -1.566847
  time 1
    0 -0.999830 0.003876 1.888724 0.524121 0.257333 -0.413824
    1 9.213061 3.757194 -9.113669 -0.149965 -1.612728 -0.045697
    2 -0.071918 -8.498731 -0.104137 0.151252 0.282508 0.057556
    3 2.756743 -2.082877 1.536135 -0.053752 0.246035 3.130544
    4 -0.237589 6.949795 0.000000 0.000000 0.000000 0.000000
    5 -0.722473 4.836429 0.000000 0.000000 0.000000 1.570796
    6 -0.982018 11.724739 0.000000 0.000000 0.000000 1.570796
    7 1.922158 2.816859 -0.000001 0.000000 0.000000 0.000000
    8 1.257180 8.762585 -0.153713 -1.570562 0.002683 -1.566807
    9 -0.488518 -2.755602 -0.228260 -0.871614 -0.202562 -0.209541
    10 0.039887 -1.479790 0.029854 -1.884480 0.000000 0.000001
    11 0.028786 -1.075731 -0.023109 -0.606348 0.000000 0.000000
    12 0.250027 -2.820665 -0.238396 -0.797118 -0.167517 -0.114938
    13 -0.049759 -1.680544 0.100479 -1.760238 0.000000 -0.000002
    14 -0.034142 -1.148312 0.084782 -0.925906 0.000000 0.000000
    15 0.957766 -2.746780 -0.090302 0.034253 -0.159185 -0.078874
    16 -0.033420 -1.397129 -0.011257 -0.519373 -0.043396 -0.075732
    17 -0.022360 -0.957436 0.018784 -0.277373 0.000000 0.000000
    18 -1.180681 -2.507217 -0.193859 -0.671429 -0.081516 -0.261329
    19 -0.024967 -1.123934 0.017597 -1.881775 0.000000 0.000001
    20 -0.020057 -0.890968 0.010090 -0.677843 0.000000 0.000000
    21 0.583510 -1.197277 0.185379 0.180209 -0.812077 -1.291294
    22 1.535927 0.010246 0.005009 -0.002964 -0.012979 -0.506650
    23 1.100771 0.004527 -0.010679 -0.014337 0.007572 -0.908779
    24 0.120153 -0.050270 -0.054489 0.287569 3.110905 1.561085
    25 -0.516870 -12.208035 -11.224282 -1.199547 -5.086433 -0.350912
    26 0.096944 -8.450418 -0.009365 0.162466 -1.145423 -0.075760
    27 0.447953 -2.798986 -0.200443 -0.611959 -0.067958 0.142839
    28 -0.032909 -1.480204 0.004940 -1.340051 0.000000 0.000002
    29 -0.027022 -1.076920 -0.020210 -0.581968 0.000000 0.000000
    30 -0.249534 -2.846964 -0.174213 -0.128719 0.012411 0.088176
    31 0.043235 -1.683941 0.096012 -1.570874 0.002823 -0.000167
    32 0.031729 -1.160830 0.058838 -0.744926 0.000642 0.008372
    33 -0.963866 -2.785145 -0.085350 0.029515 0.160514 0.097512
    34 0.028479 -1.403067 0.006271 -0.585006 0.000000 0.000000
    35 0.021413 -0.957781 0.020046 -1.174510 0.000000 0.000000
    36 1.164475 -2.543940 -0.170330 -0.872460 -0.190582 0.231608
    37 0.024032 -1.129042 0.017807 -0.709841 0.000000 0.000001
    38 0.014898 -0.883989 -0.019848 -0.845487 0.000000 0.000000
    39 -0.586770 -1.264477 0.200161 0.029820 -0.425484 -2.677405
    40 1.522835 0.058681 0.016848 0.001410 0.008985 0.582966
    41 1.117947 0.048424 -0.005766 0.001351 -0.025162 0.002008
    42 -0.139399 -0.111698 0.014397 0.653645 -0.030687 1.580508
    43 -1.393470 8.839177 -0.239433 1.580804 -0.005023 -1.566847
  time 2
    0 -0.999830 0.003876 2.134826 0.513927 0.238973 -0.393833
    1 9.213061 3.757194 -9.113669 -0.149965 -1.612728 -0.045697
    2 -0.071918 -8.498731 -0.104137 0.151252 0.282508 0.057556
    3 2.756743 -2.082877 1.536135 -0.053752 0.246035 3.130544
    4 -0.237589 6.949795 0.000000 0.000000 0.000000 0.000000
    5 -0.722473 4.836429 0.000000 0.000000 0.000000 1.570796
    6 -0.982018 11.724739 0.000000 0.000000 0.000000 1.570796
    7 1.922158 2.816859 -0.000001 0.000000 0.000000 0.000000
    8 1.257180 8.762585 -0.153713 -1.570562 0.002683 -1.566807
    9 -0.488518 -2.755602 -0.228260 -0.871614 -0.202562 -0.209541
    10 0.039887 -1.479790 0.029854 -1.884480 0.000000 0.000001
    11 0.028786 -1.075731 -0.023109 -0.606348 0.000000 0.000000
    12 0.250027 -2.820665 -0.238396 -0.797118 -0.167517 -0.114938
    13 -0.049759 -1.680544 0.100479 -1.760238 0.000000 -0.000002
    14 -0.034142 -1.148312 0.084782 -0.925906 0.000000 0.000000
    15 0.957766 -2.746780 -0.090302 0.034253 -0.159185 -0.078874
    16 -0.033420 -1.397129 -0.011257 -0.519373 -0.043396 -0.075732
    17 -0.022360 -0.957436 0.018784 -0.277373 0.000000 0.000000
    18 -1.180681 -2.507217 -0.193859 -0.671429 -0.081516 -0.261329
    19 -0.024967 -1.123934 0.017597 -1.881775 0.000000 0.000001
    20 -0.020057 -0.890968 0.010090 -0.677843 0.000000 0.000000
    21 0.583510 -1.197277 0.185379 0.180209 -0.812077 -1.291294
    22 1.535927 0.010246 0.005009 -0.002964 -0.012979 -0.506650
    23 1.100771 0.004527 -0.010679 -0.014337 0.007572 -0.908779
    24 0.120153 -0.050270 -0.054489 0.287569 3.110905 1.561085
    25 -0.516870 -12.208035 -11.224282 -1.199547 -5.086433 -0.350912
    26 0.096944 -8.450418 -0.009365 0.162466 -1.145423 -0.075760
    27 0.447953 -2.798986 -0.200443 -0.611959 -0.067958 0.142839
    28 -0.032909 -1.480204 0.004940 -1.340051 0.000000 0.000002
    29 -0.027022 -1.076920 -0.020210 -0.581968 0.000000 0.000000
    30 -0.249534 -2.846964 -0.174213 -0.128719 0.012411 0.088176
    31 0.043235 -1.683941 0.096012 -1.570874 0.002823 -0.000167
    32 0.031729 -1.160830 0.058838 -0.744926 0.000642 0.008372
    33 -0.963866 -2.785145 -0.085350 0.029515 0.160514 0.097512
    34 0.028479 -1.403067 0.006271 -0.585006 0.000000 0.000000
    35 0.021413 -0.957781 0.020046 -1.174510 0.000000 0.000000
    36 1.164475 -2.543940 -0.170330 -0.872460 -0.190582 0.231608
    37 0.024032 -1.129042 0.017807 -0.709841 0.000000 0.000001
    38 0.014898 -0.883989 -0.019848 -0.845487 0.000000 0.000000
    39 -0.586770 -1.264477 0.200161 0.030928 -0.425375 -2.680121
    40 1.522835 0.058681 0.016848 0.001410 0.008985 0.574448
    41 1.117947 0.048424 -0.005766 0.001555 -0.025114 -0.006490
    42 -0.139399 -0.111698 0.014397 0.653645 -0.030687 1.580508
    43 -1.393470 8.839177 -0.239433 1.580804 -0.005023 -1.566847
  time 3
    0 -0.999830 0.007782 2.494212 0.497998 0.211816 -0.363678
    1 9.213061 3.757194 -9.113669 -0.149965 -1.612728 -0.045697
    2 -0.071918 -8.498731 -0.104137 0.151252 0.282508 0.057556
    3 2.756743 -2.082877 1.536135 -0.053752 0.246035 3.130544
    4 -0.237589 6.949795 0.000000 0.000000 0.000000 0.000000
    5 -0.722473 4.836429 0.000000 0.000000 0.000000 1.570796
    6 -0.982018 11.724739 0.000000 0.000000 0.000000 1.570796
    7 1.922158 2.816859 -0.000001 0.000000 0.000000 0.000000
    8 1.257180 8.762585 -0.153713 -1.570562 0.002683 -1.566807
    9 -0.488518 -2.755602 -0.228260 -0.871614 -0.202562 -0.209541
    10 0.039887 -1.479790 0.029854 -1.884480 0.000000 0.000001
    11 0.028786 -1.075731 -0.023109 -0.606348 0.000000 0.000000
    12 0.250027 -2.820665 -0.238396 -0.797118 -0.167517 -0.114938
    13 -0.049759 -1.680544 0.100479 -1.760238 0.000000 -0.000002
    14 -0.034142 -1.148312 0.084782 -0.925879 0.000000 0.000000
    15 0.957766 -2.746780 -0.090302 0.034253 -0.159185 -0.078874
    16 -0.033420 -1.397129 -0.011257 -0.519373 -0.043396 -0.075732
    17 -0.022360 -0.957436 0.018784 -0.277373 0.000000 0.000000
    18 -1.180681 -2.507217 -0.193859 -0.671429 -0.081516 -0.261329
    19 -0.024967 -1.123934 0.017597 -1.881775 0.000000 0.000001
    20 -0.020057 -0.890968 0.010090 -0.677843 0.000000 0.000000
    21 0.583510 -1.197277 0.185379 0.180209 -0.812077 -1.291294
    22 1.535927 0.010246 0.005009 -0.002964 -0.012979 -0.506650
    23 1.100771 0.004527 -0.010679 -0.014337 0.007572 -0.908779
    24 0.120153 -0.050270 -0.054489 0.287569 3.110905 1.561085
    25 -0.516870 -12.208035 -11.224282 -1.199547 -5.086433 -0.350912
    26 0.096944 -8.450418 -0.009365 0.162466 -1.145423 -0.075760
    27 0.447953 -2.798986 -0.200443 -0.611959 -0.067958 0.142839
    28 -0.032909 -1.480204 0.004940 -1.340051 0.000000 0.000002
    29 -0.027022 -1.076920 -0.020210 -0.581968 0.000000 0.000000
    30 -0.249534 -2.846964 -0.174213 -0.128719 0.012411 0.088176
    31 0.043235 -1.683941 0.096012 -1.570874 0.002823 -0.000167
    32 0.031729 -1.160830 0.058838 -0.744926 0.000642 0.008372
    33 -0.963866 -2.785145 -0.085350 0.029515 0.160514 0.097512
    34 0.028479 -1.403067 0.006271 -0.585006 0.000000 0.000000
    35 0.021413 -0.957781 0.020046 -1.174510 0.000000 0.000000
    36 1.164475 -2.543940 -0.170330 -0.872460 -0.190582 0.231608
    37 0.024032 -1.129042 0.017807 -0.709841 0.000000 0.000001
    38 0.014898 -0.883989 -0.019848 -0.845487 0.000000 0.000000
    39 -0.586770 -1.264477 0.200161 0.032681 -0.425193 -2.684375
    40 1.522835 0.058681 0.016848 0.001410 0.008985 0.561733
    41 1.117947 0.048424 -0.005766 0.001866 -0.025054 -0.019217
    42 -0.139399 -0.111698 0.014397 0.653645 -0.030687 1.580508
    43 -1.393470 8.839177 -0.239433 1.580804 -0.005023 -1.566847
  time 4
    0 -0.999830 0.015595 2.935631 0.477222 0.178654 -0.326008
    1 9.213061 3.757194 -9.113669 -0.149965 -1.612728 -0.045697
    2 -0.071918 -8.498731 -0.104137 0.151252 0.282508 0.057556
    3 2.756743 -2.082877 1.536135 -0.053752 0.246035 3.130544
    4 -0.237589 6.949795 0.000000 0.000000 0.000000 0.000000
    5 -0.722473 4.836429 0.000000 0.000000 0.000000 1.570796
    6 -0.982018 11.724739 0.000000 0.000000 0.000000 1.570796
    7 1.922158 2.816859 -0.000001 0.000000 0.000000 0.000000
    8 1.257180 8.762585 -0.153713 -1.570562 0.002683 -1.566807
    9 -0.488518 -2.755602 -0.228260 -0.871614 -0.202562 -0.209541
    10 0.039887 -1.479790 0.029854 -1.884480 0.000000 0.000001
    11 0.028786 -1.075731 -0.023109 -0.606348 0.000000 0.000000
    12 0.250027 -2.820665 -0.238396 -0.797118 -0.167517 -0.114938
    13 -0.049759 -1.680544 0.100479 -1.760238 0.000000 -0.000002
    14 -0.034142 -1.148312 0.084782 -0.925879 0.000000 0.000000
    15 0.957766 -2.746780 -0.090302 0.034253 -0.159185 -0.078874
    16 -0.033420 -1.397129 -0.011257 -0.519373 -0.043396 -0.075732
    17 -0.022360 -0.957436 0.018784 -0.277373 0.000000 0.000000
    18 -1.180681 -2.507217 -0.193859 -0.671429 -0.081516 -0.261329
    19 -0.024967 -1.123934 0.017597 -1.881775 0.000000 0.000001
    20 -0.020057 -0.890968 0.010090 -0.677843 0.000000 0.000000
    21 0.583510 -1.197277 0.185379 0.180209 -0.812077 -1.291294
    22 1.535927 0.010246 0.005009 -0.002964 -0.012979 -0.506650
    23 1.100771 0.004527 -0.010679 -0.014337 0.007572 -0.908779
    24 0.120153 -0.050270 -0.054489 0.287569 3.110905 1.561085
    25 -0.516870 -12.208035 -11.224282 -1.199547 -5.086433 -0.350912
    26 0.096944 -8.450418 -0.009365 0.162466 -1.145423 -0.075760
    27 0.447953 -2.798986 -0.200443 -0.611959 -0.067958 0.142839
    28 -0.032909 -1.480204 0.004940 -1.340051 0.000000 0.000002
    29 -0.027022 -1.076920 -0.020210 -0.581968 0.000000 0.000000
    30 -0.249534 -2.846964 -0.174213 -0.128719 0.012411 0.088176
    31 0.043235 -1.683941 0.096012 -1.570874 0.002823 -0.000167
    32 0.031729 -1.160830 0.058838 -0.744926 0.000642 0.008372
    33 -0.963866 -2.785145 -0.085350 0.029515 0.160514 0.097512
    34 0.028479 -1.403067 0.006271 -0.585006 0.000000 0.000000
    35 0.021413 -0.957781 0.020046 -1.174510 0.000000 0.000000
    36 1.164475 -2.543940 -0.170330 -0.872460 -0.190582 0.231608
    37 0.024032 -1.129042 0.017807 -0.709841 0.000000 0.000001
    38 0.014898 -0.883989 -0.019848 -0.845487 0.000000 0.000000
    39 -0.586770 -1.264477 0.200161 0.034943 -0.424956 -2.689864
    40 1.522835 0.058681 0.016848 0.001410 0.008985 0.546012
    41 1.117947 0.048424 -0.005766 0.002250 -0.024970 -0.034940
    42 -0.139399 -0.111698 0.014397 0.653645 -0.030687 1.580508
    43 -1.393470 8.839177 -0.239433 1.580804 -0.005023 -1.566847
  time 5
    0 -0.999830 0.023408 3.412208 0.452468 0.142317 -0.283376
    1 9.213061 3.757194 -9.113669 -0.149965 -1.612728 -0.045697
    2 -0.071918 -8.498731 -0.104137 0.151252 0.282508 0.057556
    3 2.756743 -2.082877 1.536135 -0.053752 0.246035 3.130544
    4 -0.237589 6.949795 0.000000 0.000000 0.000000 0.000000
    5 -0.722473 4.836429 0.000000 0.000000 0.000000 1.570796
    6 -0.982018 11.724739 0.000000 0.000000 0.000000 1.570796
    7 1.922158 2.816859 -0.000001 0.000000 0.000000 0.000000
    8 1.257180 8.762585 -0.153713 -1.570562 0.002683 -1.566807
    9 -0.488518 -2.755602 -0.228260 -0.871614 -0.202562 -0.209541
    10 0.039887 -1.479790 0.029854 -1.884480 0.000000 0.000001
    11 0.028786 -1.075731 -0.023109 -0.606348 0.000000 0.000000
    12 0.250027 -2.820665 -0.238396 -0.797118 -0.167517 -0.114938
    13 -0.049759 -1.680544 0.100479 -1.760238 0.000000 -0.000002
    14 -0.034142 -1.148312 0.084782 -0.925879 0.000000 0.000000
    15 0.957766 -2.746780 -0.090302 0.034253 -0.159185 -0.078874
    16 -0.033420 -1.397129 -0.011257 -0.519373 -0.043396 -0.075732
    17 -0.022360 -0.957436 0.018784 -0.277373 0.000000 0.000000
    18 -1.180681 -2.507217 -0.193859 -0.671429 -0.081516 -0.261329
    19 -0.024967 -1.123934 0.017597 -1.881775 0.000000 0.000001
    20 -0.020057 -0.890968 0.010090 -0.677843 0.000000 0.000000
    21 0.583510 -1.197277 0.185379 0.180209 -0.812077 -1.291294
    22 1.535927 0.010246 0.005009 -0.002964 -0.012979 -0.506650
    23 1.100771 0.004527 -0.010679 -0.014337 0.007572 -0.908779
    24 0.120153 -0.050270 -0.054489 0.287569 3.110905 1.561085
    25 -0.516870 -12.208035 -11.224282 -1.199547 -5.086433 -0.350912
    26 0.096944 -8.450418 -0.009365 0.162466 -1.145423 -0.075760
    27 0.447953 -2.798986 -0.200443 -0.611959 -0.067958 0.142839
    28 -0.032909 -1.480204 0.004940 -1.340051 0.000000 0.000002
    29 -0.027022 -1.076920 -0.020210 -0.581968 0.000000 0.000000
    30 -0.249534 -2.846964 -0.174213 -0.128719 0.012411 0.088176
    31 0.043235 -1.683941 0.096012 -1.570874 0.002823 -0.000167
    32 0.031729 -1.160830 0.058838 -0.744926 0.000642 0.008372
    33 -0.963866 -2.785145 -0.085350 0.029515 0.160514 0.097512
    34 0.028479 -1.403067 0.006271 -0.585006 0.000000 0.000000
    35 0.021413 -0.957781 0.020046 -1.174510 0.000000 0.000000
    36 1.164475 -2.543940 -0.170330 -0.872460 -0.190582 0.231608
    37 0.024032 -1.129042 0.017807 -0.709841 0.000000 0.000001
    38 0.014898 -0.883989 -0.019848 -0.845487 0.000000 0.000000
    39 -0.586770 -1.264477 0.200161 0.037620 -0.424683 -2.696384
    40 1.522835 0.058681 0.016848 0.001410 0.008985 0.528475
    41 1.117947 0.048424 -0.005766 0.002669 -0.024886 -0.052496
    42 -0.139399 -0.111698 0.014397 0.653645 -0.030687 1.580508
    43 -1.393470 8.839177 -0.239433 1.580804 -0.005023 -1.566847
  time 6
    0 -0.999830 0.039033 3.892692 0.424622 0.105596 -0.238433
    1 9.213061 3.757194 -9.113669 -0.149965 -1.612728 -0.045697
    2 -0.071918 -8.498731 -0.104137 0.151252 0.282508 0.057556
    3 2.756743 -2.082877 1.536135 -0.053752 0.246035 3.130544
    4 -0.237589 6.949795 0.000000 0.000000 0.000000 0.000000
    5 -0.722473 4.836429 0.000000 0.000000 0.000000 1.570796
    6 -0.982018 11.724739 0.000000 0.000000 0.000000 1.570796
    7 1.922158 2.816859 -0.000001 0.000000 0.000000 0.000000
    8 1.257180 8.762585 -0.153713 -1.570562 0.002683 -1.566807
    9 -0.488518 -2.755602 -0.228260 -0.871614 -0.202562 -0.209541
    10 0.039887 -1.479790 0.029854 -1.884480 0.000000 0.000001
    11 0.028786 -1.075731 -0.023109 -0.606348 0.000000 0.000000
    12 0.250027 -2.820665 -0.238396 -0.797118 -0.167517 -0.114938
    13 -0.049759 -1.680544 0.100479 -1.760238 0.000000 -0.000002
    14 -0.034142 -1.148312 0.084782 -0.925879 0.000000 0.000000
    15 0.957766 -2.746780 -0.090302 0.034253 -0.159185 -0.078874
    16 -0.033420 -1.397129 -0.011257 -0.519373 -0.043396 -0.075732
    17 -0.022360 -0.957436 0.018784 -0.277373 0.000000 0.000000
    18 -1.180681 -2.507217 -0.193859 -0.671429 -0.081516 -0.261329
    19 -0.024967 -1.123934 0.017597 -1.881775 0.000000 0.000001
    20 -0.020057 -0.890968 0.010090 -0.677843 0.000000 0.000000
    21 0.583510 -1.197277 0.185379 0.180209 -0.812077 -1.291294
    22 1.535927 0.010246 0.005009 -0.002964 -0.012979 -0.506650
    23 1.100771 0.004527 -0.010679 -0.014337 0.007572 -0.908779
    24 0.120153 -0.050270 -0.054489 0.287569 3.110905 1.561085
    25 -0.516870 -12.208035 -11.224282 -1.199547 -5.086433 -0.350912
    26 0.096944 -8.450418 -0.009365 0.162466 -1.145423 -0.075760
    27 0.447953 -2.798986 -0.200443 -0.611959 -0.067958 0.142839
    28 -0.032909 -1.480204 0.004940 -1.340051 0.000000 0.000002
    29 -0.027022 -1.076920 -0.020210 -0.581968 0.000000 0.000000
    30 -0.249534 -2.846964 -0.174213 -0.128719 0.012411 0.088176
    31 0.043235 -1.683941 0.096012 -1.570874 0.002823 -0.000167
    32 0.031729 -1.160830 0.058838 -0.744926 0.000642 0.008372
    33 -0.963866 -2.785145 -0.085350 0.029515 0.160514 0.097512
    34 0.028479 -1.403067 0.006271 -0.585006 0.000000 0.000000
    35 0.021413 -0.957781 0.020046 -1.174510 0.000000 0.000000
    36 1.164475 -2.543940 -0.170330 -0.872460 -0.190582 0.231608
    37 0.024032 -1.129042 0.017807 -0.709841 0.000000 0.000001
    38 0.014898 -0.883989 -0.019848 -0.845487 0.000000 0.000000
    39 -0.586770 -1.264477 0.200161 0.040597 -0.424355 -2.703654
    40 1.522835 0.058681 0.016848 0.001410 0.008985 0.510353
    41 1.117947 0.048424 -0.005766 0.003113 -0.024791 -0.070615
    42 -0.139399 -0.111698 0.014397 0.653645 -0.030687 1.580508
    43 -1.393470 8.839177 -0.239433 1.580804 -0.005023 -1.566847
  time 7
    0 -0.999830 0.054659 4.330205 0.394536 0.071308 -0.193730
    1 9.213061 3.757194 -9.113669 -0.149965 -1.612728 -0.045697
    2 -0.071918 -8.498731 -0.104137 0.151252 0.282508 0.057556
    3 2.756743 -2.082877 1.536135 -0.053752 0.246035 3.130544
    4 -0.237589 6.949795 0.000000 0.000000 0.000000 0.000000
    5 -0.722473 4.836429 0.000000 0.000000 0.000000 1.570796
    6 -0.982018 11.724739 0.000000 0.000000 0.000000 1.570796
    7 1.922158 2.816859 -0.000001 0.000000 0.000000 0.000000
    8 1.257180 8.762585 -0.153713 -1.570562 0.002683 -1.566807
    9 -0.488518 -2.755602 -0.228260 -0.871614 -0.202562 -0.209541
    10 0.039887 -1.479790 0.029854 -1.884480 0.000000 0.000001
    11 0.028786 -1.075731 -0.023109 -0.606348 0.000000 0.000000
    12 0.250027 -2.820665 -0.238396 -0.797118 -0.167517 -0.114938
    13 -0.049759 -1.680544 0.100479 -1.760238 0.000000 -0.000002
    14 -0.034142 -1.148312 0.084782 -0.925906 0.000000 0.000000
    15 0.957766 -2.746780 -0.090302 0.034253 -0.159185 -0.078874
    16 -0.033420 -1.397129 -0.011257 -0.519373 -0.043396 -0.075732
    17 -0.022360 -0.957436 0.018784 -0.277373 0.000000 0.000000
    18 -1.180681 -2.507217 -0.193859 -0.671429 -0.081516 -0.261329
    19 -0.024967 -1.123934 0.017597 -1.881775 0.000000 0.000001
    20 -0.020057 -0.890968 0.010090 -0.677843 0.000000 0.000000
    21 0.583510 -1.197277 0.185379 0.180209 -0.812077 -1.291294
    22 1.535927 0.010246 0.005009 -0.002964 -0.012979 -0.506650
    23 1.100771 0.004527 -0.010679 -0.014337 0.007572 -0.908779
    24 0.120153 -0.050270 -0.054489 0.287569 3.110905 1.561085
    25 -0.516870 -12.208035 -11.224282 -1.199547 -5.086433 -0.350912
    26 0.096944 -8.450418 -0.009365 0.162466 -1.145423 -0.075760
    27 0.447953 -2.798986 -0.200443 -0.611959 -0.067958 0.142839
    28 -0.032909 -1.480204 0.004940 -1.340051 0.000000 0.000002
    29 -0.027022 -1.076920 -0.020210 -0.581968 0.000000 0.000000
    30 -0.249534 -2.846964 -0.174213 -0.128719 0.012411 0.088176
    31 0.043235 -1.683941 0.096012 -1.570874 0.002823 -0.000167
    32 0.031729 -1.160830 0.058838 -0.744926 0.000642 0.008372
    33 -0.963866 -2.785145 -0.085350 0.029515 0.160514 0.097512
    34 0.028479 -1.403067 0.006271 -0.585006 0.000000 0.000000
    35 0.021413 -0.957781 0.020046 -1.174510 0.000000 0.000000
    36 1.164475 -2.543940 -0.170330 -0.872460 -0.190582 0.231608
    37 0.024032 -1.129042 0.017807 -0.709841 0.000000 0.000001
    38 0.014898 -0.883989 -0.019848 -0.845487 0.000000 0.000000
    39 -0.586770 -1.264477 0.200161 0.043804 -0.424027 -2.711411
    40 1.522835 0.058681 0.016848 0.001410 0.008985 0.492815
    41 1.117947 0.048424 -0.005766 0.003544 -0.024707 -0.088171
    42 -0.139399 -0.111698 0.014397 0.653645 -0.030687 1.580508
    43 -1.393470 8.839177 -0.239433 1.580804 -0.005023 -1.566847
  time 8
    0 -0.999830 0.078097 4.693497 0.363099 0.042258 -0.151918
    1 9.213061 3.757194 -9.113669 -0.149965 -1.612728 -0.045697
    2 -0.071918 -8.498731 -0.104137 0.151252 0.282508 0.057556
    3 2.756743 -2.082877 1.536135 -0.053752 0.246035 3.130544
    4 -0.237589 6.949795 0.000000 0.000000 0.000000 0.000000
    5 -0.722473 4.836429 0.000000 0.000000 0.000000 1.570796
    6 -0.982018 11.724739 0.000000 0.000000 0.000000 1.570796
    7 1.922158 2.816859 -0.000001 0.000000 0.000000 0.000000
    8 1.257180 8.762585 -0.153713 -1.570562 0.002683 -1.566807
    9 -0.488518 -2.755602 -0.228260 -0.871614 -0.202562 -0.209541
    10 0.039887 -1.479790 0.029854 -1.884480 0.000000 0.000001
    11 0.028786 -1.075731 -0.023109 -0.606348 0.000000 0.000000
    12 0.250027 -2.820665 -0.238396 -0.797118 -0.167517 -0.114938
    13 -0.049759 -1.680544 0.100479 -1.760238 0.000000 -0.000002
    14 -0.034142 -1.148312 0.084782 -0.925906 0.000000 0.000000
    15 0.957766 -2.746780 -0.090302 0.034253 -0.159185 -0.078874
    16 -0.033420 -1.397129 -0.011257 -0.519373 -0.043396 -0.075732
    17 -0.022360 -0.957436 0.018784 -0.277373 0.000000 0.000000
    18 -1.180681 -2.507217 -0.193859 -0.671429 -0.081516 -0.261329
    19 -0.024967 -1.123934 0.017597 -1.881775 0.000000 0.000001
    20 -0.020057 -0.890968 0.010090 -0.677843 0.000000 0.000000
    21 0.583510 -1.197277 0.185379 0.180209 -0.812077 -1.291294
    22 1.535927 0.010246 0.005009 -0.002964 -0.012979 -0.506650
    23 1.100771 0.004527 -0.010679 -0.014337 0.007572 -0.908779
    24 0.120153 -0.050270 -0.054489 0.287569 3.110905 1.561085
    25 -0.516870 -12.208035 -11.224282 -1.199547 -5.086433 -0.350912
    26 0.096944 -8.450418 -0.009365 0.162466 -1.145423 -0.075760
    27 0.447953 -2.798986 -0.200443 -0.611959 -0.067958 0.142839
    28 -0.032909 -1.480204 0.004940 -1.340051 0.000000 0.000002
    29 -0.027022 -1.076920 -0.020210 -0.581968 0.000000 0.000000
    30 -0.249534 -2.846964 -0.174213 -0.128719 0.012411 0.088176
    31 0.043235 -1.683941 0.096012 -1.570874 0.002823 -0.000167
    32 0.031729 -1.160830 0.058838 -0.744926 0.000642 0.008372
    33 -0.963866 -2.785145 -0.085350 0.029515 0.160514 0.097512
    34 0.028479 -1.403067 0.006271 -0.585006 0.000000 0.000000
    35 0.021413 -0.957781 0.020046 -1.174510 0.000000 0.000000
    36 1.164475 -2.543940 -0.170330 -0.872460 -0.190582 0.231608
    37 0.024032 -1.129042 0.017807 -0.709841 0.000000 0.000001
    38 0.014898 -0.883989 -0.019848 -0.845487 0.000000 0.000000
    39 -0.586770 -1.264477 0.200161 0.047104 -0.423681 -2.719430
    40 1.522835 0.058681 0.016848 0.001410 0.008985 0.477094
    41 1.117947 0.048424 -0.005766 0.003928 -0.024623 -0.103894
    42 -0.139399 -0.111698 0.014397 0.653645 -0.030687 1.580508
    43 -1.393470 8.839177 -0.239433 1.580804 -0.005023 -1.566847
  time 9
    0 -0.999830 0.105441 4.939599 0.331194 0.021261 -0.115548
    1 9.213061 3.757194 -9.113669 -0.149965 -1.612728 -0.045697
    2 -0.071918 -8.498731 -0.104137 0.151252 0.282508 0.057556
    3 2.756743 -2.082877 1.536135 -0.053752 0.246035 3.130544
    4 -0.237589 6.949795 0.000000 0.000000 0.000000 0.000000
    5 -0.722473 4.836429 0.000000 0.000000 0.000000 1.570796
    6 -0.982018 11.724739 0.000000 0.000000 0.000000 1.570796
    7 1.922158 2.816859 -0.000001 0.000000 0.000000 0.000000
    8 1.257180 8.762585 -0.153713 -1.570562 0.002683 -1.566807
    9 -0.488518 -2.755602 -0.228260 -0.871614 -0.202562 -0.209541
    10 0.039887 -1.479790 0.029854 -1.884480 0.000000 0.000001
    11 0.028786 -1.075731 -0.023109 -0.606348 0.000000 0.000000
    12 0.250027 -2.820665 -0.238396 -0.797118 -0.167517 -0.114938
    13 -0.049759 -1.680544 0.100479 -1.760238 0.000000 -0.000002
    14 -0.034142 -1.148312 0.084782 -0.925906 0.000000 0.000000
    15 0.957766 -2.746780 -0.090302 0.034253 -0.159185 -0.078874
    16 -0.033420 -1.397129 -0.011257 -0.519373 -0.043396 -0.075732
    17 -0.022360 -0.957436 0.018784 -0.277373 0.000000 0.000000
    18 -1.180681 -2.507217 -0.193859 -0.671429 -0.081516 -0.261329
    19 -0.024967 -1.123934 0.017597 -1.881775 0.000000 0.000001
    20 -0.020057 -0.890968 0.010090 -0.677843 0.000000 0.000000
    21 0.583510 -1.197277 0.185379 0.180209 -0.812077 -1.291294
    22 1.535927 0.010246 0.005009 -0.002964 -0.012979 -0.506650
    23 1.100771 0.004527 -0.010679 -0.014337 0.007572 -0.908779
    24 0.120153 -0.050270 -0.054489 0.287569 3.110905 1.561085
    25 -0.516870 -12.208035 -11.224282 -1.199547 -5.086433 -0.350912
    26 0.096944 -8.450418 -0.009365 0.162466 -1.145423 -0.075760
    27 0.447953 -2.798986 -0.200443 -0.611959 -0.067958 0.142839
    28 -0.032909 -1.480204 0.004940 -1.340051 0.000000 0.000002
    29 -0.027022 -1.076920 -0.020210 -0.581968 0.000000 0.000000
    30 -0.249534 -2.846964 -0.174213 -0.128719 0.012411 0.088176
    31 0.043235 -1.683941 0.096012 -1.570874 0.002823 -0.000167
    32 0.031729 -1.160830 0.058838 -0.744926 0.000642 0.008372
    33 -0.963866 -2.785145 -0.085350 0.029515 0.160514 0.097512
    34 0.028479 -1.403067 0.006271 -0.585006 0.000000 0.000000
    35 0.021413 -0.957781 0.020046 -1.174510 0.000000 0.000000
    36 1.164475 -2.543940 -0.170330 -0.872460 -0.190582 0.231608
    37 0.024032 -1.129042 0.017807 -0.709841 0.000000 0.000001
    38 0.014898 -0.883989 -0.019848 -0.845487 0.000000 0.000000
    39 -0.586770 -1.264477 0.200161 0.050404 -0.423335 -2.727468
    40 1.522835 0.058681 0.016848 0.001410 0.008985 0.464379
    41 1.117947 0.048424 -0.005766 0.004239 -0.024563 -0.116622
    42 -0.139399 -0.111698 0.014397 0.653645 -0.030687 1.580508
    43 -1.393470 8.839177 -0.239433 1.580804 -0.005023 -1.566847
  time 10
    0 -0.999830 0.136692 5.029445 0.299691 0.011110 -0.087224
    1 9.213061 3.757194 -9.113669 -0.149965 -1.612728 -0.045697
    2 -0.071918 -8.498731 -0.104137 0.151252 0.282508 0.057556
    3 2.756743 -2.082877 1.536135 -0.053752 0.246035 3.130544
    4 -0.237589 6.949795 0.000000 0.000000 0.000000 0.000000
    5 -0.722473 4.836429 0.000000 0.000000 0.000000 1.570796
    6 -0.982018 11.724739 0.000000 0.000000 0.000000 1.570796
    7 1.922158 2.816859 -0.000001 0.000000 0.000000 0.000000
    8 1.257180 8.762585 -0.153713 -1.570562 0.002683 -1.566807
    9 -0.488518 -2.755602 -0.228260 -0.871614 -0.202562 -0.209541
    10 0.039887 -1.479790 0.029854 -1.884480 0.000000 0.000001
    11 0.028786 -1.075731 -0.023109 -0.606348 0.000000 0.000000
    12 0.250027 -2.820665 -0.238396 -0.797118 -0.167517 -0.114938
    13 -0.049759 -1.680544 0.100479 -1.760238 0.000000 -0.000002
    14 -0.034142 -1.148312 0.084782 -0.925906 0.000000 0.000000
    15 0.957766 -2.746780 -0.090302 0.034253 -0.159185 -0.078874
    16 -0.033420 -1.397129 -0.011257 -0.519373 -0.043396 -0.075732
    17 -0.022360 -0.957436 0.018784 -0.277373 0.000000 0.000000
    18 -1.180681 -2.507217 -0.193859 -0.671429 -0.081516 -0.261329
    19 -0.024967 -1.123934 0.017597 -1.881775 0.000000 0.000001
    20 -0.020057 -0.890968 0.010090 -0.677843 0.000000 0.000000
    21 0.583510 -1.197277 0.185379 0.180209 -0.812077 -1.291294
    22 1.535927 0.010246 0.005009 -0.002964 -0.012979 -0.506650
    23 1.100771 0.004527 -0.010679 -0.014337 0.007572 -0.908779
    24 0.120153 -0.050270 -0.054489 0.287569 3.110905 1.561085
    25 -0.516870 -12.208035 -11.224282 -1.199547 -5.086433 -0.350912
    26 0.096944 -8.450418 -0.009365 0.162466 -1.145423 -0.075760
    27 0.447953 -2.798986 -0.200443 -0.611959 -0.067958 0.142839
    28 -0.032909 -1.480204 0.004940 -1.340051 0.000000 0.000002
    29 -0.027022 -1.076920 -0.020210 -0.581968 0.000000 0.000000
    30 -0.249534 -2.846964 -0.174213 -0.128719 0.012411 0.088176
    31 0.043235 -1.683941 0.096012 -1.570874 0.002823 -0.000167
    32 0.031729 -1.160830 0.058838 -0.744926 0.000642 0.008372
    33 -0.963866 -2.785145 -0.085350 0.029515 0.160514 0.097512
    34 0.028479 -1.403067 0.006271 -0.585006 0.000000 0.000000
    35 0.021413 -0.957781 0.020046 -1.174510 0.000000 0.000000
    36 1.164475 -2.543940 -0.170330 -0.872460 -0.190582 0.231608
    37 0.024032 -1.129042 0.017807 -0.709841 0.000000 0.000001
    38 0.014898 -0.883989 -0.019848 -0.845487 0.000000 0.000000
    39 -0.586770 -1.264477 0.200161 0.053589 -0.423007 -2.735225
    40 1.522835 0.058681 0.016848 0.001410 0.008985 0.455861
    41 1.117947 0.048424 -0.005766 0.004443 -0.024515 -0.125119
    42 -0.139399 -0.111698 0.014397 0.653645 -0.030687 1.580508
    43 -1.393470 8.839177 -0.239433 1.580804 -0.005023 -1.566847
  time 11
    0 -0.999830 0.218726 4.920067 0.261763 0.007742 -0.065595
    1 9.213061 3.757194 -9.113669 -0.149965 -1.612728 -0.045697
    2 -0.071918 -8.498731 -0.104137 0.151252 0.282508 0.057556
    3 2.756743 -2.082877 1.536135 -0.053752 0.246035 3.130544
    4 -0.237589 6.949795 0.000000 0.000000 0.000000 0.000000
    5 -0.722473 4.836429 0.000000 0.000000 0.000000 1.570796
    6 -0.982018 11.724739 0.000000 0.000000 0.000000 1.570796
    7 1.922158 2.816859 -0.000001 0.000000 0.000000 0.000000
    8 1.257180 8.762585 -0.153713 -1.570562 0.002683 -1.566807
    9 -0.488518 -2.755602 -0.228260 -0.871614 -0.202562 -0.209541
    10 0.039887 -1.479790 0.029854 -1.884480 0.000000 0.000001
    11 0.028786 -1.075731 -0.023109 -0.606348 0.000000 0.000000
    12 0.250027 -2.820665 -0.238396 -0.797118 -0.167517 -0.114938
    13 -0.049759 -1.680544 0.100479 -1.760238 0.000000 -0.000002
    14 -0.034142 -1.148312 0.084782 -0.925906 0.000000 0.000000
    15 0.957766 -2.746780 -0.090302 0.034253 -0.159185 -0.078874
    16 -0.033420 -1.397129 -0.011257 -0.519373 -0.043396 -0.075732
    17 -0.022360 -0.957436 0.018784 -0.277373 0.000000 0.000000
    18 -1.180681 -2.507217 -0.193859 -0.671429 -0.081516 -0.261329
    19 -0.024967 -1.123934 0.017597 -1.881775 0.000000 0.000001
    20 -0.020057 -0.890968 0.010090 -0.677843 0.000000 0.000000
    21 0.583510 -1.197277 0.185379 0.180209 -0.812077 -1.291294
    22 1.535927 0.010246 0.005009 -0.002964 -0.012979 -0.506650
    23 1.100771 0.004527 -0.010679 -0.014337 0.007572 -0.908779
    24 0.120153 -0.050270 -0.054489 0.287569 3.110905 1.561085
    25 -0.516870 -12.208035 -11.224282 -1.199547 -5.086433 -0.350912
    26 0.096944 -8.450418 -0.009365 0.162466 -1.145423 -0.075760
    27 0.447953 -2.798986 -0.200443 -0.611959 -0.067958 0.142839
    28 -0.032909 -1.480204 0.004940 -1.340051 0.000000 0.000002
    29 -0.027022 -1.076920 -0.020210 -0.581968 0.000000 0.000000
    30 -0.249534 -2.846964 -0.174213 -0.128719 0.012411 0.088176
    31 0.043235 -1.683941 0.096012 -1.570874 0.002823 -0.000167
    32 0.031729 -1.160830 0.058838 -0.744926 0.000642 0.008372
    33 -0.963866 -2.785145 -0.085350 0.029515 0.160514 0.097512
    34 0.028479 -1.403067 0.006271 -0.585006 0.000000 0.000000
    35 0.021413 -0.957781 0.020046 -1.174510 0.000000 0.000000
    36 1.164475 -2.543940 -0.170330 -0.872460 -0.190582 0.231608
    37 0.024032 -1.129042 0.017807 -0.709841 0.000000 0.000001
    38 0.014898 -0.883989 -0.019848 -0.845487 0.000000 0.000000
    39 -0.586770 -1.264477 0.200161 0.056589 -0.422698 -2.742494
    40 1.522835 0.058681 0.016848 0.001410 0.008985 0.452750
    41 1.117947 0.048424 -0.005766 0.004515 -0.024503 -0.128226
    42 -0.139399 -0.111698 0.014397 0.653645 -0.030687 1.580508
    43 -1.393470 8.839177 -0.239433 1.580804 -0.005023 -1.566847
  time 12
    0 -0.999830 0.367168 4.630996 0.213221 0.005129 -0.047290
    1 9.213061 3.757194 -9.113669 -0.149965 -1.612728 -0.045697
    2 -0.071918 -8.498731 -0.104137 0.151252 0.282508 0.057556
    3 2.756743 -2.082877 1.536135 -0.053752 0.246035 3.130544
    4 -0.237589 6.949795 0.000000 0.000000 0.000000 0.000000
    5 -0.722473 4.836429 0.000000 0.000000 0.000000 1.570796
    6 -0.982018 11.724739 0.000000 0.000000 0.000000 1.570796
    7 1.922158 2.816859 -0.000001 0.000000 0.000000 0.000000
    8 1.257180 8.762585 -0.153713 -1.570562 0.002683 -1.566807
    9 -0.488518 -2.755602 -0.228260 -0.871614 -0.202562 -0.209541
    10 0.039887 -1.479790 0.029854 -1.884480 0.000000 0.000001
    11 0.028786 -1.075731 -0.023109 -0.606348 0.000000 0.000000
    12 0.250027 -2.820665 -0.238396 -0.797118 -0.167517 -0.114938
    13 -0.049759 -1.680544 0.100479 -1.760238 0.000000 -0.000002
    14 -0.034142 -1.148312 0.084782 -0.925879 0.000000 0.000000
    15 0.957766 -2.746780 -0.090302 0.034253 -0.159185 -0.078874
    16 -0.033420 -1.397129 -0.011257 -0.519373 -0.043396 -0.075732
    17 -0.022360 -0.957436 0.018784 -0.277373 0.000000 0.000000
    18 -1.180681 -2.507217 -0.193859 -0.671429 -0.081516 -0.261329
    19 -0.024967 -1.123934 0.017597 -1.881775 0.000000 0.000001
    20 -0.020057 -0.890968 0.010090 -0.677843 0.000000 0.000000
    21 0.583510 -1.197277 0.185379 0.180209 -0.812077 -1.291294
    22 1.535927 0.010246 0.005009 -0.002964 -0.012979 -0.506650
    23 1.100771 0.004527 -0.010679 -0.014337 0.007572 -0.908779
    24 0.120153 -0.050270 -0.054489 0.287569 3.110905 1.561085
    25 -0.516870 -12.208035 -11.224282 -1.199547 -5.086433 -0.350912
    26 0.096944 -8.450418 -0.009365 0.162466 -1.145423 -0.075760
    27 0.447953 -2.798986 -0.200443 -0.611959 -0.067958 0.142839
    28 -0.032909 -1.480204 0.004940 -1.340051 0.000000 0.000002
    29 -0.027022 -1.076920 -0.020210 -0.581968 0.000000 0.000000
    30 -0.249534 -2.846964 -0.174213 -0.128719 0.012411 0.088176
    31 0.043235 -1.683941 0.096012 -1.570874 0.002823 -0.000167
    32 0.031729 -1.160830 0.058838 -0.744926 0.000642 0.008372
    33 -0.963866 -2.785145 -0.085350 0.029515 0.160514 0.097512
    34 0.028479 -1.403067 0.006271 -0.585006 0.000000 0.000000
    35 0.021413 -0.957781 0.020046 -1.174510 0.000000 0.000000
    36 1.164475 -2.543940 -0.170330 -0.872460 -0.190582 0.231608
    37 0.024032 -1.129042 0.017807 -0.709841 0.000000 0.000001
    38 0.014898 -0.883989 -0.019848 -0.845487 0.000000 0.000000
    39 -0.586770 -1.264477 0.200161 0.059265 -0.422406 -2.749014
    40 1.522835 0.058681 0.016848 0.001410 0.008985 0.462960
    41 1.117947 0.048424 -0.005766 0.004263 -0.024539 -0.118007
    42 -0.139399 -0.111698 0.014397 0.653645 -0.030687 1.580508
    43 -1.393470 8.839177 -0.239433 1.580804 -0.005023 -1.566847
  time 13
    0 -0.999830 0.562487 4.201295 0.158881 0.003176 -0.032212
    1 9.213061 3.757194 -9.113669 -0.149965 -1.612728 -0.045697
    2 -0.071918 -8.498731 -0.104137 0.151252 0.282508 0.057556
    3 2.756743 -2.082877 1.536135 -0.053752 0.246035 3.130544
    4 -0.237589 6.949795 0.000000 0.000000 0.000000 0.000000
    5 -0.722473 4.836429 0.000000 0.000000 0.000000 1.570796
    6 -0.982018 11.724739 0.000000 0.000000 0.000000 1.570796
    7 1.922158 2.816859 -0.000001 0.000000 0.000000 0.000000
    8 1.257180 8.762585 -0.153713 -1.570562 0.002683 -1.566807
    9 -0.488518 -2.755602 -0.228260 -0.871614 -0.202562 -0.209541
    10 0.039887 -1.479790 0.029854 -1.884480 0.000000 0.000001
    11 0.028786 -1.075731 -0.023109 -0.606348 0.000000 0.000000
    12 0.250027 -2.820665 -0.238396 -0.797118 -0.167517 -0.114938
    13 -0.049759 -1.680544 0.100479 -1.760238 0.000000 -0.000002
    14 -0.034142 -1.148312 0.084782 -0.925906 0.000000 0.000000
    15 0.957766 -2.746780 -0.090302 0.034253 -0.159185 -0.078874
    16 -0.033420 -1.397129 -0.011257 -0.519373 -0.043396 -0.075732
    17 -0.022360 -0.957436 0.018784 -0.277373 0.000000 0.000000
    18 -1.180681 -2.507217 -0.193859 -0.671429 -0.081516 -0.261329
    19 -0.024967 -1.123934 0.017597 -1.881775 0.000000 0.000001
    20 -0.020057 -0.890968 0.010090 -0.677843 0.000000 0.000000
    21 0.583510 -1.197277 0.185379 0.180209 -0.812077 -1.291294
    22 1.535927 0.010246 0.005009 -0.002964 -0.012979 -0.506650
    23 1.100771 0.004527 -0.010679 -0.014337 0.007572 -0.908779
    24 0.120153 -0.050270 -0.054489 0.287569 3.110905 1.561085
    25 -0.516870 -12.208035 -11.224282 -1.199547 -5.086433 -0.350912
    26 0.096944 -8.450418 -0.009365 0.162466 -1.145423 -0.075760
    27 0.447953 -2.798986 -0.200443 -0.611959 -0.067958 0.142839
    28 -0.032909 -1.480204 0.004940 -1.340051 0.000000 0.000002
    29 -0.027022 -1.076920 -0.020210 -0.581968 0.000000 0.000000
    30 -0.249534 -2.846964 -0.174213 -0.128719 0.012411 0.088176
    31 0.043235 -1.683941 0.096012 -1.570874 0.002823 -0.000167
    32 0.031729 -1.160830 0.058838 -0.744926 0.000642 0.008372
    33 -0.963866 -2.785145 -0.085350 0.029515 0.160514 0.097512
    34 0.028479 -1.403067 0.006271 -0.585006 0.000000 0.000000
    35 0.021413 -0.957781 0.020046 -1.174510 0.000000 0.000000
    36 1.164475 -2.543940 -0.170330 -0.872460 -0.190582 0.231608
    37 0.024032 -1.129042 0.017807 -0.709841 0.000000 0.000001
    38 0.014898 -0.883989 -0.019848 -0.845487 0.000000 0.000000
    39 -0.586770 -1.264477 0.200161 0.061527 -0.422169 -2.754504
    40 1.522835 0.058681 0.016848 0.001410 0.008985 0.489329
    41 1.117947 0.048424 -0.005766 0.003616 -0.024635 -0.091653
    42 -0.139399 -0.111698 0.014397 0.653645 -0.030687 1.580508
    43 -1.393470 8.839177 -0.239433 1.580804 -0.005023 -1.566847
  time 14
    0 -0.999830 0.781243 3.689561 0.103607 0.001774 -0.020266
    1 9.213061 3.757194 -9.113669 -0.149965 -1.612728 -0.045697
    2 -0.071918 -8.498731 -0.104137 0.151252 0.282508 0.057556
    3 2.756743 -2.082877 1.536135 -0.053752 0.246035 3.130544
    4 -0.237589 6.949795 0.000000 0.000000 0.000000 0.000000
    5 -0.722473 4.836429 0.000000 0.000000 0.000000 1.570796
    6 -0.982018 11.724739 0.000000 0.000000 0.000000 1.570796
    7 1.922158 2.816859 -0.000001 0.000000 0.000000 0.000000
    8 1.257180 8.762585 -0.153713 -1.570562 0.002683 -1.566807
    9 -0.488518 -2.755602 -0.228260 -0.871614 -0.202562 -0.209541
    10 0.039887 -1.479790 0.029854 -1.884480 0.000000 0.000001
    11 0.028786 -1.075731 -0.023109 -0.606348 0.000000 0.000000
    12 0.250027 -2.820665 -0.238396 -0.797118 -0.167517 -0.114938
    13 -0.049759 -1.680544 0.100479 -1.760238 0.000000 -0.000002
    14 -0.034142 -1.148312 0.084782 -0.925906 0.000000 0.000000
    15 0.957766 -2.746780 -0.090302 0.034253 -0.159185 -0.078874
    16 -0.033420 -1.397129 -0.011257 -0.519373 -0.043396 -0.075732
    17 -0.022360 -0.957436 0.018784 -0.277373 0.000000 0.000000
    18 -1.180681 -2.507217 -0.193859 -0.671429 -0.081516 -0.261329
    19 -0.024967 -1.123934 0.017597 -1.881775 0.000000 0.000001
    20 -0.020057 -0.890968 0.010090 -0.677843 0.000000 0.000000
    21 0.583510 -1.197277 0.185379 0.180209 -0.812077 -1.291294
    22 1.535927 0.010246 0.005009 -0.002964 -0.012979 -0.506650
    23 1.100771 0.004527 -0.010679 -0.014337 0.007572 -0.908779
    24 0.120153 -0.050270 -0.054489 0.287569 3.110905 1.561085
    25 -0.516870 -12.208035 -11.224282 -1.199547 -5.086433 -0.350912
    26 0.096944 -8.450418 -0.009365 0.162466 -1.145423 -0.075760
    27 0.447953 -2.798986 -0.200443 -0.611959 -0.067958 0.142839
    28 -0.032909 -1.480204 0.004940 -1.340051 0.000000 0.000002
    29 -0.027022 -1.076920 -0.020210 -0.581968 0.000000 0.000000
    30 -0.249534 -2.846964 -0.174213 -0.128719 0.012411 0.088176
    31 0.043235 -1.683941 0.096012 -1.570874 0.002823 -0.000167
    32 0.031729 -1.160830 0.058838 -0.744926 0.000642 0.008372
    33 -0.963866 -2.785145 -0.085350 0.029515 0.160514 0.097512
    34 0.028479 -1.403067 0.006271 -0.585006 0.000000 0.000000
    35 0.021413 -0.957781 0.020046 -1.174510 0.000000 0.000000
    36 1.164475 -2.543940 -0.170330 -0.872460 -0.190582 0.231608
    37 0.024032 -1.129042 0.017807 -0.709841 0.000000 0.000001
    38 0.014898 -0.883989 -0.019848 -0.845487 0.000000 0.000000
    39 -0.586770 -1.264477 0.200161 0.063281 -0.421987 -2.758757
    40 1.522835 0.058681 0.016848 0.001410 0.008985 0.525364
    41 1.117947 0.048424 -0.005766 0.002729 -0.024755 -0.055604
    42 -0.139399 -0.111698 0.014397 0.653645 -0.030687 1.580508
    43 -1.393470 8.839177 -0.239433 1.580804 -0.005023 -1.566847
  time 15
    0 -0.999830 0.992187 3.134856 0.052198 0.000863 -0.011162
    1 9.213061 3.757194 -9.113669 -0.149965 -1.612728 -0.045697
    2 -0.071918 -8.498731 -0.104137 0.151252 0.282508 0.057556
    3 2.756743 -2.082877 1.536135 -0.053752 0.246035 3.130544
    4 -0.237589 6.949795 0.000000 0.000000 0.000000 0.000000
    5 -0.722473 4.836429 0.000000 0.000000 0.000000 1.570796
    6 -0.982018 11.724739 0.000000 0.000000 0.000000 1.570796
    7 1.922158 2.816859 -0.000001 0.000000 0.000000 0.000000
    8 1.257180 8.762585 -0.153713 -1.570562 0.002683 -1.566807
    9 -0.488518 -2.755602 -0.228260 -0.871614 -0.202562 -0.209541
    10 0.039887 -1.479790 0.029854 -1.884480 0.000000 0.000001
    11 0.028786 -1.075731 -0.023109 -0.606348 0.000000 0.000000
    12 0.250027 -2.820665 -0.238396 -0.797118 -0.167517 -0.114938
    13 -0.049759 -1.680544 0.100479 -1.760238 0.000000 -0.000002
    14 -0.034142 -1.148312 0.084782 -0.925906 0.000000 0.000000
    15 0.957766 -2.746780 -0.090302 0.034253 -0.159185 -0.078874
    16 -0.033420 -1.397129 -0.011257 -0.519373 -0.043396 -0.075732
    17 -0.022360 -0.957436 0.018784 -0.277373 0.000000 0.000000
    18 -1.180681 -2.507217 -0.193859 -0.671429 -0.081516 -0.261329
    19 -0.024967 -1.123934 0.017597 -1.881775 0.000000 0.000001
    20 -0.020057 -0.890968 0.010090 -0.677843 0.000000 0.000000
    21 0.583510 -1.197277 0.185379 0.180209 -0.812077 -1.291294
    22 1.535927 0.010246 0.005009 -0.002964 -0.012979 -0.506650
    23 1.100771 0.004527 -0.010679 -0.014337 0.007572 -0.908779
    24 0.120153 -0.050270 -0.054489 0.287569 3.110905 1.561085
    25 -0.516870 -12.208035 -11.224282 -1.199547 -5.086433 -0.350912
    26 0.096944 -8.450418 -0.009365 0.162466 -1.145423 -0.075760
    27 0.447953 -2.798986 -0.200443 -0.611959 -0.067958 0.142839
    28 -0.032909 -1.480204 0.004940 -1.340051 0.000000 0.000002
    29 -0.027022 -1.076920 -0.020210 -0.581968 0.000000 0.000000
    30 -0.249534 -2.846964 -0.174213 -0.128719 0.012411 0.088176
    31 0.043235 -1.683941 0.096012 -1.570874 0.002823 -0.000167
    32 0.031729 -1.160830 0.058838 -0.744926 0.000642 0.008372
    33 -0.963866 -2.785145 -0.085350 0.029515 0.160514 0.097512
    34 0.028479 -1.403067 0.006271 -0.585006 0.000000 0.000000
    35 0.021413 -0.957781 0.020046 -1.174510 0.000000 0.000000
    36 1.164475 -2.543940 -0.170330 -0.872460 -0.190582 0.231608
    37 0.024032 -1.129042 0.017807 -0.709841 0.000000 0.000001
    38 0.014898 -0.883989 -0.019848 -0.845487 0.000000 0.000000
    39 -0.586770 -1.264477 0.200161 0.064388 -0.421878 -2.761474
    40 1.522835 0.058681 0.016848 0.001410 0.008985 0.564614
    41 1.117947 0.048424 -0.005766 0.001758 -0.024898 -0.016335
    42 -0.139399 -0.111698 0.014397 0.653645 -0.030687 1.580508
    43 -1.393470 8.839177 -0.239433 1.580804 -0.005023 -1.566847
  time 16
    0 -0.999830 1.167974 2.587964 0.009486 0.000312 -0.004899
    1 9.213061 3.757194 -9.113669 -0.149965 -1.612728 -0.045697
    2 -0.071918 -8.498731 -0.104137 0.151252 0.282508 0.057556
    3 2.756743 -2.082877 1.536135 -0.053752 0.246035 3.130544
    4 -0.237589 6.949795 0.000000 0.000000 0.000000 0.000000
    5 -0.722473 4.836429 0.000000 0.000000 0.000000 1.570796
    6 -0.982018 11.724739 0.000000 0.000000 0.000000 1.570796
    7 1.922158 2.816859 -0.000001 0.000000 0.000000 0.000000
    8 1.257180 8.762585 -0.153713 -1.570562 0.002683 -1.566807
    9 -0.488518 -2.755602 -0.228260 -0.871614 -0.202562 -0.209541
    10 0.039887 -1.479790 0.029854 -1.884480 0.000000 0.000001
    11 0.028786 -1.075731 -0.023109 -0.606348 0.000000 0.000000
    12 0.250027 -2.820665 -0.238396 -0.797118 -0.167517 -0.114938
    13 -0.049759 -1.680544 0.100479 -1.760238 0.000000 -0.000002
    14 -0.034142 -1.148312 0.084782 -0.925879 0.000000 0.000000
    15 0.957766 -2.746780 -0.090302 0.034253 -0.159185 -0.078874
    16 -0.033420 -1.397129 -0.011257 -0.519373 -0.043396 -0.075732
    17 -0.022360 -0.957436 0.018784 -0.277373 0.000000 0.000000
    18 -1.180681 -2.507217 -0.193859 -0.671429 -0.081516 -0.261329
    19 -0.024967 -1.123934 0.017597 -1.881775 0.000000 0.000001
    20 -0.020057 -0.890968 0.010090 -0.677843 0.000000 0.000000
    21 0.583510 -1.197277 0.185379 0.180209 -0.812077 -1.291294
    22 1.535927 0.010246 0.005009 -0.002964 -0.012979 -0.506650
    23 1.100771 0.004527 -0.010679 -0.014337 0.007572 -0.908779
    24 0.120153 -0.050270 -0.054489 0.287569 3.110905 1.561085
    25 -0.516870 -12.208035 -11.224282 -1.199547 -5.086433 -0.350912
    26 0.096944 -8.450418 -0.009365 0.162466 -1.145423 -0.075760
    27 0.447953 -2.798986 -0.200443 -0.611959 -0.067958 0.142839
    28 -0.032909 -1.480204 0.004940 -1.340051 0.000000 0.000002
    29 -0.027022 -1.076920 -0.020210 -0.581968 0.000000 0.000000
    30 -0.249534 -2.846964 -0.174213 -0.128719 0.012411 0.088176
    31 0.043235 -1.683941 0.096012 -1.570874 0.002823 -0.000167
    32 0.031729 -1.160830 0.058838 -0.744926 0.000642 0.008372
    33 -0.963866 -2.785145 -0.085350 0.029515 0.160514 0.097512
    34 0.028479 -1.403067 0.006271 -0.585006 0.000000 0.000000
    35 0.021413 -0.957781 0.020046 -1.174510 0.000000 0.000000
    36 1.164475 -2.543940 -0.170330 -0.872460 -0.190582 0.231608
    37 0.024032 -1.129042 0.017807 -0.709841 0.000000 0.000001
    38 0.014898 -0.883989 -0.019848 -0.845487 0.000000 0.000000
    39 -0.586770 -1.264477 0.200161 0.064804 -0.421841 -2.762448
    40 1.522835 0.058681 0.016848 0.001410 0.008985 0.600650
    41 1.117947 0.048424 -0.005766 0.000872 -0.025018 0.019715
    42 -0.139399 -0.111698 0.014397 0.653645 -0.030687 1.580508
    43 -1.393470 8.839177 -0.239433 1.580804 -0.005023 -1.566847
  time 17
    0 -0.999830 1.296884 2.099668 -0.019665 0.000060 -0.001190
    1 9.213061 3.757194 -9.113669 -0.149965 -1.612728 -0.045697
    2 -0.071918 -8.498731 -0.104137 0.151252 0.282508 0.057556
    3 2.756743 -2.082877 1.536135 -0.053752 0.246035 3.130544
    4 -0.237589 6.949795 0.000000 0.000000 0.000000 0.000000
    5 -0.722473 4.836429 0.000000 0.000000 0.000000 1.570796
    6 -0.982018 11.724739 0.000000 0.000000 0.000000 1.570796
    7 1.922158 2.816859 -0.000001 0.000000 0.000000 0.000000
    8 1.257180 8.762585 -0.153713 -1.570562 0.002683 -1.566807
    9 -0.488518 -2.755602 -0.228260 -0.871614 -0.202562 -0.209541
    10 0.039887 -1.479790 0.029854 -1.884480 0.000000 0.000001
    11 0.028786 -1.075731 -0.023109 -0.606348 0.000000 0.000000
    12 0.250027 -2.820665 -0.238396 -0.797118 -0.167517 -0.114938
    13 -0.049759 -1.680544 0.100479 -1.760238 0.000000 -0.000002
    14 -0.034142 -1.148312 0.084782 -0.925906 0.000000 0.000000
    15 0.957766 -2.746780 -0.090302 0.034253 -0.159185 -0.078874
    16 -0.033420 -1.397129 -0.011257 -0.519373 -0.043396 -0.075732
    17 -0.022360 -0.957436 0.018784 -0.277373 0.000000 0.000000
    18 -1.180681 -2.507217 -0.193859 -0.671429 -0.081516 -0.261329
    19 -0.024967 -1.123934 0.017597 -1.881775 0.000000 0.000001
    20 -0.020057 -0.890968 0.010090 -0.677843 0.000000 0.000000
    21 0.583510 -1.197277 0.185379 0.180209 -0.812077 -1.291294
    22 1.535927 0.010246 0.005009 -0.002964 -0.012979 -0.506650
    23 1.100771 0.004527 -0.010679 -0.014337 0.007572 -0.908779
    24 0.120153 -0.050270 -0.054489 0.287569 3.110905 1.561085
    25 -0.516870 -12.208035 -11.224282 -1.199547 -5.086433 -0.350912
    26 0.096944 -8.450418 -0.009365 0.162466 -1.145423 -0.075760
    27 0.447953 -2.798986 -0.200443 -0.611959 -0.067958 0.142839
    28 -0.032909 -1.480204 0.004940 -1.340051 0.000000 0.000002
    29 -0.027022 -1.076920 -0.020210 -0.581968 0.000000 0.000000
    30 -0.249534 -2.846964 -0.174213 -0.128719 0.012411 0.088176
    31 0.043235 -1.683941 0.096012 -1.570874 0.002823 -0.000167
    32 0.031729 -1.160830 0.058838 -0.744926 0.000642 0.008372
    33 -0.963866 -2.785145 -0.085350 0.029515 0.160514 0.097512
    34 0.028479 -1.403067 0.006271 -0.585006 0.000000 0.000000
    35 0.021413 -0.957781 0.020046 -1.174510 0.000000 0.000000
    36 1.164475 -2.543940 -0.170330 -0.872460 -0.190582 0.231608
    37 0.024032 -1.129042 0.017807 -0.709841 0.000000 0.000001
    38 0.014898 -0.883989 -0.019848 -0.845487 0.000000 0.000000
    39 -0.586770 -1.264477 0.200161 0.063281 -0.421987 -2.758757
    40 1.522835 0.058681 0.016848 0.001410 0.008985 0.626998
    41 1.117947 0.048424 -0.005766 0.000224 -0.025126 0.046068
    42 -0.139399 -0.111698 0.014397 0.653645 -0.030687 1.580508
    43 -1.393470 8.839177 -0.239433 1.580804 -0.005023 -1.566847
  time 18
    0 -0.999830 1.343760 1.716844 -0.030456 0.000000 -0.000034
    1 9.213061 3.757194 -9.113669 -0.149965 -1.612728 -0.045697
    2 -0.071918 -8.498731 -0.104137 0.151252 0.282508 0.057556
    3 2.756743 -2.082877 1.536135 -0.053752 0.246035 3.130544
    4 -0.237589 6.949795 0.000000 0.000000 0.000000 0.000000
    5 -0.722473 4.836429 0.000000 0.000000 0.000000 1.570796
    6 -0.982018 11.724739 0.000000 0.000000 0.000000 1.570796
    7 1.922158 2.816859 -0.000001 0.000000 0.000000 0.000000
    8 1.257180 8.762585 -0.153713 -1.570562 0.002683 -1.566807
    9 -0.488518 -2.755602 -0.228260 -0.871614 -0.202562 -0.209541
    10 0.039887 -1.479790 0.029854 -1.884480 0.000000 0.000001
    11 0.028786 -1.075731 -0.023109 -0.606348 0.000000 0.000000
    12 0.250027 -2.820665 -0.238396 -0.797118 -0.167517 -0.114938
    13 -0.049759 -1.680544 0.100479 -1.760238 0.000000 -0.000002
    14 -0.034142 -1.148312 0.084782 -0.925906 0.000000 0.000000
    15 0.957766 -2.746780 -0.090302 0.034253 -0.159185 -0.078874
    16 -0.033420 -1.397129 -0.011257 -0.519373 -0.043396 -0.075732
    17 -0.022360 -0.957436 0.018784 -0.277373 0.000000 0.000000
    18 -1.180681 -2.507217 -0.193859 -0.671429 -0.081516 -0.261329
    19 -0.024967 -1.123934 0.017597 -1.881775 0.000000 0.000001
    20 -0.020057 -0.890968 0.010090 -0.677843 0.000000 0.000000
    21 0.583510 -1.197277 0.185379 0.180209 -0.812077 -1.291294
    22 1.535927 0.010246 0.005009 -0.002964 -0.012979 -0.506650
    23 1.100771 0.004527 -0.010679 -0.014337 0.007572 -0.908779
    24 0.120153 -0.050270 -0.054489 0.287569 3.110905 1.561085
    25 -0.516870 -12.208035 -11.224282 -1.199547 -5.086433 -0.350912
    26 0.096944 -8.450418 -0.009365 0.162466 -1.145423 -0.075760
    27 0.447953 -2.798986 -0.200443 -0.611959 -0.067958 0.142839
    28 -0.032909 -1.480204 0.004940 -1.340051 0.000000 0.000002
    29 -0.027022 -1.076920 -0.020210 -0.581968 0.000000 0.000000
    30 -0.249534 -2.846964 -0.174213 -0.128719 0.012411 0.088176
    31 0.043235 -1.683941 0.096012 -1.570874 0.002823 -0.000167
    32 0.031729 -1.160830 0.058838 -0.744926 0.000642 0.008372
    33 -0.963866 -2.785145 -0.085350 0.029515 0.160514 0.097512
    34 0.028479 -1.403067 0.006271 -0.585006 0.000000 0.000000
    35 0.021413 -0.957781 0.020046 -1.174510 0.000000 0.000000
    36 1.164475 -2.543940 -0.170330 -0.872460 -0.190582 0.231608
    37 0.024032 -1.129042 0.017807 -0.709841 0.000000 0.000001
    38 0.014898 -0.883989 -0.019848 -0.845487 0.000000 0.000000
    39 -0.586770 -1.264477 0.200161 0.059265 -0.422406 -2.749014
    40 1.522835 0.058681 0.016848 0.001410 0.008985 0.637228
    41 1.117947 0.048424 -0.005766 -0.000027 -0.025162 0.056288
    42 -0.139399 -0.111698 0.014397 0.653645 -0.030687 1.580508
    43 -1.393470 8.839177 -0.239433 1.580804 -0.005023 -1.566847
  time 19
    0 -0.999830 1.273446 1.435586 -0.029860 0.000000 -0.000034
    1 9.213061 3.757194 -9.113669 -0.149965 -1.612728 -0.045697
    2 -0.071918 -8.498731 -0.104137 0.151252 0.282508 0.057556
    3 2.756743 -2.082877 1.536135 -0.053752 0.246035 3.130544
    4 -0.237589 6.949795 0.000000 0.000000 0.000000 0.000000
    5 -0.722473 4.836429 0.000000 0.000000 0.000000 1.570796
    6 -0.982018 11.724739 0.000000 0.000000 0.000000 1.570796
    7 1.922158 2.816859 -0.000001 0.000000 0.000000 0.000000
    8 1.257180 8.762585 -0.153713 -1.570562 0.002683 -1.566807
    9 -0.488518 -2.755602 -0.228260 -0.871614 -0.202562 -0.209541
    10 0.039887 -1.479790 0.029854 -1.884480 0.000000 0.000001
    11 0.028786 -1.075731 -0.023109 -0.606348 0.000000 0.000000
    12 0.250027 -2.820665 -0.238396 -0.797118 -0.167517 -0.114938
    13 -0.049759 -1.680544 0.100479 -1.760238 0.000000 -0.000002
    14 -0.034142 -1.148312 0.084782 -0.925879 0.000000 0.000000
    15 0.957766 -2.746780 -0.090302 0.034253 -0.159185 -0.078874
    16 -0.033420 -1.397129 -0.011257 -0.519373 -0.043396 -0.075732
    17 -0.022360 -0.957436 0.018784 -0.277373 0.000000 0.000000
    18 -1.180681 -2.507217 -0.193859 -0.671429 -0.081516 -0.261329
    19 -0.024967 -1.123934 0.017597 -1.881775 0.000000 0.000001
    20 -0.020057 -0.890968 0.010090 -0.677843 0.000000 0.000000
    21 0.583510 -1.197277 0.185379 0.180209 -0.812077 -1.291294
    22 1.535927 0.010246 0.005009 -0.002964 -0.012979 -0.506650
    23 1.100771 0.004527 -0.010679 -0.014337 0.007572 -0.908779
    24 0.120153 -0.050270 -0.054489 0.287569 3.110905 1.561085
    25 -0.516870 -12.208035 -11.224282 -1.199547 -5.086433 -0.350912
    26 0.096944 -8.450418 -0.009365 0.162466 -1.145423 -0.075760
    27 0.447953 -2.798986 -0.200443 -0.611959 -0.067958 0.142839
    28 -0.032909 -1.480204 0.004940 -1.340051 0.000000 0.000002
    29 -0.027022 -1.076920 -0.020210 -0.581968 0.000000 0.000000
    30 -0.249534 -2.846964 -0.174213 -0.128719 0.012411 0.088176
    31 0.043235 -1.683941 0.096012 -1.570874 0.002823 -0.000167
    32 0.031729 -1.160830 0.058838 -0.744926 0.000642 0.008372
    33 -0.963866 -2.785145 -0.085350 0.029515 0.160514 0.097512
    34 0.028479 -1.403067 0.006271 -0.585006 0.000000 0.000000
    35 0.021413 -0.957781 0.020046 -1.174510 0.000000 0.000000
    36 1.164475 -2.543940 -0.170330 -0.872460 -0.190582 0.231608
    37 0.024032 -1.129042 0.017807 -0.709841 0.000000 0.000001
    38 0.014898 -0.883989 -0.019848 -0.845487 0.000000 0.000000
    39 -0.586770 -1.264477 0.200161 0.053589 -0.423007 -2.735225
    40 1.522835 0.058681 0.016848 0.001410 0.008985 0.629232
    41 1.117947 0.048424 -0.005766 0.000176 -0.025162 0.048277
    42 -0.139399 -0.111698 0.014397 0.653645 -0.030687 1.580508
    43 -1.393470 8.839177 -0.239433 1.580804 -0.005023 -1.566847
  time 20
    0 -0.999830 1.101566 1.216829 -0.028201 0.000000 -0.000034
    1 9.213061 3.757194 -9.113669 -0.149965 -1.612728 -0.045697
    2 -0.071918 -8.498731 -0.104137 0.151252 0.282508 0.057556
    3 2.756743 -2.082877 1.536135 -0.053752 0.246035 3.130544
    4 -0.237589 6.949795 0.000000 0.000000 0.000000 0.000000
    5 -0.722473 4.836429 0.000000 0.000000 0.000000 1.570796
    6 -0.982018 11.724739 0.000000 0.000000 0.000000 1.570796
    7 1.922158 2.816859 -0.000001 0.000000 0.000000 0.000000
    8 1.257180 8.762585 -0.153713 -1.570562 0.002683 -1.566807
    9 -0.488518 -2.755602 -0.228260 -0.871614 -0.202562 -0.209541
    10 0.039887 -1.479790 0.029854 -1.884480 0.000000 0.000001
    11 0.028786 -1.075731 -0.023109 -0.606348 0.000000 0.000000
    12 0.250027 -2.820665 -0.238396 -0.797118 -0.167517 -0.114938
    13 -0.049759 -1.680544 0.100479 -1.760238 0.000000 -0.000002
    14 -0.034142 -1.148312 0.084782 -0.925906 0.000000 0.000000
    15 0.957766 -2.746780 -0.090302 0.034253 -0.159185 -0.078874
    16 -0.033420 -1.397129 -0.011257 -0.519373 -0.043396 -0.075732
    17 -0.022360 -0.957436 0.018784 -0.277373 0.000000 0.000000
    18 -1.180681 -2.507217 -0.193859 -0.671429 -0.081516 -0.261329
    19 -0.024967 -1.123934 0.017597 -1.881775 0.000000 0.000001
    20 -0.020057 -0.890968 0.010090 -0.677843 0.000000 0.000000
    21 0.583510 -1.197277 0.185379 0.180209 -0.812077 -1.291294
    22 1.535927 0.010246 0.005009 -0.002964 -0.012979 -0.506650
    23 1.100771 0.004527 -0.010679 -0.014337 0.007572 -0.908779
    24 0.120153 -0.050270 -0.054489 0.287569 3.110905 1.561085
    25 -0.516870 -12.208035 -11.224282 -1.199547 -5.086433 -0.350912
    26 0.096944 -8.450418 -0.009365 0.162466 -1.145423 -0.075760
    27 0.447953 -2.798986 -0.200443 -0.611959 -0.067958 0.142839
    28 -0.032909 -1.480204 0.004940 -1.340051 0.000000 0.000002
    29 -0.027022 -1.076920 -0.020210 -0.581968 0.000000 0.000000
    30 -0.249534 -2.846964 -0.174213 -0.128719 0.012411 0.088176
    31 0.043235 -1.683941 0.096012 -1.570874 0.002823 -0.000167
    32 0.031729 -1.160830 0.058838 -0.744926 0.000642 0.008372
    33 -0.963866 -2.785145 -0.085350 0.029515 0.160514 0.097512
    34 0.028479 -1.403067 0.006271 -0.585006 0.000000 0.000000
    35 0.021413 -0.957781 0.020046 -1.174510 0.000000 0.000000
    36 1.164475 -2.543940 -0.170330 -0.872460 -0.190582 0.231608
    37 0.024032 -1.129042 0.017807 -0.709841 0.000000 0.000001
    38 0.014898 -0.883989 -0.019848 -0.845487 0.000000 0.000000
    39 -0.586770 -1.264477 0.200161 0.047104 -0.423681 -2.719430
    40 1.522835 0.058681 0.016848 0.001410 0.008985 0.611653
    41 1.117947 0.048424 -0.005766 0.000620 -0.025174 0.030720
    42 -0.139399 -0.111698 0.014397 0.653645 -0.030687 1.580508
    43 -1.393470 8.839177 -0.239433 1.580804 -0.005023 -1.566847
  time 21
    0 -0.999830 0.882809 1.060574 -0.025704 0.000000 -0.000034
    1 9.213061 3.757194 -9.113669 -0.149965 -1.612728 -0.045697
    2 -0.071918 -8.498731 -0.104137 0.151252 0.282508 0.057556
    3 2.756743 -2.082877 1.536135 -0.053752 0.246035 3.130544
    4 -0.237589 6.949795 0.000000 0.000000 0.000000 0.000000
    5 -0.722473 4.836429 0.000000 0.000000 0.000000 1.570796
    6 -0.982018 11.724739 0.000000 0.000000 0.000000 1.570796
    7 1.922158 2.816859 -0.000001 0.000000 0.000000 0.000000
    8 1.257180 8.762585 -0.153713 -1.570562 0.002683 -1.566807
    9 -0.488518 -2.755602 -0.228260 -0.871614 -0.202562 -0.209541
    10 0.039887 -1.479790 0.029854 -1.884480 0.000000 0.000001
    11 0.028786 -1.075731 -0.023109 -0.606348 0.000000 0.000000
    12 0.250027 -2.820665 -0.238396 -0.797118 -0.167517 -0.114938
    13 -0.049759 -1.680544 0.100479 -1.760238 0.000000 -0.000002
    14 -0.034142 -1.148312 0.084782 -0.925906 0.000000 0.000000
    15 0.957766 -2.746780 -0.090302 0.034253 -0.159185 -0.078874
    16 -0.033420 -1.397129 -0.011257 -0.519373 -0.043396 -0.075732
    17 -0.022360 -0.957436 0.018784 -0.277373 0.000000 0.000000
    18 -1.180681 -2.507217 -0.193859 -0.671429 -0.081516 -0.261329
    19 -0.024967 -1.123934 0.017597 -1.881775 0.000000 0.000001
    20 -0.020057 -0.890968 0.010090 -0.677843 0.000000 0.000000
    21 0.583510 -1.197277 0.185379 0.180209 -0.812077 -1.291294
    22 1.535927 0.010246 0.005009 -0.002964 -0.012979 -0.506650
    23 1.100771 0.004527 -0.010679 -0.014337 0.007572 -0.908779
    24 0.120153 -0.050270 -0.054489 0.287569 3.110905 1.561085
    25 -0.516870 -12.208035 -11.224282 -1.199547 -5.086433 -0.350912
    26 0.096944 -8.450418 -0.009365 0.162466 -1.145423 -0.075760
    27 0.447953 -2.798986 -0.200443 -0.611959 -0.067958 0.142839
    28 -0.032909 -1.480204 0.004940 -1.340051 0.000000 0.000002
    29 -0.027022 -1.076920 -0.020210 -0.581968 0.000000 0.000000
    30 -0.249534 -2.846964 -0.174213 -0.128719 0.012411 0.088176
    31 0.043235 -1.683941 0.096012 -1.570874 0.002823 -0.000167
    32 0.031729 -1.160830 0.058838 -0.744926 0.000642 0.008372
    33 -0.963866 -2.785145 -0.085350 0.029515 0.160514 0.097512
    34 0.028479 -1.403067 0.006271 -0.585006 0.000000 0.000000
    35 0.021413 -0.957781 0.020046 -1.174510 0.000000 0.000000
    36 1.164475 -2.543940 -0.170330 -0.872460 -0.190582 0.231608
    37 0.024032 -1.129042 0.017807 -0.709841 0.000000 0.000001
    38 0.014898 -0.883989 -0.019848 -0.845487 0.000000 0.000000
    39 -0.586770 -1.264477 0.200161 0.040597 -0.424355 -2.703654
    40 1.522835 0.058681 0.016848 0.001410 0.008985 0.594073
    41 1.117947 0.048424 -0.005766 0.001063 -0.025174 0.013126
    42 -0.139399 -0.111698 0.014397 0.653645 -0.030687 1.580508
    43 -1.393470 8.839177 -0.239433 1.580804 -0.005023 -1.566847
  time 22
    0 -0.999830 0.667959 0.970728 -0.022564 0.000000 -0.000034
    1 9.213061 3.757194 -9.113669 -0.149965 -1.612728 -0.045697
    2 -0.071918 -8.498731 -0.104137 0.151252 0.282508 0.057556
    3 2.756743 -2.082877 1.536135 -0.053752 0.246035 3.130544
    4 -0.237589 6.949795 0.000000 0.000000 0.000000 0.000000
    5 -0.722473 4.836429 0.000000 0.000000 0.000000 1.570796
    6 -0.982018 11.724739 0.000000 0.000000 0.000000 1.570796
    7 1.922158 2.816859 -0.000001 0.000000 0.000000 0.000000
    8 1.257180 8.762585 -0.153713 -1.570562 0.002683 -1.566807
    9 -0.488518 -2.755602 -0.228260 -0.871614 -0.202562 -0.209541
    10 0.039887 -1.479790 0.029854 -1.884480 0.000000 0.000001
    11 0.028786 -1.075731 -0.023109 -0.606348 0.000000 0.000000
    12 0.250027 -2.820665 -0.238396 -0.797118 -0.167517 -0.114938
    13 -0.049759 -1.680544 0.100479 -1.760238 0.000000 -0.000002
    14 -0.034142 -1.148312 0.084782 -0.925879 0.000000 0.000000
    15 0.957766 -2.746780 -0.090302 0.034253 -0.159185 -0.078874
    16 -0.033420 -1.397129 -0.011257 -0.519373 -0.043396 -0.075732
    17 -0.022360 -0.957436 0.018784 -0.277373 0.000000 0.000000
    18 -1.180681 -2.507217 -0.193859 -0.671429 -0.081516 -0.261329
    19 -0.024967 -1.123934 0.017597 -1.881775 0.000000 0.000001
    20 -0.020057 -0.890968 0.010090 -0.677843 0.000000 0.000000
    21 0.583510 -1.197277 0.185379 0.180209 -0.812077 -1.291294
    22 1.535927 0.010246 0.005009 -0.002964 -0.012979 -0.506650
    23 1.100771 0.004527 -0.010679 -0.014337 0.007572 -0.908779
    24 0.120153 -0.050270 -0.054489 0.287569 3.110905 1.561085
    25 -0.516870 -12.208035 -11.224282 -1.199547 -5.086433 -0.350912
    26 0.096944 -8.450418 -0.009365 0.162466 -1.145423 -0.075760
    27 0.447953 -2.798986 -0.200443 -0.611959 -0.067958 0.142839
    28 -0.032909 -1.480204 0.004940 -1.340051 0.000000 0.000002
    29 -0.027022 -1.076920 -0.020210 -0.581968 0.000000 0.000000
    30 -0.249534 -2.846964 -0.174213 -0.128719 0.012411 0.088176
    31 0.043235 -1.683941 0.096012 -1.570874 0.002823 -0.000167
    32 0.031729 -1.160830 0.058838 -0.744926 0.000642 0.008372
    33 -0.963866 -2.785145 -0.085350 0.029515 0.160514 0.097512
    34 0.028479 -1.403067 0.006271 -0.585006 0.000000 0.000000
    35 0.021413 -0.957781 0.020046 -1.174510 0.000000 0.000000
    36 1.164475 -2.543940 -0.170330 -0.872460 -0.190582 0.231608
    37 0.024032 -1.129042 0.017807 -0.709841 0.000000 0.000001
    38 0.014898 -0.883989 -0.019848 -0.845487 0.000000 0.000000
    39 -0.586770 -1.264477 0.200161 0.034943 -0.424956 -2.689864
    40 1.522835 0.058681 0.016848 0.001410 0.008985 0.586077
    41 1.117947 0.048424 -0.005766 0.001267 -0.025174 0.005115
    42 -0.139399 -0.111698 0.014397 0.653645 -0.030687 1.580508
    43 -1.393470 8.839177 -0.239433 1.580804 -0.005023 -1.566847
  time 23
    0 -0.999830 0.507797 0.939477 -0.019004 0.000000 -0.000034
    1 9.213061 3.757194 -9.113669 -0.149965 -1.612728 -0.045697
    2 -0.071918 -8.498731 -0.104137 0.151252 0.282508 0.057556
    3 2.756743 -2.082877 1.536135 -0.053752 0.246035 3.130544
    4 -0.237589 6.949795 0.000000 0.000000 0.000000 0.000000
    5 -0.722473 4.836429 0.000000 0.000000 0.000000 1.570796
    6 -0.982018 11.724739 0.000000 0.000000 0.000000 1.570796
    7 1.922158 2.816859 -0.000001 0.000000 0.000000 0.000000
    8 1.257180 8.762585 -0.153713 -1.570562 0.002683 -1.566807
    9 -0.488518 -2.755602 -0.228260 -0.871614 -0.202562 -0.209541
    10 0.039887 -1.479790 0.029854 -1.884480 0.000000 0.000001
    11 0.028786 -1.075731 -0.023109 -0.606348 0.000000 0.000000
    12 0.250027 -2.820665 -0.238396 -0.797118 -0.167517 -0.114938
    13 -0.049759 -1.680544 0.100479 -1.760238 0.000000 -0.000002
    14 -0.034142 -1.148312 0.084782 -0.925879 0.000000 0.000000
    15 0.957766 -2.746780 -0.090302 0.034253 -0.159185 -0.078874
    16 -0.033420 -1.397129 -0.011257 -0.519373 -0.043396 -0.075732
    17 -0.022360 -0.957436 0.018784 -0.277373 0.000000 0.000000
    18 -1.180681 -2.507217 -0.193859 -0.671429 -0.081516 -0.261329
    19 -0.024967 -1.123934 0.017597 -1.881775 0.000000 0.000001
    20 -0.020057 -0.890968 0.010090 -0.677843 0.000000 0.000000
    21 0.583510 -1.197277 0.185379 0.180209 -0.812077 -1.291294
    22 1.535927 0.010246 0.005009 -0.002964 -0.012979 -0.506650
    23 1.100771 0.004527 -0.010679 -0.014337 0.007572 -0.908779
    24 0.120153 -0.050270 -0.054489 0.287569 3.110905 1.561085
    25 -0.516870 -12.208035 -11.224282 -1.199547 -5.086433 -0.350912
    26 0.096944 -8.450418 -0.009365 0.162466 -1.145423 -0.075760
    27 0.447953 -2.798986 -0.200443 -0.611959 -0.067958 0.142839
    28 -0.032909 -1.480204 0.004940 -1.340051 0.000000 0.000002
    29 -0.027022 -1.076920 -0.020210 -0.581968 0.000000 0.000000
    30 -0.249534 -2.846964 -0.174213 -0.128719 0.012411 0.088176
    31 0.043235 -1.683941 0.096012 -1.570874 0.002823 -0.000167
    32 0.031729 -1.160830 0.058838 -0.744926 0.000642 0.008372
    33 -0.963866 -2.785145 -0.085350 0.029515 0.160514 0.097512
    34 0.028479 -1.403067 0.006271 -0.585006 0.000000 0.000000
    35 0.021413 -0.957781 0.020046 -1.174510 0.000000 0.000000
    36 1.164475 -2.543940 -0.170330 -0.872460 -0.190582 0.231608
    37 0.024032 -1.129042 0.017807 -0.709841 0.000000 0.000001
    38 0.014898 -0.883989 -0.019848 -0.845487 0.000000 0.000000
    39 -0.586770 -1.264477 0.200161 0.030928 -0.425375 -2.680121
    40 1.522835 0.058681 0.016848 0.001410 0.008985 0.586077
    41 1.117947 0.048424 -0.005766 0.001267 -0.025174 0.005115
    42 -0.139399 -0.111698 0.014397 0.653645 -0.030687 1.580508
    43 -1.393470 8.839177 -0.239433 1.580804 -0.005023 -1.566847
  time 24
    0 -0.999830 0.398419 0.986353 -0.015220 0.000000 -0.000034
    1 9.213061 3.757194 -9.113669 -0.149965 -1.612728 -0.045697
    2 -0.071918 -8.498731 -0.104137 0.151252 0.282508 0.057556
    3 2.756743 -2.082877 1.536135 -0.053752 0.246035 3.130544
    4 -0.237589 6.949795 0.000000 0.000000 0.000000 0.000000
    5 -0.722473 4.836429 0.000000 0.000000 0.000000 1.570796
    6 -0.982018 11.724739 0.000000 0.000000 0.000000 1.570796
    7 1.922158 2.816859 -0.000001 0.000000 0.000000 0.000000
    8 1.257180 8.762585 -0.153713 -1.570562 0.002683 -1.566807
    9 -0.488518 -2.755602 -0.228260 -0.871614 -0.202562 -0.209541
    10 0.039887 -1.479790 0.029854 -1.884480 0.000000 0.000001
    11 0.028786 -1.075731 -0.023109 -0.606348 0.000000 0.000000
    12 0.250027 -2.820665 -0.238396 -0.797118 -0.167517 -0.114938
    13 -0.049759 -1.680544 0.100479 -1.760238 0.000000 -0.000002
    14 -0.034142 -1.148312 0.084782 -0.925879 0.000000 0.000000
    15 0.957766 -2.746780 -0.090302 0.034253 -0.159185 -0.078874
    16 -0.033420 -1.397129 -0.011257 -0.519373 -0.043396 -0.075732
    17 -0.022360 -0.957436 0.018784 -0.277373 0.000000 0.000000
    18 -1.180681 -2.507217 -0.193859 -0.671429 -0.081516 -0.261329
    19 -0.024967 -1.123934 0.017597 -1.881775 0.000000 0.000001
    20 -0.020057 -0.890968 0.010090 -0.677843 0.000000 0.000000
    21 0.583510 -1.197277 0.185379 0.180209 -0.812077 -1.291294
    22 1.535927 0.010246 0.005009 -0.002964 -0.012979 -0.506650
    23 1.100771 0.004527 -0.010679 -0.014337 0.007572 -0.908779
    24 0.120153 -0.050270 -0.054489 0.287569 3.110905 1.561085
    25 -0.516870 -12.208035 -11.224282 -1.199547 -5.086433 -0.350912
    26 0.096944 -8.450418 -0.009365 0.162466 -1.145423 -0.075760
    27 0.447953 -2.798986 -0.200443 -0.611959 -0.067958 0.142839
    28 -0.032909 -1.480204 0.004940 -1.340051 0.000000 0.000002
    29 -0.027022 -1.076920 -0.020210 -0.581968 0.000000 0.000000
    30 -0.249534 -2.846964 -0.174213 -0.128719 0.012411 0.088176
    31 0.043235 -1.683941 0.096012 -1.570874 0.002823 -0.000167
    32 0.031729 -1.160830 0.058838 -0.744926 0.000642 0.008372
    33 -0.963866 -2.785145 -0.085350 0.029515 0.160514 0.097512
    34 0.028479 -1.403067 0.006271 -0.585006 0.000000 0.000000
    35 0.021413 -0.957781 0.020046 -1.174510 0.000000 0.000000
    36 1.164475 -2.543940 -0.170330 -0.872460 -0.190582 0.231608
    37 0.024032 -1.129042 0.017807 -0.709841 0.000000 0.000001
    38 0.014898 -0.883989 -0.019848 -0.845487 0.000000 0.000000
    39 -0.586770 -1.264477 0.200161 0.029405 -0.425539 -2.676430
    40 1.522835 0.058681 0.016848 0.001410 0.008985 0.586077
    41 1.117947 0.048424 -0.005766 0.001267 -0.025174 0.005115
    42 -0.139399 -0.111698 0.014397 0.653645 -0.030687 1.580508
    43 -1.393470 8.839177 -0.239433 1.580804 -0.005023 -1.566847
  time 25
    0 -0.999830 0.292947 1.107451 -0.011451 0.000000 -0.000034
    1 9.213061 3.757194 -9.113669 -0.149965 -1.612728 -0.045697
    2 -0.071918 -8.498731 -0.104137 0.151252 0.282508 0.057556
    3 2.756743 -2.082877 1.536135 -0.053752 0.246035 3.130544
    4 -0.237589 6.949795 0.000000 0.000000 0.000000 0.000000
    5 -0.722473 4.836429 0.000000 0.000000 0.000000 1.570796
    6 -0.982018 11.724739 0.000000 0.000000 0.000000 1.570796
    7 1.922158 2.816859 -0.000001 0.000000 0.000000 0.000000
    8 1.257180 8.762585 -0.153713 -1.570562 0.002683 -1.566807
    9 -0.488518 -2.755602 -0.228260 -0.871614 -0.202562 -0.209541
    10 0.039887 -1.479790 0.029854 -1.884480 0.000000 0.000001
    11 0.028786 -1.075731 -0.023109 -0.606348 0.000000 0.000000
    12 0.250027 -2.820665 -0.238396 -0.797118 -0.167517 -0.114938
    13 -0.049759 -1.680544 0.100479 -1.760238 0.000000 -0.000002
    14 -0.034142 -1.148312 0.084782 -0.925879 0.000000 0.000000
    15 0.957766 -2.746780 -0.090302 0.034253 -0.159185 -0.078874
    16 -0.033420 -1.397129 -0.011257 -0.519373 -0.043396 -0.075732
    17 -0.022360 -0.957436 0.018784 -0.277373 0.000000 0.000000
    18 -1.180681 -2.507217 -0.193859 -0.671429 -0.081516 -0.261329
    19 -0.024967 -1.123934 0.017597 -1.881775 0.000000 0.000001
    20 -0.020057 -0.890968 0.010090 -0.677843 0.000000 0.000000
    21 0.583510 -1.197277 0.185379 0.180209 -0.812077 -1.291294
    22 1.535927 0.010246 0.005009 -0.002964 -0.012979 -0.506650
    23 1.100771 0.004527 -0.010679 -0.014337 0.007572 -0.908779
    24 0.120153 -0.050270 -0.054489 0.287569 3.110905 1.561085
    25 -0.516870 -12.208035 -11.224282 -1.199547 -5.086433 -0.350912
    26 0.096944 -8.450418 -0.009365 0.162466 -1.145423 -0.075760
    27 0.447953 -2.798986 -0.200443 -0.611959 -0.067958 0.142839
    28 -0.032909 -1.480204 0.004940 -1.340051 0.000000 0.000002
    29 -0.027022 -1.076920 -0.020210 -0.581968 0.000000 0.000000
    30 -0.249534 -2.846964 -0.174213 -0.128719 0.012411 0.088176
    31 0.043235 -1.683941 0.096012 -1.570874 0.002823 -0.000167
    32 0.031729 -1.160830 0.058838 -0.744926 0.000642 0.008372
    33 -0.963866 -2.785145 -0.085350 0.029515 0.160514 0.097512
    34 0.028479 -1.403067 0.006271 -0.585006 0.000000 0.000000
    35 0.021413 -0.957781 0.020046 -1.174510 0.000000 0.000000
    36 1.164475 -2.543940 -0.170330 -0.872460 -0.190582 0.231608
    37 0.024032 -1.129042 0.017807 -0.709841 0.000000 0.000001
    38 0.014898 -0.883989 -0.019848 -0.845487 0.000000 0.000000
    39 -0.586770 -1.264477 0.200161 0.029405 -0.425539 -2.676430
    40 1.522835 0.058681 0.016848 0.001410 0.008985 0.586077
    41 1.117947 0.048424 -0.005766 0.001267 -0.025174 0.005115
    42 -0.139399 -0.111698 0.014397 0.653645 -0.030687 1.580508
    43 -1.393470 8.839177 -0.239433 1.580804 -0.005023 -1.566847
  time 26
    0 -0.999830 0.199194 1.275424 -0.007892 0.000000 -0.000034
    1 9.213061 3.757194 -9.113669 -0.149965 -1.612728 -0.045697
    2 -0.071918 -8.498731 -0.104137 0.151252 0.282508 0.057556
    3 2.756743 -2.082877 1.536135 -0.053752 0.246035 3.130544
    4 -0.237589 6.949795 0.000000 0.000000 0.000000 0.000000
    5 -0.722473 4.836429 0.000000 0.000000 0.000000 1.570796
    6 -0.982018 11.724739 0.000000 0.000000 0.000000 1.570796
    7 1.922158 2.816859 -0.000001 0.000000 0.000000 0.000000
    8 1.257180 8.762585 -0.153713 -1.570562 0.002683 -1.566807
    9 -0.488518 -2.755602 -0.228260 -0.871614 -0.202562 -0.209541
    10 0.039887 -1.479790 0.029854 -1.884480 0.000000 0.000001
    11 0.028786 -1.075731 -0.023109 -0.606348 0.000000 0.000000
    12 0.250027 -2.820665 -0.238396 -0.797118 -0.167517 -0.114938
    13 -0.049759 -1.680544 0.100479 -1.760238 0.000000 -0.000002
    14 -0.034142 -1.148312 0.084782 -0.925879 0.000000 0.000000
    15 0.957766 -2.746780 -0.090302 0.034253 -0.159185 -0.078874
    16 -0.033420 -1.397129 -0.011257 -0.519373 -0.043396 -0.075732
    17 -0.022360 -0.957436 0.018784 -0.277373 0.000000 0.000000
    18 -1.180681 -2.507217 -0.193859 -0.671429 -0.081516 -0.261329
    19 -0.024967 -1.123934 0.017597 -1.881775 0.000000 0.000001
    20 -0.020057 -0.890968 0.010090 -0.677843 0.000000 0.000000
    21 0.583510 -1.197277 0.185379 0.180209 -0.812077 -1.291294
    22 1.535927 0.010246 0.005009 -0.002964 -0.012979 -0.506650
    23 1.100771 0.004527 -0.010679 -0.014337 0.007572 -0.908779
    24 0.120153 -0.050270 -0.054489 0.287569 3.110905 1.561085
    25 -0.516870 -12.208035 -11.224282 -1.199547 -5.086433 -0.350912
    26 0.096944 -8.450418 -0.009365 0.162466 -1.145423 -0.075760
    27 0.447953 -2.798986 -0.200443 -0.611959 -0.067958 0.142839
    28 -0.032909 -1.480204 0.004940 -1.340051 0.000000 0.000002
    29 -0.027022 -1.076920 -0.020210 -0.581968 0.000000 0.000000
    30 -0.249534 -2.846964 -0.174213 -0.128719 0.012411 0.088176
    31 0.043235 -1.683941 0.096012 -1.570874 0.002823 -0.000167
    32 0.031729 -1.160830 0.058838 -0.744926 0.000642 0.008372
    33 -0.963866 -2.785145 -0.085350 0.029515 0.160514 0.097512
    34 0.028479 -1.403067 0.006271 -0.585006 0.000000 0.000000
    35 0.021413 -0.957781 0.020046 -1.174510 0.000000 0.000000
    36 1.164475 -2.543940 -0.170330 -0.872460 -0.190582 0.231608
    37 0.024032 -1.129042 0.017807 -0.709841 0.000000 0.000001
    38 0.014898 -0.883989 -0.019848 -0.845487 0.000000 0.000000
    39 -0.586770 -1.264477 0.200161 0.029405 -0.425539 -2.676430
    40 1.522835 0.058681 0.016848 0.001410 0.008985 0.586077
    41 1.117947 0.048424 -0.005766 0.001267 -0.025174 0.005115
    42 -0.139399 -0.111698 0.014397 0.653645 -0.030687 1.580508
    43 -1.393470 8.839177 -0.239433 1.580804 -0.005023 -1.566847
  time 27
    0 -0.999830 0.117161 1.459024 -0.004751 0.000000 -0.000034
    1 9.213061 3.757194 -9.113669 -0.149965 -1.612728 -0.045697
    2 -0.071918 -8.498731 -0.104137 0.151252 0.282508 0.057556
    3 2.756743 -2.082877 1.536135 -0.053752 0.246035 3.130544
    4 -0.237589 6.949795 0.000000 0.000000 0.000000 0.000000
    5 -0.722473 4.836429 0.000000 0.000000 0.000000 1.570796
    6 -0.982018 11.724739 0.000000 0.000000 0.000000 1.570796
    7 1.922158 2.816859 -0.000001 0.000000 0.000000 0.000000
    8 1.257180 8.762585 -0.153713 -1.570562 0.002683 -1.566807
    9 -0.488518 -2.755602 -0.228260 -0.871614 -0.202562 -0.209541
    10 0.039887 -1.479790 0.029854 -1.884480 0.000000 0.000001
    11 0.028786 -1.075731 -0.023109 -0.606348 0.000000 0.000000
    12 0.250027 -2.820665 -0.238396 -0.797118 -0.167517 -0.114938
    13 -0.049759 -1.680544 0.100479 -1.760238 0.000000 -0.000002
    14 -0.034142 -1.148312 0.084782 -0.925906 0.000000 0.000000
    15 0.957766 -2.746780 -0.090302 0.034253 -0.159185 -0.078874
    16 -0.033420 -1.397129 -0.011257 -0.519373 -0.043396 -0.075732
    17 -0.022360 -0.957436 0.018784 -0.277373 0.000000 0.000000
    18 -1.180681 -2.507217 -0.193859 -0.671429 -0.081516 -0.261329
    19 -0.024967 -1.123934 0.017597 -1.881775 0.000000 0.000001
    20 -0.020057 -0.890968 0.010090 -0.677843 0.000000 0.000000
    21 0.583510 -1.197277 0.185379 0.180209 -0.812077 -1.291294
    22 1.535927 0.010246 0.005009 -0.002964 -0.012979 -0.506650
    23 1.100771 0.004527 -0.010679 -0.014337 0.007572 -0.908779
    24 0.120153 -0.050270 -0.054489 0.287569 3.110905 1.561085
    25 -0.516870 -12.208035 -11.224282 -1.199547 -5.086433 -0.350912
    26 0.096944 -8.450418 -0.009365 0.162466 -1.145423 -0.075760
    27 0.447953 -2.798986 -0.200443 -0.611959 -0.067958 0.142839
    28 -0.032909 -1.480204 0.004940 -1.340051 0.000000 0.000002
    29 -0.027022 -1.076920 -0.020210 -0.581968 0.000000 0.000000
    30 -0.249534 -2.846964 -0.174213 -0.128719 0.012411 0.088176
    31 0.043235 -1.683941 0.096012 -1.570874 0.002823 -0.000167
    32 0.031729 -1.160830 0.058838 -0.744926 0.000642 0.008372
    33 -0.963866 -2.785145 -0.085350 0.029515 0.160514 0.097512
    34 0.028479 -1.403067 0.006271 -0.585006 0.000000 0.000000
    35 0.021413 -0.957781 0.020046 -1.174510 0.000000 0.000000
    36 1.164475 -2.543940 -0.170330 -0.872460 -0.190582 0.231608
    37 0.024032 -1.129042 0.017807 -0.709841 0.000000 0.000001
    38 0.014898 -0.883989 -0.019848 -0.845487 0.000000 0.000000
    39 -0.586770 -1.264477 0.200161 0.029405 -0.425539 -2.676430
    40 1.522835 0.058681 0.016848 0.001410 0.008985 0.586077
    41 1.117947 0.048424 -0.005766 0.001267 -0.025174 0.005115
    42 -0.139399 -0.111698 0.014397 0.653645 -0.030687 1.580508
    43 -1.393470 8.839177 -0.239433 1.580804 -0.005023 -1.566847
  time 28
    0 -0.999830 0.054659 1.626998 -0.002255 0.000000 -0.000034
    1 9.213061 3.757194 -9.113669 -0.149965 -1.612728 -0.045697
    2 -0.071918 -8.498731 -0.104137 0.151252 0.282508 0.057556
    3 2.756743 -2.082877 1.536135 -0.053752 0.246035 3.130544
    4 -0.237589 6.949795 0.000000 0.000000 0.000000 0.000000
    5 -0.722473 4.836429 0.000000 0.000000 0.000000 1.570796
    6 -0.982018 11.724739 0.000000 0.000000 0.000000 1.570796
    7 1.922158 2.816859 -0.000001 0.000000 0.000000 0.000000
    8 1.257180 8.762585 -0.153713 -1.570562 0.002683 -1.566807
    9 -0.488518 -2.755602 -0.228260 -0.871614 -0.202562 -0.209541
    10 0.039887 -1.479790 0.029854 -1.884480 0.000000 0.000001
    11 0.028786 -1.075731 -0.023109 -0.606348 0.000000 0.000000
    12 0.250027 -2.820665 -0.238396 -0.797118 -0.167517 -0.114938
    13 -0.049759 -1.680544 0.100479 -1.760238 0.000000 -0.000002
    14 -0.034142 -1.148312 0.084782 -0.925879 0.000000 0.000000
    15 0.957766 -2.746780 -0.090302 0.034253 -0.159185 -0.078874
    16 -0.033420 -1.397129 -0.011257 -0.519373 -0.043396 -0.075732
    17 -0.022360 -0.957436 0.018784 -0.277373 0.000000 0.000000
    18 -1.180681 -2.507217 -0.193859 -0.671429 -0.081516 -0.261329
    19 -0.024967 -1.123934 0.017597 -1.881775 0.000000 0.000001
    20 -0.020057 -0.890968 0.010090 -0.677843 0.000000 0.000000
    21 0.583510 -1.197277 0.185379 0.180209 -0.812077 -1.291294
    22 1.535927 0.010246 0.005009 -0.002964 -0.012979 -0.506650
    23 1.100771 0.004527 -0.010679 -0.014337 0.007572 -0.908779
    24 0.120153 -0.050270 -0.054489 0.287569 3.110905 1.561085
    25 -0.516870 -12.208035 -11.224282 -1.199547 -5.086433 -0.350912
    26 0.096944 -8.450418 -0.009365 0.162466 -1.145423 -0.075760
    27 0.447953 -2.798986 -0.200443 -0.611959 -0.067958 0.142839
    28 -0.032909 -1.480204 0.004940 -1.340051 0.000000 0.000002
    29 -0.027022 -1.076920 -0.020210 -0.581968 0.000000 0.000000
    30 -0.249534 -2.846964 -0.174213 -0.128719 0.012411 0.088176
    31 0.043235 -1.683941 0.096012 -1.570874 0.002823 -0.000167
    32 0.031729 -1.160830 0.058838 -0.744926 0.000642 0.008372
    33 -0.963866 -2.785145 -0.085350 0.029515 0.160514 0.097512
    34 0.028479 -1.403067 0.006271 -0.585006 0.000000 0.000000
    35 0.021413 -0.957781 0.020046 -1.174510 0.000000 0.000000
    36 1.164475 -2.543940 -0.170330 -0.872460 -0.190582 0.231608
    37 0.024032 -1.129042 0.017807 -0.709841 0.000000 0.000001
    38 0.014898 -0.883989 -0.019848 -0.845487 0.000000 0.000000
    39 -0.586770 -1.264477 0.200161 0.029405 -0.425539 -2.676430
    40 1.522835 0.058681 0.016848 0.001410 0.008985 0.586077
    41 1.117947 0.048424 -0.005766 0.001267 -0.025174 0.005115
    42 -0.139399 -0.111698 0.014397 0.653645 -0.030687 1.580508
    43 -1.393470 8.839177 -0.239433 1.580804 -0.005023 -1.566847
  time 29
    0 -0.999830 0.015595 1.752001 -0.000596 0.000000 -0.000034
    1 9.213061 3.757194 -9.113669 -0.149965 -1.612728 -0.045697
    2 -0.071918 -8.498731 -0.104137 0.151252 0.282508 0.057556
    3 2.756743 -2.082877 1.536135 -0.053752 0.246035 3.130544
    4 -0.237589 6.949795 0.000000 0.000000 0.000000 0.000000
    5 -0.722473 4.836429 0.000000 0.000000 0.000000 1.570796
    6 -0.982018 11.724739 0.000000 0.000000 0.000000 1.570796
    7 1.922158 2.816859 -0.000001 0.000000 0.000000 0.000000
    8 1.257180 8.762585 -0.153713 -1.570562 0.002683 -1.566807
    9 -0.488518 -2.755602 -0.228260 -0.871614 -0.202562 -0.209541
    10 0.039887 -1.479790 0.029854 -1.884480 0.000000 0.000001
    11 0.028786 -1.075731 -0.023109 -0.606348 0.000000 0.000000
    12 0.250027 -2.820665 -0.238396 -0.797118 -0.167517 -0.114938
    13 -0.049759 -1.680544 0.100479 -1.760238 0.000000 -0.000002
    14 -0.034142 -1.148312 0.084782 -0.925906 0.000000 0.000000
    15 0.957766 -2.746780 -0.090302 0.034253 -0.159185 -0.078874
    16 -0.033420 -1.397129 -0.011257 -0.519373 -0.043396 -0.075732
    17 -0.022360 -0.957436 0.018784 -0.277373 0.000000 0.000000
    18 -1.180681 -2.507217 -0.193859 -0.671429 -0.081516 -0.261329
    19 -0.024967 -1.123934 0.017597 -1.881775 0.000000 0.000001
    20 -0.020057 -0.890968 0.010090 -0.677843 0.000000 0.000000
    21 0.583510 -1.197277 0.185379 0.180209 -0.812077 -1.291294
    22 1.535927 0.010246 0.005009 -0.002964 -0.012979 -0.506650
    23 1.100771 0.004527 -0.010679 -0.014337 0.007572 -0.908779
    24 0.120153 -0.050270 -0.054489 0.287569 3.110905 1.561085
    25 -0.516870 -12.208035 -11.224282 -1.199547 -5.086433 -0.350912
    26 0.096944 -8.450418 -0.009365 0.162466 -1.145423 -0.075760
    27 0.447953 -2.798986 -0.200443 -0.611959 -0.067958 0.142839
    28 -0.032909 -1.480204 0.004940 -1.340051 0.000000 0.000002
    29 -0.027022 -1.076920 -0.020210 -0.581968 0.000000 0.000000
    30 -0.249534 -2.846964 -0.174213 -0.128719 0.012411 0.088176
    31 0.043235 -1.683941 0.096012 -1.570874 0.002823 -0.000167
    32 0.031729 -1.160830 0.058838 -0.744926 0.000642 0.008372
    33 -0.963866 -2.785145 -0.085350 0.029515 0.160514 0.097512
    34 0.028479 -1.403067 0.006271 -0.585006 0.000000 0.000000
    35 0.021413 -0.957781 0.020046 -1.174510 0.000000 0.000000
    36 1.164475 -2.543940 -0.170330 -0.872460 -0.190582 0.231608
    37 0.024032 -1.129042 0.017807 -0.709841 0.000000 0.000001
    38 0.014898 -0.883989 -0.019848 -0.845487 0.000000 0.000000
    39 -0.586770 -1.264477 0.200161 0.029405 -0.425539 -2.676430
    40 1.522835 0.058681 0.016848 0.001410 0.008985 0.586077
    41 1.117947 0.048424 -0.005766 0.001267 -0.025174 0.005115
    42 -0.139399 -0.111698 0.014397 0.653645 -0.030687 1.580508
    43 -1.393470 8.839177 -0.239433 1.580804 -0.005023 -1.566847
  time 30
    0 -0.999830 0.003876 1.798878 0.000000 0.000000 -0.000034
    1 9.213061 3.757194 -9.113669 -0.149965 -1.612728 -0.045697
    2 -0.071918 -8.498731 -0.104137 0.151252 0.282508 0.057556
    3 2.756743 -2.082877 1.536135 -0.053752 0.246035 3.130544
    4 -0.237589 6.949795 0.000000 0.000000 0.000000 0.000000
    5 -0.722473 4.836429 0.000000 0.000000 0.000000 1.570796
    6 -0.982018 11.724739 0.000000 0.000000 0.000000 1.570796
    7 1.922158 2.816859 -0.000001 0.000000 0.000000 0.000000
    8 1.257180 8.762585 -0.153713 -1.570562 0.002683 -1.566807
    9 -0.488518 -2.755602 -0.228260 -0.871614 -0.202562 -0.209541
    10 0.039887 -1.479790 0.029854 -1.884480 0.000000 0.000001
    11 0.028786 -1.075731 -0.023109 -0.606348 0.000000 0.000000
    12 0.250027 -2.820665 -0.238396 -0.797118 -0.167517 -0.114938
    13 -0.049759 -1.680544 0.100479 -1.760238 0.000000 -0.000002
    14 -0.034142 -1.148312 0.084782 -0.925879 0.000000 0.000000
    15 0.957766 -2.746780 -0.090302 0.034253 -0.159185 -0.078874
    16 -0.033420 -1.397129 -0.011257 -0.519373 -0.043396 -0.075732
    17 -0.022360 -0.957436 0.018784 -0.277373 0.000000 0.000000
    18 -1.180681 -2.507217 -0.193859 -0.671429 -0.081516 -0.261329
    19 -0.024967 -1.123934 0.017597 -1.881775 0.000000 0.000001
    20 -0.020057 -0.890968 0.010090 -0.677843 0.000000 0.000000
    21 0.583510 -1.197277 0.185379 0.180209 -0.812077 -1.291294
    22 1.535927 0.010246 0.005009 -0.002964 -0.012979 -0.506650
    23 1.100771 0.004527 -0.010679 -0.014337 0.007572 -0.908779
    24 0.120153 -0.050270 -0.054489 0.287569 3.110905 1.561085
    25 -0.516870 -12.208035 -11.224282 -1.199547 -5.086433 -0.350912
    26 0.096944 -8.450418 -0.009365 0.162466 -1.145423 -0.075760
    27 0.447953 -2.798986 -0.200443 -0.611959 -0.067958 0.142839
    28 -0.032909 -1.480204 0.004940 -1.340051 0.000000 0.000002
    29 -0.027022 -1.076920 -0.020210 -0.581968 0.000000 0.000000
    30 -0.249534 -2.846964 -0.174213 -0.128719 0.012411 0.088176
    31 0.043235 -1.683941 0.096012 -1.570874 0.002823 -0.000167
    32 0.031729 -1.160830 0.058838 -0.744926 0.000642 0.008372
    33 -0.963866 -2.785145 -0.085350 0.029515 0.160514 0.097512
    34 0.028479 -1.403067 0.006271 -0.585006 0.000000 0.000000
    35 0.021413 -0.957781 0.020046 -1.174510 0.000000 0.000000
    36 1.164475 -2.543940 -0.170330 -0.872460 -0.190582 0.231608
    37 0.024032 -1.129042 0.017807 -0.709841 0.000000 0.000001
    38 0.014898 -0.883989 -0.019848 -0.845487 0.000000 0.000000
    39 -0.586770 -1.264477 0.200161 0.029405 -0.425539 -2.676430
    40 1.522835 0.058681 0.016848 0.001410 0.008985 0.586077
    41 1.117947 0.048424 -0.005766 0.001267 -0.025174 0.005115
    42 -0.139399 -0.111698 0.014397 0.653645 -0.030687 1.580508
    43 -1.393470 8.839177 -0.239433 1.580804 -0.005023 -1.566847
end
