// Created by Crowbar 0.72

$modelname "tfa_cso/entities/medkit.mdl"

$CDMaterials "models\tfa_cso\entities\medkit\"

$scale 1.0

$bodygroup "studio"
{
	studio "healthkit_ref.smd"
}

$hbox 0 "smdimport" -7.38 -15.18 -3.3 7.38 15.18 3.3

$surfaceprop "item"

$collisionmodel "healthkit_ref.smd"
{
	$mass 8
}

$sequence "idle" {
	"w_medkit_anims\idle"
	fps 14
	loop
}
