// Created by Crowbar 0.58

$modelname "weapons/tfa_cso/w_cannon_fireball.mdl"

$bodygroup "studio"
{
	studio "cannon6_fireball_ref"
}

$collisionmodel "cannon6_fireball_ref"
{
	$mass 1
}

$CDMaterials "models\weapons\tfa_cso\black_dragon_cannon\"

$sequence "idle" {
	"cannon6_fireball_anims\idle"
	fps 30
}
