version 1
nodes
  0 "gunkata_root" -1
  1 "slide" 0
  2 "gunkata_knife" 0
  3 "kata_triger" 0
  4 "kata_2" 0
  5 "gunkata_root001" -1
  6 "slide001" 5
  7 "gunkata_megazine001" 5
  8 "gunkata_knife001" 5
  9 "kata_triger001" 5
  10 "kata_005" 5
  11 "fx01" -1
  12 "fx02" -1
  13 "trail01" -1
  14 "trail02" 13
  15 "root" -1
  16 "Bone01" 15
  17 "Bone_L_Upper" 16
  18 "Bone_Lefthand" 16
  19 "Bone13" 18
  20 "Bone14" 19
  21 "Bone15" 20
  22 "Bone17" 18
  23 "Bone18" 22
  24 "Bone19" 23
  25 "Bone21" 18
  26 "Bone22" 25
  27 "Bone23" 26
  28 "Bone09" 18
  29 "Bone10" 28
  30 "Bone11" 29
  31 "Bone05" 18
  32 "Bone06" 31
  33 "Bone07" 32
  34 "Bone_Se_Hand-L" 18
  35 "Bone04" 15
  36 "Bone_Righthand" 35
  37 "Bone39" 36
  38 "Bone40" 37
  39 "Bone41" 38
  40 "Bone35" 36
  41 "Bone36" 40
  42 "Bone37" 41
  43 "Bone31" 36
  44 "Bone32" 43
  45 "Bone33" 44
  46 "Bone43" 36
  47 "Bone44" 46
  48 "Bone45" 47
  49 "Bone27" 36
  50 "Bone28" 49
  51 "Bone29" 50
  52 "Bone_Se_Hand-R" 36
  53 "Bone_R_Upper" 35
end
skeleton
  time 0
    0 -8.176031 -13.945738 -8.988556 1.406557 -3.055398 -0.976837
    1 3.096915 -0.000001 -3.559005 -3.141592 -1.570451 0.000000
    2 -3.157606 0.000000 -1.771385 0.000000 0.000000 0.000000
    3 1.347458 0.000000 -0.036606 0.000001 -3.141592 0.000000
    4 2.980681 -0.000001 -3.026972 0.000000 0.000000 0.000000
    5 -3.886837 -16.028138 -5.531419 1.520891 -0.090417 0.057439
    6 3.096915 -0.000002 -3.559005 -3.141592 -1.570451 0.000000
    7 -2.772562 -0.000001 -3.715392 0.000000 -0.478942 0.000000
    8 -3.157606 0.000001 -1.771385 0.000000 0.000000 0.000000
    9 1.347458 0.000000 -0.036606 0.000001 -3.141592 0.000000
    10 2.980681 -0.000001 -3.026972 0.000000 0.000000 0.000000
    11 -1.194434 -14.267419 -4.402478 -0.113413 4.421411 -1.394064
    12 -1.194434 -14.267419 -4.402478 -0.113432 4.421411 -1.394064
    13 35.886223 -19.098476 -5.245475 0.986223 -1.014512 -2.903868
    14 0.000002 40.432781 -0.000010 0.000000 0.000000 0.000000
    15 -1.209821 2.932418 -4.390140 -0.174699 0.222770 -0.216143
    16 7.376451 -8.592683 -3.889725 6.125693 -3.021919 -0.768917
    17 8.468338 2.063161 -0.368563 1.567619 -3.119129 0.312582
    18 -0.138329 -8.432328 -0.201793 -0.405121 -0.091631 0.107490
    19 -0.488518 -2.755602 -0.228260 -0.741569 0.047688 -0.381112
    20 0.039887 -1.534479 0.014229 -1.576912 -0.011122 0.035284
    21 0.028786 -1.185109 -0.132487 -1.218645 -0.015041 0.026822
    22 0.250027 -2.820665 -0.238396 -0.290347 -0.034584 -0.286546
    23 -0.049759 -1.598510 0.034071 -1.543204 0.000539 -0.041457
    24 -0.034142 -1.171750 0.045718 -1.169340 0.006568 -0.030800
    25 0.957766 -2.746780 -0.090302 0.050684 -0.147200 0.082289
    26 -0.033420 -1.397129 -0.015163 -0.329486 0.006939 -0.015809
    27 -0.022360 -0.957436 0.003159 -0.558428 0.008018 -0.026857
    28 -1.180681 -2.507217 -0.193859 -0.806133 0.251644 -0.384136
    29 -0.024967 -1.127840 0.017597 -1.079262 0.002409 -0.046128
    30 -0.020057 -0.906594 0.029622 -1.001921 0.005369 -0.041023
    31 0.606948 -1.197277 0.185379 0.389364 -0.893516 -0.592401
    32 1.481238 -0.216323 0.067511 0.047551 -0.212834 -0.759113
    33 0.995299 -0.190791 0.047917 0.101937 -0.253896 -1.103464
    34 0.120153 -0.050270 -0.054489 0.287569 3.110905 1.561085
    35 -4.192764 -6.289886 -3.923278 0.099628 -3.505189 0.461839
    36 0.108663 -8.407448 -0.044522 -0.131276 -0.121387 0.176657
    37 0.447953 -2.798986 -0.200443 -0.735873 0.010098 0.254020
    38 -0.032909 -1.499736 0.028378 -1.435653 0.023358 -0.027754
    39 -0.027022 -1.135516 -0.020210 -1.403578 0.024892 -0.027133
    40 -0.249534 -2.846964 -0.174213 -0.314880 0.133839 0.144563
    41 0.043235 -1.656596 0.068667 -1.454198 -0.022453 0.008066
    42 0.031729 -1.137392 0.051025 -1.500061 -0.016580 0.008779
    43 -0.963866 -2.785145 -0.085350 0.178507 0.162851 -0.182687
    44 0.028479 -1.403067 -0.017167 -0.866992 -0.021392 -0.032095
    45 0.021413 -0.961687 0.020046 0.204098 0.000551 0.009024
    46 1.164475 -2.543940 -0.170330 -0.641109 -0.235285 0.274225
    47 0.024032 -1.148574 -0.009538 -1.265292 0.022124 0.061853
    48 0.014898 -0.903521 -0.012035 -1.137822 0.013722 0.056028
    49 -0.586770 -1.264477 0.200161 -0.316722 -1.034155 -2.553877
    50 1.561899 0.035243 0.016848 -0.016099 -0.006259 0.794269
    51 1.114041 0.044518 -0.005766 -0.025854 -0.034738 0.943911
    52 -0.139399 -0.111698 0.014397 0.285382 -0.030687 1.580508
    53 -3.506816 8.764956 -0.298029 1.581763 -0.011619 -1.315252
  time 1
    0 -8.008057 -13.605884 -10.176092 1.302491 -3.131173 -0.998177
    1 3.096915 -0.000001 -3.559005 -3.141592 -1.570451 0.000000
    2 -3.157606 0.000000 -1.771385 0.000000 0.000000 0.000000
    3 1.347458 0.000000 -0.036606 0.000001 -3.141592 0.000000
    4 2.980681 -0.000001 -3.026972 0.000000 0.000000 0.000000
    5 -7.336161 -14.610126 -5.285318 1.474530 -0.093123 0.022725
    6 3.096915 -0.000002 -7.035674 -3.141592 -1.570451 0.000000
    7 -2.772562 -0.000001 -3.715392 0.000000 -0.478942 0.000000
    8 -3.157606 0.000001 -1.771385 0.000000 0.000000 0.000000
    9 1.347458 0.000000 -0.036606 0.000001 -4.127218 0.000000
    10 2.980681 -0.000001 -3.026972 0.000000 0.525290 0.000000
    11 -4.628132 -9.439147 -4.558733 0.313612 4.375200 -1.440835
    12 -4.628132 -9.439147 -4.558733 0.732431 4.375200 -1.440835
    13 35.886223 -19.098476 -5.245475 0.986223 -1.014512 -2.903868
    14 0.000002 40.432781 -0.000010 0.000000 0.000000 0.000000
    15 -1.209821 2.932418 -4.390140 -0.174699 0.222770 -0.216143
    16 7.454578 -8.565339 -3.600654 6.020509 -3.088473 -0.802365
    17 8.515214 1.742839 -0.376376 1.568003 -3.118362 0.275426
    18 -0.138329 -8.432328 -0.201793 -0.405102 -0.091631 0.107490
    19 -0.488518 -2.755602 -0.228260 -0.741569 0.047688 -0.381112
    20 0.039887 -1.534479 0.014229 -1.576912 -0.011122 0.035284
    21 0.028786 -1.185109 -0.132487 -1.218645 -0.015041 0.026822
    22 0.250027 -2.820665 -0.238396 -0.290347 -0.034584 -0.286546
    23 -0.049759 -1.598510 0.034071 -1.543204 0.000539 -0.041457
    24 -0.034142 -1.171750 0.045718 -1.169340 0.006568 -0.030800
    25 0.957766 -2.746780 -0.090302 0.050684 -0.147200 0.082289
    26 -0.033420 -1.397129 -0.015163 -0.329486 0.006939 -0.015809
    27 -0.022360 -0.957436 0.003159 -0.558428 0.008018 -0.026857
    28 -1.180681 -2.507217 -0.193859 -0.806133 0.251644 -0.384136
    29 -0.024967 -1.127840 0.017597 -1.079262 0.002409 -0.046128
    30 -0.020057 -0.906594 0.029622 -1.001921 0.005369 -0.041023
    31 0.606948 -1.197277 0.185379 0.389364 -0.893516 -0.592401
    32 1.481238 -0.216323 0.067511 0.047551 -0.212834 -0.759113
    33 0.995299 -0.190791 0.047917 0.101937 -0.253896 -1.103464
    34 0.120153 -0.050270 -0.054489 0.287569 3.110905 1.561085
    35 -7.212387 -5.278136 -4.837368 0.135465 -3.495772 0.424923
    36 0.108663 -8.407448 -0.044522 -0.131276 -0.121387 0.176657
    37 0.447953 -2.798986 -0.200443 -0.735873 0.010098 0.254020
    38 -0.032909 -1.499736 0.028378 -1.435653 0.023358 -0.027754
    39 -0.027022 -1.135516 -0.020210 -1.403578 0.024892 -0.027133
    40 -0.249534 -2.846964 -0.174213 -0.314880 0.133839 0.144563
    41 0.043235 -1.656596 0.068667 -1.454198 -0.022453 0.008066
    42 0.031729 -1.137392 0.051025 -1.500061 -0.016580 0.008779
    43 -0.963866 -2.785145 -0.085350 0.023953 0.162540 -0.189710
    44 0.028479 -1.406973 -0.024980 -1.100087 -0.030980 -0.036445
    45 0.021413 -0.953875 0.020046 -0.362738 -0.005573 -0.015520
    46 1.164475 -2.543940 -0.170330 -0.641109 -0.235285 0.274225
    47 0.024032 -1.148574 -0.009538 -1.265292 0.022124 0.061853
    48 0.014898 -0.903521 -0.012035 -1.137822 0.013722 0.056028
    49 -0.586770 -1.264477 0.200161 -0.316722 -1.034155 -2.553877
    50 1.561899 0.035243 0.016848 -0.016099 -0.006259 0.794269
    51 1.114041 0.044518 -0.005766 -0.025854 -0.034738 0.943911
    52 -0.139399 -0.111698 0.014397 0.285382 -0.030687 1.580508
    53 -7.194428 5.749239 -0.415220 1.578120 -0.025670 -0.765393
  time 2
    0 -5.527512 -14.101993 -11.414411 1.260407 -2.981664 -0.820094
    1 3.096915 -0.000001 -3.559005 -3.141592 -1.570451 0.000000
    2 -3.157606 0.000000 -1.771385 0.000000 0.000000 0.000000
    3 1.347458 0.000000 -0.036606 0.000001 -3.141592 0.000000
    4 2.980681 -0.000001 -3.026972 0.000000 0.000000 0.000000
    5 -9.312784 -15.668752 -5.093905 1.497902 -0.423125 -0.157925
    6 3.096915 -0.000002 -7.035674 -3.141592 -1.570451 0.000000
    7 -2.772562 -0.000001 -3.715392 0.000000 -0.478942 0.000000
    8 -3.157606 0.000001 -1.771385 0.000000 0.000000 0.000000
    9 1.347458 0.000000 -0.036606 0.000001 -4.127218 0.000000
    10 2.980681 -0.000001 -3.026972 0.000000 0.525290 0.000000
    11 -6.151616 -11.013414 -3.382916 -0.051246 4.234745 -0.888404
    12 -6.151616 -11.013414 -3.382916 0.786465 4.234745 -0.888404
    13 35.886223 -19.098476 -5.245475 0.986223 -1.014512 -2.903868
    14 0.000002 40.432781 -0.000010 0.000000 0.000000 0.000000
    15 -1.209821 2.932418 -4.390140 -0.174699 0.222770 -0.216143
    16 8.743680 -7.119982 -3.956134 5.987776 -2.993041 -0.588504
    17 8.573810 0.594367 -0.392002 1.569632 -3.116061 0.142210
    18 -0.138329 -8.432328 -0.201793 -0.405102 -0.091631 0.107490
    19 -0.488518 -2.755602 -0.228260 -0.741569 0.047688 -0.381112
    20 0.039887 -1.534479 0.014229 -1.576912 -0.011122 0.035284
    21 0.028786 -1.185109 -0.132487 -1.218645 -0.015041 0.026822
    22 0.250027 -2.820665 -0.238396 -0.290347 -0.034584 -0.286546
    23 -0.049759 -1.598510 0.034071 -1.543204 0.000539 -0.041457
    24 -0.034142 -1.171750 0.045718 -1.169340 0.006568 -0.030800
    25 0.957766 -2.746780 -0.090302 0.050684 -0.147200 0.082289
    26 -0.033420 -1.397129 -0.015163 -0.329486 0.006939 -0.015809
    27 -0.022360 -0.957436 0.003159 -0.558428 0.008018 -0.026857
    28 -1.180681 -2.507217 -0.193859 -0.806133 0.251644 -0.384136
    29 -0.024967 -1.127840 0.017597 -1.079262 0.002409 -0.046128
    30 -0.020057 -0.906594 0.029622 -1.001921 0.005369 -0.041023
    31 0.606948 -1.197277 0.185379 0.389364 -0.893516 -0.592401
    32 1.481238 -0.216323 0.067511 0.047551 -0.212834 -0.759113
    33 0.995299 -0.190791 0.047917 0.101937 -0.253896 -1.103464
    34 0.120153 -0.050270 -0.054489 0.287569 3.110905 1.561085
    35 -6.138135 -5.864092 -4.993623 0.122503 -3.806156 0.210118
    36 0.108663 -8.407448 -0.044522 -0.131276 -0.121387 0.176657
    37 0.447953 -2.798986 -0.200443 -0.735873 0.010098 0.254020
    38 -0.032909 -1.499736 0.028378 -1.435653 0.023358 -0.027754
    39 -0.027022 -1.135516 -0.020210 -1.403578 0.024892 -0.027133
    40 -0.249534 -2.846964 -0.174213 -0.314880 0.133839 0.144563
    41 0.043235 -1.656596 0.068667 -1.454198 -0.022453 0.008066
    42 0.031729 -1.137392 0.051025 -1.500061 -0.016580 0.008779
    43 -0.963866 -2.785145 -0.085350 0.178507 0.162851 -0.182687
    44 0.028479 -1.403067 -0.017167 -0.866992 -0.021392 -0.032095
    45 0.021413 -0.961687 0.020046 0.204098 0.000551 0.009024
    46 1.164475 -2.543940 -0.170330 -0.641109 -0.235285 0.274225
    47 0.024032 -1.148574 -0.009538 -1.265292 0.022124 0.061853
    48 0.014898 -0.903521 -0.012035 -1.137822 0.013722 0.056028
    49 -0.586770 -1.264477 0.200161 -0.316722 -1.034155 -2.553877
    50 1.561899 0.035243 0.016848 -0.016099 -0.006259 0.794269
    51 1.114041 0.044518 -0.005766 -0.025854 -0.034738 0.943911
    52 -0.139399 -0.111698 0.014397 0.285382 -0.030687 1.580508
    53 -4.510753 8.249315 -0.329279 1.581571 -0.015060 -1.186650
  time 3
    0 -4.246223 -15.195776 -12.234748 1.199377 -3.002069 -0.690719
    1 3.096915 -0.000001 -3.559005 -3.141592 -1.570451 0.000000
    2 -3.157606 0.000000 -1.771385 0.000000 0.000000 0.000000
    3 1.347458 0.000000 -0.036606 0.000001 -3.141592 0.000000
    4 2.980681 -0.000001 -3.026972 0.000000 0.000000 0.000000
    5 -9.812799 -15.602344 -5.168126 1.527883 -0.341061 -0.183937
    6 3.096915 -0.000002 -5.297339 -3.141592 -1.570451 0.000000
    7 -2.772562 -0.000001 -3.715392 0.000000 -0.478942 0.000000
    8 -3.157606 0.000001 -1.771385 0.000000 0.000000 0.000000
    9 1.347458 0.000000 -0.036606 0.000001 -3.141592 0.000000
    10 2.980681 -0.000001 -3.026972 0.000000 0.525290 0.000000
    11 -6.800074 -12.767374 -3.441511 0.454134 4.313266 -0.981754
    12 -6.800074 -12.767374 -3.441511 -1.430753 5.111415 -4.123249
    13 35.886223 -19.098476 -5.245475 0.986223 -1.014512 -2.903868
    14 0.000002 40.432781 -0.000010 0.000000 0.000000 0.000000
    15 -1.209821 2.932418 -4.390140 -0.174699 0.222770 -0.216143
    16 8.833526 -7.084825 -3.956134 5.941453 -3.036932 -0.461346
    17 8.530839 1.578772 -0.376376 1.568290 -3.118074 0.256138
    18 -0.142236 -8.432328 -0.201793 -0.407881 -0.102010 0.109574
    19 -0.488518 -2.755602 -0.228260 -0.741569 0.047688 -0.381112
    20 0.039887 -1.534479 0.014229 -1.576912 -0.011122 0.035284
    21 0.028786 -1.185109 -0.132487 -1.218645 -0.015041 0.026822
    22 0.250027 -2.820665 -0.238396 -0.290347 -0.034584 -0.286546
    23 -0.049759 -1.598510 0.034071 -1.543204 0.000539 -0.041457
    24 -0.034142 -1.171750 0.045718 -1.169340 0.006568 -0.030800
    25 0.957766 -2.746780 -0.090302 0.050684 -0.147200 0.082289
    26 -0.033420 -1.397129 -0.015163 -0.329486 0.006939 -0.015809
    27 -0.022360 -0.957436 0.003159 -0.558428 0.008018 -0.026857
    28 -1.180681 -2.507217 -0.193859 -0.806133 0.251644 -0.384136
    29 -0.024967 -1.127840 0.017597 -1.079262 0.002409 -0.046128
    30 -0.020057 -0.906594 0.029622 -1.001921 0.005369 -0.041023
    31 0.606948 -1.197277 0.185379 0.389364 -0.893516 -0.592401
    32 1.481238 -0.216323 0.067511 0.047551 -0.212834 -0.759113
    33 0.995299 -0.190791 0.047917 0.101937 -0.253896 -1.103464
    34 0.120153 -0.050270 -0.054489 0.287569 3.110905 1.561085
    35 -6.556117 -5.883623 -4.704552 0.083139 -3.726390 0.178940
    36 0.108663 -8.403542 -0.048429 -0.148148 -0.121875 0.174129
    37 0.447953 -2.798986 -0.200443 -0.735873 0.010098 0.254020
    38 -0.032909 -1.499736 0.028378 -1.435653 0.023358 -0.027754
    39 -0.027022 -1.135516 -0.020210 -1.403578 0.024892 -0.027133
    40 -0.249534 -2.846964 -0.174213 -0.314880 0.133839 0.144563
    41 0.043235 -1.656596 0.068667 -1.454198 -0.022453 0.008066
    42 0.031729 -1.137392 0.051025 -1.500061 -0.016580 0.008779
    43 -0.963866 -2.785145 -0.085350 0.191642 0.162839 -0.182088
    44 0.028479 -1.403067 -0.017167 -0.847141 -0.020637 -0.031627
    45 0.021413 -0.961687 0.020046 0.252317 0.000407 0.011194
    46 1.164475 -2.543940 -0.170330 -0.641109 -0.235285 0.274225
    47 0.024032 -1.148574 -0.009538 -1.265292 0.022124 0.061853
    48 0.014898 -0.903521 -0.012035 -1.137822 0.013722 0.056028
    49 -0.586770 -1.264477 0.200161 -0.316722 -1.034155 -2.553877
    50 1.561899 0.035243 0.016848 -0.016099 -0.006259 0.794269
    51 1.114041 0.044518 -0.005766 -0.025854 -0.034738 0.943911
    52 -0.139399 -0.111698 0.014397 0.285382 -0.030687 1.580508
    53 -4.374030 8.331349 -0.325373 1.581571 -0.014582 -1.204615
  time 4
    0 -2.812586 -16.250496 -13.113681 1.128920 -3.068754 -0.568042
    1 3.096915 -0.000001 -3.559005 -3.141592 -1.570451 0.000000
    2 -3.157606 0.000000 -1.771385 0.000000 0.000000 0.000000
    3 1.347458 0.000000 -0.036606 0.000001 -3.141592 0.000000
    4 2.980681 -0.000001 -3.026972 0.000000 0.000000 0.000000
    5 -10.398755 -15.524216 -5.211097 1.556619 -0.232457 -0.206984
    6 3.096915 -0.000002 -3.559005 -3.141592 -1.570451 0.000000
    7 -2.772562 -0.000001 -3.715392 0.000000 -0.478942 0.000000
    8 -3.157606 0.000001 -1.771385 0.000000 0.000000 0.000000
    9 1.347458 0.000000 -0.036606 0.000001 -3.141592 0.000000
    10 2.980681 -0.000001 -3.026972 0.000000 0.262645 0.000000
    11 -7.542284 -14.517427 -3.644642 1.064977 4.403867 -1.176887
    12 -7.542284 -14.517427 -3.644642 -0.401039 5.020814 -4.318382
    13 35.886223 -19.098476 -5.245475 0.986223 -1.014512 -2.903868
    14 0.000002 40.432781 -0.000010 0.000000 0.000000 0.000000
    15 -1.209821 2.932418 -4.390140 -0.174699 0.222770 -0.216143
    16 8.802275 -7.217641 -3.909257 5.891110 -3.114195 -0.343532
    17 8.315989 2.813184 -0.356844 1.566852 -3.120855 0.401550
    18 -0.142236 -8.432328 -0.205700 -0.413497 -0.122739 0.113815
    19 -0.488518 -2.755602 -0.228260 -0.741569 0.047688 -0.381112
    20 0.039887 -1.534479 0.014229 -1.576912 -0.011122 0.035284
    21 0.028786 -1.185109 -0.132487 -1.218645 -0.015041 0.026822
    22 0.250027 -2.820665 -0.238396 -0.290347 -0.034584 -0.286546
    23 -0.049759 -1.598510 0.034071 -1.543204 0.000539 -0.041457
    24 -0.034142 -1.171750 0.045718 -1.169340 0.006568 -0.030800
    25 0.957766 -2.746780 -0.090302 0.050684 -0.147200 0.082289
    26 -0.033420 -1.397129 -0.015163 -0.329486 0.006939 -0.015809
    27 -0.022360 -0.957436 0.003159 -0.558428 0.008018 -0.026857
    28 -1.180681 -2.507217 -0.193859 -0.806133 0.251644 -0.384136
    29 -0.024967 -1.127840 0.017597 -1.079262 0.002409 -0.046128
    30 -0.020057 -0.906594 0.029622 -1.001921 0.005369 -0.041023
    31 0.606948 -1.197277 0.185379 0.389364 -0.893516 -0.592401
    32 1.481238 -0.216323 0.067511 0.047551 -0.212834 -0.759113
    33 0.995299 -0.190791 0.047917 0.101937 -0.253896 -1.103464
    34 0.120153 -0.050270 -0.054489 0.287569 3.110905 1.561085
    35 -7.060039 -5.942219 -4.356885 0.045110 -3.620128 0.155987
    36 0.108663 -8.403542 -0.048429 -0.166874 -0.122461 0.171332
    37 0.447953 -2.798986 -0.200443 -0.735873 0.010098 0.254020
    38 -0.032909 -1.499736 0.028378 -1.435653 0.023358 -0.027754
    39 -0.027022 -1.135516 -0.020210 -1.403578 0.024892 -0.027133
    40 -0.249534 -2.846964 -0.174213 -0.314880 0.133839 0.144563
    41 0.043235 -1.656596 0.068667 -1.454198 -0.022453 0.008066
    42 0.031729 -1.137392 0.051025 -1.500061 -0.016580 0.008779
    43 -0.963866 -2.785145 -0.085350 0.197817 0.162827 -0.181813
    44 0.028479 -1.403067 -0.017167 -0.837822 -0.020278 -0.031400
    45 0.021413 -0.961687 0.020046 0.274971 0.000312 0.012212
    46 1.164475 -2.543940 -0.170330 -0.641109 -0.235285 0.274225
    47 0.024032 -1.148574 -0.009538 -1.265292 0.022124 0.061853
    48 0.014898 -0.903521 -0.012035 -1.137822 0.013722 0.056028
    49 -0.586770 -1.264477 0.200161 -0.316722 -1.034155 -2.553877
    50 1.561899 0.035243 0.016848 -0.016099 -0.006259 0.794269
    51 1.114041 0.044518 -0.005766 -0.025854 -0.034738 0.943911
    52 -0.139399 -0.111698 0.014397 0.285382 -0.030687 1.580508
    53 -4.346685 8.346975 -0.325373 1.581667 -0.014486 -1.208512
  time 5
    0 -1.335978 -17.203650 -13.652760 1.081219 -3.144992 -0.456370
    1 3.096915 -0.000001 -3.559005 -3.141592 -1.570451 0.000000
    2 -3.157606 0.000000 -1.771385 0.000000 0.000000 0.000000
    3 1.347458 0.000000 -0.036606 0.000001 -3.141592 0.000000
    4 2.980681 -0.000001 -3.026972 0.000000 0.000000 0.000000
    5 -11.012055 -15.461715 -5.203284 1.583823 -0.106131 -0.224867
    6 3.096915 -0.000002 -3.559005 -3.141592 -1.570451 0.000000
    7 -2.772562 -0.000001 -3.715392 0.000000 -0.478942 0.000000
    8 -3.157606 0.000001 -1.771385 0.000000 0.000000 0.000000
    9 1.347458 0.000000 -0.036606 0.000001 -3.141592 0.000000
    10 2.980681 -0.000001 -3.026972 0.000000 0.000000 0.000000
    11 -7.975891 -14.568210 -3.929807 -1.262108 4.944115 1.569548
    12 -7.975891 -14.568210 -3.929807 0.832164 4.944115 1.569548
    13 35.886223 -19.098476 -5.245475 0.986223 -1.014512 -2.903868
    14 0.000002 40.432781 -0.000010 0.000000 0.000000 0.000000
    15 -1.209821 2.932418 -4.390140 -0.174699 0.222770 -0.216143
    16 8.731961 -7.432492 -3.842849 5.864982 3.081427 -0.239544
    17 7.890195 4.098380 -0.329500 1.565702 -3.124018 0.558213
    18 -0.146142 -8.436234 -0.209606 -0.417781 -0.138249 0.117076
    19 -0.488518 -2.755602 -0.228260 -0.741569 0.047688 -0.381112
    20 0.039887 -1.534479 0.014229 -1.576912 -0.011122 0.035284
    21 0.028786 -1.185109 -0.132487 -1.218645 -0.015041 0.026822
    22 0.250027 -2.820665 -0.238396 -0.290347 -0.034584 -0.286546
    23 -0.049759 -1.598510 0.034071 -1.543204 0.000539 -0.041457
    24 -0.034142 -1.171750 0.045718 -1.169340 0.006568 -0.030800
    25 0.957766 -2.746780 -0.090302 0.050684 -0.147200 0.082289
    26 -0.033420 -1.397129 -0.015163 -0.329486 0.006939 -0.015809
    27 -0.022360 -0.957436 0.003159 -0.558428 0.008018 -0.026857
    28 -1.180681 -2.507217 -0.193859 -0.806133 0.251644 -0.384136
    29 -0.024967 -1.127840 0.017597 -1.079262 0.002409 -0.046128
    30 -0.020057 -0.906594 0.029622 -1.001921 0.005369 -0.041023
    31 0.606948 -1.197277 0.185379 0.389364 -0.893516 -0.592401
    32 1.481238 -0.216323 0.067511 0.047551 -0.212834 -0.759113
    33 0.995299 -0.190791 0.047917 0.101937 -0.253896 -1.103464
    34 0.120153 -0.050270 -0.054489 0.287569 3.110905 1.561085
    35 -7.595211 -6.055504 -3.946716 0.009940 -3.496418 0.144032
    36 0.108663 -8.399636 -0.048429 -0.186619 -0.123144 0.168427
    37 0.447953 -2.798986 -0.200443 -0.735873 0.010098 0.254020
    38 -0.032909 -1.499736 0.028378 -1.435653 0.023358 -0.027754
    39 -0.027022 -1.135516 -0.020210 -1.403578 0.024892 -0.027133
    40 -0.249534 -2.846964 -0.174213 -0.314880 0.133839 0.144563
    41 0.043235 -1.656596 0.068667 -1.454198 -0.022453 0.008066
    42 0.031729 -1.137392 0.051025 -1.500061 -0.016580 0.008779
    43 -0.963866 -2.785145 -0.085350 0.198629 0.162815 -0.181777
    44 0.028479 -1.403067 -0.017167 -0.836609 -0.020230 -0.031376
    45 0.021413 -0.961687 0.020046 0.277922 0.000300 0.012344
    46 1.164475 -2.543940 -0.170330 -0.641109 -0.235285 0.274225
    47 0.024032 -1.148574 -0.009538 -1.265292 0.022124 0.061853
    48 0.014898 -0.903521 -0.012035 -1.137822 0.013722 0.056028
    49 -0.586770 -1.264477 0.200161 -0.316722 -1.034155 -2.553877
    50 1.561899 0.035243 0.016848 -0.016099 -0.006259 0.794269
    51 1.114041 0.044518 -0.005766 -0.025854 -0.034738 0.943911
    52 -0.139399 -0.111698 0.014397 0.285382 -0.030687 1.580508
    53 -4.417000 8.307911 -0.325373 1.581571 -0.014677 -1.199292
  time 6
    0 -0.042970 -18.043519 -13.664479 1.075221 -3.182369 -0.349673
    1 3.096915 -0.000001 -3.559005 -3.141592 -1.570451 0.000000
    2 -3.157606 0.000000 -1.771385 0.000000 0.000000 0.000000
    3 1.347458 0.000000 -0.036606 0.000001 -3.141592 0.000000
    4 2.980681 -0.000001 -3.026972 0.000000 0.000000 0.000000
    5 -11.594104 -15.418744 -5.144688 1.610739 0.029274 -0.235674
    6 3.096915 -0.000002 -3.559005 -3.141592 -1.570451 0.000000
    7 -2.772562 -0.000001 -3.715392 0.000000 -0.478942 0.000000
    8 -3.157606 0.000001 -1.771385 0.000000 0.000000 0.000000
    9 1.347458 0.000000 -0.036606 0.000001 -3.141592 0.000000
    10 2.980681 -0.000001 -3.026972 0.000000 0.000000 0.000000
    11 -8.413404 -14.622899 -4.218879 -0.214565 4.927625 0.945811
    12 -8.413404 -14.622899 -4.218879 2.298557 4.927625 0.945811
    13 35.886223 -19.098476 -5.245475 0.986223 -1.014512 -2.903868
    14 0.000002 40.432781 -0.000010 0.000000 0.000000 0.000000
    15 -1.209821 2.932418 -4.390140 -0.174699 0.222770 -0.216143
    16 8.704616 -7.659061 -3.788160 5.877520 3.017933 -0.145554
    17 7.308146 5.231227 -0.306061 1.565127 -3.127086 0.705800
    18 -0.146142 -8.432328 -0.209606 -0.416353 -0.133089 0.115997
    19 -0.488518 -2.755602 -0.228260 -0.741569 0.047688 -0.381112
    20 0.039887 -1.534479 0.014229 -1.576912 -0.011122 0.035284
    21 0.028786 -1.185109 -0.132487 -1.218645 -0.015041 0.026822
    22 0.250027 -2.820665 -0.238396 -0.290347 -0.034584 -0.286546
    23 -0.049759 -1.598510 0.034071 -1.543204 0.000539 -0.041457
    24 -0.034142 -1.171750 0.045718 -1.169340 0.006568 -0.030800
    25 0.957766 -2.746780 -0.090302 0.050684 -0.147200 0.082289
    26 -0.033420 -1.397129 -0.015163 -0.329486 0.006939 -0.015809
    27 -0.022360 -0.957436 0.003159 -0.558428 0.008018 -0.026857
    28 -1.180681 -2.507217 -0.193859 -0.806133 0.251644 -0.384136
    29 -0.024967 -1.127840 0.017597 -1.079262 0.002409 -0.046128
    30 -0.020057 -0.906594 0.029622 -1.001921 0.005369 -0.041023
    31 0.606948 -1.197277 0.185379 0.389364 -0.893516 -0.592401
    32 1.481238 -0.216323 0.067511 0.047551 -0.212834 -0.759113
    33 0.995299 -0.190791 0.047917 0.101937 -0.253896 -1.103464
    34 0.120153 -0.050270 -0.054489 0.287569 3.110905 1.561085
    35 -8.106946 -6.215665 -3.474046 -0.023419 -3.364491 0.144223
    36 0.108663 -8.399636 -0.052335 -0.206597 -0.123892 0.165469
    37 0.447953 -2.798986 -0.200443 -0.735873 0.010098 0.254020
    38 -0.032909 -1.499736 0.028378 -1.435653 0.023358 -0.027754
    39 -0.027022 -1.135516 -0.020210 -1.403578 0.024892 -0.027133
    40 -0.249534 -2.846964 -0.174213 -0.314880 0.133839 0.144563
    41 0.043235 -1.656596 0.068667 -1.454198 -0.022453 0.008066
    42 0.031729 -1.137392 0.051025 -1.500061 -0.016580 0.008779
    43 -0.963866 -2.785145 -0.085350 0.195672 0.162827 -0.181908
    44 0.028479 -1.403067 -0.017167 -0.841073 -0.020398 -0.031484
    45 0.021413 -0.961687 0.020046 0.267090 0.000348 0.011865
    46 1.164475 -2.543940 -0.170330 -0.641109 -0.235285 0.274225
    47 0.024032 -1.148574 -0.009538 -1.265292 0.022124 0.061853
    48 0.014898 -0.903521 -0.012035 -1.137822 0.013722 0.056028
    49 -0.586770 -1.264477 0.200161 -0.316722 -1.034155 -2.553877
    50 1.561899 0.035243 0.016848 -0.016099 -0.006259 0.794269
    51 1.114041 0.044518 -0.005766 -0.025854 -0.034738 0.943911
    52 -0.139399 -0.111698 0.014397 0.285382 -0.030687 1.580508
    53 -4.577161 8.210252 -0.329279 1.581571 -0.015251 -1.178096
  time 7
    0 0.863308 -18.750572 -13.160558 1.114353 -3.126442 -0.245178
    1 3.096915 -0.000001 -3.559005 -3.141592 -1.570451 0.000000
    2 -3.157606 0.000000 -1.771385 0.000000 0.000000 0.000000
    3 1.347458 0.000000 -0.036606 0.000001 -3.141592 0.000000
    4 2.980681 -0.000001 -3.026972 0.000000 0.000000 0.000000
    5 -12.078494 -15.407025 -5.062654 1.639188 0.165203 -0.237108
    6 3.096915 -0.000002 -3.559005 -3.141592 -1.570787 0.000000
    7 -2.772562 -0.000001 -3.715392 0.000000 -0.478942 0.000000
    8 -3.157606 0.000001 -1.771385 0.000000 0.000000 0.000000
    9 1.347458 0.000000 -0.036606 0.000001 -3.141592 0.000000
    10 2.980681 -0.000001 -3.026972 0.000000 0.000000 0.000000
    11 -8.800135 -14.665869 -4.496231 0.726078 4.988697 0.434497
    12 -8.800135 -14.665869 -4.496231 -2.624868 4.988697 0.434497
    13 35.886223 -19.098476 -5.245475 0.986223 -1.014512 -2.903868
    14 0.000002 40.432781 -0.000010 0.000000 0.000000 0.000000
    15 -1.209821 2.932418 -4.390140 -0.174699 0.222770 -0.216143
    16 8.825714 -7.819222 -3.764722 5.929203 3.016881 -0.057917
    17 6.722190 6.071096 -0.282623 1.565031 -3.129675 0.824172
    18 -0.138329 -8.432328 -0.201793 -0.405102 -0.091631 0.107490
    19 -0.488518 -2.755602 -0.228260 -0.741569 0.047688 -0.381112
    20 0.039887 -1.534479 0.014229 -1.576912 -0.011122 0.035284
    21 0.028786 -1.185109 -0.132487 -1.218645 -0.015041 0.026822
    22 0.250027 -2.820665 -0.238396 -0.290347 -0.034584 -0.286546
    23 -0.049759 -1.598510 0.034071 -1.543204 0.000539 -0.041457
    24 -0.034142 -1.171750 0.045718 -1.169340 0.006568 -0.030800
    25 0.957766 -2.746780 -0.090302 0.050684 -0.147200 0.082289
    26 -0.033420 -1.397129 -0.015163 -0.329486 0.006939 -0.015809
    27 -0.022360 -0.957436 0.003159 -0.558428 0.008018 -0.026857
    28 -1.180681 -2.507217 -0.193859 -0.806133 0.251644 -0.384136
    29 -0.024967 -1.127840 0.017597 -1.079262 0.002409 -0.046128
    30 -0.020057 -0.906594 0.029622 -1.001921 0.005369 -0.041023
    31 0.606948 -1.197277 0.185379 0.389364 -0.893516 -0.592401
    32 1.481238 -0.216323 0.067511 0.047551 -0.212834 -0.759113
    33 0.995299 -0.190791 0.047917 0.101937 -0.253896 -1.103464
    34 0.120153 -0.050270 -0.054489 0.287569 3.110905 1.561085
    35 -8.552272 -6.418796 -2.958405 -0.056778 -3.233857 0.157230
    36 0.108663 -8.395729 -0.052335 -0.225972 -0.124672 0.162618
    37 0.447953 -2.798986 -0.200443 -0.735873 0.010098 0.254020
    38 -0.032909 -1.499736 0.028378 -1.435653 0.023358 -0.027754
    39 -0.027022 -1.135516 -0.020210 -1.403578 0.024892 -0.027133
    40 -0.249534 -2.846964 -0.174213 -0.314880 0.133839 0.144563
    41 0.043235 -1.656596 0.068667 -1.454198 -0.022453 0.008066
    42 0.031729 -1.137392 0.051025 -1.500061 -0.016580 0.008779
    43 -0.963866 -2.785145 -0.085350 0.190569 0.162839 -0.182136
    44 0.028479 -1.403067 -0.017167 -0.848744 -0.020697 -0.031663
    45 0.021413 -0.961687 0.020046 0.248396 0.000431 0.011026
    46 1.164475 -2.543940 -0.170330 -0.641109 -0.235285 0.274225
    47 0.024032 -1.148574 -0.009538 -1.265292 0.022124 0.061853
    48 0.014898 -0.903521 -0.012035 -1.137822 0.013722 0.056028
    49 -0.586770 -1.264477 0.200161 -0.316722 -1.034155 -2.553877
    50 1.561899 0.035243 0.016848 -0.016099 -0.006259 0.794269
    51 1.114041 0.044518 -0.005766 -0.025854 -0.034738 0.943911
    52 -0.139399 -0.111698 0.014397 0.285382 -0.030687 1.580508
    53 -4.815449 8.061810 -0.337092 1.581379 -0.016111 -1.145969
  time 8
    0 1.261757 -19.399029 -11.730827 1.211088 -2.887155 -0.152261
    1 3.096915 -0.000001 -3.559005 -3.141592 -1.570451 0.000000
    2 -3.157606 0.000000 -1.771385 0.000000 0.000000 0.000000
    3 1.347458 0.000000 -0.036606 0.000001 -3.141592 0.000000
    4 2.980681 -0.000001 -3.026972 0.000000 0.000000 0.000000
    5 -12.406629 -15.410932 -4.988433 1.670702 0.292839 -0.226589
    6 3.096915 -0.000002 -3.559005 -3.141592 -1.570451 0.000000
    7 -2.772562 -0.000001 -3.715392 0.000000 -0.478942 0.000000
    8 -3.157606 0.000001 -1.771385 0.000000 0.000000 0.000000
    9 1.347458 0.000000 -0.036606 0.000001 -3.141592 0.000000
    10 2.980681 -0.000001 -3.026972 0.000000 0.000000 0.000000
    11 -9.081393 -14.685401 -4.765770 1.432230 5.084091 0.164990
    12 -9.081393 -14.685401 -4.765770 -1.499828 5.084091 0.164990
    13 35.886223 -19.098476 -5.245475 0.986223 -1.014512 -2.903868
    14 0.000002 40.432781 -0.000010 0.000000 0.000000 0.000000
    15 -1.209821 2.932418 -4.390140 -0.174699 0.222770 -0.216143
    16 9.157755 -7.858286 -3.764722 6.037641 3.132968 0.017948
    17 6.280771 6.590643 -0.266998 1.565127 -3.131305 0.903401
    18 -0.126610 -8.432328 -0.174449 -0.380767 0.019081 0.085525
    19 -0.488518 -2.755602 -0.228260 -0.741569 0.047688 -0.381112
    20 0.039887 -1.534479 0.014229 -1.576912 -0.011122 0.035284
    21 0.028786 -1.185109 -0.132487 -1.218645 -0.015041 0.026822
    22 0.250027 -2.820665 -0.238396 -0.290347 -0.034584 -0.286546
    23 -0.049759 -1.598510 0.034071 -1.543204 0.000539 -0.041457
    24 -0.034142 -1.171750 0.045718 -1.169340 0.006568 -0.030800
    25 0.957766 -2.746780 -0.090302 0.050684 -0.147200 0.082289
    26 -0.033420 -1.397129 -0.015163 -0.329486 0.006939 -0.015809
    27 -0.022360 -0.957436 0.003159 -0.558428 0.008018 -0.026857
    28 -1.180681 -2.507217 -0.193859 -0.806133 0.251644 -0.384136
    29 -0.024967 -1.127840 0.017597 -1.079262 0.002409 -0.046128
    30 -0.020057 -0.906594 0.029622 -1.001921 0.005369 -0.041023
    31 0.606948 -1.197277 0.185379 0.389364 -0.893516 -0.592401
    32 1.481238 -0.216323 0.067511 0.047551 -0.212834 -0.759113
    33 0.995299 -0.190791 0.047917 0.101937 -0.253896 -1.103464
    34 0.120153 -0.050270 -0.054489 0.287569 3.110905 1.561085
    35 -8.896032 -6.645365 -2.434951 -0.091185 -3.113562 0.183435
    36 0.108663 -8.395729 -0.056241 -0.243933 -0.125453 0.160010
    37 0.447953 -2.798986 -0.200443 -0.735873 0.010098 0.254020
    38 -0.032909 -1.499736 0.028378 -1.435653 0.023358 -0.027754
    39 -0.027022 -1.135516 -0.020210 -1.403578 0.024892 -0.027133
    40 -0.249534 -2.846964 -0.174213 -0.314880 0.133839 0.144563
    41 0.043235 -1.656596 0.068667 -1.454198 -0.022453 0.008066
    42 0.031729 -1.137392 0.051025 -1.500061 -0.016580 0.008779
    43 -0.963866 -2.785145 -0.085350 0.184943 0.162851 -0.182400
    44 0.028479 -1.403067 -0.017167 -0.857283 -0.021021 -0.031867
    45 0.021413 -0.961687 0.020046 0.227722 0.000491 0.010091
    46 1.164475 -2.543940 -0.170330 -0.641109 -0.235285 0.274225
    47 0.024032 -1.148574 -0.009538 -1.265292 0.022124 0.061853
    48 0.014898 -0.903521 -0.012035 -1.137822 0.013722 0.056028
    49 -0.586770 -1.264477 0.200161 -0.316722 -1.034155 -2.553877
    50 1.561899 0.035243 0.016848 -0.016099 -0.006259 0.794269
    51 1.114041 0.044518 -0.005766 -0.025854 -0.034738 0.943911
    52 -0.139399 -0.111698 0.014397 0.285382 -0.030687 1.580508
    53 -5.116240 7.850866 -0.348811 1.581187 -0.017258 -1.103958
  time 9
    0 3.308695 -19.539659 -9.676077 1.323247 -2.520990 -0.063268
    1 3.096915 -0.000001 -3.559005 -3.141592 -1.570451 0.000000
    2 -3.157606 0.000000 -1.771385 0.000000 0.000000 0.000000
    3 1.347458 0.000000 -0.036606 0.000001 -3.141592 0.000000
    4 2.980681 -0.000001 -3.026972 0.000000 0.000000 0.000000
    5 -11.172216 -16.024232 -5.742363 1.732007 0.371323 -0.141093
    6 3.096915 -0.000002 -3.559005 -3.141592 -1.570451 0.000000
    7 -2.772562 -0.000001 -3.715392 0.000000 -0.478942 0.000000
    8 -3.157606 0.000001 -1.771385 0.000000 0.000000 0.000000
    9 1.347458 0.000000 -0.036606 0.000001 -3.141592 0.000000
    10 2.980681 -0.000001 -3.026972 0.000000 0.000000 0.000000
    11 -7.893857 -15.087757 -5.679861 2.050928 5.142958 0.046434
    12 -7.893857 -15.087757 -5.679861 -0.462259 5.142958 0.046434
    13 35.886223 -19.098476 -5.245475 0.986223 -1.014512 -2.903868
    14 0.000002 40.432781 -0.000010 0.000000 0.000000 0.000000
    15 -0.838715 2.869916 -4.460454 -0.149735 0.190950 -0.160816
    16 9.556205 -7.729376 -3.710032 6.180342 -2.931937 0.055040
    17 5.972168 6.907059 -0.259185 1.565223 -3.132456 0.954362
    18 -0.095359 -8.428422 -0.143198 -0.348443 0.188226 0.056573
    19 -0.488518 -2.755602 -0.228260 -0.741569 0.047688 -0.381112
    20 0.039887 -1.534479 0.014229 -1.576912 -0.011122 0.035284
    21 0.028786 -1.185109 -0.132487 -1.218645 -0.015041 0.026822
    22 0.250027 -2.820665 -0.238396 -0.290347 -0.034584 -0.286546
    23 -0.049759 -1.598510 0.034071 -1.543204 0.000539 -0.041457
    24 -0.034142 -1.171750 0.045718 -1.169340 0.006568 -0.030800
    25 0.957766 -2.746780 -0.090302 0.050684 -0.147200 0.082289
    26 -0.033420 -1.397129 -0.015163 -0.329486 0.006939 -0.015809
    27 -0.022360 -0.957436 0.003159 -0.558428 0.008018 -0.026857
    28 -1.180681 -2.507217 -0.193859 -0.806133 0.251644 -0.384136
    29 -0.024967 -1.127840 0.017597 -1.079262 0.002409 -0.046128
    30 -0.020057 -0.906594 0.029622 -1.001921 0.005369 -0.041023
    31 0.606948 -1.197277 0.185379 0.389364 -0.893516 -0.592401
    32 1.481238 -0.216323 0.067511 0.047551 -0.212834 -0.759113
    33 0.995299 -0.190791 0.047917 0.101937 -0.253896 -1.103464
    34 0.120153 -0.050270 -0.054489 0.287569 3.110905 1.561085
    35 -9.126508 -6.864122 -1.938842 -0.125783 -3.012471 0.222838
    36 0.108663 -8.391823 -0.056241 -0.259646 -0.126168 0.157724
    37 0.447953 -2.798986 -0.200443 -0.735873 0.010098 0.254020
    38 -0.032909 -1.499736 0.028378 -1.435653 0.023358 -0.027754
    39 -0.027022 -1.135516 -0.020210 -1.403578 0.024892 -0.027133
    40 -0.249534 -2.846964 -0.174213 -0.314880 0.133839 0.144563
    41 0.043235 -1.656596 0.068667 -1.454198 -0.022453 0.008066
    42 0.031729 -1.137392 0.051025 -1.500061 -0.016580 0.008779
    43 -0.963866 -2.785145 -0.085350 0.180377 0.162851 -0.182604
    44 0.028479 -1.403067 -0.017167 -0.864131 -0.021285 -0.032035
    45 0.021413 -0.961687 0.020046 0.210989 0.000539 0.009336
    46 1.164475 -2.543940 -0.170330 -0.641109 -0.235285 0.274225
    47 0.024032 -1.148574 -0.009538 -1.265292 0.022124 0.061853
    48 0.014898 -0.903521 -0.012035 -1.137822 0.013722 0.056028
    49 -0.586770 -1.264477 0.200161 -0.316722 -1.034155 -2.553877
    50 1.561899 0.035243 0.016848 -0.016099 -0.006259 0.794269
    51 1.114041 0.044518 -0.005766 -0.025854 -0.034738 0.943911
    52 -0.139399 -0.111698 0.014397 0.285382 -0.030687 1.580508
    53 -5.471720 7.585233 -0.356624 1.580900 -0.018597 -1.053106
  time 10
    0 5.531419 -19.012299 -7.375225 1.485391 -2.130988 -0.088817
    1 3.096915 -0.000001 -3.559005 -3.141592 -1.570451 0.000000
    2 -3.157606 0.000000 -1.771385 0.000000 0.000000 0.000000
    3 1.347458 0.000000 -0.036606 0.000001 -3.141592 0.000000
    4 2.980681 -0.000001 -3.026972 0.000000 0.000000 0.000000
    5 -9.594043 -16.559404 -6.543168 1.794364 0.422045 -0.034559
    6 3.096915 -0.000002 -3.559005 -3.141592 -1.570451 0.000000
    7 -2.772562 -0.000001 -3.715392 0.000000 -0.478942 0.000000
    8 -3.157606 0.000001 -1.771385 0.000000 0.000000 0.000000
    9 1.347458 0.000000 -0.036606 0.000001 -3.141592 0.000000
    10 2.980681 -0.000001 -3.026972 0.000000 0.000000 0.000000
    11 -6.401624 -15.361203 -6.558794 2.613398 5.187155 -0.000432
    12 -6.401624 -15.361203 -6.558794 0.518977 5.187155 -0.000336
    13 35.886223 -19.098476 -5.245475 0.986223 -1.014512 -2.903868
    14 0.000002 40.432781 -0.000010 0.000000 0.000000 0.000000
    15 -0.467610 2.803508 -4.530769 -0.124784 0.159119 -0.105489
    16 9.829651 -7.362177 -3.522527 0.035744 -2.693549 0.037101
    17 5.761224 7.106284 -0.251372 1.565319 -3.133127 0.988115
    18 -0.068015 -8.428422 -0.111947 -0.312684 0.365024 0.034559
    19 -0.488518 -2.755602 -0.228260 -0.741569 0.047688 -0.381112
    20 0.039887 -1.534479 0.014229 -1.576912 -0.011122 0.035284
    21 0.028786 -1.185109 -0.132487 -1.218645 -0.015041 0.026822
    22 0.250027 -2.820665 -0.238396 -0.290347 -0.034584 -0.286546
    23 -0.049759 -1.598510 0.034071 -1.543204 0.000539 -0.041457
    24 -0.034142 -1.171750 0.045718 -1.169340 0.006568 -0.030800
    25 0.957766 -2.746780 -0.090302 0.050684 -0.147200 0.082289
    26 -0.033420 -1.397129 -0.015163 -0.329486 0.006939 -0.015809
    27 -0.022360 -0.957436 0.003159 -0.558428 0.008018 -0.026857
    28 -1.180681 -2.507217 -0.193859 -0.806133 0.251644 -0.384136
    29 -0.024967 -1.127840 0.017597 -1.079262 0.002409 -0.046128
    30 -0.020057 -0.906594 0.029622 -1.001921 0.005369 -0.041023
    31 0.606948 -1.197277 0.185379 0.389364 -0.893516 -0.592401
    32 1.481238 -0.216323 0.067511 0.047551 -0.212834 -0.759113
    33 0.995299 -0.190791 0.047917 0.101937 -0.253896 -1.103464
    34 0.120153 -0.050270 -0.054489 0.287569 3.110905 1.561085
    35 -9.247605 -7.051628 -1.509142 -0.156950 -2.938706 0.274674
    36 0.108663 -8.391823 -0.056241 -0.272300 -0.126786 0.155895
    37 0.447953 -2.798986 -0.200443 -0.735873 0.010098 0.254020
    38 -0.032909 -1.499736 0.028378 -1.435653 0.023358 -0.027754
    39 -0.027022 -1.135516 -0.020210 -1.403578 0.024892 -0.027133
    40 -0.249534 -2.846964 -0.174213 -0.314880 0.133839 0.144563
    41 0.043235 -1.656596 0.068667 -1.454198 -0.022453 0.008066
    42 0.031729 -1.137392 0.051025 -1.500061 -0.016580 0.008779
    43 -0.963866 -2.785145 -0.085350 0.178507 0.162851 -0.182687
    44 0.028479 -1.403067 -0.017167 -0.866992 -0.021392 -0.032095
    45 0.021413 -0.961687 0.020046 0.204098 0.000551 0.009024
    46 1.164475 -2.543940 -0.170330 -0.641109 -0.235285 0.274225
    47 0.024032 -1.148574 -0.009538 -1.265292 0.022124 0.061853
    48 0.014898 -0.903521 -0.012035 -1.137822 0.013722 0.056028
    49 -0.586770 -1.264477 0.200161 -0.316722 -1.034155 -2.553877
    50 1.561899 0.035243 0.016848 -0.016099 -0.006259 0.794269
    51 1.114041 0.044518 -0.005766 -0.025854 -0.034738 0.943911
    52 -0.139399 -0.111698 0.014397 0.285382 -0.030687 1.580508
    53 -5.866263 7.253191 -0.372250 1.580612 -0.020030 -0.994651
  time 11
    0 7.465072 -17.961486 -5.793146 -1.377327 -1.280127 -3.432289
    1 3.096915 -0.000001 -3.559005 -3.141592 -1.570451 0.000000
    2 -3.157606 0.000000 -1.771385 0.000000 0.000000 0.000000
    3 1.347458 0.000000 -0.036606 0.000001 -3.141592 0.000000
    4 2.980681 -0.000001 -3.026972 0.000000 0.000000 0.000000
    5 -7.383038 -16.868007 -7.371319 1.848293 0.428419 0.105255
    6 3.096915 -0.000002 -3.559005 -3.141592 -1.570451 0.000000
    7 -2.772562 -0.000001 -3.715392 0.000000 -0.478942 0.000000
    8 -3.157606 0.000001 -1.771385 0.000000 0.000000 0.000000
    9 1.347458 0.000000 -0.036606 0.000001 -3.141592 0.000000
    10 2.980681 -0.000001 -3.026972 0.000000 0.000000 0.000000
    11 -4.354686 -15.302607 -7.347880 3.138606 5.194634 0.022761
    12 -4.354686 -15.302607 -7.347880 1.463137 5.194634 0.022761
    13 35.886223 -19.098476 -5.245475 0.986223 -1.014512 -2.903868
    14 0.000002 40.432781 -0.000010 0.000000 0.000000 0.000000
    15 -0.092599 2.741006 -4.604990 -0.099820 0.127288 -0.050162
    16 9.845276 -6.799660 -3.229549 0.130878 -2.517793 -0.014846
    17 5.581531 7.266445 -0.247466 1.565510 -3.133702 1.015628
    18 -0.036764 -8.432328 -0.100228 -0.272254 0.497784 0.030636
    19 -0.488518 -2.755602 -0.228260 -0.741569 0.047688 -0.381112
    20 0.039887 -1.534479 0.014229 -1.576912 -0.011122 0.035284
    21 0.028786 -1.185109 -0.132487 -1.218645 -0.015041 0.026822
    22 0.250027 -2.820665 -0.238396 -0.290347 -0.034584 -0.286546
    23 -0.049759 -1.598510 0.034071 -1.543204 0.000539 -0.041457
    24 -0.034142 -1.171750 0.045718 -1.169340 0.006568 -0.030800
    25 0.957766 -2.746780 -0.090302 0.050684 -0.147200 0.082289
    26 -0.033420 -1.397129 -0.015163 -0.329486 0.006939 -0.015809
    27 -0.022360 -0.957436 0.003159 -0.558428 0.008018 -0.026857
    28 -1.180681 -2.507217 -0.193859 -0.806133 0.251644 -0.384136
    29 -0.024967 -1.127840 0.017597 -1.079262 0.002409 -0.046128
    30 -0.020057 -0.906594 0.029622 -1.001921 0.005369 -0.041023
    31 0.606948 -1.197277 0.185379 0.389364 -0.893516 -0.592401
    32 1.481238 -0.216323 0.067511 0.047551 -0.212834 -0.759113
    33 0.995299 -0.190791 0.047917 0.101937 -0.253896 -1.103464
    34 0.120153 -0.050270 -0.054489 0.287569 3.110905 1.561085
    35 -9.274950 -7.141474 -1.212258 -0.174583 -2.907225 0.351281
    36 0.108663 -8.391823 -0.056241 -0.279229 -0.127111 0.154900
    37 0.447953 -2.798986 -0.200443 -0.735873 0.010098 0.254020
    38 -0.032909 -1.499736 0.028378 -1.435653 0.023358 -0.027754
    39 -0.027022 -1.135516 -0.020210 -1.403578 0.024892 -0.027133
    40 -0.249534 -2.846964 -0.174213 -0.314880 0.133839 0.144563
    41 0.043235 -1.656596 0.068667 -1.454198 -0.022453 0.008066
    42 0.031729 -1.137392 0.051025 -1.500061 -0.016580 0.008779
    43 -0.963866 -2.785145 -0.085350 0.178507 0.162851 -0.182687
    44 0.028479 -1.403067 -0.017167 -0.866992 -0.021392 -0.032095
    45 0.021413 -0.961687 0.020046 0.204098 0.000551 0.009024
    46 1.164475 -2.543940 -0.170330 -0.641109 -0.235285 0.274225
    47 0.024032 -1.148574 -0.009538 -1.265292 0.022124 0.061853
    48 0.014898 -0.903521 -0.012035 -1.137822 0.013722 0.056028
    49 -0.586770 -1.264477 0.200161 -0.316722 -1.034155 -2.553877
    50 1.561899 0.035243 0.016848 -0.016099 -0.006259 0.794269
    51 1.114041 0.044518 -0.005766 -0.025854 -0.034738 0.943911
    52 -0.139399 -0.111698 0.014397 0.285382 -0.030687 1.580508
    53 -6.389716 6.737550 -0.387875 1.579845 -0.022229 -0.910818
  time 12
    0 8.414319 -16.750511 -5.226722 -1.086742 -1.387528 -3.692188
    1 3.096915 -0.000001 -3.559005 -3.141592 -1.570451 0.000000
    2 -3.157606 0.000000 -1.771385 0.000000 0.000000 0.000000
    3 1.347458 0.000000 -0.036606 0.000001 -3.141592 0.000000
    4 2.980681 -0.000001 -3.026972 0.000000 0.000000 0.000000
    5 -4.527482 -16.715659 -8.136967 1.883255 0.392014 0.276724
    6 3.096915 -0.000002 -3.559005 -3.141592 -1.570451 0.000000
    7 -2.772562 -0.000001 -3.715392 0.000000 -0.478942 0.000000
    8 -3.157606 0.000001 -1.771385 0.000000 0.000000 0.000000
    9 1.347458 0.000000 -0.036606 0.000001 -3.141592 0.000000
    10 2.980681 -0.000001 -3.026972 0.000000 0.000000 0.000000
    11 -1.784295 -14.701026 -7.961180 -2.644719 5.162612 0.108060
    12 -1.784295 -14.701026 -7.961180 2.381716 5.162612 0.108060
    13 35.886223 -19.098476 -5.245475 0.986223 -1.014512 -2.903868
    14 0.000002 40.432781 -0.000010 0.000000 0.000000 0.000000
    15 0.282412 2.674598 -4.675305 -0.074868 0.095469 0.005165
    16 9.564017 -6.080888 -2.920946 0.150594 -2.431923 -0.070717
    17 5.452621 7.371917 -0.243559 1.565606 -3.134181 1.035010
    18 -0.021138 -8.440141 -0.088509 -0.221635 0.566627 0.049390
    19 -0.488518 -2.755602 -0.228260 -0.741569 0.047688 -0.381112
    20 0.039887 -1.534479 0.014229 -1.576912 -0.011122 0.035284
    21 0.028786 -1.185109 -0.132487 -1.218645 -0.015041 0.026822
    22 0.250027 -2.820665 -0.238396 -0.290347 -0.034584 -0.286546
    23 -0.049759 -1.598510 0.034071 -1.543204 0.000539 -0.041457
    24 -0.034142 -1.171750 0.045718 -1.169340 0.006568 -0.030800
    25 0.957766 -2.746780 -0.090302 0.050684 -0.147200 0.082289
    26 -0.033420 -1.397129 -0.015163 -0.329486 0.006939 -0.015809
    27 -0.022360 -0.957436 0.003159 -0.558428 0.008018 -0.026857
    28 -1.180681 -2.507217 -0.193859 -0.806133 0.251644 -0.384136
    29 -0.024967 -1.127840 0.017597 -1.079262 0.002409 -0.046128
    30 -0.020057 -0.906594 0.029622 -1.001921 0.005369 -0.041023
    31 0.606948 -1.197277 0.185379 0.389364 -0.893516 -0.592401
    32 1.481238 -0.216323 0.067511 0.047551 -0.212834 -0.759113
    33 0.995299 -0.190791 0.047917 0.101937 -0.253896 -1.103464
    34 0.120153 -0.050270 -0.054489 0.287569 3.110905 1.561085
    35 -9.247605 -7.102411 -1.052097 -0.173534 -2.913780 0.456866
    36 0.108663 -8.391823 -0.056241 -0.280110 -0.127176 0.154765
    37 0.447953 -2.798986 -0.200443 -0.735873 0.010098 0.254020
    38 -0.032909 -1.499736 0.028378 -1.435653 0.023358 -0.027754
    39 -0.027022 -1.135516 -0.020210 -1.403578 0.024892 -0.027133
    40 -0.249534 -2.846964 -0.174213 -0.314880 0.133839 0.144563
    41 0.043235 -1.656596 0.068667 -1.454198 -0.022453 0.008066
    42 0.031729 -1.137392 0.051025 -1.500061 -0.016580 0.008779
    43 -0.963866 -2.785145 -0.085350 0.178507 0.162851 -0.182687
    44 0.028479 -1.403067 -0.017167 -0.866992 -0.021392 -0.032095
    45 0.021413 -0.961687 0.020046 0.204098 0.000551 0.009024
    46 1.164475 -2.543940 -0.170330 -0.641109 -0.235285 0.274225
    47 0.024032 -1.148574 -0.009538 -1.265292 0.022124 0.061853
    48 0.014898 -0.903521 -0.012035 -1.137822 0.013722 0.056028
    49 -0.586770 -1.264477 0.200161 -0.316722 -1.034155 -2.553877
    50 1.561899 0.035243 0.016848 -0.016099 -0.006259 0.794269
    51 1.114041 0.044518 -0.005766 -0.025854 -0.034738 0.943911
    52 -0.139399 -0.111698 0.014397 0.285382 -0.030687 1.580508
    53 -7.053799 5.944558 -0.411313 1.578503 -0.025001 -0.792957
  time 13
    0 8.351817 -15.488754 -5.152501 -0.976392 -1.424534 -3.799267
    1 3.096915 -0.000001 -3.559005 -3.141592 -1.570451 0.000000
    2 -3.157606 0.000000 -1.771385 0.000000 0.000000 0.000000
    3 1.347458 0.000000 -0.036606 0.000001 -3.141592 0.000000
    4 2.980681 -0.000001 -3.026972 0.000000 0.000000 0.000000
    5 -1.410199 -16.008606 -8.707297 1.894079 0.333958 0.461294
    6 3.096915 -0.000002 -3.559005 -3.141592 -1.570451 0.000000
    7 -2.772562 -0.000001 -3.715392 0.000000 -0.478942 0.000000
    8 -3.157606 0.000001 -1.771385 0.000000 0.000000 0.000000
    9 1.347458 0.000000 -0.036606 0.000001 -3.141592 0.000000
    10 2.980681 -0.000001 -3.026972 0.000000 0.000000 0.000000
    11 0.911099 -13.540835 -8.332286 -2.174302 5.107484 0.241759
    12 0.911099 -13.540835 -8.332286 -3.012112 5.107484 0.241759
    13 35.886223 -19.098476 -5.245475 0.986223 -1.014512 -2.903868
    14 0.000002 40.432781 -0.000010 0.000000 0.000000 0.000000
    15 0.653518 2.612096 -4.745619 -0.049904 0.063638 0.060491
    16 8.923373 -5.237112 -2.612343 0.125136 -2.393961 -0.130792
    17 5.405744 7.410981 -0.243559 1.565606 -3.134277 1.042101
    18 -0.013325 -8.451860 -0.080696 -0.160422 0.599436 0.083196
    19 -0.488518 -2.755602 -0.228260 -0.741569 0.047688 -0.381112
    20 0.039887 -1.534479 0.014229 -1.576912 -0.011122 0.035284
    21 0.028786 -1.185109 -0.132487 -1.218645 -0.015041 0.026822
    22 0.250027 -2.820665 -0.238396 -0.290347 -0.034584 -0.286546
    23 -0.049759 -1.598510 0.034071 -1.543204 0.000539 -0.041457
    24 -0.034142 -1.171750 0.045718 -1.169340 0.006568 -0.030800
    25 0.957766 -2.746780 -0.090302 0.050684 -0.147200 0.082289
    26 -0.033420 -1.397129 -0.015163 -0.329486 0.006939 -0.015809
    27 -0.022360 -0.957436 0.003159 -0.558428 0.008018 -0.026857
    28 -1.180681 -2.507217 -0.193859 -0.806133 0.251644 -0.384136
    29 -0.024967 -1.127840 0.017597 -1.079262 0.002409 -0.046128
    30 -0.020057 -0.906594 0.029622 -1.001921 0.005369 -0.041023
    31 0.606948 -1.197277 0.185379 0.389364 -0.893516 -0.592401
    32 1.481238 -0.216323 0.067511 0.047551 -0.212834 -0.759113
    33 0.995299 -0.190791 0.047917 0.101937 -0.253896 -1.103464
    34 0.120153 -0.050270 -0.054489 0.287569 3.110905 1.561085
    35 -9.196823 -6.977407 -0.970063 -0.156664 -2.935290 0.578996
    36 0.108663 -8.391823 -0.056241 -0.277491 -0.127046 0.155142
    37 0.447953 -2.798986 -0.200443 -0.735873 0.010098 0.254020
    38 -0.032909 -1.499736 0.028378 -1.435653 0.023358 -0.027754
    39 -0.027022 -1.135516 -0.020210 -1.403578 0.024892 -0.027133
    40 -0.249534 -2.846964 -0.174213 -0.314880 0.133839 0.144563
    41 0.043235 -1.656596 0.068667 -1.454198 -0.022453 0.008066
    42 0.031729 -1.137392 0.051025 -1.500061 -0.016580 0.008779
    43 -0.963866 -2.785145 -0.085350 0.178507 0.162851 -0.182687
    44 0.028479 -1.403067 -0.017167 -0.866992 -0.021392 -0.032095
    45 0.021413 -0.961687 0.020046 0.204098 0.000551 0.009024
    46 1.164475 -2.543940 -0.170330 -0.641109 -0.235285 0.274225
    47 0.024032 -1.148574 -0.009538 -1.265292 0.022124 0.061853
    48 0.014898 -0.903521 -0.012035 -1.137822 0.013722 0.056028
    49 -0.586770 -1.264477 0.200161 -0.316722 -1.034155 -2.553877
    50 1.561899 0.035243 0.016848 -0.016099 -0.006259 0.794269
    51 1.114041 0.044518 -0.005766 -0.025854 -0.034738 0.943911
    52 -0.139399 -0.111698 0.014397 0.285382 -0.030687 1.580508
    53 -7.702256 4.932808 -0.434751 1.576490 -0.028155 -0.655611
  time 14
    0 7.609607 -14.336375 -5.320475 -1.044278 -1.444846 -3.737450
    1 3.096915 -0.000001 -3.559005 -3.141592 -1.570451 0.000000
    2 -3.157606 0.000000 -1.771385 0.000000 0.000000 0.000000
    3 1.347458 0.000000 -0.036606 0.000001 -3.141592 0.000000
    4 2.980681 -0.000001 -3.026972 0.000000 0.000000 0.000000
    5 1.558641 -14.809351 -9.051057 1.886320 0.274854 0.646056
    6 3.096915 -0.000002 -3.559005 -3.141592 -1.570451 0.000000
    7 -2.772562 -0.000001 -3.715392 0.000000 -0.478942 0.000000
    8 -3.157606 0.000001 -1.771385 0.000000 0.000000 0.000000
    9 1.347458 0.000000 -0.036606 0.000001 -3.141592 0.000000
    10 2.980681 -0.000001 -3.026972 0.000000 0.000000 0.000000
    11 3.360393 -11.966568 -8.496353 -1.738464 5.048234 0.413028
    12 3.360393 -11.966568 -8.496353 -2.157434 5.048234 0.413028
    13 35.886223 -19.098476 -5.245475 0.986223 -1.014512 -2.903868
    14 0.000002 40.432781 -0.000010 0.000000 0.000000 0.000000
    15 1.028529 2.545688 -4.819840 -0.024952 0.031819 0.115818
    16 7.919436 -4.397243 -2.311552 0.080535 -2.373402 -0.190587
    17 5.394025 7.422700 -0.243559 1.565606 -3.134373 1.044275
    18 -0.009419 -8.463579 -0.076789 -0.094538 0.616236 0.123351
    19 -0.488518 -2.755602 -0.228260 -0.741569 0.047688 -0.381112
    20 0.039887 -1.534479 0.014229 -1.576912 -0.011122 0.035284
    21 0.028786 -1.185109 -0.132487 -1.218645 -0.015041 0.026822
    22 0.250027 -2.820665 -0.238396 -0.290347 -0.034584 -0.286546
    23 -0.049759 -1.598510 0.034071 -1.543204 0.000539 -0.041457
    24 -0.034142 -1.171750 0.045718 -1.169340 0.006568 -0.030800
    25 0.957766 -2.746780 -0.090302 0.050684 -0.147200 0.082289
    26 -0.033420 -1.397129 -0.015163 -0.329486 0.006939 -0.015809
    27 -0.022360 -0.957436 0.003159 -0.558428 0.008018 -0.026857
    28 -1.180681 -2.507217 -0.193859 -0.806133 0.251644 -0.384136
    29 -0.024967 -1.127840 0.017597 -1.079262 0.002409 -0.046128
    30 -0.020057 -0.906594 0.029622 -1.001921 0.005369 -0.041023
    31 0.606948 -1.197277 0.185379 0.389364 -0.893516 -0.592401
    32 1.481238 -0.216323 0.067511 0.047551 -0.212834 -0.759113
    33 0.995299 -0.190791 0.047917 0.101937 -0.253896 -1.103464
    34 0.120153 -0.050270 -0.054489 0.287569 3.110905 1.561085
    35 -9.146040 -6.821152 -0.907561 -0.133027 -2.952831 0.706004
    36 0.108663 -8.391823 -0.056241 -0.274015 -0.126851 0.155653
    37 0.447953 -2.798986 -0.200443 -0.735873 0.010098 0.254020
    38 -0.032909 -1.499736 0.028378 -1.435653 0.023358 -0.027754
    39 -0.027022 -1.135516 -0.020210 -1.403578 0.024892 -0.027133
    40 -0.249534 -2.846964 -0.174213 -0.314880 0.133839 0.144563
    41 0.043235 -1.656596 0.068667 -1.454198 -0.022453 0.008066
    42 0.031729 -1.137392 0.051025 -1.500061 -0.016580 0.008779
    43 -0.963866 -2.785145 -0.085350 0.178507 0.162851 -0.182687
    44 0.028479 -1.403067 -0.017167 -0.866992 -0.021392 -0.032095
    45 0.021413 -0.961687 0.020046 0.204098 0.000551 0.009024
    46 1.164475 -2.543940 -0.170330 -0.641109 -0.235285 0.274225
    47 0.024032 -1.148574 -0.009538 -1.265292 0.022124 0.061853
    48 0.014898 -0.903521 -0.012035 -1.137822 0.013722 0.056028
    49 -0.586770 -1.264477 0.200161 -0.316722 -1.034155 -2.553877
    50 1.561899 0.035243 0.016848 -0.016099 -0.006259 0.794269
    51 1.114041 0.044518 -0.005766 -0.025854 -0.034738 0.943911
    52 -0.139399 -0.111698 0.014397 0.285382 -0.030687 1.580508
    53 -8.221803 3.796054 -0.458190 1.573997 -0.031023 -0.513417
  time 15
    0 6.648640 -13.484787 -5.418134 -1.013620 -1.481852 -3.764244
    1 3.096915 -0.000001 -3.559005 -3.141592 -1.570451 0.000000
    2 -3.157606 0.000000 -1.771385 0.000000 0.000000 0.000000
    3 1.347458 0.000000 -0.036606 0.000001 -3.141592 0.000000
    4 2.980681 -0.000001 -3.026972 0.000000 0.000000 0.000000
    5 4.074343 -13.356182 -9.308878 1.876263 0.229719 0.820681
    6 3.096915 -0.000002 -3.559005 -3.141592 -1.570451 0.000000
    7 -2.772562 -0.000001 -3.715392 0.000000 -0.478942 0.000000
    8 -3.157606 0.000001 -1.771385 0.000000 0.000000 0.000000
    9 1.347458 0.000000 -0.036606 0.000001 -3.141592 0.000000
    10 2.980681 -0.000001 -3.026972 0.000000 0.000000 0.000000
    11 5.325297 -10.255578 -8.625263 -1.316516 5.002119 0.587172
    12 5.325297 -10.255578 -8.625263 -1.316457 5.002119 0.587172
    13 35.886223 -19.098476 -5.245475 0.986223 -1.014512 -2.903868
    14 0.000002 40.432781 -0.000010 0.000000 0.000000 0.000000
    15 1.403540 2.483186 -4.890155 0.000000 0.000000 0.171145
    16 6.634241 -3.721441 -1.991230 0.047516 -2.342516 -0.250849
    17 5.362774 7.450045 -0.239653 1.565606 -3.134469 1.048813
    18 -0.001606 -8.475298 -0.072883 -0.027748 0.637962 0.164046
    19 -0.488518 -2.755602 -0.228260 -0.741569 0.047688 -0.381112
    20 0.039887 -1.534479 0.014229 -1.576912 -0.011122 0.035284
    21 0.028786 -1.185109 -0.132487 -1.218645 -0.015041 0.026822
    22 0.250027 -2.820665 -0.238396 -0.290347 -0.034584 -0.286546
    23 -0.049759 -1.598510 0.034071 -1.543204 0.000539 -0.041457
    24 -0.034142 -1.171750 0.045718 -1.169340 0.006568 -0.030800
    25 0.957766 -2.746780 -0.090302 0.050684 -0.147200 0.082289
    26 -0.033420 -1.397129 -0.015163 -0.329486 0.006939 -0.015809
    27 -0.022360 -0.957436 0.003159 -0.558428 0.008018 -0.026857
    28 -1.180681 -2.507217 -0.193859 -0.806133 0.251644 -0.384136
    29 -0.024967 -1.127840 0.017597 -1.079262 0.002409 -0.046128
    30 -0.020057 -0.906594 0.029622 -1.001921 0.005369 -0.041023
    31 0.606948 -1.197277 0.185379 0.389364 -0.893516 -0.592401
    32 1.481238 -0.216323 0.067511 0.047551 -0.212834 -0.759113
    33 0.995299 -0.190791 0.047917 0.101937 -0.253896 -1.103464
    34 0.120153 -0.050270 -0.054489 0.287569 3.110905 1.561085
    35 -9.118695 -6.688336 -0.809902 -0.118635 -2.955509 0.825361
    36 0.108663 -8.391823 -0.056241 -0.272300 -0.126786 0.155895
    37 0.447953 -2.798986 -0.200443 -0.735873 0.010098 0.254020
    38 -0.032909 -1.499736 0.028378 -1.435653 0.023358 -0.027754
    39 -0.027022 -1.135516 -0.020210 -1.403578 0.024892 -0.027133
    40 -0.249534 -2.846964 -0.174213 -0.314880 0.133839 0.144563
    41 0.043235 -1.656596 0.068667 -1.454198 -0.022453 0.008066
    42 0.031729 -1.137392 0.051025 -1.500061 -0.016580 0.008779
    43 -0.963866 -2.785145 -0.085350 0.178507 0.162851 -0.182687
    44 0.028479 -1.403067 -0.017167 -0.866992 -0.021392 -0.032095
    45 0.021413 -0.961687 0.020046 0.204098 0.000551 0.009024
    46 1.164475 -2.543940 -0.170330 -0.641109 -0.235285 0.274225
    47 0.024032 -1.148574 -0.009538 -1.265292 0.022124 0.061853
    48 0.014898 -0.903521 -0.012035 -1.137822 0.013722 0.056028
    49 -0.586770 -1.264477 0.200161 -0.316722 -1.034155 -2.553877
    50 1.561899 0.035243 0.016848 -0.016099 -0.006259 0.794269
    51 1.114041 0.044518 -0.005766 -0.025854 -0.034738 0.943911
    52 -0.139399 -0.111698 0.014397 0.285382 -0.030687 1.580508
    53 -8.557751 2.682739 -0.473815 1.571409 -0.033317 -0.380919
end
