// Created by Crowbar 0.68

$modelname "weapons/tfa_cso/w_voidpistolex.mdl"

$bodygroup "studio"
{
	studio "v_voidpistolex01"
}

$collisionmodel "v_voidpistolex01.smd"
{
	$mass 9
}

$CDMaterials "models\weapons\tfa_cso\voidpistolex"

$attachment "0" "root" -0.00 -6.20 -0.30 rotate -0 -90 0

$sequence "idle" {
	"anims\idle"
	fps 30
}
