version 1
nodes
  0 "Bone04" -1
  1 "Bone_Righthand" 0
  2 "NEXON_CSO_JKnife_Root" 1
  3 "NEXON_CSO_JKnife_body" 2
  4 "NEXON_CSO_JKnife_Stick00" 3
  5 "NEXON_CSO_JKnife_Stick01" 2
  6 "NEXON_CSO_JKnife_Pin" 5
  7 "Bone27" 1
  8 "Bone28" 7
  9 "Bone29" 8
  10 "Bone31" 1
  11 "Bone32" 10
  12 "Bone33" 11
  13 "Bone35" 1
  14 "Bone36" 13
  15 "Bone37" 14
  16 "Bone39" 1
  17 "Bone40" 16
  18 "Bone41" 17
  19 "Bone43" 1
  20 "Bone44" 19
  21 "Bone45" 20
  22 "Bone_Se_Hand-R" 1
  23 "Bone01" -1
  24 "Bone_Lefthand" 23
  25 "Bone05" 24
  26 "Bone06" 25
  27 "Bone07" 26
  28 "Bone21" 24
  29 "Bone22" 28
  30 "Bone23" 29
  31 "Bone17" 24
  32 "Bone18" 31
  33 "Bone19" 32
  34 "Bone13" 24
  35 "Bone14" 34
  36 "Bone15" 35
  37 "Bone09" 24
  38 "Bone10" 37
  39 "Bone11" 38
  40 "Bone_Se_Hand-L" 24
end
skeleton
  time 0
    0 -3.031604 -1.012095 -11.902639 0.119899 -3.833986 1.084366
    1 0.096945 -8.450419 -0.009364 -0.929869 -0.198019 0.983482
    2 -0.502773 -2.429845 0.351188 1.436198 0.086154 -2.657773
    3 2.670662 0.228810 -0.000696 0.000000 0.000000 -3.141592
    4 -0.000066 -0.428590 -0.009439 0.000000 0.000000 3.116557
    5 2.670594 0.228795 -0.010135 0.000000 0.000000 0.000000
    6 -5.034416 0.218050 0.020352 1.570796 -3.141592 0.088140
    7 -0.586769 -1.264477 0.200164 -0.077052 -0.509970 -2.532859
    8 1.522835 0.058679 0.016851 0.185637 0.342093 0.404907
    9 1.117948 0.048424 -0.005765 0.251565 -0.046546 -0.029493
    10 -0.963867 -2.785143 -0.085346 -0.047589 -0.098472 -0.214715
    11 0.028478 -1.403067 0.006271 -1.277164 0.000000 0.000000
    12 0.021413 -0.957782 0.020047 0.237296 0.000000 0.000000
    13 -0.249535 -2.846963 -0.174215 -0.056131 -0.208817 -0.084349
    14 0.043234 -1.683940 0.096014 -1.446803 0.000000 0.000000
    15 0.031729 -1.160831 0.058837 -1.296420 0.000000 0.000000
    16 0.447951 -2.798983 -0.200441 -1.038170 -0.106723 0.127273
    17 -0.032909 -1.480207 0.004936 -1.738426 0.000000 0.000000
    18 -0.027023 -1.076921 -0.020212 -0.708342 0.000000 0.000000
    19 1.164474 -2.543939 -0.170327 -1.190380 -0.178978 0.248519
    20 0.024032 -1.129040 0.017806 -1.592738 0.000000 0.000000
    21 0.014896 -0.883992 -0.019845 -0.525186 0.000000 0.000000
    22 -0.139399 -0.111698 0.014398 0.379218 0.062494 1.443760
    23 2.771774 -4.821845 -5.683112 -0.674077 -2.897199 -0.904491
    24 -0.071917 -8.498731 -0.104136 -0.471285 0.575935 -0.015968
    25 0.583509 -1.197273 0.185379 0.319079 -0.423053 -0.651956
    26 1.535926 0.010247 0.005008 -0.221598 -0.297922 -0.781612
    27 1.100770 0.004527 -0.010675 -0.033668 0.063776 -0.183302
    28 0.957766 -2.746777 -0.090301 0.045095 -0.146812 0.009517
    29 -0.033419 -1.397128 -0.011256 0.037042 0.000000 0.000000
    30 -0.022361 -0.957434 0.018783 0.114273 0.000000 0.000000
    31 0.250028 -2.820664 -0.238397 0.041552 -0.112980 0.009235
    32 -0.049759 -1.680544 0.100479 0.083534 0.049505 -0.014373
    33 -0.034141 -1.148311 0.084778 0.058007 0.000000 0.000000
    34 -0.488517 -2.755599 -0.228262 0.038977 0.020560 -0.121233
    35 0.039889 -1.479791 0.029852 -0.144686 0.000000 0.000000
    36 0.028785 -1.075733 -0.023111 0.023216 0.000000 0.000000
    37 -1.180679 -2.507215 -0.193862 -0.022889 0.057346 -0.106342
    38 -0.024967 -1.123934 0.017594 -0.048333 0.003607 -0.034700
    39 -0.020058 -0.890964 0.010091 0.173655 0.000000 0.000000
    40 0.053744 -0.050267 -0.074021 -2.853554 0.026024 -1.564699
  time 1
    0 -3.808971 -1.426170 -11.074488 0.152388 -3.724098 1.094324
    1 0.096945 -8.450419 -0.009364 -0.827495 -0.205803 0.878366
    2 -0.506679 -2.433751 0.417597 1.400405 0.098451 -2.668126
    3 2.670662 0.228810 -0.000696 0.000000 0.000000 3.098353
    4 -0.000066 -0.428590 -0.009439 0.000000 0.000000 2.834008
    5 2.670594 0.228795 -0.010135 0.000000 0.000000 0.000000
    6 -5.034416 0.218050 0.020352 1.570796 -3.141592 0.088140
    7 -0.586769 -1.264477 0.200164 -0.085421 -0.511372 -2.513943
    8 1.522835 0.058679 0.016851 0.185668 0.319744 0.388735
    9 1.117948 0.048424 -0.005765 0.234211 -0.037737 -0.040022
    10 -0.963867 -2.785143 -0.085346 -0.047589 -0.098472 -0.214715
    11 0.028478 -1.403067 0.006271 -1.277164 0.000000 0.000000
    12 0.021413 -0.957782 0.020047 0.237296 0.000000 0.000000
    13 -0.249535 -2.846963 -0.174215 -0.056131 -0.208817 -0.084349
    14 0.043234 -1.683940 0.096014 -1.446803 0.000000 0.000000
    15 0.031729 -1.160831 0.058837 -1.296420 0.000000 0.000000
    16 0.447951 -2.798983 -0.200441 -1.038170 -0.106723 0.127273
    17 -0.032909 -1.480207 0.004936 -1.738426 0.000000 0.000000
    18 -0.027023 -1.076921 -0.020212 -0.708342 0.000000 0.000000
    19 1.164474 -2.543939 -0.170327 -1.190380 -0.178978 0.248519
    20 0.024032 -1.129040 0.017806 -1.592738 0.000000 0.000000
    21 0.014896 -0.883992 -0.019845 -0.525186 0.000000 0.000000
    22 -0.139399 -0.111698 0.014398 0.379218 0.062494 1.443760
    23 2.771774 -4.728092 -5.667487 -0.660221 -2.904882 -0.912059
    24 -0.071917 -8.498731 -0.104136 -0.471285 0.575935 -0.015968
    25 0.583509 -1.197273 0.185379 0.319079 -0.423053 -0.651956
    26 1.535926 0.010247 0.005008 -0.221598 -0.297922 -0.781612
    27 1.100770 0.004527 -0.010675 -0.033668 0.063776 -0.183302
    28 0.957766 -2.746777 -0.090301 0.045095 -0.146812 0.009517
    29 -0.033419 -1.397128 -0.011256 0.037042 0.000000 0.000000
    30 -0.022361 -0.957434 0.018783 0.114273 0.000000 0.000000
    31 0.250028 -2.820664 -0.238397 0.041552 -0.112980 0.009235
    32 -0.049759 -1.680544 0.100479 0.083534 0.049505 -0.014373
    33 -0.034141 -1.148311 0.084778 0.058007 0.000000 0.000000
    34 -0.488517 -2.755599 -0.228262 0.038977 0.020560 -0.121233
    35 0.039889 -1.479791 0.029852 -0.144686 0.000000 0.000000
    36 0.028785 -1.075733 -0.023111 0.023216 0.000000 0.000000
    37 -1.180679 -2.507215 -0.193862 -0.022889 0.057346 -0.106342
    38 -0.024967 -1.123934 0.017594 -0.048333 0.003607 -0.034700
    39 -0.020058 -0.890964 0.010091 0.173655 0.000000 0.000000
    40 0.053744 -0.050267 -0.074021 -2.853554 0.026024 -1.564699
  time 2
    0 -4.480867 -1.785556 -10.359623 0.195519 -3.636284 1.103428
    1 0.096945 -8.450419 -0.009364 -0.612236 -0.217663 0.659282
    2 -0.518398 -2.457189 0.577758 1.347564 0.119385 -2.685285
    3 2.670662 0.228810 -0.000696 0.000000 0.000000 2.942079
    4 -0.000066 -0.428590 -0.009439 0.000000 0.000000 2.156927
    5 2.670594 0.228795 -0.010135 0.000000 0.000000 0.000000
    6 -5.034416 0.218050 0.020352 1.570796 -3.141592 0.088140
    7 -0.586769 -1.264477 0.200164 -0.107902 -0.514991 -2.463509
    8 1.522835 0.058679 0.016851 0.185871 0.262095 0.347026
    9 1.117948 0.048424 -0.005765 0.189449 -0.015014 -0.067176
    10 -0.963867 -2.785143 -0.085346 -0.047589 -0.098472 -0.214715
    11 0.028478 -1.403067 0.006271 -1.277164 0.000000 0.000000
    12 0.021413 -0.957782 0.020047 0.237296 0.000000 0.000000
    13 -0.249535 -2.846963 -0.174215 -0.056131 -0.208817 -0.084349
    14 0.043234 -1.683940 0.096014 -1.446803 0.000000 0.000000
    15 0.031729 -1.160831 0.058837 -1.296420 0.000000 0.000000
    16 0.447951 -2.798983 -0.200441 -1.038170 -0.106723 0.127273
    17 -0.032909 -1.480207 0.004936 -1.738426 0.000000 0.000000
    18 -0.027023 -1.076921 -0.020212 -0.708342 0.000000 0.000000
    19 1.164474 -2.543939 -0.170327 -1.190380 -0.178978 0.248519
    20 0.024032 -1.129040 0.017806 -1.592738 0.000000 0.000000
    21 0.014896 -0.883992 -0.019845 -0.525186 0.000000 0.000000
    22 -0.139399 -0.111698 0.014398 0.379218 0.062494 1.443760
    23 2.763962 -4.462459 -5.620610 -0.621752 -2.926209 -0.932884
    24 -0.071917 -8.498731 -0.104136 -0.471285 0.575935 -0.015968
    25 0.583509 -1.197273 0.185379 0.319079 -0.423053 -0.651956
    26 1.535926 0.010247 0.005008 -0.221598 -0.297922 -0.781612
    27 1.100770 0.004527 -0.010675 -0.033668 0.063776 -0.183302
    28 0.957766 -2.746777 -0.090301 0.045095 -0.146812 0.009517
    29 -0.033419 -1.397128 -0.011256 0.037042 0.000000 0.000000
    30 -0.022361 -0.957434 0.018783 0.114273 0.000000 0.000000
    31 0.250028 -2.820664 -0.238397 0.041552 -0.112980 0.009235
    32 -0.049759 -1.680544 0.100479 0.083534 0.049505 -0.014373
    33 -0.034141 -1.148311 0.084778 0.058007 0.000000 0.000000
    34 -0.488517 -2.755599 -0.228262 0.038977 0.020560 -0.121233
    35 0.039889 -1.479791 0.029852 -0.144686 0.000000 0.000000
    36 0.028785 -1.075733 -0.023111 0.023216 0.000000 0.000000
    37 -1.180679 -2.507215 -0.193862 -0.022889 0.057346 -0.106342
    38 -0.024967 -1.123934 0.017594 -0.048333 0.003607 -0.034700
    39 -0.020058 -0.890964 0.010091 0.173655 0.000000 0.000000
    40 0.053744 -0.050267 -0.074021 -2.853554 0.026024 -1.564699
  time 3
    0 -5.051197 -2.090253 -9.758042 0.249386 -3.570542 1.111583
    1 0.096945 -8.450419 -0.009364 -0.421797 -0.216417 0.470791
    2 -0.522305 -2.484534 0.769170 1.361756 0.123609 -2.688736
    3 2.670662 0.228810 -0.000696 0.000000 0.000000 2.632886
    4 -0.000066 -0.428590 -0.009439 0.000000 0.000000 1.341496
    5 2.670594 0.228795 -0.010135 0.000000 0.000000 0.000000
    6 -5.034416 0.218050 0.020352 1.570796 -3.141592 0.088140
    7 -0.586769 -1.264477 0.200164 -0.140499 -0.519941 -2.390992
    8 1.522835 0.058679 0.016851 0.186325 0.183297 0.289982
    9 1.117948 0.048424 -0.005765 0.128244 0.016062 -0.104323
    10 -0.963867 -2.785143 -0.085346 -0.047589 -0.098472 -0.214715
    11 0.028478 -1.403067 0.006271 -1.277164 0.000000 0.000000
    12 0.021413 -0.957782 0.020047 0.237296 0.000000 0.000000
    13 -0.249535 -2.846963 -0.174215 -0.056131 -0.208817 -0.084349
    14 0.043234 -1.683940 0.096014 -1.446803 0.000000 0.000000
    15 0.031729 -1.160831 0.058837 -1.296420 0.000000 0.000000
    16 0.447951 -2.798983 -0.200441 -1.038170 -0.106723 0.127273
    17 -0.032909 -1.480207 0.004936 -1.738426 0.000000 0.000000
    18 -0.027023 -1.076921 -0.020212 -0.708342 0.000000 0.000000
    19 1.164474 -2.543939 -0.170327 -1.190380 -0.178978 0.248519
    20 0.024032 -1.129040 0.017806 -1.592738 0.000000 0.000000
    21 0.014896 -0.883992 -0.019845 -0.525186 0.000000 0.000000
    22 -0.139399 -0.111698 0.014398 0.379218 0.062494 1.443760
    23 2.752243 -4.071822 -5.554202 -0.563163 -2.959140 -0.964091
    24 -0.071917 -8.498731 -0.104136 -0.471285 0.575935 -0.015968
    25 0.583509 -1.197273 0.185379 0.319079 -0.423053 -0.651956
    26 1.535926 0.010247 0.005008 -0.221598 -0.297922 -0.781612
    27 1.100770 0.004527 -0.010675 -0.033668 0.063776 -0.183302
    28 0.957766 -2.746777 -0.090301 0.045095 -0.146812 0.009517
    29 -0.033419 -1.397128 -0.011256 0.037042 0.000000 0.000000
    30 -0.022361 -0.957434 0.018783 0.114273 0.000000 0.000000
    31 0.250028 -2.820664 -0.238397 0.041552 -0.112980 0.009235
    32 -0.049759 -1.680544 0.100479 0.083534 0.049505 -0.014373
    33 -0.034141 -1.148311 0.084778 0.058007 0.000000 0.000000
    34 -0.488517 -2.755599 -0.228262 0.038977 0.020560 -0.121233
    35 0.039889 -1.479791 0.029852 -0.144686 0.000000 0.000000
    36 0.028785 -1.075733 -0.023111 0.023216 0.000000 0.000000
    37 -1.180679 -2.507215 -0.193862 -0.022889 0.057346 -0.106342
    38 -0.024967 -1.123934 0.017594 -0.048333 0.003607 -0.034700
    39 -0.020058 -0.890964 0.010091 0.173655 0.000000 0.000000
    40 0.053744 -0.050267 -0.074021 -2.853554 0.026024 -1.564699
  time 4
    0 -5.519961 -2.340261 -9.261933 0.313989 -3.526874 1.118885
    1 0.096945 -8.450419 -0.009364 -0.312939 -0.181846 0.370484
    2 -0.510585 -2.519691 0.929331 1.526618 0.086154 -2.657773
    3 2.670662 0.228810 -0.000696 0.000000 0.000000 2.130891
    4 -0.000066 -0.428590 -0.009439 0.000000 0.000000 0.643417
    5 2.670594 0.228795 -0.010135 0.000000 0.000000 0.000000
    6 -5.034416 0.218050 0.020352 1.570796 -3.141592 0.088140
    7 -0.586769 -1.264477 0.200164 -0.179242 -0.525334 -2.305785
    8 1.522835 0.058679 0.016851 0.187139 0.097432 0.227826
    9 1.117948 0.048424 -0.005765 0.061573 0.049918 -0.144772
    10 -0.963867 -2.785143 -0.085346 -0.047589 -0.098472 -0.214715
    11 0.028478 -1.403067 0.006271 -1.277164 0.000000 0.000000
    12 0.021413 -0.957782 0.020047 0.237296 0.000000 0.000000
    13 -0.249535 -2.846963 -0.174215 -0.056131 -0.208817 -0.084349
    14 0.043234 -1.683940 0.096014 -1.446803 0.000000 0.000000
    15 0.031729 -1.160831 0.058837 -1.296420 0.000000 0.000000
    16 0.447951 -2.798983 -0.200441 -1.038170 -0.106723 0.127273
    17 -0.032909 -1.480207 0.004936 -1.738426 0.000000 0.000000
    18 -0.027023 -1.076921 -0.020212 -0.708342 0.000000 0.000000
    19 1.164474 -2.543939 -0.170327 -1.190380 -0.178978 0.248519
    20 0.024032 -1.129040 0.017806 -1.592738 0.000000 0.000000
    21 0.014896 -0.883992 -0.019845 -0.525186 0.000000 0.000000
    22 -0.139399 -0.111698 0.014398 0.379218 0.062494 1.443760
    23 2.736617 -3.587432 -5.468262 -0.488946 -3.001244 -1.002866
    24 -0.071917 -8.498731 -0.104136 -0.471285 0.575935 -0.015968
    25 0.583509 -1.197273 0.185379 0.319079 -0.423053 -0.651956
    26 1.535926 0.010247 0.005008 -0.221598 -0.297922 -0.781612
    27 1.100770 0.004527 -0.010675 -0.033668 0.063776 -0.183302
    28 0.957766 -2.746777 -0.090301 0.045095 -0.146812 0.009517
    29 -0.033419 -1.397128 -0.011256 0.037042 0.000000 0.000000
    30 -0.022361 -0.957434 0.018783 0.114273 0.000000 0.000000
    31 0.250028 -2.820664 -0.238397 0.041552 -0.112980 0.009235
    32 -0.049759 -1.680544 0.100479 0.083534 0.049505 -0.014373
    33 -0.034141 -1.148311 0.084778 0.058007 0.000000 0.000000
    34 -0.488517 -2.755599 -0.228262 0.038977 0.020560 -0.121233
    35 0.039889 -1.479791 0.029852 -0.144686 0.000000 0.000000
    36 0.028785 -1.075733 -0.023111 0.023216 0.000000 0.000000
    37 -1.180679 -2.507215 -0.193862 -0.022889 0.057346 -0.106342
    38 -0.024967 -1.123934 0.017594 -0.048333 0.003607 -0.034700
    39 -0.020058 -0.890964 0.010091 0.173655 0.000000 0.000000
    40 0.053744 -0.050267 -0.074021 -2.853554 0.026024 -1.564699
  time 5
    0 -5.883253 -2.535579 -8.875202 0.389235 -3.505279 1.125144
    1 0.096945 -8.450419 -0.009364 -0.239717 -0.119746 0.310191
    2 -0.471522 -2.570474 1.054335 -1.212305 -3.123867 0.577807
    3 2.670662 0.228810 -0.000696 0.000000 0.000000 1.396210
    4 -0.000066 -0.428590 -0.009439 0.000000 0.000000 0.318779
    5 2.670594 0.228795 -0.010135 0.000000 0.000000 0.000000
    6 -5.034416 0.218050 0.020352 1.570796 -3.141592 0.088140
    7 -0.586769 -1.264477 0.200164 -0.220171 -0.530272 -2.217323
    8 1.522835 0.058679 0.016851 0.188423 0.018617 0.170781
    9 1.117948 0.048424 -0.005765 0.000368 0.080994 -0.181890
    10 -0.963867 -2.785143 -0.085346 -0.047589 -0.098472 -0.214715
    11 0.028478 -1.403067 0.006271 -1.277164 0.000000 0.000000
    12 0.021413 -0.957782 0.020047 0.237296 0.000000 0.000000
    13 -0.249535 -2.846963 -0.174215 -0.056131 -0.208817 -0.084349
    14 0.043234 -1.683940 0.096014 -1.446803 0.000000 0.000000
    15 0.031729 -1.160831 0.058837 -1.296420 0.000000 0.000000
    16 0.447951 -2.798983 -0.200441 -1.038170 -0.106723 0.127273
    17 -0.032909 -1.480207 0.004936 -1.738426 0.000000 0.000000
    18 -0.027023 -1.076921 -0.020212 -0.708342 0.000000 0.000000
    19 1.164474 -2.543939 -0.170327 -1.190380 -0.178978 0.248519
    20 0.024032 -1.129040 0.017806 -1.592738 0.000000 0.000000
    21 0.014896 -0.883992 -0.019845 -0.525186 0.000000 0.000000
    22 -0.139399 -0.111698 0.014398 0.379218 0.062494 1.443760
    23 2.717085 -3.048353 -5.366696 -0.403656 -3.050405 -1.046331
    24 -0.071917 -8.498731 -0.104136 -0.471285 0.575935 -0.015968
    25 0.583509 -1.197273 0.185379 0.319079 -0.423053 -0.651956
    26 1.535926 0.010247 0.005008 -0.221598 -0.297922 -0.781612
    27 1.100770 0.004527 -0.010675 -0.033668 0.063776 -0.183302
    28 0.957766 -2.746777 -0.090301 0.045095 -0.146812 0.009517
    29 -0.033419 -1.397128 -0.011256 0.037042 0.000000 0.000000
    30 -0.022361 -0.957434 0.018783 0.114273 0.000000 0.000000
    31 0.250028 -2.820664 -0.238397 0.041552 -0.112980 0.009235
    32 -0.049759 -1.680544 0.100479 0.083534 0.049505 -0.014373
    33 -0.034141 -1.148311 0.084778 0.058007 0.000000 0.000000
    34 -0.488517 -2.755599 -0.228262 0.038977 0.020560 -0.121233
    35 0.039889 -1.479791 0.029852 -0.144686 0.000000 0.000000
    36 0.028785 -1.075733 -0.023111 0.023216 0.000000 0.000000
    37 -1.180679 -2.507215 -0.193862 -0.022889 0.057346 -0.106342
    38 -0.024967 -1.123934 0.017594 -0.048333 0.003607 -0.034700
    39 -0.020058 -0.890964 0.010091 0.173655 0.000000 0.000000
    40 0.053744 -0.050267 -0.074021 -2.853554 0.026024 -1.564699
  time 6
    0 -6.141074 -2.672302 -8.601757 0.475031 -3.505756 1.130550
    1 0.096945 -8.450419 -0.009364 -0.185947 -0.051749 0.275755
    2 -0.405113 -2.632976 1.175432 -0.645062 -2.989158 0.736552
    3 2.670662 0.228810 -0.000696 0.000000 0.000000 0.177462
    4 -0.000066 -0.428590 -0.009439 0.000000 0.000000 0.463073
    5 2.670594 0.228795 -0.010135 0.000000 0.000000 0.000000
    6 -5.034416 0.218050 0.020352 1.570796 -3.141592 0.088140
    7 -0.586769 -1.264477 0.200164 -0.259302 -0.533891 -2.135065
    8 1.522835 0.058679 0.016851 0.190286 -0.039014 0.129073
    9 1.117948 0.048424 -0.005765 -0.044382 0.103717 -0.209045
    10 -0.963867 -2.785143 -0.085346 -0.047589 -0.098472 -0.214715
    11 0.028478 -1.403067 0.006271 -1.277164 0.000000 0.000000
    12 0.021413 -0.957782 0.020047 0.237296 0.000000 0.000000
    13 -0.249535 -2.846963 -0.174215 -0.056131 -0.208817 -0.084349
    14 0.043234 -1.683940 0.096014 -1.446803 0.000000 0.000000
    15 0.031729 -1.160831 0.058837 -1.296420 0.000000 0.000000
    16 0.447951 -2.798983 -0.200441 -1.038170 -0.106723 0.127273
    17 -0.032909 -1.480207 0.004936 -1.738426 0.000000 0.000000
    18 -0.027023 -1.076921 -0.020212 -0.708342 0.000000 0.000000
    19 1.164474 -2.543939 -0.170327 -1.190380 -0.178978 0.248519
    20 0.024032 -1.129040 0.017806 -1.592738 0.000000 0.000000
    21 0.014896 -0.883992 -0.019845 -0.525186 0.000000 0.000000
    22 -0.139399 -0.111698 0.014398 0.379218 0.062494 1.443760
    23 2.697553 -2.493649 -5.261224 -0.311723 -3.104349 -1.091672
    24 -0.071917 -8.498731 -0.104136 -0.471285 0.575935 -0.015968
    25 0.583509 -1.197273 0.185379 0.319079 -0.423053 -0.651956
    26 1.535926 0.010247 0.005008 -0.221598 -0.297922 -0.781612
    27 1.100770 0.004527 -0.010675 -0.033668 0.063776 -0.183302
    28 0.957766 -2.746777 -0.090301 0.045095 -0.146812 0.009517
    29 -0.033419 -1.397128 -0.011256 0.037042 0.000000 0.000000
    30 -0.022361 -0.957434 0.018783 0.114273 0.000000 0.000000
    31 0.250028 -2.820664 -0.238397 0.041552 -0.112980 0.009235
    32 -0.049759 -1.680544 0.100479 0.083534 0.049505 -0.014373
    33 -0.034141 -1.148311 0.084778 0.058007 0.000000 0.000000
    34 -0.488517 -2.755599 -0.228262 0.038977 0.020560 -0.121233
    35 0.039889 -1.479791 0.029852 -0.144686 0.000000 0.000000
    36 0.028785 -1.075733 -0.023111 0.023216 0.000000 0.000000
    37 -1.180679 -2.507215 -0.193862 -0.022889 0.057346 -0.106342
    38 -0.024967 -1.123934 0.017594 -0.048333 0.003607 -0.034700
    39 -0.020058 -0.890964 0.010091 0.173655 0.000000 0.000000
    40 0.053744 -0.050267 -0.074021 -2.853554 0.026024 -1.564699
  time 7
    0 -6.258265 -2.730898 -8.488472 0.575297 -3.535474 1.123722
    1 0.096945 -8.450419 -0.009364 -0.135418 0.000512 0.253071
    2 -0.334799 -2.699384 1.280904 -0.053719 -2.889276 -5.349632
    3 2.670662 0.228810 -0.000696 0.000000 0.000000 -0.744556
    4 -0.000066 -0.428590 -0.009439 0.000000 0.000000 0.810147
    5 2.670594 0.228795 -0.010135 0.000000 0.000000 0.000000
    6 -5.034416 0.218050 0.020352 1.570796 -3.141592 0.088140
    7 -0.586769 -1.264477 0.200164 -0.292654 -0.535293 -2.068423
    8 1.522835 0.058679 0.016851 0.192821 -0.061364 0.112900
    9 1.117948 0.048424 -0.005765 -0.061748 0.112526 -0.219573
    10 -0.963867 -2.785143 -0.085346 -0.047589 -0.098472 -0.214715
    11 0.028478 -1.403067 0.006271 -1.277164 0.000000 0.000000
    12 0.021413 -0.957782 0.020047 0.237296 0.000000 0.000000
    13 -0.249535 -2.846963 -0.174215 -0.056131 -0.208817 -0.084349
    14 0.043234 -1.683940 0.096014 -1.446803 0.000000 0.000000
    15 0.031729 -1.160831 0.058837 -1.296420 0.000000 0.000000
    16 0.447951 -2.798983 -0.200441 -1.038170 -0.106723 0.127273
    17 -0.032909 -1.480207 0.004936 -1.738426 0.000000 0.000000
    18 -0.027023 -1.076921 -0.020212 -0.708342 0.000000 0.000000
    19 1.164474 -2.543939 -0.170327 -1.190380 -0.178978 0.248519
    20 0.024032 -1.129040 0.017806 -1.592738 0.000000 0.000000
    21 0.014896 -0.883992 -0.019845 -0.525186 0.000000 0.000000
    22 -0.139399 -0.111698 0.014398 0.379218 0.062494 1.443760
    23 2.678022 -1.954570 -5.155752 -0.217765 -3.160880 -1.136012
    24 -0.071917 -8.498731 -0.104136 -0.471285 0.575935 -0.015968
    25 0.583509 -1.197273 0.185379 0.319079 -0.423053 -0.651956
    26 1.535926 0.010247 0.005008 -0.221598 -0.297922 -0.781612
    27 1.100770 0.004527 -0.010675 -0.033668 0.063776 -0.183302
    28 0.957766 -2.746777 -0.090301 0.045095 -0.146812 0.009517
    29 -0.033419 -1.397128 -0.011256 0.037042 0.000000 0.000000
    30 -0.022361 -0.957434 0.018783 0.114273 0.000000 0.000000
    31 0.250028 -2.820664 -0.238397 0.041552 -0.112980 0.009235
    32 -0.049759 -1.680544 0.100479 0.083534 0.049505 -0.014373
    33 -0.034141 -1.148311 0.084778 0.058007 0.000000 0.000000
    34 -0.488517 -2.755599 -0.228262 0.038977 0.020560 -0.121233
    35 0.039889 -1.479791 0.029852 -0.144686 0.000000 0.000000
    36 0.028785 -1.075733 -0.023111 0.023216 0.000000 0.000000
    37 -1.180679 -2.507215 -0.193862 -0.022889 0.057346 -0.106342
    38 -0.024967 -1.123934 0.017594 -0.048333 0.003607 -0.034700
    39 -0.020058 -0.890964 0.010091 0.173655 0.000000 0.000000
    40 0.053744 -0.050267 -0.074021 -2.853554 0.026024 -1.564699
  time 8
    0 -6.246546 -2.715272 -8.519723 0.688726 -3.592233 1.108454
    1 0.096945 -8.450419 -0.009364 -0.071947 0.015371 0.227981
    2 -0.276203 -2.757980 1.374657 0.468359 -2.856138 -5.165868
    3 2.670662 0.228810 -0.000696 0.000000 0.000000 -0.615893
    4 -0.000066 -0.428590 -0.009439 0.000000 0.000000 1.073712
    5 2.670594 0.228795 -0.010135 0.000000 0.000000 0.000000
    6 -5.034416 0.218050 0.020352 1.570796 -3.141592 0.088140
    7 -0.586769 -1.264477 0.200164 -0.325251 -0.533711 -2.019671
    8 1.522835 0.058679 0.016851 0.198316 -0.052513 0.144544
    9 1.117948 0.048424 -0.005765 -0.038534 0.102698 -0.213730
    10 -0.963867 -2.785143 -0.085346 -0.048284 -0.050906 -0.118946
    11 0.028478 -1.403067 0.006271 -1.257158 0.000000 0.000000
    12 0.021413 -0.957782 0.020047 0.130480 0.000000 0.000000
    13 -0.249535 -2.846963 -0.174215 -0.081839 -0.195586 0.005236
    14 0.043234 -1.683940 0.096014 -1.461862 0.000000 0.000000
    15 0.031729 -1.160831 0.058837 -1.268909 0.000000 0.000000
    16 0.447951 -2.798983 -0.200441 -0.950293 -0.105464 0.124361
    17 -0.032909 -1.480207 0.004936 -1.772509 0.000000 0.000000
    18 -0.027023 -1.076921 -0.020212 -0.746819 0.000000 0.000000
    19 1.164474 -2.543939 -0.170327 -1.190047 -0.177468 0.245031
    20 0.024032 -1.129040 0.017806 -1.585963 0.000000 0.000000
    21 0.014896 -0.883992 -0.019845 -0.530684 0.000000 0.000000
    22 -0.139399 -0.111698 0.014398 0.379218 0.062494 1.443760
    23 2.658490 -1.470180 -5.054187 -0.126149 -3.217647 -1.176538
    24 -0.071917 -8.498731 -0.104136 -0.471285 0.575935 -0.015968
    25 0.583509 -1.197273 0.185379 0.319079 -0.423053 -0.651956
    26 1.535926 0.010247 0.005008 -0.221598 -0.297922 -0.781612
    27 1.100770 0.004527 -0.010675 -0.033668 0.063776 -0.183302
    28 0.957766 -2.746777 -0.090301 0.045095 -0.146812 0.009517
    29 -0.033419 -1.397128 -0.011256 0.037042 0.000000 0.000000
    30 -0.022361 -0.957434 0.018783 0.114273 0.000000 0.000000
    31 0.250028 -2.820664 -0.238397 0.041552 -0.112980 0.009235
    32 -0.049759 -1.680544 0.100479 0.083534 0.049505 -0.014373
    33 -0.034141 -1.148311 0.084778 0.058007 0.000000 0.000000
    34 -0.488517 -2.755599 -0.228262 0.038977 0.020560 -0.121233
    35 0.039889 -1.479791 0.029852 -0.144686 0.000000 0.000000
    36 0.028785 -1.075733 -0.023111 0.023216 0.000000 0.000000
    37 -1.180679 -2.507215 -0.193862 -0.022889 0.057346 -0.106342
    38 -0.024967 -1.123934 0.017594 -0.048333 0.003607 -0.034700
    39 -0.020058 -0.890964 0.010091 0.173655 0.000000 0.000000
    40 0.053744 -0.050267 -0.074021 -2.853554 0.026024 -1.564699
  time 9
    0 -6.180137 -2.680115 -8.590037 0.807943 -3.661319 1.107316
    1 0.096945 -8.450419 -0.009364 0.016345 -0.033183 0.200116
    2 -0.252765 -2.800950 1.441065 0.850925 -2.865526 -5.052081
    3 2.670662 0.228810 -0.000696 0.000000 0.000000 -0.642546
    4 -0.000066 -0.428590 -0.009439 0.006208 -0.016623 1.131334
    5 2.670594 0.228795 -0.010135 0.000000 0.000000 0.000000
    6 -5.034416 0.218050 0.020352 1.570796 -3.141592 0.088140
    7 -0.586769 -1.264477 0.200164 -0.355285 -0.530775 -1.987475
    8 1.522835 0.058679 0.016851 0.207551 -0.028723 0.223641
    9 1.117948 0.048424 -0.005765 0.019495 0.077783 -0.198290
    10 -0.963867 -2.785143 -0.085346 -0.051514 0.049873 0.058906
    11 0.028478 -1.403067 0.006271 -1.209486 0.000000 0.000000
    12 0.021413 -0.957782 0.020047 -0.124276 0.000000 0.000000
    13 -0.249535 -2.846963 -0.174215 -0.134856 -0.171006 0.171594
    14 0.043234 -1.683940 0.096014 -1.502655 0.000000 0.000000
    15 0.031729 -1.160831 0.058837 -1.194195 0.000000 0.000000
    16 0.447951 -2.798983 -0.200441 -0.740693 -0.102192 0.116943
    17 -0.032909 -1.480207 0.004936 -1.853792 0.000000 0.000000
    18 -0.027023 -1.076921 -0.020212 -0.838563 0.000000 0.000000
    19 1.164474 -2.543939 -0.170327 -1.188493 -0.173309 0.235564
    20 0.024032 -1.129040 0.017806 -1.567546 0.000000 0.000000
    21 0.014896 -0.883992 -0.019845 -0.545567 0.000000 0.000000
    22 -0.139399 -0.111698 0.014398 0.379218 0.062494 1.443760
    23 2.638958 -1.079543 -4.960434 -0.041555 -3.272453 -1.210372
    24 -0.071917 -8.498731 -0.104136 -0.471285 0.575935 -0.015968
    25 0.583509 -1.197273 0.185379 0.319079 -0.423053 -0.651956
    26 1.535926 0.010247 0.005008 -0.221598 -0.297922 -0.781612
    27 1.100770 0.004527 -0.010675 -0.033668 0.063776 -0.183302
    28 0.957766 -2.746777 -0.090301 0.045095 -0.146812 0.009517
    29 -0.033419 -1.397128 -0.011256 0.037042 0.000000 0.000000
    30 -0.022361 -0.957434 0.018783 0.114273 0.000000 0.000000
    31 0.250028 -2.820664 -0.238397 0.041552 -0.112980 0.009235
    32 -0.049759 -1.680544 0.100479 0.083534 0.049505 -0.014373
    33 -0.034141 -1.148311 0.084778 0.058007 0.000000 0.000000
    34 -0.488517 -2.755599 -0.228262 0.038977 0.020560 -0.121233
    35 0.039889 -1.479791 0.029852 -0.144686 0.000000 0.000000
    36 0.028785 -1.075733 -0.023111 0.023216 0.000000 0.000000
    37 -1.180679 -2.507215 -0.193862 -0.022889 0.057346 -0.106342
    38 -0.024967 -1.123934 0.017594 -0.048333 0.003607 -0.034700
    39 -0.020058 -0.890964 0.010091 0.173655 0.000000 0.000000
    40 0.053744 -0.050267 -0.074021 -2.853554 0.026024 -1.564699
  time 10
    0 -6.141074 -2.672302 -8.601757 0.925760 -3.728398 1.142688
    1 0.096945 -8.450419 -0.009364 0.122569 -0.139390 0.178844
    2 -0.280110 -2.824388 1.472316 1.090943 -2.872942 -5.025049
    3 2.670662 0.228810 -0.000696 0.000000 0.000000 -0.679841
    4 -0.000066 -0.428590 -0.009439 0.000000 0.000000 1.159042
    5 2.670594 0.228795 -0.010135 0.000000 0.000000 0.000000
    6 -5.034416 0.218050 0.020352 1.570796 -3.141592 0.088140
    7 -0.586769 -1.264477 0.200164 -0.368467 -0.529193 -1.975855
    8 1.522835 0.058679 0.016851 0.218415 0.005925 0.326466
    9 1.117948 0.048424 -0.005765 0.094914 0.044657 -0.176499
    10 -0.963867 -2.785143 -0.085346 -0.058895 0.140956 0.154686
    11 0.028478 -1.403067 0.006271 -1.152530 0.000000 0.000000
    12 0.021413 -0.957782 0.020047 -0.428258 0.000000 0.000000
    13 -0.249535 -2.846963 -0.174215 -0.178880 -0.157775 0.261191
    14 0.043234 -1.683940 0.096014 -1.562809 0.000000 0.000000
    15 0.031729 -1.160831 0.058837 -1.083987 0.000000 0.000000
    16 0.447951 -2.798983 -0.200441 -0.490577 -0.097602 0.106935
    17 -0.032909 -1.480207 0.004936 -1.950808 0.000000 0.000000
    18 -0.027023 -1.076921 -0.020212 -0.948072 0.000000 0.000000
    19 1.164474 -2.543939 -0.170327 -1.184873 -0.167005 0.221602
    20 0.024032 -1.129040 0.017806 -1.540382 0.000000 0.000000
    21 0.014896 -0.883992 -0.019845 -0.567489 0.000000 0.000000
    22 -0.139399 -0.111698 0.014398 0.379218 0.062494 1.443760
    23 2.619426 -0.817816 -4.886213 0.031650 -3.323025 -1.234699
    24 -0.071917 -8.498731 -0.104136 -0.471285 0.575935 -0.015968
    25 0.583509 -1.197273 0.185379 0.319079 -0.423053 -0.651956
    26 1.535926 0.010247 0.005008 -0.221598 -0.297922 -0.781612
    27 1.100770 0.004527 -0.010675 -0.033668 0.063776 -0.183302
    28 0.957766 -2.746777 -0.090301 0.045095 -0.146812 0.009517
    29 -0.033419 -1.397128 -0.011256 0.037042 0.000000 0.000000
    30 -0.022361 -0.957434 0.018783 0.114273 0.000000 0.000000
    31 0.250028 -2.820664 -0.238397 0.041552 -0.112980 0.009235
    32 -0.049759 -1.680544 0.100479 0.083534 0.049505 -0.014373
    33 -0.034141 -1.148311 0.084778 0.058007 0.000000 0.000000
    34 -0.488517 -2.755599 -0.228262 0.038977 0.020560 -0.121233
    35 0.039889 -1.479791 0.029852 -0.144686 0.000000 0.000000
    36 0.028785 -1.075733 -0.023111 0.023216 0.000000 0.000000
    37 -1.180679 -2.507215 -0.193862 -0.022889 0.057346 -0.106342
    38 -0.024967 -1.123934 0.017594 -0.048333 0.003607 -0.034700
    39 -0.020058 -0.890964 0.010091 0.173655 0.000000 0.000000
    40 0.053744 -0.050267 -0.074021 -2.853554 0.026024 -1.564699
  time 11
    0 -6.141074 -2.719179 -8.504097 1.066917 -3.792229 1.256298
    1 0.096945 -8.450419 -0.009364 0.234872 -0.277236 0.164490
    2 -0.358237 -2.840013 1.476223 1.246254 -2.867966 -5.062147
    3 2.670662 0.228810 -0.000696 0.000000 0.000000 -0.502762
    4 -0.000066 -0.428590 -0.009439 -0.037272 0.099784 1.237278
    5 2.670594 0.228795 -0.010135 0.000000 0.000000 0.000000
    6 -5.034416 0.218050 0.020352 1.570796 -3.141592 0.088140
    7 -0.586769 -1.264477 0.200164 -0.350836 -0.547985 -2.031815
    8 1.522835 0.058679 0.016851 0.228793 0.047279 0.429313
    9 1.117948 0.048424 -0.005765 0.170345 0.010189 -0.151518
    10 -0.963867 -2.785143 -0.085346 -0.098475 0.200699 -0.007333
    11 0.028478 -1.403067 0.006271 -1.104859 0.000000 0.000000
    12 0.021413 -0.957782 0.020047 -0.683014 0.000000 0.000000
    13 -0.249535 -2.846963 -0.174215 -0.207456 -0.160388 0.242711
    14 0.043234 -1.683940 0.096014 -1.635871 0.000000 0.000000
    15 0.031729 -1.160831 0.058837 -0.949972 0.000000 0.000000
    16 0.447951 -2.798983 -0.200441 -0.281006 -0.092413 0.096293
    17 -0.032909 -1.480207 0.004936 -2.032092 0.000000 0.000000
    18 -0.027023 -1.076921 -0.020212 -1.039816 0.000000 0.000000
    19 1.164474 -2.543939 -0.170327 -1.178366 -0.159083 0.204643
    20 0.024032 -1.129040 0.017806 -1.507398 0.000000 0.000000
    21 0.014896 -0.883992 -0.019845 -0.594126 0.000000 0.000000
    22 -0.139399 -0.111698 0.014398 0.379218 0.062494 1.443760
    23 2.599894 -0.720157 -4.831524 0.088847 -3.367168 -1.246644
    24 -0.071917 -8.498731 -0.104136 -0.471285 0.575935 -0.015968
    25 0.583509 -1.197273 0.185379 0.319079 -0.423053 -0.651956
    26 1.535926 0.010247 0.005008 -0.221598 -0.297922 -0.781612
    27 1.100770 0.004527 -0.010675 -0.033668 0.063776 -0.183302
    28 0.957766 -2.746777 -0.090301 0.045095 -0.146812 0.009517
    29 -0.033419 -1.397128 -0.011256 0.037042 0.000000 0.000000
    30 -0.022361 -0.957434 0.018783 0.114273 0.000000 0.000000
    31 0.250028 -2.820664 -0.238397 0.041552 -0.112980 0.009235
    32 -0.049759 -1.680544 0.100479 0.083534 0.049505 -0.014373
    33 -0.034141 -1.148311 0.084778 0.058007 0.000000 0.000000
    34 -0.488517 -2.755599 -0.228262 0.038977 0.020560 -0.121233
    35 0.039889 -1.479791 0.029852 -0.144686 0.000000 0.000000
    36 0.028785 -1.075733 -0.023111 0.023216 0.000000 0.000000
    37 -1.180679 -2.507215 -0.193862 -0.022889 0.057346 -0.106342
    38 -0.024967 -1.123934 0.017594 -0.048333 0.003607 -0.034700
    39 -0.020058 -0.890964 0.010091 0.173655 0.000000 0.000000
    40 0.053744 -0.050267 -0.074021 -2.853554 0.026024 -1.564699
  time 12
    0 -6.141074 -2.793400 -8.336123 1.234867 -3.860072 1.437049
    1 0.096945 -8.450419 -0.009364 0.341450 -0.420709 0.157375
    2 -0.467615 -2.847826 1.452785 1.328284 -2.864775 -5.148325
    3 2.670662 0.228810 -0.000696 0.000000 0.000000 0.209484
    4 -0.000066 -0.428590 -0.009439 -0.057718 0.109671 0.755497
    5 2.670594 0.228795 -0.010135 0.000000 0.000000 0.000000
    6 -5.034416 0.218050 0.020352 1.570796 -3.141592 0.088140
    7 -0.586769 -1.264477 0.200164 -0.310159 -0.582896 -2.150900
    8 1.522835 0.058679 0.016851 0.236573 0.091257 0.508387
    9 1.117948 0.048424 -0.005765 0.228363 -0.018717 -0.126594
    10 -0.963867 -2.785143 -0.085346 -0.133026 0.227820 -0.176388
    11 0.028478 -1.403067 0.006271 -1.084852 0.000000 0.000000
    12 0.021413 -0.957782 0.020047 -0.789830 0.000000 0.000000
    13 -0.249535 -2.846963 -0.174215 -0.236944 -0.167099 0.195060
    14 0.043234 -1.683940 0.096014 -1.715386 0.000000 0.000000
    15 0.031729 -1.160831 0.058837 -0.803833 0.000000 0.000000
    16 0.447951 -2.798983 -0.200441 -0.193100 -0.087344 0.086933
    17 -0.032909 -1.480207 0.004936 -2.066213 0.000000 0.000000
    18 -0.027023 -1.076921 -0.020212 -1.078293 0.000000 0.000000
    19 1.164474 -2.543939 -0.170327 -1.168151 -0.150059 0.186199
    20 0.024032 -1.129040 0.017806 -1.471518 0.000000 0.000000
    21 0.014896 -0.883992 -0.019845 -0.623087 0.000000 0.000000
    22 -0.139399 -0.111698 0.014398 0.379218 0.062494 1.443760
    23 2.584269 -0.798285 -4.772928 0.130289 -3.410370 -1.255087
    24 -0.071917 -8.498731 -0.104136 -0.471285 0.575935 -0.015968
    25 0.583509 -1.197273 0.185379 0.319079 -0.423053 -0.651956
    26 1.535926 0.010247 0.005008 -0.221598 -0.297922 -0.781612
    27 1.100770 0.004527 -0.010675 -0.033668 0.063776 -0.183302
    28 0.957766 -2.746777 -0.090301 0.045095 -0.146812 0.009517
    29 -0.033419 -1.397128 -0.011256 0.037042 0.000000 0.000000
    30 -0.022361 -0.957434 0.018783 0.114273 0.000000 0.000000
    31 0.250028 -2.820664 -0.238397 0.041552 -0.112980 0.009235
    32 -0.049759 -1.680544 0.100479 0.083534 0.049505 -0.014373
    33 -0.034141 -1.148311 0.084778 0.058007 0.000000 0.000000
    34 -0.488517 -2.755599 -0.228262 0.038977 0.020560 -0.121233
    35 0.039889 -1.479791 0.029852 -0.144686 0.000000 0.000000
    36 0.028785 -1.075733 -0.023111 0.023216 0.000000 0.000000
    37 -1.180679 -2.507215 -0.193862 -0.022889 0.057346 -0.106342
    38 -0.024967 -1.123934 0.017594 -0.048333 0.003607 -0.034700
    39 -0.020058 -0.890964 0.010091 0.173655 0.000000 0.000000
    40 0.053744 -0.050267 -0.074021 -2.853554 0.026024 -1.564699
  time 13
    0 -6.141074 -2.891059 -8.113460 -1.750516 -5.494626 -1.513672
    1 0.096945 -8.450419 -0.009364 0.430426 -0.543831 0.157846
    2 -0.592619 -2.840013 1.409814 1.344797 -2.882329 -5.266713
    3 2.670662 0.228810 -0.000696 0.000000 0.000000 1.095070
    4 -0.000066 -0.428590 -0.009439 -0.063554 0.075815 0.323860
    5 2.670594 0.228795 -0.010135 0.000000 0.000000 0.000000
    6 -5.034416 0.218050 0.020352 1.570796 -3.141592 0.088140
    7 -0.586769 -1.264477 0.200164 -0.264769 -0.601700 -2.259894
    8 1.522835 0.058679 0.016851 0.239625 0.133727 0.540031
    9 1.117948 0.048424 -0.005765 0.251577 -0.035220 -0.104887
    10 -0.963867 -2.785143 -0.085346 -0.095981 0.173386 -0.188804
    11 0.028478 -1.403067 0.006271 -1.161528 0.000000 0.000000
    12 0.021413 -0.957782 0.020047 -0.731626 0.000000 0.000000
    13 -0.249535 -2.846963 -0.174215 -0.265465 -0.176291 0.129912
    14 0.043234 -1.683940 0.096014 -1.794861 0.000000 0.000000
    15 0.031729 -1.160831 0.058837 -0.657304 0.000000 0.000000
    16 0.447951 -2.798983 -0.200441 -0.284048 -0.081891 0.077573
    17 -0.032909 -1.480207 0.004936 -2.000394 0.000000 0.000000
    18 -0.027023 -1.076921 -0.020212 -1.073345 0.000000 0.000000
    19 1.164474 -2.543939 -0.170327 -1.153384 -0.140459 0.167755
    20 0.024032 -1.129040 0.017806 -1.435639 0.000000 0.000000
    21 0.014896 -0.883992 -0.019845 -0.652071 0.000000 0.000000
    22 -0.139399 -0.111698 0.014398 0.379218 0.062494 1.443760
    23 2.564737 -1.009229 -4.686988 0.160786 -3.458041 -1.268908
    24 -0.071917 -8.498731 -0.104136 -0.471285 0.575935 -0.015968
    25 0.583509 -1.197273 0.185379 0.319079 -0.423053 -0.651956
    26 1.535926 0.010247 0.005008 -0.221598 -0.297922 -0.781612
    27 1.100770 0.004527 -0.010675 -0.033668 0.063776 -0.183302
    28 0.957766 -2.746777 -0.090301 0.045095 -0.146812 0.009517
    29 -0.033419 -1.397128 -0.011256 0.037042 0.000000 0.000000
    30 -0.022361 -0.957434 0.018783 0.114273 0.000000 0.000000
    31 0.250028 -2.820664 -0.238397 0.041552 -0.112980 0.009235
    32 -0.049759 -1.680544 0.100479 0.083534 0.049505 -0.014373
    33 -0.034141 -1.148311 0.084778 0.058007 0.000000 0.000000
    34 -0.488517 -2.755599 -0.228262 0.038977 0.020560 -0.121233
    35 0.039889 -1.479791 0.029852 -0.144686 0.000000 0.000000
    36 0.028785 -1.075733 -0.023111 0.023216 0.000000 0.000000
    37 -1.180679 -2.507215 -0.193862 -0.022889 0.057346 -0.106342
    38 -0.024967 -1.123934 0.017594 -0.048333 0.003607 -0.034700
    39 -0.020058 -0.890964 0.010091 0.173655 0.000000 0.000000
    40 0.053744 -0.050267 -0.074021 -2.853554 0.026024 -1.564699
  time 14
    0 -6.141074 -3.008250 -7.847827 -1.645115 -5.424298 -1.369906
    1 0.096945 -8.450419 -0.009364 0.489946 -0.620554 0.166250
    2 -0.709810 -2.820482 1.359032 1.300524 -2.929923 -5.393345
    3 2.670662 0.228810 -0.000696 0.000000 0.000000 1.975192
    4 -0.000066 -0.428590 -0.009439 -0.039285 -0.003847 0.253007
    5 2.670594 0.228795 -0.010135 0.000000 0.000000 0.000000
    6 -5.034416 0.218050 0.020352 1.570796 -3.141592 0.088140
    7 -0.586769 -1.264477 0.200164 -0.220095 -0.591201 -2.334879
    8 1.522835 0.058679 0.016851 0.234021 0.188974 0.518905
    9 1.117948 0.048424 -0.005765 0.251577 -0.041488 -0.088770
    10 -0.963867 -2.785143 -0.085346 -0.007620 0.043581 -0.198068
    11 0.028478 -1.403067 0.006271 -1.344411 0.000000 0.000000
    12 0.021413 -0.957782 0.020047 -0.592796 0.000000 0.000000
    13 -0.249535 -2.846963 -0.174215 -0.291036 -0.186286 0.058927
    14 0.043234 -1.683940 0.096014 -1.867923 0.000000 0.000000
    15 0.031729 -1.160831 0.058837 -0.522092 0.000000 0.000000
    16 0.447951 -2.798983 -0.200441 -0.500903 -0.075587 0.066931
    17 -0.032909 -1.480207 0.004936 -1.843482 0.000000 0.000000
    18 -0.027023 -1.076921 -0.020212 -1.049869 0.000000 0.000000
    19 1.164474 -2.543939 -0.170327 -1.133220 -0.130788 0.150809
    20 0.024032 -1.129040 0.017806 -1.402685 0.000000 0.000000
    21 0.014896 -0.883992 -0.019845 -0.678709 0.000000 0.000000
    22 -0.139399 -0.111698 0.014398 0.362034 0.061644 1.439733
    23 2.545205 -1.313925 -4.593235 0.182868 -3.507594 -1.285044
    24 -0.071917 -8.498731 -0.104136 -0.471285 0.575935 -0.015968
    25 0.583509 -1.197273 0.185379 0.319079 -0.423053 -0.651956
    26 1.535926 0.010247 0.005008 -0.221598 -0.297922 -0.781612
    27 1.100770 0.004527 -0.010675 -0.033668 0.063776 -0.183302
    28 0.957766 -2.746777 -0.090301 0.045095 -0.146812 0.009517
    29 -0.033419 -1.397128 -0.011256 0.037042 0.000000 0.000000
    30 -0.022361 -0.957434 0.018783 0.114273 0.000000 0.000000
    31 0.250028 -2.820664 -0.238397 0.041552 -0.112980 0.009235
    32 -0.049759 -1.680544 0.100479 0.083534 0.049505 -0.014373
    33 -0.034141 -1.148311 0.084778 0.058007 0.000000 0.000000
    34 -0.488517 -2.755599 -0.228262 0.038977 0.020560 -0.121233
    35 0.039889 -1.479791 0.029852 -0.144686 0.000000 0.000000
    36 0.028785 -1.075733 -0.023111 0.023216 0.000000 0.000000
    37 -1.180679 -2.507215 -0.193862 -0.022889 0.057346 -0.106342
    38 -0.024967 -1.123934 0.017594 -0.048333 0.003607 -0.034700
    39 -0.020058 -0.890964 0.010091 0.173655 0.000000 0.000000
    40 0.053744 -0.050267 -0.074021 -2.853554 0.026024 -1.564699
  time 15
    0 -6.141074 -3.137160 -7.566569 -1.629058 -5.355498 -1.330266
    1 0.096945 -8.450419 -0.009364 0.508157 -0.624901 0.182910
    2 -0.807469 -2.785324 1.304343 1.205106 -3.000047 -5.503393
    3 2.670662 0.228810 -0.000696 0.000000 0.000000 2.620518
    4 -0.000066 -0.428590 -0.009439 0.000000 0.000000 0.484070
    5 2.670594 0.228795 -0.010135 0.000000 0.000000 0.000000
    6 -5.034416 0.218050 0.020352 1.570796 -3.141592 0.088140
    7 -0.586769 -1.264477 0.200164 -0.171626 -0.566058 -2.403049
    8 1.522835 0.058679 0.016851 0.220184 0.258081 0.472469
    9 1.117948 0.048424 -0.005765 0.251577 -0.044880 -0.074656
    10 -0.963867 -2.785143 -0.085346 0.097852 -0.111332 -0.204408
    11 0.028478 -1.403067 0.006271 -1.562713 0.000000 0.000000
    12 0.021413 -0.957782 0.020047 -0.427119 0.000000 0.000000
    13 -0.249535 -2.846963 -0.174215 -0.311696 -0.195479 -0.006209
    14 0.043234 -1.683940 0.096014 -1.928077 0.000000 0.000000
    15 0.031729 -1.160831 0.058837 -0.409884 0.000000 0.000000
    16 0.447951 -2.798983 -0.200441 -0.759678 -0.069163 0.056924
    17 -0.032909 -1.480207 0.004936 -1.656219 0.000000 0.000000
    18 -0.027023 -1.076921 -0.020212 -0.994839 0.000000 0.000000
    19 1.164474 -2.543939 -0.170327 -1.106838 -0.121583 0.136847
    20 0.024032 -1.129040 0.017806 -1.375522 0.000000 0.000000
    21 0.014896 -0.883992 -0.019845 -0.700630 0.000000 0.000000
    22 -0.135493 -0.111698 0.018304 0.316766 0.059402 1.428804
    23 2.525673 -1.681124 -4.503389 0.199065 -3.556363 -1.300553
    24 -0.071917 -8.498731 -0.104136 -0.471285 0.575935 -0.015968
    25 0.583509 -1.197273 0.185379 0.319079 -0.423053 -0.651956
    26 1.535926 0.010247 0.005008 -0.221598 -0.297922 -0.781612
    27 1.100770 0.004527 -0.010675 -0.033668 0.063776 -0.183302
    28 0.957766 -2.746777 -0.090301 0.045095 -0.146812 0.009517
    29 -0.033419 -1.397128 -0.011256 0.037042 0.000000 0.000000
    30 -0.022361 -0.957434 0.018783 0.114273 0.000000 0.000000
    31 0.250028 -2.820664 -0.238397 0.041552 -0.112980 0.009235
    32 -0.049759 -1.680544 0.100479 0.083534 0.049505 -0.014373
    33 -0.034141 -1.148311 0.084778 0.058007 0.000000 0.000000
    34 -0.488517 -2.755599 -0.228262 0.038977 0.020560 -0.121233
    35 0.039889 -1.479791 0.029852 -0.144686 0.000000 0.000000
    36 0.028785 -1.075733 -0.023111 0.023216 0.000000 0.000000
    37 -1.180679 -2.507215 -0.193862 -0.022889 0.057346 -0.106342
    38 -0.024967 -1.123934 0.017594 -0.048333 0.003607 -0.034700
    39 -0.020058 -0.890964 0.010091 0.173655 0.000000 0.000000
    40 0.053744 -0.050267 -0.074021 -2.853554 0.026024 -1.564699
  time 16
    0 -6.141074 -3.269977 -7.273591 -1.739780 -5.284215 -1.426521
    1 0.096945 -8.450419 -0.009364 0.474243 -0.527455 0.213925
    2 -0.862159 -2.730635 1.253560 1.080500 -3.071391 0.704439
    3 2.670662 0.228810 -0.000696 0.000000 0.000000 2.706229
    4 -0.000066 -0.428590 -0.009439 0.029170 0.232130 1.349549
    5 2.670594 0.228795 -0.010135 0.000000 0.000000 0.000000
    6 -5.034416 0.218050 0.020352 1.570796 -3.141592 0.088140
    7 -0.586769 -1.264477 0.200164 -0.122806 -0.535809 -2.467856
    8 1.522835 0.058679 0.016851 0.202558 0.317085 0.426033
    9 1.117948 0.048424 -0.005765 0.251577 -0.046282 -0.056789
    10 -0.963867 -2.785143 -0.085346 0.186233 -0.241137 -0.208039
    11 0.028478 -1.403067 0.006271 -1.745596 0.000000 0.000000
    12 0.021413 -0.957782 0.020047 -0.288289 0.000000 0.000000
    13 -0.249535 -2.846963 -0.174215 -0.325543 -0.202190 -0.053860
    14 0.043234 -1.683940 0.096014 -1.968910 0.000000 0.000000
    15 0.031729 -1.160831 0.058837 -0.332341 0.000000 0.000000
    16 0.447951 -2.798983 -0.200441 -0.976533 -0.063374 0.049505
    17 -0.032909 -1.480207 0.004936 -1.499346 0.000000 0.000000
    18 -0.027023 -1.076921 -0.020212 -0.895278 0.000000 0.000000
    19 1.164474 -2.543939 -0.170327 -1.073417 -0.113350 0.127379
    20 0.024032 -1.129040 0.017806 -1.357105 0.000000 0.000000
    21 0.014896 -0.883992 -0.019845 -0.715513 0.000000 0.000000
    22 -0.127680 -0.111698 0.022211 0.252772 0.056227 1.412708
    23 2.506141 -2.071761 -4.433074 0.211909 -3.601996 -1.312373
    24 -0.071917 -8.498731 -0.104136 -0.471285 0.575935 -0.015968
    25 0.583509 -1.197273 0.185379 0.319079 -0.423053 -0.651956
    26 1.535926 0.010247 0.005008 -0.221598 -0.297922 -0.781612
    27 1.100770 0.004527 -0.010675 -0.033668 0.063776 -0.183302
    28 0.957766 -2.746777 -0.090301 0.045095 -0.146812 0.009517
    29 -0.033419 -1.397128 -0.011256 0.037042 0.000000 0.000000
    30 -0.022361 -0.957434 0.018783 0.114273 0.000000 0.000000
    31 0.250028 -2.820664 -0.238397 0.041552 -0.112980 0.009235
    32 -0.049759 -1.680544 0.100479 0.083534 0.049505 -0.014373
    33 -0.034141 -1.148311 0.084778 0.058007 0.000000 0.000000
    34 -0.488517 -2.755599 -0.228262 0.038977 0.020560 -0.121233
    35 0.039889 -1.479791 0.029852 -0.144686 0.000000 0.000000
    36 0.028785 -1.075733 -0.023111 0.023216 0.000000 0.000000
    37 -1.180679 -2.507215 -0.193862 -0.022889 0.057346 -0.106342
    38 -0.024967 -1.123934 0.017594 -0.048333 0.003607 -0.034700
    39 -0.020058 -0.890964 0.010091 0.173655 0.000000 0.000000
    40 0.053744 -0.050267 -0.074021 -2.853554 0.026024 -1.564699
  time 17
    0 -6.141074 -3.402793 -6.996239 1.190149 -4.215535 1.520787
    1 0.096945 -8.450419 -0.009364 0.397019 -0.346614 0.260136
    2 -0.858252 -2.652508 1.214496 0.958661 -3.117671 0.676735
    3 2.670662 0.228810 -0.000696 0.000000 0.000000 2.718885
    4 -0.000066 -0.428590 -0.009439 0.059384 0.117497 2.675620
    5 2.670594 0.228795 -0.010135 0.000000 0.000000 0.000000
    6 -5.034416 0.218050 0.020352 1.570796 -3.141592 0.088140
    7 -0.586769 -1.264477 0.200164 -0.077052 -0.509970 -2.532859
    8 1.522835 0.058679 0.016851 0.185637 0.342093 0.404907
    9 1.117948 0.048424 -0.005765 0.251565 -0.046546 -0.029493
    10 -0.963867 -2.785143 -0.085346 0.223278 -0.295571 -0.209202
    11 0.028478 -1.403067 0.006271 -1.822272 0.000000 0.000000
    12 0.021413 -0.957782 0.020047 -0.230041 0.000000 0.000000
    13 -0.249535 -2.846963 -0.174215 -0.330563 -0.204803 -0.072340
    14 0.043234 -1.683940 0.096014 -1.983969 0.000000 0.000000
    15 0.031729 -1.160831 0.058837 -0.301217 0.000000 0.000000
    16 0.447951 -2.798983 -0.200441 -1.067482 -0.058940 0.046605
    17 -0.032909 -1.480207 0.004936 -1.433527 0.000000 0.000000
    18 -0.027023 -1.076921 -0.020212 -0.614230 0.000000 0.000000
    19 1.164474 -2.543939 -0.170327 -1.032112 -0.106615 0.123879
    20 0.024032 -1.129040 0.017806 -1.350329 0.000000 0.000000
    21 0.014896 -0.883992 -0.019845 -0.720988 0.000000 0.000000
    22 -0.119867 -0.115604 0.026117 0.179395 0.052595 1.393173
    23 2.490516 -2.454585 -4.405729 0.223994 -3.641748 -1.317439
    24 -0.071917 -8.498731 -0.104136 -0.471285 0.575935 -0.015968
    25 0.583509 -1.197273 0.185379 0.319079 -0.423053 -0.651956
    26 1.535926 0.010247 0.005008 -0.221598 -0.297922 -0.781612
    27 1.100770 0.004527 -0.010675 -0.033668 0.063776 -0.183302
    28 0.957766 -2.746777 -0.090301 0.045095 -0.146812 0.009517
    29 -0.033419 -1.397128 -0.011256 0.037042 0.000000 0.000000
    30 -0.022361 -0.957434 0.018783 0.114273 0.000000 0.000000
    31 0.250028 -2.820664 -0.238397 0.041552 -0.112980 0.009235
    32 -0.049759 -1.680544 0.100479 0.083534 0.049505 -0.014373
    33 -0.034141 -1.148311 0.084778 0.058007 0.000000 0.000000
    34 -0.488517 -2.755599 -0.228262 0.038977 0.020560 -0.121233
    35 0.039889 -1.479791 0.029852 -0.144686 0.000000 0.000000
    36 0.028785 -1.075733 -0.023111 0.023216 0.000000 0.000000
    37 -1.180679 -2.507215 -0.193862 -0.022889 0.057346 -0.106342
    38 -0.024967 -1.123934 0.017594 -0.048333 0.003607 -0.034700
    39 -0.020058 -0.890964 0.010091 0.173655 0.000000 0.000000
    40 0.053744 -0.050267 -0.074021 -2.853554 0.026024 -1.564699
  time 18
    0 -6.141074 -3.527797 -6.742325 0.933696 -4.288347 1.276498
    1 0.096945 -8.450419 -0.009364 0.294316 -0.128068 0.314157
    2 -0.772312 -2.531410 1.171526 0.798529 -3.135507 0.689293
    3 2.670662 0.228810 -0.000696 0.000000 0.000000 2.643911
    4 -0.000066 -0.428590 -0.009439 0.000000 0.000000 3.097765
    5 2.670594 0.228795 -0.010135 0.000000 0.000000 0.000000
    6 -5.034416 0.218050 0.020352 1.570796 -3.141592 0.088140
    7 -0.586769 -1.264477 0.200164 -0.034979 -0.487523 -2.600505
    8 1.522835 0.058679 0.016851 0.165522 0.289281 0.517344
    9 1.117948 0.048424 -0.005765 0.224540 -0.038480 0.027610
    10 -0.963867 -2.785143 -0.085346 0.205430 -0.285180 -0.205079
    11 0.028478 -1.403067 0.006271 -1.751052 0.000000 0.000000
    12 0.021413 -0.957782 0.020047 -0.234727 0.000000 0.000000
    13 -0.249535 -2.846963 -0.174215 -0.283698 -0.200884 -0.069596
    14 0.043234 -1.683940 0.096014 -1.948615 0.000000 0.000000
    15 0.031729 -1.160831 0.058837 -0.297675 0.000000 0.000000
    16 0.447951 -2.798983 -0.200441 -0.990867 -0.055632 0.054383
    17 -0.032909 -1.480207 0.004936 -1.461840 0.000000 0.000000
    18 -0.027023 -1.076921 -0.020212 -0.302363 0.000000 0.000000
    19 1.164474 -2.543939 -0.170327 -0.960717 -0.100874 0.125881
    20 0.024032 -1.129040 0.017806 -1.382790 0.000000 0.000000
    21 0.014896 -0.883992 -0.019845 -0.668886 0.000192 0.000755
    22 -0.108148 -0.115604 0.033930 0.106017 0.048964 1.371949
    23 2.474890 -2.790533 -4.429168 0.237724 -3.673111 -1.312874
    24 -0.071917 -8.498731 -0.104136 -0.471285 0.575935 -0.015968
    25 0.583509 -1.197273 0.185379 0.319079 -0.423053 -0.651956
    26 1.535926 0.010247 0.005008 -0.221598 -0.297922 -0.781612
    27 1.100770 0.004527 -0.010675 -0.033668 0.063776 -0.183302
    28 0.957766 -2.746777 -0.090301 0.045095 -0.146812 0.009517
    29 -0.033419 -1.397128 -0.011256 0.037042 0.000000 0.000000
    30 -0.022361 -0.957434 0.018783 0.114273 0.000000 0.000000
    31 0.250028 -2.820664 -0.238397 0.041552 -0.112980 0.009235
    32 -0.049759 -1.680544 0.100479 0.083534 0.049505 -0.014373
    33 -0.034141 -1.148311 0.084778 0.058007 0.000000 0.000000
    34 -0.488517 -2.755599 -0.228262 0.038977 0.020560 -0.121233
    35 0.039889 -1.479791 0.029852 -0.144686 0.000000 0.000000
    36 0.028785 -1.075733 -0.023111 0.023216 0.000000 0.000000
    37 -1.180679 -2.507215 -0.193862 -0.022889 0.057346 -0.106342
    38 -0.024967 -1.123934 0.017594 -0.048333 0.003607 -0.034700
    39 -0.020058 -0.890964 0.010091 0.173655 0.000000 0.000000
    40 0.053744 -0.050267 -0.074021 -2.853554 0.026024 -1.564699
  time 19
    0 -6.141074 -3.644988 -6.535287 0.688353 -4.352655 1.029837
    1 0.096945 -8.450419 -0.009364 0.183887 0.082525 0.368624
    2 -0.623870 -2.363436 1.124650 0.588948 -3.141515 0.720064
    3 2.670662 0.228810 -0.000696 0.000000 0.000000 2.518221
    4 -0.000066 -0.428590 -0.009439 -0.006304 -0.022843 3.095176
    5 2.670594 0.228795 -0.010135 0.000000 0.000000 0.000000
    6 -5.034416 0.218050 0.020352 1.570796 -3.141592 0.088140
    7 -0.586769 -1.264477 0.200164 0.003663 -0.467293 -2.666382
    8 1.522835 0.058679 0.016851 0.143983 0.190638 0.726205
    9 1.117948 0.048424 -0.005765 0.174348 -0.020263 0.098149
    10 -0.963867 -2.785143 -0.085346 0.156609 -0.257184 -0.194005
    11 0.028478 -1.403067 0.006271 -1.567356 0.000000 0.000000
    12 0.021413 -0.957782 0.020047 -0.248786 0.000000 0.000000
    13 -0.249535 -2.846963 -0.174215 -0.162771 -0.190325 -0.062105
    14 0.043234 -1.683940 0.096014 -1.857572 0.000000 0.000000
    15 0.031729 -1.160831 0.058837 -0.295007 0.000000 0.000000
    16 0.447951 -2.798983 -0.200441 -0.793320 -0.052696 0.074445
    17 -0.032909 -1.480207 0.004936 -1.534853 0.000000 0.000000
    18 -0.027023 -1.076921 -0.020212 -0.113506 0.000000 0.000000
    19 1.164474 -2.543939 -0.170327 -0.849905 -0.095421 0.131010
    20 0.024032 -1.129040 0.017806 -1.466529 0.000000 0.000000
    21 0.014896 -0.883992 -0.019845 -0.534502 0.000695 0.002732
    22 -0.100335 -0.119511 0.041743 0.042010 0.045800 1.350748
    23 2.463171 -3.044447 -4.526827 0.255756 -3.693575 -1.295550
    24 -0.071917 -8.498731 -0.104136 -0.471285 0.575935 -0.015968
    25 0.583509 -1.197273 0.185379 0.319079 -0.423053 -0.651956
    26 1.535926 0.010247 0.005008 -0.221598 -0.297922 -0.781612
    27 1.100770 0.004527 -0.010675 -0.033668 0.063776 -0.183302
    28 0.957766 -2.746777 -0.090301 0.045095 -0.146812 0.009517
    29 -0.033419 -1.397128 -0.011256 0.037042 0.000000 0.000000
    30 -0.022361 -0.957434 0.018783 0.114273 0.000000 0.000000
    31 0.250028 -2.820664 -0.238397 0.041552 -0.112980 0.009235
    32 -0.049759 -1.680544 0.100479 0.083534 0.049505 -0.014373
    33 -0.034141 -1.148311 0.084778 0.058007 0.000000 0.000000
    34 -0.488517 -2.755599 -0.228262 0.038977 0.020560 -0.121233
    35 0.039889 -1.479791 0.029852 -0.144686 0.000000 0.000000
    36 0.028785 -1.075733 -0.023111 0.023216 0.000000 0.000000
    37 -1.180679 -2.507215 -0.193862 -0.022889 0.057346 -0.106342
    38 -0.024967 -1.123934 0.017594 -0.048333 0.003607 -0.034700
    39 -0.020058 -0.890964 0.010091 0.173655 0.000000 0.000000
    40 0.053744 -0.050267 -0.074021 -2.853554 0.026024 -1.564699
  time 20
    0 -6.141074 -3.738741 -6.386845 0.510040 -4.402534 0.828508
    1 0.096945 -8.450419 -0.009364 0.083463 0.239409 0.416175
    2 -0.444177 -2.175931 1.077773 0.406502 -3.141139 -5.524770
    3 2.670662 0.228810 -0.000696 0.000000 0.000000 2.451876
    4 -0.000066 -0.428590 -0.009439 0.000000 0.000000 -3.149465
    5 2.670594 0.228795 -0.010135 0.000000 0.000000 0.000000
    6 -5.034416 0.218050 0.020352 1.570796 -3.141592 0.088140
    7 -0.586769 -1.264477 0.200164 0.036700 -0.458484 -2.723609
    8 1.522835 0.058679 0.016851 0.133933 0.135819 0.838642
    9 1.117948 0.048424 -0.005765 0.147311 -0.000944 0.132642
    10 -0.963867 -2.785143 -0.085346 0.084011 -0.216389 -0.177874
    11 0.028478 -1.403067 0.006271 -1.316220 0.000000 0.000000
    12 0.021413 -0.957782 0.020047 -0.272216 0.000000 0.000000
    13 -0.249535 -2.846963 -0.174215 0.002567 -0.174889 -0.051044
    14 0.043234 -1.683940 0.096014 -1.733043 0.000000 0.000000
    15 0.031729 -1.160831 0.058837 -0.293097 0.000000 0.000000
    16 0.447951 -2.798983 -0.200441 -0.523224 -0.050191 0.101878
    17 -0.032909 -1.480207 0.004936 -1.634716 0.000000 0.000000
    18 -0.027023 -1.076921 -0.020212 0.058008 0.000000 0.000000
    19 1.164474 -2.543939 -0.170327 -0.717997 -0.090483 0.138045
    20 0.024032 -1.129040 0.017806 -1.581035 0.000000 0.000000
    21 0.014896 -0.883992 -0.019845 -0.350777 0.001378 0.005441
    22 -0.096429 -0.119511 0.049555 -0.003258 0.043559 1.331309
    23 2.455359 -3.181170 -4.710426 0.280559 -3.700553 -1.262529
    24 -0.071917 -8.498731 -0.104136 -0.471285 0.575935 -0.015968
    25 0.583509 -1.197273 0.185379 0.319079 -0.423053 -0.651956
    26 1.535926 0.010247 0.005008 -0.221598 -0.297922 -0.781612
    27 1.100770 0.004527 -0.010675 -0.033668 0.063776 -0.183302
    28 0.957766 -2.746777 -0.090301 0.045095 -0.146812 0.009517
    29 -0.033419 -1.397128 -0.011256 0.037042 0.000000 0.000000
    30 -0.022361 -0.957434 0.018783 0.114273 0.000000 0.000000
    31 0.250028 -2.820664 -0.238397 0.041552 -0.112980 0.009235
    32 -0.049759 -1.680544 0.100479 0.083534 0.049505 -0.014373
    33 -0.034141 -1.148311 0.084778 0.058007 0.000000 0.000000
    34 -0.488517 -2.755599 -0.228262 0.038977 0.020560 -0.121233
    35 0.039889 -1.479791 0.029852 -0.144686 0.000000 0.000000
    36 0.028785 -1.075733 -0.023111 0.023216 0.000000 0.000000
    37 -1.180679 -2.507215 -0.193862 -0.022889 0.057346 -0.106342
    38 -0.024967 -1.123934 0.017594 -0.048333 0.003607 -0.034700
    39 -0.020058 -0.890964 0.010091 0.173655 0.000000 0.000000
    40 0.053744 -0.050267 -0.074021 -2.853554 0.026024 -1.564699
  time 21
    0 -6.141074 -3.809056 -6.316531 0.398851 -4.437890 0.672413
    1 0.096945 -8.450419 -0.009364 0.010849 0.296927 0.449371
    2 -0.276203 -2.000144 1.034803 0.328490 -3.139919 -5.489589
    3 2.670662 0.228810 -0.000696 0.000000 0.000000 2.410171
    4 -0.000066 -0.428590 -0.009439 -0.030501 0.005177 2.386264
    5 2.670594 0.228795 -0.010135 0.000000 0.000000 0.000000
    6 -5.034416 0.218050 0.020352 1.570796 -3.141592 0.088140
    7 -0.586769 -1.264477 0.200164 0.066193 -0.496775 -2.775354
    8 1.522835 0.058679 0.016851 0.151857 0.133709 0.722224
    9 1.117948 0.048424 -0.005765 0.167122 0.019861 0.065406
    10 -0.963867 -2.785143 -0.085346 -0.005208 -0.167576 -0.158579
    11 0.028478 -1.403067 0.006271 -1.042541 0.000000 0.000000
    12 0.021413 -0.957782 0.020047 -0.305018 0.000000 0.000000
    13 -0.249535 -2.846963 -0.174215 0.182746 -0.156337 -0.037537
    14 0.043234 -1.683940 0.096014 -1.597351 0.000000 0.000000
    15 0.031729 -1.160831 0.058837 -0.291832 0.000000 0.000000
    16 0.447951 -2.798983 -0.200441 -0.228906 -0.048166 0.131768
    17 -0.032909 -1.480207 0.004936 -1.743465 0.000000 0.000000
    18 -0.027023 -1.076921 -0.020212 0.182597 0.000000 0.000000
    19 1.164474 -2.543939 -0.170327 -0.583423 -0.086265 0.145703
    20 0.024032 -1.129040 0.017806 -1.705766 0.000000 0.000000
    21 0.014896 -0.883992 -0.019845 -0.150582 0.002133 0.008389
    22 -0.096429 -0.119511 0.057368 -0.020429 0.042708 1.315381
    23 2.443639 -3.181170 -5.034655 0.314409 -3.688557 -1.203930
    24 -0.071917 -8.498731 -0.104136 -0.437848 0.560685 -0.006920
    25 0.583509 -1.197273 0.185379 0.319079 -0.423053 -0.651956
    26 1.535926 0.010247 0.005008 -0.221598 -0.297922 -0.781612
    27 1.100770 0.004527 -0.010675 -0.033668 0.063776 -0.183302
    28 0.957766 -2.746777 -0.090301 0.045095 -0.146812 0.009517
    29 -0.033419 -1.397128 -0.011256 0.037042 0.000000 0.000000
    30 -0.022361 -0.957434 0.018783 0.114273 0.000000 0.000000
    31 0.250028 -2.820664 -0.238397 0.041552 -0.112980 0.009235
    32 -0.049759 -1.680544 0.100479 0.083534 0.049505 -0.014373
    33 -0.034141 -1.148311 0.084778 0.058007 0.000000 0.000000
    34 -0.488517 -2.755599 -0.228262 0.038977 0.020560 -0.121233
    35 0.039889 -1.479791 0.029852 -0.144686 0.000000 0.000000
    36 0.028785 -1.075733 -0.023111 0.023216 0.000000 0.000000
    37 -1.180679 -2.507215 -0.193862 -0.022889 0.057346 -0.106342
    38 -0.024967 -1.123934 0.017594 -0.048333 0.003607 -0.034700
    39 -0.020058 -0.890964 0.010091 0.173655 0.000000 0.000000
    40 0.053744 -0.050267 -0.074021 -2.853554 0.026024 -1.564699
  time 22
    0 -6.141074 -3.867651 -6.332156 0.385968 -4.441998 0.624996
    1 0.096945 -8.450419 -0.009364 -0.033829 0.219866 0.467270
    2 -0.147293 -1.875140 1.003552 0.299570 -3.108002 -5.449136
    3 2.670662 0.228810 -0.000696 0.000000 0.000000 2.210083
    4 -0.000066 -0.428590 -0.009439 -0.076390 -0.001953 1.163261
    5 2.670594 0.228795 -0.010135 0.000000 0.000000 0.000000
    6 -5.034416 0.218050 0.020352 1.570796 -3.141592 0.088140
    7 -0.586769 -1.264477 0.200164 0.090095 -0.567867 -2.818471
    8 1.522835 0.058679 0.016851 0.195811 0.132835 0.466113
    9 1.117948 0.048424 -0.005765 0.210674 0.043710 -0.082503
    10 -0.963867 -2.785143 -0.085346 -0.103893 -0.115562 -0.138037
    11 0.028478 -1.403067 0.006271 -0.791358 0.000000 0.000000
    12 0.021413 -0.957782 0.020047 -0.347193 0.000000 0.000000
    13 -0.249535 -2.846963 -0.174215 0.348083 -0.136430 -0.022748
    14 0.043234 -1.683940 0.096014 -1.472821 0.000000 0.000000
    15 0.031729 -1.160831 0.058837 -0.291050 0.000000 0.000000
    16 0.447951 -2.798983 -0.200441 0.041249 -0.046668 0.159200
    17 -0.032909 -1.480207 0.004936 -1.843329 0.000000 0.000000
    18 -0.027023 -1.076921 -0.020212 0.230706 0.000000 0.000000
    19 1.164474 -2.543939 -0.170327 -0.464550 -0.082981 0.152726
    20 0.024032 -1.129040 0.017806 -1.820272 0.000000 0.000000
    21 0.014896 -0.883992 -0.019845 0.033144 0.002828 0.011086
    22 -0.096429 -0.119511 0.069087 0.003810 0.045009 1.301623
    23 2.435827 -3.075698 -5.499513 0.354649 -3.659625 -1.121441
    24 -0.071917 -8.498731 -0.104136 -0.352714 0.522011 0.015672
    25 0.583509 -1.197273 0.185379 0.319079 -0.423053 -0.651956
    26 1.535926 0.010247 0.005008 -0.221598 -0.297922 -0.781612
    27 1.100770 0.004527 -0.010675 -0.033668 0.063776 -0.183302
    28 0.957766 -2.746777 -0.090301 0.045095 -0.146812 0.009517
    29 -0.033419 -1.397128 -0.011256 0.037042 0.000000 0.000000
    30 -0.022361 -0.957434 0.018783 0.114273 0.000000 0.000000
    31 0.250028 -2.820664 -0.238397 0.041552 -0.112980 0.009235
    32 -0.049759 -1.680544 0.100479 0.083534 0.049505 -0.014373
    33 -0.034141 -1.148311 0.084778 0.058007 0.000000 0.000000
    34 -0.488517 -2.755599 -0.228262 0.038977 0.020560 -0.121233
    35 0.039889 -1.479791 0.029852 -0.144686 0.000000 0.000000
    36 0.028785 -1.075733 -0.023111 0.023216 0.000000 0.000000
    37 -1.180679 -2.507215 -0.193862 -0.022889 0.057346 -0.106342
    38 -0.024967 -1.123934 0.017594 -0.048333 0.003607 -0.034700
    39 -0.020058 -0.890964 0.010091 0.173655 0.000000 0.000000
    40 0.053744 -0.050267 -0.074021 -2.853554 0.026024 -1.564699
  time 23
    0 -6.141074 -3.918434 -6.406377 0.471297 -4.414765 0.686164
    1 0.096945 -8.450419 -0.009364 -0.064729 0.037778 0.475576
    2 -0.096510 -1.824357 0.991833 0.269132 -3.077868 -5.422678
    3 2.670662 0.228810 -0.000696 0.000000 0.000000 1.738767
    4 -0.000066 -0.428590 -0.009439 -0.073370 -0.005453 0.395672
    5 2.670594 0.228795 -0.010135 0.000000 0.000000 0.000000
    6 -5.034416 0.218050 0.020352 1.570796 -3.141592 0.088140
    7 -0.586769 -1.264477 0.200164 0.099921 -0.606146 -2.836491
    8 1.522835 0.058679 0.016851 0.251021 0.132200 0.209980
    9 1.117948 0.048424 -0.005765 0.254238 0.063341 -0.230441
    10 -0.963867 -2.785143 -0.085346 -0.204847 -0.065119 -0.118143
    11 0.028478 -1.403067 0.006271 -0.607661 0.000000 0.000000
    12 0.021413 -0.957782 0.020047 -0.398740 0.000000 0.000000
    13 -0.249535 -2.846963 -0.174215 0.469011 -0.116944 -0.007803
    14 0.043234 -1.683940 0.096014 -1.381738 0.000000 0.000000
    15 0.031729 -1.160831 0.058837 -0.290682 0.000000 0.000000
    16 0.447951 -2.798983 -0.200441 0.238797 -0.045733 0.179262
    17 -0.032909 -1.480207 0.004936 -1.916341 0.000000 0.000000
    18 -0.027023 -1.076921 -0.020212 0.068404 0.000000 0.000000
    19 1.164474 -2.543939 -0.170327 -0.379742 -0.080860 0.157868
    20 0.024032 -1.129040 0.017806 -1.904011 0.000000 0.000000
    21 0.014896 -0.883992 -0.019845 0.167528 0.003332 0.013063
    22 -0.096429 -0.119511 0.088619 0.062343 0.050510 1.288512
    23 2.428014 -2.923349 -6.015153 0.396661 -3.622225 -1.029195
    24 -0.071917 -8.498731 -0.104136 -0.238649 0.470602 0.045024
    25 0.583509 -1.197273 0.185379 0.319079 -0.423053 -0.651956
    26 1.535926 0.010247 0.005008 -0.221598 -0.297922 -0.781612
    27 1.100770 0.004527 -0.010675 -0.033668 0.063776 -0.183302
    28 0.957766 -2.746777 -0.090301 0.045095 -0.146812 0.009517
    29 -0.033419 -1.397128 -0.011256 0.037042 0.000000 0.000000
    30 -0.022361 -0.957434 0.018783 0.114273 0.000000 0.000000
    31 0.250028 -2.820664 -0.238397 0.041552 -0.112980 0.009235
    32 -0.049759 -1.680544 0.100479 0.083534 0.049505 -0.014373
    33 -0.034141 -1.148311 0.084778 0.058007 0.000000 0.000000
    34 -0.488517 -2.755599 -0.228262 0.038977 0.020560 -0.121233
    35 0.039889 -1.479791 0.029852 -0.144686 0.000000 0.000000
    36 0.028785 -1.075733 -0.023111 0.023216 0.000000 0.000000
    37 -1.180679 -2.507215 -0.193862 -0.022889 0.057346 -0.106342
    38 -0.024967 -1.123934 0.017594 -0.048333 0.003607 -0.034700
    39 -0.020058 -0.890964 0.010091 0.173655 0.000000 0.000000
    40 0.053744 -0.050267 -0.074021 -2.853554 0.026024 -1.564699
  time 24
    0 -6.141074 -3.957498 -6.500130 0.603304 -4.371957 0.801290
    1 0.096945 -8.450419 -0.009364 -0.085624 -0.197985 0.476964
    2 -0.041821 -1.914204 0.972301 0.282253 -3.110724 -5.443192
    3 2.670662 0.228810 -0.000696 0.000000 0.000000 0.662009
    4 -0.000066 -0.428590 -0.009439 0.000000 0.000000 0.393563
    5 2.670594 0.228795 -0.010135 0.000000 0.000000 0.000000
    6 -5.034416 0.218050 0.020352 1.570796 -3.141592 0.088140
    7 -0.586769 -1.264477 0.200164 0.065665 -0.582105 -2.794597
    8 1.522835 0.058679 0.016851 0.302739 0.130811 0.093539
    9 1.117948 0.048424 -0.005765 0.274048 0.071503 -0.297649
    10 -0.963867 -2.785143 -0.085346 -0.300935 -0.021064 -0.100813
    11 0.028478 -1.403067 0.006271 -0.536441 0.000000 0.000000
    12 0.021413 -0.957782 0.020047 -0.459703 0.000000 0.000000
    13 -0.249535 -2.846963 -0.174215 0.515904 -0.099626 0.006135
    14 0.043234 -1.683940 0.096014 -1.346425 0.000000 0.000000
    15 0.031729 -1.160831 0.058837 -0.290590 0.000000 0.000000
    16 0.447951 -2.798983 -0.200441 0.315382 -0.045409 0.187040
    17 -0.032909 -1.480207 0.004936 -1.944654 0.000000 0.000000
    18 -0.027023 -1.076921 -0.020212 -0.277045 0.000000 0.000000
    19 1.164474 -2.543939 -0.170327 -0.347409 -0.080105 0.159857
    20 0.024032 -1.129040 0.017806 -1.936503 0.000000 0.000000
    21 0.014896 -0.883992 -0.019845 0.219629 0.003523 0.013830
    22 -0.096429 -0.119511 0.104244 0.133874 0.057077 1.277414
    23 2.428014 -2.782720 -6.507356 0.435636 -3.585139 -0.941515
    24 -0.071917 -8.498731 -0.104136 -0.118394 0.417132 0.074323
    25 0.583509 -1.197273 0.185379 0.319079 -0.423053 -0.651956
    26 1.535926 0.010247 0.005008 -0.221598 -0.297922 -0.781612
    27 1.100770 0.004527 -0.010675 -0.033668 0.063776 -0.183302
    28 0.957766 -2.746777 -0.090301 0.045095 -0.146812 0.009517
    29 -0.033419 -1.397128 -0.011256 0.037042 0.000000 0.000000
    30 -0.022361 -0.957434 0.018783 0.114273 0.000000 0.000000
    31 0.250028 -2.820664 -0.238397 0.041552 -0.112980 0.009235
    32 -0.049759 -1.680544 0.100479 0.083534 0.049505 -0.014373
    33 -0.034141 -1.148311 0.084778 0.058007 0.000000 0.000000
    34 -0.488517 -2.755599 -0.228262 0.038977 0.020560 -0.121233
    35 0.039889 -1.479791 0.029852 -0.144686 0.000000 0.000000
    36 0.028785 -1.075733 -0.023111 0.023216 0.000000 0.000000
    37 -1.180679 -2.507215 -0.193862 -0.022889 0.057346 -0.106342
    38 -0.024967 -1.123934 0.017594 -0.048333 0.003607 -0.034700
    39 -0.020058 -0.890964 0.010091 0.173655 0.000000 0.000000
    40 0.053744 -0.050267 -0.074021 -2.853554 0.026024 -1.564699
  time 25
    0 -6.141074 -3.984842 -6.574351 0.730083 -4.328766 0.915754
    1 0.096945 -8.450419 -0.009364 -0.100213 -0.436074 0.474039
    2 0.008962 -2.004050 0.948863 0.293946 -3.145082 -5.462364
    3 2.670662 0.228810 -0.000696 0.000000 0.000000 -0.092518
    4 -0.000066 -0.428590 -0.009439 0.000000 0.000000 0.075348
    5 2.670594 0.228795 -0.010135 0.000000 0.000000 0.000000
    6 -5.034416 0.218050 0.020352 1.570796 -3.141592 0.088140
    7 -0.586769 -1.264477 0.200164 0.024020 -0.558064 -2.738396
    8 1.522835 0.058679 0.016851 0.359186 -0.341770 1.027711
    9 1.117948 0.048424 -0.005765 0.269051 -0.176483 0.694329
    10 -0.963867 -2.785143 -0.085346 -0.506830 0.018581 -0.085725
    11 0.028478 -1.403067 0.006271 -1.384568 0.000000 0.000000
    12 0.021413 -0.957782 0.020047 -0.996368 0.000000 0.000000
    13 -0.249535 -2.846963 -0.174215 -0.922321 -0.079695 0.032129
    14 0.043234 -1.683940 0.096014 -1.816739 0.000000 0.000000
    15 0.031729 -1.160831 0.058837 -1.079640 0.000000 0.000000
    16 0.447951 -2.798983 -0.200441 -1.361302 -0.058940 0.046605
    17 -0.032909 -1.480207 0.004936 -1.451684 0.000000 0.000000
    18 -0.027023 -1.076921 -0.020212 -0.868092 0.000000 0.000000
    19 1.164474 -2.543939 -0.170327 -1.378428 -0.149891 0.112554
    20 0.024032 -1.129040 0.017806 -1.187163 0.000000 0.000000
    21 0.014896 -0.883992 -0.019845 -0.716710 0.000000 0.000000
    22 -0.096429 -0.115604 0.115964 0.197148 0.062566 1.269732
    23 2.435827 -2.712406 -6.890180 0.466892 -3.556912 -0.872596
    24 -0.071917 -8.498731 -0.104136 -0.014719 0.372239 0.096731
    25 0.583509 -1.197273 0.185379 0.319079 -0.423053 -0.651956
    26 1.535926 0.010247 0.005008 -0.221598 -0.297922 -0.781612
    27 1.100770 0.004527 -0.010675 -0.033668 0.063776 -0.183302
    28 0.957766 -2.746777 -0.090301 0.045095 -0.146812 0.009517
    29 -0.033419 -1.397128 -0.011256 0.037042 0.000000 0.000000
    30 -0.022361 -0.957434 0.018783 0.114273 0.000000 0.000000
    31 0.250028 -2.820664 -0.238397 0.041552 -0.112980 0.009235
    32 -0.049759 -1.680544 0.100479 0.083534 0.049505 -0.014373
    33 -0.034141 -1.148311 0.084778 0.058007 0.000000 0.000000
    34 -0.488517 -2.755599 -0.228262 0.038977 0.020560 -0.121233
    35 0.039889 -1.479791 0.029852 -0.144686 0.000000 0.000000
    36 0.028785 -1.075733 -0.023111 0.023216 0.000000 0.000000
    37 -1.180679 -2.507215 -0.193862 -0.022889 0.057346 -0.106342
    38 -0.024967 -1.123934 0.017594 -0.048333 0.003607 -0.034700
    39 -0.020058 -0.890964 0.010091 0.173655 0.000000 0.000000
    40 0.053744 -0.050267 -0.074021 -2.853554 0.026024 -1.564699
  time 26
    0 -6.141074 -3.988749 -6.597789 0.799728 -4.300769 0.974834
    1 0.096945 -8.450419 -0.009364 -0.112269 -0.625204 0.469477
    2 0.008962 -2.004050 0.948863 0.293946 -3.145082 -5.462364
    3 2.670662 0.228810 -0.000696 0.000000 0.000000 0.000000
    4 -0.000066 -0.428590 -0.009439 0.000000 0.000000 0.021849
    5 2.670594 0.228795 -0.010135 0.000000 0.000000 0.000000
    6 -5.034416 0.218050 0.020352 1.570796 -3.141592 0.088140
    7 -0.586769 -1.264477 0.200164 0.018654 -0.560437 -2.728305
    8 1.522835 0.058679 0.016851 0.348682 -0.352507 1.058608
    9 1.117948 0.048424 -0.005765 0.219914 -0.235183 0.933552
    10 -0.963867 -2.785143 -0.085346 -0.506830 0.018581 -0.085725
    11 0.028478 -1.403067 0.006271 -1.035506 0.000000 0.000000
    12 0.021413 -0.957782 0.020047 -1.594827 0.000000 0.000000
    13 -0.249535 -2.846963 -0.174215 -1.043580 -0.079695 0.032129
    14 0.043234 -1.683940 0.096014 -1.830377 0.000000 0.000000
    15 0.031729 -1.160831 0.058837 -0.854716 0.000000 0.000000
    16 0.447951 -2.798983 -0.200441 -1.553965 -0.058940 0.046605
    17 -0.032909 -1.480207 0.004936 -1.279693 0.000000 0.000000
    18 -0.027023 -1.076921 -0.020212 -1.103637 0.000000 0.000000
    19 1.164474 -2.543939 -0.170327 -1.547843 -0.149891 0.112554
    20 0.024032 -1.129040 0.017806 -1.230895 0.000000 0.000000
    21 0.014896 -0.883992 -0.019845 -0.459444 0.000000 0.000000
    22 -0.100335 -0.115604 0.123776 0.230871 0.064879 1.266868
    23 2.455359 -2.767095 -7.093311 0.485684 -3.546092 -0.836636
    24 -0.071917 -8.498731 -0.104136 0.049594 0.346578 0.105489
    25 0.583509 -1.197273 0.185379 0.319079 -0.423053 -0.651956
    26 1.535926 0.010247 0.005008 -0.221598 -0.297922 -0.781612
    27 1.100770 0.004527 -0.010675 -0.033668 0.063776 -0.183302
    28 0.957766 -2.746777 -0.090301 0.045095 -0.146812 0.009517
    29 -0.033419 -1.397128 -0.011256 0.037042 0.000000 0.000000
    30 -0.022361 -0.957434 0.018783 0.114273 0.000000 0.000000
    31 0.250028 -2.820664 -0.238397 0.041552 -0.112980 0.009235
    32 -0.049759 -1.680544 0.100479 0.083534 0.049505 -0.014373
    33 -0.034141 -1.148311 0.084778 0.058007 0.000000 0.000000
    34 -0.488517 -2.755599 -0.228262 0.038977 0.020560 -0.121233
    35 0.039889 -1.479791 0.029852 -0.144686 0.000000 0.000000
    36 0.028785 -1.075733 -0.023111 0.023216 0.000000 0.000000
    37 -1.180679 -2.507215 -0.193862 -0.022889 0.057346 -0.106342
    38 -0.024967 -1.123934 0.017594 -0.048333 0.003607 -0.034700
    39 -0.020058 -0.890964 0.010091 0.173655 0.000000 0.000000
    40 0.053744 -0.050267 -0.074021 -2.853554 0.026024 -1.564699
  time 27
    0 -6.141074 -3.961404 -6.539194 0.797021 -4.290067 0.964782
    1 0.096945 -8.450419 -0.009364 -0.125515 -0.713957 0.465957
    2 0.008962 -2.004050 0.948863 0.293946 -3.145082 -5.462364
    3 2.670662 0.228810 -0.000696 0.000000 0.000000 0.000000
    4 -0.000066 -0.428590 -0.009439 0.000000 0.000000 -0.000011
    5 2.670594 0.228795 -0.010135 0.000000 0.000000 0.000000
    6 -5.034416 0.218050 0.020352 1.570796 -3.141592 0.088140
    7 -0.586769 -1.264477 0.200164 0.019044 -0.560257 -2.729048
    8 1.522835 0.058679 0.016851 0.349465 -0.351718 1.056324
    9 1.117948 0.048424 -0.005765 0.223545 -0.230845 0.915826
    10 -0.963867 -2.785143 -0.085346 -0.506830 0.018581 -0.085725
    11 0.028478 -1.403067 0.006271 -1.035506 0.000000 0.000000
    12 0.021413 -0.957782 0.020047 -1.594827 0.000000 0.000000
    13 -0.249535 -2.846963 -0.174215 -1.034615 -0.079695 0.032129
    14 0.043234 -1.683940 0.096014 -1.829362 0.000000 0.000000
    15 0.031729 -1.160831 0.058837 -0.871370 0.000000 0.000000
    16 0.447951 -2.798983 -0.200441 -1.539689 -0.058940 0.046605
    17 -0.032909 -1.480207 0.004936 -1.292465 0.000000 0.000000
    18 -0.027023 -1.076921 -0.020212 -1.086188 0.000000 0.000000
    19 1.164474 -2.543939 -0.170327 -1.535297 -0.149891 0.112554
    20 0.024032 -1.129040 0.017806 -1.227631 0.000000 0.000000
    21 0.014896 -0.883992 -0.019845 -0.596381 0.000000 0.000000
    22 -0.104242 -0.115604 0.115964 0.241050 0.058983 1.277690
    23 2.494422 -3.013196 -7.042529 0.487898 -3.558794 -0.844829
    24 -0.071917 -8.498731 -0.104136 0.069706 0.343836 0.095916
    25 0.583509 -1.197273 0.185379 0.319079 -0.423053 -0.651956
    26 1.535926 0.010247 0.005008 -0.221598 -0.297922 -0.781612
    27 1.100770 0.004527 -0.010675 -0.033668 0.063776 -0.183302
    28 0.957766 -2.746777 -0.090301 0.045095 -0.146812 0.009517
    29 -0.033419 -1.397128 -0.011256 0.037042 0.000000 0.000000
    30 -0.022361 -0.957434 0.018783 0.114273 0.000000 0.000000
    31 0.250028 -2.820664 -0.238397 0.041552 -0.112980 0.009235
    32 -0.049759 -1.680544 0.100479 0.083534 0.049505 -0.014373
    33 -0.034141 -1.148311 0.084778 0.058007 0.000000 0.000000
    34 -0.488517 -2.755599 -0.228262 0.038977 0.020560 -0.121233
    35 0.039889 -1.479791 0.029852 -0.144686 0.000000 0.000000
    36 0.028785 -1.075733 -0.023111 0.023216 0.000000 0.000000
    37 -1.180679 -2.507215 -0.193862 -0.022889 0.057346 -0.106342
    38 -0.024967 -1.123934 0.017594 -0.048333 0.003607 -0.034700
    39 -0.020058 -0.890964 0.010091 0.173655 0.000000 0.000000
    40 0.053744 -0.050267 -0.074021 -2.853554 0.026024 -1.564699
  time 28
    0 -6.141074 -3.894996 -6.418096 0.753143 -4.286531 0.919073
    1 0.096945 -8.450419 -0.009364 -0.139698 -0.675174 0.461320
    2 0.008962 -2.004050 0.948863 0.293946 -3.145082 -5.462364
    3 2.670662 0.228810 -0.000696 0.000000 0.000000 0.000000
    4 -0.000066 -0.428590 -0.009439 0.000000 0.000000 -0.000011
    5 2.670594 0.228795 -0.010135 0.000000 0.000000 0.000000
    6 -5.034416 0.218050 0.020352 1.570796 -3.141592 0.088140
    7 -0.586769 -1.264477 0.200164 0.020037 -0.559814 -2.730926
    8 1.522835 0.058679 0.016851 0.351406 -0.349729 1.050601
    9 1.117948 0.048424 -0.005765 0.232653 -0.219963 0.871538
    10 -0.963867 -2.785143 -0.085346 -0.506830 0.018581 -0.085725
    11 0.028478 -1.403067 0.006271 -1.035506 0.000000 0.000000
    12 0.021413 -0.957782 0.020047 -1.594827 0.000000 0.000000
    13 -0.249535 -2.846963 -0.174215 -1.012162 -0.079695 0.032129
    14 0.043234 -1.683940 0.096014 -1.826846 0.000000 0.000000
    15 0.031729 -1.160831 0.058837 -0.913029 0.000000 0.000000
    16 0.447951 -2.798983 -0.200441 -1.504000 -0.058940 0.046605
    17 -0.032909 -1.480207 0.004936 -1.324278 0.000000 0.000000
    18 -0.027023 -1.076921 -0.020212 -1.042579 0.000000 0.000000
    19 1.164474 -2.543939 -0.170327 -1.503918 -0.149891 0.112554
    20 0.024032 -1.129040 0.017806 -1.219562 0.000000 0.000000
    21 0.014896 -0.883992 -0.019845 -0.636337 0.000000 0.000000
    22 -0.112054 -0.111698 0.092525 0.248232 0.044230 1.304763
    23 2.560831 -3.419458 -6.800334 0.476509 -3.589373 -0.888106
    24 -0.071917 -8.498731 -0.104136 0.062808 0.356168 0.072534
    25 0.583509 -1.197273 0.185379 0.319079 -0.423053 -0.651956
    26 1.535926 0.010247 0.005008 -0.221598 -0.297922 -0.781612
    27 1.100770 0.004527 -0.010675 -0.033668 0.063776 -0.183302
    28 0.957766 -2.746777 -0.090301 0.045095 -0.146812 0.009517
    29 -0.033419 -1.397128 -0.011256 0.037042 0.000000 0.000000
    30 -0.022361 -0.957434 0.018783 0.114273 0.000000 0.000000
    31 0.250028 -2.820664 -0.238397 0.041552 -0.112980 0.009235
    32 -0.049759 -1.680544 0.100479 0.083534 0.049505 -0.014373
    33 -0.034141 -1.148311 0.084778 0.058007 0.000000 0.000000
    34 -0.488517 -2.755599 -0.228262 0.038977 0.020560 -0.121233
    35 0.039889 -1.479791 0.029852 -0.144686 0.000000 0.000000
    36 0.028785 -1.075733 -0.023111 0.023216 0.000000 0.000000
    37 -1.180679 -2.507215 -0.193862 -0.022889 0.057346 -0.106342
    38 -0.024967 -1.123934 0.017594 -0.048333 0.003607 -0.034700
    39 -0.020058 -0.890964 0.010091 0.173655 0.000000 0.000000
    40 0.053744 -0.050267 -0.074021 -2.853554 0.026024 -1.564699
  time 29
    0 -6.141074 -3.816868 -6.265748 0.686859 -4.287965 0.854492
    1 0.096945 -8.450419 -0.009364 -0.151704 -0.551648 0.453437
    2 0.008962 -2.004050 0.948863 0.293946 -3.145082 -5.462364
    3 2.670662 0.228810 -0.000696 0.000000 0.000000 0.000000
    4 -0.000066 -0.428590 -0.009439 0.000000 0.000000 -0.000011
    5 2.670594 0.228795 -0.010135 0.000000 0.000000 0.000000
    6 -5.034416 0.218050 0.020352 1.570796 -3.141592 0.088140
    7 -0.586769 -1.264477 0.200164 0.021331 -0.559250 -2.733351
    8 1.522835 0.058679 0.016851 0.353926 -0.347139 1.043160
    9 1.117948 0.048424 -0.005765 0.244482 -0.205833 0.813955
    10 -0.963867 -2.785143 -0.085346 -0.506830 0.018581 -0.085725
    11 0.028478 -1.403067 0.006271 -1.035506 0.000000 0.000000
    12 0.021413 -0.957782 0.020047 -1.594827 0.000000 0.000000
    13 -0.249535 -2.846963 -0.174215 -0.982951 -0.079695 0.032129
    14 0.043234 -1.683940 0.096014 -1.823558 0.000000 0.000000
    15 0.031729 -1.160831 0.058837 -0.967178 0.000000 0.000000
    16 0.447951 -2.798983 -0.200441 -1.457634 -0.058940 0.046605
    17 -0.032909 -1.480207 0.004936 -1.365708 0.000000 0.000000
    18 -0.027023 -1.076921 -0.020212 -0.985864 0.000000 0.000000
    19 1.164474 -2.543939 -0.170327 -1.463147 -0.149891 0.112554
    20 0.024032 -1.129040 0.017806 -1.209029 0.000000 0.000000
    21 0.014896 -0.883992 -0.019845 -0.669599 0.000000 0.000000
    22 -0.123774 -0.111698 0.069087 0.252923 0.025067 1.339938
    23 2.635052 -3.896035 -6.448760 0.457401 -3.628811 -0.950083
    24 -0.071917 -8.498731 -0.104136 0.039344 0.377113 0.042288
    25 0.583509 -1.197273 0.185379 0.319079 -0.423053 -0.651956
    26 1.535926 0.010247 0.005008 -0.221598 -0.297922 -0.781612
    27 1.100770 0.004527 -0.010675 -0.033668 0.063776 -0.183302
    28 0.957766 -2.746777 -0.090301 0.045095 -0.146812 0.009517
    29 -0.033419 -1.397128 -0.011256 0.037042 0.000000 0.000000
    30 -0.022361 -0.957434 0.018783 0.114273 0.000000 0.000000
    31 0.250028 -2.820664 -0.238397 0.041552 -0.112980 0.009235
    32 -0.049759 -1.680544 0.100479 0.083534 0.049505 -0.014373
    33 -0.034141 -1.148311 0.084778 0.058007 0.000000 0.000000
    34 -0.488517 -2.755599 -0.228262 0.038977 0.020560 -0.121233
    35 0.039889 -1.479791 0.029852 -0.144686 0.000000 0.000000
    36 0.028785 -1.075733 -0.023111 0.023216 0.000000 0.000000
    37 -1.180679 -2.507215 -0.193862 -0.022889 0.057346 -0.106342
    38 -0.024967 -1.123934 0.017594 -0.048333 0.003607 -0.034700
    39 -0.020058 -0.890964 0.010091 0.173655 0.000000 0.000000
    40 0.053744 -0.050267 -0.074021 -2.853554 0.026024 -1.564699
  time 30
    0 -6.141074 -3.734835 -6.121212 0.616561 -4.291882 0.787635
    1 0.096945 -8.450419 -0.009364 -0.160974 -0.396988 0.444735
    2 0.008962 -2.004050 0.948863 0.293946 -3.145082 -5.462364
    3 2.670662 0.228810 -0.000696 0.000000 0.000000 0.000000
    4 -0.000066 -0.428590 -0.009439 0.000000 0.000000 -0.000011
    5 2.670594 0.228795 -0.010135 0.000000 0.000000 0.000000
    6 -5.034416 0.218050 0.020352 1.570796 -3.141592 0.088140
    7 -0.586769 -1.264477 0.200164 0.022625 -0.558675 -2.735775
    8 1.522835 0.058679 0.016851 0.356462 -0.344549 1.035718
    9 1.117948 0.048424 -0.005765 0.256311 -0.191703 0.756344
    10 -0.963867 -2.785143 -0.085346 -0.506830 0.018581 -0.085725
    11 0.028478 -1.403067 0.006271 -1.035506 0.000000 0.000000
    12 0.021413 -0.957782 0.020047 -1.594827 0.000000 0.000000
    13 -0.249535 -2.846963 -0.174215 -0.953767 -0.079695 0.032129
    14 0.043234 -1.683940 0.096014 -1.820270 0.000000 0.000000
    15 0.031729 -1.160831 0.058837 -1.021327 0.000000 0.000000
    16 0.447951 -2.798983 -0.200441 -1.411238 -0.058940 0.046605
    17 -0.032909 -1.480207 0.004936 -1.407100 0.000000 0.000000
    18 -0.027023 -1.076921 -0.020212 -0.929176 0.000000 0.000000
    19 1.164474 -2.543939 -0.170327 -1.422353 -0.149891 0.112554
    20 0.024032 -1.129040 0.017806 -1.198496 0.000000 0.000000
    21 0.014896 -0.883992 -0.019845 -0.694949 0.000000 0.000000
    22 -0.131586 -0.111698 0.041743 0.255655 0.005891 1.375125
    23 2.701460 -4.349174 -6.085468 0.436459 -3.668093 -1.014561
    24 -0.071917 -8.498731 -0.104136 0.009690 0.400118 0.012121
    25 0.583509 -1.197273 0.185379 0.319079 -0.423053 -0.651956
    26 1.535926 0.010247 0.005008 -0.221598 -0.297922 -0.781612
    27 1.100770 0.004527 -0.010675 -0.033668 0.063776 -0.183302
    28 0.957766 -2.746777 -0.090301 0.045095 -0.146812 0.009517
    29 -0.033419 -1.397128 -0.011256 0.037042 0.000000 0.000000
    30 -0.022361 -0.957434 0.018783 0.114273 0.000000 0.000000
    31 0.250028 -2.820664 -0.238397 0.041552 -0.112980 0.009235
    32 -0.049759 -1.680544 0.100479 0.083534 0.049505 -0.014373
    33 -0.034141 -1.148311 0.084778 0.058007 0.000000 0.000000
    34 -0.488517 -2.755599 -0.228262 0.038977 0.020560 -0.121233
    35 0.039889 -1.479791 0.029852 -0.144686 0.000000 0.000000
    36 0.028785 -1.075733 -0.023111 0.023216 0.000000 0.000000
    37 -1.180679 -2.507215 -0.193862 -0.022889 0.057346 -0.106342
    38 -0.024967 -1.123934 0.017594 -0.048333 0.003607 -0.034700
    39 -0.020058 -0.890964 0.010091 0.173655 0.000000 0.000000
    40 0.053744 -0.050267 -0.074021 -2.853554 0.026024 -1.564699
  time 31
    0 -6.141074 -3.672333 -6.007927 0.560826 -4.295991 0.735287
    1 0.096945 -8.450419 -0.009364 -0.166951 -0.264836 0.437694
    2 0.008962 -2.004050 0.948863 0.293946 -3.145082 -5.462364
    3 2.670662 0.228810 -0.000696 0.000000 0.000000 0.000000
    4 -0.000066 -0.428590 -0.009439 0.000000 0.000000 -0.000011
    5 2.670594 0.228795 -0.010135 0.000000 0.000000 0.000000
    6 -5.034416 0.218050 0.020352 1.570796 -3.141592 0.088140
    7 -0.586769 -1.264477 0.200164 0.023618 -0.558244 -2.737654
    8 1.522835 0.058679 0.016851 0.358403 -0.342576 1.029996
    9 1.117948 0.048424 -0.005765 0.265407 -0.180833 0.712056
    10 -0.963867 -2.785143 -0.085346 -0.506830 0.018581 -0.085725
    11 0.028478 -1.403067 0.006271 -1.035506 0.000000 0.000000
    12 0.021413 -0.957782 0.020047 -1.594827 0.000000 0.000000
    13 -0.249535 -2.846963 -0.174215 -0.931313 -0.079695 0.032129
    14 0.043234 -1.683940 0.096014 -1.817754 0.000000 0.000000
    15 0.031729 -1.160831 0.058837 -1.062962 0.000000 0.000000
    16 0.447951 -2.798983 -0.200441 -1.375578 -0.058940 0.046605
    17 -0.032909 -1.480207 0.004936 -1.438951 0.000000 0.000000
    18 -0.027023 -1.076921 -0.020212 -0.885541 0.000000 0.000000
    19 1.164474 -2.543939 -0.170327 -1.390974 -0.149891 0.112554
    20 0.024032 -1.129040 0.017806 -1.190396 0.000000 0.000000
    21 0.014896 -0.883992 -0.019845 -0.711074 0.000000 0.000000
    22 -0.139399 -0.111698 0.022211 0.256906 -0.008862 1.402186
    23 2.752243 -4.689028 -5.800303 0.419565 -3.698279 -1.065218
    24 -0.071917 -8.498731 -0.104136 -0.015735 0.418704 -0.011076
    25 0.583509 -1.197273 0.185379 0.319079 -0.423053 -0.651956
    26 1.535926 0.010247 0.005008 -0.221598 -0.297922 -0.781612
    27 1.100770 0.004527 -0.010675 -0.033668 0.063776 -0.183302
    28 0.957766 -2.746777 -0.090301 0.045095 -0.146812 0.009517
    29 -0.033419 -1.397128 -0.011256 0.037042 0.000000 0.000000
    30 -0.022361 -0.957434 0.018783 0.114273 0.000000 0.000000
    31 0.250028 -2.820664 -0.238397 0.041552 -0.112980 0.009235
    32 -0.049759 -1.680544 0.100479 0.083534 0.049505 -0.014373
    33 -0.034141 -1.148311 0.084778 0.058007 0.000000 0.000000
    34 -0.488517 -2.755599 -0.228262 0.038977 0.020560 -0.121233
    35 0.039889 -1.479791 0.029852 -0.144686 0.000000 0.000000
    36 0.028785 -1.075733 -0.023111 0.023216 0.000000 0.000000
    37 -1.180679 -2.507215 -0.193862 -0.022889 0.057346 -0.106342
    38 -0.024967 -1.123934 0.017594 -0.048333 0.003607 -0.034700
    39 -0.020058 -0.890964 0.010091 0.173655 0.000000 0.000000
    40 0.053744 -0.050267 -0.074021 -2.853554 0.026024 -1.564699
  time 32
    0 -6.141074 -3.648895 -5.961051 0.538141 -4.297807 0.714139
    1 0.096945 -8.450419 -0.009364 -0.169053 -0.208903 0.434793
    2 0.008962 -2.004050 0.948863 0.293946 -3.145082 -5.462364
    3 2.670662 0.228810 -0.000696 0.000000 0.000000 0.000000
    4 -0.000066 -0.428590 -0.009439 0.000000 0.000000 -0.000011
    5 2.670594 0.228795 -0.010135 0.000000 0.000000 0.000000
    6 -5.034416 0.218050 0.020352 1.570796 -3.141592 0.088140
    7 -0.586769 -1.264477 0.200164 0.024020 -0.558064 -2.738396
    8 1.522835 0.058679 0.016851 0.359186 -0.341770 1.027711
    9 1.117948 0.048424 -0.005765 0.269051 -0.176483 0.694329
    10 -0.963867 -2.785143 -0.085346 -0.506830 0.018581 -0.085725
    11 0.028478 -1.403067 0.006271 -1.035506 0.000000 0.000000
    12 0.021413 -0.957782 0.020047 -1.594827 0.000000 0.000000
    13 -0.249535 -2.846963 -0.174215 -0.922321 -0.079695 0.032129
    14 0.043234 -1.683940 0.096014 -1.816739 0.000000 0.000000
    15 0.031729 -1.160831 0.058837 -1.079640 0.000000 0.000000
    16 0.447951 -2.798983 -0.200441 -1.361302 -0.058940 0.046605
    17 -0.032909 -1.480207 0.004936 -1.451684 0.000000 0.000000
    18 -0.027023 -1.076921 -0.020212 -0.868092 0.000000 0.000000
    19 1.164474 -2.543939 -0.170327 -1.378428 -0.149891 0.112554
    20 0.024032 -1.129040 0.017806 -1.187163 0.000000 0.000000
    21 0.014896 -0.883992 -0.019845 -0.716710 0.000000 0.000000
    22 -0.139399 -0.111698 0.014398 0.257223 -0.014758 1.413020
    23 2.771774 -4.821845 -5.683112 0.412605 -3.710354 -1.085668
    24 -0.071917 -8.498731 -0.104136 -0.026528 0.426320 -0.020334
    25 0.583509 -1.197273 0.185379 0.319079 -0.423053 -0.651956
    26 1.535926 0.010247 0.005008 -0.221598 -0.297922 -0.781612
    27 1.100770 0.004527 -0.010675 -0.033668 0.063776 -0.183302
    28 0.957766 -2.746777 -0.090301 0.045095 -0.146812 0.009517
    29 -0.033419 -1.397128 -0.011256 0.037042 0.000000 0.000000
    30 -0.022361 -0.957434 0.018783 0.114273 0.000000 0.000000
    31 0.250028 -2.820664 -0.238397 0.041552 -0.112980 0.009235
    32 -0.049759 -1.680544 0.100479 0.083534 0.049505 -0.014373
    33 -0.034141 -1.148311 0.084778 0.058007 0.000000 0.000000
    34 -0.488517 -2.755599 -0.228262 0.038977 0.020560 -0.121233
    35 0.039889 -1.479791 0.029852 -0.144686 0.000000 0.000000
    36 0.028785 -1.075733 -0.023111 0.023216 0.000000 0.000000
    37 -1.180679 -2.507215 -0.193862 -0.022889 0.057346 -0.106342
    38 -0.024967 -1.123934 0.017594 -0.048333 0.003607 -0.034700
    39 -0.020058 -0.890964 0.010091 0.173655 0.000000 0.000000
    40 0.053744 -0.050267 -0.074021 -2.853554 0.026024 -1.564699
end
