// Created by Crowbar 0.49.0.0

$modelname "weapons/tfa_cso/c_mp7a1.mdl"

$Include "csonline_gmod.qci"

$bodygroup "studio"
{
	studio "v_mp7a1_f_mp7a1_template"
}

$CDMaterials "models\weapons\tfa_cso\mp7a1\"

$attachment 0 "Bone_MP7A1" 0.031 -9.783 2.626 rotate 0 -90 0
//$attachment 1 "Bone_MP7A1" 0.51 1.99 2.297
//$attachment 2 "Bone_Rflex_Site" 0.015 -9.259 -1.03

$definebone "Bone01" "" 5.752912 -5.214066 -14.366094 -58.541887 -141.446075 120.867603 0.000000 0.000000 0.000000 -0.000000 -0.000000 0.000001
$definebone "Bone_Lefthand" "Bone01" -0.021280 -8.563257 -0.000750 11.944338 -35.225106 -0.752922 0.000000 -0.000002 -0.000000 -0.000000 -0.000005 0.000001
$definebone "Bone_MP7A1" "Bone_Lefthand" -0.325602 -2.780590 0.232356 77.661622 -26.495981 -27.909518 0.000001 0.000000 0.000000 -0.000000 -0.000001 -0.000002
$definebone "Bone_EyeonSite_Front" "Bone_MP7A1" 0.000001 -5.680969 4.733543 -0.000000 -0.000001 3.424452 0.000000 0.000000 0.000000 -0.000000 -0.000003 -0.000001
$definebone "Bone_Rflex_Site" "Bone_MP7A1" 0.000001 -0.527670 5.248987 -0.000000 -0.000001 -0.072080 -0.000000 0.000002 0.000000 0.000002 -0.000002 -0.000000
$definebone "Bone_EyeonSite_Back" "Bone_MP7A1" 0.000001 2.240244 4.862545 -0.000000 -0.000001 -0.072080 -0.000000 0.000000 0.000000 0.000002 -0.000002 -0.000000
$definebone "Bone_Magazine" "Bone_MP7A1" 0.000001 -0.030804 -0.185497 -0.000000 -0.000001 -0.000002 -0.000001 0.000000 0.000000 -0.000000 -0.000001 -0.000002
$definebone "Bone_Trigger" "Bone_MP7A1" 0.000001 -1.489113 1.895752 -0.000000 -0.000001 4.999972 0.000000 0.000000 0.000000 -0.000000 -0.000002 0.000001
$definebone "Bone_Hand_Grib" "Bone_MP7A1" 0.000002 -6.270580 1.350242 -0.000000 -0.000001 -1.968971 0.000000 0.000002 -0.000000 -0.000002 -0.000002 0.000001
$definebone "Bone_Hand_GribLock" "Bone_Hand_Grib" -0.000000 0.355524 -2.799999 -0.000034 -90.000017 90.000017 0.000000 0.000000 0.000000 0.000002 0.000001 -0.000002
$definebone "Bone_SlidingStock" "Bone_MP7A1" 0.000000 11.411388 2.564909 -0.000000 -0.000001 -0.000002 0.000000 0.000000 0.000000 -0.000000 -0.000001 -0.000002
$definebone "Bone_ChargeHandle" "Bone_MP7A1" 0.000002 4.784918 4.090396 -0.000036 179.999939 90.000024 0.000000 0.000000 0.000000 -0.000001 -0.000002 0.000001

$sequence "mp7a1_pistol_idle" {
	"v_mp7a1_anims\mp7a1_pistol_idle"
	fps 16
	activity "ACT_VM_IDLE" 1
	snap
}
$sequence "mp7a1_pistol_reload" {
	"v_mp7a1_anims\mp7a1_pistol_reload"
	{ event 5004 12 "MP7A1.Foley1" }
	{ event 5004 26 "MP7A1.ClipOut" }
	{ event 5004 52 "MP7A1.Foley4" }
	{ event 5004 76 "MP7A1.ClipIn" }
	{ event 5004 99 "MP7A1.Draw" }
	fps 31
	activity "ACT_VM_RELOAD" 1
	snap
}
$sequence "mp7a1_pistol_draw" {
	"v_mp7a1_anims\mp7a1_pistol_draw"
	{ event 5004 9 "MP7A1.Draw" }
	fps 30
	activity "ACT_VM_DRAW" 1
	snap
}
$sequence "mp7a1_pistol_shoot1" {
	"v_mp7a1_anims\mp7a1_pistol_shoot1"
	{ event 5001 0 "12" }
	fps 30
	activity "ACT_VM_PRIMARYATTACK" 1
	snap
}
$sequence "mp7a1_pistol_shoot2" {
	"v_mp7a1_anims\mp7a1_pistol_shoot2"
	{ event 5001 0 "12" }
	fps 30
	activity "ACT_VM_PRIMARYATTACK" 1
	snap
}
$sequence "change_mp7a1_carbine" {
	"v_mp7a1_anims\change_mp7a1_carbine"
	{ event 5004 11 "MP7A1.Foley5" }
	{ event 5004 27 "MP7A1.Foley5" }
	{ event 5004 63 "MP7A1.Foley2" }
	{ event 5004 91 "MP7A1.Foley5" }
	{ event 5004 108 "MP7A1.Foley3" }
	{ event 5004 132 "MP7A1.Foley2" }
	fps 30
	activity "ACT_VM_ATTACH_SILENCER" 1
	snap
}
$sequence "mp7a1_carbine_idle" {
	"v_mp7a1_anims\mp7a1_carbine_idle"
	fps 16
	activity "ACT_VM_IDLE_SILENCED" 1
	snap
}
$sequence "mp7a1_carbine_reload" {
	"v_mp7a1_anims\mp7a1_carbine_reload"
	{ event 5004 9 "MP7A1.Foley1" }
	{ event 5004 26 "MP7A1.ClipOut" }
	{ event 5004 52 "MP7A1.Foley4" }
	{ event 5004 76 "MP7A1.ClipIn" }
	{ event 5004 99 "MP7A1.Draw" }
	fps 31
	activity "ACT_VM_RELOAD_SILENCED" 1
	snap
}
$sequence "mp7a1_carbine_draw" {
	"v_mp7a1_anims\mp7a1_carbine_draw"
	{ event 5004 8 "MP7A1.Draw" }
	fps 30
	activity "ACT_VM_DRAW_SILENCED" 1
	snap
}
$sequence "mp7a1_carbine_shoot1" {
	"v_mp7a1_anims\mp7a1_carbine_shoot1"
	{ event 5021 0 "12" }
	fps 30
	activity "ACT_VM_PRIMARYATTACK_SILENCED" 1
	snap
}
$sequence "mp7a1_carbine_shoot2" {
	"v_mp7a1_anims\mp7a1_carbine_shoot2"
	{ event 5021 0 "12" }
	fps 30
	activity "ACT_VM_PRIMARYATTACK_SILENCED" 1
	snap
}
$sequence "change_mp7a1_pistol" {
	"v_mp7a1_anims\change_mp7a1_pistol"
	{ event 5004 12 "MP7A1.Foley2" }
	{ event 5004 42 "MP7A1.Foley5" }
	{ event 5004 57 "MP7A1.Foley1" }
	{ event 5004 12 "MP7A1.Foley2" }
	{ event 5004 82 "MP7A1.Foley2" }
	{ event 5004 118 "MP7A1.Foley5" }
	{ event 5004 135 "MP7A1.Foley5" }
	fps 30
	activity "ACT_VM_DETACH_SILENCER" 1
	snap
}
