// Created by Crowbar 0.71

$modelname "weapons/tfa_cso/c_chainsr.mdl"

$Include "csonline_gmod.qci"

$bodygroup "weapon"
{
	studio "v_ref1"
}
$bodygroup "weapon"
{
	studio "v_ref3"
}

$CDMaterials "models\weapons\tfa_cso\chainsr"

$attachment 0 "Bone_chainsr" 40 2 0
$attachment 1 "Bone_chainsr" 10 -5 -1

$sequence "idle1" {
	"v_chainsr_anims\idle1"
	activity "ACT_VM_IDLE" 1
	{ event 5004 1 "ChainSR.Idle" }
	fps 30
	loop
	snap
}
$sequence "shoot" {
	"v_chainsr_anims\shoot"
	activity "ACT_VM_PRIMARYATTACK" 1
	{ event 5001 0 "#I270 S0.12 R0 F0 P30 T999 A1 L0 O0 X0" }
	fps 30
	snap
}
$sequence "shoot2" {
	"v_chainsr_anims\shoot2"
	activity "ACT_VM_PRIMARYATTACK" 1
	{ event 5001 0 "#I270 S0.12 R0 F0 P30 T999 A1 L0 O0 X0" }
	fps 30
	snap
}
$sequence "reload" {
	"v_chainsr_anims\reload"
	activity "ACT_VM_RELOAD" 1
	{ event 5004 7 "ChainSR.Reload1" }
	{ event 5004 53 "ChainSR.Reload2" }
	{ event 5004 83 "ChainSR.BoltPull" }
	fps 30
	snap
}
$sequence "draw" {
	"v_chainsr_anims\draw"
	activity "ACT_VM_DRAW" 1
	{ event 5004 3 "ChainSR.Draw" }
	fps 30
	snap
}
