version 1
nodes
  0 "root" -1
  1 "Bone01" 0
  2 "Bone_Lefthand" 1
  3 "groza_root" 2
  4 "trigger" 3
  5 "reload" 3
  6 "magazine" 3
  7 "Bone_L_Upper" 1
  8 "Bone13" 2
  9 "Bone14" 8
  10 "Bone15" 9
  11 "Bone17" 2
  12 "Bone18" 11
  13 "Bone19" 12
  14 "Bone21" 2
  15 "Bone22" 14
  16 "Bone23" 15
  17 "Bone09" 2
  18 "Bone10" 17
  19 "Bone11" 18
  20 "Bone05" 2
  21 "Bone06" 20
  22 "Bone07" 21
  23 "Bone_Se_Hand-L" 2
  24 "Bone04" 0
  25 "Bone_Righthand" 24
  26 "Bone39" 25
  27 "Bone40" 26
  28 "Bone41" 27
  29 "Bone35" 25
  30 "Bone36" 29
  31 "Bone37" 30
  32 "Bone31" 25
  33 "Bone32" 32
  34 "Bone33" 33
  35 "Bone43" 25
  36 "Bone44" 35
  37 "Bone45" 36
  38 "Bone27" 25
  39 "Bone28" 38
  40 "Bone29" 39
  41 "Bone_Se_Hand-R" 25
  42 "Bone_R_Upper" 24
end
skeleton
  time 0
    0 0.000000 0.000000 0.000000 0.000000 0.000000 -0.000022
    1 8.186462 0.777844 -6.784957 0.768969 -1.860600 -0.890560
    2 -0.071917 -8.498687 -0.104136 0.147673 0.249490 0.024910
    3 1.848843 -3.361148 0.929803 -0.012221 0.068719 2.924626
    4 0.082599 1.146638 0.000000 0.000000 0.000000 0.000000
    5 -0.932205 -3.542499 0.364983 3.141592 0.000000 -1.570796
    6 0.200941 -5.459696 0.000001 0.000001 0.000000 0.000000
    7 1.257180 8.762585 -0.153713 -1.570562 0.002683 -1.566807
    8 -0.488518 -2.755602 -0.228260 -1.381605 -0.178341 -0.211266
    9 0.039887 -1.479790 0.029854 -0.929887 -0.052253 0.069907
    10 0.028786 -1.075731 -0.023109 -1.481385 0.000000 0.000000
    11 0.250027 -2.820665 -0.238396 -1.068206 -0.168272 -0.396342
    12 -0.049759 -1.680544 0.100479 -1.479918 -0.104086 0.165110
    13 -0.034142 -1.148312 0.084782 -1.087281 0.000000 0.000000
    14 0.957766 -2.746780 -0.090302 -0.420442 -0.171158 0.010363
    15 -0.033420 -1.397129 -0.011257 -0.255519 0.124808 -0.122316
    16 -0.022360 -0.957436 0.018784 -1.043310 0.000000 0.000000
    17 -1.180681 -2.507217 -0.193859 -1.245142 -0.058709 -0.139782
    18 -0.024967 -1.123934 0.017597 -0.977967 0.000000 0.000001
    19 -0.020057 -0.890968 0.010090 -0.933434 0.000000 0.000000
    20 0.583510 -1.197277 0.185379 0.379009 -1.169118 -0.652939
    21 1.535927 0.010246 0.005009 0.393379 -0.245252 -1.052879
    22 1.100771 0.004527 -0.010679 -0.011449 0.011491 -0.607431
    23 0.120153 -0.050270 -0.054489 0.287569 3.110905 1.561085
    24 -0.649687 -8.739179 -10.493791 -1.766649 -5.321384 -1.065166
    25 0.096944 -8.450418 -0.009365 0.228648 -0.233694 0.292789
    26 0.447953 -2.798986 -0.200443 -1.072186 -0.126515 -0.047440
    27 -0.032909 -1.480204 0.004940 -1.413632 0.000000 0.000002
    28 -0.027022 -1.076920 -0.020210 -1.481391 0.000000 0.000000
    29 -0.249534 -2.846964 -0.174213 -0.968633 -0.135815 -0.084786
    30 0.043235 -1.683941 0.096012 -1.469776 0.002823 -0.000167
    31 0.031729 -1.160830 0.058838 -1.436444 0.000642 0.008372
    32 -0.963866 -2.785145 -0.085350 -0.957802 -0.035925 -0.239075
    33 0.028479 -1.403067 0.006271 -1.158106 0.000000 0.000000
    34 0.021413 -0.957781 0.020046 -1.216858 0.000000 0.000000
    35 1.164475 -2.543940 -0.170330 -0.843989 -0.306425 0.042666
    36 0.024032 -1.129042 0.017807 -1.199105 0.000000 0.000001
    37 0.014898 -0.883989 -0.019848 -1.052873 0.000000 0.000000
    38 -0.586770 -1.264477 0.200161 -0.330638 -0.882973 -2.453541
    39 1.522835 0.058681 0.016848 -0.037192 -0.131247 0.649010
    40 1.117947 0.048424 -0.005766 -0.016374 -0.019146 0.763684
    41 -0.139399 -0.111698 0.014397 0.285382 -0.030687 1.580508
    42 -1.393470 8.839177 -0.239433 1.580804 -0.005023 -1.566847
  time 1
    0 0.000000 1.703177 0.000000 0.000000 0.000000 -0.000022
    1 8.186462 0.777844 -6.784957 0.768969 -1.860600 -0.890560
    2 -0.071917 -8.498687 -0.104136 0.147673 0.249490 0.024910
    3 1.848843 -3.361148 0.929803 -0.012221 0.068719 2.924626
    4 0.082599 1.146638 0.000000 0.000000 0.000000 -0.436332
    5 -0.932205 -4.608938 0.364983 3.141592 0.000000 -1.570796
    6 0.200941 -5.459696 0.000001 0.000001 0.000000 0.000000
    7 1.257180 8.762585 -0.153713 -1.570562 0.002683 -1.566807
    8 -0.488518 -2.755602 -0.228260 -1.381605 -0.178341 -0.211266
    9 0.039887 -1.479790 0.029854 -0.929887 -0.052253 0.069907
    10 0.028786 -1.075731 -0.023109 -1.481385 0.000000 0.000000
    11 0.250027 -2.820665 -0.238396 -1.068206 -0.168272 -0.396342
    12 -0.049759 -1.680544 0.100479 -1.479918 -0.104086 0.165110
    13 -0.034142 -1.148312 0.084782 -1.087281 0.000000 0.000000
    14 0.957766 -2.746780 -0.090302 -0.463703 -0.171158 0.010363
    15 -0.033420 -1.397129 -0.011257 -0.604586 0.124808 -0.122316
    16 -0.022360 -0.957436 0.018784 -1.741484 0.000000 0.000000
    17 -1.180681 -2.507217 -0.193859 -1.245142 -0.058709 -0.139782
    18 -0.024967 -1.123934 0.017597 -0.977967 0.000000 0.000001
    19 -0.020057 -0.890968 0.010090 -0.933434 0.000000 0.000000
    20 0.583510 -1.197277 0.185379 0.379009 -1.169118 -0.652939
    21 1.535927 0.010246 0.005009 0.393379 -0.245252 -1.052879
    22 1.100771 0.004527 -0.010679 -0.011449 0.011491 -0.607431
    23 0.120153 -0.050270 -0.054489 0.287569 3.110905 1.561085
    24 -0.649687 -8.739179 -10.493791 -1.766649 -5.321384 -1.065166
    25 0.096944 -8.450418 -0.009365 0.228648 -0.233694 0.292789
    26 0.447953 -2.798986 -0.200443 -1.072186 -0.126515 -0.047440
    27 -0.032909 -1.480204 0.004940 -1.413632 0.000000 0.000002
    28 -0.027022 -1.076920 -0.020210 -1.481391 0.000000 0.000000
    29 -0.249534 -2.846964 -0.174213 -0.968633 -0.135815 -0.084786
    30 0.043235 -1.683941 0.096012 -1.469776 0.002823 -0.000167
    31 0.031729 -1.160830 0.058838 -1.436444 0.000642 0.008372
    32 -0.963866 -2.785145 -0.085350 -0.957802 -0.035925 -0.239075
    33 0.028479 -1.403067 0.006271 -1.158106 0.000000 0.000000
    34 0.021413 -0.957781 0.020046 -1.216858 0.000000 0.000000
    35 1.164475 -2.543940 -0.170330 -0.843989 -0.306425 0.042666
    36 0.024032 -1.129042 0.017807 -1.199105 0.000000 0.000001
    37 0.014898 -0.883989 -0.019848 -1.052873 0.000000 0.000000
    38 -0.586770 -1.264477 0.200161 -0.330638 -0.882973 -2.453541
    39 1.522835 0.058681 0.016848 -0.037192 -0.131247 0.649010
    40 1.117947 0.048424 -0.005766 -0.016374 -0.019146 0.763684
    41 -0.139399 -0.111698 0.014397 0.285382 -0.030687 1.580508
    42 -1.393470 8.839177 -0.239433 1.580804 -0.005023 -1.566847
  time 2
    0 0.000000 1.644581 0.000000 -0.007119 0.000000 -0.000022
    1 8.186462 0.777844 -6.784957 0.768969 -1.860600 -0.890560
    2 -0.071917 -8.498687 -0.104136 0.147673 0.249490 0.024910
    3 1.848843 -3.361148 0.929803 -0.012221 0.068719 2.924626
    4 0.082599 1.146638 0.000000 0.000000 0.000000 -0.421365
    5 -0.932205 -5.679283 0.364983 3.141592 0.000000 -1.570796
    6 0.200941 -5.459696 0.000001 0.000001 0.000000 0.000000
    7 1.257180 8.762585 -0.153713 -1.570562 0.002683 -1.566807
    8 -0.488518 -2.755602 -0.228260 -1.381605 -0.178341 -0.211266
    9 0.039887 -1.479790 0.029854 -0.929887 -0.052253 0.069907
    10 0.028786 -1.075731 -0.023109 -1.481385 0.000000 0.000000
    11 0.250027 -2.820665 -0.238396 -1.068206 -0.168272 -0.396342
    12 -0.049759 -1.680544 0.100479 -1.479918 -0.104086 0.165110
    13 -0.034142 -1.148312 0.084782 -1.087281 0.000000 0.000000
    14 0.957766 -2.746780 -0.090302 -0.462218 -0.171158 0.010363
    15 -0.033420 -1.397129 -0.011257 -0.592600 0.124808 -0.122316
    16 -0.022360 -0.957436 0.018784 -1.717516 0.000000 0.000000
    17 -1.180681 -2.507217 -0.193859 -1.245142 -0.058709 -0.139782
    18 -0.024967 -1.123934 0.017597 -0.977967 0.000000 0.000001
    19 -0.020057 -0.890968 0.010090 -0.933434 0.000000 0.000000
    20 0.583510 -1.197277 0.185379 0.379021 -1.169118 -0.652939
    21 1.535927 0.010246 0.005009 0.393379 -0.245252 -1.052879
    22 1.100771 0.004527 -0.010679 -0.011449 0.011491 -0.607431
    23 0.120153 -0.050270 -0.054489 0.287569 3.110905 1.561085
    24 -0.649687 -8.739179 -10.493791 -1.766649 -5.321384 -1.065166
    25 0.096944 -8.450418 -0.009365 0.228648 -0.233694 0.292789
    26 0.447953 -2.798986 -0.200443 -1.072186 -0.126515 -0.047440
    27 -0.032909 -1.480204 0.004940 -1.413632 0.000000 0.000002
    28 -0.027022 -1.076920 -0.020210 -1.481391 0.000000 0.000000
    29 -0.249534 -2.846964 -0.174213 -0.968633 -0.135815 -0.084786
    30 0.043235 -1.683941 0.096012 -1.469776 0.002823 -0.000167
    31 0.031729 -1.160830 0.058838 -1.436444 0.000642 0.008372
    32 -0.963866 -2.785145 -0.085350 -0.957802 -0.035925 -0.239075
    33 0.028479 -1.403067 0.006271 -1.158106 0.000000 0.000000
    34 0.021413 -0.957781 0.020046 -1.216858 0.000000 0.000000
    35 1.164475 -2.543940 -0.170330 -0.843989 -0.306425 0.042666
    36 0.024032 -1.129042 0.017807 -1.199105 0.000000 0.000001
    37 0.014898 -0.883989 -0.019848 -1.052873 0.000000 0.000000
    38 -0.586770 -1.264477 0.200161 -0.330638 -0.882973 -2.453541
    39 1.522835 0.058681 0.016848 -0.037192 -0.131247 0.649010
    40 1.117947 0.048424 -0.005766 -0.016374 -0.019146 0.763684
    41 -0.139399 -0.111698 0.014397 0.285382 -0.030687 1.580508
    42 -1.393470 8.839177 -0.239433 1.580804 -0.005023 -1.566847
  time 3
    0 0.000000 1.488327 0.000000 -0.022807 0.000000 -0.000022
    1 8.186462 0.777844 -6.784957 0.768969 -1.860600 -0.890560
    2 -0.071917 -8.498687 -0.104136 0.147673 0.249490 0.024910
    3 1.848843 -3.361148 0.929803 -0.012221 0.068719 2.924626
    4 0.082599 1.146638 0.000000 0.000000 0.000000 -0.381258
    5 -0.932205 -5.519122 0.364983 3.141592 0.000000 -1.570796
    6 0.200941 -5.459696 0.000001 0.000001 0.000000 0.000000
    7 1.257180 8.762585 -0.153713 -1.570562 0.002683 -1.566807
    8 -0.488518 -2.755602 -0.228260 -1.381605 -0.178341 -0.211266
    9 0.039887 -1.479790 0.029854 -0.929887 -0.052253 0.069907
    10 0.028786 -1.075731 -0.023109 -1.481385 0.000000 0.000000
    11 0.250027 -2.820665 -0.238396 -1.068206 -0.168272 -0.396342
    12 -0.049759 -1.680544 0.100479 -1.479918 -0.104086 0.165110
    13 -0.034142 -1.148312 0.084782 -1.087281 0.000000 0.000000
    14 0.957766 -2.746780 -0.090302 -0.458239 -0.171158 0.010363
    15 -0.033420 -1.397129 -0.011257 -0.560530 0.124808 -0.122316
    16 -0.022360 -0.957436 0.018784 -1.653333 0.000000 0.000000
    17 -1.180681 -2.507217 -0.193859 -1.245142 -0.058709 -0.139782
    18 -0.024967 -1.123934 0.017597 -0.977967 0.000000 0.000001
    19 -0.020057 -0.890968 0.010090 -0.933434 0.000000 0.000000
    20 0.583510 -1.197277 0.185379 0.379009 -1.169118 -0.652939
    21 1.535927 0.010246 0.005009 0.393379 -0.245252 -1.052879
    22 1.100771 0.004527 -0.010679 -0.011449 0.011491 -0.607431
    23 0.120153 -0.050270 -0.054489 0.287569 3.110905 1.561085
    24 -0.649687 -8.739179 -10.493791 -1.766649 -5.321384 -1.065166
    25 0.096944 -8.450418 -0.009365 0.228648 -0.233694 0.292789
    26 0.447953 -2.798986 -0.200443 -1.072186 -0.126515 -0.047440
    27 -0.032909 -1.480204 0.004940 -1.413632 0.000000 0.000002
    28 -0.027022 -1.076920 -0.020210 -1.481391 0.000000 0.000000
    29 -0.249534 -2.846964 -0.174213 -0.968633 -0.135815 -0.084786
    30 0.043235 -1.683941 0.096012 -1.469776 0.002823 -0.000167
    31 0.031729 -1.160830 0.058838 -1.436444 0.000642 0.008372
    32 -0.963866 -2.785145 -0.085350 -0.957802 -0.035925 -0.239075
    33 0.028479 -1.403067 0.006271 -1.158106 0.000000 0.000000
    34 0.021413 -0.957781 0.020046 -1.216858 0.000000 0.000000
    35 1.164475 -2.543940 -0.170330 -0.843989 -0.306425 0.042666
    36 0.024032 -1.129042 0.017807 -1.199105 0.000000 0.000001
    37 0.014898 -0.883989 -0.019848 -1.052873 0.000000 0.000000
    38 -0.586770 -1.264477 0.200161 -0.330638 -0.882973 -2.453541
    39 1.522835 0.058681 0.016848 -0.037192 -0.131247 0.649010
    40 1.117947 0.048424 -0.005766 -0.016374 -0.019146 0.763684
    41 -0.139399 -0.111698 0.014397 0.285382 -0.030687 1.580508
    42 -1.393470 8.839177 -0.239433 1.580804 -0.005023 -1.566847
  time 4
    0 0.000000 1.261757 0.000000 -0.038495 0.000000 -0.000022
    1 8.186462 0.777844 -6.784957 0.768969 -1.860600 -0.890560
    2 -0.071917 -8.498687 -0.104136 0.147673 0.249490 0.024910
    3 1.848843 -3.361148 0.929803 -0.012221 0.068719 2.924626
    4 0.082599 1.146638 0.000000 0.000000 0.000000 -0.323201
    5 -0.932205 -5.124579 0.364983 3.141592 0.000000 -1.570796
    6 0.200941 -5.459696 0.000001 0.000001 0.000000 0.000000
    7 1.257180 8.762585 -0.153713 -1.570562 0.002683 -1.566807
    8 -0.488518 -2.755602 -0.228260 -1.381605 -0.178341 -0.211266
    9 0.039887 -1.479790 0.029854 -0.929887 -0.052253 0.069907
    10 0.028786 -1.075731 -0.023109 -1.481385 0.000000 0.000000
    11 0.250027 -2.820665 -0.238396 -1.068206 -0.168272 -0.396342
    12 -0.049759 -1.680544 0.100479 -1.479918 -0.104086 0.165110
    13 -0.034142 -1.148312 0.084782 -1.087281 0.000000 0.000000
    14 0.957766 -2.746780 -0.090302 -0.452476 -0.171158 0.010363
    15 -0.033420 -1.397129 -0.011257 -0.514077 0.124808 -0.122316
    16 -0.022360 -0.957436 0.018784 -1.560442 0.000000 0.000000
    17 -1.180681 -2.507217 -0.193859 -1.245142 -0.058709 -0.139782
    18 -0.024967 -1.123934 0.017597 -0.977967 0.000000 0.000001
    19 -0.020057 -0.890968 0.010090 -0.933434 0.000000 0.000000
    20 0.583510 -1.197277 0.185379 0.379009 -1.169118 -0.652939
    21 1.535927 0.010246 0.005009 0.393379 -0.245252 -1.052879
    22 1.100771 0.004527 -0.010679 -0.011449 0.011491 -0.607431
    23 0.120153 -0.050270 -0.054489 0.287569 3.110905 1.561085
    24 -0.649687 -8.739179 -10.493791 -1.766649 -5.321384 -1.065166
    25 0.096944 -8.450418 -0.009365 0.228648 -0.233694 0.292789
    26 0.447953 -2.798986 -0.200443 -1.072186 -0.126515 -0.047440
    27 -0.032909 -1.480204 0.004940 -1.413632 0.000000 0.000002
    28 -0.027022 -1.076920 -0.020210 -1.481391 0.000000 0.000000
    29 -0.249534 -2.846964 -0.174213 -0.968633 -0.135815 -0.084786
    30 0.043235 -1.683941 0.096012 -1.469776 0.002823 -0.000167
    31 0.031729 -1.160830 0.058838 -1.436444 0.000642 0.008372
    32 -0.963866 -2.785145 -0.085350 -0.957802 -0.035925 -0.239075
    33 0.028479 -1.403067 0.006271 -1.158106 0.000000 0.000000
    34 0.021413 -0.957781 0.020046 -1.216858 0.000000 0.000000
    35 1.164475 -2.543940 -0.170330 -0.843989 -0.306425 0.042666
    36 0.024032 -1.129042 0.017807 -1.199105 0.000000 0.000001
    37 0.014898 -0.883989 -0.019848 -1.052873 0.000000 0.000000
    38 -0.586770 -1.264477 0.200161 -0.330638 -0.882973 -2.453541
    39 1.522835 0.058681 0.016848 -0.037192 -0.131247 0.649010
    40 1.117947 0.048424 -0.005766 -0.016374 -0.019146 0.763684
    41 -0.139399 -0.111698 0.014397 0.285382 -0.030687 1.580508
    42 -1.393470 8.839177 -0.239433 1.580804 -0.005023 -1.566847
  time 5
    0 0.000000 0.992218 0.000000 -0.045613 0.000000 -0.000022
    1 8.186462 0.777844 -6.784957 0.768969 -1.860600 -0.890560
    2 -0.071917 -8.498687 -0.104136 0.147673 0.249490 0.024910
    3 1.848843 -3.361148 0.929803 -0.012221 0.068719 2.924626
    4 0.082599 1.146638 0.000000 0.000000 0.000000 -0.254372
    5 -0.932205 -4.608938 0.364983 3.141592 0.000000 -1.570796
    6 0.200941 -5.459696 0.000001 0.000001 0.000000 0.000000
    7 1.257180 8.762585 -0.153713 -1.570562 0.002683 -1.566807
    8 -0.488518 -2.755602 -0.228260 -1.381605 -0.178341 -0.211266
    9 0.039887 -1.479790 0.029854 -0.929887 -0.052253 0.069907
    10 0.028786 -1.075731 -0.023109 -1.481385 0.000000 0.000000
    11 0.250027 -2.820665 -0.238396 -1.068206 -0.168272 -0.396342
    12 -0.049759 -1.680544 0.100479 -1.479918 -0.104086 0.165110
    13 -0.034142 -1.148312 0.084782 -1.087313 0.000000 0.000000
    14 0.957766 -2.746780 -0.090302 -0.445663 -0.171158 0.010363
    15 -0.033420 -1.397129 -0.011257 -0.459017 0.124808 -0.122316
    16 -0.022360 -0.957436 0.018784 -1.450347 0.000000 0.000000
    17 -1.180681 -2.507217 -0.193859 -1.245142 -0.058709 -0.139782
    18 -0.024967 -1.123934 0.017597 -0.977967 0.000000 0.000001
    19 -0.020057 -0.890968 0.010090 -0.933434 0.000000 0.000000
    20 0.583510 -1.197277 0.185379 0.379009 -1.169118 -0.652939
    21 1.535927 0.010246 0.005009 0.393379 -0.245252 -1.052879
    22 1.100771 0.004527 -0.010679 -0.011449 0.011491 -0.607431
    23 0.120153 -0.050270 -0.054489 0.287569 3.110905 1.561085
    24 -0.649687 -8.739179 -10.493791 -1.766649 -5.321384 -1.065166
    25 0.096944 -8.450418 -0.009365 0.228648 -0.233694 0.292789
    26 0.447953 -2.798986 -0.200443 -1.072186 -0.126515 -0.047440
    27 -0.032909 -1.480204 0.004940 -1.413632 0.000000 0.000002
    28 -0.027022 -1.076920 -0.020210 -1.481391 0.000000 0.000000
    29 -0.249534 -2.846964 -0.174213 -0.968633 -0.135815 -0.084786
    30 0.043235 -1.683941 0.096012 -1.469776 0.002823 -0.000167
    31 0.031729 -1.160830 0.058838 -1.436444 0.000642 0.008372
    32 -0.963866 -2.785145 -0.085350 -0.957802 -0.035925 -0.239075
    33 0.028479 -1.403067 0.006271 -1.158106 0.000000 0.000000
    34 0.021413 -0.957781 0.020046 -1.216858 0.000000 0.000000
    35 1.164475 -2.543940 -0.170330 -0.843989 -0.306425 0.042666
    36 0.024032 -1.129042 0.017807 -1.199105 0.000000 0.000001
    37 0.014898 -0.883989 -0.019848 -1.052873 0.000000 0.000000
    38 -0.586770 -1.264477 0.200161 -0.330638 -0.882973 -2.453541
    39 1.522835 0.058681 0.016848 -0.037192 -0.131247 0.649010
    40 1.117947 0.048424 -0.005766 -0.016374 -0.019146 0.763684
    41 -0.139399 -0.111698 0.014397 0.285382 -0.030687 1.580508
    42 -1.393470 8.839177 -0.239433 1.580804 -0.005023 -1.566847
  time 6
    0 0.000000 0.710959 0.000000 -0.042078 0.000000 -0.000022
    1 8.186462 0.777844 -6.784957 0.768969 -1.860600 -0.890560
    2 -0.071917 -8.498687 -0.104136 0.147673 0.249490 0.024910
    3 1.848843 -3.361148 0.929803 -0.012221 0.068719 2.924626
    4 0.082599 1.146638 0.000000 0.000000 0.000000 -0.181947
    5 -0.932205 -4.093297 0.364983 3.141592 0.000000 -1.570796
    6 0.200941 -5.459696 0.000001 0.000001 0.000000 0.000000
    7 1.257180 8.762585 -0.153713 -1.570562 0.002683 -1.566807
    8 -0.488518 -2.755602 -0.228260 -1.381605 -0.178341 -0.211266
    9 0.039887 -1.479790 0.029854 -0.929887 -0.052253 0.069907
    10 0.028786 -1.075731 -0.023109 -1.481385 0.000000 0.000000
    11 0.250027 -2.820665 -0.238396 -1.068206 -0.168272 -0.396342
    12 -0.049759 -1.680544 0.100479 -1.479918 -0.104086 0.165110
    13 -0.034142 -1.148312 0.084782 -1.087281 0.000000 0.000000
    14 0.957766 -2.746780 -0.090302 -0.438482 -0.171158 0.010363
    15 -0.033420 -1.397129 -0.011257 -0.401069 0.124808 -0.122316
    16 -0.022360 -0.957436 0.018784 -1.334447 0.000000 0.000000
    17 -1.180681 -2.507217 -0.193859 -1.245142 -0.058709 -0.139782
    18 -0.024967 -1.123934 0.017597 -0.977967 0.000000 0.000001
    19 -0.020057 -0.890968 0.010090 -0.933434 0.000000 0.000000
    20 0.583510 -1.197277 0.185379 0.379009 -1.169118 -0.652939
    21 1.535927 0.010246 0.005009 0.393379 -0.245252 -1.052879
    22 1.100771 0.004527 -0.010679 -0.011449 0.011491 -0.607431
    23 0.120153 -0.050270 -0.054489 0.287569 3.110905 1.561085
    24 -0.649687 -8.739179 -10.493791 -1.766649 -5.321384 -1.065166
    25 0.096944 -8.450418 -0.009365 0.228648 -0.233694 0.292789
    26 0.447953 -2.798986 -0.200443 -1.072186 -0.126515 -0.047440
    27 -0.032909 -1.480204 0.004940 -1.413632 0.000000 0.000002
    28 -0.027022 -1.076920 -0.020210 -1.481391 0.000000 0.000000
    29 -0.249534 -2.846964 -0.174213 -0.968633 -0.135815 -0.084786
    30 0.043235 -1.683941 0.096012 -1.469776 0.002823 -0.000167
    31 0.031729 -1.160830 0.058838 -1.436444 0.000642 0.008372
    32 -0.963866 -2.785145 -0.085350 -0.957802 -0.035925 -0.239075
    33 0.028479 -1.403067 0.006271 -1.158106 0.000000 0.000000
    34 0.021413 -0.957781 0.020046 -1.216858 0.000000 0.000000
    35 1.164475 -2.543940 -0.170330 -0.843989 -0.306425 0.042666
    36 0.024032 -1.129042 0.017807 -1.199105 0.000000 0.000001
    37 0.014898 -0.883989 -0.019848 -1.052873 0.000000 0.000000
    38 -0.586770 -1.264477 0.200161 -0.330638 -0.882973 -2.453541
    39 1.522835 0.058681 0.016848 -0.037192 -0.131247 0.649010
    40 1.117947 0.048424 -0.005766 -0.016374 -0.019146 0.763684
    41 -0.139399 -0.111698 0.014397 0.285382 -0.030687 1.580508
    42 -1.393470 8.839177 -0.239433 1.580804 -0.005023 -1.566847
  time 7
    0 0.000000 0.441420 0.000000 -0.032934 0.000000 -0.000022
    1 8.186462 0.777844 -6.784957 0.768969 -1.860600 -0.890560
    2 -0.071917 -8.498687 -0.104136 0.147673 0.249490 0.024910
    3 1.848843 -3.361148 0.929803 -0.012221 0.068719 2.924626
    4 0.082599 1.146638 0.000000 0.000000 0.000000 -0.113118
    5 -0.932205 -3.698754 0.364983 3.141592 0.000000 -1.570796
    6 0.200941 -5.459696 0.000001 0.000001 0.000000 0.000000
    7 1.257180 8.762585 -0.153713 -1.570562 0.002683 -1.566807
    8 -0.488518 -2.755602 -0.228260 -1.381605 -0.178341 -0.211266
    9 0.039887 -1.479790 0.029854 -0.929887 -0.052253 0.069907
    10 0.028786 -1.075731 -0.023109 -1.481385 0.000000 0.000000
    11 0.250027 -2.820665 -0.238396 -1.068206 -0.168272 -0.396342
    12 -0.049759 -1.680544 0.100479 -1.479918 -0.104086 0.165110
    13 -0.034142 -1.148312 0.084782 -1.087281 0.000000 0.000000
    14 0.957766 -2.746780 -0.090302 -0.431656 -0.171158 0.010363
    15 -0.033420 -1.397129 -0.011257 -0.346009 0.124808 -0.122316
    16 -0.022360 -0.957436 0.018784 -1.224298 0.000000 0.000000
    17 -1.180681 -2.507217 -0.193859 -1.245142 -0.058709 -0.139782
    18 -0.024967 -1.123934 0.017597 -0.977967 0.000000 0.000001
    19 -0.020057 -0.890968 0.010090 -0.933434 0.000000 0.000000
    20 0.583510 -1.197277 0.185379 0.379009 -1.169118 -0.652939
    21 1.535927 0.010246 0.005009 0.393379 -0.245252 -1.052879
    22 1.100771 0.004527 -0.010679 -0.011449 0.011491 -0.607431
    23 0.120153 -0.050270 -0.054489 0.287569 3.110905 1.561085
    24 -0.649687 -8.739179 -10.493791 -1.766649 -5.321384 -1.065166
    25 0.096944 -8.450418 -0.009365 0.228648 -0.233694 0.292789
    26 0.447953 -2.798986 -0.200443 -1.072186 -0.126515 -0.047440
    27 -0.032909 -1.480204 0.004940 -1.413632 0.000000 0.000002
    28 -0.027022 -1.076920 -0.020210 -1.481391 0.000000 0.000000
    29 -0.249534 -2.846964 -0.174213 -0.968633 -0.135815 -0.084786
    30 0.043235 -1.683941 0.096012 -1.469776 0.002823 -0.000167
    31 0.031729 -1.160830 0.058838 -1.436444 0.000642 0.008372
    32 -0.963866 -2.785145 -0.085350 -0.957802 -0.035925 -0.239075
    33 0.028479 -1.403067 0.006271 -1.158106 0.000000 0.000000
    34 0.021413 -0.957781 0.020046 -1.216858 0.000000 0.000000
    35 1.164475 -2.543940 -0.170330 -0.843989 -0.306425 0.042666
    36 0.024032 -1.129042 0.017807 -1.199105 0.000000 0.000001
    37 0.014898 -0.883989 -0.019848 -1.052873 0.000000 0.000000
    38 -0.586770 -1.264477 0.200161 -0.330638 -0.882973 -2.453541
    39 1.522835 0.058681 0.016848 -0.037192 -0.131247 0.649010
    40 1.117947 0.048424 -0.005766 -0.016374 -0.019146 0.763684
    41 -0.139399 -0.111698 0.014397 0.285382 -0.030687 1.580508
    42 -1.393470 8.839177 -0.239433 1.580804 -0.005023 -1.566847
  time 8
    0 0.000000 0.214850 0.000000 -0.020446 0.000000 -0.000022
    1 8.186462 0.777844 -6.784957 0.768969 -1.860600 -0.890560
    2 -0.071917 -8.498687 -0.104136 0.147673 0.249490 0.024910
    3 1.848843 -3.361148 0.929803 -0.012221 0.068719 2.924626
    4 0.082599 1.146638 0.000000 0.000000 0.000000 -0.055061
    5 -0.932205 -3.542499 0.364983 3.141592 0.000000 -1.570796
    6 0.200941 -5.459696 0.000001 0.000001 0.000000 0.000000
    7 1.257180 8.762585 -0.153713 -1.570562 0.002683 -1.566807
    8 -0.488518 -2.755602 -0.228260 -1.381605 -0.178341 -0.211266
    9 0.039887 -1.479790 0.029854 -0.929887 -0.052253 0.069907
    10 0.028786 -1.075731 -0.023109 -1.481385 0.000000 0.000000
    11 0.250027 -2.820665 -0.238396 -1.068206 -0.168272 -0.396342
    12 -0.049759 -1.680544 0.100479 -1.479918 -0.104086 0.165110
    13 -0.034142 -1.148312 0.084782 -1.087281 0.000000 0.000000
    14 0.957766 -2.746780 -0.090302 -0.425892 -0.171158 0.010363
    15 -0.033420 -1.397129 -0.011257 -0.299556 0.124808 -0.122316
    16 -0.022360 -0.957436 0.018784 -1.131407 0.000000 0.000000
    17 -1.180681 -2.507217 -0.193859 -1.245142 -0.058709 -0.139782
    18 -0.024967 -1.123934 0.017597 -0.977967 0.000000 0.000001
    19 -0.020057 -0.890968 0.010090 -0.933434 0.000000 0.000000
    20 0.583510 -1.197277 0.185379 0.379021 -1.169118 -0.652939
    21 1.535927 0.010246 0.005009 0.393379 -0.245252 -1.052879
    22 1.100771 0.004527 -0.010679 -0.011449 0.011491 -0.607431
    23 0.120153 -0.050270 -0.054489 0.287569 3.110905 1.561085
    24 -0.649687 -8.739179 -10.493791 -1.766649 -5.321384 -1.065166
    25 0.096944 -8.450418 -0.009365 0.228648 -0.233694 0.292789
    26 0.447953 -2.798986 -0.200443 -1.072186 -0.126515 -0.047440
    27 -0.032909 -1.480204 0.004940 -1.413632 0.000000 0.000002
    28 -0.027022 -1.076920 -0.020210 -1.481391 0.000000 0.000000
    29 -0.249534 -2.846964 -0.174213 -0.968633 -0.135815 -0.084786
    30 0.043235 -1.683941 0.096012 -1.469776 0.002823 -0.000167
    31 0.031729 -1.160830 0.058838 -1.436444 0.000642 0.008372
    32 -0.963866 -2.785145 -0.085350 -0.957802 -0.035925 -0.239075
    33 0.028479 -1.403067 0.006271 -1.158106 0.000000 0.000000
    34 0.021413 -0.957781 0.020046 -1.216858 0.000000 0.000000
    35 1.164475 -2.543940 -0.170330 -0.843989 -0.306425 0.042666
    36 0.024032 -1.129042 0.017807 -1.199105 0.000000 0.000001
    37 0.014898 -0.883989 -0.019848 -1.052873 0.000000 0.000000
    38 -0.586770 -1.264477 0.200161 -0.330638 -0.882973 -2.453541
    39 1.522835 0.058681 0.016848 -0.037192 -0.131247 0.649010
    40 1.117947 0.048424 -0.005766 -0.016374 -0.019146 0.763684
    41 -0.139399 -0.111698 0.014397 0.285382 -0.030687 1.580508
    42 -1.393470 8.839177 -0.239433 1.580804 -0.005023 -1.566847
  time 9
    0 0.000000 0.054689 0.000000 -0.006831 0.000000 -0.000022
    1 8.186462 0.777844 -6.784957 0.768969 -1.860600 -0.890560
    2 -0.071917 -8.498687 -0.104136 0.147673 0.249490 0.024910
    3 1.848843 -3.361148 0.929803 -0.012221 0.068719 2.924626
    4 0.082599 1.146638 0.000000 0.000000 0.000000 -0.014954
    5 -0.932205 -3.542499 0.364983 3.141592 0.000000 -1.570796
    6 0.200941 -5.459696 0.000001 0.000001 0.000000 0.000000
    7 1.257180 8.762585 -0.153713 -1.570562 0.002683 -1.566807
    8 -0.488518 -2.755602 -0.228260 -1.381605 -0.178341 -0.211266
    9 0.039887 -1.479790 0.029854 -0.929887 -0.052253 0.069907
    10 0.028786 -1.075731 -0.023109 -1.481385 0.000000 0.000000
    11 0.250027 -2.820665 -0.238396 -1.068206 -0.168272 -0.396342
    12 -0.049759 -1.680544 0.100479 -1.479918 -0.104086 0.165110
    13 -0.034142 -1.148312 0.084782 -1.087281 0.000000 0.000000
    14 0.957766 -2.746780 -0.090302 -0.421913 -0.171158 0.010363
    15 -0.033420 -1.397129 -0.011257 -0.267486 0.124808 -0.122316
    16 -0.022360 -0.957436 0.018784 -1.067278 0.000000 0.000000
    17 -1.180681 -2.507217 -0.193859 -1.245142 -0.058709 -0.139782
    18 -0.024967 -1.123934 0.017597 -0.977967 0.000000 0.000001
    19 -0.020057 -0.890968 0.010090 -0.933434 0.000000 0.000000
    20 0.583510 -1.197277 0.185379 0.379021 -1.169118 -0.652939
    21 1.535927 0.010246 0.005009 0.393379 -0.245252 -1.052879
    22 1.100771 0.004527 -0.010679 -0.011449 0.011491 -0.607431
    23 0.120153 -0.050270 -0.054489 0.287569 3.110905 1.561085
    24 -0.649687 -8.739179 -10.493791 -1.766649 -5.321384 -1.065166
    25 0.096944 -8.450418 -0.009365 0.228648 -0.233694 0.292789
    26 0.447953 -2.798986 -0.200443 -1.072186 -0.126515 -0.047440
    27 -0.032909 -1.480204 0.004940 -1.413632 0.000000 0.000002
    28 -0.027022 -1.076920 -0.020210 -1.481391 0.000000 0.000000
    29 -0.249534 -2.846964 -0.174213 -0.968633 -0.135815 -0.084786
    30 0.043235 -1.683941 0.096012 -1.469776 0.002823 -0.000167
    31 0.031729 -1.160830 0.058838 -1.436444 0.000642 0.008372
    32 -0.963866 -2.785145 -0.085350 -0.957802 -0.035925 -0.239075
    33 0.028479 -1.403067 0.006271 -1.158106 0.000000 0.000000
    34 0.021413 -0.957781 0.020046 -1.216858 0.000000 0.000000
    35 1.164475 -2.543940 -0.170330 -0.843989 -0.306425 0.042666
    36 0.024032 -1.129042 0.017807 -1.199105 0.000000 0.000001
    37 0.014898 -0.883989 -0.019848 -1.052873 0.000000 0.000000
    38 -0.586770 -1.264477 0.200161 -0.330638 -0.882973 -2.453541
    39 1.522835 0.058681 0.016848 -0.037192 -0.131247 0.649010
    40 1.117947 0.048424 -0.005766 -0.016374 -0.019146 0.763684
    41 -0.139399 -0.111698 0.014397 0.285382 -0.030687 1.580508
    42 -1.393470 8.839177 -0.239433 1.580804 -0.005023 -1.566847
  time 10
    0 0.000000 0.000000 0.000000 0.005645 0.000000 -0.000022
    1 8.186462 0.777844 -6.784957 0.768969 -1.860600 -0.890560
    2 -0.071917 -8.498687 -0.104136 0.147673 0.249490 0.024910
    3 1.848843 -3.361148 0.929803 -0.012221 0.068719 2.924626
    4 0.082599 1.146638 0.000000 0.000000 0.000000 0.000000
    5 -0.932205 -3.542499 0.364983 3.141592 0.000000 -1.570796
    6 0.200941 -5.459696 0.000001 0.000001 0.000000 0.000000
    7 1.257180 8.762585 -0.153713 -1.570562 0.002683 -1.566807
    8 -0.488518 -2.755602 -0.228260 -1.381605 -0.178341 -0.211266
    9 0.039887 -1.479790 0.029854 -0.929887 -0.052253 0.069907
    10 0.028786 -1.075731 -0.023109 -1.481385 0.000000 0.000000
    11 0.250027 -2.820665 -0.238396 -1.068206 -0.168272 -0.396342
    12 -0.049759 -1.680544 0.100479 -1.479918 -0.104086 0.165110
    13 -0.034142 -1.148312 0.084782 -1.087281 0.000000 0.000000
    14 0.957766 -2.746780 -0.090302 -0.420442 -0.171158 0.010363
    15 -0.033420 -1.397129 -0.011257 -0.255519 0.124808 -0.122316
    16 -0.022360 -0.957436 0.018784 -1.043310 0.000000 0.000000
    17 -1.180681 -2.507217 -0.193859 -1.245142 -0.058709 -0.139782
    18 -0.024967 -1.123934 0.017597 -0.977967 0.000000 0.000001
    19 -0.020057 -0.890968 0.010090 -0.933434 0.000000 0.000000
    20 0.583510 -1.197277 0.185379 0.379021 -1.169118 -0.652939
    21 1.535927 0.010246 0.005009 0.393379 -0.245252 -1.052879
    22 1.100771 0.004527 -0.010679 -0.011449 0.011491 -0.607431
    23 0.120153 -0.050270 -0.054489 0.287569 3.110905 1.561085
    24 -0.649687 -8.739179 -10.493791 -1.766649 -5.321384 -1.065166
    25 0.096944 -8.450418 -0.009365 0.228648 -0.233694 0.292789
    26 0.447953 -2.798986 -0.200443 -1.072186 -0.126515 -0.047440
    27 -0.032909 -1.480204 0.004940 -1.413632 0.000000 0.000002
    28 -0.027022 -1.076920 -0.020210 -1.481391 0.000000 0.000000
    29 -0.249534 -2.846964 -0.174213 -0.968633 -0.135815 -0.084786
    30 0.043235 -1.683941 0.096012 -1.469776 0.002823 -0.000167
    31 0.031729 -1.160830 0.058838 -1.436444 0.000642 0.008372
    32 -0.963866 -2.785145 -0.085350 -0.957802 -0.035925 -0.239075
    33 0.028479 -1.403067 0.006271 -1.158106 0.000000 0.000000
    34 0.021413 -0.957781 0.020046 -1.216858 0.000000 0.000000
    35 1.164475 -2.543940 -0.170330 -0.843989 -0.306425 0.042666
    36 0.024032 -1.129042 0.017807 -1.199105 0.000000 0.000001
    37 0.014898 -0.883989 -0.019848 -1.052873 0.000000 0.000000
    38 -0.586770 -1.264477 0.200161 -0.330638 -0.882973 -2.453541
    39 1.522835 0.058681 0.016848 -0.037192 -0.131247 0.649010
    40 1.117947 0.048424 -0.005766 -0.016374 -0.019146 0.763684
    41 -0.139399 -0.111698 0.014397 0.285382 -0.030687 1.580508
    42 -1.393470 8.839177 -0.239433 1.580804 -0.005023 -1.566847
  time 11
    0 0.000000 0.000000 -0.003906 0.014789 0.000000 -0.000022
    1 8.186462 0.777844 -6.784957 0.768969 -1.860600 -0.890560
    2 -0.071917 -8.498687 -0.104136 0.147673 0.249490 0.024910
    3 1.848843 -3.361148 0.929803 -0.012221 0.068719 2.924626
    4 0.082599 1.146638 0.000000 0.000000 0.000000 0.000000
    5 -0.932205 -3.542499 0.364983 3.141592 0.000000 -1.570796
    6 0.200941 -5.459696 0.000001 0.000001 0.000000 0.000000
    7 1.257180 8.762585 -0.153713 -1.570562 0.002683 -1.566807
    8 -0.488518 -2.755602 -0.228260 -1.381605 -0.178341 -0.211266
    9 0.039887 -1.479790 0.029854 -0.929887 -0.052253 0.069907
    10 0.028786 -1.075731 -0.023109 -1.481385 0.000000 0.000000
    11 0.250027 -2.820665 -0.238396 -1.068206 -0.168272 -0.396342
    12 -0.049759 -1.680544 0.100479 -1.479918 -0.104086 0.165110
    13 -0.034142 -1.148312 0.084782 -1.087281 0.000000 0.000000
    14 0.957766 -2.746780 -0.090302 -0.420442 -0.171158 0.010363
    15 -0.033420 -1.397129 -0.011257 -0.255519 0.124808 -0.122316
    16 -0.022360 -0.957436 0.018784 -1.043310 0.000000 0.000000
    17 -1.180681 -2.507217 -0.193859 -1.245142 -0.058709 -0.139782
    18 -0.024967 -1.123934 0.017597 -0.977967 0.000000 0.000001
    19 -0.020057 -0.890968 0.010090 -0.933434 0.000000 0.000000
    20 0.583510 -1.197277 0.185379 0.379021 -1.169118 -0.652939
    21 1.535927 0.010246 0.005009 0.393379 -0.245252 -1.052879
    22 1.100771 0.004527 -0.010679 -0.011449 0.011491 -0.607431
    23 0.120153 -0.050270 -0.054489 0.287569 3.110905 1.561085
    24 -0.649687 -8.739179 -10.493791 -1.766649 -5.321384 -1.065166
    25 0.096944 -8.450418 -0.009365 0.228648 -0.233694 0.292789
    26 0.447953 -2.798986 -0.200443 -1.072186 -0.126515 -0.047440
    27 -0.032909 -1.480204 0.004940 -1.413632 0.000000 0.000002
    28 -0.027022 -1.076920 -0.020210 -1.481391 0.000000 0.000000
    29 -0.249534 -2.846964 -0.174213 -0.968633 -0.135815 -0.084786
    30 0.043235 -1.683941 0.096012 -1.469776 0.002823 -0.000167
    31 0.031729 -1.160830 0.058838 -1.436444 0.000642 0.008372
    32 -0.963866 -2.785145 -0.085350 -0.957802 -0.035925 -0.239075
    33 0.028479 -1.403067 0.006271 -1.158106 0.000000 0.000000
    34 0.021413 -0.957781 0.020046 -1.216858 0.000000 0.000000
    35 1.164475 -2.543940 -0.170330 -0.843989 -0.306425 0.042666
    36 0.024032 -1.129042 0.017807 -1.199105 0.000000 0.000001
    37 0.014898 -0.883989 -0.019848 -1.052873 0.000000 0.000000
    38 -0.586770 -1.264477 0.200161 -0.330638 -0.882973 -2.453541
    39 1.522835 0.058681 0.016848 -0.037192 -0.131247 0.649010
    40 1.117947 0.048424 -0.005766 -0.016374 -0.019146 0.763684
    41 -0.139399 -0.111698 0.014397 0.285382 -0.030687 1.580508
    42 -1.393470 8.839177 -0.239433 1.580804 -0.005023 -1.566847
  time 12
    0 0.000000 0.000000 -0.019532 0.018324 0.000000 -0.000022
    1 8.186462 0.777844 -6.784957 0.768969 -1.860600 -0.890560
    2 -0.071917 -8.498687 -0.104136 0.147673 0.249490 0.024910
    3 1.848843 -3.361148 0.929803 -0.012221 0.068719 2.924626
    4 0.082599 1.146638 0.000000 0.000000 0.000000 0.000000
    5 -0.932205 -3.542499 0.364983 3.141592 0.000000 -1.570796
    6 0.200941 -5.459696 0.000001 0.000001 0.000000 0.000000
    7 1.257180 8.762585 -0.153713 -1.570562 0.002683 -1.566807
    8 -0.488518 -2.755602 -0.228260 -1.381605 -0.178341 -0.211266
    9 0.039887 -1.479790 0.029854 -0.929887 -0.052253 0.069907
    10 0.028786 -1.075731 -0.023109 -1.481385 0.000000 0.000000
    11 0.250027 -2.820665 -0.238396 -1.068206 -0.168272 -0.396342
    12 -0.049759 -1.680544 0.100479 -1.479918 -0.104086 0.165110
    13 -0.034142 -1.148312 0.084782 -1.087281 0.000000 0.000000
    14 0.957766 -2.746780 -0.090302 -0.420442 -0.171158 0.010363
    15 -0.033420 -1.397129 -0.011257 -0.255519 0.124808 -0.122316
    16 -0.022360 -0.957436 0.018784 -1.043310 0.000000 0.000000
    17 -1.180681 -2.507217 -0.193859 -1.245142 -0.058709 -0.139782
    18 -0.024967 -1.123934 0.017597 -0.977967 0.000000 0.000001
    19 -0.020057 -0.890968 0.010090 -0.933434 0.000000 0.000000
    20 0.583510 -1.197277 0.185379 0.379009 -1.169118 -0.652939
    21 1.535927 0.010246 0.005009 0.393379 -0.245252 -1.052879
    22 1.100771 0.004527 -0.010679 -0.011449 0.011491 -0.607431
    23 0.120153 -0.050270 -0.054489 0.287569 3.110905 1.561085
    24 -0.649687 -8.739179 -10.493791 -1.766649 -5.321384 -1.065166
    25 0.096944 -8.450418 -0.009365 0.228648 -0.233694 0.292789
    26 0.447953 -2.798986 -0.200443 -1.072186 -0.126515 -0.047440
    27 -0.032909 -1.480204 0.004940 -1.413632 0.000000 0.000002
    28 -0.027022 -1.076920 -0.020210 -1.481391 0.000000 0.000000
    29 -0.249534 -2.846964 -0.174213 -0.968633 -0.135815 -0.084786
    30 0.043235 -1.683941 0.096012 -1.469776 0.002823 -0.000167
    31 0.031729 -1.160830 0.058838 -1.436444 0.000642 0.008372
    32 -0.963866 -2.785145 -0.085350 -0.957802 -0.035925 -0.239075
    33 0.028479 -1.403067 0.006271 -1.158106 0.000000 0.000000
    34 0.021413 -0.957781 0.020046 -1.216858 0.000000 0.000000
    35 1.164475 -2.543940 -0.170330 -0.843989 -0.306425 0.042666
    36 0.024032 -1.129042 0.017807 -1.199105 0.000000 0.000001
    37 0.014898 -0.883989 -0.019848 -1.052873 0.000000 0.000000
    38 -0.586770 -1.264477 0.200161 -0.330638 -0.882973 -2.453541
    39 1.522835 0.058681 0.016848 -0.037192 -0.131247 0.649010
    40 1.117947 0.048424 -0.005766 -0.016374 -0.019146 0.763684
    41 -0.139399 -0.111698 0.014397 0.285382 -0.030687 1.580508
    42 -1.393470 8.839177 -0.239433 1.580804 -0.005023 -1.566847
  time 13
    0 0.000000 0.000000 -0.042970 0.017354 0.000000 -0.000022
    1 8.186462 0.777844 -6.784957 0.768969 -1.860600 -0.890560
    2 -0.071917 -8.498687 -0.104136 0.147673 0.249490 0.024910
    3 1.848843 -3.361148 0.929803 -0.012221 0.068719 2.924626
    4 0.082599 1.146638 0.000000 0.000000 0.000000 0.000000
    5 -0.932205 -3.542499 0.364983 3.141592 0.000000 -1.570796
    6 0.200941 -5.459696 0.000001 0.000001 0.000000 0.000000
    7 1.257180 8.762585 -0.153713 -1.570562 0.002683 -1.566807
    8 -0.488518 -2.755602 -0.228260 -1.381605 -0.178341 -0.211266
    9 0.039887 -1.479790 0.029854 -0.929887 -0.052253 0.069907
    10 0.028786 -1.075731 -0.023109 -1.481385 0.000000 0.000000
    11 0.250027 -2.820665 -0.238396 -1.068206 -0.168272 -0.396342
    12 -0.049759 -1.680544 0.100479 -1.479918 -0.104086 0.165110
    13 -0.034142 -1.148312 0.084782 -1.087281 0.000000 0.000000
    14 0.957766 -2.746780 -0.090302 -0.420442 -0.171158 0.010363
    15 -0.033420 -1.397129 -0.011257 -0.255519 0.124808 -0.122316
    16 -0.022360 -0.957436 0.018784 -1.043310 0.000000 0.000000
    17 -1.180681 -2.507217 -0.193859 -1.245142 -0.058709 -0.139782
    18 -0.024967 -1.123934 0.017597 -0.977967 0.000000 0.000001
    19 -0.020057 -0.890968 0.010090 -0.933434 0.000000 0.000000
    20 0.583510 -1.197277 0.185379 0.379009 -1.169118 -0.652939
    21 1.535927 0.010246 0.005009 0.393379 -0.245252 -1.052879
    22 1.100771 0.004527 -0.010679 -0.011449 0.011491 -0.607431
    23 0.120153 -0.050270 -0.054489 0.287569 3.110905 1.561085
    24 -0.649687 -8.739179 -10.493791 -1.766649 -5.321384 -1.065166
    25 0.096944 -8.450418 -0.009365 0.228648 -0.233694 0.292789
    26 0.447953 -2.798986 -0.200443 -1.072186 -0.126515 -0.047440
    27 -0.032909 -1.480204 0.004940 -1.413632 0.000000 0.000002
    28 -0.027022 -1.076920 -0.020210 -1.481391 0.000000 0.000000
    29 -0.249534 -2.846964 -0.174213 -0.968633 -0.135815 -0.084786
    30 0.043235 -1.683941 0.096012 -1.469776 0.002823 -0.000167
    31 0.031729 -1.160830 0.058838 -1.436444 0.000642 0.008372
    32 -0.963866 -2.785145 -0.085350 -0.957802 -0.035925 -0.239075
    33 0.028479 -1.403067 0.006271 -1.158106 0.000000 0.000000
    34 0.021413 -0.957781 0.020046 -1.216858 0.000000 0.000000
    35 1.164475 -2.543940 -0.170330 -0.843989 -0.306425 0.042666
    36 0.024032 -1.129042 0.017807 -1.199105 0.000000 0.000001
    37 0.014898 -0.883989 -0.019848 -1.052873 0.000000 0.000000
    38 -0.586770 -1.264477 0.200161 -0.330638 -0.882973 -2.453541
    39 1.522835 0.058681 0.016848 -0.037192 -0.131247 0.649010
    40 1.117947 0.048424 -0.005766 -0.016374 -0.019146 0.763684
    41 -0.139399 -0.111698 0.014397 0.285382 -0.030687 1.580508
    42 -1.393470 8.839177 -0.239433 1.580804 -0.005023 -1.566847
  time 14
    0 0.000000 0.000000 -0.066408 0.014777 0.000000 -0.000022
    1 8.186462 0.777844 -6.784957 0.768969 -1.860600 -0.890560
    2 -0.071917 -8.498687 -0.104136 0.147673 0.249490 0.024910
    3 1.848843 -3.361148 0.929803 -0.012221 0.068719 2.924626
    4 0.082599 1.146638 0.000000 0.000000 0.000000 0.000000
    5 -0.932205 -3.542499 0.364983 3.141592 0.000000 -1.570796
    6 0.200941 -5.459696 0.000001 0.000001 0.000000 0.000000
    7 1.257180 8.762585 -0.153713 -1.570562 0.002683 -1.566807
    8 -0.488518 -2.755602 -0.228260 -1.381605 -0.178341 -0.211266
    9 0.039887 -1.479790 0.029854 -0.929887 -0.052253 0.069907
    10 0.028786 -1.075731 -0.023109 -1.481385 0.000000 0.000000
    11 0.250027 -2.820665 -0.238396 -1.068206 -0.168272 -0.396342
    12 -0.049759 -1.680544 0.100479 -1.479918 -0.104086 0.165110
    13 -0.034142 -1.148312 0.084782 -1.087281 0.000000 0.000000
    14 0.957766 -2.746780 -0.090302 -0.420442 -0.171158 0.010363
    15 -0.033420 -1.397129 -0.011257 -0.255519 0.124808 -0.122316
    16 -0.022360 -0.957436 0.018784 -1.043310 0.000000 0.000000
    17 -1.180681 -2.507217 -0.193859 -1.245142 -0.058709 -0.139782
    18 -0.024967 -1.123934 0.017597 -0.977967 0.000000 0.000001
    19 -0.020057 -0.890968 0.010090 -0.933434 0.000000 0.000000
    20 0.583510 -1.197277 0.185379 0.379009 -1.169118 -0.652939
    21 1.535927 0.010246 0.005009 0.393379 -0.245252 -1.052879
    22 1.100771 0.004527 -0.010679 -0.011449 0.011491 -0.607431
    23 0.120153 -0.050270 -0.054489 0.287569 3.110905 1.561085
    24 -0.649687 -8.739179 -10.493791 -1.766649 -5.321384 -1.065166
    25 0.096944 -8.450418 -0.009365 0.228648 -0.233694 0.292789
    26 0.447953 -2.798986 -0.200443 -1.072186 -0.126515 -0.047440
    27 -0.032909 -1.480204 0.004940 -1.413632 0.000000 0.000002
    28 -0.027022 -1.076920 -0.020210 -1.481391 0.000000 0.000000
    29 -0.249534 -2.846964 -0.174213 -0.968633 -0.135815 -0.084786
    30 0.043235 -1.683941 0.096012 -1.469776 0.002823 -0.000167
    31 0.031729 -1.160830 0.058838 -1.436444 0.000642 0.008372
    32 -0.963866 -2.785145 -0.085350 -0.957802 -0.035925 -0.239075
    33 0.028479 -1.403067 0.006271 -1.158106 0.000000 0.000000
    34 0.021413 -0.957781 0.020046 -1.216858 0.000000 0.000000
    35 1.164475 -2.543940 -0.170330 -0.843989 -0.306425 0.042666
    36 0.024032 -1.129042 0.017807 -1.199105 0.000000 0.000001
    37 0.014898 -0.883989 -0.019848 -1.052873 0.000000 0.000000
    38 -0.586770 -1.264477 0.200161 -0.330638 -0.882973 -2.453541
    39 1.522835 0.058681 0.016848 -0.037192 -0.131247 0.649010
    40 1.117947 0.048424 -0.005766 -0.016374 -0.019146 0.763684
    41 -0.139399 -0.111698 0.014397 0.285382 -0.030687 1.580508
    42 -1.393470 8.839177 -0.239433 1.580804 -0.005023 -1.566847
  time 15
    0 0.000000 0.000000 -0.089846 0.011134 0.000000 -0.000022
    1 8.186462 0.777844 -6.784957 0.768969 -1.860600 -0.890560
    2 -0.071917 -8.498687 -0.104136 0.147673 0.249490 0.024910
    3 1.848843 -3.361148 0.929803 -0.012221 0.068719 2.924626
    4 0.082599 1.146638 0.000000 0.000000 0.000000 0.000000
    5 -0.932205 -3.542499 0.364983 3.141592 0.000000 -1.570796
    6 0.200941 -5.459696 0.000001 0.000001 0.000000 0.000000
    7 1.257180 8.762585 -0.153713 -1.570562 0.002683 -1.566807
    8 -0.488518 -2.755602 -0.228260 -1.381605 -0.178341 -0.211266
    9 0.039887 -1.479790 0.029854 -0.929887 -0.052253 0.069907
    10 0.028786 -1.075731 -0.023109 -1.481385 0.000000 0.000000
    11 0.250027 -2.820665 -0.238396 -1.068206 -0.168272 -0.396342
    12 -0.049759 -1.680544 0.100479 -1.479918 -0.104086 0.165110
    13 -0.034142 -1.148312 0.084782 -1.087281 0.000000 0.000000
    14 0.957766 -2.746780 -0.090302 -0.420442 -0.171158 0.010363
    15 -0.033420 -1.397129 -0.011257 -0.255519 0.124808 -0.122316
    16 -0.022360 -0.957436 0.018784 -1.043310 0.000000 0.000000
    17 -1.180681 -2.507217 -0.193859 -1.245142 -0.058709 -0.139782
    18 -0.024967 -1.123934 0.017597 -0.977967 0.000000 0.000001
    19 -0.020057 -0.890968 0.010090 -0.933434 0.000000 0.000000
    20 0.583510 -1.197277 0.185379 0.379021 -1.169118 -0.652939
    21 1.535927 0.010246 0.005009 0.393379 -0.245252 -1.052879
    22 1.100771 0.004527 -0.010679 -0.011449 0.011491 -0.607431
    23 0.120153 -0.050270 -0.054489 0.287569 3.110905 1.561085
    24 -0.649687 -8.739179 -10.493791 -1.766649 -5.321384 -1.065166
    25 0.096944 -8.450418 -0.009365 0.228648 -0.233694 0.292789
    26 0.447953 -2.798986 -0.200443 -1.072186 -0.126515 -0.047440
    27 -0.032909 -1.480204 0.004940 -1.413632 0.000000 0.000002
    28 -0.027022 -1.076920 -0.020210 -1.481391 0.000000 0.000000
    29 -0.249534 -2.846964 -0.174213 -0.968633 -0.135815 -0.084786
    30 0.043235 -1.683941 0.096012 -1.469776 0.002823 -0.000167
    31 0.031729 -1.160830 0.058838 -1.436444 0.000642 0.008372
    32 -0.963866 -2.785145 -0.085350 -0.957802 -0.035925 -0.239075
    33 0.028479 -1.403067 0.006271 -1.158106 0.000000 0.000000
    34 0.021413 -0.957781 0.020046 -1.216858 0.000000 0.000000
    35 1.164475 -2.543940 -0.170330 -0.843989 -0.306425 0.042666
    36 0.024032 -1.129042 0.017807 -1.199105 0.000000 0.000001
    37 0.014898 -0.883989 -0.019848 -1.052873 0.000000 0.000000
    38 -0.586770 -1.264477 0.200161 -0.330638 -0.882973 -2.453541
    39 1.522835 0.058681 0.016848 -0.037192 -0.131247 0.649010
    40 1.117947 0.048424 -0.005766 -0.016374 -0.019146 0.763684
    41 -0.139399 -0.111698 0.014397 0.285382 -0.030687 1.580508
    42 -1.393470 8.839177 -0.239433 1.580804 -0.005023 -1.566847
  time 16
    0 0.000000 0.000000 -0.105472 0.006963 0.000000 -0.000022
    1 8.186462 0.777844 -6.784957 0.768969 -1.860600 -0.890560
    2 -0.071917 -8.498687 -0.104136 0.147673 0.249490 0.024910
    3 1.848843 -3.361148 0.929803 -0.012221 0.068719 2.924626
    4 0.082599 1.146638 0.000000 0.000000 0.000000 0.000000
    5 -0.932205 -3.542499 0.364983 3.141592 0.000000 -1.570796
    6 0.200941 -5.459696 0.000001 0.000001 0.000000 0.000000
    7 1.257180 8.762585 -0.153713 -1.570562 0.002683 -1.566807
    8 -0.488518 -2.755602 -0.228260 -1.381605 -0.178341 -0.211266
    9 0.039887 -1.479790 0.029854 -0.929887 -0.052253 0.069907
    10 0.028786 -1.075731 -0.023109 -1.481385 0.000000 0.000000
    11 0.250027 -2.820665 -0.238396 -1.068206 -0.168272 -0.396342
    12 -0.049759 -1.680544 0.100479 -1.479918 -0.104086 0.165110
    13 -0.034142 -1.148312 0.084782 -1.087281 0.000000 0.000000
    14 0.957766 -2.746780 -0.090302 -0.420442 -0.171158 0.010363
    15 -0.033420 -1.397129 -0.011257 -0.255519 0.124808 -0.122316
    16 -0.022360 -0.957436 0.018784 -1.043310 0.000000 0.000000
    17 -1.180681 -2.507217 -0.193859 -1.245142 -0.058709 -0.139782
    18 -0.024967 -1.123934 0.017597 -0.977967 0.000000 0.000001
    19 -0.020057 -0.890968 0.010090 -0.933434 0.000000 0.000000
    20 0.583510 -1.197277 0.185379 0.379009 -1.169118 -0.652939
    21 1.535927 0.010246 0.005009 0.393379 -0.245252 -1.052879
    22 1.100771 0.004527 -0.010679 -0.011449 0.011491 -0.607431
    23 0.120153 -0.050270 -0.054489 0.287569 3.110905 1.561085
    24 -0.649687 -8.739179 -10.493791 -1.766649 -5.321384 -1.065166
    25 0.096944 -8.450418 -0.009365 0.228648 -0.233694 0.292789
    26 0.447953 -2.798986 -0.200443 -1.072186 -0.126515 -0.047440
    27 -0.032909 -1.480204 0.004940 -1.413632 0.000000 0.000002
    28 -0.027022 -1.076920 -0.020210 -1.481391 0.000000 0.000000
    29 -0.249534 -2.846964 -0.174213 -0.968633 -0.135815 -0.084786
    30 0.043235 -1.683941 0.096012 -1.469776 0.002823 -0.000167
    31 0.031729 -1.160830 0.058838 -1.436444 0.000642 0.008372
    32 -0.963866 -2.785145 -0.085350 -0.957802 -0.035925 -0.239075
    33 0.028479 -1.403067 0.006271 -1.158106 0.000000 0.000000
    34 0.021413 -0.957781 0.020046 -1.216858 0.000000 0.000000
    35 1.164475 -2.543940 -0.170330 -0.843989 -0.306425 0.042666
    36 0.024032 -1.129042 0.017807 -1.199105 0.000000 0.000001
    37 0.014898 -0.883989 -0.019848 -1.052873 0.000000 0.000000
    38 -0.586770 -1.264477 0.200161 -0.330638 -0.882973 -2.453541
    39 1.522835 0.058681 0.016848 -0.037192 -0.131247 0.649010
    40 1.117947 0.048424 -0.005766 -0.016374 -0.019146 0.763684
    41 -0.139399 -0.111698 0.014397 0.285382 -0.030687 1.580508
    42 -1.393470 8.839177 -0.239433 1.580804 -0.005023 -1.566847
  time 17
    0 0.000000 0.000000 -0.109378 0.002792 0.000000 -0.000022
    1 8.186462 0.777844 -6.784957 0.768969 -1.860600 -0.890560
    2 -0.071917 -8.498687 -0.104136 0.147673 0.249490 0.024910
    3 1.848843 -3.361148 0.929803 -0.012221 0.068719 2.924626
    4 0.082599 1.146638 0.000000 0.000000 0.000000 0.000000
    5 -0.932205 -3.542499 0.364983 3.141592 0.000000 -1.570796
    6 0.200941 -5.459696 0.000001 0.000001 0.000000 0.000000
    7 1.257180 8.762585 -0.153713 -1.570562 0.002683 -1.566807
    8 -0.488518 -2.755602 -0.228260 -1.381605 -0.178341 -0.211266
    9 0.039887 -1.479790 0.029854 -0.929887 -0.052253 0.069907
    10 0.028786 -1.075731 -0.023109 -1.481385 0.000000 0.000000
    11 0.250027 -2.820665 -0.238396 -1.068206 -0.168272 -0.396342
    12 -0.049759 -1.680544 0.100479 -1.479918 -0.104086 0.165110
    13 -0.034142 -1.148312 0.084782 -1.087281 0.000000 0.000000
    14 0.957766 -2.746780 -0.090302 -0.420442 -0.171158 0.010363
    15 -0.033420 -1.397129 -0.011257 -0.255519 0.124808 -0.122316
    16 -0.022360 -0.957436 0.018784 -1.043310 0.000000 0.000000
    17 -1.180681 -2.507217 -0.193859 -1.245142 -0.058709 -0.139782
    18 -0.024967 -1.123934 0.017597 -0.977967 0.000000 0.000001
    19 -0.020057 -0.890968 0.010090 -0.933434 0.000000 0.000000
    20 0.583510 -1.197277 0.185379 0.379009 -1.169118 -0.652939
    21 1.535927 0.010246 0.005009 0.393379 -0.245252 -1.052879
    22 1.100771 0.004527 -0.010679 -0.011449 0.011491 -0.607431
    23 0.120153 -0.050270 -0.054489 0.287569 3.110905 1.561085
    24 -0.649687 -8.739179 -10.493791 -1.766649 -5.321384 -1.065166
    25 0.096944 -8.450418 -0.009365 0.228648 -0.233694 0.292789
    26 0.447953 -2.798986 -0.200443 -1.072186 -0.126515 -0.047440
    27 -0.032909 -1.480204 0.004940 -1.413632 0.000000 0.000002
    28 -0.027022 -1.076920 -0.020210 -1.481391 0.000000 0.000000
    29 -0.249534 -2.846964 -0.174213 -0.968633 -0.135815 -0.084786
    30 0.043235 -1.683941 0.096012 -1.469776 0.002823 -0.000167
    31 0.031729 -1.160830 0.058838 -1.436444 0.000642 0.008372
    32 -0.963866 -2.785145 -0.085350 -0.957802 -0.035925 -0.239075
    33 0.028479 -1.403067 0.006271 -1.158106 0.000000 0.000000
    34 0.021413 -0.957781 0.020046 -1.216858 0.000000 0.000000
    35 1.164475 -2.543940 -0.170330 -0.843989 -0.306425 0.042666
    36 0.024032 -1.129042 0.017807 -1.199105 0.000000 0.000001
    37 0.014898 -0.883989 -0.019848 -1.052873 0.000000 0.000000
    38 -0.586770 -1.264477 0.200161 -0.330638 -0.882973 -2.453541
    39 1.522835 0.058681 0.016848 -0.037192 -0.131247 0.649010
    40 1.117947 0.048424 -0.005766 -0.016374 -0.019146 0.763684
    41 -0.139399 -0.111698 0.014397 0.285382 -0.030687 1.580508
    42 -1.393470 8.839177 -0.239433 1.580804 -0.005023 -1.566847
  time 18
    0 0.000000 0.000000 -0.105472 -0.000839 0.000000 -0.000022
    1 8.186462 0.777844 -6.784957 0.768969 -1.860600 -0.890560
    2 -0.071917 -8.498687 -0.104136 0.147673 0.249490 0.024910
    3 1.848843 -3.361148 0.929803 -0.012221 0.068719 2.924626
    4 0.082599 1.146638 0.000000 0.000000 0.000000 0.000000
    5 -0.932205 -3.542499 0.364983 3.141592 0.000000 -1.570796
    6 0.200941 -5.459696 0.000001 0.000001 0.000000 0.000000
    7 1.257180 8.762585 -0.153713 -1.570562 0.002683 -1.566807
    8 -0.488518 -2.755602 -0.228260 -1.381605 -0.178341 -0.211266
    9 0.039887 -1.479790 0.029854 -0.929887 -0.052253 0.069907
    10 0.028786 -1.075731 -0.023109 -1.481385 0.000000 0.000000
    11 0.250027 -2.820665 -0.238396 -1.068206 -0.168272 -0.396342
    12 -0.049759 -1.680544 0.100479 -1.479918 -0.104086 0.165110
    13 -0.034142 -1.148312 0.084782 -1.087281 0.000000 0.000000
    14 0.957766 -2.746780 -0.090302 -0.420442 -0.171158 0.010363
    15 -0.033420 -1.397129 -0.011257 -0.255519 0.124808 -0.122316
    16 -0.022360 -0.957436 0.018784 -1.043310 0.000000 0.000000
    17 -1.180681 -2.507217 -0.193859 -1.245142 -0.058709 -0.139782
    18 -0.024967 -1.123934 0.017597 -0.977967 0.000000 0.000001
    19 -0.020057 -0.890968 0.010090 -0.933434 0.000000 0.000000
    20 0.583510 -1.197277 0.185379 0.379009 -1.169118 -0.652939
    21 1.535927 0.010246 0.005009 0.393379 -0.245252 -1.052879
    22 1.100771 0.004527 -0.010679 -0.011449 0.011491 -0.607431
    23 0.120153 -0.050270 -0.054489 0.287569 3.110905 1.561085
    24 -0.649687 -8.739179 -10.493791 -1.766649 -5.321384 -1.065166
    25 0.096944 -8.450418 -0.009365 0.228648 -0.233694 0.292789
    26 0.447953 -2.798986 -0.200443 -1.072186 -0.126515 -0.047440
    27 -0.032909 -1.480204 0.004940 -1.413632 0.000000 0.000002
    28 -0.027022 -1.076920 -0.020210 -1.481391 0.000000 0.000000
    29 -0.249534 -2.846964 -0.174213 -0.968633 -0.135815 -0.084786
    30 0.043235 -1.683941 0.096012 -1.469776 0.002823 -0.000167
    31 0.031729 -1.160830 0.058838 -1.436444 0.000642 0.008372
    32 -0.963866 -2.785145 -0.085350 -0.957802 -0.035925 -0.239075
    33 0.028479 -1.403067 0.006271 -1.158106 0.000000 0.000000
    34 0.021413 -0.957781 0.020046 -1.216858 0.000000 0.000000
    35 1.164475 -2.543940 -0.170330 -0.843989 -0.306425 0.042666
    36 0.024032 -1.129042 0.017807 -1.199105 0.000000 0.000001
    37 0.014898 -0.883989 -0.019848 -1.052873 0.000000 0.000000
    38 -0.586770 -1.264477 0.200161 -0.330638 -0.882973 -2.453541
    39 1.522835 0.058681 0.016848 -0.037192 -0.131247 0.649010
    40 1.117947 0.048424 -0.005766 -0.016374 -0.019146 0.763684
    41 -0.139399 -0.111698 0.014397 0.285382 -0.030687 1.580508
    42 -1.393470 8.839177 -0.239433 1.580804 -0.005023 -1.566847
  time 19
    0 0.000000 0.000000 -0.093753 -0.003404 0.000000 -0.000022
    1 8.186462 0.777844 -6.784957 0.768969 -1.860600 -0.890560
    2 -0.071917 -8.498687 -0.104136 0.147673 0.249490 0.024910
    3 1.848843 -3.361148 0.929803 -0.012221 0.068719 2.924626
    4 0.082599 1.146638 0.000000 0.000000 0.000000 0.000000
    5 -0.932205 -3.542499 0.364983 3.141592 0.000000 -1.570796
    6 0.200941 -5.459696 0.000001 0.000001 0.000000 0.000000
    7 1.257180 8.762585 -0.153713 -1.570562 0.002683 -1.566807
    8 -0.488518 -2.755602 -0.228260 -1.381605 -0.178341 -0.211266
    9 0.039887 -1.479790 0.029854 -0.929887 -0.052253 0.069907
    10 0.028786 -1.075731 -0.023109 -1.481385 0.000000 0.000000
    11 0.250027 -2.820665 -0.238396 -1.068206 -0.168272 -0.396342
    12 -0.049759 -1.680544 0.100479 -1.479918 -0.104086 0.165110
    13 -0.034142 -1.148312 0.084782 -1.087281 0.000000 0.000000
    14 0.957766 -2.746780 -0.090302 -0.420442 -0.171158 0.010363
    15 -0.033420 -1.397129 -0.011257 -0.255519 0.124808 -0.122316
    16 -0.022360 -0.957436 0.018784 -1.043310 0.000000 0.000000
    17 -1.180681 -2.507217 -0.193859 -1.245142 -0.058709 -0.139782
    18 -0.024967 -1.123934 0.017597 -0.977967 0.000000 0.000001
    19 -0.020057 -0.890968 0.010090 -0.933434 0.000000 0.000000
    20 0.583510 -1.197277 0.185379 0.379009 -1.169118 -0.652939
    21 1.535927 0.010246 0.005009 0.393379 -0.245252 -1.052879
    22 1.100771 0.004527 -0.010679 -0.011449 0.011491 -0.607431
    23 0.120153 -0.050270 -0.054489 0.287569 3.110905 1.561085
    24 -0.649687 -8.739179 -10.493791 -1.766649 -5.321384 -1.065166
    25 0.096944 -8.450418 -0.009365 0.228648 -0.233694 0.292789
    26 0.447953 -2.798986 -0.200443 -1.072186 -0.126515 -0.047440
    27 -0.032909 -1.480204 0.004940 -1.413632 0.000000 0.000002
    28 -0.027022 -1.076920 -0.020210 -1.481391 0.000000 0.000000
    29 -0.249534 -2.846964 -0.174213 -0.968633 -0.135815 -0.084786
    30 0.043235 -1.683941 0.096012 -1.469776 0.002823 -0.000167
    31 0.031729 -1.160830 0.058838 -1.436444 0.000642 0.008372
    32 -0.963866 -2.785145 -0.085350 -0.957802 -0.035925 -0.239075
    33 0.028479 -1.403067 0.006271 -1.158106 0.000000 0.000000
    34 0.021413 -0.957781 0.020046 -1.216858 0.000000 0.000000
    35 1.164475 -2.543940 -0.170330 -0.843989 -0.306425 0.042666
    36 0.024032 -1.129042 0.017807 -1.199105 0.000000 0.000001
    37 0.014898 -0.883989 -0.019848 -1.052873 0.000000 0.000000
    38 -0.586770 -1.264477 0.200161 -0.330638 -0.882973 -2.453541
    39 1.522835 0.058681 0.016848 -0.037192 -0.131247 0.649010
    40 1.117947 0.048424 -0.005766 -0.016374 -0.019146 0.763684
    41 -0.139399 -0.111698 0.014397 0.285382 -0.030687 1.580508
    42 -1.393470 8.839177 -0.239433 1.580804 -0.005023 -1.566847
  time 20
    0 0.000000 0.000000 -0.074221 -0.004386 0.000000 -0.000022
    1 8.186462 0.777844 -6.784957 0.768969 -1.860600 -0.890560
    2 -0.071917 -8.498687 -0.104136 0.147673 0.249490 0.024910
    3 1.848843 -3.361148 0.929803 -0.012221 0.068719 2.924626
    4 0.082599 1.146638 0.000000 0.000000 0.000000 0.000000
    5 -0.932205 -3.542499 0.364983 3.141592 0.000000 -1.570796
    6 0.200941 -5.459696 0.000001 0.000001 0.000000 0.000000
    7 1.257180 8.762585 -0.153713 -1.570562 0.002683 -1.566807
    8 -0.488518 -2.755602 -0.228260 -1.381605 -0.178341 -0.211266
    9 0.039887 -1.479790 0.029854 -0.929887 -0.052253 0.069907
    10 0.028786 -1.075731 -0.023109 -1.481385 0.000000 0.000000
    11 0.250027 -2.820665 -0.238396 -1.068206 -0.168272 -0.396342
    12 -0.049759 -1.680544 0.100479 -1.479918 -0.104086 0.165110
    13 -0.034142 -1.148312 0.084782 -1.087281 0.000000 0.000000
    14 0.957766 -2.746780 -0.090302 -0.420442 -0.171158 0.010363
    15 -0.033420 -1.397129 -0.011257 -0.255519 0.124808 -0.122316
    16 -0.022360 -0.957436 0.018784 -1.043310 0.000000 0.000000
    17 -1.180681 -2.507217 -0.193859 -1.245142 -0.058709 -0.139782
    18 -0.024967 -1.123934 0.017597 -0.977967 0.000000 0.000001
    19 -0.020057 -0.890968 0.010090 -0.933434 0.000000 0.000000
    20 0.583510 -1.197277 0.185379 0.379009 -1.169118 -0.652939
    21 1.535927 0.010246 0.005009 0.393379 -0.245252 -1.052879
    22 1.100771 0.004527 -0.010679 -0.011449 0.011491 -0.607431
    23 0.120153 -0.050270 -0.054489 0.287569 3.110905 1.561085
    24 -0.649687 -8.739179 -10.493791 -1.766649 -5.321384 -1.065166
    25 0.096944 -8.450418 -0.009365 0.228648 -0.233694 0.292789
    26 0.447953 -2.798986 -0.200443 -1.072186 -0.126515 -0.047440
    27 -0.032909 -1.480204 0.004940 -1.413632 0.000000 0.000002
    28 -0.027022 -1.076920 -0.020210 -1.481391 0.000000 0.000000
    29 -0.249534 -2.846964 -0.174213 -0.968633 -0.135815 -0.084786
    30 0.043235 -1.683941 0.096012 -1.469776 0.002823 -0.000167
    31 0.031729 -1.160830 0.058838 -1.436444 0.000642 0.008372
    32 -0.963866 -2.785145 -0.085350 -0.957802 -0.035925 -0.239075
    33 0.028479 -1.403067 0.006271 -1.158106 0.000000 0.000000
    34 0.021413 -0.957781 0.020046 -1.216858 0.000000 0.000000
    35 1.164475 -2.543940 -0.170330 -0.843989 -0.306425 0.042666
    36 0.024032 -1.129042 0.017807 -1.199105 0.000000 0.000001
    37 0.014898 -0.883989 -0.019848 -1.052873 0.000000 0.000000
    38 -0.586770 -1.264477 0.200161 -0.330638 -0.882973 -2.453541
    39 1.522835 0.058681 0.016848 -0.037192 -0.131247 0.649010
    40 1.117947 0.048424 -0.005766 -0.016374 -0.019146 0.763684
    41 -0.139399 -0.111698 0.014397 0.285382 -0.030687 1.580508
    42 -1.393470 8.839177 -0.239433 1.580804 -0.005023 -1.566847
  time 21
    0 0.000000 0.000000 -0.054689 -0.003931 0.000000 -0.000022
    1 8.186462 0.777844 -6.784957 0.768969 -1.860600 -0.890560
    2 -0.071917 -8.498687 -0.104136 0.147673 0.249490 0.024910
    3 1.848843 -3.361148 0.929803 -0.012221 0.068719 2.924626
    4 0.082599 1.146638 0.000000 0.000000 0.000000 0.000000
    5 -0.932205 -3.542499 0.364983 3.141592 0.000000 -1.570796
    6 0.200941 -5.459696 0.000001 0.000001 0.000000 0.000000
    7 1.257180 8.762585 -0.153713 -1.570562 0.002683 -1.566807
    8 -0.488518 -2.755602 -0.228260 -1.381605 -0.178341 -0.211266
    9 0.039887 -1.479790 0.029854 -0.929887 -0.052253 0.069907
    10 0.028786 -1.075731 -0.023109 -1.481385 0.000000 0.000000
    11 0.250027 -2.820665 -0.238396 -1.068206 -0.168272 -0.396342
    12 -0.049759 -1.680544 0.100479 -1.479918 -0.104086 0.165110
    13 -0.034142 -1.148312 0.084782 -1.087281 0.000000 0.000000
    14 0.957766 -2.746780 -0.090302 -0.420442 -0.171158 0.010363
    15 -0.033420 -1.397129 -0.011257 -0.255519 0.124808 -0.122316
    16 -0.022360 -0.957436 0.018784 -1.043310 0.000000 0.000000
    17 -1.180681 -2.507217 -0.193859 -1.245142 -0.058709 -0.139782
    18 -0.024967 -1.123934 0.017597 -0.977967 0.000000 0.000001
    19 -0.020057 -0.890968 0.010090 -0.933434 0.000000 0.000000
    20 0.583510 -1.197277 0.185379 0.379021 -1.169118 -0.652939
    21 1.535927 0.010246 0.005009 0.393379 -0.245252 -1.052879
    22 1.100771 0.004527 -0.010679 -0.011449 0.011491 -0.607431
    23 0.120153 -0.050270 -0.054489 0.287569 3.110905 1.561085
    24 -0.649687 -8.739179 -10.493791 -1.766649 -5.321384 -1.065166
    25 0.096944 -8.450418 -0.009365 0.228648 -0.233694 0.292789
    26 0.447953 -2.798986 -0.200443 -1.072186 -0.126515 -0.047440
    27 -0.032909 -1.480204 0.004940 -1.413632 0.000000 0.000002
    28 -0.027022 -1.076920 -0.020210 -1.481391 0.000000 0.000000
    29 -0.249534 -2.846964 -0.174213 -0.968633 -0.135815 -0.084786
    30 0.043235 -1.683941 0.096012 -1.469776 0.002823 -0.000167
    31 0.031729 -1.160830 0.058838 -1.436444 0.000642 0.008372
    32 -0.963866 -2.785145 -0.085350 -0.957802 -0.035925 -0.239075
    33 0.028479 -1.403067 0.006271 -1.158106 0.000000 0.000000
    34 0.021413 -0.957781 0.020046 -1.216858 0.000000 0.000000
    35 1.164475 -2.543940 -0.170330 -0.843989 -0.306425 0.042666
    36 0.024032 -1.129042 0.017807 -1.199105 0.000000 0.000001
    37 0.014898 -0.883989 -0.019848 -1.052873 0.000000 0.000000
    38 -0.586770 -1.264477 0.200161 -0.330638 -0.882973 -2.453541
    39 1.522835 0.058681 0.016848 -0.037192 -0.131247 0.649010
    40 1.117947 0.048424 -0.005766 -0.016374 -0.019146 0.763684
    41 -0.139399 -0.111698 0.014397 0.285382 -0.030687 1.580508
    42 -1.393470 8.839177 -0.239433 1.580804 -0.005023 -1.566847
  time 22
    0 0.000000 0.000000 -0.035157 -0.002840 0.000000 -0.000022
    1 8.186462 0.777844 -6.784957 0.768969 -1.860600 -0.890560
    2 -0.071917 -8.498687 -0.104136 0.147673 0.249490 0.024910
    3 1.848843 -3.361148 0.929803 -0.012221 0.068719 2.924626
    4 0.082599 1.146638 0.000000 0.000000 0.000000 0.000000
    5 -0.932205 -3.542499 0.364983 3.141592 0.000000 -1.570796
    6 0.200941 -5.459696 0.000001 0.000001 0.000000 0.000000
    7 1.257180 8.762585 -0.153713 -1.570562 0.002683 -1.566807
    8 -0.488518 -2.755602 -0.228260 -1.381605 -0.178341 -0.211266
    9 0.039887 -1.479790 0.029854 -0.929887 -0.052253 0.069907
    10 0.028786 -1.075731 -0.023109 -1.481385 0.000000 0.000000
    11 0.250027 -2.820665 -0.238396 -1.068206 -0.168272 -0.396342
    12 -0.049759 -1.680544 0.100479 -1.479918 -0.104086 0.165110
    13 -0.034142 -1.148312 0.084782 -1.087281 0.000000 0.000000
    14 0.957766 -2.746780 -0.090302 -0.420442 -0.171158 0.010363
    15 -0.033420 -1.397129 -0.011257 -0.255519 0.124808 -0.122316
    16 -0.022360 -0.957436 0.018784 -1.043310 0.000000 0.000000
    17 -1.180681 -2.507217 -0.193859 -1.245142 -0.058709 -0.139782
    18 -0.024967 -1.123934 0.017597 -0.977967 0.000000 0.000001
    19 -0.020057 -0.890968 0.010090 -0.933434 0.000000 0.000000
    20 0.583510 -1.197277 0.185379 0.379021 -1.169118 -0.652939
    21 1.535927 0.010246 0.005009 0.393379 -0.245252 -1.052879
    22 1.100771 0.004527 -0.010679 -0.011449 0.011491 -0.607431
    23 0.120153 -0.050270 -0.054489 0.287569 3.110905 1.561085
    24 -0.649687 -8.739179 -10.493791 -1.766649 -5.321384 -1.065166
    25 0.096944 -8.450418 -0.009365 0.228648 -0.233694 0.292789
    26 0.447953 -2.798986 -0.200443 -1.072186 -0.126515 -0.047440
    27 -0.032909 -1.480204 0.004940 -1.413632 0.000000 0.000002
    28 -0.027022 -1.076920 -0.020210 -1.481391 0.000000 0.000000
    29 -0.249534 -2.846964 -0.174213 -0.968633 -0.135815 -0.084786
    30 0.043235 -1.683941 0.096012 -1.469776 0.002823 -0.000167
    31 0.031729 -1.160830 0.058838 -1.436444 0.000642 0.008372
    32 -0.963866 -2.785145 -0.085350 -0.957802 -0.035925 -0.239075
    33 0.028479 -1.403067 0.006271 -1.158106 0.000000 0.000000
    34 0.021413 -0.957781 0.020046 -1.216858 0.000000 0.000000
    35 1.164475 -2.543940 -0.170330 -0.843989 -0.306425 0.042666
    36 0.024032 -1.129042 0.017807 -1.199105 0.000000 0.000001
    37 0.014898 -0.883989 -0.019848 -1.052873 0.000000 0.000000
    38 -0.586770 -1.264477 0.200161 -0.330638 -0.882973 -2.453541
    39 1.522835 0.058681 0.016848 -0.037192 -0.131247 0.649010
    40 1.117947 0.048424 -0.005766 -0.016374 -0.019146 0.763684
    41 -0.139399 -0.111698 0.014397 0.285382 -0.030687 1.580508
    42 -1.393470 8.839177 -0.239433 1.580804 -0.005023 -1.566847
  time 23
    0 0.000000 0.000000 -0.015625 -0.001534 0.000000 -0.000022
    1 8.186462 0.777844 -6.784957 0.768969 -1.860600 -0.890560
    2 -0.071917 -8.498687 -0.104136 0.147673 0.249490 0.024910
    3 1.848843 -3.361148 0.929803 -0.012221 0.068719 2.924626
    4 0.082599 1.146638 0.000000 0.000000 0.000000 0.000000
    5 -0.932205 -3.542499 0.364983 3.141592 0.000000 -1.570796
    6 0.200941 -5.459696 0.000001 0.000001 0.000000 0.000000
    7 1.257180 8.762585 -0.153713 -1.570562 0.002683 -1.566807
    8 -0.488518 -2.755602 -0.228260 -1.381605 -0.178341 -0.211266
    9 0.039887 -1.479790 0.029854 -0.929887 -0.052253 0.069907
    10 0.028786 -1.075731 -0.023109 -1.481385 0.000000 0.000000
    11 0.250027 -2.820665 -0.238396 -1.068206 -0.168272 -0.396342
    12 -0.049759 -1.680544 0.100479 -1.479918 -0.104086 0.165110
    13 -0.034142 -1.148312 0.084782 -1.087281 0.000000 0.000000
    14 0.957766 -2.746780 -0.090302 -0.420442 -0.171158 0.010363
    15 -0.033420 -1.397129 -0.011257 -0.255519 0.124808 -0.122316
    16 -0.022360 -0.957436 0.018784 -1.043310 0.000000 0.000000
    17 -1.180681 -2.507217 -0.193859 -1.245142 -0.058709 -0.139782
    18 -0.024967 -1.123934 0.017597 -0.977967 0.000000 0.000001
    19 -0.020057 -0.890968 0.010090 -0.933434 0.000000 0.000000
    20 0.583510 -1.197277 0.185379 0.379009 -1.169118 -0.652939
    21 1.535927 0.010246 0.005009 0.393379 -0.245252 -1.052879
    22 1.100771 0.004527 -0.010679 -0.011449 0.011491 -0.607431
    23 0.120153 -0.050270 -0.054489 0.287569 3.110905 1.561085
    24 -0.649687 -8.739179 -10.493791 -1.766649 -5.321384 -1.065166
    25 0.096944 -8.450418 -0.009365 0.228648 -0.233694 0.292789
    26 0.447953 -2.798986 -0.200443 -1.072186 -0.126515 -0.047440
    27 -0.032909 -1.480204 0.004940 -1.413632 0.000000 0.000002
    28 -0.027022 -1.076920 -0.020210 -1.481391 0.000000 0.000000
    29 -0.249534 -2.846964 -0.174213 -0.968633 -0.135815 -0.084786
    30 0.043235 -1.683941 0.096012 -1.469776 0.002823 -0.000167
    31 0.031729 -1.160830 0.058838 -1.436444 0.000642 0.008372
    32 -0.963866 -2.785145 -0.085350 -0.957802 -0.035925 -0.239075
    33 0.028479 -1.403067 0.006271 -1.158106 0.000000 0.000000
    34 0.021413 -0.957781 0.020046 -1.216858 0.000000 0.000000
    35 1.164475 -2.543940 -0.170330 -0.843989 -0.306425 0.042666
    36 0.024032 -1.129042 0.017807 -1.199105 0.000000 0.000001
    37 0.014898 -0.883989 -0.019848 -1.052873 0.000000 0.000000
    38 -0.586770 -1.264477 0.200161 -0.330638 -0.882973 -2.453541
    39 1.522835 0.058681 0.016848 -0.037192 -0.131247 0.649010
    40 1.117947 0.048424 -0.005766 -0.016374 -0.019146 0.763684
    41 -0.139399 -0.111698 0.014397 0.285382 -0.030687 1.580508
    42 -1.393470 8.839177 -0.239433 1.580804 -0.005023 -1.566847
  time 24
    0 0.000000 0.000000 -0.003906 -0.000455 0.000000 -0.000022
    1 8.186462 0.777844 -6.784957 0.768969 -1.860600 -0.890560
    2 -0.071917 -8.498687 -0.104136 0.147673 0.249490 0.024910
    3 1.848843 -3.361148 0.929803 -0.012221 0.068719 2.924626
    4 0.082599 1.146638 0.000000 0.000000 0.000000 0.000000
    5 -0.932205 -3.542499 0.364983 3.141592 0.000000 -1.570796
    6 0.200941 -5.459696 0.000001 0.000001 0.000000 0.000000
    7 1.257180 8.762585 -0.153713 -1.570562 0.002683 -1.566807
    8 -0.488518 -2.755602 -0.228260 -1.381605 -0.178341 -0.211266
    9 0.039887 -1.479790 0.029854 -0.929887 -0.052253 0.069907
    10 0.028786 -1.075731 -0.023109 -1.481385 0.000000 0.000000
    11 0.250027 -2.820665 -0.238396 -1.068206 -0.168272 -0.396342
    12 -0.049759 -1.680544 0.100479 -1.479918 -0.104086 0.165110
    13 -0.034142 -1.148312 0.084782 -1.087281 0.000000 0.000000
    14 0.957766 -2.746780 -0.090302 -0.420442 -0.171158 0.010363
    15 -0.033420 -1.397129 -0.011257 -0.255519 0.124808 -0.122316
    16 -0.022360 -0.957436 0.018784 -1.043310 0.000000 0.000000
    17 -1.180681 -2.507217 -0.193859 -1.245142 -0.058709 -0.139782
    18 -0.024967 -1.123934 0.017597 -0.977967 0.000000 0.000001
    19 -0.020057 -0.890968 0.010090 -0.933434 0.000000 0.000000
    20 0.583510 -1.197277 0.185379 0.379009 -1.169118 -0.652939
    21 1.535927 0.010246 0.005009 0.393379 -0.245252 -1.052879
    22 1.100771 0.004527 -0.010679 -0.011449 0.011491 -0.607431
    23 0.120153 -0.050270 -0.054489 0.287569 3.110905 1.561085
    24 -0.649687 -8.739179 -10.493791 -1.766649 -5.321384 -1.065166
    25 0.096944 -8.450418 -0.009365 0.228648 -0.233694 0.292789
    26 0.447953 -2.798986 -0.200443 -1.072186 -0.126515 -0.047440
    27 -0.032909 -1.480204 0.004940 -1.413632 0.000000 0.000002
    28 -0.027022 -1.076920 -0.020210 -1.481391 0.000000 0.000000
    29 -0.249534 -2.846964 -0.174213 -0.968633 -0.135815 -0.084786
    30 0.043235 -1.683941 0.096012 -1.469776 0.002823 -0.000167
    31 0.031729 -1.160830 0.058838 -1.436444 0.000642 0.008372
    32 -0.963866 -2.785145 -0.085350 -0.957802 -0.035925 -0.239075
    33 0.028479 -1.403067 0.006271 -1.158106 0.000000 0.000000
    34 0.021413 -0.957781 0.020046 -1.216858 0.000000 0.000000
    35 1.164475 -2.543940 -0.170330 -0.843989 -0.306425 0.042666
    36 0.024032 -1.129042 0.017807 -1.199105 0.000000 0.000001
    37 0.014898 -0.883989 -0.019848 -1.052873 0.000000 0.000000
    38 -0.586770 -1.264477 0.200161 -0.330638 -0.882973 -2.453541
    39 1.522835 0.058681 0.016848 -0.037192 -0.131247 0.649010
    40 1.117947 0.048424 -0.005766 -0.016374 -0.019146 0.763684
    41 -0.139399 -0.111698 0.014397 0.285382 -0.030687 1.580508
    42 -1.393470 8.839177 -0.239433 1.580804 -0.005023 -1.566847
  time 25
    0 0.000000 0.000000 0.000000 0.000000 0.000000 -0.000022
    1 8.186462 0.777844 -6.784957 0.768969 -1.860600 -0.890560
    2 -0.071917 -8.498687 -0.104136 0.147673 0.249490 0.024910
    3 1.848843 -3.361148 0.929803 -0.012221 0.068719 2.924626
    4 0.082599 1.146638 0.000000 0.000000 0.000000 0.000000
    5 -0.932205 -3.542499 0.364983 3.141592 0.000000 -1.570796
    6 0.200941 -5.459696 0.000001 0.000001 0.000000 0.000000
    7 1.257180 8.762585 -0.153713 -1.570562 0.002683 -1.566807
    8 -0.488518 -2.755602 -0.228260 -1.381605 -0.178341 -0.211266
    9 0.039887 -1.479790 0.029854 -0.929887 -0.052253 0.069907
    10 0.028786 -1.075731 -0.023109 -1.481385 0.000000 0.000000
    11 0.250027 -2.820665 -0.238396 -1.068206 -0.168272 -0.396342
    12 -0.049759 -1.680544 0.100479 -1.479918 -0.104086 0.165110
    13 -0.034142 -1.148312 0.084782 -1.087281 0.000000 0.000000
    14 0.957766 -2.746780 -0.090302 -0.420442 -0.171158 0.010363
    15 -0.033420 -1.397129 -0.011257 -0.255519 0.124808 -0.122316
    16 -0.022360 -0.957436 0.018784 -1.043310 0.000000 0.000000
    17 -1.180681 -2.507217 -0.193859 -1.245142 -0.058709 -0.139782
    18 -0.024967 -1.123934 0.017597 -0.977967 0.000000 0.000001
    19 -0.020057 -0.890968 0.010090 -0.933434 0.000000 0.000000
    20 0.583510 -1.197277 0.185379 0.379009 -1.169118 -0.652939
    21 1.535927 0.010246 0.005009 0.393379 -0.245252 -1.052879
    22 1.100771 0.004527 -0.010679 -0.011449 0.011491 -0.607431
    23 0.120153 -0.050270 -0.054489 0.287569 3.110905 1.561085
    24 -0.649687 -8.739179 -10.493791 -1.766649 -5.321384 -1.065166
    25 0.096944 -8.450418 -0.009365 0.228648 -0.233694 0.292789
    26 0.447953 -2.798986 -0.200443 -1.072186 -0.126515 -0.047440
    27 -0.032909 -1.480204 0.004940 -1.413632 0.000000 0.000002
    28 -0.027022 -1.076920 -0.020210 -1.481391 0.000000 0.000000
    29 -0.249534 -2.846964 -0.174213 -0.968633 -0.135815 -0.084786
    30 0.043235 -1.683941 0.096012 -1.469776 0.002823 -0.000167
    31 0.031729 -1.160830 0.058838 -1.436444 0.000642 0.008372
    32 -0.963866 -2.785145 -0.085350 -0.957802 -0.035925 -0.239075
    33 0.028479 -1.403067 0.006271 -1.158106 0.000000 0.000000
    34 0.021413 -0.957781 0.020046 -1.216858 0.000000 0.000000
    35 1.164475 -2.543940 -0.170330 -0.843989 -0.306425 0.042666
    36 0.024032 -1.129042 0.017807 -1.199105 0.000000 0.000001
    37 0.014898 -0.883989 -0.019848 -1.052873 0.000000 0.000000
    38 -0.586770 -1.264477 0.200161 -0.330638 -0.882973 -2.453541
    39 1.522835 0.058681 0.016848 -0.037192 -0.131247 0.649010
    40 1.117947 0.048424 -0.005766 -0.016374 -0.019146 0.763684
    41 -0.139399 -0.111698 0.014397 0.285382 -0.030687 1.580508
    42 -1.393470 8.839177 -0.239433 1.580804 -0.005023 -1.566847
end
