version 1
nodes
  0 "Bone01" -1
  1 "Bone_Lefthand" 0
  2 "Bone_XM8" 1
  3 "Bone_Magazine_Clip" 2
  4 "Bone_Magazine" 2
  5 "Bone_Bullet_case" 2
  6 "Bone_ReloadB" 2
  7 "Bone_ReloadA" 6
  8 "Bone_SharpenShooter" 2
  9 "Bone_Carbine" 2
  10 "Bone_Chongyol" 2
  11 "Bone_Chongyol_Cover" 10
  12 "Bone_Clip" 2
  13 "Bone_Scope_Carbine" 2
  14 "Bone_Scope_Sharp" 2
  15 "bone_chongyoul_dummy" 2
  16 "Bone4" 1
  17 "Bone13" 16
  18 "Bone14" 17
  19 "Bone15" 18
  20 "Bone17" 16
  21 "Bone18" 20
  22 "Bone19" 21
  23 "Bone21" 16
  24 "Bone22" 23
  25 "Bone23" 24
  26 "Bone05" 16
  27 "Bone06" 26
  28 "Bone07" 27
  29 "Bone09" 16
  30 "Bone10" 29
  31 "Bone11" 30
  32 "Bone04" -1
  33 "Bone_Righthand" 32
  34 "Bone26" 33
  35 "Bone35" 34
  36 "Bone36" 35
  37 "Bone37" 36
  38 "Bone31" 34
  39 "Bone32" 38
  40 "Bone33" 39
  41 "Bone39" 34
  42 "Bone40" 41
  43 "Bone41" 42
  44 "Bone43" 34
  45 "Bone44" 44
  46 "Bone45" 45
  47 "Bone27" 34
  48 "Bone28" 47
  49 "Bone29" 48
end
skeleton
  time 0
    0 8.485879 2.701967 -7.793945 -0.489280 -1.185029 0.160696
    1 -0.021280 -8.563255 -0.000751 0.458206 -0.268597 -0.188363
    2 0.792406 -2.905200 0.835872 2.680096 -1.494964 0.470879
    3 -0.028195 2.698898 -0.230784 0.000000 0.000000 0.000000
    4 -0.000001 4.191838 -0.843241 0.000000 0.000000 0.000000
    5 0.195636 3.691723 2.013436 0.000000 0.000000 0.000000
    6 0.000001 4.251491 3.144327 0.000000 0.000000 0.000000
    7 0.000000 1.957418 -0.226470 0.000000 0.000000 0.000000
    8 -0.000278 18.790774 1.916064 0.000000 0.000000 0.000000
    9 -4.199346 -25.533918 -1.764880 0.000000 0.000000 0.000000
    10 0.000001 11.449860 1.851792 0.000000 0.000000 0.000000
    11 0.000000 1.934806 -0.630419 0.000000 0.000000 0.000000
    12 0.000000 1.253695 0.634938 0.000000 0.000000 0.000000
    13 0.044885 0.941603 4.711482 0.000000 0.000000 0.000000
    14 0.027106 0.819939 4.351317 0.000000 0.000000 0.000000
    15 0.000001 9.949661 2.586495 0.000000 0.000000 0.000000
    16 -0.003480 -0.404828 0.000000 -0.000001 0.000000 0.000000
    17 -0.519309 -2.501154 -0.278957 -0.879568 -0.036235 -0.324918
    18 -0.010599 -1.208185 0.000000 -1.185576 0.000000 0.000000
    19 0.000000 -0.763066 0.000000 -0.741497 0.000000 0.000000
    20 0.105981 -2.607134 -0.278957 -0.872556 -0.035899 -0.258089
    21 0.000000 -1.250579 0.000000 -0.794537 0.000000 0.000000
    22 0.000000 -0.932635 0.000000 -1.567302 0.000000 0.000000
    23 0.763065 -2.490556 -0.278958 -0.313873 0.040172 0.012324
    24 -0.012322 -1.280917 0.000000 -0.399621 0.000000 0.000000
    25 -0.001696 -0.738089 0.129481 -0.638014 0.000000 0.000000
    26 0.354567 0.016267 0.318133 0.308709 -0.503867 -0.874878
    27 1.887165 0.012878 0.000000 -0.095972 -0.113060 -1.028586
    28 1.001874 -0.000270 0.000000 0.000000 0.000000 -0.250165
    29 -1.123358 -2.195093 -0.278957 -1.061907 0.026409 -0.326972
    30 0.010772 -0.963791 0.000001 -0.810998 0.000000 0.000000
    31 -0.010412 -0.631916 0.000000 -0.691889 0.000000 0.000000
    32 -0.302231 -12.299910 -11.208407 -0.783104 0.360435 0.567565
    33 0.089928 -8.543165 0.000002 0.733261 -0.690805 -0.014742
    34 0.000000 -0.359714 0.000001 0.000000 0.000000 0.000000
    35 -0.170480 -2.636148 -0.277655 -1.043745 -0.052707 0.090280
    36 0.010599 -1.261177 0.000001 -0.473462 0.000000 0.000000
    37 0.000000 -0.943233 -0.000001 -0.944945 0.000000 0.000000
    38 -0.827563 -2.508972 -0.277656 -0.652127 -0.046328 0.035347
    39 0.000000 -1.292972 -0.000001 -0.708426 0.000000 0.000000
    40 -0.000002 -0.752465 0.000000 -0.777556 -0.248777 0.191914
    41 0.444212 -2.561962 -0.277655 -1.341904 0.037900 0.168005
    42 0.021023 -1.208187 0.000001 -0.304120 0.000000 0.000000
    43 0.010598 -0.741867 -0.000001 -0.721161 0.000000 0.000000
    44 1.047445 -2.222822 -0.277654 -1.356438 -0.069503 -0.040766
    45 -0.000001 -0.996223 -0.000001 -1.199027 0.000000 0.000000
    46 -0.000001 -0.614691 0.000000 -1.031474 0.000000 0.000000
    47 -0.308256 -0.007814 0.307165 -0.233453 -0.510801 -2.425966
    48 1.978377 0.019544 0.000000 0.058975 -0.047770 0.211665
    49 0.980611 0.058420 -0.012629 0.225287 0.010654 -0.002869
  time 1
    0 8.485879 2.701967 -7.793945 -0.489280 -1.185029 0.160696
    1 -0.021280 -8.563255 -0.000751 0.458206 -0.268597 -0.188363
    2 0.792406 -2.905200 0.835872 2.680096 -1.494964 0.470879
    3 -0.028195 2.698898 -0.230784 0.000000 0.000000 0.000000
    4 -0.000001 4.191838 -0.843241 0.000000 0.000000 0.000000
    5 0.195636 3.691723 2.013436 0.000000 0.000000 0.000000
    6 0.000001 4.251491 3.144327 0.000000 0.000000 0.000000
    7 0.000000 1.957418 -0.226470 0.000000 0.000000 0.000000
    8 -0.000278 18.790774 1.916064 0.000000 0.000000 0.000000
    9 -4.199346 -25.533918 -1.764880 0.000000 0.000000 0.000000
    10 0.000001 11.449860 1.851792 0.000000 0.000000 0.000000
    11 0.000000 1.934806 -0.630419 0.000000 0.000000 0.000000
    12 0.000000 1.253695 0.634938 0.000000 0.000000 0.000000
    13 0.044885 0.941603 4.711482 0.000000 0.000000 0.000000
    14 0.027106 0.819939 4.351317 0.000000 0.000000 0.000000
    15 0.000001 9.949661 2.586495 0.000000 0.000000 0.000000
    16 -0.003480 -0.404828 0.000000 -0.000001 0.000000 0.000000
    17 -0.519309 -2.501154 -0.278957 -0.879568 -0.036235 -0.324918
    18 -0.010599 -1.208185 0.000000 -1.185576 0.000000 0.000000
    19 0.000000 -0.763066 0.000000 -0.741497 0.000000 0.000000
    20 0.105981 -2.607134 -0.278957 -0.872556 -0.035899 -0.258089
    21 0.000000 -1.250579 0.000000 -0.794537 0.000000 0.000000
    22 0.000000 -0.932635 0.000000 -1.567302 0.000000 0.000000
    23 0.763065 -2.490556 -0.278958 -0.313873 0.040172 0.012324
    24 -0.012322 -1.280917 0.000000 -0.399621 0.000000 0.000000
    25 -0.001696 -0.738089 0.129481 -0.638014 0.000000 0.000000
    26 0.354567 0.016267 0.318133 0.308709 -0.503867 -0.874878
    27 1.887165 0.012878 0.000000 -0.095972 -0.113060 -1.028586
    28 1.001874 -0.000270 0.000000 0.000000 0.000000 -0.250165
    29 -1.123358 -2.195093 -0.278957 -1.061907 0.026409 -0.326972
    30 0.010772 -0.963791 0.000001 -0.810998 0.000000 0.000000
    31 -0.010412 -0.631916 0.000000 -0.691889 0.000000 0.000000
    32 -0.302231 -12.299910 -11.208407 -0.783104 0.360435 0.567565
    33 0.089928 -8.543165 0.000002 0.733261 -0.690805 -0.014742
    34 0.000000 -0.359714 0.000001 0.000000 0.000000 0.000000
    35 -0.170480 -2.636148 -0.277655 -1.043745 -0.052707 0.090280
    36 0.010599 -1.261177 0.000001 -0.473462 0.000000 0.000000
    37 0.000000 -0.943233 -0.000001 -0.944945 0.000000 0.000000
    38 -0.827563 -2.508972 -0.277656 -0.652127 -0.046328 0.035347
    39 0.000000 -1.292972 -0.000001 -0.708426 0.000000 0.000000
    40 -0.000002 -0.752465 0.000000 -0.777556 -0.248777 0.191914
    41 0.444212 -2.561962 -0.277655 -1.341904 0.037900 0.168005
    42 0.021023 -1.208187 0.000001 -0.304120 0.000000 0.000000
    43 0.010598 -0.741867 -0.000001 -0.721161 0.000000 0.000000
    44 1.047445 -2.222822 -0.277654 -1.356438 -0.069503 -0.040766
    45 -0.000001 -0.996223 -0.000001 -1.199027 0.000000 0.000000
    46 -0.000001 -0.614691 0.000000 -1.031474 0.000000 0.000000
    47 -0.308256 -0.007814 0.307165 -0.233453 -0.510801 -2.425966
    48 1.978377 0.019544 0.000000 0.058975 -0.047770 0.211665
    49 0.980611 0.058420 -0.012629 0.225287 0.010654 -0.002869
end
