version 1
nodes
  0 "Bone01" -1
  1 "Bone_Lefthand" 0
  2 "bone_handle01" 1
  3 "bone_trogger01" 2
  4 "bone_load01" 2
  5 "bone_R_blow01" 2
  6 "bone_R_blow02" 5
  7 "bone_R_blow03" 6
  8 "bone_L_blow01" 2
  9 "bone_L_blow02" 8
  10 "bone_L_blow03" 9
  11 "bone_megazine01" 2
  12 "bone_megazine02" 11
  13 "bone_megazine03" 2
  14 "Bone04" -1
  15 "Bone_Righthand" 14
  16 "Bone39" 15
  17 "Bone40" 16
  18 "Bone41" 17
  19 "Bone35" 15
  20 "Bone36" 19
  21 "Bone37" 20
  22 "Bone31" 15
  23 "Bone32" 22
  24 "Bone33" 23
  25 "Bone43" 15
  26 "Bone44" 25
  27 "Bone45" 26
  28 "Bone27" 15
  29 "Bone28" 28
  30 "Bone29" 29
  31 "Bone_Se_Hand-R" 15
  32 "Bone13" 1
  33 "Bone14" 32
  34 "Bone15" 33
  35 "Bone17" 1
  36 "Bone18" 35
  37 "Bone19" 36
  38 "Bone21" 1
  39 "Bone22" 38
  40 "Bone23" 39
  41 "Bone09" 1
  42 "Bone10" 41
  43 "Bone11" 42
  44 "Bone05" 1
  45 "Bone06" 44
  46 "Bone07" 45
  47 "Bone_Se_Hand-L" 1
end
skeleton
  time 0
    0 10.549371 -2.829804 -11.308932 4.178586 -0.770311 -4.800855
    1 -0.071918 -8.498731 -0.104137 0.317460 0.470595 -0.640832
    2 1.665510 -2.904478 0.631343 -0.234326 0.084943 -3.486601
    3 0.037088 1.836796 0.000000 0.000000 0.000000 0.679463
    4 -1.699721 2.222293 0.000421 0.000000 0.000000 -1.282538
    5 -5.655031 16.263659 1.047437 0.005898 -1.121418 -1.279905
    6 7.696722 0.021893 -0.405259 -0.001707 0.561568 -0.000383
    7 6.499035 0.037860 -0.093995 -1.570617 1.505568 -3.138681
    8 -5.655030 16.263657 -1.043029 3.135696 1.121416 -1.279904
    9 7.721393 -0.021960 -0.393362 0.001706 0.561568 0.000382
    10 6.490693 -0.037835 -0.107306 1.570613 1.505565 3.138681
    11 -0.489117 10.226307 1.194557 0.000000 0.000000 -1.282132
    12 1.189389 -0.918512 -1.194556 0.000000 0.000000 0.003685
    13 -2.647894 8.542626 -0.000005 0.000000 0.000000 -1.274576
    14 -0.726382 -15.457068 -14.470910 -1.156622 -5.590453 -0.110758
    15 0.096944 -8.450419 -0.009364 -0.005970 -0.540417 0.157854
    16 0.447952 -2.798982 -0.200442 -1.014489 0.150910 0.644051
    17 -0.032910 -1.480206 0.004936 -1.431586 0.000000 0.000002
    18 -0.027022 -1.076919 -0.020212 -0.473979 0.000000 0.000000
    19 -0.249534 -2.846962 -0.174215 -0.473080 0.210085 0.362128
    20 0.043235 -1.683939 0.096014 -1.793930 0.002823 -0.000167
    21 0.031729 -1.160831 0.058836 -0.335973 0.000642 0.008372
    22 -0.963866 -2.785142 -0.085346 -0.609796 0.267585 0.317863
    23 0.028479 -1.403068 0.006271 -1.150412 0.000000 0.000000
    24 0.021413 -0.957782 0.020047 -0.616019 0.000000 0.000000
    25 1.164474 -2.543938 -0.170328 -0.983966 0.070580 0.675853
    26 0.024032 -1.129043 0.017806 -1.337944 0.000000 0.000001
    27 0.014896 -0.883989 -0.019845 -0.672931 0.000000 0.000000
    28 -0.586770 -1.264475 0.200164 -0.186364 -1.053830 -3.148928
    29 1.522835 0.058681 0.016850 0.035029 0.111357 0.871431
    30 1.117948 0.048424 -0.005764 -0.015320 -0.019661 0.717991
    31 -0.057365 -0.119510 0.041742 0.574644 0.064105 1.500021
    32 -0.488517 -2.755600 -0.228261 -0.619222 -0.044186 -0.439117
    33 0.039888 -1.479789 0.029853 -2.158258 0.000000 0.000000
    34 0.028785 -1.075730 -0.023111 -0.647509 0.000000 0.000000
    35 0.250028 -2.820663 -0.238396 -0.535674 0.054413 -0.329163
    36 -0.049759 -1.680545 0.100480 -1.871489 0.000000 -0.000002
    37 -0.034141 -1.148312 0.084779 -1.387518 0.000000 0.000000
    38 0.957766 -2.746776 -0.090301 0.225143 -0.058359 -0.193630
    39 -0.033419 -1.397129 -0.011255 -0.184014 -0.032275 -0.008534
    40 -0.022361 -0.957434 0.018783 0.003845 0.000000 0.000000
    41 -1.180680 -2.507215 -0.193861 -0.379706 0.103261 -0.518998
    42 -0.024966 -1.123934 0.017594 -2.136747 0.000000 0.000001
    43 -0.020057 -0.890966 0.010091 -0.896554 0.000000 0.000000
    44 0.583510 -1.197274 0.185377 0.220453 -0.870283 -0.672925
    45 1.535926 0.010245 0.005008 -0.063786 0.310988 -1.032101
    46 1.100770 0.004526 -0.010676 -0.009999 0.012761 -0.488483
    47 0.006867 -0.065891 -0.085739 -2.852831 -0.015617 -1.424341
  time 1
    0 10.549371 -2.829804 -11.308932 4.178586 -0.770311 -4.800855
    1 -0.071918 -8.498731 -0.104137 0.317460 0.470595 -0.640832
    2 1.665510 -2.904478 0.631343 -0.234326 0.084943 -3.486601
    3 0.037088 1.836796 0.000000 0.000000 0.000000 0.679463
    4 -1.699721 2.222293 0.000421 0.000000 0.000000 -1.282538
    5 -5.655031 16.263659 1.047437 0.005898 -1.121418 -1.279905
    6 7.696722 0.021893 -0.405259 -0.001707 0.561568 -0.000383
    7 6.499035 0.037860 -0.093995 -1.570617 1.505568 -3.138681
    8 -5.655030 16.263657 -1.043029 3.135696 1.121416 -1.279904
    9 7.721393 -0.021960 -0.393362 0.001706 0.561568 0.000382
    10 6.490693 -0.037835 -0.107306 1.570613 1.505565 3.138681
    11 -0.489117 10.226307 1.194557 0.000000 0.000000 -1.282132
    12 1.189389 -0.918512 -1.194556 0.000000 0.000000 0.003685
    13 -2.647894 8.542626 -0.000005 0.000000 0.000000 -1.274576
    14 -0.726382 -15.457068 -14.470910 -1.156622 -5.590453 -0.110758
    15 0.096944 -8.450419 -0.009364 -0.005970 -0.540417 0.157854
    16 0.447952 -2.798982 -0.200442 -1.014489 0.150910 0.644051
    17 -0.032910 -1.480206 0.004936 -1.431586 0.000000 0.000002
    18 -0.027022 -1.076919 -0.020212 -0.473979 0.000000 0.000000
    19 -0.249534 -2.846962 -0.174215 -0.473080 0.210085 0.362128
    20 0.043235 -1.683939 0.096014 -1.793930 0.002823 -0.000167
    21 0.031729 -1.160831 0.058836 -0.335973 0.000642 0.008372
    22 -0.963866 -2.785142 -0.085346 -0.609796 0.267585 0.317863
    23 0.028479 -1.403068 0.006271 -1.150412 0.000000 0.000000
    24 0.021413 -0.957782 0.020047 -0.616019 0.000000 0.000000
    25 1.164474 -2.543938 -0.170328 -0.983966 0.070580 0.675853
    26 0.024032 -1.129043 0.017806 -1.337944 0.000000 0.000001
    27 0.014896 -0.883989 -0.019845 -0.672931 0.000000 0.000000
    28 -0.586770 -1.264475 0.200164 -0.186364 -1.053830 -3.148928
    29 1.522835 0.058681 0.016850 0.035029 0.111357 0.871431
    30 1.117948 0.048424 -0.005764 -0.015320 -0.019661 0.717991
    31 -0.057365 -0.119510 0.041742 0.574644 0.064105 1.500021
    32 -0.488517 -2.755600 -0.228261 -0.619222 -0.044186 -0.439117
    33 0.039888 -1.479789 0.029853 -2.158258 0.000000 0.000000
    34 0.028785 -1.075730 -0.023111 -0.647509 0.000000 0.000000
    35 0.250028 -2.820663 -0.238396 -0.535674 0.054413 -0.329163
    36 -0.049759 -1.680545 0.100480 -1.871489 0.000000 -0.000002
    37 -0.034141 -1.148312 0.084779 -1.387518 0.000000 0.000000
    38 0.957766 -2.746776 -0.090301 0.225143 -0.058359 -0.193630
    39 -0.033419 -1.397129 -0.011255 -0.184014 -0.032275 -0.008534
    40 -0.022361 -0.957434 0.018783 0.003845 0.000000 0.000000
    41 -1.180680 -2.507215 -0.193861 -0.379706 0.103261 -0.518998
    42 -0.024966 -1.123934 0.017594 -2.136747 0.000000 0.000001
    43 -0.020057 -0.890966 0.010091 -0.896554 0.000000 0.000000
    44 0.583510 -1.197274 0.185377 0.220453 -0.870283 -0.672925
    45 1.535926 0.010245 0.005008 -0.063786 0.310988 -1.032101
    46 1.100770 0.004526 -0.010676 -0.009999 0.012761 -0.488483
    47 0.006867 -0.065891 -0.085739 -2.852831 -0.015617 -1.424341
  time 2
    0 10.549371 -2.829804 -11.308932 4.178586 -0.770311 -4.800855
    1 -0.071918 -8.498731 -0.104137 0.317460 0.470595 -0.640832
    2 1.665510 -2.904478 0.631343 -0.234326 0.084943 -3.486601
    3 0.037088 1.836796 0.000000 0.000000 0.000000 0.679463
    4 -1.699721 2.222293 0.000421 0.000000 0.000000 -1.282538
    5 -5.655031 16.263659 1.047437 0.005898 -1.121418 -1.279905
    6 7.696722 0.021893 -0.405259 -0.001707 0.561568 -0.000383
    7 6.499035 0.037860 -0.093995 -1.570617 1.505568 -3.138681
    8 -5.655030 16.263657 -1.043029 3.135696 1.121416 -1.279904
    9 7.721393 -0.021960 -0.393362 0.001706 0.561568 0.000382
    10 6.490693 -0.037835 -0.107306 1.570613 1.505565 3.138681
    11 -0.489117 10.226307 1.194557 0.000000 0.000000 -1.282132
    12 1.189389 -0.918512 -1.194556 0.000000 0.000000 0.003685
    13 -2.647894 8.542626 -0.000005 0.000000 0.000000 -1.274576
    14 -0.726382 -15.457068 -14.470910 -1.156622 -5.590453 -0.110758
    15 0.096944 -8.450419 -0.009364 -0.005970 -0.540417 0.157854
    16 0.447952 -2.798982 -0.200442 -1.014489 0.150910 0.644051
    17 -0.032910 -1.480206 0.004936 -1.431586 0.000000 0.000002
    18 -0.027022 -1.076919 -0.020212 -0.473979 0.000000 0.000000
    19 -0.249534 -2.846962 -0.174215 -0.473080 0.210085 0.362128
    20 0.043235 -1.683939 0.096014 -1.793930 0.002823 -0.000167
    21 0.031729 -1.160831 0.058836 -0.335973 0.000642 0.008372
    22 -0.963866 -2.785142 -0.085346 -0.609796 0.267585 0.317863
    23 0.028479 -1.403068 0.006271 -1.150412 0.000000 0.000000
    24 0.021413 -0.957782 0.020047 -0.616019 0.000000 0.000000
    25 1.164474 -2.543938 -0.170328 -0.983966 0.070580 0.675853
    26 0.024032 -1.129043 0.017806 -1.337944 0.000000 0.000001
    27 0.014896 -0.883989 -0.019845 -0.672931 0.000000 0.000000
    28 -0.586770 -1.264475 0.200164 -0.186364 -1.053830 -3.148928
    29 1.522835 0.058681 0.016850 0.035029 0.111357 0.871431
    30 1.117948 0.048424 -0.005764 -0.015320 -0.019661 0.717991
    31 -0.057365 -0.119510 0.041742 0.574644 0.064105 1.500021
    32 -0.488517 -2.755600 -0.228261 -0.619222 -0.044186 -0.439117
    33 0.039888 -1.479789 0.029853 -2.158258 0.000000 0.000000
    34 0.028785 -1.075730 -0.023111 -0.647509 0.000000 0.000000
    35 0.250028 -2.820663 -0.238396 -0.535674 0.054413 -0.329163
    36 -0.049759 -1.680545 0.100480 -1.871489 0.000000 -0.000002
    37 -0.034141 -1.148312 0.084779 -1.387518 0.000000 0.000000
    38 0.957766 -2.746776 -0.090301 0.225143 -0.058359 -0.193630
    39 -0.033419 -1.397129 -0.011255 -0.184014 -0.032275 -0.008534
    40 -0.022361 -0.957434 0.018783 0.003845 0.000000 0.000000
    41 -1.180680 -2.507215 -0.193861 -0.379706 0.103261 -0.518998
    42 -0.024966 -1.123934 0.017594 -2.136747 0.000000 0.000001
    43 -0.020057 -0.890966 0.010091 -0.896554 0.000000 0.000000
    44 0.583510 -1.197274 0.185377 0.220453 -0.870283 -0.672925
    45 1.535926 0.010245 0.005008 -0.063786 0.310988 -1.032101
    46 1.100770 0.004526 -0.010676 -0.009999 0.012761 -0.488483
    47 0.006867 -0.065891 -0.085739 -2.852831 -0.015617 -1.424341
  time 3
    0 10.549371 -2.829804 -11.308932 4.178586 -0.770311 -4.800855
    1 -0.071918 -8.498731 -0.104137 0.317460 0.470595 -0.640832
    2 1.665510 -2.904478 0.631343 -0.234326 0.084943 -3.486601
    3 0.037088 1.836796 0.000000 0.000000 0.000000 0.679463
    4 -1.699721 2.222293 0.000421 0.000000 0.000000 -1.282538
    5 -5.655031 16.263659 1.047437 0.005898 -1.121418 -1.279905
    6 7.696722 0.021893 -0.405259 -0.001707 0.561568 -0.000383
    7 6.499035 0.037860 -0.093995 -1.570617 1.505568 -3.138681
    8 -5.655030 16.263657 -1.043029 3.135696 1.121416 -1.279904
    9 7.721393 -0.021960 -0.393362 0.001706 0.561568 0.000382
    10 6.490693 -0.037835 -0.107306 1.570613 1.505565 3.138681
    11 -0.489117 10.226307 1.194557 0.000000 0.000000 -1.282132
    12 1.189389 -0.918512 -1.194556 0.000000 0.000000 0.003685
    13 -2.647894 8.542626 -0.000005 0.000000 0.000000 -1.274576
    14 -0.726382 -15.457068 -14.470910 -1.156622 -5.590453 -0.110758
    15 0.096944 -8.450419 -0.009364 -0.005970 -0.540417 0.157854
    16 0.447952 -2.798982 -0.200442 -1.014489 0.150910 0.644051
    17 -0.032910 -1.480206 0.004936 -1.431586 0.000000 0.000002
    18 -0.027022 -1.076919 -0.020212 -0.473979 0.000000 0.000000
    19 -0.249534 -2.846962 -0.174215 -0.473080 0.210085 0.362128
    20 0.043235 -1.683939 0.096014 -1.793930 0.002823 -0.000167
    21 0.031729 -1.160831 0.058836 -0.335973 0.000642 0.008372
    22 -0.963866 -2.785142 -0.085346 -0.609796 0.267585 0.317863
    23 0.028479 -1.403068 0.006271 -1.150412 0.000000 0.000000
    24 0.021413 -0.957782 0.020047 -0.616019 0.000000 0.000000
    25 1.164474 -2.543938 -0.170328 -0.983966 0.070580 0.675853
    26 0.024032 -1.129043 0.017806 -1.337944 0.000000 0.000001
    27 0.014896 -0.883989 -0.019845 -0.672931 0.000000 0.000000
    28 -0.586770 -1.264475 0.200164 -0.186364 -1.053830 -3.148928
    29 1.522835 0.058681 0.016850 0.035029 0.111357 0.871431
    30 1.117948 0.048424 -0.005764 -0.015320 -0.019661 0.717991
    31 -0.057365 -0.119510 0.041742 0.574644 0.064105 1.500021
    32 -0.488517 -2.755600 -0.228261 -0.619222 -0.044186 -0.439117
    33 0.039888 -1.479789 0.029853 -2.158258 0.000000 0.000000
    34 0.028785 -1.075730 -0.023111 -0.647509 0.000000 0.000000
    35 0.250028 -2.820663 -0.238396 -0.535674 0.054413 -0.329163
    36 -0.049759 -1.680545 0.100480 -1.871489 0.000000 -0.000002
    37 -0.034141 -1.148312 0.084779 -1.387518 0.000000 0.000000
    38 0.957766 -2.746776 -0.090301 0.225143 -0.058359 -0.193630
    39 -0.033419 -1.397129 -0.011255 -0.184014 -0.032275 -0.008534
    40 -0.022361 -0.957434 0.018783 0.003845 0.000000 0.000000
    41 -1.180680 -2.507215 -0.193861 -0.379706 0.103261 -0.518998
    42 -0.024966 -1.123934 0.017594 -2.136747 0.000000 0.000001
    43 -0.020057 -0.890966 0.010091 -0.896554 0.000000 0.000000
    44 0.583510 -1.197274 0.185377 0.220453 -0.870283 -0.672925
    45 1.535926 0.010245 0.005008 -0.063786 0.310988 -1.032101
    46 1.100770 0.004526 -0.010676 -0.009999 0.012761 -0.488483
    47 0.006867 -0.065891 -0.085739 -2.852831 -0.015617 -1.424341
  time 4
    0 10.549371 -2.829804 -11.308932 4.178586 -0.770311 -4.800855
    1 -0.071918 -8.498731 -0.104137 0.317460 0.470595 -0.640832
    2 1.665510 -2.904478 0.631343 -0.234326 0.084943 -3.486601
    3 0.037088 1.836796 0.000000 0.000000 0.000000 0.679463
    4 -1.699721 2.222293 0.000421 0.000000 0.000000 -1.282538
    5 -5.655031 16.263659 1.047437 0.005898 -1.121418 -1.279905
    6 7.696722 0.021893 -0.405259 -0.001707 0.561568 -0.000383
    7 6.499035 0.037860 -0.093995 -1.570617 1.505568 -3.138681
    8 -5.655030 16.263657 -1.043029 3.135696 1.121416 -1.279904
    9 7.721393 -0.021960 -0.393362 0.001706 0.561568 0.000382
    10 6.490693 -0.037835 -0.107306 1.570613 1.505565 3.138681
    11 -0.489117 10.226307 1.194557 0.000000 0.000000 -1.282132
    12 1.189389 -0.918512 -1.194556 0.000000 0.000000 0.003685
    13 -2.647894 8.542626 -0.000005 0.000000 0.000000 -1.274576
    14 -0.726382 -15.457068 -14.470910 -1.156622 -5.590453 -0.110758
    15 0.096944 -8.450419 -0.009364 -0.005970 -0.540417 0.157854
    16 0.447952 -2.798982 -0.200442 -1.014489 0.150910 0.644051
    17 -0.032910 -1.480206 0.004936 -1.431586 0.000000 0.000002
    18 -0.027022 -1.076919 -0.020212 -0.473979 0.000000 0.000000
    19 -0.249534 -2.846962 -0.174215 -0.473080 0.210085 0.362128
    20 0.043235 -1.683939 0.096014 -1.793930 0.002823 -0.000167
    21 0.031729 -1.160831 0.058836 -0.335973 0.000642 0.008372
    22 -0.963866 -2.785142 -0.085346 -0.609796 0.267585 0.317863
    23 0.028479 -1.403068 0.006271 -1.150412 0.000000 0.000000
    24 0.021413 -0.957782 0.020047 -0.616019 0.000000 0.000000
    25 1.164474 -2.543938 -0.170328 -0.983966 0.070580 0.675853
    26 0.024032 -1.129043 0.017806 -1.337944 0.000000 0.000001
    27 0.014896 -0.883989 -0.019845 -0.672931 0.000000 0.000000
    28 -0.586770 -1.264475 0.200164 -0.186364 -1.053830 -3.148928
    29 1.522835 0.058681 0.016850 0.035029 0.111357 0.871431
    30 1.117948 0.048424 -0.005764 -0.015320 -0.019661 0.717991
    31 -0.057365 -0.119510 0.041742 0.574644 0.064105 1.500021
    32 -0.488517 -2.755600 -0.228261 -0.619222 -0.044186 -0.439117
    33 0.039888 -1.479789 0.029853 -2.158258 0.000000 0.000000
    34 0.028785 -1.075730 -0.023111 -0.647509 0.000000 0.000000
    35 0.250028 -2.820663 -0.238396 -0.535674 0.054413 -0.329163
    36 -0.049759 -1.680545 0.100480 -1.871489 0.000000 -0.000002
    37 -0.034141 -1.148312 0.084779 -1.387518 0.000000 0.000000
    38 0.957766 -2.746776 -0.090301 0.225143 -0.058359 -0.193630
    39 -0.033419 -1.397129 -0.011255 -0.184014 -0.032275 -0.008534
    40 -0.022361 -0.957434 0.018783 0.003845 0.000000 0.000000
    41 -1.180680 -2.507215 -0.193861 -0.379706 0.103261 -0.518998
    42 -0.024966 -1.123934 0.017594 -2.136747 0.000000 0.000001
    43 -0.020057 -0.890966 0.010091 -0.896554 0.000000 0.000000
    44 0.583510 -1.197274 0.185377 0.220453 -0.870283 -0.672925
    45 1.535926 0.010245 0.005008 -0.063786 0.310988 -1.032101
    46 1.100770 0.004526 -0.010676 -0.009999 0.012761 -0.488483
    47 0.006867 -0.065891 -0.085739 -2.852831 -0.015617 -1.424341
  time 5
    0 10.549371 -2.829804 -11.308932 4.178586 -0.770311 -4.800855
    1 -0.071918 -8.498731 -0.104137 0.317460 0.470595 -0.640832
    2 1.665510 -2.904478 0.631343 -0.234326 0.084943 -3.486601
    3 0.037088 1.836796 0.000000 0.000000 0.000000 0.679463
    4 -1.699721 2.222293 0.000421 0.000000 0.000000 -1.282538
    5 -5.655031 16.263659 1.047437 0.005898 -1.121418 -1.279905
    6 7.696722 0.021893 -0.405259 -0.001707 0.561568 -0.000383
    7 6.499035 0.037860 -0.093995 -1.570617 1.505568 -3.138681
    8 -5.655030 16.263657 -1.043029 3.135696 1.121416 -1.279904
    9 7.721393 -0.021960 -0.393362 0.001706 0.561568 0.000382
    10 6.490693 -0.037835 -0.107306 1.570613 1.505565 3.138681
    11 -0.489117 10.226307 1.194557 0.000000 0.000000 -1.282132
    12 1.189389 -0.918512 -1.194556 0.000000 0.000000 0.003685
    13 -2.647894 8.542626 -0.000005 0.000000 0.000000 -1.274576
    14 -0.726382 -15.457068 -14.470910 -1.156622 -5.590453 -0.110758
    15 0.096944 -8.450419 -0.009364 -0.005970 -0.540417 0.157854
    16 0.447952 -2.798982 -0.200442 -1.014489 0.150910 0.644051
    17 -0.032910 -1.480206 0.004936 -1.431586 0.000000 0.000002
    18 -0.027022 -1.076919 -0.020212 -0.473979 0.000000 0.000000
    19 -0.249534 -2.846962 -0.174215 -0.473080 0.210085 0.362128
    20 0.043235 -1.683939 0.096014 -1.793930 0.002823 -0.000167
    21 0.031729 -1.160831 0.058836 -0.335973 0.000642 0.008372
    22 -0.963866 -2.785142 -0.085346 -0.609796 0.267585 0.317863
    23 0.028479 -1.403068 0.006271 -1.150412 0.000000 0.000000
    24 0.021413 -0.957782 0.020047 -0.616019 0.000000 0.000000
    25 1.164474 -2.543938 -0.170328 -0.983966 0.070580 0.675853
    26 0.024032 -1.129043 0.017806 -1.337944 0.000000 0.000001
    27 0.014896 -0.883989 -0.019845 -0.672931 0.000000 0.000000
    28 -0.586770 -1.264475 0.200164 -0.186364 -1.053830 -3.148928
    29 1.522835 0.058681 0.016850 0.035029 0.111357 0.871431
    30 1.117948 0.048424 -0.005764 -0.015320 -0.019661 0.717991
    31 -0.057365 -0.119510 0.041742 0.574644 0.064105 1.500021
    32 -0.488517 -2.755600 -0.228261 -0.619222 -0.044186 -0.439117
    33 0.039888 -1.479789 0.029853 -2.158258 0.000000 0.000000
    34 0.028785 -1.075730 -0.023111 -0.647509 0.000000 0.000000
    35 0.250028 -2.820663 -0.238396 -0.535674 0.054413 -0.329163
    36 -0.049759 -1.680545 0.100480 -1.871489 0.000000 -0.000002
    37 -0.034141 -1.148312 0.084779 -1.387518 0.000000 0.000000
    38 0.957766 -2.746776 -0.090301 0.225143 -0.058359 -0.193630
    39 -0.033419 -1.397129 -0.011255 -0.184014 -0.032275 -0.008534
    40 -0.022361 -0.957434 0.018783 0.003845 0.000000 0.000000
    41 -1.180680 -2.507215 -0.193861 -0.379706 0.103261 -0.518998
    42 -0.024966 -1.123934 0.017594 -2.136747 0.000000 0.000001
    43 -0.020057 -0.890966 0.010091 -0.896554 0.000000 0.000000
    44 0.583510 -1.197274 0.185377 0.220453 -0.870283 -0.672925
    45 1.535926 0.010245 0.005008 -0.063786 0.310988 -1.032101
    46 1.100770 0.004526 -0.010676 -0.009999 0.012761 -0.488483
    47 0.006867 -0.065891 -0.085739 -2.852831 -0.015617 -1.424341
  time 6
    0 10.549371 -2.829804 -11.308932 4.178586 -0.770311 -4.800855
    1 -0.071918 -8.498731 -0.104137 0.317460 0.470595 -0.640832
    2 1.665510 -2.904478 0.631343 -0.234326 0.084943 -3.486601
    3 0.037088 1.836796 0.000000 0.000000 0.000000 0.679463
    4 -1.699721 2.222293 0.000421 0.000000 0.000000 -1.282538
    5 -5.655031 16.263659 1.047437 0.005898 -1.121418 -1.279905
    6 7.696722 0.021893 -0.405259 -0.001707 0.561568 -0.000383
    7 6.499035 0.037860 -0.093995 -1.570617 1.505568 -3.138681
    8 -5.655030 16.263657 -1.043029 3.135696 1.121416 -1.279904
    9 7.721393 -0.021960 -0.393362 0.001706 0.561568 0.000382
    10 6.490693 -0.037835 -0.107306 1.570613 1.505565 3.138681
    11 -0.489117 10.226307 1.194557 0.000000 0.000000 -1.282132
    12 1.189389 -0.918512 -1.194556 0.000000 0.000000 0.003685
    13 -2.647894 8.542626 -0.000005 0.000000 0.000000 -1.274576
    14 -0.726382 -15.457068 -14.470910 -1.156622 -5.590453 -0.110758
    15 0.096944 -8.450419 -0.009364 -0.005970 -0.540417 0.157854
    16 0.447952 -2.798982 -0.200442 -1.014489 0.150910 0.644051
    17 -0.032910 -1.480206 0.004936 -1.431586 0.000000 0.000002
    18 -0.027022 -1.076919 -0.020212 -0.473979 0.000000 0.000000
    19 -0.249534 -2.846962 -0.174215 -0.473080 0.210085 0.362128
    20 0.043235 -1.683939 0.096014 -1.793930 0.002823 -0.000167
    21 0.031729 -1.160831 0.058836 -0.335973 0.000642 0.008372
    22 -0.963866 -2.785142 -0.085346 -0.609796 0.267585 0.317863
    23 0.028479 -1.403068 0.006271 -1.150412 0.000000 0.000000
    24 0.021413 -0.957782 0.020047 -0.616019 0.000000 0.000000
    25 1.164474 -2.543938 -0.170328 -0.983966 0.070580 0.675853
    26 0.024032 -1.129043 0.017806 -1.337944 0.000000 0.000001
    27 0.014896 -0.883989 -0.019845 -0.672931 0.000000 0.000000
    28 -0.586770 -1.264475 0.200164 -0.186364 -1.053830 -3.148928
    29 1.522835 0.058681 0.016850 0.035029 0.111357 0.871431
    30 1.117948 0.048424 -0.005764 -0.015320 -0.019661 0.717991
    31 -0.057365 -0.119510 0.041742 0.574644 0.064105 1.500021
    32 -0.488517 -2.755600 -0.228261 -0.619222 -0.044186 -0.439117
    33 0.039888 -1.479789 0.029853 -2.158258 0.000000 0.000000
    34 0.028785 -1.075730 -0.023111 -0.647509 0.000000 0.000000
    35 0.250028 -2.820663 -0.238396 -0.535674 0.054413 -0.329163
    36 -0.049759 -1.680545 0.100480 -1.871489 0.000000 -0.000002
    37 -0.034141 -1.148312 0.084779 -1.387518 0.000000 0.000000
    38 0.957766 -2.746776 -0.090301 0.225143 -0.058359 -0.193630
    39 -0.033419 -1.397129 -0.011255 -0.184014 -0.032275 -0.008534
    40 -0.022361 -0.957434 0.018783 0.003845 0.000000 0.000000
    41 -1.180680 -2.507215 -0.193861 -0.379706 0.103261 -0.518998
    42 -0.024966 -1.123934 0.017594 -2.136747 0.000000 0.000001
    43 -0.020057 -0.890966 0.010091 -0.896554 0.000000 0.000000
    44 0.583510 -1.197274 0.185377 0.220453 -0.870283 -0.672925
    45 1.535926 0.010245 0.005008 -0.063786 0.310988 -1.032101
    46 1.100770 0.004526 -0.010676 -0.009999 0.012761 -0.488483
    47 0.006867 -0.065891 -0.085739 -2.852831 -0.015617 -1.424341
  time 7
    0 10.549371 -2.829804 -11.308932 4.178586 -0.770311 -4.800855
    1 -0.071918 -8.498731 -0.104137 0.317460 0.470595 -0.640832
    2 1.665510 -2.904478 0.631343 -0.234326 0.084943 -3.486601
    3 0.037088 1.836796 0.000000 0.000000 0.000000 0.679463
    4 -1.699721 2.222293 0.000421 0.000000 0.000000 -1.282538
    5 -5.655031 16.263659 1.047437 0.005898 -1.121418 -1.279905
    6 7.696722 0.021893 -0.405259 -0.001707 0.561568 -0.000383
    7 6.499035 0.037860 -0.093995 -1.570617 1.505568 -3.138681
    8 -5.655030 16.263657 -1.043029 3.135696 1.121416 -1.279904
    9 7.721393 -0.021960 -0.393362 0.001706 0.561568 0.000382
    10 6.490693 -0.037835 -0.107306 1.570613 1.505565 3.138681
    11 -0.489117 10.226307 1.194557 0.000000 0.000000 -1.282132
    12 1.189389 -0.918512 -1.194556 0.000000 0.000000 0.003685
    13 -2.647894 8.542626 -0.000005 0.000000 0.000000 -1.274576
    14 -0.726382 -15.457068 -14.470910 -1.156622 -5.590453 -0.110758
    15 0.096944 -8.450419 -0.009364 -0.005970 -0.540417 0.157854
    16 0.447952 -2.798982 -0.200442 -1.014489 0.150910 0.644051
    17 -0.032910 -1.480206 0.004936 -1.431586 0.000000 0.000002
    18 -0.027022 -1.076919 -0.020212 -0.473979 0.000000 0.000000
    19 -0.249534 -2.846962 -0.174215 -0.473080 0.210085 0.362128
    20 0.043235 -1.683939 0.096014 -1.793930 0.002823 -0.000167
    21 0.031729 -1.160831 0.058836 -0.335973 0.000642 0.008372
    22 -0.963866 -2.785142 -0.085346 -0.609796 0.267585 0.317863
    23 0.028479 -1.403068 0.006271 -1.150412 0.000000 0.000000
    24 0.021413 -0.957782 0.020047 -0.616019 0.000000 0.000000
    25 1.164474 -2.543938 -0.170328 -0.983966 0.070580 0.675853
    26 0.024032 -1.129043 0.017806 -1.337944 0.000000 0.000001
    27 0.014896 -0.883989 -0.019845 -0.672931 0.000000 0.000000
    28 -0.586770 -1.264475 0.200164 -0.186364 -1.053830 -3.148928
    29 1.522835 0.058681 0.016850 0.035029 0.111357 0.871431
    30 1.117948 0.048424 -0.005764 -0.015320 -0.019661 0.717991
    31 -0.057365 -0.119510 0.041742 0.574644 0.064105 1.500021
    32 -0.488517 -2.755600 -0.228261 -0.619222 -0.044186 -0.439117
    33 0.039888 -1.479789 0.029853 -2.158258 0.000000 0.000000
    34 0.028785 -1.075730 -0.023111 -0.647509 0.000000 0.000000
    35 0.250028 -2.820663 -0.238396 -0.535674 0.054413 -0.329163
    36 -0.049759 -1.680545 0.100480 -1.871489 0.000000 -0.000002
    37 -0.034141 -1.148312 0.084779 -1.387518 0.000000 0.000000
    38 0.957766 -2.746776 -0.090301 0.225143 -0.058359 -0.193630
    39 -0.033419 -1.397129 -0.011255 -0.184014 -0.032275 -0.008534
    40 -0.022361 -0.957434 0.018783 0.003845 0.000000 0.000000
    41 -1.180680 -2.507215 -0.193861 -0.379706 0.103261 -0.518998
    42 -0.024966 -1.123934 0.017594 -2.136747 0.000000 0.000001
    43 -0.020057 -0.890966 0.010091 -0.896554 0.000000 0.000000
    44 0.583510 -1.197274 0.185377 0.220453 -0.870283 -0.672925
    45 1.535926 0.010245 0.005008 -0.063786 0.310988 -1.032101
    46 1.100770 0.004526 -0.010676 -0.009999 0.012761 -0.488483
    47 0.006867 -0.065891 -0.085739 -2.852831 -0.015617 -1.424341
  time 8
    0 10.549371 -2.829804 -11.308932 4.178586 -0.770311 -4.800855
    1 -0.071918 -8.498731 -0.104137 0.317460 0.470595 -0.640832
    2 1.665510 -2.904478 0.631343 -0.234326 0.084943 -3.486601
    3 0.037088 1.836796 0.000000 0.000000 0.000000 0.679463
    4 -1.699721 2.222293 0.000421 0.000000 0.000000 -1.282538
    5 -5.655031 16.263659 1.047437 0.005898 -1.121418 -1.279905
    6 7.696722 0.021893 -0.405259 -0.001707 0.561568 -0.000383
    7 6.499035 0.037860 -0.093995 -1.570617 1.505568 -3.138681
    8 -5.655030 16.263657 -1.043029 3.135696 1.121416 -1.279904
    9 7.721393 -0.021960 -0.393362 0.001706 0.561568 0.000382
    10 6.490693 -0.037835 -0.107306 1.570613 1.505565 3.138681
    11 -0.489117 10.226307 1.194557 0.000000 0.000000 -1.282132
    12 1.189389 -0.918512 -1.194556 0.000000 0.000000 0.003685
    13 -2.647894 8.542626 -0.000005 0.000000 0.000000 -1.274576
    14 -0.726382 -15.457068 -14.470910 -1.156622 -5.590453 -0.110758
    15 0.096944 -8.450419 -0.009364 -0.005970 -0.540417 0.157854
    16 0.447952 -2.798982 -0.200442 -1.014489 0.150910 0.644051
    17 -0.032910 -1.480206 0.004936 -1.431586 0.000000 0.000002
    18 -0.027022 -1.076919 -0.020212 -0.473979 0.000000 0.000000
    19 -0.249534 -2.846962 -0.174215 -0.473080 0.210085 0.362128
    20 0.043235 -1.683939 0.096014 -1.793930 0.002823 -0.000167
    21 0.031729 -1.160831 0.058836 -0.335973 0.000642 0.008372
    22 -0.963866 -2.785142 -0.085346 -0.609796 0.267585 0.317863
    23 0.028479 -1.403068 0.006271 -1.150412 0.000000 0.000000
    24 0.021413 -0.957782 0.020047 -0.616019 0.000000 0.000000
    25 1.164474 -2.543938 -0.170328 -0.983966 0.070580 0.675853
    26 0.024032 -1.129043 0.017806 -1.337944 0.000000 0.000001
    27 0.014896 -0.883989 -0.019845 -0.672931 0.000000 0.000000
    28 -0.586770 -1.264475 0.200164 -0.186364 -1.053830 -3.148928
    29 1.522835 0.058681 0.016850 0.035029 0.111357 0.871431
    30 1.117948 0.048424 -0.005764 -0.015320 -0.019661 0.717991
    31 -0.057365 -0.119510 0.041742 0.574644 0.064105 1.500021
    32 -0.488517 -2.755600 -0.228261 -0.619222 -0.044186 -0.439117
    33 0.039888 -1.479789 0.029853 -2.158258 0.000000 0.000000
    34 0.028785 -1.075730 -0.023111 -0.647509 0.000000 0.000000
    35 0.250028 -2.820663 -0.238396 -0.535674 0.054413 -0.329163
    36 -0.049759 -1.680545 0.100480 -1.871489 0.000000 -0.000002
    37 -0.034141 -1.148312 0.084779 -1.387518 0.000000 0.000000
    38 0.957766 -2.746776 -0.090301 0.225143 -0.058359 -0.193630
    39 -0.033419 -1.397129 -0.011255 -0.184014 -0.032275 -0.008534
    40 -0.022361 -0.957434 0.018783 0.003845 0.000000 0.000000
    41 -1.180680 -2.507215 -0.193861 -0.379706 0.103261 -0.518998
    42 -0.024966 -1.123934 0.017594 -2.136747 0.000000 0.000001
    43 -0.020057 -0.890966 0.010091 -0.896554 0.000000 0.000000
    44 0.583510 -1.197274 0.185377 0.220453 -0.870283 -0.672925
    45 1.535926 0.010245 0.005008 -0.063786 0.310988 -1.032101
    46 1.100770 0.004526 -0.010676 -0.009999 0.012761 -0.488483
    47 0.006867 -0.065891 -0.085739 -2.852831 -0.015617 -1.424341
  time 9
    0 10.549371 -2.829804 -11.308932 4.178586 -0.770311 -4.800855
    1 -0.071918 -8.498731 -0.104137 0.317460 0.470595 -0.640832
    2 1.665510 -2.904478 0.631343 -0.234326 0.084943 -3.486601
    3 0.037088 1.836796 0.000000 0.000000 0.000000 0.679463
    4 -1.699721 2.222293 0.000421 0.000000 0.000000 -1.282538
    5 -5.655031 16.263659 1.047437 0.005898 -1.121418 -1.279905
    6 7.696722 0.021893 -0.405259 -0.001707 0.561568 -0.000383
    7 6.499035 0.037860 -0.093995 -1.570617 1.505568 -3.138681
    8 -5.655030 16.263657 -1.043029 3.135696 1.121416 -1.279904
    9 7.721393 -0.021960 -0.393362 0.001706 0.561568 0.000382
    10 6.490693 -0.037835 -0.107306 1.570613 1.505565 3.138681
    11 -0.489117 10.226307 1.194557 0.000000 0.000000 -1.282132
    12 1.189389 -0.918512 -1.194556 0.000000 0.000000 0.003685
    13 -2.647894 8.542626 -0.000005 0.000000 0.000000 -1.274576
    14 -0.726382 -15.457068 -14.470910 -1.156622 -5.590453 -0.110758
    15 0.096944 -8.450419 -0.009364 -0.005970 -0.540417 0.157854
    16 0.447952 -2.798982 -0.200442 -1.014489 0.150910 0.644051
    17 -0.032910 -1.480206 0.004936 -1.431586 0.000000 0.000002
    18 -0.027022 -1.076919 -0.020212 -0.473979 0.000000 0.000000
    19 -0.249534 -2.846962 -0.174215 -0.473080 0.210085 0.362128
    20 0.043235 -1.683939 0.096014 -1.793930 0.002823 -0.000167
    21 0.031729 -1.160831 0.058836 -0.335973 0.000642 0.008372
    22 -0.963866 -2.785142 -0.085346 -0.609796 0.267585 0.317863
    23 0.028479 -1.403068 0.006271 -1.150412 0.000000 0.000000
    24 0.021413 -0.957782 0.020047 -0.616019 0.000000 0.000000
    25 1.164474 -2.543938 -0.170328 -0.983966 0.070580 0.675853
    26 0.024032 -1.129043 0.017806 -1.337944 0.000000 0.000001
    27 0.014896 -0.883989 -0.019845 -0.672931 0.000000 0.000000
    28 -0.586770 -1.264475 0.200164 -0.186364 -1.053830 -3.148928
    29 1.522835 0.058681 0.016850 0.035029 0.111357 0.871431
    30 1.117948 0.048424 -0.005764 -0.015320 -0.019661 0.717991
    31 -0.057365 -0.119510 0.041742 0.574644 0.064105 1.500021
    32 -0.488517 -2.755600 -0.228261 -0.619222 -0.044186 -0.439117
    33 0.039888 -1.479789 0.029853 -2.158258 0.000000 0.000000
    34 0.028785 -1.075730 -0.023111 -0.647509 0.000000 0.000000
    35 0.250028 -2.820663 -0.238396 -0.535674 0.054413 -0.329163
    36 -0.049759 -1.680545 0.100480 -1.871489 0.000000 -0.000002
    37 -0.034141 -1.148312 0.084779 -1.387518 0.000000 0.000000
    38 0.957766 -2.746776 -0.090301 0.225143 -0.058359 -0.193630
    39 -0.033419 -1.397129 -0.011255 -0.184014 -0.032275 -0.008534
    40 -0.022361 -0.957434 0.018783 0.003845 0.000000 0.000000
    41 -1.180680 -2.507215 -0.193861 -0.379706 0.103261 -0.518998
    42 -0.024966 -1.123934 0.017594 -2.136747 0.000000 0.000001
    43 -0.020057 -0.890966 0.010091 -0.896554 0.000000 0.000000
    44 0.583510 -1.197274 0.185377 0.220453 -0.870283 -0.672925
    45 1.535926 0.010245 0.005008 -0.063786 0.310988 -1.032101
    46 1.100770 0.004526 -0.010676 -0.009999 0.012761 -0.488483
    47 0.006867 -0.065891 -0.085739 -2.852831 -0.015617 -1.424341
  time 10
    0 10.549371 -2.829804 -11.308932 4.178586 -0.770311 -4.800855
    1 -0.071918 -8.498731 -0.104137 0.317460 0.470595 -0.640832
    2 1.665510 -2.904478 0.631343 -0.234326 0.084943 -3.486601
    3 0.037088 1.836796 0.000000 0.000000 0.000000 0.679463
    4 -1.699721 2.222293 0.000421 0.000000 0.000000 -1.282538
    5 -5.655031 16.263659 1.047437 0.005898 -1.121418 -1.279905
    6 7.696722 0.021893 -0.405259 -0.001707 0.561568 -0.000383
    7 6.499035 0.037860 -0.093995 -1.570617 1.505568 -3.138681
    8 -5.655030 16.263657 -1.043029 3.135696 1.121416 -1.279904
    9 7.721393 -0.021960 -0.393362 0.001706 0.561568 0.000382
    10 6.490693 -0.037835 -0.107306 1.570613 1.505565 3.138681
    11 -0.489117 10.226307 1.194557 0.000000 0.000000 -1.282132
    12 1.189389 -0.918512 -1.194556 0.000000 0.000000 0.003685
    13 -2.647894 8.542626 -0.000005 0.000000 0.000000 -1.274576
    14 -0.726382 -15.457068 -14.470910 -1.156622 -5.590453 -0.110758
    15 0.096944 -8.450419 -0.009364 -0.005970 -0.540417 0.157854
    16 0.447952 -2.798982 -0.200442 -1.014489 0.150910 0.644051
    17 -0.032910 -1.480206 0.004936 -1.431586 0.000000 0.000002
    18 -0.027022 -1.076919 -0.020212 -0.473979 0.000000 0.000000
    19 -0.249534 -2.846962 -0.174215 -0.473080 0.210085 0.362128
    20 0.043235 -1.683939 0.096014 -1.793930 0.002823 -0.000167
    21 0.031729 -1.160831 0.058836 -0.335973 0.000642 0.008372
    22 -0.963866 -2.785142 -0.085346 -0.609796 0.267585 0.317863
    23 0.028479 -1.403068 0.006271 -1.150412 0.000000 0.000000
    24 0.021413 -0.957782 0.020047 -0.616019 0.000000 0.000000
    25 1.164474 -2.543938 -0.170328 -0.983966 0.070580 0.675853
    26 0.024032 -1.129043 0.017806 -1.337944 0.000000 0.000001
    27 0.014896 -0.883989 -0.019845 -0.672931 0.000000 0.000000
    28 -0.586770 -1.264475 0.200164 -0.186364 -1.053830 -3.148928
    29 1.522835 0.058681 0.016850 0.035029 0.111357 0.871431
    30 1.117948 0.048424 -0.005764 -0.015320 -0.019661 0.717991
    31 -0.057365 -0.119510 0.041742 0.574644 0.064105 1.500021
    32 -0.488517 -2.755600 -0.228261 -0.619222 -0.044186 -0.439117
    33 0.039888 -1.479789 0.029853 -2.158258 0.000000 0.000000
    34 0.028785 -1.075730 -0.023111 -0.647509 0.000000 0.000000
    35 0.250028 -2.820663 -0.238396 -0.535674 0.054413 -0.329163
    36 -0.049759 -1.680545 0.100480 -1.871489 0.000000 -0.000002
    37 -0.034141 -1.148312 0.084779 -1.387518 0.000000 0.000000
    38 0.957766 -2.746776 -0.090301 0.225143 -0.058359 -0.193630
    39 -0.033419 -1.397129 -0.011255 -0.184014 -0.032275 -0.008534
    40 -0.022361 -0.957434 0.018783 0.003845 0.000000 0.000000
    41 -1.180680 -2.507215 -0.193861 -0.379706 0.103261 -0.518998
    42 -0.024966 -1.123934 0.017594 -2.136747 0.000000 0.000001
    43 -0.020057 -0.890966 0.010091 -0.896554 0.000000 0.000000
    44 0.583510 -1.197274 0.185377 0.220453 -0.870283 -0.672925
    45 1.535926 0.010245 0.005008 -0.063786 0.310988 -1.032101
    46 1.100770 0.004526 -0.010676 -0.009999 0.012761 -0.488483
    47 0.006867 -0.065891 -0.085739 -2.852831 -0.015617 -1.424341
  time 11
    0 10.549371 -2.829804 -11.308932 4.178586 -0.770311 -4.800855
    1 -0.071918 -8.498731 -0.104137 0.317460 0.470595 -0.640832
    2 1.665510 -2.904478 0.631343 -0.234326 0.084943 -3.486601
    3 0.037088 1.836796 0.000000 0.000000 0.000000 0.679463
    4 -1.699721 2.222293 0.000421 0.000000 0.000000 -1.282538
    5 -5.655031 16.263659 1.047437 0.005898 -1.121418 -1.279905
    6 7.696722 0.021893 -0.405259 -0.001707 0.561568 -0.000383
    7 6.499035 0.037860 -0.093995 -1.570617 1.505568 -3.138681
    8 -5.655030 16.263657 -1.043029 3.135696 1.121416 -1.279904
    9 7.721393 -0.021960 -0.393362 0.001706 0.561568 0.000382
    10 6.490693 -0.037835 -0.107306 1.570613 1.505565 3.138681
    11 -0.489117 10.226307 1.194557 0.000000 0.000000 -1.282132
    12 1.189389 -0.918512 -1.194556 0.000000 0.000000 0.003685
    13 -2.647894 8.542626 -0.000005 0.000000 0.000000 -1.274576
    14 -0.726382 -15.457068 -14.470910 -1.156622 -5.590453 -0.110758
    15 0.096944 -8.450419 -0.009364 -0.005970 -0.540417 0.157854
    16 0.447952 -2.798982 -0.200442 -1.014489 0.150910 0.644051
    17 -0.032910 -1.480206 0.004936 -1.431586 0.000000 0.000002
    18 -0.027022 -1.076919 -0.020212 -0.473979 0.000000 0.000000
    19 -0.249534 -2.846962 -0.174215 -0.473080 0.210085 0.362128
    20 0.043235 -1.683939 0.096014 -1.793930 0.002823 -0.000167
    21 0.031729 -1.160831 0.058836 -0.335973 0.000642 0.008372
    22 -0.963866 -2.785142 -0.085346 -0.609796 0.267585 0.317863
    23 0.028479 -1.403068 0.006271 -1.150412 0.000000 0.000000
    24 0.021413 -0.957782 0.020047 -0.616019 0.000000 0.000000
    25 1.164474 -2.543938 -0.170328 -0.983966 0.070580 0.675853
    26 0.024032 -1.129043 0.017806 -1.337944 0.000000 0.000001
    27 0.014896 -0.883989 -0.019845 -0.672931 0.000000 0.000000
    28 -0.586770 -1.264475 0.200164 -0.186364 -1.053830 -3.148928
    29 1.522835 0.058681 0.016850 0.035029 0.111357 0.871431
    30 1.117948 0.048424 -0.005764 -0.015320 -0.019661 0.717991
    31 -0.057365 -0.119510 0.041742 0.574644 0.064105 1.500021
    32 -0.488517 -2.755600 -0.228261 -0.619222 -0.044186 -0.439117
    33 0.039888 -1.479789 0.029853 -2.158258 0.000000 0.000000
    34 0.028785 -1.075730 -0.023111 -0.647509 0.000000 0.000000
    35 0.250028 -2.820663 -0.238396 -0.535674 0.054413 -0.329163
    36 -0.049759 -1.680545 0.100480 -1.871489 0.000000 -0.000002
    37 -0.034141 -1.148312 0.084779 -1.387518 0.000000 0.000000
    38 0.957766 -2.746776 -0.090301 0.225143 -0.058359 -0.193630
    39 -0.033419 -1.397129 -0.011255 -0.184014 -0.032275 -0.008534
    40 -0.022361 -0.957434 0.018783 0.003845 0.000000 0.000000
    41 -1.180680 -2.507215 -0.193861 -0.379706 0.103261 -0.518998
    42 -0.024966 -1.123934 0.017594 -2.136747 0.000000 0.000001
    43 -0.020057 -0.890966 0.010091 -0.896554 0.000000 0.000000
    44 0.583510 -1.197274 0.185377 0.220453 -0.870283 -0.672925
    45 1.535926 0.010245 0.005008 -0.063786 0.310988 -1.032101
    46 1.100770 0.004526 -0.010676 -0.009999 0.012761 -0.488483
    47 0.006867 -0.065891 -0.085739 -2.852831 -0.015617 -1.424341
  time 12
    0 10.549371 -2.829804 -11.308932 4.178586 -0.770311 -4.800855
    1 -0.071918 -8.498731 -0.104137 0.317460 0.470595 -0.640832
    2 1.665510 -2.904478 0.631343 -0.234326 0.084943 -3.486601
    3 0.037088 1.836796 0.000000 0.000000 0.000000 0.679463
    4 -1.699721 2.222293 0.000421 0.000000 0.000000 -1.282538
    5 -5.655031 16.263659 1.047437 0.005898 -1.121418 -1.279905
    6 7.696722 0.021893 -0.405259 -0.001707 0.561568 -0.000383
    7 6.499035 0.037860 -0.093995 -1.570617 1.505568 -3.138681
    8 -5.655030 16.263657 -1.043029 3.135696 1.121416 -1.279904
    9 7.721393 -0.021960 -0.393362 0.001706 0.561568 0.000382
    10 6.490693 -0.037835 -0.107306 1.570613 1.505565 3.138681
    11 -0.489117 10.226307 1.194557 0.000000 0.000000 -1.282132
    12 1.189389 -0.918512 -1.194556 0.000000 0.000000 0.003685
    13 -2.647894 8.542626 -0.000005 0.000000 0.000000 -1.274576
    14 -0.726382 -15.457068 -14.470910 -1.156622 -5.590453 -0.110758
    15 0.096944 -8.450419 -0.009364 -0.005970 -0.540417 0.157854
    16 0.447952 -2.798982 -0.200442 -1.014489 0.150910 0.644051
    17 -0.032910 -1.480206 0.004936 -1.431586 0.000000 0.000002
    18 -0.027022 -1.076919 -0.020212 -0.473979 0.000000 0.000000
    19 -0.249534 -2.846962 -0.174215 -0.473080 0.210085 0.362128
    20 0.043235 -1.683939 0.096014 -1.793930 0.002823 -0.000167
    21 0.031729 -1.160831 0.058836 -0.335973 0.000642 0.008372
    22 -0.963866 -2.785142 -0.085346 -0.609796 0.267585 0.317863
    23 0.028479 -1.403068 0.006271 -1.150412 0.000000 0.000000
    24 0.021413 -0.957782 0.020047 -0.616019 0.000000 0.000000
    25 1.164474 -2.543938 -0.170328 -0.983966 0.070580 0.675853
    26 0.024032 -1.129043 0.017806 -1.337944 0.000000 0.000001
    27 0.014896 -0.883989 -0.019845 -0.672931 0.000000 0.000000
    28 -0.586770 -1.264475 0.200164 -0.186364 -1.053830 -3.148928
    29 1.522835 0.058681 0.016850 0.035029 0.111357 0.871431
    30 1.117948 0.048424 -0.005764 -0.015320 -0.019661 0.717991
    31 -0.057365 -0.119510 0.041742 0.574644 0.064105 1.500021
    32 -0.488517 -2.755600 -0.228261 -0.619222 -0.044186 -0.439117
    33 0.039888 -1.479789 0.029853 -2.158258 0.000000 0.000000
    34 0.028785 -1.075730 -0.023111 -0.647509 0.000000 0.000000
    35 0.250028 -2.820663 -0.238396 -0.535674 0.054413 -0.329163
    36 -0.049759 -1.680545 0.100480 -1.871489 0.000000 -0.000002
    37 -0.034141 -1.148312 0.084779 -1.387518 0.000000 0.000000
    38 0.957766 -2.746776 -0.090301 0.225143 -0.058359 -0.193630
    39 -0.033419 -1.397129 -0.011255 -0.184014 -0.032275 -0.008534
    40 -0.022361 -0.957434 0.018783 0.003845 0.000000 0.000000
    41 -1.180680 -2.507215 -0.193861 -0.379706 0.103261 -0.518998
    42 -0.024966 -1.123934 0.017594 -2.136747 0.000000 0.000001
    43 -0.020057 -0.890966 0.010091 -0.896554 0.000000 0.000000
    44 0.583510 -1.197274 0.185377 0.220453 -0.870283 -0.672925
    45 1.535926 0.010245 0.005008 -0.063786 0.310988 -1.032101
    46 1.100770 0.004526 -0.010676 -0.009999 0.012761 -0.488483
    47 0.006867 -0.065891 -0.085739 -2.852831 -0.015617 -1.424341
  time 13
    0 10.549371 -2.829804 -11.308932 4.178586 -0.770311 -4.800855
    1 -0.071918 -8.498731 -0.104137 0.317460 0.470595 -0.640832
    2 1.665510 -2.904478 0.631343 -0.234326 0.084943 -3.486601
    3 0.037088 1.836796 0.000000 0.000000 0.000000 0.679463
    4 -1.699721 2.222293 0.000421 0.000000 0.000000 -1.282538
    5 -5.655031 16.263659 1.047437 0.005898 -1.121418 -1.279905
    6 7.696722 0.021893 -0.405259 -0.001707 0.561568 -0.000383
    7 6.499035 0.037860 -0.093995 -1.570617 1.505568 -3.138681
    8 -5.655030 16.263657 -1.043029 3.135696 1.121416 -1.279904
    9 7.721393 -0.021960 -0.393362 0.001706 0.561568 0.000382
    10 6.490693 -0.037835 -0.107306 1.570613 1.505565 3.138681
    11 -0.489117 10.226307 1.194557 0.000000 0.000000 -1.282132
    12 1.189389 -0.918512 -1.194556 0.000000 0.000000 0.003685
    13 -2.647894 8.542626 -0.000005 0.000000 0.000000 -1.274576
    14 -0.726382 -15.457068 -14.470910 -1.156622 -5.590453 -0.110758
    15 0.096944 -8.450419 -0.009364 -0.005970 -0.540417 0.157854
    16 0.447952 -2.798982 -0.200442 -1.014489 0.150910 0.644051
    17 -0.032910 -1.480206 0.004936 -1.431586 0.000000 0.000002
    18 -0.027022 -1.076919 -0.020212 -0.473979 0.000000 0.000000
    19 -0.249534 -2.846962 -0.174215 -0.473080 0.210085 0.362128
    20 0.043235 -1.683939 0.096014 -1.793930 0.002823 -0.000167
    21 0.031729 -1.160831 0.058836 -0.335973 0.000642 0.008372
    22 -0.963866 -2.785142 -0.085346 -0.609796 0.267585 0.317863
    23 0.028479 -1.403068 0.006271 -1.150412 0.000000 0.000000
    24 0.021413 -0.957782 0.020047 -0.616019 0.000000 0.000000
    25 1.164474 -2.543938 -0.170328 -0.983966 0.070580 0.675853
    26 0.024032 -1.129043 0.017806 -1.337944 0.000000 0.000001
    27 0.014896 -0.883989 -0.019845 -0.672931 0.000000 0.000000
    28 -0.586770 -1.264475 0.200164 -0.186364 -1.053830 -3.148928
    29 1.522835 0.058681 0.016850 0.035029 0.111357 0.871431
    30 1.117948 0.048424 -0.005764 -0.015320 -0.019661 0.717991
    31 -0.057365 -0.119510 0.041742 0.574644 0.064105 1.500021
    32 -0.488517 -2.755600 -0.228261 -0.619222 -0.044186 -0.439117
    33 0.039888 -1.479789 0.029853 -2.158258 0.000000 0.000000
    34 0.028785 -1.075730 -0.023111 -0.647509 0.000000 0.000000
    35 0.250028 -2.820663 -0.238396 -0.535674 0.054413 -0.329163
    36 -0.049759 -1.680545 0.100480 -1.871489 0.000000 -0.000002
    37 -0.034141 -1.148312 0.084779 -1.387518 0.000000 0.000000
    38 0.957766 -2.746776 -0.090301 0.225143 -0.058359 -0.193630
    39 -0.033419 -1.397129 -0.011255 -0.184014 -0.032275 -0.008534
    40 -0.022361 -0.957434 0.018783 0.003845 0.000000 0.000000
    41 -1.180680 -2.507215 -0.193861 -0.379706 0.103261 -0.518998
    42 -0.024966 -1.123934 0.017594 -2.136747 0.000000 0.000001
    43 -0.020057 -0.890966 0.010091 -0.896554 0.000000 0.000000
    44 0.583510 -1.197274 0.185377 0.220453 -0.870283 -0.672925
    45 1.535926 0.010245 0.005008 -0.063786 0.310988 -1.032101
    46 1.100770 0.004526 -0.010676 -0.009999 0.012761 -0.488483
    47 0.006867 -0.065891 -0.085739 -2.852831 -0.015617 -1.424341
  time 14
    0 10.549371 -2.829804 -11.308932 4.178586 -0.770311 -4.800855
    1 -0.071918 -8.498731 -0.104137 0.317460 0.470595 -0.640832
    2 1.665510 -2.904478 0.631343 -0.234326 0.084943 -3.486601
    3 0.037088 1.836796 0.000000 0.000000 0.000000 0.679463
    4 -1.699721 2.222293 0.000421 0.000000 0.000000 -1.282538
    5 -5.655031 16.263659 1.047437 0.005898 -1.121418 -1.279905
    6 7.696722 0.021893 -0.405259 -0.001707 0.561568 -0.000383
    7 6.499035 0.037860 -0.093995 -1.570617 1.505568 -3.138681
    8 -5.655030 16.263657 -1.043029 3.135696 1.121416 -1.279904
    9 7.721393 -0.021960 -0.393362 0.001706 0.561568 0.000382
    10 6.490693 -0.037835 -0.107306 1.570613 1.505565 3.138681
    11 -0.489117 10.226307 1.194557 0.000000 0.000000 -1.282132
    12 1.189389 -0.918512 -1.194556 0.000000 0.000000 0.003685
    13 -2.647894 8.542626 -0.000005 0.000000 0.000000 -1.274576
    14 -0.726382 -15.457068 -14.470910 -1.156622 -5.590453 -0.110758
    15 0.096944 -8.450419 -0.009364 -0.005970 -0.540417 0.157854
    16 0.447952 -2.798982 -0.200442 -1.014489 0.150910 0.644051
    17 -0.032910 -1.480206 0.004936 -1.431586 0.000000 0.000002
    18 -0.027022 -1.076919 -0.020212 -0.473979 0.000000 0.000000
    19 -0.249534 -2.846962 -0.174215 -0.473080 0.210085 0.362128
    20 0.043235 -1.683939 0.096014 -1.793930 0.002823 -0.000167
    21 0.031729 -1.160831 0.058836 -0.335973 0.000642 0.008372
    22 -0.963866 -2.785142 -0.085346 -0.609796 0.267585 0.317863
    23 0.028479 -1.403068 0.006271 -1.150412 0.000000 0.000000
    24 0.021413 -0.957782 0.020047 -0.616019 0.000000 0.000000
    25 1.164474 -2.543938 -0.170328 -0.983966 0.070580 0.675853
    26 0.024032 -1.129043 0.017806 -1.337944 0.000000 0.000001
    27 0.014896 -0.883989 -0.019845 -0.672931 0.000000 0.000000
    28 -0.586770 -1.264475 0.200164 -0.186364 -1.053830 -3.148928
    29 1.522835 0.058681 0.016850 0.035029 0.111357 0.871431
    30 1.117948 0.048424 -0.005764 -0.015320 -0.019661 0.717991
    31 -0.057365 -0.119510 0.041742 0.574644 0.064105 1.500021
    32 -0.488517 -2.755600 -0.228261 -0.619222 -0.044186 -0.439117
    33 0.039888 -1.479789 0.029853 -2.158258 0.000000 0.000000
    34 0.028785 -1.075730 -0.023111 -0.647509 0.000000 0.000000
    35 0.250028 -2.820663 -0.238396 -0.535674 0.054413 -0.329163
    36 -0.049759 -1.680545 0.100480 -1.871489 0.000000 -0.000002
    37 -0.034141 -1.148312 0.084779 -1.387518 0.000000 0.000000
    38 0.957766 -2.746776 -0.090301 0.225143 -0.058359 -0.193630
    39 -0.033419 -1.397129 -0.011255 -0.184014 -0.032275 -0.008534
    40 -0.022361 -0.957434 0.018783 0.003845 0.000000 0.000000
    41 -1.180680 -2.507215 -0.193861 -0.379706 0.103261 -0.518998
    42 -0.024966 -1.123934 0.017594 -2.136747 0.000000 0.000001
    43 -0.020057 -0.890966 0.010091 -0.896554 0.000000 0.000000
    44 0.583510 -1.197274 0.185377 0.220453 -0.870283 -0.672925
    45 1.535926 0.010245 0.005008 -0.063786 0.310988 -1.032101
    46 1.100770 0.004526 -0.010676 -0.009999 0.012761 -0.488483
    47 0.006867 -0.065891 -0.085739 -2.852831 -0.015617 -1.424341
  time 15
    0 10.549371 -2.829804 -11.308932 4.178586 -0.770311 -4.800855
    1 -0.071918 -8.498731 -0.104137 0.317460 0.470595 -0.640832
    2 1.665510 -2.904478 0.631343 -0.234326 0.084943 -3.486601
    3 0.037088 1.836796 0.000000 0.000000 0.000000 0.679463
    4 -1.699721 2.222293 0.000421 0.000000 0.000000 -1.282538
    5 -5.655031 16.263659 1.047437 0.005898 -1.121418 -1.279905
    6 7.696722 0.021893 -0.405259 -0.001707 0.561568 -0.000383
    7 6.499035 0.037860 -0.093995 -1.570617 1.505568 -3.138681
    8 -5.655030 16.263657 -1.043029 3.135696 1.121416 -1.279904
    9 7.721393 -0.021960 -0.393362 0.001706 0.561568 0.000382
    10 6.490693 -0.037835 -0.107306 1.570613 1.505565 3.138681
    11 -0.489117 10.226307 1.194557 0.000000 0.000000 -1.282132
    12 1.189389 -0.918512 -1.194556 0.000000 0.000000 0.003685
    13 -2.647894 8.542626 -0.000005 0.000000 0.000000 -1.274576
    14 -0.726382 -15.457068 -14.470910 -1.156622 -5.590453 -0.110758
    15 0.096944 -8.450419 -0.009364 -0.005970 -0.540417 0.157854
    16 0.447952 -2.798982 -0.200442 -1.014489 0.150910 0.644051
    17 -0.032910 -1.480206 0.004936 -1.431586 0.000000 0.000002
    18 -0.027022 -1.076919 -0.020212 -0.473979 0.000000 0.000000
    19 -0.249534 -2.846962 -0.174215 -0.473080 0.210085 0.362128
    20 0.043235 -1.683939 0.096014 -1.793930 0.002823 -0.000167
    21 0.031729 -1.160831 0.058836 -0.335973 0.000642 0.008372
    22 -0.963866 -2.785142 -0.085346 -0.609796 0.267585 0.317863
    23 0.028479 -1.403068 0.006271 -1.150412 0.000000 0.000000
    24 0.021413 -0.957782 0.020047 -0.616019 0.000000 0.000000
    25 1.164474 -2.543938 -0.170328 -0.983966 0.070580 0.675853
    26 0.024032 -1.129043 0.017806 -1.337944 0.000000 0.000001
    27 0.014896 -0.883989 -0.019845 -0.672931 0.000000 0.000000
    28 -0.586770 -1.264475 0.200164 -0.186364 -1.053830 -3.148928
    29 1.522835 0.058681 0.016850 0.035029 0.111357 0.871431
    30 1.117948 0.048424 -0.005764 -0.015320 -0.019661 0.717991
    31 -0.057365 -0.119510 0.041742 0.574644 0.064105 1.500021
    32 -0.488517 -2.755600 -0.228261 -0.619222 -0.044186 -0.439117
    33 0.039888 -1.479789 0.029853 -2.158258 0.000000 0.000000
    34 0.028785 -1.075730 -0.023111 -0.647509 0.000000 0.000000
    35 0.250028 -2.820663 -0.238396 -0.535674 0.054413 -0.329163
    36 -0.049759 -1.680545 0.100480 -1.871489 0.000000 -0.000002
    37 -0.034141 -1.148312 0.084779 -1.387518 0.000000 0.000000
    38 0.957766 -2.746776 -0.090301 0.225143 -0.058359 -0.193630
    39 -0.033419 -1.397129 -0.011255 -0.184014 -0.032275 -0.008534
    40 -0.022361 -0.957434 0.018783 0.003845 0.000000 0.000000
    41 -1.180680 -2.507215 -0.193861 -0.379706 0.103261 -0.518998
    42 -0.024966 -1.123934 0.017594 -2.136747 0.000000 0.000001
    43 -0.020057 -0.890966 0.010091 -0.896554 0.000000 0.000000
    44 0.583510 -1.197274 0.185377 0.220453 -0.870283 -0.672925
    45 1.535926 0.010245 0.005008 -0.063786 0.310988 -1.032101
    46 1.100770 0.004526 -0.010676 -0.009999 0.012761 -0.488483
    47 0.006867 -0.065891 -0.085739 -2.852831 -0.015617 -1.424341
  time 16
    0 10.549371 -2.829804 -11.308932 4.178586 -0.770311 -4.800855
    1 -0.071918 -8.498731 -0.104137 0.317460 0.470595 -0.640832
    2 1.665510 -2.904478 0.631343 -0.234326 0.084943 -3.486601
    3 0.037088 1.836796 0.000000 0.000000 0.000000 0.679463
    4 -1.699721 2.222293 0.000421 0.000000 0.000000 -1.282538
    5 -5.655031 16.263659 1.047437 0.005898 -1.121418 -1.279905
    6 7.696722 0.021893 -0.405259 -0.001707 0.561568 -0.000383
    7 6.499035 0.037860 -0.093995 -1.570617 1.505568 -3.138681
    8 -5.655030 16.263657 -1.043029 3.135696 1.121416 -1.279904
    9 7.721393 -0.021960 -0.393362 0.001706 0.561568 0.000382
    10 6.490693 -0.037835 -0.107306 1.570613 1.505565 3.138681
    11 -0.489117 10.226307 1.194557 0.000000 0.000000 -1.282132
    12 1.189389 -0.918512 -1.194556 0.000000 0.000000 0.003685
    13 -2.647894 8.542626 -0.000005 0.000000 0.000000 -1.274576
    14 -0.726382 -15.457068 -14.470910 -1.156622 -5.590453 -0.110758
    15 0.096944 -8.450419 -0.009364 -0.005970 -0.540417 0.157854
    16 0.447952 -2.798982 -0.200442 -1.014489 0.150910 0.644051
    17 -0.032910 -1.480206 0.004936 -1.431586 0.000000 0.000002
    18 -0.027022 -1.076919 -0.020212 -0.473979 0.000000 0.000000
    19 -0.249534 -2.846962 -0.174215 -0.473080 0.210085 0.362128
    20 0.043235 -1.683939 0.096014 -1.793930 0.002823 -0.000167
    21 0.031729 -1.160831 0.058836 -0.335973 0.000642 0.008372
    22 -0.963866 -2.785142 -0.085346 -0.609796 0.267585 0.317863
    23 0.028479 -1.403068 0.006271 -1.150412 0.000000 0.000000
    24 0.021413 -0.957782 0.020047 -0.616019 0.000000 0.000000
    25 1.164474 -2.543938 -0.170328 -0.983966 0.070580 0.675853
    26 0.024032 -1.129043 0.017806 -1.337944 0.000000 0.000001
    27 0.014896 -0.883989 -0.019845 -0.672931 0.000000 0.000000
    28 -0.586770 -1.264475 0.200164 -0.186364 -1.053830 -3.148928
    29 1.522835 0.058681 0.016850 0.035029 0.111357 0.871431
    30 1.117948 0.048424 -0.005764 -0.015320 -0.019661 0.717991
    31 -0.057365 -0.119510 0.041742 0.574644 0.064105 1.500021
    32 -0.488517 -2.755600 -0.228261 -0.619222 -0.044186 -0.439117
    33 0.039888 -1.479789 0.029853 -2.158258 0.000000 0.000000
    34 0.028785 -1.075730 -0.023111 -0.647509 0.000000 0.000000
    35 0.250028 -2.820663 -0.238396 -0.535674 0.054413 -0.329163
    36 -0.049759 -1.680545 0.100480 -1.871489 0.000000 -0.000002
    37 -0.034141 -1.148312 0.084779 -1.387518 0.000000 0.000000
    38 0.957766 -2.746776 -0.090301 0.225143 -0.058359 -0.193630
    39 -0.033419 -1.397129 -0.011255 -0.184014 -0.032275 -0.008534
    40 -0.022361 -0.957434 0.018783 0.003845 0.000000 0.000000
    41 -1.180680 -2.507215 -0.193861 -0.379706 0.103261 -0.518998
    42 -0.024966 -1.123934 0.017594 -2.136747 0.000000 0.000001
    43 -0.020057 -0.890966 0.010091 -0.896554 0.000000 0.000000
    44 0.583510 -1.197274 0.185377 0.220453 -0.870283 -0.672925
    45 1.535926 0.010245 0.005008 -0.063786 0.310988 -1.032101
    46 1.100770 0.004526 -0.010676 -0.009999 0.012761 -0.488483
    47 0.006867 -0.065891 -0.085739 -2.852831 -0.015617 -1.424341
  time 17
    0 10.549371 -2.829804 -11.308932 4.178586 -0.770311 -4.800855
    1 -0.071918 -8.498731 -0.104137 0.317460 0.470595 -0.640832
    2 1.665510 -2.904478 0.631343 -0.234326 0.084943 -3.486601
    3 0.037088 1.836796 0.000000 0.000000 0.000000 0.679463
    4 -1.699721 2.222293 0.000421 0.000000 0.000000 -1.282538
    5 -5.655031 16.263659 1.047437 0.005898 -1.121418 -1.279905
    6 7.696722 0.021893 -0.405259 -0.001707 0.561568 -0.000383
    7 6.499035 0.037860 -0.093995 -1.570617 1.505568 -3.138681
    8 -5.655030 16.263657 -1.043029 3.135696 1.121416 -1.279904
    9 7.721393 -0.021960 -0.393362 0.001706 0.561568 0.000382
    10 6.490693 -0.037835 -0.107306 1.570613 1.505565 3.138681
    11 -0.489117 10.226307 1.194557 0.000000 0.000000 -1.282132
    12 1.189389 -0.918512 -1.194556 0.000000 0.000000 0.003685
    13 -2.647894 8.542626 -0.000005 0.000000 0.000000 -1.274576
    14 -0.726382 -15.457068 -14.470910 -1.156622 -5.590453 -0.110758
    15 0.096944 -8.450419 -0.009364 -0.005970 -0.540417 0.157854
    16 0.447952 -2.798982 -0.200442 -1.014489 0.150910 0.644051
    17 -0.032910 -1.480206 0.004936 -1.431586 0.000000 0.000002
    18 -0.027022 -1.076919 -0.020212 -0.473979 0.000000 0.000000
    19 -0.249534 -2.846962 -0.174215 -0.473080 0.210085 0.362128
    20 0.043235 -1.683939 0.096014 -1.793930 0.002823 -0.000167
    21 0.031729 -1.160831 0.058836 -0.335973 0.000642 0.008372
    22 -0.963866 -2.785142 -0.085346 -0.609796 0.267585 0.317863
    23 0.028479 -1.403068 0.006271 -1.150412 0.000000 0.000000
    24 0.021413 -0.957782 0.020047 -0.616019 0.000000 0.000000
    25 1.164474 -2.543938 -0.170328 -0.983966 0.070580 0.675853
    26 0.024032 -1.129043 0.017806 -1.337944 0.000000 0.000001
    27 0.014896 -0.883989 -0.019845 -0.672931 0.000000 0.000000
    28 -0.586770 -1.264475 0.200164 -0.186364 -1.053830 -3.148928
    29 1.522835 0.058681 0.016850 0.035029 0.111357 0.871431
    30 1.117948 0.048424 -0.005764 -0.015320 -0.019661 0.717991
    31 -0.057365 -0.119510 0.041742 0.574644 0.064105 1.500021
    32 -0.488517 -2.755600 -0.228261 -0.619222 -0.044186 -0.439117
    33 0.039888 -1.479789 0.029853 -2.158258 0.000000 0.000000
    34 0.028785 -1.075730 -0.023111 -0.647509 0.000000 0.000000
    35 0.250028 -2.820663 -0.238396 -0.535674 0.054413 -0.329163
    36 -0.049759 -1.680545 0.100480 -1.871489 0.000000 -0.000002
    37 -0.034141 -1.148312 0.084779 -1.387518 0.000000 0.000000
    38 0.957766 -2.746776 -0.090301 0.225143 -0.058359 -0.193630
    39 -0.033419 -1.397129 -0.011255 -0.184014 -0.032275 -0.008534
    40 -0.022361 -0.957434 0.018783 0.003845 0.000000 0.000000
    41 -1.180680 -2.507215 -0.193861 -0.379706 0.103261 -0.518998
    42 -0.024966 -1.123934 0.017594 -2.136747 0.000000 0.000001
    43 -0.020057 -0.890966 0.010091 -0.896554 0.000000 0.000000
    44 0.583510 -1.197274 0.185377 0.220453 -0.870283 -0.672925
    45 1.535926 0.010245 0.005008 -0.063786 0.310988 -1.032101
    46 1.100770 0.004526 -0.010676 -0.009999 0.012761 -0.488483
    47 0.006867 -0.065891 -0.085739 -2.852831 -0.015617 -1.424341
  time 18
    0 10.549371 -2.829804 -11.308932 4.178586 -0.770311 -4.800855
    1 -0.071918 -8.498731 -0.104137 0.317460 0.470595 -0.640832
    2 1.665510 -2.904478 0.631343 -0.234326 0.084943 -3.486601
    3 0.037088 1.836796 0.000000 0.000000 0.000000 0.679463
    4 -1.699721 2.222293 0.000421 0.000000 0.000000 -1.282538
    5 -5.655031 16.263659 1.047437 0.005898 -1.121418 -1.279905
    6 7.696722 0.021893 -0.405259 -0.001707 0.561568 -0.000383
    7 6.499035 0.037860 -0.093995 -1.570617 1.505568 -3.138681
    8 -5.655030 16.263657 -1.043029 3.135696 1.121416 -1.279904
    9 7.721393 -0.021960 -0.393362 0.001706 0.561568 0.000382
    10 6.490693 -0.037835 -0.107306 1.570613 1.505565 3.138681
    11 -0.489117 10.226307 1.194557 0.000000 0.000000 -1.282132
    12 1.189389 -0.918512 -1.194556 0.000000 0.000000 0.003685
    13 -2.647894 8.542626 -0.000005 0.000000 0.000000 -1.274576
    14 -0.726382 -15.457068 -14.470910 -1.156622 -5.590453 -0.110758
    15 0.096944 -8.450419 -0.009364 -0.005970 -0.540417 0.157854
    16 0.447952 -2.798982 -0.200442 -1.014489 0.150910 0.644051
    17 -0.032910 -1.480206 0.004936 -1.431586 0.000000 0.000002
    18 -0.027022 -1.076919 -0.020212 -0.473979 0.000000 0.000000
    19 -0.249534 -2.846962 -0.174215 -0.473080 0.210085 0.362128
    20 0.043235 -1.683939 0.096014 -1.793930 0.002823 -0.000167
    21 0.031729 -1.160831 0.058836 -0.335973 0.000642 0.008372
    22 -0.963866 -2.785142 -0.085346 -0.609796 0.267585 0.317863
    23 0.028479 -1.403068 0.006271 -1.150412 0.000000 0.000000
    24 0.021413 -0.957782 0.020047 -0.616019 0.000000 0.000000
    25 1.164474 -2.543938 -0.170328 -0.983966 0.070580 0.675853
    26 0.024032 -1.129043 0.017806 -1.337944 0.000000 0.000001
    27 0.014896 -0.883989 -0.019845 -0.672931 0.000000 0.000000
    28 -0.586770 -1.264475 0.200164 -0.186364 -1.053830 -3.148928
    29 1.522835 0.058681 0.016850 0.035029 0.111357 0.871431
    30 1.117948 0.048424 -0.005764 -0.015320 -0.019661 0.717991
    31 -0.057365 -0.119510 0.041742 0.574644 0.064105 1.500021
    32 -0.488517 -2.755600 -0.228261 -0.619222 -0.044186 -0.439117
    33 0.039888 -1.479789 0.029853 -2.158258 0.000000 0.000000
    34 0.028785 -1.075730 -0.023111 -0.647509 0.000000 0.000000
    35 0.250028 -2.820663 -0.238396 -0.535674 0.054413 -0.329163
    36 -0.049759 -1.680545 0.100480 -1.871489 0.000000 -0.000002
    37 -0.034141 -1.148312 0.084779 -1.387518 0.000000 0.000000
    38 0.957766 -2.746776 -0.090301 0.225143 -0.058359 -0.193630
    39 -0.033419 -1.397129 -0.011255 -0.184014 -0.032275 -0.008534
    40 -0.022361 -0.957434 0.018783 0.003845 0.000000 0.000000
    41 -1.180680 -2.507215 -0.193861 -0.379706 0.103261 -0.518998
    42 -0.024966 -1.123934 0.017594 -2.136747 0.000000 0.000001
    43 -0.020057 -0.890966 0.010091 -0.896554 0.000000 0.000000
    44 0.583510 -1.197274 0.185377 0.220453 -0.870283 -0.672925
    45 1.535926 0.010245 0.005008 -0.063786 0.310988 -1.032101
    46 1.100770 0.004526 -0.010676 -0.009999 0.012761 -0.488483
    47 0.006867 -0.065891 -0.085739 -2.852831 -0.015617 -1.424341
  time 19
    0 10.549371 -2.829804 -11.308932 4.178586 -0.770311 -4.800855
    1 -0.071918 -8.498731 -0.104137 0.317460 0.470595 -0.640832
    2 1.665510 -2.904478 0.631343 -0.234326 0.084943 -3.486601
    3 0.037088 1.836796 0.000000 0.000000 0.000000 0.679463
    4 -1.699721 2.222293 0.000421 0.000000 0.000000 -1.282538
    5 -5.655031 16.263659 1.047437 0.005898 -1.121418 -1.279905
    6 7.696722 0.021893 -0.405259 -0.001707 0.561568 -0.000383
    7 6.499035 0.037860 -0.093995 -1.570617 1.505568 -3.138681
    8 -5.655030 16.263657 -1.043029 3.135696 1.121416 -1.279904
    9 7.721393 -0.021960 -0.393362 0.001706 0.561568 0.000382
    10 6.490693 -0.037835 -0.107306 1.570613 1.505565 3.138681
    11 -0.489117 10.226307 1.194557 0.000000 0.000000 -1.282132
    12 1.189389 -0.918512 -1.194556 0.000000 0.000000 0.003685
    13 -2.647894 8.542626 -0.000005 0.000000 0.000000 -1.274576
    14 -0.726382 -15.457068 -14.470910 -1.156622 -5.590453 -0.110758
    15 0.096944 -8.450419 -0.009364 -0.005970 -0.540417 0.157854
    16 0.447952 -2.798982 -0.200442 -1.014489 0.150910 0.644051
    17 -0.032910 -1.480206 0.004936 -1.431586 0.000000 0.000002
    18 -0.027022 -1.076919 -0.020212 -0.473979 0.000000 0.000000
    19 -0.249534 -2.846962 -0.174215 -0.473080 0.210085 0.362128
    20 0.043235 -1.683939 0.096014 -1.793930 0.002823 -0.000167
    21 0.031729 -1.160831 0.058836 -0.335973 0.000642 0.008372
    22 -0.963866 -2.785142 -0.085346 -0.609796 0.267585 0.317863
    23 0.028479 -1.403068 0.006271 -1.150412 0.000000 0.000000
    24 0.021413 -0.957782 0.020047 -0.616019 0.000000 0.000000
    25 1.164474 -2.543938 -0.170328 -0.983966 0.070580 0.675853
    26 0.024032 -1.129043 0.017806 -1.337944 0.000000 0.000001
    27 0.014896 -0.883989 -0.019845 -0.672931 0.000000 0.000000
    28 -0.586770 -1.264475 0.200164 -0.186364 -1.053830 -3.148928
    29 1.522835 0.058681 0.016850 0.035029 0.111357 0.871431
    30 1.117948 0.048424 -0.005764 -0.015320 -0.019661 0.717991
    31 -0.057365 -0.119510 0.041742 0.574644 0.064105 1.500021
    32 -0.488517 -2.755600 -0.228261 -0.619222 -0.044186 -0.439117
    33 0.039888 -1.479789 0.029853 -2.158258 0.000000 0.000000
    34 0.028785 -1.075730 -0.023111 -0.647509 0.000000 0.000000
    35 0.250028 -2.820663 -0.238396 -0.535674 0.054413 -0.329163
    36 -0.049759 -1.680545 0.100480 -1.871489 0.000000 -0.000002
    37 -0.034141 -1.148312 0.084779 -1.387518 0.000000 0.000000
    38 0.957766 -2.746776 -0.090301 0.225143 -0.058359 -0.193630
    39 -0.033419 -1.397129 -0.011255 -0.184014 -0.032275 -0.008534
    40 -0.022361 -0.957434 0.018783 0.003845 0.000000 0.000000
    41 -1.180680 -2.507215 -0.193861 -0.379706 0.103261 -0.518998
    42 -0.024966 -1.123934 0.017594 -2.136747 0.000000 0.000001
    43 -0.020057 -0.890966 0.010091 -0.896554 0.000000 0.000000
    44 0.583510 -1.197274 0.185377 0.220453 -0.870283 -0.672925
    45 1.535926 0.010245 0.005008 -0.063786 0.310988 -1.032101
    46 1.100770 0.004526 -0.010676 -0.009999 0.012761 -0.488483
    47 0.006867 -0.065891 -0.085739 -2.852831 -0.015617 -1.424341
  time 20
    0 10.549371 -2.829804 -11.308932 4.178586 -0.770311 -4.800855
    1 -0.071918 -8.498731 -0.104137 0.317460 0.470595 -0.640832
    2 1.665510 -2.904478 0.631343 -0.234326 0.084943 -3.486601
    3 0.037088 1.836796 0.000000 0.000000 0.000000 0.679463
    4 -1.699721 2.222293 0.000421 0.000000 0.000000 -1.282538
    5 -5.655031 16.263659 1.047437 0.005898 -1.121418 -1.279905
    6 7.696722 0.021893 -0.405259 -0.001707 0.561568 -0.000383
    7 6.499035 0.037860 -0.093995 -1.570617 1.505568 -3.138681
    8 -5.655030 16.263657 -1.043029 3.135696 1.121416 -1.279904
    9 7.721393 -0.021960 -0.393362 0.001706 0.561568 0.000382
    10 6.490693 -0.037835 -0.107306 1.570613 1.505565 3.138681
    11 -0.489117 10.226307 1.194557 0.000000 0.000000 -1.282132
    12 1.189389 -0.918512 -1.194556 0.000000 0.000000 0.003685
    13 -2.647894 8.542626 -0.000005 0.000000 0.000000 -1.274576
    14 -0.726382 -15.457068 -14.470910 -1.156622 -5.590453 -0.110758
    15 0.096944 -8.450419 -0.009364 -0.005970 -0.540417 0.157854
    16 0.447952 -2.798982 -0.200442 -1.014489 0.150910 0.644051
    17 -0.032910 -1.480206 0.004936 -1.431586 0.000000 0.000002
    18 -0.027022 -1.076919 -0.020212 -0.473979 0.000000 0.000000
    19 -0.249534 -2.846962 -0.174215 -0.473080 0.210085 0.362128
    20 0.043235 -1.683939 0.096014 -1.793930 0.002823 -0.000167
    21 0.031729 -1.160831 0.058836 -0.335973 0.000642 0.008372
    22 -0.963866 -2.785142 -0.085346 -0.609796 0.267585 0.317863
    23 0.028479 -1.403068 0.006271 -1.150412 0.000000 0.000000
    24 0.021413 -0.957782 0.020047 -0.616019 0.000000 0.000000
    25 1.164474 -2.543938 -0.170328 -0.983966 0.070580 0.675853
    26 0.024032 -1.129043 0.017806 -1.337944 0.000000 0.000001
    27 0.014896 -0.883989 -0.019845 -0.672931 0.000000 0.000000
    28 -0.586770 -1.264475 0.200164 -0.186364 -1.053830 -3.148928
    29 1.522835 0.058681 0.016850 0.035029 0.111357 0.871431
    30 1.117948 0.048424 -0.005764 -0.015320 -0.019661 0.717991
    31 -0.057365 -0.119510 0.041742 0.574644 0.064105 1.500021
    32 -0.488517 -2.755600 -0.228261 -0.619222 -0.044186 -0.439117
    33 0.039888 -1.479789 0.029853 -2.158258 0.000000 0.000000
    34 0.028785 -1.075730 -0.023111 -0.647509 0.000000 0.000000
    35 0.250028 -2.820663 -0.238396 -0.535674 0.054413 -0.329163
    36 -0.049759 -1.680545 0.100480 -1.871489 0.000000 -0.000002
    37 -0.034141 -1.148312 0.084779 -1.387518 0.000000 0.000000
    38 0.957766 -2.746776 -0.090301 0.225143 -0.058359 -0.193630
    39 -0.033419 -1.397129 -0.011255 -0.184014 -0.032275 -0.008534
    40 -0.022361 -0.957434 0.018783 0.003845 0.000000 0.000000
    41 -1.180680 -2.507215 -0.193861 -0.379706 0.103261 -0.518998
    42 -0.024966 -1.123934 0.017594 -2.136747 0.000000 0.000001
    43 -0.020057 -0.890966 0.010091 -0.896554 0.000000 0.000000
    44 0.583510 -1.197274 0.185377 0.220453 -0.870283 -0.672925
    45 1.535926 0.010245 0.005008 -0.063786 0.310988 -1.032101
    46 1.100770 0.004526 -0.010676 -0.009999 0.012761 -0.488483
    47 0.006867 -0.065891 -0.085739 -2.852831 -0.015617 -1.424341
  time 21
    0 10.549371 -2.829804 -11.308932 4.178586 -0.770311 -4.800855
    1 -0.071918 -8.498731 -0.104137 0.317460 0.470595 -0.640832
    2 1.665510 -2.904478 0.631343 -0.234326 0.084943 -3.486601
    3 0.037088 1.836796 0.000000 0.000000 0.000000 0.679463
    4 -1.699721 2.222293 0.000421 0.000000 0.000000 -1.282538
    5 -5.655031 16.263659 1.047437 0.005898 -1.121418 -1.279905
    6 7.696722 0.021893 -0.405259 -0.001707 0.561568 -0.000383
    7 6.499035 0.037860 -0.093995 -1.570617 1.505568 -3.138681
    8 -5.655030 16.263657 -1.043029 3.135696 1.121416 -1.279904
    9 7.721393 -0.021960 -0.393362 0.001706 0.561568 0.000382
    10 6.490693 -0.037835 -0.107306 1.570613 1.505565 3.138681
    11 -0.489117 10.226307 1.194557 0.000000 0.000000 -1.282132
    12 1.189389 -0.918512 -1.194556 0.000000 0.000000 0.003685
    13 -2.647894 8.542626 -0.000005 0.000000 0.000000 -1.274576
    14 -0.726382 -15.457068 -14.470910 -1.156622 -5.590453 -0.110758
    15 0.096944 -8.450419 -0.009364 -0.005970 -0.540417 0.157854
    16 0.447952 -2.798982 -0.200442 -1.014489 0.150910 0.644051
    17 -0.032910 -1.480206 0.004936 -1.431586 0.000000 0.000002
    18 -0.027022 -1.076919 -0.020212 -0.473979 0.000000 0.000000
    19 -0.249534 -2.846962 -0.174215 -0.473080 0.210085 0.362128
    20 0.043235 -1.683939 0.096014 -1.793930 0.002823 -0.000167
    21 0.031729 -1.160831 0.058836 -0.335973 0.000642 0.008372
    22 -0.963866 -2.785142 -0.085346 -0.609796 0.267585 0.317863
    23 0.028479 -1.403068 0.006271 -1.150412 0.000000 0.000000
    24 0.021413 -0.957782 0.020047 -0.616019 0.000000 0.000000
    25 1.164474 -2.543938 -0.170328 -0.983966 0.070580 0.675853
    26 0.024032 -1.129043 0.017806 -1.337944 0.000000 0.000001
    27 0.014896 -0.883989 -0.019845 -0.672931 0.000000 0.000000
    28 -0.586770 -1.264475 0.200164 -0.186364 -1.053830 -3.148928
    29 1.522835 0.058681 0.016850 0.035029 0.111357 0.871431
    30 1.117948 0.048424 -0.005764 -0.015320 -0.019661 0.717991
    31 -0.057365 -0.119510 0.041742 0.574644 0.064105 1.500021
    32 -0.488517 -2.755600 -0.228261 -0.619222 -0.044186 -0.439117
    33 0.039888 -1.479789 0.029853 -2.158258 0.000000 0.000000
    34 0.028785 -1.075730 -0.023111 -0.647509 0.000000 0.000000
    35 0.250028 -2.820663 -0.238396 -0.535674 0.054413 -0.329163
    36 -0.049759 -1.680545 0.100480 -1.871489 0.000000 -0.000002
    37 -0.034141 -1.148312 0.084779 -1.387518 0.000000 0.000000
    38 0.957766 -2.746776 -0.090301 0.225143 -0.058359 -0.193630
    39 -0.033419 -1.397129 -0.011255 -0.184014 -0.032275 -0.008534
    40 -0.022361 -0.957434 0.018783 0.003845 0.000000 0.000000
    41 -1.180680 -2.507215 -0.193861 -0.379706 0.103261 -0.518998
    42 -0.024966 -1.123934 0.017594 -2.136747 0.000000 0.000001
    43 -0.020057 -0.890966 0.010091 -0.896554 0.000000 0.000000
    44 0.583510 -1.197274 0.185377 0.220453 -0.870283 -0.672925
    45 1.535926 0.010245 0.005008 -0.063786 0.310988 -1.032101
    46 1.100770 0.004526 -0.010676 -0.009999 0.012761 -0.488483
    47 0.006867 -0.065891 -0.085739 -2.852831 -0.015617 -1.424341
  time 22
    0 10.549371 -2.829804 -11.308932 4.178586 -0.770311 -4.800855
    1 -0.071918 -8.498731 -0.104137 0.317460 0.470595 -0.640832
    2 1.665510 -2.904478 0.631343 -0.234326 0.084943 -3.486601
    3 0.037088 1.836796 0.000000 0.000000 0.000000 0.679463
    4 -1.699721 2.222293 0.000421 0.000000 0.000000 -1.282538
    5 -5.655031 16.263659 1.047437 0.005898 -1.121418 -1.279905
    6 7.696722 0.021893 -0.405259 -0.001707 0.561568 -0.000383
    7 6.499035 0.037860 -0.093995 -1.570617 1.505568 -3.138681
    8 -5.655030 16.263657 -1.043029 3.135696 1.121416 -1.279904
    9 7.721393 -0.021960 -0.393362 0.001706 0.561568 0.000382
    10 6.490693 -0.037835 -0.107306 1.570613 1.505565 3.138681
    11 -0.489117 10.226307 1.194557 0.000000 0.000000 -1.282132
    12 1.189389 -0.918512 -1.194556 0.000000 0.000000 0.003685
    13 -2.647894 8.542626 -0.000005 0.000000 0.000000 -1.274576
    14 -0.726382 -15.457068 -14.470910 -1.156622 -5.590453 -0.110758
    15 0.096944 -8.450419 -0.009364 -0.005970 -0.540417 0.157854
    16 0.447952 -2.798982 -0.200442 -1.014489 0.150910 0.644051
    17 -0.032910 -1.480206 0.004936 -1.431586 0.000000 0.000002
    18 -0.027022 -1.076919 -0.020212 -0.473979 0.000000 0.000000
    19 -0.249534 -2.846962 -0.174215 -0.473080 0.210085 0.362128
    20 0.043235 -1.683939 0.096014 -1.793930 0.002823 -0.000167
    21 0.031729 -1.160831 0.058836 -0.335973 0.000642 0.008372
    22 -0.963866 -2.785142 -0.085346 -0.609796 0.267585 0.317863
    23 0.028479 -1.403068 0.006271 -1.150412 0.000000 0.000000
    24 0.021413 -0.957782 0.020047 -0.616019 0.000000 0.000000
    25 1.164474 -2.543938 -0.170328 -0.983966 0.070580 0.675853
    26 0.024032 -1.129043 0.017806 -1.337944 0.000000 0.000001
    27 0.014896 -0.883989 -0.019845 -0.672931 0.000000 0.000000
    28 -0.586770 -1.264475 0.200164 -0.186364 -1.053830 -3.148928
    29 1.522835 0.058681 0.016850 0.035029 0.111357 0.871431
    30 1.117948 0.048424 -0.005764 -0.015320 -0.019661 0.717991
    31 -0.057365 -0.119510 0.041742 0.574644 0.064105 1.500021
    32 -0.488517 -2.755600 -0.228261 -0.619222 -0.044186 -0.439117
    33 0.039888 -1.479789 0.029853 -2.158258 0.000000 0.000000
    34 0.028785 -1.075730 -0.023111 -0.647509 0.000000 0.000000
    35 0.250028 -2.820663 -0.238396 -0.535674 0.054413 -0.329163
    36 -0.049759 -1.680545 0.100480 -1.871489 0.000000 -0.000002
    37 -0.034141 -1.148312 0.084779 -1.387518 0.000000 0.000000
    38 0.957766 -2.746776 -0.090301 0.225143 -0.058359 -0.193630
    39 -0.033419 -1.397129 -0.011255 -0.184014 -0.032275 -0.008534
    40 -0.022361 -0.957434 0.018783 0.003845 0.000000 0.000000
    41 -1.180680 -2.507215 -0.193861 -0.379706 0.103261 -0.518998
    42 -0.024966 -1.123934 0.017594 -2.136747 0.000000 0.000001
    43 -0.020057 -0.890966 0.010091 -0.896554 0.000000 0.000000
    44 0.583510 -1.197274 0.185377 0.220453 -0.870283 -0.672925
    45 1.535926 0.010245 0.005008 -0.063786 0.310988 -1.032101
    46 1.100770 0.004526 -0.010676 -0.009999 0.012761 -0.488483
    47 0.006867 -0.065891 -0.085739 -2.852831 -0.015617 -1.424341
  time 23
    0 10.549371 -2.829804 -11.308932 4.178586 -0.770311 -4.800855
    1 -0.071918 -8.498731 -0.104137 0.317460 0.470595 -0.640832
    2 1.665510 -2.904478 0.631343 -0.234326 0.084943 -3.486601
    3 0.037088 1.836796 0.000000 0.000000 0.000000 0.679463
    4 -1.699721 2.222293 0.000421 0.000000 0.000000 -1.282538
    5 -5.655031 16.263659 1.047437 0.005898 -1.121418 -1.279905
    6 7.696722 0.021893 -0.405259 -0.001707 0.561568 -0.000383
    7 6.499035 0.037860 -0.093995 -1.570617 1.505568 -3.138681
    8 -5.655030 16.263657 -1.043029 3.135696 1.121416 -1.279904
    9 7.721393 -0.021960 -0.393362 0.001706 0.561568 0.000382
    10 6.490693 -0.037835 -0.107306 1.570613 1.505565 3.138681
    11 -0.489117 10.226307 1.194557 0.000000 0.000000 -1.282132
    12 1.189389 -0.918512 -1.194556 0.000000 0.000000 0.003685
    13 -2.647894 8.542626 -0.000005 0.000000 0.000000 -1.274576
    14 -0.726382 -15.457068 -14.470910 -1.156622 -5.590453 -0.110758
    15 0.096944 -8.450419 -0.009364 -0.005970 -0.540417 0.157854
    16 0.447952 -2.798982 -0.200442 -1.014489 0.150910 0.644051
    17 -0.032910 -1.480206 0.004936 -1.431586 0.000000 0.000002
    18 -0.027022 -1.076919 -0.020212 -0.473979 0.000000 0.000000
    19 -0.249534 -2.846962 -0.174215 -0.473080 0.210085 0.362128
    20 0.043235 -1.683939 0.096014 -1.793930 0.002823 -0.000167
    21 0.031729 -1.160831 0.058836 -0.335973 0.000642 0.008372
    22 -0.963866 -2.785142 -0.085346 -0.609796 0.267585 0.317863
    23 0.028479 -1.403068 0.006271 -1.150412 0.000000 0.000000
    24 0.021413 -0.957782 0.020047 -0.616019 0.000000 0.000000
    25 1.164474 -2.543938 -0.170328 -0.983966 0.070580 0.675853
    26 0.024032 -1.129043 0.017806 -1.337944 0.000000 0.000001
    27 0.014896 -0.883989 -0.019845 -0.672931 0.000000 0.000000
    28 -0.586770 -1.264475 0.200164 -0.186364 -1.053830 -3.148928
    29 1.522835 0.058681 0.016850 0.035029 0.111357 0.871431
    30 1.117948 0.048424 -0.005764 -0.015320 -0.019661 0.717991
    31 -0.057365 -0.119510 0.041742 0.574644 0.064105 1.500021
    32 -0.488517 -2.755600 -0.228261 -0.619222 -0.044186 -0.439117
    33 0.039888 -1.479789 0.029853 -2.158258 0.000000 0.000000
    34 0.028785 -1.075730 -0.023111 -0.647509 0.000000 0.000000
    35 0.250028 -2.820663 -0.238396 -0.535674 0.054413 -0.329163
    36 -0.049759 -1.680545 0.100480 -1.871489 0.000000 -0.000002
    37 -0.034141 -1.148312 0.084779 -1.387518 0.000000 0.000000
    38 0.957766 -2.746776 -0.090301 0.225143 -0.058359 -0.193630
    39 -0.033419 -1.397129 -0.011255 -0.184014 -0.032275 -0.008534
    40 -0.022361 -0.957434 0.018783 0.003845 0.000000 0.000000
    41 -1.180680 -2.507215 -0.193861 -0.379706 0.103261 -0.518998
    42 -0.024966 -1.123934 0.017594 -2.136747 0.000000 0.000001
    43 -0.020057 -0.890966 0.010091 -0.896554 0.000000 0.000000
    44 0.583510 -1.197274 0.185377 0.220453 -0.870283 -0.672925
    45 1.535926 0.010245 0.005008 -0.063786 0.310988 -1.032101
    46 1.100770 0.004526 -0.010676 -0.009999 0.012761 -0.488483
    47 0.006867 -0.065891 -0.085739 -2.852831 -0.015617 -1.424341
  time 24
    0 10.549371 -2.829804 -11.308932 4.178586 -0.770311 -4.800855
    1 -0.071918 -8.498731 -0.104137 0.317460 0.470595 -0.640832
    2 1.665510 -2.904478 0.631343 -0.234326 0.084943 -3.486601
    3 0.037088 1.836796 0.000000 0.000000 0.000000 0.679463
    4 -1.699721 2.222293 0.000421 0.000000 0.000000 -1.282538
    5 -5.655031 16.263659 1.047437 0.005898 -1.121418 -1.279905
    6 7.696722 0.021893 -0.405259 -0.001707 0.561568 -0.000383
    7 6.499035 0.037860 -0.093995 -1.570617 1.505568 -3.138681
    8 -5.655030 16.263657 -1.043029 3.135696 1.121416 -1.279904
    9 7.721393 -0.021960 -0.393362 0.001706 0.561568 0.000382
    10 6.490693 -0.037835 -0.107306 1.570613 1.505565 3.138681
    11 -0.489117 10.226307 1.194557 0.000000 0.000000 -1.282132
    12 1.189389 -0.918512 -1.194556 0.000000 0.000000 0.003685
    13 -2.647894 8.542626 -0.000005 0.000000 0.000000 -1.274576
    14 -0.726382 -15.457068 -14.470910 -1.156622 -5.590453 -0.110758
    15 0.096944 -8.450419 -0.009364 -0.005970 -0.540417 0.157854
    16 0.447952 -2.798982 -0.200442 -1.014489 0.150910 0.644051
    17 -0.032910 -1.480206 0.004936 -1.431586 0.000000 0.000002
    18 -0.027022 -1.076919 -0.020212 -0.473979 0.000000 0.000000
    19 -0.249534 -2.846962 -0.174215 -0.473080 0.210085 0.362128
    20 0.043235 -1.683939 0.096014 -1.793930 0.002823 -0.000167
    21 0.031729 -1.160831 0.058836 -0.335973 0.000642 0.008372
    22 -0.963866 -2.785142 -0.085346 -0.609796 0.267585 0.317863
    23 0.028479 -1.403068 0.006271 -1.150412 0.000000 0.000000
    24 0.021413 -0.957782 0.020047 -0.616019 0.000000 0.000000
    25 1.164474 -2.543938 -0.170328 -0.983966 0.070580 0.675853
    26 0.024032 -1.129043 0.017806 -1.337944 0.000000 0.000001
    27 0.014896 -0.883989 -0.019845 -0.672931 0.000000 0.000000
    28 -0.586770 -1.264475 0.200164 -0.186364 -1.053830 -3.148928
    29 1.522835 0.058681 0.016850 0.035029 0.111357 0.871431
    30 1.117948 0.048424 -0.005764 -0.015320 -0.019661 0.717991
    31 -0.057365 -0.119510 0.041742 0.574644 0.064105 1.500021
    32 -0.488517 -2.755600 -0.228261 -0.619222 -0.044186 -0.439117
    33 0.039888 -1.479789 0.029853 -2.158258 0.000000 0.000000
    34 0.028785 -1.075730 -0.023111 -0.647509 0.000000 0.000000
    35 0.250028 -2.820663 -0.238396 -0.535674 0.054413 -0.329163
    36 -0.049759 -1.680545 0.100480 -1.871489 0.000000 -0.000002
    37 -0.034141 -1.148312 0.084779 -1.387518 0.000000 0.000000
    38 0.957766 -2.746776 -0.090301 0.225143 -0.058359 -0.193630
    39 -0.033419 -1.397129 -0.011255 -0.184014 -0.032275 -0.008534
    40 -0.022361 -0.957434 0.018783 0.003845 0.000000 0.000000
    41 -1.180680 -2.507215 -0.193861 -0.379706 0.103261 -0.518998
    42 -0.024966 -1.123934 0.017594 -2.136747 0.000000 0.000001
    43 -0.020057 -0.890966 0.010091 -0.896554 0.000000 0.000000
    44 0.583510 -1.197274 0.185377 0.220453 -0.870283 -0.672925
    45 1.535926 0.010245 0.005008 -0.063786 0.310988 -1.032101
    46 1.100770 0.004526 -0.010676 -0.009999 0.012761 -0.488483
    47 0.006867 -0.065891 -0.085739 -2.852831 -0.015617 -1.424341
  time 25
    0 10.549371 -2.829804 -11.308932 4.178586 -0.770311 -4.800855
    1 -0.071918 -8.498731 -0.104137 0.317460 0.470595 -0.640832
    2 1.665510 -2.904478 0.631343 -0.234326 0.084943 -3.486601
    3 0.037088 1.836796 0.000000 0.000000 0.000000 0.679463
    4 -1.699721 2.222293 0.000421 0.000000 0.000000 -1.282538
    5 -5.655031 16.263659 1.047437 0.005898 -1.121418 -1.279905
    6 7.696722 0.021893 -0.405259 -0.001707 0.561568 -0.000383
    7 6.499035 0.037860 -0.093995 -1.570617 1.505568 -3.138681
    8 -5.655030 16.263657 -1.043029 3.135696 1.121416 -1.279904
    9 7.721393 -0.021960 -0.393362 0.001706 0.561568 0.000382
    10 6.490693 -0.037835 -0.107306 1.570613 1.505565 3.138681
    11 -0.489117 10.226307 1.194557 0.000000 0.000000 -1.282132
    12 1.189389 -0.918512 -1.194556 0.000000 0.000000 0.003685
    13 -2.647894 8.542626 -0.000005 0.000000 0.000000 -1.274576
    14 -0.726382 -15.457068 -14.470910 -1.156622 -5.590453 -0.110758
    15 0.096944 -8.450419 -0.009364 -0.005970 -0.540417 0.157854
    16 0.447952 -2.798982 -0.200442 -1.014489 0.150910 0.644051
    17 -0.032910 -1.480206 0.004936 -1.431586 0.000000 0.000002
    18 -0.027022 -1.076919 -0.020212 -0.473979 0.000000 0.000000
    19 -0.249534 -2.846962 -0.174215 -0.473080 0.210085 0.362128
    20 0.043235 -1.683939 0.096014 -1.793930 0.002823 -0.000167
    21 0.031729 -1.160831 0.058836 -0.335973 0.000642 0.008372
    22 -0.963866 -2.785142 -0.085346 -0.609796 0.267585 0.317863
    23 0.028479 -1.403068 0.006271 -1.150412 0.000000 0.000000
    24 0.021413 -0.957782 0.020047 -0.616019 0.000000 0.000000
    25 1.164474 -2.543938 -0.170328 -0.983966 0.070580 0.675853
    26 0.024032 -1.129043 0.017806 -1.337944 0.000000 0.000001
    27 0.014896 -0.883989 -0.019845 -0.672931 0.000000 0.000000
    28 -0.586770 -1.264475 0.200164 -0.186364 -1.053830 -3.148928
    29 1.522835 0.058681 0.016850 0.035029 0.111357 0.871431
    30 1.117948 0.048424 -0.005764 -0.015320 -0.019661 0.717991
    31 -0.057365 -0.119510 0.041742 0.574644 0.064105 1.500021
    32 -0.488517 -2.755600 -0.228261 -0.619222 -0.044186 -0.439117
    33 0.039888 -1.479789 0.029853 -2.158258 0.000000 0.000000
    34 0.028785 -1.075730 -0.023111 -0.647509 0.000000 0.000000
    35 0.250028 -2.820663 -0.238396 -0.535674 0.054413 -0.329163
    36 -0.049759 -1.680545 0.100480 -1.871489 0.000000 -0.000002
    37 -0.034141 -1.148312 0.084779 -1.387518 0.000000 0.000000
    38 0.957766 -2.746776 -0.090301 0.225143 -0.058359 -0.193630
    39 -0.033419 -1.397129 -0.011255 -0.184014 -0.032275 -0.008534
    40 -0.022361 -0.957434 0.018783 0.003845 0.000000 0.000000
    41 -1.180680 -2.507215 -0.193861 -0.379706 0.103261 -0.518998
    42 -0.024966 -1.123934 0.017594 -2.136747 0.000000 0.000001
    43 -0.020057 -0.890966 0.010091 -0.896554 0.000000 0.000000
    44 0.583510 -1.197274 0.185377 0.220453 -0.870283 -0.672925
    45 1.535926 0.010245 0.005008 -0.063786 0.310988 -1.032101
    46 1.100770 0.004526 -0.010676 -0.009999 0.012761 -0.488483
    47 0.006867 -0.065891 -0.085739 -2.852831 -0.015617 -1.424341
  time 26
    0 10.549371 -2.829804 -11.308932 4.178586 -0.770311 -4.800855
    1 -0.071918 -8.498731 -0.104137 0.317460 0.470595 -0.640832
    2 1.665510 -2.904478 0.631343 -0.234326 0.084943 -3.486601
    3 0.037088 1.836796 0.000000 0.000000 0.000000 0.679463
    4 -1.699721 2.222293 0.000421 0.000000 0.000000 -1.282538
    5 -5.655031 16.263659 1.047437 0.005898 -1.121418 -1.279905
    6 7.696722 0.021893 -0.405259 -0.001707 0.561568 -0.000383
    7 6.499035 0.037860 -0.093995 -1.570617 1.505568 -3.138681
    8 -5.655030 16.263657 -1.043029 3.135696 1.121416 -1.279904
    9 7.721393 -0.021960 -0.393362 0.001706 0.561568 0.000382
    10 6.490693 -0.037835 -0.107306 1.570613 1.505565 3.138681
    11 -0.489117 10.226307 1.194557 0.000000 0.000000 -1.282132
    12 1.189389 -0.918512 -1.194556 0.000000 0.000000 0.003685
    13 -2.647894 8.542626 -0.000005 0.000000 0.000000 -1.274576
    14 -0.726382 -15.457068 -14.470910 -1.156622 -5.590453 -0.110758
    15 0.096944 -8.450419 -0.009364 -0.005970 -0.540417 0.157854
    16 0.447952 -2.798982 -0.200442 -1.014489 0.150910 0.644051
    17 -0.032910 -1.480206 0.004936 -1.431586 0.000000 0.000002
    18 -0.027022 -1.076919 -0.020212 -0.473979 0.000000 0.000000
    19 -0.249534 -2.846962 -0.174215 -0.473080 0.210085 0.362128
    20 0.043235 -1.683939 0.096014 -1.793930 0.002823 -0.000167
    21 0.031729 -1.160831 0.058836 -0.335973 0.000642 0.008372
    22 -0.963866 -2.785142 -0.085346 -0.609796 0.267585 0.317863
    23 0.028479 -1.403068 0.006271 -1.150412 0.000000 0.000000
    24 0.021413 -0.957782 0.020047 -0.616019 0.000000 0.000000
    25 1.164474 -2.543938 -0.170328 -0.983966 0.070580 0.675853
    26 0.024032 -1.129043 0.017806 -1.337944 0.000000 0.000001
    27 0.014896 -0.883989 -0.019845 -0.672931 0.000000 0.000000
    28 -0.586770 -1.264475 0.200164 -0.186364 -1.053830 -3.148928
    29 1.522835 0.058681 0.016850 0.035029 0.111357 0.871431
    30 1.117948 0.048424 -0.005764 -0.015320 -0.019661 0.717991
    31 -0.057365 -0.119510 0.041742 0.574644 0.064105 1.500021
    32 -0.488517 -2.755600 -0.228261 -0.619222 -0.044186 -0.439117
    33 0.039888 -1.479789 0.029853 -2.158258 0.000000 0.000000
    34 0.028785 -1.075730 -0.023111 -0.647509 0.000000 0.000000
    35 0.250028 -2.820663 -0.238396 -0.535674 0.054413 -0.329163
    36 -0.049759 -1.680545 0.100480 -1.871489 0.000000 -0.000002
    37 -0.034141 -1.148312 0.084779 -1.387518 0.000000 0.000000
    38 0.957766 -2.746776 -0.090301 0.225143 -0.058359 -0.193630
    39 -0.033419 -1.397129 -0.011255 -0.184014 -0.032275 -0.008534
    40 -0.022361 -0.957434 0.018783 0.003845 0.000000 0.000000
    41 -1.180680 -2.507215 -0.193861 -0.379706 0.103261 -0.518998
    42 -0.024966 -1.123934 0.017594 -2.136747 0.000000 0.000001
    43 -0.020057 -0.890966 0.010091 -0.896554 0.000000 0.000000
    44 0.583510 -1.197274 0.185377 0.220453 -0.870283 -0.672925
    45 1.535926 0.010245 0.005008 -0.063786 0.310988 -1.032101
    46 1.100770 0.004526 -0.010676 -0.009999 0.012761 -0.488483
    47 0.006867 -0.065891 -0.085739 -2.852831 -0.015617 -1.424341
  time 27
    0 10.549371 -2.829804 -11.308932 4.178586 -0.770311 -4.800855
    1 -0.071918 -8.498731 -0.104137 0.317460 0.470595 -0.640832
    2 1.665510 -2.904478 0.631343 -0.234326 0.084943 -3.486601
    3 0.037088 1.836796 0.000000 0.000000 0.000000 0.679463
    4 -1.699721 2.222293 0.000421 0.000000 0.000000 -1.282538
    5 -5.655031 16.263659 1.047437 0.005898 -1.121418 -1.279905
    6 7.696722 0.021893 -0.405259 -0.001707 0.561568 -0.000383
    7 6.499035 0.037860 -0.093995 -1.570617 1.505568 -3.138681
    8 -5.655030 16.263657 -1.043029 3.135696 1.121416 -1.279904
    9 7.721393 -0.021960 -0.393362 0.001706 0.561568 0.000382
    10 6.490693 -0.037835 -0.107306 1.570613 1.505565 3.138681
    11 -0.489117 10.226307 1.194557 0.000000 0.000000 -1.282132
    12 1.189389 -0.918512 -1.194556 0.000000 0.000000 0.003685
    13 -2.647894 8.542626 -0.000005 0.000000 0.000000 -1.274576
    14 -0.726382 -15.457068 -14.470910 -1.156622 -5.590453 -0.110758
    15 0.096944 -8.450419 -0.009364 -0.005970 -0.540417 0.157854
    16 0.447952 -2.798982 -0.200442 -1.014489 0.150910 0.644051
    17 -0.032910 -1.480206 0.004936 -1.431586 0.000000 0.000002
    18 -0.027022 -1.076919 -0.020212 -0.473979 0.000000 0.000000
    19 -0.249534 -2.846962 -0.174215 -0.473080 0.210085 0.362128
    20 0.043235 -1.683939 0.096014 -1.793930 0.002823 -0.000167
    21 0.031729 -1.160831 0.058836 -0.335973 0.000642 0.008372
    22 -0.963866 -2.785142 -0.085346 -0.609796 0.267585 0.317863
    23 0.028479 -1.403068 0.006271 -1.150412 0.000000 0.000000
    24 0.021413 -0.957782 0.020047 -0.616019 0.000000 0.000000
    25 1.164474 -2.543938 -0.170328 -0.983966 0.070580 0.675853
    26 0.024032 -1.129043 0.017806 -1.337944 0.000000 0.000001
    27 0.014896 -0.883989 -0.019845 -0.672931 0.000000 0.000000
    28 -0.586770 -1.264475 0.200164 -0.186364 -1.053830 -3.148928
    29 1.522835 0.058681 0.016850 0.035029 0.111357 0.871431
    30 1.117948 0.048424 -0.005764 -0.015320 -0.019661 0.717991
    31 -0.057365 -0.119510 0.041742 0.574644 0.064105 1.500021
    32 -0.488517 -2.755600 -0.228261 -0.619222 -0.044186 -0.439117
    33 0.039888 -1.479789 0.029853 -2.158258 0.000000 0.000000
    34 0.028785 -1.075730 -0.023111 -0.647509 0.000000 0.000000
    35 0.250028 -2.820663 -0.238396 -0.535674 0.054413 -0.329163
    36 -0.049759 -1.680545 0.100480 -1.871489 0.000000 -0.000002
    37 -0.034141 -1.148312 0.084779 -1.387518 0.000000 0.000000
    38 0.957766 -2.746776 -0.090301 0.225143 -0.058359 -0.193630
    39 -0.033419 -1.397129 -0.011255 -0.184014 -0.032275 -0.008534
    40 -0.022361 -0.957434 0.018783 0.003845 0.000000 0.000000
    41 -1.180680 -2.507215 -0.193861 -0.379706 0.103261 -0.518998
    42 -0.024966 -1.123934 0.017594 -2.136747 0.000000 0.000001
    43 -0.020057 -0.890966 0.010091 -0.896554 0.000000 0.000000
    44 0.583510 -1.197274 0.185377 0.220453 -0.870283 -0.672925
    45 1.535926 0.010245 0.005008 -0.063786 0.310988 -1.032101
    46 1.100770 0.004526 -0.010676 -0.009999 0.012761 -0.488483
    47 0.006867 -0.065891 -0.085739 -2.852831 -0.015617 -1.424341
  time 28
    0 10.549371 -2.829804 -11.308932 4.178586 -0.770311 -4.800855
    1 -0.071918 -8.498731 -0.104137 0.317460 0.470595 -0.640832
    2 1.665510 -2.904478 0.631343 -0.234326 0.084943 -3.486601
    3 0.037088 1.836796 0.000000 0.000000 0.000000 0.679463
    4 -1.699721 2.222293 0.000421 0.000000 0.000000 -1.282538
    5 -5.655031 16.263659 1.047437 0.005898 -1.121418 -1.279905
    6 7.696722 0.021893 -0.405259 -0.001707 0.561568 -0.000383
    7 6.499035 0.037860 -0.093995 -1.570617 1.505568 -3.138681
    8 -5.655030 16.263657 -1.043029 3.135696 1.121416 -1.279904
    9 7.721393 -0.021960 -0.393362 0.001706 0.561568 0.000382
    10 6.490693 -0.037835 -0.107306 1.570613 1.505565 3.138681
    11 -0.489117 10.226307 1.194557 0.000000 0.000000 -1.282132
    12 1.189389 -0.918512 -1.194556 0.000000 0.000000 0.003685
    13 -2.647894 8.542626 -0.000005 0.000000 0.000000 -1.274576
    14 -0.726382 -15.457068 -14.470910 -1.156622 -5.590453 -0.110758
    15 0.096944 -8.450419 -0.009364 -0.005970 -0.540417 0.157854
    16 0.447952 -2.798982 -0.200442 -1.014489 0.150910 0.644051
    17 -0.032910 -1.480206 0.004936 -1.431586 0.000000 0.000002
    18 -0.027022 -1.076919 -0.020212 -0.473979 0.000000 0.000000
    19 -0.249534 -2.846962 -0.174215 -0.473080 0.210085 0.362128
    20 0.043235 -1.683939 0.096014 -1.793930 0.002823 -0.000167
    21 0.031729 -1.160831 0.058836 -0.335973 0.000642 0.008372
    22 -0.963866 -2.785142 -0.085346 -0.609796 0.267585 0.317863
    23 0.028479 -1.403068 0.006271 -1.150412 0.000000 0.000000
    24 0.021413 -0.957782 0.020047 -0.616019 0.000000 0.000000
    25 1.164474 -2.543938 -0.170328 -0.983966 0.070580 0.675853
    26 0.024032 -1.129043 0.017806 -1.337944 0.000000 0.000001
    27 0.014896 -0.883989 -0.019845 -0.672931 0.000000 0.000000
    28 -0.586770 -1.264475 0.200164 -0.186364 -1.053830 -3.148928
    29 1.522835 0.058681 0.016850 0.035029 0.111357 0.871431
    30 1.117948 0.048424 -0.005764 -0.015320 -0.019661 0.717991
    31 -0.057365 -0.119510 0.041742 0.574644 0.064105 1.500021
    32 -0.488517 -2.755600 -0.228261 -0.619222 -0.044186 -0.439117
    33 0.039888 -1.479789 0.029853 -2.158258 0.000000 0.000000
    34 0.028785 -1.075730 -0.023111 -0.647509 0.000000 0.000000
    35 0.250028 -2.820663 -0.238396 -0.535674 0.054413 -0.329163
    36 -0.049759 -1.680545 0.100480 -1.871489 0.000000 -0.000002
    37 -0.034141 -1.148312 0.084779 -1.387518 0.000000 0.000000
    38 0.957766 -2.746776 -0.090301 0.225143 -0.058359 -0.193630
    39 -0.033419 -1.397129 -0.011255 -0.184014 -0.032275 -0.008534
    40 -0.022361 -0.957434 0.018783 0.003845 0.000000 0.000000
    41 -1.180680 -2.507215 -0.193861 -0.379706 0.103261 -0.518998
    42 -0.024966 -1.123934 0.017594 -2.136747 0.000000 0.000001
    43 -0.020057 -0.890966 0.010091 -0.896554 0.000000 0.000000
    44 0.583510 -1.197274 0.185377 0.220453 -0.870283 -0.672925
    45 1.535926 0.010245 0.005008 -0.063786 0.310988 -1.032101
    46 1.100770 0.004526 -0.010676 -0.009999 0.012761 -0.488483
    47 0.006867 -0.065891 -0.085739 -2.852831 -0.015617 -1.424341
  time 29
    0 10.549371 -2.829804 -11.308932 4.178586 -0.770311 -4.800855
    1 -0.071918 -8.498731 -0.104137 0.317460 0.470595 -0.640832
    2 1.665510 -2.904478 0.631343 -0.234326 0.084943 -3.486601
    3 0.037088 1.836796 0.000000 0.000000 0.000000 0.679463
    4 -1.699721 2.222293 0.000421 0.000000 0.000000 -1.282538
    5 -5.655031 16.263659 1.047437 0.005898 -1.121418 -1.279905
    6 7.696722 0.021893 -0.405259 -0.001707 0.561568 -0.000383
    7 6.499035 0.037860 -0.093995 -1.570617 1.505568 -3.138681
    8 -5.655030 16.263657 -1.043029 3.135696 1.121416 -1.279904
    9 7.721393 -0.021960 -0.393362 0.001706 0.561568 0.000382
    10 6.490693 -0.037835 -0.107306 1.570613 1.505565 3.138681
    11 -0.489117 10.226307 1.194557 0.000000 0.000000 -1.282132
    12 1.189389 -0.918512 -1.194556 0.000000 0.000000 0.003685
    13 -2.647894 8.542626 -0.000005 0.000000 0.000000 -1.274576
    14 -0.726382 -15.457068 -14.470910 -1.156622 -5.590453 -0.110758
    15 0.096944 -8.450419 -0.009364 -0.005970 -0.540417 0.157854
    16 0.447952 -2.798982 -0.200442 -1.014489 0.150910 0.644051
    17 -0.032910 -1.480206 0.004936 -1.431586 0.000000 0.000002
    18 -0.027022 -1.076919 -0.020212 -0.473979 0.000000 0.000000
    19 -0.249534 -2.846962 -0.174215 -0.473080 0.210085 0.362128
    20 0.043235 -1.683939 0.096014 -1.793930 0.002823 -0.000167
    21 0.031729 -1.160831 0.058836 -0.335973 0.000642 0.008372
    22 -0.963866 -2.785142 -0.085346 -0.609796 0.267585 0.317863
    23 0.028479 -1.403068 0.006271 -1.150412 0.000000 0.000000
    24 0.021413 -0.957782 0.020047 -0.616019 0.000000 0.000000
    25 1.164474 -2.543938 -0.170328 -0.983966 0.070580 0.675853
    26 0.024032 -1.129043 0.017806 -1.337944 0.000000 0.000001
    27 0.014896 -0.883989 -0.019845 -0.672931 0.000000 0.000000
    28 -0.586770 -1.264475 0.200164 -0.186364 -1.053830 -3.148928
    29 1.522835 0.058681 0.016850 0.035029 0.111357 0.871431
    30 1.117948 0.048424 -0.005764 -0.015320 -0.019661 0.717991
    31 -0.057365 -0.119510 0.041742 0.574644 0.064105 1.500021
    32 -0.488517 -2.755600 -0.228261 -0.619222 -0.044186 -0.439117
    33 0.039888 -1.479789 0.029853 -2.158258 0.000000 0.000000
    34 0.028785 -1.075730 -0.023111 -0.647509 0.000000 0.000000
    35 0.250028 -2.820663 -0.238396 -0.535674 0.054413 -0.329163
    36 -0.049759 -1.680545 0.100480 -1.871489 0.000000 -0.000002
    37 -0.034141 -1.148312 0.084779 -1.387518 0.000000 0.000000
    38 0.957766 -2.746776 -0.090301 0.225143 -0.058359 -0.193630
    39 -0.033419 -1.397129 -0.011255 -0.184014 -0.032275 -0.008534
    40 -0.022361 -0.957434 0.018783 0.003845 0.000000 0.000000
    41 -1.180680 -2.507215 -0.193861 -0.379706 0.103261 -0.518998
    42 -0.024966 -1.123934 0.017594 -2.136747 0.000000 0.000001
    43 -0.020057 -0.890966 0.010091 -0.896554 0.000000 0.000000
    44 0.583510 -1.197274 0.185377 0.220453 -0.870283 -0.672925
    45 1.535926 0.010245 0.005008 -0.063786 0.310988 -1.032101
    46 1.100770 0.004526 -0.010676 -0.009999 0.012761 -0.488483
    47 0.006867 -0.065891 -0.085739 -2.852831 -0.015617 -1.424341
  time 30
    0 10.549371 -2.829804 -11.308932 4.178586 -0.770311 -4.800855
    1 -0.071918 -8.498731 -0.104137 0.317460 0.470595 -0.640832
    2 1.665510 -2.904478 0.631343 -0.234326 0.084943 -3.486601
    3 0.037088 1.836796 0.000000 0.000000 0.000000 0.679463
    4 -1.699721 2.222293 0.000421 0.000000 0.000000 -1.282538
    5 -5.655031 16.263659 1.047437 0.005898 -1.121418 -1.279905
    6 7.696722 0.021893 -0.405259 -0.001707 0.561568 -0.000383
    7 6.499035 0.037860 -0.093995 -1.570617 1.505568 -3.138681
    8 -5.655030 16.263657 -1.043029 3.135696 1.121416 -1.279904
    9 7.721393 -0.021960 -0.393362 0.001706 0.561568 0.000382
    10 6.490693 -0.037835 -0.107306 1.570613 1.505565 3.138681
    11 -0.489117 10.226307 1.194557 0.000000 0.000000 -1.282132
    12 1.189389 -0.918512 -1.194556 0.000000 0.000000 0.003685
    13 -2.647894 8.542626 -0.000005 0.000000 0.000000 -1.274576
    14 -0.726382 -15.457068 -14.470910 -1.156622 -5.590453 -0.110758
    15 0.096944 -8.450419 -0.009364 -0.005970 -0.540417 0.157854
    16 0.447952 -2.798982 -0.200442 -1.014489 0.150910 0.644051
    17 -0.032910 -1.480206 0.004936 -1.431586 0.000000 0.000002
    18 -0.027022 -1.076919 -0.020212 -0.473979 0.000000 0.000000
    19 -0.249534 -2.846962 -0.174215 -0.473080 0.210085 0.362128
    20 0.043235 -1.683939 0.096014 -1.793930 0.002823 -0.000167
    21 0.031729 -1.160831 0.058836 -0.335973 0.000642 0.008372
    22 -0.963866 -2.785142 -0.085346 -0.609796 0.267585 0.317863
    23 0.028479 -1.403068 0.006271 -1.150412 0.000000 0.000000
    24 0.021413 -0.957782 0.020047 -0.616019 0.000000 0.000000
    25 1.164474 -2.543938 -0.170328 -0.983966 0.070580 0.675853
    26 0.024032 -1.129043 0.017806 -1.337944 0.000000 0.000001
    27 0.014896 -0.883989 -0.019845 -0.672931 0.000000 0.000000
    28 -0.586770 -1.264475 0.200164 -0.186364 -1.053830 -3.148928
    29 1.522835 0.058681 0.016850 0.035029 0.111357 0.871431
    30 1.117948 0.048424 -0.005764 -0.015320 -0.019661 0.717991
    31 -0.057365 -0.119510 0.041742 0.574644 0.064105 1.500021
    32 -0.488517 -2.755600 -0.228261 -0.619222 -0.044186 -0.439117
    33 0.039888 -1.479789 0.029853 -2.158258 0.000000 0.000000
    34 0.028785 -1.075730 -0.023111 -0.647509 0.000000 0.000000
    35 0.250028 -2.820663 -0.238396 -0.535674 0.054413 -0.329163
    36 -0.049759 -1.680545 0.100480 -1.871489 0.000000 -0.000002
    37 -0.034141 -1.148312 0.084779 -1.387518 0.000000 0.000000
    38 0.957766 -2.746776 -0.090301 0.225143 -0.058359 -0.193630
    39 -0.033419 -1.397129 -0.011255 -0.184014 -0.032275 -0.008534
    40 -0.022361 -0.957434 0.018783 0.003845 0.000000 0.000000
    41 -1.180680 -2.507215 -0.193861 -0.379706 0.103261 -0.518998
    42 -0.024966 -1.123934 0.017594 -2.136747 0.000000 0.000001
    43 -0.020057 -0.890966 0.010091 -0.896554 0.000000 0.000000
    44 0.583510 -1.197274 0.185377 0.220453 -0.870283 -0.672925
    45 1.535926 0.010245 0.005008 -0.063786 0.310988 -1.032101
    46 1.100770 0.004526 -0.010676 -0.009999 0.012761 -0.488483
    47 0.006867 -0.065891 -0.085739 -2.852831 -0.015617 -1.424341
end
