version 1
nodes
  0 "root" -1
  1 "Bone01" 0
  2 "Bone_L_Upper" 1
  3 "Bone_Lefthand" 1
  4 "Bone13" 3
  5 "Bone14" 4
  6 "Bone15" 5
  7 "Bone17" 3
  8 "Bone18" 7
  9 "Bone19" 8
  10 "Bone21" 3
  11 "Bone22" 10
  12 "Bone23" 11
  13 "Bone09" 3
  14 "Bone10" 13
  15 "Bone11" 14
  16 "Bone05" 3
  17 "Bone06" 16
  18 "Bone07" 17
  19 "Bone_Se_Hand-L" 3
  20 "Bone04" 0
  21 "Bone_Righthand" 20
  22 "Bone39" 21
  23 "Bone40" 22
  24 "Bone41" 23
  25 "Bone35" 21
  26 "Bone36" 25
  27 "Bone37" 26
  28 "Bone31" 21
  29 "Bone32" 28
  30 "Bone33" 29
  31 "Bone43" 21
  32 "Bone44" 31
  33 "Bone45" 32
  34 "Bone27" 21
  35 "Bone28" 34
  36 "Bone29" 35
  37 "Bone_Se_Hand-R" 21
  38 "Bone_R_Upper" 20
  39 "chainsaw_root" 3
  40 "chainsaw_diviner" 39
  41 "chainsaw_rope01" 40
  42 "chainsaw_rope02" 41
  43 "chainsaw_rope03" 42
  44 "chainsaw_chain_bottom" 39
  45 "chainsaw_chain_top" 39
  46 "chainsaw_chain00" 45
  47 "chainsaw_rope04" 39
  48 "chainsaw_chain04" 39
  49 "chainsaw_chain01" 39
  50 "chainsaw_chain02" 39
  51 "chainsaw_chain03" 39
  52 "chainsaw_chain08" 39
  53 "chainsaw_chain05" 39
  54 "chainsaw_chain06" 39
  55 "chainsaw_chain07" 39
end
skeleton
  time 0
    0 -0.127756 -9.876566 -7.519142 -0.150172 1.072668 0.344879
    1 9.958561 2.895949 8.450495 6.160421 -2.640523 -0.710275
    2 1.257180 8.762585 -0.153713 -1.570562 0.002683 -1.566807
    3 -0.071921 -8.498736 -0.104134 -0.824722 0.655783 -0.854339
    4 -0.488518 -2.755602 -0.228260 -0.874984 0.016588 -0.071802
    5 0.039887 -1.479790 0.029854 -1.691461 0.039501 0.003309
    6 0.028786 -1.075731 -0.023109 -0.648244 0.000000 0.000000
    7 0.250027 -2.820665 -0.238396 -0.863717 -0.002921 0.008443
    8 -0.049759 -1.680544 0.100479 -1.633952 0.000000 -0.000002
    9 -0.034142 -1.148312 0.084782 -0.802483 0.000000 0.000000
    10 0.957766 -2.746780 -0.090302 -0.624278 -0.102438 0.132186
    11 -0.033420 -1.397129 -0.011257 -1.295916 0.000000 -0.000001
    12 -0.022360 -0.957436 0.018784 -0.874776 0.000000 0.000000
    13 -1.165056 -2.643940 0.044430 -0.549476 0.198815 -0.091100
    14 -0.024967 -1.123934 0.017597 -1.623924 0.000000 0.000001
    15 -0.020057 -0.890968 0.010090 -0.728844 0.000000 0.000000
    16 0.583510 -1.197277 0.185379 -0.052102 -1.189669 -0.675037
    17 1.535927 0.010246 0.005009 0.104082 0.235093 -0.755843
    18 1.100771 0.004527 -0.010679 -0.423178 -0.515407 -1.256662
    19 -0.016570 -0.085427 -0.042770 -2.519096 0.130082 -1.215060
    20 -2.684905 0.690796 -3.856870 1.500629 -4.096261 1.013347
    21 0.096944 -8.450418 -0.009365 0.019921 -0.513146 -0.023718
    22 0.447953 -2.798986 -0.200443 -1.208615 0.224166 0.273004
    23 -0.032909 -1.480204 0.004940 -1.668020 0.000000 0.000002
    24 -0.027022 -1.076920 -0.020210 -1.321794 0.000000 0.000000
    25 -0.249534 -2.846964 -0.174213 -1.029784 0.203062 0.157890
    26 0.043235 -1.683941 0.096012 -1.852447 0.002823 -0.000167
    27 0.031729 -1.160830 0.058838 -1.143837 0.000642 0.008372
    28 -0.963866 -2.785145 -0.085350 -0.684261 0.358320 0.011787
    29 0.028479 -1.403067 0.006271 -1.707337 0.000000 0.000000
    30 0.021413 -0.957781 0.020046 -0.759281 0.000000 0.000000
    31 1.090254 -2.375966 0.075771 -1.018939 0.002358 0.424979
    32 0.024032 -1.129042 0.017807 -1.753582 0.000000 0.000001
    33 0.014898 -0.883989 -0.019848 -0.880952 0.000000 0.000000
    34 -0.586770 -1.264477 0.200161 -0.378752 -1.128549 -2.437240
    35 1.655652 0.261812 0.036380 0.126397 -0.305179 1.069144
    36 1.117947 0.048424 -0.005766 -0.008405 -0.060493 1.219762
    37 -0.119867 -0.158574 0.037835 0.285382 -0.036576 1.371077
    38 -3.780262 8.053997 -0.258965 1.578347 -0.008267 -1.200337
    39 1.449081 -1.117134 1.509074 -0.263634 0.120123 -2.904175
    40 4.594990 7.785654 3.872275 -0.000001 0.000000 -2.696508
    41 -0.389066 -0.003800 0.000000 0.000001 0.000000 0.023980
    42 -0.350265 0.005619 0.000000 0.000000 0.000000 -0.010007
    43 -0.341040 0.002085 0.000000 0.000001 0.000000 -0.001544
    44 2.661497 23.114220 -1.230783 0.000000 0.000000 -1.250625
    45 0.334484 17.943974 -1.230783 0.000000 0.000000 1.890968
    46 11.169169 -0.192357 -0.011297 0.000000 0.000000 1.565115
    47 5.797596 8.373769 3.872275 0.000000 0.000000 -2.675408
    48 -2.581527 31.592813 -1.242079 0.000000 0.000000 2.124711
    49 -3.143922 29.152092 -1.242079 0.000000 0.000000 -2.903876
    50 -3.330981 30.178059 -1.242079 0.000000 0.000000 -3.093568
    51 -3.162554 30.997158 -1.242079 0.000000 0.000000 2.630754
    52 -0.017782 30.171263 -1.242080 0.000000 0.000000 0.409926
    53 -1.874652 31.813976 -1.242079 0.000000 0.000000 1.657224
    54 -1.136277 31.689322 -1.242079 0.000000 0.000000 1.105571
    55 -0.494656 31.127480 -1.242079 0.000001 0.000000 0.600469
  time 1
    0 -0.127756 -10.360956 -7.519142 -0.068657 1.076785 0.417701
    1 9.958561 2.895949 8.450495 6.160421 -2.640523 -0.710275
    2 1.257180 8.762585 -0.153713 -1.570562 0.002683 -1.566807
    3 -0.071921 -8.498736 -0.104134 -0.800053 0.631041 -0.836853
    4 -0.488518 -2.755602 -0.228260 -0.874984 0.016588 -0.071802
    5 0.039887 -1.479790 0.029854 -1.691461 0.039501 0.003309
    6 0.028786 -1.075731 -0.023109 -0.648244 0.000000 0.000000
    7 0.250027 -2.820665 -0.238396 -0.863717 -0.002921 0.008443
    8 -0.049759 -1.680544 0.100479 -1.633952 0.000000 -0.000002
    9 -0.034142 -1.148312 0.084782 -0.802506 0.000000 0.000000
    10 0.957766 -2.746780 -0.090302 -0.624278 -0.102438 0.132186
    11 -0.033420 -1.397129 -0.011257 -1.295916 0.000000 -0.000001
    12 -0.022360 -0.957436 0.018784 -0.874776 0.000000 0.000000
    13 -1.165056 -2.643940 0.044430 -0.549476 0.198815 -0.091100
    14 -0.024967 -1.123934 0.017597 -1.623924 0.000000 0.000001
    15 -0.020057 -0.890968 0.010090 -0.728844 0.000000 0.000000
    16 0.583510 -1.197277 0.185379 -0.052102 -1.189669 -0.675037
    17 1.535927 0.010246 0.005009 0.104082 0.235093 -0.755843
    18 1.100771 0.004527 -0.010679 -0.423178 -0.515407 -1.256662
    19 -0.016570 -0.085427 -0.042770 -2.519096 0.130082 -1.215060
    20 -2.696624 0.702515 -3.931091 1.500629 -4.096261 1.013347
    21 0.096944 -8.450418 -0.009365 0.034025 -0.499907 -0.045590
    22 0.447953 -2.798986 -0.200443 -1.208615 0.224166 0.273004
    23 -0.032909 -1.480204 0.004940 -1.668020 0.000000 0.000002
    24 -0.027022 -1.076920 -0.020210 -1.321794 0.000000 0.000000
    25 -0.249534 -2.846964 -0.174213 -1.029784 0.203062 0.157890
    26 0.043235 -1.683941 0.096012 -1.852447 0.002823 -0.000167
    27 0.031729 -1.160830 0.058838 -1.143837 0.000642 0.008372
    28 -0.963866 -2.785145 -0.085350 -0.684261 0.358320 0.011787
    29 0.028479 -1.403067 0.006271 -1.707337 0.000000 0.000000
    30 0.021413 -0.957781 0.020046 -0.759281 0.000000 0.000000
    31 1.090254 -2.375966 0.075771 -1.018939 0.002358 0.424979
    32 0.024032 -1.129042 0.017807 -1.753582 0.000000 0.000001
    33 0.014898 -0.883989 -0.019848 -0.880952 0.000000 0.000000
    34 -0.586770 -1.264477 0.200161 -0.378752 -1.128527 -2.437240
    35 1.655652 0.261812 0.036380 0.126397 -0.305179 1.069144
    36 1.117947 0.048424 -0.005766 -0.008405 -0.060493 1.219762
    37 -0.119867 -0.158574 0.037835 0.285382 -0.036576 1.371077
    38 -3.780262 8.053997 -0.258965 1.578347 -0.008267 -1.200337
    39 1.449081 -1.117134 1.509074 -0.263634 0.120123 -2.904175
    40 4.594990 7.785654 3.872275 -0.000001 0.000000 -2.696508
    41 -0.389066 -0.003800 0.000000 0.000001 0.000000 0.023980
    42 -0.350265 0.005619 0.000000 0.000000 0.000000 -0.010007
    43 -0.341040 0.002085 0.000000 0.000001 0.000000 -0.001544
    44 3.200576 21.489170 -1.230783 0.000000 0.000000 -1.250625
    45 -0.204595 19.569023 -1.230783 0.000000 0.000000 1.890968
    46 11.051978 -0.340799 -0.011297 0.000000 0.000000 1.242490
    47 5.797596 8.373769 3.872275 0.000000 0.000000 -2.675408
    48 -1.272893 31.772506 -1.242079 0.000000 0.000000 1.323576
    49 -3.249394 30.546666 -1.242079 0.000000 0.000000 -3.375906
    50 -2.866123 31.279655 -1.242079 0.000000 0.000000 -4.033216
    51 -2.092209 31.719836 -1.242079 0.000000 0.000000 1.934563
    52 0.540829 28.585277 -1.242080 0.000000 0.000000 0.349524
    53 -0.675397 31.368650 -1.242079 0.000000 0.000000 0.691524
    54 -0.171404 30.622883 -1.242079 0.000000 0.000000 0.399746
    55 0.212397 29.666497 -1.242079 0.000001 0.000000 0.369921
  time 2
    0 -0.127756 -10.228140 -7.519142 -0.132704 1.072668 0.344879
    1 9.958561 2.895949 8.450495 6.160421 -2.640523 -0.710275
    2 1.257180 8.762585 -0.153713 -1.570562 0.002683 -1.566807
    3 -0.071921 -8.498736 -0.104134 -0.824722 0.655783 -0.854339
    4 -0.488518 -2.755602 -0.228260 -0.874984 0.016588 -0.071802
    5 0.039887 -1.479790 0.029854 -1.691461 0.039501 0.003309
    6 0.028786 -1.075731 -0.023109 -0.648244 0.000000 0.000000
    7 0.250027 -2.820665 -0.238396 -0.863717 -0.002921 0.008443
    8 -0.049759 -1.680544 0.100479 -1.633952 0.000000 -0.000002
    9 -0.034142 -1.148312 0.084782 -0.802483 0.000000 0.000000
    10 0.957766 -2.746780 -0.090302 -0.624278 -0.102438 0.132186
    11 -0.033420 -1.397129 -0.011257 -1.295916 0.000000 -0.000001
    12 -0.022360 -0.957436 0.018784 -0.874776 0.000000 0.000000
    13 -1.165056 -2.643940 0.044430 -0.549476 0.198815 -0.091100
    14 -0.024967 -1.123934 0.017597 -1.623924 0.000000 0.000001
    15 -0.020057 -0.890968 0.010090 -0.728844 0.000000 0.000000
    16 0.583510 -1.197277 0.185379 -0.052102 -1.189669 -0.675037
    17 1.535927 0.010246 0.005009 0.104082 0.235093 -0.755843
    18 1.100771 0.004527 -0.010679 -0.423178 -0.515423 -1.256662
    19 -0.016570 -0.085427 -0.042770 -2.519096 0.130082 -1.215060
    20 -2.684905 0.690796 -3.856870 1.500629 -4.096261 1.013347
    21 0.096944 -8.450418 -0.009365 0.019921 -0.513146 -0.023718
    22 0.447953 -2.798986 -0.200443 -1.208615 0.224166 0.273004
    23 -0.032909 -1.480204 0.004940 -1.668020 0.000000 0.000002
    24 -0.027022 -1.076920 -0.020210 -1.321794 0.000000 0.000000
    25 -0.249534 -2.846964 -0.174213 -1.029784 0.203062 0.157890
    26 0.043235 -1.683941 0.096012 -1.852447 0.002823 -0.000167
    27 0.031729 -1.160830 0.058838 -1.143837 0.000642 0.008372
    28 -0.963866 -2.785145 -0.085350 -0.684261 0.358320 0.011787
    29 0.028479 -1.403067 0.006271 -1.707337 0.000000 0.000000
    30 0.021413 -0.957781 0.020046 -0.759281 0.000000 0.000000
    31 1.090254 -2.375966 0.075771 -1.018939 0.002358 0.424979
    32 0.024032 -1.129042 0.017807 -1.753582 0.000000 0.000001
    33 0.014898 -0.883989 -0.019848 -0.880952 0.000000 0.000000
    34 -0.586770 -1.264477 0.200161 -0.378752 -1.128549 -2.437240
    35 1.655652 0.261812 0.036380 0.126397 -0.305179 1.069144
    36 1.117947 0.048424 -0.005766 -0.008405 -0.060493 1.219762
    37 -0.119867 -0.158574 0.037835 0.285382 -0.036576 1.371077
    38 -3.780262 8.053997 -0.258965 1.578347 -0.008267 -1.200337
    39 1.449081 -1.117134 1.509074 -0.263634 0.120123 -2.904175
    40 4.594990 7.785654 3.872275 -0.000001 0.000000 -2.696508
    41 -0.389066 -0.003800 0.000000 0.000001 0.000000 0.023980
    42 -0.350265 0.005619 0.000000 0.000000 0.000000 -0.010007
    43 -0.341040 0.002085 0.000000 0.000001 0.000000 -0.001544
    44 2.661497 23.114220 -1.230783 0.000000 0.000000 -1.250625
    45 0.334484 17.943974 -1.230783 0.000000 0.000000 1.890968
    46 11.169169 -0.192357 -0.011297 0.000000 0.000000 1.565115
    47 5.797596 8.373769 3.872275 0.000000 0.000000 -2.675408
    48 -2.581527 31.592813 -1.242079 0.000000 0.000000 2.124711
    49 -3.143922 29.152092 -1.242079 0.000000 0.000000 -2.903876
    50 -3.330981 30.178059 -1.242079 0.000000 0.000000 -3.093568
    51 -3.162554 30.997158 -1.242079 0.000000 0.000000 2.630754
    52 -0.017782 30.171263 -1.242080 0.000000 0.000000 0.409926
    53 -1.874652 31.813976 -1.242079 0.000000 0.000000 1.657224
    54 -1.136277 31.689322 -1.242079 0.000000 0.000000 1.105571
    55 -0.494656 31.127480 -1.242079 0.000001 0.000000 0.600469
  time 3
    0 -0.127756 -10.310173 -7.519142 -0.150172 1.072668 0.344879
    1 9.958561 2.895949 8.450495 6.160421 -2.640523 -0.710275
    2 1.257180 8.762585 -0.153713 -1.570562 0.002683 -1.566807
    3 -0.071921 -8.498736 -0.104134 -0.812244 0.648025 -0.845218
    4 -0.488518 -2.755602 -0.228260 -0.874984 0.016588 -0.071802
    5 0.039887 -1.479790 0.029854 -1.691461 0.039501 0.003309
    6 0.028786 -1.075731 -0.023109 -0.648244 0.000000 0.000000
    7 0.250027 -2.820665 -0.238396 -0.863717 -0.002921 0.008443
    8 -0.049759 -1.680544 0.100479 -1.633952 0.000000 -0.000002
    9 -0.034142 -1.148312 0.084782 -0.802483 0.000000 0.000000
    10 0.957766 -2.746780 -0.090302 -0.624278 -0.102438 0.132186
    11 -0.033420 -1.397129 -0.011257 -1.295916 0.000000 -0.000001
    12 -0.022360 -0.957436 0.018784 -0.874776 0.000000 0.000000
    13 -1.165056 -2.643940 0.044430 -0.549476 0.198815 -0.091100
    14 -0.024967 -1.123934 0.017597 -1.623924 0.000000 0.000001
    15 -0.020057 -0.890968 0.010090 -0.728844 0.000000 0.000000
    16 0.583510 -1.197277 0.185379 -0.052102 -1.189669 -0.675037
    17 1.535927 0.010246 0.005009 0.104082 0.235093 -0.755843
    18 1.100771 0.004527 -0.010679 -0.423178 -0.515423 -1.256662
    19 -0.016570 -0.085427 -0.042770 -2.519096 0.130082 -1.215060
    20 -2.665373 0.682983 -3.790461 1.500629 -4.096261 1.013347
    21 0.096944 -8.450418 -0.009365 0.019921 -0.513146 -0.023718
    22 0.447953 -2.798986 -0.200443 -1.208615 0.224166 0.273004
    23 -0.032909 -1.480204 0.004940 -1.668020 0.000000 0.000002
    24 -0.027022 -1.076920 -0.020210 -1.321794 0.000000 0.000000
    25 -0.249534 -2.846964 -0.174213 -1.029784 0.203062 0.157890
    26 0.043235 -1.683941 0.096012 -1.852447 0.002823 -0.000167
    27 0.031729 -1.160830 0.058838 -1.143837 0.000642 0.008372
    28 -0.963866 -2.785145 -0.085350 -0.684261 0.358320 0.011787
    29 0.028479 -1.403067 0.006271 -1.707337 0.000000 0.000000
    30 0.021413 -0.957781 0.020046 -0.759281 0.000000 0.000000
    31 1.090254 -2.375966 0.075771 -1.018939 0.002358 0.424979
    32 0.024032 -1.129042 0.017807 -1.753582 0.000000 0.000001
    33 0.014898 -0.883989 -0.019848 -0.880952 0.000000 0.000000
    34 -0.586770 -1.264477 0.200161 -0.378752 -1.128549 -2.437240
    35 1.655652 0.261812 0.036380 0.126397 -0.305179 1.069144
    36 1.117947 0.048424 -0.005766 -0.008405 -0.060493 1.219762
    37 -0.119867 -0.158574 0.037835 0.285382 -0.036576 1.371077
    38 -3.780262 8.053997 -0.258965 1.578347 -0.008267 -1.200337
    39 1.449081 -1.117134 1.509074 -0.262903 0.094538 -2.897223
    40 4.594990 7.785654 3.872275 -0.000001 0.000000 -2.696508
    41 -0.389066 -0.003800 0.000000 0.000001 0.000000 0.023980
    42 -0.350265 0.005619 0.000000 0.000000 0.000000 -0.010007
    43 -0.341040 0.002085 0.000000 0.000001 0.000000 -0.001544
    44 3.200576 21.489170 -1.230783 0.000000 0.000000 -1.250625
    45 -0.204595 19.569023 -1.230783 0.000000 0.000000 1.890968
    46 11.051978 -0.340799 -0.011297 0.000000 0.000000 1.242490
    47 5.797596 8.373769 3.872275 0.000000 0.000000 -2.675408
    48 -1.272893 31.772506 -1.242079 0.000000 0.000000 1.323576
    49 -3.249394 30.546666 -1.242079 0.000000 0.000000 -3.375906
    50 -2.866123 31.279655 -1.242079 0.000000 0.000000 -4.033216
    51 -2.092209 31.719836 -1.242079 0.000000 0.000000 1.934584
    52 0.540829 28.585277 -1.242080 0.000000 0.000000 0.349524
    53 -0.675397 31.368650 -1.242079 0.000000 0.000000 0.691524
    54 -0.171404 30.622883 -1.242079 0.000000 0.000000 0.399746
    55 0.212397 29.666497 -1.242079 0.000001 0.000000 0.369921
  time 4
    0 -0.127756 -9.876566 -7.519142 -0.185058 1.072668 0.344879
    1 9.958561 2.895949 8.450495 6.160421 -2.640523 -0.710275
    2 1.257180 8.762585 -0.153713 -1.570562 0.002683 -1.566807
    3 -0.071921 -8.498736 -0.104134 -0.824722 0.655783 -0.854339
    4 -0.488518 -2.755602 -0.228260 -0.874984 0.016588 -0.071802
    5 0.039887 -1.479790 0.029854 -1.691461 0.039501 0.003309
    6 0.028786 -1.075731 -0.023109 -0.648244 0.000000 0.000000
    7 0.250027 -2.820665 -0.238396 -0.863717 -0.002921 0.008443
    8 -0.049759 -1.680544 0.100479 -1.633952 0.000000 -0.000002
    9 -0.034142 -1.148312 0.084782 -0.802483 0.000000 0.000000
    10 0.957766 -2.746780 -0.090302 -0.624278 -0.102438 0.132186
    11 -0.033420 -1.397129 -0.011257 -1.295916 0.000000 -0.000001
    12 -0.022360 -0.957436 0.018784 -0.874776 0.000000 0.000000
    13 -1.165056 -2.643940 0.044430 -0.549476 0.198815 -0.091100
    14 -0.024967 -1.123934 0.017597 -1.623924 0.000000 0.000001
    15 -0.020057 -0.890968 0.010090 -0.728844 0.000000 0.000000
    16 0.583510 -1.197277 0.185379 -0.052102 -1.189669 -0.675037
    17 1.535927 0.010246 0.005009 0.104082 0.235093 -0.755843
    18 1.100771 0.004527 -0.010679 -0.423178 -0.515407 -1.256662
    19 -0.016570 -0.085427 -0.042770 -2.519096 0.130082 -1.215060
    20 -2.684905 0.690796 -3.856870 1.500629 -4.096261 1.013347
    21 0.096944 -8.450418 -0.009365 0.019921 -0.513146 -0.023718
    22 0.447953 -2.798986 -0.200443 -1.208615 0.224166 0.273004
    23 -0.032909 -1.480204 0.004940 -1.668020 0.000000 0.000002
    24 -0.027022 -1.076920 -0.020210 -1.321794 0.000000 0.000000
    25 -0.249534 -2.846964 -0.174213 -1.029784 0.203062 0.157890
    26 0.043235 -1.683941 0.096012 -1.852447 0.002823 -0.000167
    27 0.031729 -1.160830 0.058838 -1.143837 0.000642 0.008372
    28 -0.963866 -2.785145 -0.085350 -0.684261 0.358320 0.011787
    29 0.028479 -1.403067 0.006271 -1.707337 0.000000 0.000000
    30 0.021413 -0.957781 0.020046 -0.759281 0.000000 0.000000
    31 1.090254 -2.375966 0.075771 -1.018939 0.002358 0.424979
    32 0.024032 -1.129042 0.017807 -1.753582 0.000000 0.000001
    33 0.014898 -0.883989 -0.019848 -0.880952 0.000000 0.000000
    34 -0.586770 -1.264477 0.200161 -0.378752 -1.128527 -2.437240
    35 1.655652 0.261812 0.036380 0.126397 -0.305179 1.069144
    36 1.117947 0.048424 -0.005766 -0.008405 -0.060493 1.219762
    37 -0.119867 -0.158574 0.037835 0.285382 -0.036576 1.371077
    38 -3.780262 8.053997 -0.258965 1.578347 -0.008267 -1.200337
    39 1.449081 -1.117134 1.509074 -0.263634 0.120123 -2.904175
    40 4.594990 7.785654 3.872275 -0.000001 0.000000 -2.696508
    41 -0.389066 -0.003800 0.000000 0.000001 0.000000 0.023980
    42 -0.350265 0.005619 0.000000 0.000000 0.000000 -0.010007
    43 -0.341040 0.002085 0.000000 0.000001 0.000000 -0.001544
    44 2.661497 23.114220 -1.230783 0.000000 0.000000 -1.250625
    45 0.334484 17.943974 -1.230783 0.000000 0.000000 1.890968
    46 11.169169 -0.192357 -0.011297 0.000000 0.000000 1.565115
    47 5.797596 8.373769 3.872275 0.000000 0.000000 -2.675408
    48 -2.581527 31.592813 -1.242079 0.000000 0.000000 2.124711
    49 -3.143922 29.152092 -1.242079 0.000000 0.000000 -2.903876
    50 -3.330981 30.178059 -1.242079 0.000000 0.000000 -3.093568
    51 -3.162554 30.997158 -1.242079 0.000000 0.000000 2.630754
    52 -0.017782 30.171263 -1.242080 0.000000 0.000000 0.409926
    53 -1.874652 31.813976 -1.242079 0.000000 0.000000 1.657224
    54 -1.136277 31.689322 -1.242079 0.000000 0.000000 1.105571
    55 -0.494656 31.127480 -1.242079 0.000001 0.000000 0.600469
  time 5
    0 0.169128 -10.239859 -7.519142 -0.211357 1.052872 0.314544
    1 9.958561 2.895949 8.450495 6.160421 -2.640523 -0.710275
    2 1.257180 8.762585 -0.153713 -1.570562 0.002683 -1.566807
    3 -0.071921 -8.498736 -0.104134 -0.837273 0.673070 -0.861568
    4 -0.488518 -2.755602 -0.228260 -0.874984 0.016588 -0.071802
    5 0.039887 -1.479790 0.029854 -1.691461 0.039501 0.003309
    6 0.028786 -1.075731 -0.023109 -0.648244 0.000000 0.000000
    7 0.250027 -2.820665 -0.238396 -0.863717 -0.002921 0.008443
    8 -0.049759 -1.680544 0.100479 -1.633952 0.000000 -0.000002
    9 -0.034142 -1.148312 0.084782 -0.802506 0.000000 0.000000
    10 0.957766 -2.746780 -0.090302 -0.624278 -0.102438 0.132186
    11 -0.033420 -1.397129 -0.011257 -1.295916 0.000000 -0.000001
    12 -0.022360 -0.957436 0.018784 -0.874776 0.000000 0.000000
    13 -1.165056 -2.643940 0.044430 -0.549476 0.198815 -0.091100
    14 -0.024967 -1.123934 0.017597 -1.623924 0.000000 0.000001
    15 -0.020057 -0.890968 0.010090 -0.728844 0.000000 0.000000
    16 0.583510 -1.197277 0.185379 -0.052102 -1.189669 -0.675037
    17 1.535927 0.010246 0.005009 0.104082 0.235093 -0.755843
    18 1.100771 0.004527 -0.010679 -0.423178 -0.515423 -1.256662
    19 -0.016570 -0.085427 -0.042770 -2.519096 0.130082 -1.215060
    20 -2.731781 0.710328 -3.903746 1.500629 -4.096261 1.013347
    21 0.096944 -8.450418 -0.009365 0.019921 -0.513146 -0.023718
    22 0.447953 -2.798986 -0.200443 -1.208615 0.224166 0.273004
    23 -0.032909 -1.480204 0.004940 -1.668020 0.000000 0.000002
    24 -0.027022 -1.076920 -0.020210 -1.321794 0.000000 0.000000
    25 -0.249534 -2.846964 -0.174213 -1.029784 0.203062 0.157890
    26 0.043235 -1.683941 0.096012 -1.852447 0.002823 -0.000167
    27 0.031729 -1.160830 0.058838 -1.143837 0.000642 0.008372
    28 -0.963866 -2.785145 -0.085350 -0.684261 0.358320 0.011787
    29 0.028479 -1.403067 0.006271 -1.707337 0.000000 0.000000
    30 0.021413 -0.957781 0.020046 -0.759281 0.000000 0.000000
    31 1.090254 -2.375966 0.075771 -1.018939 0.002358 0.424979
    32 0.024032 -1.129042 0.017807 -1.753582 0.000000 0.000001
    33 0.014898 -0.883989 -0.019848 -0.880952 0.000000 0.000000
    34 -0.586770 -1.264477 0.200161 -0.378752 -1.128527 -2.437240
    35 1.655652 0.261812 0.036380 0.126397 -0.305179 1.069144
    36 1.117947 0.048424 -0.005766 -0.008405 -0.060493 1.219762
    37 -0.119867 -0.158574 0.037835 0.285382 -0.036576 1.371077
    38 -3.780262 8.053997 -0.258965 1.578347 -0.008267 -1.200337
    39 1.449081 -1.117134 1.509074 -0.265038 0.157388 -2.914350
    40 4.594990 7.785654 3.872275 -0.000001 0.000000 -2.696508
    41 -0.389066 -0.003800 0.000000 0.000001 0.000000 0.023980
    42 -0.350265 0.005619 0.000000 0.000000 0.000000 -0.010007
    43 -0.341040 0.002085 0.000000 0.000001 0.000000 -0.001544
    44 3.200576 21.489170 -1.230783 0.000000 0.000000 -1.250625
    45 -0.204595 19.569023 -1.230783 0.000000 0.000000 1.890968
    46 11.051978 -0.340799 -0.011297 0.000000 0.000000 1.242490
    47 5.797596 8.373769 3.872275 0.000000 0.000000 -2.675408
    48 -1.272893 31.772506 -1.242079 0.000000 0.000000 1.323576
    49 -3.249394 30.546666 -1.242079 0.000000 0.000000 -3.375906
    50 -2.866123 31.279655 -1.242079 0.000000 0.000000 -4.033216
    51 -2.092209 31.719836 -1.242079 0.000000 0.000000 1.934584
    52 0.540829 28.585277 -1.242080 0.000000 0.000000 0.349524
    53 -0.675397 31.368650 -1.242079 0.000000 0.000000 0.691524
    54 -0.171404 30.622883 -1.242079 0.000000 0.000000 0.399746
    55 0.212397 29.666497 -1.242079 0.000001 0.000000 0.369921
  time 6
    0 -0.127756 -9.935162 -7.519142 -0.129890 0.986249 0.368515
    1 9.958561 2.895949 8.450495 6.160421 -2.640523 -0.710275
    2 1.257180 8.762585 -0.153713 -1.570562 0.002683 -1.566807
    3 -0.071921 -8.498736 -0.104134 -0.824722 0.655783 -0.854339
    4 -0.488518 -2.755602 -0.228260 -0.874984 0.016588 -0.071802
    5 0.039887 -1.479790 0.029854 -1.691461 0.039501 0.003309
    6 0.028786 -1.075731 -0.023109 -0.648244 0.000000 0.000000
    7 0.250027 -2.820665 -0.238396 -0.863717 -0.002921 0.008443
    8 -0.049759 -1.680544 0.100479 -1.633952 0.000000 -0.000002
    9 -0.034142 -1.148312 0.084782 -0.802506 0.000000 0.000000
    10 0.957766 -2.746780 -0.090302 -0.624278 -0.102438 0.132186
    11 -0.033420 -1.397129 -0.011257 -1.295916 0.000000 -0.000001
    12 -0.022360 -0.957436 0.018784 -0.874776 0.000000 0.000000
    13 -1.165056 -2.643940 0.044430 -0.549476 0.198815 -0.091100
    14 -0.024967 -1.123934 0.017597 -1.623924 0.000000 0.000001
    15 -0.020057 -0.890968 0.010090 -0.728844 0.000000 0.000000
    16 0.583510 -1.197277 0.185379 -0.052102 -1.189669 -0.675037
    17 1.535927 0.010246 0.005009 0.104082 0.235093 -0.755843
    18 1.100771 0.004527 -0.010679 -0.423178 -0.515423 -1.256662
    19 -0.016570 -0.085427 -0.042770 -2.519096 0.130082 -1.215060
    20 -2.763032 0.710328 -3.837338 1.500629 -4.096261 1.013347
    21 0.096944 -8.450418 -0.009365 0.003961 -0.484693 0.000814
    22 0.447953 -2.798986 -0.200443 -1.208615 0.224166 0.273004
    23 -0.032909 -1.480204 0.004940 -1.668020 0.000000 0.000002
    24 -0.027022 -1.076920 -0.020210 -1.321794 0.000000 0.000000
    25 -0.249534 -2.846964 -0.174213 -1.029784 0.203062 0.157890
    26 0.043235 -1.683941 0.096012 -1.852447 0.002823 -0.000167
    27 0.031729 -1.160830 0.058838 -1.143837 0.000642 0.008372
    28 -0.963866 -2.785145 -0.085350 -0.684261 0.358320 0.011787
    29 0.028479 -1.403067 0.006271 -1.707337 0.000000 0.000000
    30 0.021413 -0.957781 0.020046 -0.759281 0.000000 0.000000
    31 1.090254 -2.375966 0.075771 -1.018939 0.002358 0.424979
    32 0.024032 -1.129042 0.017807 -1.753582 0.000000 0.000001
    33 0.014898 -0.883989 -0.019848 -0.880952 0.000000 0.000000
    34 -0.586770 -1.264477 0.200161 -0.378752 -1.128549 -2.437240
    35 1.655652 0.261812 0.036380 0.126397 -0.305179 1.069144
    36 1.117947 0.048424 -0.005766 -0.008405 -0.060493 1.219762
    37 -0.119867 -0.158574 0.037835 0.285382 -0.036576 1.371077
    38 -3.780262 8.053997 -0.258965 1.578347 -0.008267 -1.200337
    39 1.449081 -1.117134 1.509074 -0.263634 0.120123 -2.904175
    40 4.594990 7.785654 3.872275 -0.000001 0.000000 -2.696508
    41 -0.389066 -0.003800 0.000000 0.000001 0.000000 0.023980
    42 -0.350265 0.005619 0.000000 0.000000 0.000000 -0.010007
    43 -0.341040 0.002085 0.000000 0.000001 0.000000 -0.001544
    44 2.661497 23.114220 -1.230783 0.000000 0.000000 -1.250625
    45 0.334484 17.943974 -1.230783 0.000000 0.000000 1.890968
    46 11.169169 -0.192357 -0.011297 0.000000 0.000000 1.565115
    47 5.797596 8.373769 3.872275 0.000000 0.000000 -2.675408
    48 -2.581527 31.592813 -1.242079 0.000000 0.000000 2.124711
    49 -3.143922 29.152092 -1.242079 0.000000 0.000000 -2.903876
    50 -3.330981 30.178059 -1.242079 0.000000 0.000000 -3.093568
    51 -3.162554 30.997158 -1.242079 0.000000 0.000000 2.630754
    52 -0.017782 30.171263 -1.242080 0.000000 0.000000 0.409926
    53 -1.874652 31.813976 -1.242079 0.000000 0.000000 1.657224
    54 -1.136277 31.689322 -1.242079 0.000000 0.000000 1.105571
    55 -0.494656 31.127480 -1.242079 0.000001 0.000000 0.600469
  time 7
    0 -0.127756 -10.271110 -7.519142 -0.295831 1.062437 0.238372
    1 9.958561 2.895949 8.450495 6.160421 -2.640523 -0.710275
    2 1.257180 8.762585 -0.153713 -1.570562 0.002683 -1.566807
    3 -0.071921 -8.498736 -0.104134 -0.800053 0.631041 -0.836853
    4 -0.488518 -2.755602 -0.228260 -0.874984 0.016588 -0.071802
    5 0.039887 -1.479790 0.029854 -1.691461 0.039501 0.003309
    6 0.028786 -1.075731 -0.023109 -0.648244 0.000000 0.000000
    7 0.250027 -2.820665 -0.238396 -0.863717 -0.002921 0.008443
    8 -0.049759 -1.680544 0.100479 -1.633952 0.000000 -0.000002
    9 -0.034142 -1.148312 0.084782 -0.802483 0.000000 0.000000
    10 0.957766 -2.746780 -0.090302 -0.624278 -0.102438 0.132186
    11 -0.033420 -1.397129 -0.011257 -1.295916 0.000000 -0.000001
    12 -0.022360 -0.957436 0.018784 -0.874776 0.000000 0.000000
    13 -1.165056 -2.643940 0.044430 -0.549476 0.198815 -0.091100
    14 -0.024967 -1.123934 0.017597 -1.623924 0.000000 0.000001
    15 -0.020057 -0.890968 0.010090 -0.728844 0.000000 0.000000
    16 0.583510 -1.197277 0.185379 -0.052102 -1.189669 -0.675037
    17 1.535927 0.010246 0.005009 0.104082 0.235093 -0.755843
    18 1.100771 0.004527 -0.010679 -0.423178 -0.515407 -1.256662
    19 -0.016570 -0.085427 -0.042770 -2.519096 0.130082 -1.215060
    20 -2.739594 0.710328 -3.899840 1.500629 -4.096261 1.013347
    21 0.096944 -8.450418 -0.009365 0.003961 -0.484693 0.000814
    22 0.447953 -2.798986 -0.200443 -1.208615 0.224166 0.273004
    23 -0.032909 -1.480204 0.004940 -1.668020 0.000000 0.000002
    24 -0.027022 -1.076920 -0.020210 -1.321794 0.000000 0.000000
    25 -0.249534 -2.846964 -0.174213 -1.029784 0.203062 0.157890
    26 0.043235 -1.683941 0.096012 -1.852447 0.002823 -0.000167
    27 0.031729 -1.160830 0.058838 -1.143837 0.000642 0.008372
    28 -0.963866 -2.785145 -0.085350 -0.684261 0.358320 0.011787
    29 0.028479 -1.403067 0.006271 -1.707337 0.000000 0.000000
    30 0.021413 -0.957781 0.020046 -0.759281 0.000000 0.000000
    31 1.090254 -2.375966 0.075771 -1.018939 0.002358 0.424979
    32 0.024032 -1.129042 0.017807 -1.753582 0.000000 0.000001
    33 0.014898 -0.883989 -0.019848 -0.880952 0.000000 0.000000
    34 -0.586770 -1.264477 0.200161 -0.378752 -1.128527 -2.437240
    35 1.655652 0.261812 0.036380 0.126397 -0.305179 1.069144
    36 1.117947 0.048424 -0.005766 -0.008405 -0.060493 1.219762
    37 -0.119867 -0.158574 0.037835 0.285382 -0.036576 1.371077
    38 -3.780262 8.053997 -0.258965 1.578347 -0.008267 -1.200337
    39 1.449081 -1.117134 1.509074 -0.263634 0.120123 -2.904175
    40 4.594990 7.785654 3.872275 -0.000001 0.000000 -2.696508
    41 -0.389066 -0.003800 0.000000 0.000001 0.000000 0.023980
    42 -0.350265 0.005619 0.000000 0.000000 0.000000 -0.010007
    43 -0.341040 0.002085 0.000000 0.000001 0.000000 -0.001544
    44 3.200576 21.489170 -1.230783 0.000000 0.000000 -1.250625
    45 -0.204595 19.569023 -1.230783 0.000000 0.000000 1.890968
    46 11.051978 -0.340799 -0.011297 0.000000 0.000000 1.242490
    47 5.797596 8.373769 3.872275 0.000000 0.000000 -2.675408
    48 -1.272893 31.772506 -1.242079 0.000000 0.000000 1.323576
    49 -3.249394 30.546666 -1.242079 0.000000 0.000000 -3.375906
    50 -2.866123 31.279655 -1.242079 0.000000 0.000000 -4.033216
    51 -2.092209 31.719836 -1.242079 0.000000 0.000000 1.934584
    52 0.540829 28.585277 -1.242080 0.000000 0.000000 0.349524
    53 -0.675397 31.368650 -1.242079 0.000000 0.000000 0.691524
    54 -0.171404 30.622883 -1.242079 0.000000 0.000000 0.399746
    55 0.212397 29.666497 -1.242079 0.000001 0.000000 0.369921
  time 8
    0 -0.592614 -10.028915 -7.519142 -0.118245 1.074996 0.381146
    1 9.958561 2.895949 8.450495 6.160421 -2.640523 -0.710275
    2 1.257180 8.762585 -0.153713 -1.570562 0.002683 -1.566807
    3 -0.071921 -8.498736 -0.104134 -0.824722 0.655783 -0.854339
    4 -0.488518 -2.755602 -0.228260 -0.874984 0.016588 -0.071802
    5 0.039887 -1.479790 0.029854 -1.691461 0.039501 0.003309
    6 0.028786 -1.075731 -0.023109 -0.648244 0.000000 0.000000
    7 0.250027 -2.820665 -0.238396 -0.863717 -0.002921 0.008443
    8 -0.049759 -1.680544 0.100479 -1.633952 0.000000 -0.000002
    9 -0.034142 -1.148312 0.084782 -0.802506 0.000000 0.000000
    10 0.957766 -2.746780 -0.090302 -0.624278 -0.102438 0.132186
    11 -0.033420 -1.397129 -0.011257 -1.295916 0.000000 -0.000001
    12 -0.022360 -0.957436 0.018784 -0.874776 0.000000 0.000000
    13 -1.165056 -2.643940 0.044430 -0.549476 0.198815 -0.091100
    14 -0.024967 -1.123934 0.017597 -1.623924 0.000000 0.000001
    15 -0.020057 -0.890968 0.010090 -0.728844 0.000000 0.000000
    16 0.583510 -1.197277 0.185379 -0.052102 -1.189669 -0.675037
    17 1.535927 0.010246 0.005009 0.104082 0.235093 -0.755843
    18 1.100771 0.004527 -0.010679 -0.423178 -0.515407 -1.256662
    19 -0.016570 -0.085427 -0.042770 -2.519096 0.130082 -1.215060
    20 -2.700531 0.694702 -3.845151 1.500629 -4.096261 1.013347
    21 0.096944 -8.450418 -0.009365 0.003961 -0.484693 0.000814
    22 0.447953 -2.798986 -0.200443 -1.208615 0.224166 0.273004
    23 -0.032909 -1.480204 0.004940 -1.668020 0.000000 0.000002
    24 -0.027022 -1.076920 -0.020210 -1.321794 0.000000 0.000000
    25 -0.249534 -2.846964 -0.174213 -1.029784 0.203062 0.157890
    26 0.043235 -1.683941 0.096012 -1.852447 0.002823 -0.000167
    27 0.031729 -1.160830 0.058838 -1.143837 0.000642 0.008372
    28 -0.963866 -2.785145 -0.085350 -0.684261 0.358320 0.011787
    29 0.028479 -1.403067 0.006271 -1.707337 0.000000 0.000000
    30 0.021413 -0.957781 0.020046 -0.759281 0.000000 0.000000
    31 1.090254 -2.375966 0.075771 -1.018939 0.002358 0.424979
    32 0.024032 -1.129042 0.017807 -1.753582 0.000000 0.000001
    33 0.014898 -0.883989 -0.019848 -0.880952 0.000000 0.000000
    34 -0.586770 -1.264477 0.200161 -0.378752 -1.128527 -2.437240
    35 1.655652 0.261812 0.036380 0.126397 -0.305179 1.069144
    36 1.117947 0.048424 -0.005766 -0.008405 -0.060493 1.219762
    37 -0.119867 -0.158574 0.037835 0.285382 -0.036576 1.371077
    38 -3.780262 8.053997 -0.258965 1.578347 -0.008267 -1.200337
    39 1.449081 -1.117134 1.509074 -0.263634 0.120123 -2.904175
    40 4.594990 7.785654 3.872275 -0.000001 0.000000 -2.696508
    41 -0.389066 -0.003800 0.000000 0.000001 0.000000 0.023980
    42 -0.350265 0.005619 0.000000 0.000000 0.000000 -0.010007
    43 -0.341040 0.002085 0.000000 0.000001 0.000000 -0.001544
    44 2.661497 23.114220 -1.230783 0.000000 0.000000 -1.250625
    45 0.334484 17.943974 -1.230783 0.000000 0.000000 1.890968
    46 11.169169 -0.192357 -0.011297 0.000000 0.000000 1.565115
    47 5.797596 8.373769 3.872275 0.000000 0.000000 -2.675408
    48 -2.581527 31.592813 -1.242079 0.000000 0.000000 2.124711
    49 -3.143922 29.152092 -1.242079 0.000000 0.000000 -2.903876
    50 -3.330981 30.178059 -1.242079 0.000000 0.000000 -3.093568
    51 -3.162554 30.997158 -1.242079 0.000000 0.000000 2.630754
    52 -0.017782 30.171263 -1.242080 0.000000 0.000000 0.409926
    53 -1.874652 31.813976 -1.242079 0.000000 0.000000 1.657224
    54 -1.136277 31.689322 -1.242079 0.000000 0.000000 1.105571
    55 -0.494656 31.127480 -1.242079 0.000001 0.000000 0.600469
  time 9
    0 -0.127756 -10.122668 -7.519142 -0.150172 1.072668 0.344879
    1 9.958561 2.895949 8.450495 6.160421 -2.640523 -0.710275
    2 1.257180 8.762585 -0.153713 -1.570562 0.002683 -1.566807
    3 -0.071921 -8.498736 -0.104134 -0.800053 0.631041 -0.836853
    4 -0.488518 -2.755602 -0.228260 -0.874984 0.016588 -0.071802
    5 0.039887 -1.479790 0.029854 -1.691461 0.039501 0.003309
    6 0.028786 -1.075731 -0.023109 -0.648244 0.000000 0.000000
    7 0.250027 -2.820665 -0.238396 -0.863717 -0.002921 0.008443
    8 -0.049759 -1.680544 0.100479 -1.633952 0.000000 -0.000002
    9 -0.034142 -1.148312 0.084782 -0.802483 0.000000 0.000000
    10 0.957766 -2.746780 -0.090302 -0.624278 -0.102438 0.132186
    11 -0.033420 -1.397129 -0.011257 -1.295916 0.000000 -0.000001
    12 -0.022360 -0.957436 0.018784 -0.874776 0.000000 0.000000
    13 -1.165056 -2.643940 0.044430 -0.549476 0.198815 -0.091100
    14 -0.024967 -1.123934 0.017597 -1.623924 0.000000 0.000001
    15 -0.020057 -0.890968 0.010090 -0.728844 0.000000 0.000000
    16 0.583510 -1.197277 0.185379 -0.052102 -1.189669 -0.675037
    17 1.535927 0.010246 0.005009 0.104082 0.235093 -0.755843
    18 1.100771 0.004527 -0.010679 -0.423178 -0.515407 -1.256662
    19 -0.016570 -0.085427 -0.042770 -2.519096 0.130082 -1.215060
    20 -2.735688 0.710328 -3.899840 1.500629 -4.096261 1.013347
    21 0.096944 -8.450418 -0.009365 0.019921 -0.513146 -0.023718
    22 0.447953 -2.798986 -0.200443 -1.208615 0.224166 0.273004
    23 -0.032909 -1.480204 0.004940 -1.668020 0.000000 0.000002
    24 -0.027022 -1.076920 -0.020210 -1.321794 0.000000 0.000000
    25 -0.249534 -2.846964 -0.174213 -1.029784 0.203062 0.157890
    26 0.043235 -1.683941 0.096012 -1.852447 0.002823 -0.000167
    27 0.031729 -1.160830 0.058838 -1.143837 0.000642 0.008372
    28 -0.963866 -2.785145 -0.085350 -0.684261 0.358320 0.011787
    29 0.028479 -1.403067 0.006271 -1.707337 0.000000 0.000000
    30 0.021413 -0.957781 0.020046 -0.759281 0.000000 0.000000
    31 1.090254 -2.375966 0.075771 -1.018939 0.002358 0.424979
    32 0.024032 -1.129042 0.017807 -1.753582 0.000000 0.000001
    33 0.014898 -0.883989 -0.019848 -0.880952 0.000000 0.000000
    34 -0.586770 -1.264477 0.200161 -0.378752 -1.128549 -2.437240
    35 1.655652 0.261812 0.036380 0.126397 -0.305179 1.069144
    36 1.117947 0.048424 -0.005766 -0.008405 -0.060493 1.219762
    37 -0.119867 -0.158574 0.037835 0.285382 -0.036576 1.371077
    38 -3.780262 8.053997 -0.258965 1.578347 -0.008267 -1.200337
    39 1.449081 -1.117134 1.509074 -0.262903 0.094538 -2.897223
    40 4.594990 7.785654 3.872275 -0.000001 0.000000 -2.696508
    41 -0.389066 -0.003800 0.000000 0.000001 0.000000 0.023980
    42 -0.350265 0.005619 0.000000 0.000000 0.000000 -0.010007
    43 -0.341040 0.002085 0.000000 0.000001 0.000000 -0.001544
    44 3.200576 21.489170 -1.230783 0.000000 0.000000 -1.250625
    45 -0.204595 19.569023 -1.230783 0.000000 0.000000 1.890968
    46 11.051978 -0.340799 -0.011297 0.000000 0.000000 1.242490
    47 5.797596 8.373769 3.872275 0.000000 0.000000 -2.675408
    48 -1.272893 31.772506 -1.242079 0.000000 0.000000 1.323576
    49 -3.249394 30.546666 -1.242079 0.000000 0.000000 -3.375906
    50 -2.866123 31.279655 -1.242079 0.000000 0.000000 -4.033216
    51 -2.092209 31.719836 -1.242079 0.000000 0.000000 1.934584
    52 0.540829 28.585277 -1.242080 0.000000 0.000000 0.349524
    53 -0.675397 31.368650 -1.242079 0.000000 0.000000 0.691524
    54 -0.171404 30.622883 -1.242079 0.000000 0.000000 0.399746
    55 0.212397 29.666497 -1.242079 0.000001 0.000000 0.369921
  time 10
    0 -0.127756 -10.493773 -7.519142 -0.247747 1.066388 0.273396
    1 9.958561 2.895949 8.450495 6.160421 -2.640523 -0.710275
    2 1.257180 8.762585 -0.153713 -1.570562 0.002683 -1.566807
    3 -0.071921 -8.498736 -0.104134 -0.824722 0.655783 -0.854339
    4 -0.488518 -2.755602 -0.228260 -0.874984 0.016588 -0.071802
    5 0.039887 -1.479790 0.029854 -1.691461 0.039501 0.003309
    6 0.028786 -1.075731 -0.023109 -0.648244 0.000000 0.000000
    7 0.250027 -2.820665 -0.238396 -0.863717 -0.002921 0.008443
    8 -0.049759 -1.680544 0.100479 -1.633952 0.000000 -0.000002
    9 -0.034142 -1.148312 0.084782 -0.802483 0.000000 0.000000
    10 0.957766 -2.746780 -0.090302 -0.624278 -0.102438 0.132186
    11 -0.033420 -1.397129 -0.011257 -1.295916 0.000000 -0.000001
    12 -0.022360 -0.957436 0.018784 -0.874776 0.000000 0.000000
    13 -1.165056 -2.643940 0.044430 -0.549476 0.198815 -0.091100
    14 -0.024967 -1.123934 0.017597 -1.623924 0.000000 0.000001
    15 -0.020057 -0.890968 0.010090 -0.728844 0.000000 0.000000
    16 0.583510 -1.197277 0.185379 -0.052102 -1.189669 -0.675037
    17 1.535927 0.010246 0.005009 0.104082 0.235093 -0.755843
    18 1.100771 0.004527 -0.010679 -0.423178 -0.515423 -1.256662
    19 -0.016570 -0.085427 -0.042770 -2.519096 0.130082 -1.215060
    20 -2.747407 0.714234 -3.934997 1.500629 -4.096261 1.013347
    21 0.096944 -8.450418 -0.009365 0.019921 -0.513146 -0.023718
    22 0.447953 -2.798986 -0.200443 -1.208615 0.224166 0.273004
    23 -0.032909 -1.480204 0.004940 -1.668020 0.000000 0.000002
    24 -0.027022 -1.076920 -0.020210 -1.321794 0.000000 0.000000
    25 -0.249534 -2.846964 -0.174213 -1.029784 0.203062 0.157890
    26 0.043235 -1.683941 0.096012 -1.852447 0.002823 -0.000167
    27 0.031729 -1.160830 0.058838 -1.143837 0.000642 0.008372
    28 -0.963866 -2.785145 -0.085350 -0.684261 0.358320 0.011787
    29 0.028479 -1.403067 0.006271 -1.707337 0.000000 0.000000
    30 0.021413 -0.957781 0.020046 -0.759281 0.000000 0.000000
    31 1.090254 -2.375966 0.075771 -1.018939 0.002358 0.424979
    32 0.024032 -1.129042 0.017807 -1.753582 0.000000 0.000001
    33 0.014898 -0.883989 -0.019848 -0.880952 0.000000 0.000000
    34 -0.586770 -1.264477 0.200161 -0.378752 -1.128527 -2.437240
    35 1.655652 0.261812 0.036380 0.126397 -0.305179 1.069144
    36 1.117947 0.048424 -0.005766 -0.008405 -0.060493 1.219762
    37 -0.119867 -0.158574 0.037835 0.285382 -0.036576 1.371077
    38 -3.780262 8.053997 -0.258965 1.578347 -0.008267 -1.200337
    39 1.449081 -1.117134 1.509074 -0.263634 0.120123 -2.904175
    40 4.594990 7.785654 3.872275 -0.000001 0.000000 -2.696508
    41 -0.389066 -0.003800 0.000000 0.000001 0.000000 0.023980
    42 -0.350265 0.005619 0.000000 0.000000 0.000000 -0.010007
    43 -0.341040 0.002085 0.000000 0.000001 0.000000 -0.001544
    44 2.661497 23.114220 -1.230783 0.000000 0.000000 -1.250625
    45 0.334484 17.943974 -1.230783 0.000000 0.000000 1.890968
    46 11.169169 -0.192357 -0.011297 0.000000 0.000000 1.565115
    47 5.797596 8.373769 3.872275 0.000000 0.000000 -2.675408
    48 -2.581527 31.592813 -1.242079 0.000000 0.000000 2.124711
    49 -3.143922 29.152092 -1.242079 0.000000 0.000000 -2.903876
    50 -3.330981 30.178059 -1.242079 0.000000 0.000000 -3.093568
    51 -3.162554 30.997158 -1.242079 0.000000 0.000000 2.630754
    52 -0.017782 30.171263 -1.242080 0.000000 0.000000 0.409926
    53 -1.874652 31.813976 -1.242079 0.000000 0.000000 1.657224
    54 -1.136277 31.689322 -1.242079 0.000000 0.000000 1.105571
    55 -0.494656 31.127480 -1.242079 0.000001 0.000000 0.600469
  time 11
    0 -0.127756 -10.185170 -7.519142 -0.150172 1.072668 0.344879
    1 9.958561 2.895949 8.450495 6.160421 -2.640523 -0.710275
    2 1.257180 8.762585 -0.153713 -1.570562 0.002683 -1.566807
    3 -0.071921 -8.498736 -0.104134 -0.800053 0.631041 -0.836853
    4 -0.488518 -2.755602 -0.228260 -0.874984 0.016588 -0.071802
    5 0.039887 -1.479790 0.029854 -1.691461 0.039501 0.003309
    6 0.028786 -1.075731 -0.023109 -0.648244 0.000000 0.000000
    7 0.250027 -2.820665 -0.238396 -0.863717 -0.002921 0.008443
    8 -0.049759 -1.680544 0.100479 -1.633952 0.000000 -0.000002
    9 -0.034142 -1.148312 0.084782 -0.802483 0.000000 0.000000
    10 0.957766 -2.746780 -0.090302 -0.624278 -0.102438 0.132186
    11 -0.033420 -1.397129 -0.011257 -1.295916 0.000000 -0.000001
    12 -0.022360 -0.957436 0.018784 -0.874776 0.000000 0.000000
    13 -1.165056 -2.643940 0.044430 -0.549476 0.198815 -0.091100
    14 -0.024967 -1.123934 0.017597 -1.623924 0.000000 0.000001
    15 -0.020057 -0.890968 0.010090 -0.728844 0.000000 0.000000
    16 0.583510 -1.197277 0.185379 -0.052102 -1.189669 -0.675037
    17 1.535927 0.010246 0.005009 0.104082 0.235093 -0.755843
    18 1.100771 0.004527 -0.010679 -0.423178 -0.515407 -1.256662
    19 -0.016570 -0.085427 -0.042770 -2.519096 0.130082 -1.215060
    20 -2.704437 0.714234 -4.056095 1.500629 -4.096261 1.013347
    21 0.096944 -8.450418 -0.009365 0.019921 -0.513146 -0.023718
    22 0.447953 -2.798986 -0.200443 -1.208615 0.224166 0.273004
    23 -0.032909 -1.480204 0.004940 -1.668020 0.000000 0.000002
    24 -0.027022 -1.076920 -0.020210 -1.321794 0.000000 0.000000
    25 -0.249534 -2.846964 -0.174213 -1.029784 0.203062 0.157890
    26 0.043235 -1.683941 0.096012 -1.852447 0.002823 -0.000167
    27 0.031729 -1.160830 0.058838 -1.143837 0.000642 0.008372
    28 -0.963866 -2.785145 -0.085350 -0.684261 0.358320 0.011787
    29 0.028479 -1.403067 0.006271 -1.707337 0.000000 0.000000
    30 0.021413 -0.957781 0.020046 -0.759281 0.000000 0.000000
    31 1.090254 -2.375966 0.075771 -1.018939 0.002358 0.424979
    32 0.024032 -1.129042 0.017807 -1.753582 0.000000 0.000001
    33 0.014898 -0.883989 -0.019848 -0.880952 0.000000 0.000000
    34 -0.586770 -1.264477 0.200161 -0.378752 -1.128549 -2.437240
    35 1.655652 0.261812 0.036380 0.126397 -0.305179 1.069144
    36 1.117947 0.048424 -0.005766 -0.008405 -0.060493 1.219762
    37 -0.119867 -0.158574 0.037835 0.285382 -0.036576 1.371077
    38 -3.780262 8.053997 -0.258965 1.578347 -0.008267 -1.200337
    39 1.449081 -1.117134 1.509074 -0.265038 0.157388 -2.914350
    40 4.594990 7.785654 3.872275 -0.000001 0.000000 -2.696508
    41 -0.389066 -0.003800 0.000000 0.000001 0.000000 0.023980
    42 -0.350265 0.005619 0.000000 0.000000 0.000000 -0.010007
    43 -0.341040 0.002085 0.000000 0.000001 0.000000 -0.001544
    44 3.200576 21.489170 -1.230783 0.000000 0.000000 -1.250625
    45 -0.204595 19.569023 -1.230783 0.000000 0.000000 1.890968
    46 11.051978 -0.340799 -0.011297 0.000000 0.000000 1.242490
    47 5.797596 8.373769 3.872275 0.000000 0.000000 -2.675408
    48 -1.272893 31.772506 -1.242079 0.000000 0.000000 1.323576
    49 -3.249394 30.546666 -1.242079 0.000000 0.000000 -3.375906
    50 -2.866123 31.279655 -1.242079 0.000000 0.000000 -4.033216
    51 -2.092209 31.719836 -1.242079 0.000000 0.000000 1.934584
    52 0.540829 28.585277 -1.242080 0.000000 0.000000 0.349524
    53 -0.675397 31.368650 -1.242079 0.000000 0.000000 0.691524
    54 -0.171404 30.622883 -1.242079 0.000000 0.000000 0.399746
    55 0.212397 29.666497 -1.242079 0.000001 0.000000 0.369921
  time 12
    0 -0.127756 -9.876566 -7.519142 -0.080884 1.042017 0.423634
    1 9.958561 2.895949 8.450495 6.160421 -2.640523 -0.710275
    2 1.257180 8.762585 -0.153713 -1.570562 0.002683 -1.566807
    3 -0.071921 -8.498736 -0.104134 -0.824722 0.655783 -0.854339
    4 -0.488518 -2.755602 -0.228260 -0.874984 0.016588 -0.071802
    5 0.039887 -1.479790 0.029854 -1.691461 0.039501 0.003309
    6 0.028786 -1.075731 -0.023109 -0.648244 0.000000 0.000000
    7 0.250027 -2.820665 -0.238396 -0.863717 -0.002921 0.008443
    8 -0.049759 -1.680544 0.100479 -1.633952 0.000000 -0.000002
    9 -0.034142 -1.148312 0.084782 -0.802483 0.000000 0.000000
    10 0.957766 -2.746780 -0.090302 -0.624278 -0.102438 0.132186
    11 -0.033420 -1.397129 -0.011257 -1.295916 0.000000 -0.000001
    12 -0.022360 -0.957436 0.018784 -0.874776 0.000000 0.000000
    13 -1.165056 -2.643940 0.044430 -0.549476 0.198815 -0.091100
    14 -0.024967 -1.123934 0.017597 -1.623924 0.000000 0.000001
    15 -0.020057 -0.890968 0.010090 -0.728844 0.000000 0.000000
    16 0.583510 -1.197277 0.185379 -0.052102 -1.189669 -0.675037
    17 1.535927 0.010246 0.005009 0.104082 0.235093 -0.755843
    18 1.100771 0.004527 -0.010679 -0.423178 -0.515423 -1.256662
    19 -0.016570 -0.085427 -0.042770 -2.519096 0.130082 -1.215060
    20 -2.700531 0.710328 -3.989686 1.500629 -4.096261 1.013347
    21 0.096944 -8.450418 -0.009365 0.019921 -0.513146 -0.023718
    22 0.447953 -2.798986 -0.200443 -1.208615 0.224166 0.273004
    23 -0.032909 -1.480204 0.004940 -1.668020 0.000000 0.000002
    24 -0.027022 -1.076920 -0.020210 -1.321794 0.000000 0.000000
    25 -0.249534 -2.846964 -0.174213 -1.029784 0.203062 0.157890
    26 0.043235 -1.683941 0.096012 -1.852447 0.002823 -0.000167
    27 0.031729 -1.160830 0.058838 -1.143837 0.000642 0.008372
    28 -0.963866 -2.785145 -0.085350 -0.684261 0.358320 0.011787
    29 0.028479 -1.403067 0.006271 -1.707337 0.000000 0.000000
    30 0.021413 -0.957781 0.020046 -0.759281 0.000000 0.000000
    31 1.090254 -2.375966 0.075771 -1.018939 0.002358 0.424979
    32 0.024032 -1.129042 0.017807 -1.753582 0.000000 0.000001
    33 0.014898 -0.883989 -0.019848 -0.880952 0.000000 0.000000
    34 -0.586770 -1.264477 0.200161 -0.378752 -1.128527 -2.437240
    35 1.655652 0.261812 0.036380 0.126397 -0.305179 1.069144
    36 1.117947 0.048424 -0.005766 -0.008405 -0.060493 1.219762
    37 -0.119867 -0.158574 0.037835 0.285382 -0.036576 1.371077
    38 -3.780262 8.053997 -0.258965 1.578347 -0.008267 -1.200337
    39 1.449081 -1.117134 1.509074 -0.264251 0.138050 -2.909061
    40 4.594990 7.785654 3.872275 -0.000001 0.000000 -2.696508
    41 -0.389066 -0.003800 0.000000 0.000001 0.000000 0.023980
    42 -0.350265 0.005619 0.000000 0.000000 0.000000 -0.010007
    43 -0.341040 0.002085 0.000000 0.000001 0.000000 -0.001544
    44 2.661497 23.114220 -1.230783 0.000000 0.000000 -1.250625
    45 0.334484 17.943974 -1.230783 0.000000 0.000000 1.890968
    46 11.169169 -0.192357 -0.011297 0.000000 0.000000 1.565115
    47 5.797596 8.373769 3.872275 0.000000 0.000000 -2.675408
    48 -2.581527 31.592813 -1.242079 0.000000 0.000000 2.124711
    49 -3.143922 29.152092 -1.242079 0.000000 0.000000 -2.903876
    50 -3.330981 30.178059 -1.242079 0.000000 0.000000 -3.093568
    51 -3.162554 30.997158 -1.242079 0.000000 0.000000 2.630754
    52 -0.017782 30.171263 -1.242080 0.000000 0.000000 0.409926
    53 -1.874652 31.813976 -1.242079 0.000000 0.000000 1.657224
    54 -1.136277 31.689322 -1.242079 0.000000 0.000000 1.105571
    55 -0.494656 31.127480 -1.242079 0.000001 0.000000 0.600469
  time 13
    0 -0.127756 -10.208608 -7.519142 -0.150172 1.072668 0.344879
    1 9.958561 2.895949 8.450495 6.160421 -2.640523 -0.710275
    2 1.257180 8.762585 -0.153713 -1.570562 0.002683 -1.566807
    3 -0.071921 -8.498736 -0.104134 -0.800053 0.631041 -0.836853
    4 -0.488518 -2.755602 -0.228260 -0.874984 0.016588 -0.071802
    5 0.039887 -1.479790 0.029854 -1.691461 0.039501 0.003309
    6 0.028786 -1.075731 -0.023109 -0.648244 0.000000 0.000000
    7 0.250027 -2.820665 -0.238396 -0.863717 -0.002921 0.008443
    8 -0.049759 -1.680544 0.100479 -1.633952 0.000000 -0.000002
    9 -0.034142 -1.148312 0.084782 -0.802483 0.000000 0.000000
    10 0.957766 -2.746780 -0.090302 -0.624278 -0.102438 0.132186
    11 -0.033420 -1.397129 -0.011257 -1.295916 0.000000 -0.000001
    12 -0.022360 -0.957436 0.018784 -0.874776 0.000000 0.000000
    13 -1.165056 -2.643940 0.044430 -0.549476 0.198815 -0.091100
    14 -0.024967 -1.123934 0.017597 -1.623924 0.000000 0.000001
    15 -0.020057 -0.890968 0.010090 -0.728844 0.000000 0.000000
    16 0.583510 -1.197277 0.185379 -0.052102 -1.189669 -0.675037
    17 1.535927 0.010246 0.005009 0.104082 0.235093 -0.755843
    18 1.100771 0.004527 -0.010679 -0.423178 -0.515407 -1.256662
    19 -0.016570 -0.085427 -0.042770 -2.519096 0.130082 -1.215060
    20 -2.692718 0.698609 -3.907652 1.500629 -4.096261 1.013347
    21 0.096944 -8.450418 -0.009365 0.028347 -0.527255 -0.036410
    22 0.447953 -2.798986 -0.200443 -1.208615 0.224166 0.273004
    23 -0.032909 -1.480204 0.004940 -1.668020 0.000000 0.000002
    24 -0.027022 -1.076920 -0.020210 -1.321794 0.000000 0.000000
    25 -0.249534 -2.846964 -0.174213 -1.029784 0.203062 0.157890
    26 0.043235 -1.683941 0.096012 -1.852447 0.002823 -0.000167
    27 0.031729 -1.160830 0.058838 -1.143837 0.000642 0.008372
    28 -0.963866 -2.785145 -0.085350 -0.684261 0.358320 0.011787
    29 0.028479 -1.403067 0.006271 -1.707337 0.000000 0.000000
    30 0.021413 -0.957781 0.020046 -0.759281 0.000000 0.000000
    31 1.090254 -2.375966 0.075771 -1.018939 0.002358 0.424979
    32 0.024032 -1.129042 0.017807 -1.753582 0.000000 0.000001
    33 0.014898 -0.883989 -0.019848 -0.880952 0.000000 0.000000
    34 -0.586770 -1.264477 0.200161 -0.378752 -1.128549 -2.437240
    35 1.655652 0.261812 0.036380 0.126397 -0.305179 1.069144
    36 1.117947 0.048424 -0.005766 -0.008405 -0.060493 1.219762
    37 -0.119867 -0.158574 0.037835 0.285382 -0.036576 1.371077
    38 -3.780262 8.053997 -0.258965 1.578347 -0.008267 -1.200337
    39 1.449081 -1.117134 1.509074 -0.263634 0.120123 -2.904175
    40 4.594990 7.785654 3.872275 -0.000001 0.000000 -2.696508
    41 -0.389066 -0.003800 0.000000 0.000001 0.000000 0.023980
    42 -0.350265 0.005619 0.000000 0.000000 0.000000 -0.010007
    43 -0.341040 0.002085 0.000000 0.000001 0.000000 -0.001544
    44 3.200576 21.489170 -1.230783 0.000000 0.000000 -1.250625
    45 -0.204595 19.569023 -1.230783 0.000000 0.000000 1.890968
    46 11.051978 -0.340799 -0.011297 0.000000 0.000000 1.242490
    47 5.797596 8.373769 3.872275 0.000000 0.000000 -2.675408
    48 -1.272893 31.772506 -1.242079 0.000000 0.000000 1.323576
    49 -3.249394 30.546666 -1.242079 0.000000 0.000000 -3.375906
    50 -2.866123 31.279655 -1.242079 0.000000 0.000000 -4.033216
    51 -2.092209 31.719836 -1.242079 0.000000 0.000000 1.934584
    52 0.540829 28.585277 -1.242080 0.000000 0.000000 0.349524
    53 -0.675397 31.368650 -1.242079 0.000000 0.000000 0.691524
    54 -0.171404 30.622883 -1.242079 0.000000 0.000000 0.399746
    55 0.212397 29.666497 -1.242079 0.000001 0.000000 0.369921
  time 14
    0 -0.127756 -10.083604 -7.519142 -0.076372 1.007209 0.428897
    1 9.958561 2.895949 8.450495 6.160421 -2.640523 -0.710275
    2 1.257180 8.762585 -0.153713 -1.570562 0.002683 -1.566807
    3 -0.071921 -8.498736 -0.104134 -0.824722 0.655783 -0.854339
    4 -0.488518 -2.755602 -0.228260 -0.874984 0.016588 -0.071802
    5 0.039887 -1.479790 0.029854 -1.691461 0.039501 0.003309
    6 0.028786 -1.075731 -0.023109 -0.648244 0.000000 0.000000
    7 0.250027 -2.820665 -0.238396 -0.863717 -0.002921 0.008443
    8 -0.049759 -1.680544 0.100479 -1.633952 0.000000 -0.000002
    9 -0.034142 -1.148312 0.084782 -0.802506 0.000000 0.000000
    10 0.957766 -2.746780 -0.090302 -0.624278 -0.102438 0.132186
    11 -0.033420 -1.397129 -0.011257 -1.295916 0.000000 -0.000001
    12 -0.022360 -0.957436 0.018784 -0.874776 0.000000 0.000000
    13 -1.165056 -2.643940 0.044430 -0.549476 0.198815 -0.091100
    14 -0.024967 -1.123934 0.017597 -1.623924 0.000000 0.000001
    15 -0.020057 -0.890968 0.010090 -0.728844 0.000000 0.000000
    16 0.583510 -1.197277 0.185379 -0.052102 -1.189669 -0.675037
    17 1.535927 0.010246 0.005009 0.104082 0.235093 -0.755843
    18 1.100771 0.004527 -0.010679 -0.423178 -0.515407 -1.256662
    19 -0.016570 -0.085427 -0.042770 -2.519096 0.130082 -1.215060
    20 -2.684905 0.690796 -3.856870 1.500629 -4.096261 1.013347
    21 0.096944 -8.450418 -0.009365 0.019921 -0.513146 -0.023718
    22 0.447953 -2.798986 -0.200443 -1.208615 0.224166 0.273004
    23 -0.032909 -1.480204 0.004940 -1.668020 0.000000 0.000002
    24 -0.027022 -1.076920 -0.020210 -1.321794 0.000000 0.000000
    25 -0.249534 -2.846964 -0.174213 -1.029784 0.203062 0.157890
    26 0.043235 -1.683941 0.096012 -1.852447 0.002823 -0.000167
    27 0.031729 -1.160830 0.058838 -1.143837 0.000642 0.008372
    28 -0.963866 -2.785145 -0.085350 -0.684261 0.358320 0.011787
    29 0.028479 -1.403067 0.006271 -1.707337 0.000000 0.000000
    30 0.021413 -0.957781 0.020046 -0.759281 0.000000 0.000000
    31 1.090254 -2.375966 0.075771 -1.018939 0.002358 0.424979
    32 0.024032 -1.129042 0.017807 -1.753582 0.000000 0.000001
    33 0.014898 -0.883989 -0.019848 -0.880952 0.000000 0.000000
    34 -0.586770 -1.264477 0.200161 -0.378752 -1.128549 -2.437240
    35 1.655652 0.261812 0.036380 0.126397 -0.305179 1.069144
    36 1.117947 0.048424 -0.005766 -0.008405 -0.060493 1.219762
    37 -0.119867 -0.158574 0.037835 0.285382 -0.036576 1.371077
    38 -3.780262 8.053997 -0.258965 1.578347 -0.008267 -1.200337
    39 1.449081 -1.117134 1.509074 -0.263634 0.120123 -2.904175
    40 4.594990 7.785654 3.872275 -0.000001 0.000000 -2.696508
    41 -0.389066 -0.003800 0.000000 0.000001 0.000000 0.023980
    42 -0.350265 0.005619 0.000000 0.000000 0.000000 -0.010007
    43 -0.341040 0.002085 0.000000 0.000001 0.000000 -0.001544
    44 2.661497 23.114220 -1.230783 0.000000 0.000000 -1.250625
    45 0.334484 17.943974 -1.230783 0.000000 0.000000 1.890968
    46 11.169169 -0.192357 -0.011297 0.000000 0.000000 1.565115
    47 5.797596 8.373769 3.872275 0.000000 0.000000 -2.675408
    48 -2.581527 31.592813 -1.242079 0.000000 0.000000 2.124711
    49 -3.143922 29.152092 -1.242079 0.000000 0.000000 -2.903876
    50 -3.330981 30.178059 -1.242079 0.000000 0.000000 -3.093568
    51 -3.162554 30.997158 -1.242079 0.000000 0.000000 2.630754
    52 -0.017782 30.171263 -1.242080 0.000000 0.000000 0.409926
    53 -1.874652 31.813976 -1.242079 0.000000 0.000000 1.657224
    54 -1.136277 31.689322 -1.242079 0.000000 0.000000 1.105571
    55 -0.494656 31.127480 -1.242079 0.000001 0.000000 0.600469
  time 15
    0 -0.127756 -9.876566 -7.519142 -0.150172 1.072668 0.344879
    1 9.958561 2.895949 8.450495 6.160421 -2.640523 -0.710275
    2 1.257180 8.762585 -0.153713 -1.570562 0.002683 -1.566807
    3 -0.071921 -8.498736 -0.104134 -0.824722 0.655783 -0.854339
    4 -0.488518 -2.755602 -0.228260 -0.874984 0.016588 -0.071802
    5 0.039887 -1.479790 0.029854 -1.691461 0.039501 0.003309
    6 0.028786 -1.075731 -0.023109 -0.648244 0.000000 0.000000
    7 0.250027 -2.820665 -0.238396 -0.863717 -0.002921 0.008443
    8 -0.049759 -1.680544 0.100479 -1.633952 0.000000 -0.000002
    9 -0.034142 -1.148312 0.084782 -0.802483 0.000000 0.000000
    10 0.957766 -2.746780 -0.090302 -0.624278 -0.102438 0.132186
    11 -0.033420 -1.397129 -0.011257 -1.295916 0.000000 -0.000001
    12 -0.022360 -0.957436 0.018784 -0.874776 0.000000 0.000000
    13 -1.165056 -2.643940 0.044430 -0.549476 0.198815 -0.091100
    14 -0.024967 -1.123934 0.017597 -1.623924 0.000000 0.000001
    15 -0.020057 -0.890968 0.010090 -0.728844 0.000000 0.000000
    16 0.583510 -1.197277 0.185379 -0.052102 -1.189669 -0.675037
    17 1.535927 0.010246 0.005009 0.104082 0.235093 -0.755843
    18 1.100771 0.004527 -0.010679 -0.423178 -0.515407 -1.256662
    19 -0.016570 -0.085427 -0.042770 -2.519096 0.130082 -1.215060
    20 -2.684905 0.690796 -3.856870 1.500629 -4.096261 1.013347
    21 0.096944 -8.450418 -0.009365 0.019921 -0.513146 -0.023718
    22 0.447953 -2.798986 -0.200443 -1.208615 0.224166 0.273004
    23 -0.032909 -1.480204 0.004940 -1.668020 0.000000 0.000002
    24 -0.027022 -1.076920 -0.020210 -1.321794 0.000000 0.000000
    25 -0.249534 -2.846964 -0.174213 -1.029784 0.203062 0.157890
    26 0.043235 -1.683941 0.096012 -1.852447 0.002823 -0.000167
    27 0.031729 -1.160830 0.058838 -1.143837 0.000642 0.008372
    28 -0.963866 -2.785145 -0.085350 -0.684261 0.358320 0.011787
    29 0.028479 -1.403067 0.006271 -1.707337 0.000000 0.000000
    30 0.021413 -0.957781 0.020046 -0.759281 0.000000 0.000000
    31 1.090254 -2.375966 0.075771 -1.018939 0.002358 0.424979
    32 0.024032 -1.129042 0.017807 -1.753582 0.000000 0.000001
    33 0.014898 -0.883989 -0.019848 -0.880952 0.000000 0.000000
    34 -0.586770 -1.264477 0.200161 -0.378752 -1.128549 -2.437240
    35 1.655652 0.261812 0.036380 0.126397 -0.305179 1.069144
    36 1.117947 0.048424 -0.005766 -0.008405 -0.060493 1.219762
    37 -0.119867 -0.158574 0.037835 0.285382 -0.036576 1.371077
    38 -3.780262 8.053997 -0.258965 1.578347 -0.008267 -1.200337
    39 1.449081 -1.117134 1.509074 -0.263634 0.120123 -2.904175
    40 4.594990 7.785654 3.872275 -0.000001 0.000000 -2.696508
    41 -0.389066 -0.003800 0.000000 0.000001 0.000000 0.023980
    42 -0.350265 0.005619 0.000000 0.000000 0.000000 -0.010007
    43 -0.341040 0.002085 0.000000 0.000001 0.000000 -0.001544
    44 2.661497 23.114220 -1.230783 0.000000 0.000000 -1.250625
    45 0.334484 17.943974 -1.230783 0.000000 0.000000 1.890968
    46 11.169169 -0.192357 -0.011297 0.000000 0.000000 1.565115
    47 5.797596 8.373769 3.872275 0.000000 0.000000 -2.675408
    48 -2.581527 31.592813 -1.242079 0.000000 0.000000 2.124711
    49 -3.143922 29.152092 -1.242079 0.000000 0.000000 -2.903876
    50 -3.330981 30.178059 -1.242079 0.000000 0.000000 -3.093568
    51 -3.162554 30.997158 -1.242079 0.000000 0.000000 2.630754
    52 -0.017782 30.171263 -1.242080 0.000000 0.000000 0.409926
    53 -1.874652 31.813976 -1.242079 0.000000 0.000000 1.657224
    54 -1.136277 31.689322 -1.242079 0.000000 0.000000 1.105571
    55 -0.494656 31.127480 -1.242079 0.000001 0.000000 0.600469
end
