version 1
nodes
  0 "Bip01" -1
  1 "Bip01 Pelvis" 0
  2 "Bip01 Spine" 1
  3 "Bip01 Spine1" 2
  4 "Bip01 Spine2" 3
  5 "Bip01 Spine3" 4
  6 "Bip01 Neck" 5
  7 "Bip01 Head" 6
  8 "Bip01 L Clavicle" 6
  9 "Bip01 L UpperArm" 8
  10 "Bip01 L Forearm" 9
  11 "Bip01 L Hand" 10
  12 "Bip01 L Finger0" 11
  13 "Bip01 L Finger01" 12
  14 "Bip01 L Finger1" 11
  15 "Bip01 L Finger11" 14
  16 "lflash" 11
  17 "gunslinger_minor_p001" 16
  18 "Bip01 R Clavicle" 6
  19 "Bip01 R UpperArm" 18
  20 "Bip01 R Forearm" 19
  21 "Bip01 R Hand" 20
  22 "Bip01 R Finger0" 21
  23 "Bip01 R Finger01" 22
  24 "Bip01 R Finger1" 21
  25 "Bip01 R Finger11" 24
  26 "rflash" 21
  27 "gunslinger_minor_p" 26
  28 "Bip01 L Thigh" 1
  29 "Bip01 L Calf" 28
  30 "Bip01 L Foot" 29
  31 "Bip01 L Toe0" 30
  32 "Bip01 R Thigh" 29
  33 "Bip01 R Calf" 32
  34 "Bip01 R Foot" 33
  35 "Bip01 R Toe0" 34
  36 "Plane002" 16
  37 "Plane003" 26
end
skeleton
  time 0
    0 -6.306825 3.027436 -8.014934 -0.015339 0.017745 -1.047574
    1 -2.276896 0.000003 -1.238186 -1.570795 -1.570796 0.000000
    2 1.797775 0.711858 0.000057 -0.046816 0.017984 0.214919
    3 4.119244 -0.003218 0.000058 -0.046811 0.017984 0.214197
    4 4.119228 -0.003215 0.000059 -0.046811 0.017984 0.214199
    5 4.119236 -0.003220 0.000058 -0.046811 0.017984 0.214174
    6 4.119690 -0.003366 -0.000020 0.005760 -0.065509 0.312238
    7 4.443604 0.000000 0.000000 0.565233 -0.492083 -0.408938
    8 0.113430 0.013489 1.728975 -2.669315 -1.367352 -0.783465
    9 5.849109 -0.000002 0.000000 -0.858752 -0.062854 -0.178365
    10 9.697663 0.000002 -0.000004 0.000000 0.000000 -0.126373
    11 10.762130 0.000001 0.000004 -1.572372 0.008375 0.001413
    12 0.867325 -0.222958 -0.645012 1.880709 0.522696 0.904654
    13 2.270588 -0.000003 0.000004 0.000000 0.000000 0.307301
    14 3.240425 -0.290825 -0.028107 -0.000597 0.000527 0.723045
    15 2.011148 0.000000 0.000000 0.000000 0.000000 1.745329
    16 14.442873 0.913799 -4.104937 0.000001 0.000000 0.000000
    17 -4.076781 -0.001918 0.908444 3.141592 0.000000 0.000000
    18 -0.113422 -0.006420 -1.728976 0.003915 1.410407 -3.451694
    19 5.849108 0.000000 -0.000004 1.194499 0.667100 -1.028590
    20 9.697662 0.000004 0.000000 0.000000 0.000000 -0.271476
    21 10.762132 -0.000004 0.000000 1.537367 -0.057894 0.120064
    22 0.867321 -0.222958 0.645012 -1.880709 -0.522696 0.904654
    23 2.270590 -0.000006 -0.000004 0.000000 0.000000 0.307301
    24 3.240423 -0.290825 0.028111 0.000597 -0.000527 0.723045
    25 2.011153 0.000000 -0.000004 0.000000 0.000000 1.745329
    26 14.688066 1.140224 3.090290 0.000001 0.000000 0.000000
    27 -3.727534 -0.000336 0.155897 0.000000 0.000000 0.000000
    28 -0.000006 0.000007 3.619081 -2.487692 -0.124115 1.161827
    29 16.573921 0.000002 0.000000 0.000000 0.000000 -1.437147
    30 15.128182 0.000001 0.000000 0.184671 -0.297020 -0.632262
    31 5.758665 4.244732 -0.000001 0.000000 0.000000 1.570796
    32 -6.659762 -16.730077 5.701241 0.786904 -1.066468 -0.478918
    33 16.573921 -0.000001 -0.000001 0.000000 0.000000 -2.564402
    34 15.128182 0.000000 0.000002 -0.284690 -0.072276 0.435712
    35 5.758665 4.244732 -0.000001 0.000000 0.000000 1.570796
    36 15.510132 -0.000004 0.000008 0.000000 0.000000 -1.570796
    37 16.527199 0.000008 -0.000008 0.000000 0.000000 -1.570796
end
