version 1
nodes
  0 "vulcanus1_root" -1
  1 "trigger" 0
  2 "save" 0
  3 "holt" 0
  4 "part1" 3
  5 "part2" 4
  6 "pipe" 5
  7 "simbolr" 3
  8 "spartR" 3
  9 "simbolL" 3
  10 "spartL" 3
  11 "sub_hol" 3
  12 "trig" 0
  13 "megazine" 0
  14 "vulcanus1_root01" -1
  15 "trig01" 14
  16 "trigger01" 14
  17 "save01" 14
  18 "megazine01" 14
  19 "holt01" 14
  20 "sub_hol01" 19
  21 "spartL01" 19
  22 "simbolL01" 19
  23 "simbolr01" 19
  24 "spartR01" 19
  25 "part03" 19
  26 "part04" 25
  27 "pipe01" 26
  28 "R_muzl" -1
  29 "L_muzl" -1
  30 "root" -1
  31 "Bone01" 30
  32 "Bone_L_Upper" 31
  33 "Bone_Lefthand" 31
  34 "Bone13" 33
  35 "Bone14" 34
  36 "Bone15" 35
  37 "Bone17" 33
  38 "Bone18" 37
  39 "Bone19" 38
  40 "Bone21" 33
  41 "Bone22" 40
  42 "Bone23" 41
  43 "Bone09" 33
  44 "Bone10" 43
  45 "Bone11" 44
  46 "Bone05" 33
  47 "Bone06" 46
  48 "Bone07" 47
  49 "Bone_Se_Hand-L" 33
  50 "Bone04" 30
  51 "Bone_Righthand" 50
  52 "Bone39" 51
  53 "Bone40" 52
  54 "Bone41" 53
  55 "Bone35" 51
  56 "Bone36" 55
  57 "Bone37" 56
  58 "Bone31" 51
  59 "Bone32" 58
  60 "Bone33" 59
  61 "Bone43" 51
  62 "Bone44" 61
  63 "Bone45" 62
  64 "Bone27" 51
  65 "Bone28" 64
  66 "Bone29" 65
  67 "Bone_Se_Hand-R" 51
  68 "Bone_R_Upper" 50
end
skeleton
  time 0
    0 5.754082 -11.211280 -7.892962 0.691590 -1.893344 0.885062
    1 0.403099 0.000000 -0.214750 0.000000 3.141592 0.000001
    2 0.824964 0.483966 0.408869 0.000000 0.000000 0.000000
    3 0.620036 0.000000 2.415075 0.000000 0.000000 -0.000003
    4 1.392155 0.000006 -3.431669 0.000000 0.000000 0.000000
    5 0.000000 0.000000 2.602845 0.000000 0.000000 0.000000
    6 -0.395516 -0.000002 -0.210192 0.000000 0.000000 0.000000
    7 0.997431 0.729159 -3.941777 0.000000 0.000000 0.000000
    8 1.145214 0.627735 -2.532980 0.000000 0.000000 0.000000
    9 0.997437 -0.749061 -3.941777 0.000000 0.000000 0.000000
    10 1.145219 -0.627941 -2.532980 0.000000 0.000000 0.000000
    11 0.996639 0.000004 -2.315122 -0.007143 0.000003 0.000001
    12 0.759818 0.000001 -2.525594 0.000000 0.000000 -0.000003
    13 0.933434 0.000001 -1.316105 0.000000 3.141592 0.000001
    14 -5.968932 -11.519748 -3.970967 -0.220260 1.620755 1.406684
    15 -0.759818 0.000000 2.525594 0.000000 0.000000 -0.000003
    16 -0.403099 0.000000 0.214750 0.000000 3.141592 0.000001
    17 -0.824964 -0.483965 -0.408869 0.000000 0.000000 0.000000
    18 -0.933434 -0.000001 1.316105 0.000000 3.141592 0.000001
    19 -0.620036 0.000000 -2.415075 0.000000 0.000000 -0.000003
    20 -0.996639 -0.000004 2.315122 -0.007143 0.000003 0.000001
    21 -1.145219 0.627941 2.532980 0.000000 0.000000 0.000000
    22 -0.997437 0.749062 3.941777 0.000000 0.000000 0.000000
    23 -0.997431 -0.729159 3.941777 0.000000 0.000000 0.000000
    24 -1.145214 -0.627735 2.532980 0.000000 0.000000 0.000000
    25 -1.392155 -0.000005 3.431669 0.000000 0.000000 0.000000
    26 0.000000 0.000000 -2.602845 0.000000 0.000000 0.000000
    27 0.395516 0.000002 0.210192 0.000000 0.000000 0.000000
    28 22.104044 3.519106 -40.251415 -3.141592 -1.570796 -1.570796
    29 22.104046 -2.991518 -40.251415 0.000000 1.570796 -1.570796
    30 -0.002752 6.307521 -3.593240 0.000000 0.000000 0.000000
    31 8.071784 -4.373804 -4.796003 0.054360 -1.951027 -0.164607
    32 7.167517 4.477298 -0.306061 1.565313 -3.125846 0.645470
    33 -0.056296 -8.416703 -0.111947 -0.153292 0.300087 -0.193231
    34 -0.488518 -2.755602 -0.228260 -0.515164 0.075324 -0.142451
    35 0.039887 -1.542292 0.022041 -1.830728 -0.007394 0.040952
    36 0.028786 -1.153858 -0.120768 -0.979934 -0.014921 0.020434
    37 0.250027 -2.820665 -0.238396 -0.204481 0.042453 -0.035205
    38 -0.049759 -1.594604 0.026258 -1.647879 -0.001702 -0.043554
    39 -0.034142 -1.175657 0.045718 -1.234176 0.005848 -0.032562
    40 0.957766 -2.746780 -0.090302 0.184875 -0.201311 0.168931
    41 -0.033420 -1.393223 -0.022976 -0.653210 0.008233 -0.032036
    42 -0.022360 -0.957436 0.003159 -0.661484 0.007802 -0.032059
    43 -1.180681 -2.507217 -0.193859 -0.624205 0.246298 -0.187792
    44 -0.024967 -1.127840 0.017597 -1.225314 -0.001079 -0.051796
    45 -0.020057 -0.906594 0.041341 -1.268088 -0.000144 -0.051809
    46 0.622574 -1.197277 0.185379 0.606081 -1.023105 -0.663940
    47 1.489051 -0.204604 0.063605 0.041211 -0.203906 -0.719071
    48 0.971861 -0.198604 0.051823 0.129070 -0.271382 -1.223149
    49 0.120153 -0.050270 -0.054489 0.287569 3.110905 1.561085
    50 -8.712433 -5.063286 -3.977967 0.369797 -4.105191 0.495460
    51 0.042255 -8.450418 0.025792 0.034927 -0.544101 0.066863
    52 0.447953 -2.798986 -0.200443 -0.516672 -0.070295 0.146291
    53 -0.032909 -1.499736 0.040097 -1.814587 0.021440 -0.038313
    54 -0.027022 -1.112077 -0.028023 -0.900836 0.020829 -0.013567
    55 -0.249534 -2.846964 -0.174213 -0.205490 -0.044312 0.029835
    56 0.043235 -1.656596 0.056948 -1.745854 -0.024550 0.013424
    57 0.031729 -1.141298 0.054932 -1.158521 -0.012913 0.006371
    58 -0.963866 -2.785145 -0.085350 0.129668 0.196049 -0.154919
    59 0.028479 -1.403067 -0.013261 -0.680127 -0.014597 -0.027085
    60 0.021413 -0.946062 0.016140 -0.630135 -0.012979 -0.025036
    61 1.164475 -2.543940 -0.170330 -0.633215 -0.236567 0.197655
    62 0.024032 -1.148574 -0.009538 -1.256006 0.021692 0.061554
    63 0.014898 -0.903521 -0.012035 -1.250847 0.018444 0.060294
    64 -0.586770 -1.264477 0.200161 -0.738058 -0.938493 -2.315382
    65 1.557992 0.035243 0.016848 -0.015249 -0.005984 0.762841
    66 1.114041 0.040611 -0.005766 -0.030912 -0.033911 1.103611
    67 -0.139399 -0.111698 0.014397 0.285382 -0.030687 1.580508
    68 -7.553814 4.010905 -0.430845 1.575147 -0.029795 -0.576475
  time 1
    0 5.754082 -11.211280 -7.892962 0.691590 -1.893344 0.885062
    1 0.403099 0.000000 -0.214750 0.000000 3.141592 0.000001
    2 0.824964 0.483966 0.408869 0.000000 0.000000 0.000000
    3 0.620036 0.000000 2.415075 0.000000 0.000000 -0.000003
    4 1.392155 0.000006 -3.431669 0.000000 0.000000 0.000000
    5 0.000000 0.000000 2.602845 0.000000 0.000000 0.000000
    6 -0.395516 -0.000002 -0.210192 0.000000 0.000000 0.000000
    7 0.997431 0.729159 -3.941777 0.000000 0.000000 0.000000
    8 1.145214 0.627735 -2.532980 0.000000 0.000000 0.000000
    9 0.997437 -0.749061 -3.941777 0.000000 0.000000 0.000000
    10 1.145219 -0.627941 -2.532980 0.000000 0.000000 0.000000
    11 0.996639 0.000004 -2.315122 -0.007143 0.000003 0.000001
    12 0.759818 0.000001 -2.525594 0.000000 0.000000 -0.000003
    13 0.933434 0.000001 -1.316105 0.000000 3.141592 0.000001
    14 -5.968932 -11.519748 -3.970967 -0.220260 1.620755 1.406684
    15 -0.759818 0.000000 2.525594 0.000000 0.000000 -0.000003
    16 -0.403099 0.000000 0.214750 0.000000 3.141592 0.000001
    17 -0.824964 -0.483965 -0.408869 0.000000 0.000000 0.000000
    18 -0.933434 -0.000001 1.316105 0.000000 3.141592 0.000001
    19 -0.620036 0.000000 -2.415075 0.000000 0.000000 -0.000003
    20 -0.996639 -0.000004 2.315122 -0.007143 0.000003 0.000001
    21 -1.145219 0.627941 2.532980 0.000000 0.000000 0.000000
    22 -0.997437 0.749062 3.941777 0.000000 0.000000 0.000000
    23 -0.997431 -0.729159 3.941777 0.000000 0.000000 0.000000
    24 -1.145214 -0.627735 2.532980 0.000000 0.000000 0.000000
    25 -1.392155 -0.000005 3.431669 0.000000 0.000000 0.000000
    26 0.000000 0.000000 -2.602845 0.000000 0.000000 0.000000
    27 0.395516 0.000002 0.210192 0.000000 0.000000 0.000000
    28 22.104044 3.519106 -40.251415 -3.141592 -1.570796 -1.570796
    29 22.104046 -2.991518 -40.251415 0.000000 1.570796 -1.570796
    30 -0.002752 6.307521 -3.593240 0.000000 0.000000 0.000000
    31 8.071784 -4.373804 -4.796003 0.054360 -1.951027 -0.164607
    32 7.167517 4.477298 -0.306061 1.565313 -3.125846 0.645470
    33 -0.056296 -8.416703 -0.111947 -0.153292 0.300087 -0.193231
    34 -0.488518 -2.755602 -0.228260 -0.515164 0.075324 -0.142451
    35 0.039887 -1.542292 0.022041 -1.830728 -0.007394 0.040952
    36 0.028786 -1.153858 -0.120768 -0.979934 -0.014921 0.020434
    37 0.250027 -2.820665 -0.238396 -0.204481 0.042453 -0.035205
    38 -0.049759 -1.594604 0.026258 -1.647879 -0.001702 -0.043554
    39 -0.034142 -1.175657 0.045718 -1.234176 0.005848 -0.032562
    40 0.957766 -2.746780 -0.090302 0.184875 -0.201311 0.168931
    41 -0.033420 -1.393223 -0.022976 -0.653210 0.008233 -0.032036
    42 -0.022360 -0.957436 0.003159 -0.661484 0.007802 -0.032059
    43 -1.180681 -2.507217 -0.193859 -0.624205 0.246298 -0.187792
    44 -0.024967 -1.127840 0.017597 -1.225314 -0.001079 -0.051796
    45 -0.020057 -0.906594 0.041341 -1.268088 -0.000144 -0.051809
    46 0.622574 -1.197277 0.185379 0.606081 -1.023105 -0.663940
    47 1.489051 -0.204604 0.063605 0.041211 -0.203906 -0.719071
    48 0.971861 -0.198604 0.051823 0.129070 -0.271382 -1.223149
    49 0.120153 -0.050270 -0.054489 0.287569 3.110905 1.561085
    50 -8.712433 -5.063286 -3.977967 0.369797 -4.105191 0.495460
    51 0.042255 -8.450418 0.025792 0.034927 -0.544101 0.066863
    52 0.447953 -2.798986 -0.200443 -0.516672 -0.070295 0.146291
    53 -0.032909 -1.499736 0.040097 -1.814587 0.021440 -0.038313
    54 -0.027022 -1.112077 -0.028023 -0.900836 0.020829 -0.013567
    55 -0.249534 -2.846964 -0.174213 -0.205490 -0.044312 0.029835
    56 0.043235 -1.656596 0.056948 -1.745854 -0.024550 0.013424
    57 0.031729 -1.141298 0.054932 -1.158521 -0.012913 0.006371
    58 -0.963866 -2.785145 -0.085350 0.129668 0.196049 -0.154919
    59 0.028479 -1.403067 -0.013261 -0.680127 -0.014597 -0.027085
    60 0.021413 -0.946062 0.016140 -0.630135 -0.012979 -0.025036
    61 1.164475 -2.543940 -0.170330 -0.633215 -0.236567 0.197655
    62 0.024032 -1.148574 -0.009538 -1.256006 0.021692 0.061554
    63 0.014898 -0.903521 -0.012035 -1.250847 0.018444 0.060294
    64 -0.586770 -1.264477 0.200161 -0.738058 -0.938493 -2.315382
    65 1.557992 0.035243 0.016848 -0.015249 -0.005984 0.762841
    66 1.114041 0.040611 -0.005766 -0.030912 -0.033911 1.103611
    67 -0.139399 -0.111698 0.014397 0.285382 -0.030687 1.580508
    68 -7.553814 4.010905 -0.430845 1.575147 -0.029795 -0.576475
end
