version 1
nodes
  0 "root_restrictionpistol" -1
  1 "wing_R_1" 0
  2 "wing_R_3" 1
  3 "wing_R_4" 1
  4 "wing_R_2" 1
  5 "wing_L_1" 0
  6 "wing_L_4" 5
  7 "wing_L_3" 5
  8 "wing_L_2" 5
  9 "cover" 0
  10 "x_bone" 0
  11 "megazine" -1
  12 "restrictionpistol_core" 0
  13 "restrictionpistol_core001" -1
  14 "restrictionpistol_core002" -1
  15 "restrictionpistol_charge1_bone1" -1
  16 "restrictionpistol_charge1_bone2" 15
  17 "restrictionpistol_charge2_bone1" -1
  18 "restrictionpistol_charge2_bone2" 17
  19 "restrictionpistol_charge3_bone1" -1
  20 "restrictionpistol_charge3_bone2" 19
  21 "restrictionpistol_charge4_bone1" -1
  22 "restrictionpistol_charge4_bone2" 21
  23 "restrictionpistol_charge5_bone1" -1
  24 "restrictionpistol_charge5_bone2" 23
  25 "root" -1
  26 "Bone01" 25
  27 "Bone_L_Upper" 26
  28 "Bone_Lefthand" 26
  29 "Bone13" 28
  30 "Bone14" 29
  31 "Bone15" 30
  32 "Bone17" 28
  33 "Bone18" 32
  34 "Bone19" 33
  35 "Bone21" 28
  36 "Bone22" 35
  37 "Bone23" 36
  38 "Bone09" 28
  39 "Bone10" 38
  40 "Bone11" 39
  41 "Bone05" 28
  42 "Bone06" 41
  43 "Bone07" 42
  44 "Bone_Se_Hand-L" 28
  45 "Bone04" 25
  46 "Bone_Righthand" 45
  47 "Bone39" 46
  48 "Bone40" 47
  49 "Bone41" 48
  50 "Bone35" 46
  51 "Bone36" 50
  52 "Bone37" 51
  53 "Bone31" 46
  54 "Bone32" 53
  55 "Bone33" 54
  56 "Bone43" 46
  57 "Bone44" 56
  58 "Bone45" 57
  59 "Bone27" 46
  60 "Bone28" 59
  61 "Bone29" 60
  62 "Bone_Se_Hand-R" 46
  63 "Bone_R_Upper" 45
end
skeleton
  time 0
    0 0.000000 0.575050 -1.161792 1.570797 -1.570796 0.000000
    1 3.420055 -3.415972 3.851618 0.000000 0.000000 0.000000
    2 0.000000 0.000000 0.000000 0.000001 1.483531 0.000000
    3 0.000000 0.000000 0.000000 0.000001 1.658063 0.000000
    4 0.000000 -0.890826 0.000000 0.000000 0.000000 0.000000
    5 3.419790 3.416002 3.852050 0.000000 0.000000 0.000000
    6 0.000000 0.000000 0.000000 0.000002 1.658065 0.000001
    7 0.000000 0.000000 0.000000 0.000000 1.483532 -0.000002
    8 0.000000 0.891000 0.000000 0.000000 0.000000 0.000000
    9 0.081354 0.000002 7.236489 -0.000001 1.570796 0.000000
    10 3.215855 0.000000 -0.330850 0.000000 1.570796 0.000000
    11 0.000000 -2.906230 -1.240058 -3.141592 0.000000 -1.570796
    12 3.128685 0.000002 3.861163 -1.570796 0.000000 -1.570796
    13 -9.577088 -3.286112 -37.149792 0.000000 0.000000 0.000000
    14 0.000000 -3.286112 -37.149792 0.000000 0.000000 0.000000
    15 2.021292 -2.487781 -93.935097 1.052981 -0.119352 -1.593149
    16 -5.222887 0.000000 0.000004 0.000000 0.000000 0.000000
    17 2.348330 -2.997204 -94.687119 1.052981 -0.119352 -1.593149
    18 -5.222888 0.000000 0.000000 0.000000 0.000000 0.000000
    19 2.821898 -3.164162 -94.752831 1.052981 -0.119352 -1.593149
    20 -5.222887 -0.000008 0.000004 0.000000 0.000000 0.000000
    21 2.827152 -3.393940 -94.217621 1.052981 -0.119352 -1.593149
    22 -5.222887 0.000000 0.000000 0.000000 0.000000 0.000000
    23 2.817394 -2.942872 -94.657997 1.052981 -0.119352 -1.593149
    24 -5.222887 0.000000 0.000004 0.000000 0.000000 0.000000
    25 0.001265 -0.569176 -20.601572 0.000000 0.000000 0.000000
    26 9.310103 -5.299614 -12.557959 3.138909 -0.000224 -1.566807
    27 1.257180 8.762585 -0.153713 -1.570562 0.002683 -1.566807
    28 -0.071921 -8.498736 -0.104134 -0.025046 0.287591 0.014898
    29 -0.488518 -2.755602 -0.228260 0.106454 0.010332 -0.264490
    30 0.039887 -1.479790 0.029854 -0.055395 0.000000 0.000001
    31 0.028786 -1.075731 -0.023109 0.002099 0.000000 0.000000
    32 0.250027 -2.820665 -0.238396 0.041826 -0.002921 0.008443
    33 -0.049759 -1.680544 0.100479 0.019826 0.000000 -0.000002
    34 -0.034142 -1.148312 0.084782 -0.040115 0.000000 0.000000
    35 0.957766 -2.746780 -0.090302 -0.017221 -0.162277 0.191558
    36 -0.033420 -1.397129 -0.011257 0.013931 0.000000 -0.000001
    37 -0.022360 -0.957436 0.018784 0.003845 0.000000 0.000000
    38 -1.180681 -2.507217 -0.193859 0.082999 0.013294 -0.477915
    39 -0.024967 -1.123934 0.017597 -0.018065 0.000000 0.000001
    40 -0.020057 -0.890968 0.010090 -0.060797 0.000000 0.000000
    41 0.583510 -1.197277 0.185379 0.158049 -0.404973 -0.364290
    42 1.535927 0.010246 0.005009 -0.002964 -0.012979 0.000887
    43 1.100771 0.004527 -0.010679 -0.002796 0.015973 0.003458
    44 0.120153 -0.050270 -0.054489 0.287569 3.110905 1.561085
    45 -9.310107 -5.231260 -12.513384 0.004984 -3.131565 -1.566847
    46 0.096944 -8.450418 -0.009365 -0.032965 -0.297907 -0.004663
    47 0.447953 -2.798986 -0.200443 0.106456 -0.010396 0.265094
    48 -0.032909 -1.480204 0.004940 -0.055403 0.000000 0.000002
    49 -0.027022 -1.076920 -0.020210 0.002094 0.000000 0.000000
    50 -0.249534 -2.846964 -0.174213 0.041903 -0.000125 -0.008396
    51 0.043235 -1.683941 0.096012 0.019757 0.002823 -0.000167
    52 0.031729 -1.160830 0.058838 -0.040181 0.000642 0.008372
    53 -0.963866 -2.785145 -0.085350 -0.017227 0.162276 -0.191556
    54 0.028479 -1.403067 0.006271 0.013941 0.000000 0.000000
    55 0.021413 -0.957781 0.020046 0.003851 0.000000 0.000000
    56 1.164475 -2.543940 -0.170330 0.083003 -0.013294 0.477915
    57 0.024032 -1.129042 0.017807 -0.018074 0.000000 0.000001
    58 0.014898 -0.883989 -0.019848 -0.060801 0.000000 0.000000
    59 -0.586770 -1.264477 0.200161 -0.152092 -0.410513 -2.814816
    60 1.522835 0.058681 0.016848 0.001410 0.008985 -0.046880
    61 1.117947 0.048424 -0.005766 -0.000243 -0.025198 0.065422
    62 -0.139399 -0.111698 0.014397 0.285382 -0.030687 1.580508
    63 -1.393470 8.839177 -0.239433 1.580804 -0.005023 -1.566847
end
triangles
$0b_restrictionpistol_led_y
  4 4.836801 -3.276565 2.258261 -1.000000 0.000000 0.000000 0.223529 0.270588
  4 4.836802 -3.626565 2.458261 -1.000000 0.000000 0.000000 0.333333 0.458824
  4 4.836802 -3.686565 2.258261 -1.000000 0.000000 0.000000 0.223529 0.486275
$0b_restrictionpistol_led_y
  4 4.836801 -3.276565 2.258261 -1.000000 0.000000 0.000000 0.223529 0.270588
  4 4.836802 -3.476565 2.608261 -1.000000 0.000000 0.000000 0.411765 0.380392
  4 4.836802 -3.626565 2.458261 -1.000000 0.000000 0.000000 0.333333 0.458824
$0b_restrictionpistol_led_y
  4 4.836801 -3.276565 2.258261 -1.000000 0.000000 0.000000 0.223529 0.270588
  4 4.836802 -3.276565 2.668261 -1.000000 0.000000 0.000000 0.443137 0.270588
  4 4.836802 -3.476565 2.608261 -1.000000 0.000000 0.000000 0.411765 0.380392
$0b_restrictionpistol_led_y
  4 4.836801 -3.276565 2.258261 -1.000000 0.000000 0.000000 0.223529 0.270588
  4 4.836801 -3.076565 2.608261 -1.000000 0.000000 0.000000 0.411765 0.380392
  4 4.836802 -3.276565 2.668261 -1.000000 0.000000 0.000000 0.443137 0.270588
$0b_restrictionpistol_led_y
  4 4.836801 -3.276565 2.258261 -1.000000 0.000000 0.000000 0.223529 0.270588
  4 4.836801 -2.926565 2.458261 -1.000000 0.000000 0.000000 0.333333 0.458824
  4 4.836801 -3.076565 2.608261 -1.000000 0.000000 0.000000 0.411765 0.380392
$0b_restrictionpistol_led_y
  4 4.836801 -3.276565 2.258261 -1.000000 0.000000 0.000000 0.223529 0.270588
  4 4.836801 -2.866565 2.258261 -1.000000 0.000000 0.000000 0.223529 0.486275
  4 4.836801 -2.926565 2.458261 -1.000000 0.000000 0.000000 0.333333 0.458824
$0b_restrictionpistol_led_y
  4 4.836801 -3.276565 2.258261 -1.000000 0.000000 0.000000 0.223529 0.270588
  4 4.836801 -2.926565 2.058261 -1.000000 0.000000 0.000000 0.117647 0.458824
  4 4.836801 -2.866565 2.258261 -1.000000 0.000000 0.000000 0.223529 0.486275
$0b_restrictionpistol_led_y
  4 4.836801 -3.276565 2.258261 -1.000000 0.000000 0.000000 0.223529 0.270588
  4 4.836801 -3.076565 1.908261 -1.000000 0.000000 0.000000 0.035294 0.380392
  4 4.836801 -2.926565 2.058261 -1.000000 0.000000 0.000000 0.117647 0.458824
$0b_restrictionpistol_led_y
  4 4.836801 -3.276565 2.258261 -1.000000 0.000000 0.000000 0.223529 0.270588
  4 4.836801 -3.276565 1.848261 -1.000000 0.000000 0.000000 0.007843 0.270588
  4 4.836801 -3.076565 1.908261 -1.000000 0.000000 0.000000 0.035294 0.380392
$0b_restrictionpistol_led_y
  4 4.836801 -3.276565 2.258261 -1.000000 0.000000 0.000000 0.223529 0.270588
  4 4.836802 -3.476565 1.908261 -1.000000 0.000000 0.000000 0.035294 0.380392
  4 4.836801 -3.276565 1.848261 -1.000000 0.000000 0.000000 0.007843 0.270588
$0b_restrictionpistol_led_y
  4 4.836801 -3.276565 2.258261 -1.000000 0.000000 0.000000 0.223529 0.270588
  4 4.836802 -3.626565 2.058261 -1.000000 0.000000 0.000000 0.117647 0.458824
  4 4.836802 -3.476565 1.908261 -1.000000 0.000000 0.000000 0.035294 0.380392
$0b_restrictionpistol_led_y
  4 4.836801 -3.276565 2.258261 -1.000000 0.000000 0.000000 0.223529 0.270588
  4 4.836802 -3.686565 2.258261 -1.000000 0.000000 0.000000 0.223529 0.486275
  4 4.836802 -3.626565 2.058261 -1.000000 0.000000 0.000000 0.117647 0.458824
$0b_restrictionpistol_led_y
  8 -4.836998 -3.277003 2.258000 1.000000 0.000000 0.000000 0.223529 0.270588
  8 -4.836998 -3.687003 2.258000 1.000000 0.000000 0.000000 0.223529 0.486275
  8 -4.836998 -3.627003 2.458000 1.000000 0.000000 0.000000 0.333333 0.458824
$0b_restrictionpistol_led_y
  8 -4.836998 -3.277003 2.258000 1.000000 0.000000 0.000000 0.223529 0.270588
  8 -4.836998 -3.627003 2.058000 1.000000 0.000000 0.000000 0.117647 0.458824
  8 -4.836998 -3.687003 2.258000 1.000000 0.000000 0.000000 0.223529 0.486275
$0b_restrictionpistol_led_y
  8 -4.836998 -3.277003 2.258000 1.000000 0.000000 0.000000 0.223529 0.270588
  8 -4.836998 -3.477003 1.908000 1.000000 0.000000 0.000000 0.035294 0.380392
  8 -4.836998 -3.627003 2.058000 1.000000 0.000000 0.000000 0.117647 0.458824
$0b_restrictionpistol_led_y
  8 -4.836998 -3.277003 2.258000 1.000000 0.000000 0.000000 0.223529 0.270588
  8 -4.836999 -3.277003 1.848000 1.000000 0.000000 0.000000 0.007843 0.270588
  8 -4.836998 -3.477003 1.908000 1.000000 0.000000 0.000000 0.035294 0.380392
$0b_restrictionpistol_led_y
  8 -4.836998 -3.277003 2.258000 1.000000 0.000000 0.000000 0.223529 0.270588
  8 -4.836999 -3.077003 1.908000 1.000000 0.000000 0.000000 0.035294 0.380392
  8 -4.836999 -3.277003 1.848000 1.000000 0.000000 0.000000 0.007843 0.270588
$0b_restrictionpistol_led_y
  8 -4.836998 -3.277003 2.258000 1.000000 0.000000 0.000000 0.223529 0.270588
  8 -4.836999 -2.927003 2.058000 1.000000 0.000000 0.000000 0.117647 0.458824
  8 -4.836999 -3.077003 1.908000 1.000000 0.000000 0.000000 0.035294 0.380392
$0b_restrictionpistol_led_y
  8 -4.836998 -3.277003 2.258000 1.000000 0.000000 0.000000 0.223529 0.270588
  8 -4.836999 -2.867003 2.258000 1.000000 0.000000 0.000000 0.223529 0.486275
  8 -4.836999 -2.927003 2.058000 1.000000 0.000000 0.000000 0.117647 0.458824
$0b_restrictionpistol_led_y
  8 -4.836998 -3.277003 2.258000 1.000000 0.000000 0.000000 0.223529 0.270588
  8 -4.836999 -2.927003 2.458000 1.000000 0.000000 0.000000 0.333333 0.458824
  8 -4.836999 -2.867003 2.258000 1.000000 0.000000 0.000000 0.223529 0.486275
$0b_restrictionpistol_led_y
  8 -4.836998 -3.277003 2.258000 1.000000 0.000000 0.000000 0.223529 0.270588
  8 -4.836998 -3.077003 2.608000 1.000000 0.000000 0.000000 0.411765 0.380392
  8 -4.836999 -2.927003 2.458000 1.000000 0.000000 0.000000 0.333333 0.458824
$0b_restrictionpistol_led_y
  8 -4.836998 -3.277003 2.258000 1.000000 0.000000 0.000000 0.223529 0.270588
  8 -4.836998 -3.277003 2.668000 1.000000 0.000000 0.000000 0.443137 0.270588
  8 -4.836998 -3.077003 2.608000 1.000000 0.000000 0.000000 0.411765 0.380392
$0b_restrictionpistol_led_y
  8 -4.836998 -3.277003 2.258000 1.000000 0.000000 0.000000 0.223529 0.270588
  8 -4.836998 -3.477003 2.608000 1.000000 0.000000 0.000000 0.411765 0.380392
  8 -4.836998 -3.277003 2.668000 1.000000 0.000000 0.000000 0.443137 0.270588
$0b_restrictionpistol_led_y
  8 -4.836998 -3.277003 2.258000 1.000000 0.000000 0.000000 0.223529 0.270588
  8 -4.836998 -3.627003 2.458000 1.000000 0.000000 0.000000 0.333333 0.458824
  8 -4.836998 -3.477003 2.608000 1.000000 0.000000 0.000000 0.411765 0.380392
$0b_restrictionpistol_led_y
  1 3.235974 -1.406566 2.258262 0.000000 1.000000 -0.000015 0.494118 0.011765
  1 3.235975 -1.506566 2.828262 0.000000 0.951065 0.308992 0.305882 0.011765
  1 3.585974 -1.406566 2.258262 0.000000 1.000000 -0.000015 0.494118 0.129412
$0b_restrictionpistol_led_y
  1 3.585974 -1.406566 2.258262 0.000000 1.000000 -0.000015 0.494118 0.129412
  1 3.235975 -1.506566 2.828262 0.000000 0.951065 0.308992 0.305882 0.011765
  1 3.585975 -1.506566 2.828262 0.000000 0.951065 0.308992 0.305882 0.129412
$0b_restrictionpistol_led_y
  1 3.235975 -1.506566 2.828262 0.000000 0.951065 0.308992 0.305882 0.011765
  1 3.235975 -1.766566 3.348262 0.000000 0.809216 0.587512 0.113725 0.011765
  1 3.585975 -1.506566 2.828262 0.000000 0.951065 0.308992 0.305882 0.129412
$0b_restrictionpistol_led_y
  1 3.585975 -1.506566 2.828262 0.000000 0.951065 0.308992 0.305882 0.129412
  1 3.235975 -1.766566 3.348262 0.000000 0.809216 0.587512 0.113725 0.011765
  1 3.585975 -1.766566 3.348262 0.000000 0.809216 0.587512 0.113725 0.129412
$0b_restrictionpistol_led_y
  1 3.235975 -1.766566 3.348262 0.000000 0.809216 0.587512 0.113725 0.011765
  1 3.235975 -1.976566 3.558262 0.000000 0.707603 0.706610 0.015686 0.011765
  1 3.585975 -1.766566 3.348262 0.000000 0.809216 0.587512 0.113725 0.129412
$0b_restrictionpistol_led_y
  1 3.585975 -1.766566 3.348262 0.000000 0.809216 0.587512 0.113725 0.129412
  1 3.235975 -1.976566 3.558262 0.000000 0.707603 0.706610 0.015686 0.011765
  1 3.585975 -1.976566 3.558262 0.000000 0.707603 0.706610 0.015686 0.129412
$0b_restrictionpistol_led_y
  0 -0.499996 -1.674950 5.858208 0.932233 0.026613 0.360879 0.168627 0.188235
  0 -0.439997 -1.164950 5.948208 0.932233 0.026613 0.360879 0.003922 0.247059
  0 -0.469997 -1.164950 5.858208 0.932233 0.026613 0.360879 0.003922 0.188235
$0b_restrictionpistol_led_y
  0 -0.499996 -1.674950 5.858208 0.932233 0.026613 0.360879 0.168627 0.188235
  0 -0.459996 -1.734950 5.948208 0.932233 0.026613 0.360879 0.180392 0.247059
  0 -0.439997 -1.164950 5.948208 0.932233 0.026613 0.360879 0.003922 0.247059
$0b_restrictionpistol_led_y
  0 -0.499996 -1.674950 5.858208 0.932233 0.026613 0.360879 0.168627 0.188235
  0 -0.459995 -4.264950 5.948208 0.932233 0.026613 0.360879 0.992157 0.247059
  0 -0.459996 -1.734950 5.948208 0.932233 0.026613 0.360879 0.180392 0.247059
$0b_restrictionpistol_led_y
  0 -0.499996 -1.674950 5.858208 0.932233 0.026613 0.360879 0.168627 0.188235
  0 -0.499995 -4.264950 5.858208 0.932233 0.026613 0.360879 0.992157 0.188235
  0 -0.459995 -4.264950 5.948208 0.932233 0.026613 0.360879 0.992157 0.247059
$0b_restrictionpistol_led_y
  0 0.000003 -0.284950 5.378208 0.000000 0.936531 0.350585 0.027451 0.874510
  0 0.210003 -0.504950 5.968208 0.000000 0.936531 0.350585 0.403922 0.717647
  0 0.330003 -0.284950 5.378208 0.000000 0.936531 0.350585 0.027451 0.623529
$0b_restrictionpistol_led_y
  0 0.000003 -0.284950 5.378208 0.000000 0.936531 0.350585 0.027451 0.874510
  0 0.000003 -0.504950 5.968208 0.000000 0.936531 0.350585 0.403922 0.874510
  0 0.210003 -0.504950 5.968208 0.000000 0.936531 0.350585 0.403922 0.717647
$0b_restrictionpistol_led_y
  0 0.000003 -0.284950 5.378208 0.000000 0.936531 0.350585 0.027451 0.874510
  0 -0.209997 -0.504950 5.968208 0.000000 0.936531 0.350585 0.403922 0.717647
  0 0.000003 -0.504950 5.968208 0.000000 0.936531 0.350585 0.403922 0.874510
$0b_restrictionpistol_led_y
  0 0.000003 -0.284950 5.378208 0.000000 0.936531 0.350585 0.027451 0.874510
  0 -0.329997 -0.284950 5.378208 0.000000 0.936531 0.350585 0.027451 0.623529
  0 -0.209997 -0.504950 5.968208 0.000000 0.936531 0.350585 0.403922 0.717647
$0b_restrictionpistol_led_y
  0 0.500004 -1.674950 5.858208 -0.932233 0.026613 0.360879 0.168627 0.188235
  0 0.460005 -4.264950 5.948208 -0.932233 0.026613 0.360879 0.992157 0.247059
  0 0.500005 -4.264950 5.858208 -0.932233 0.026613 0.360879 0.992157 0.188235
$0b_restrictionpistol_led_y
  0 0.500004 -1.674950 5.858208 -0.932233 0.026613 0.360879 0.168627 0.188235
  0 0.460004 -1.734950 5.948208 -0.932233 0.026613 0.360879 0.180392 0.247059
  0 0.460005 -4.264950 5.948208 -0.932233 0.026613 0.360879 0.992157 0.247059
$0b_restrictionpistol_led_y
  0 0.500004 -1.674950 5.858208 -0.932233 0.026613 0.360879 0.168627 0.188235
  0 0.440003 -1.164950 5.948208 -0.932233 0.026613 0.360879 0.003922 0.247059
  0 0.460004 -1.734950 5.948208 -0.932233 0.026613 0.360879 0.180392 0.247059
$0b_restrictionpistol_led_y
  0 0.500004 -1.674950 5.858208 -0.932233 0.026613 0.360879 0.168627 0.188235
  0 0.470003 -1.164950 5.858208 -0.932233 0.026613 0.360879 0.003922 0.188235
  0 0.440003 -1.164950 5.948208 -0.932233 0.026613 0.360879 0.003922 0.247059
$0b_restrictionpistol_led_y
  3 3.435974 -1.493874 1.981838 -1.000000 0.000000 0.000000 0.980392 0.941176
  3 3.435974 -1.516910 1.833280 -1.000000 0.000000 0.000000 0.984314 0.901961
  3 3.435972 1.778124 1.976644 -1.000000 0.000000 0.000000 0.050980 0.941176
$0b_restrictionpistol_led_y
  3 3.435972 1.778124 1.976644 -1.000000 0.000000 0.000000 0.050980 0.941176
  3 3.435974 -1.516910 1.833280 -1.000000 0.000000 0.000000 0.984314 0.901961
  3 3.435972 1.855580 1.829332 -1.000000 0.000000 0.000000 0.031373 0.901961
$0b_restrictionpistol_led_y
  3 3.435972 1.778124 1.976644 0.000000 -0.000427 1.000000 0.050980 0.941176
  3 3.395972 1.778124 1.976644 0.000000 -0.000427 1.000000 0.050980 0.952941
  3 3.435974 -1.493874 1.981838 0.000000 -0.000427 1.000000 0.980392 0.941176
$0b_restrictionpistol_led_y
  3 3.435974 -1.493874 1.981838 0.000000 -0.000427 1.000000 0.980392 0.941176
  3 3.395972 1.778124 1.976644 0.000000 -0.000427 1.000000 0.050980 0.952941
  3 3.395974 -1.493874 1.981838 0.000000 -0.000427 1.000000 0.980392 0.952941
$0b_restrictionpistol_led_y
  3 3.395972 1.778124 1.976644 0.000000 0.898843 0.438270 0.050980 0.952941
  3 3.435972 1.778124 1.976644 0.000000 0.898843 0.438270 0.050980 0.941176
  3 3.395972 1.855580 1.829332 0.000000 0.898843 0.438270 0.019608 0.952941
$0b_restrictionpistol_led_y
  3 3.395972 1.855580 1.829332 0.000000 0.898843 0.438270 0.019608 0.952941
  3 3.435972 1.778124 1.976644 0.000000 0.898843 0.438270 0.050980 0.941176
  3 3.435972 1.855580 1.829332 0.000000 0.898843 0.438270 0.019608 0.941176
$0b_restrictionpistol_led_y
  3 3.395972 1.855580 1.829332 1.000000 0.000000 0.000000 0.031373 0.988235
  3 3.395974 -1.516910 1.833280 1.000000 0.000000 0.000000 0.984314 0.988235
  3 3.395972 1.778124 1.976644 1.000000 0.000000 0.000000 0.050980 0.952941
$0b_restrictionpistol_led_y
  3 3.395972 1.778124 1.976644 1.000000 0.000000 0.000000 0.050980 0.952941
  3 3.395974 -1.516910 1.833280 1.000000 0.000000 0.000000 0.984314 0.988235
  3 3.395974 -1.493874 1.981838 1.000000 0.000000 0.000000 0.980392 0.952941
$0b_restrictionpistol_led_y
  2 3.435972 1.855581 2.687184 -1.000000 0.000000 0.000000 0.031373 0.901961
  2 3.435975 -1.516909 2.683241 -1.000000 0.000000 0.000000 0.984314 0.901961
  2 3.435972 1.778124 2.539873 -1.000000 0.000000 0.000000 0.050980 0.941176
$0b_restrictionpistol_led_y
  2 3.435972 1.778124 2.539873 -1.000000 0.000000 0.000000 0.050980 0.941176
  2 3.435975 -1.516909 2.683241 -1.000000 0.000000 0.000000 0.984314 0.901961
  2 3.435975 -1.493874 2.534683 -1.000000 0.000000 0.000000 0.980392 0.941176
$0b_restrictionpistol_led_y
  2 3.395975 -1.493874 2.534683 0.000000 -0.000427 -1.000000 0.980392 0.952941
  2 3.395972 1.778124 2.539873 0.000000 -0.000427 -1.000000 0.050980 0.952941
  2 3.435975 -1.493874 2.534683 0.000000 -0.000427 -1.000000 0.980392 0.941176
$0b_restrictionpistol_led_y
  2 3.435975 -1.493874 2.534683 0.000000 -0.000427 -1.000000 0.980392 0.941176
  2 3.395972 1.778124 2.539873 0.000000 -0.000427 -1.000000 0.050980 0.952941
  2 3.435972 1.778124 2.539873 0.000000 -0.000427 -1.000000 0.050980 0.941176
$0b_restrictionpistol_led_y
  2 3.435972 1.855581 2.687184 0.000000 0.898843 -0.438270 0.019608 0.941176
  2 3.435972 1.778124 2.539873 0.000000 0.898843 -0.438270 0.050980 0.941176
  2 3.395972 1.855581 2.687184 0.000000 0.898843 -0.438270 0.019608 0.952941
$0b_restrictionpistol_led_y
  2 3.395972 1.855581 2.687184 0.000000 0.898843 -0.438270 0.019608 0.952941
  2 3.435972 1.778124 2.539873 0.000000 0.898843 -0.438270 0.050980 0.941176
  2 3.395972 1.778124 2.539873 0.000000 0.898843 -0.438270 0.050980 0.952941
$0b_restrictionpistol_led_y
  2 3.395975 -1.493874 2.534683 1.000000 0.000000 0.000000 0.980392 0.952941
  2 3.395975 -1.516909 2.683241 1.000000 0.000000 0.000000 0.984314 0.988235
  2 3.395972 1.778124 2.539873 1.000000 0.000000 0.000000 0.050980 0.952941
$0b_restrictionpistol_led_y
  2 3.395972 1.778124 2.539873 1.000000 0.000000 0.000000 0.050980 0.952941
  2 3.395975 -1.516909 2.683241 1.000000 0.000000 0.000000 0.984314 0.988235
  2 3.395972 1.855581 2.687184 1.000000 0.000000 0.000000 0.031373 0.988235
$0b_restrictionpistol_led_y
  6 -3.436001 1.855143 1.829060 1.000000 0.000000 0.000000 0.031373 0.901961
  6 -3.436000 -1.507385 1.832142 1.000000 0.000000 0.000000 0.984314 0.901961
  6 -3.436001 1.777687 1.976371 1.000000 0.000000 0.000000 0.050980 0.941176
$0b_restrictionpistol_led_y
  6 -3.436001 1.777687 1.976371 1.000000 0.000000 0.000000 0.050980 0.941176
  6 -3.436000 -1.507385 1.832142 1.000000 0.000000 0.000000 0.984314 0.901961
  6 -3.436000 -1.494311 1.981572 1.000000 0.000000 0.000000 0.980392 0.941176
$0b_restrictionpistol_led_y
  6 -3.396000 -1.494311 1.981571 0.000000 -0.000427 1.000000 0.980392 0.952941
  6 -3.396001 1.777687 1.976371 0.000000 -0.000427 1.000000 0.050980 0.952941
  6 -3.436000 -1.494311 1.981572 0.000000 -0.000427 1.000000 0.980392 0.941176
$0b_restrictionpistol_led_y
  6 -3.436000 -1.494311 1.981572 0.000000 -0.000427 1.000000 0.980392 0.941176
  6 -3.396001 1.777687 1.976371 0.000000 -0.000427 1.000000 0.050980 0.952941
  6 -3.436001 1.777687 1.976371 0.000000 -0.000427 1.000000 0.050980 0.941176
$0b_restrictionpistol_led_y
  6 -3.436001 1.855143 1.829060 0.000000 0.898843 0.438270 0.019608 0.941176
  6 -3.436001 1.777687 1.976371 0.000000 0.898843 0.438270 0.050980 0.941176
  6 -3.396001 1.855143 1.829060 0.000000 0.898843 0.438270 0.019608 0.952941
$0b_restrictionpistol_led_y
  6 -3.396001 1.855143 1.829060 0.000000 0.898843 0.438270 0.019608 0.952941
  6 -3.436001 1.777687 1.976371 0.000000 0.898843 0.438270 0.050980 0.941176
  6 -3.396001 1.777687 1.976371 0.000000 0.898843 0.438270 0.050980 0.952941
$0b_restrictionpistol_led_y
  6 -3.396000 -1.494311 1.981571 -1.000000 0.000000 0.000000 0.980392 0.952941
  6 -3.396000 -1.507385 1.832142 -1.000000 0.000000 0.000000 0.984314 0.988235
  6 -3.396001 1.777687 1.976371 -1.000000 0.000000 0.000000 0.050980 0.952941
$0b_restrictionpistol_led_y
  6 -3.396001 1.777687 1.976371 -1.000000 0.000000 0.000000 0.050980 0.952941
  6 -3.396000 -1.507385 1.832142 -1.000000 0.000000 0.000000 0.984314 0.988235
  6 -3.396001 1.855143 1.829060 -1.000000 0.000000 0.000000 0.031373 0.988235
$0b_restrictionpistol_led_y
  7 -3.435999 -1.494310 2.534419 1.000000 0.000000 0.000000 0.980392 0.941176
  7 -3.435999 -1.507383 2.683848 1.000000 0.000000 0.000000 0.984314 0.901961
  7 -3.436001 1.777688 2.539605 1.000000 0.000000 0.000000 0.050980 0.941176
$0b_restrictionpistol_led_y
  7 -3.436001 1.777688 2.539605 1.000000 0.000000 0.000000 0.050980 0.941176
  7 -3.435999 -1.507383 2.683848 1.000000 0.000000 0.000000 0.984314 0.901961
  7 -3.436001 1.855145 2.686917 1.000000 0.000000 0.000000 0.031373 0.901961
$0b_restrictionpistol_led_y
  7 -3.436001 1.777688 2.539605 0.000000 -0.000427 -1.000000 0.050980 0.941176
  7 -3.396001 1.777688 2.539605 0.000000 -0.000427 -1.000000 0.050980 0.952941
  7 -3.435999 -1.494310 2.534419 0.000000 -0.000427 -1.000000 0.980392 0.941176
$0b_restrictionpistol_led_y
  7 -3.435999 -1.494310 2.534419 0.000000 -0.000427 -1.000000 0.980392 0.941176
  7 -3.396001 1.777688 2.539605 0.000000 -0.000427 -1.000000 0.050980 0.952941
  7 -3.395999 -1.494310 2.534419 0.000000 -0.000427 -1.000000 0.980392 0.952941
$0b_restrictionpistol_led_y
  7 -3.396001 1.777688 2.539605 0.000000 0.898843 -0.438270 0.050980 0.952941
  7 -3.436001 1.777688 2.539605 0.000000 0.898843 -0.438270 0.050980 0.941176
  7 -3.396001 1.855145 2.686916 0.000000 0.898843 -0.438270 0.019608 0.952941
$0b_restrictionpistol_led_y
  7 -3.396001 1.855145 2.686916 0.000000 0.898843 -0.438270 0.019608 0.952941
  7 -3.436001 1.777688 2.539605 0.000000 0.898843 -0.438270 0.050980 0.941176
  7 -3.436001 1.855145 2.686917 0.000000 0.898843 -0.438270 0.019608 0.941176
$0b_restrictionpistol_led_y
  7 -3.396001 1.855145 2.686916 -1.000000 0.000000 0.000000 0.031373 0.988235
  7 -3.395999 -1.507383 2.683848 -1.000000 0.000000 0.000000 0.984314 0.988235
  7 -3.396001 1.777688 2.539605 -1.000000 0.000000 0.000000 0.050980 0.952941
$0b_restrictionpistol_led_y
  7 -3.396001 1.777688 2.539605 -1.000000 0.000000 0.000000 0.050980 0.952941
  7 -3.395999 -1.507383 2.683848 -1.000000 0.000000 0.000000 0.984314 0.988235
  7 -3.395999 -1.494310 2.534419 -1.000000 0.000000 0.000000 0.980392 0.952941
$0b_restrictionpistol_led_y
  1 3.585974 -1.506566 1.688262 0.000000 0.951073 -0.308965 0.686275 0.129412
  1 3.585974 -1.766566 1.168262 0.000000 0.809241 -0.587477 0.878431 0.129412
  1 3.235974 -1.506566 1.688262 0.000000 0.951073 -0.308965 0.686275 0.011765
$0b_restrictionpistol_led_y
  1 3.235974 -1.506566 1.688262 0.000000 0.951073 -0.308965 0.686275 0.011765
  1 3.585974 -1.766566 1.168262 0.000000 0.809241 -0.587477 0.878431 0.129412
  1 3.235974 -1.766566 1.168262 0.000000 0.809241 -0.587477 0.878431 0.011765
$0b_restrictionpistol_led_y
  5 -3.586000 -1.507002 1.687999 0.000000 0.951073 -0.308965 0.686275 0.129412
  5 -3.586000 -1.407002 2.257999 0.000000 1.000000 -0.000015 0.494118 0.129412
  5 -3.236000 -1.507002 1.687999 0.000000 0.951073 -0.308965 0.686275 0.011765
$0b_restrictionpistol_led_y
  5 -3.236000 -1.507002 1.687999 0.000000 0.951073 -0.308965 0.686275 0.011765
  5 -3.586000 -1.407002 2.257999 0.000000 1.000000 -0.000015 0.494118 0.129412
  5 -3.236000 -1.407002 2.257999 0.000000 1.000000 -0.000015 0.494118 0.011765
$0b_restrictionpistol_led_y
  5 -3.236000 -1.767002 1.167999 0.000000 0.809241 -0.587477 0.878431 0.011765
  5 -3.236000 -1.977002 0.957999 0.000000 0.707604 -0.706609 0.976471 0.011765
  5 -3.586000 -1.767002 1.167999 0.000000 0.809241 -0.587477 0.878431 0.129412
$0b_restrictionpistol_led_y
  5 -3.586000 -1.767002 1.167999 0.000000 0.809241 -0.587477 0.878431 0.129412
  5 -3.236000 -1.977002 0.957999 0.000000 0.707604 -0.706609 0.976471 0.011765
  5 -3.586000 -1.977002 0.957999 0.000000 0.707604 -0.706609 0.976471 0.129412
$0b_restrictionpistol_led_y
  1 3.235974 -1.406566 2.258262 0.000000 0.951073 -0.308965 0.494118 0.011765
  1 3.585974 -1.406566 2.258262 0.000000 1.000000 -0.000015 0.494118 0.129412
  1 3.235974 -1.506566 1.688262 0.000000 1.000000 -0.000015 0.686275 0.011765
$0b_restrictionpistol_led_y
  1 3.585974 -1.506566 1.688262 0.000000 1.000000 -0.000015 0.686275 0.129412
  1 3.235974 -1.506566 1.688262 0.000000 0.951073 -0.308965 0.686275 0.011765
  1 3.585974 -1.406566 2.258262 0.000000 0.951073 -0.308965 0.494118 0.129412
$0b_restrictionpistol_led_y
  1 3.585974 -1.976566 0.958262 0.000000 0.809241 -0.587477 0.976471 0.129412
  1 3.235974 -1.976566 0.958262 0.000000 0.707604 -0.706609 0.976471 0.011765
  1 3.585974 -1.766566 1.168262 0.000000 0.707604 -0.706609 0.878431 0.129412
$0b_restrictionpistol_led_y
  1 3.235974 -1.766566 1.168262 0.000000 0.707604 -0.706609 0.878431 0.011765
  1 3.585974 -1.766566 1.168262 0.000000 0.809241 -0.587477 0.878431 0.129412
  1 3.235974 -1.976566 0.958262 0.000000 0.809241 -0.587477 0.976471 0.011765
$0b_restrictionpistol_led_y
  5 -3.236000 -1.407002 2.257999 0.000000 0.951065 0.308992 0.494118 0.011765
  5 -3.586000 -1.407002 2.257999 0.000000 1.000000 -0.000015 0.494118 0.129412
  5 -3.235999 -1.507002 2.827999 0.000000 1.000000 -0.000015 0.305882 0.011765
$0b_restrictionpistol_led_y
  5 -3.585999 -1.507002 2.827999 0.000000 1.000000 -0.000015 0.305882 0.129412
  5 -3.235999 -1.507002 2.827999 0.000000 0.951065 0.308992 0.305882 0.011765
  5 -3.586000 -1.407002 2.257999 0.000000 0.951065 0.308992 0.494118 0.129412
$0b_restrictionpistol_led_y
  5 -3.585999 -1.767002 3.347999 0.000000 0.951065 0.308992 0.113725 0.129412
  5 -3.235999 -1.767002 3.347999 0.000000 0.809216 0.587512 0.113725 0.011765
  5 -3.585999 -1.507002 2.827999 0.000000 0.809216 0.587512 0.305882 0.129412
$0b_restrictionpistol_led_y
  5 -3.235999 -1.507002 2.827999 0.000000 0.809216 0.587512 0.305882 0.011765
  5 -3.585999 -1.507002 2.827999 0.000000 0.951065 0.308992 0.305882 0.129412
  5 -3.235999 -1.767002 3.347999 0.000000 0.951065 0.308992 0.113725 0.011765
$0b_restrictionpistol_led_y
  5 -3.235999 -1.767002 3.347999 0.000000 0.707603 0.706610 0.113725 0.011765
  5 -3.585999 -1.767002 3.347999 0.000000 0.809216 0.587512 0.113725 0.129412
  5 -3.235999 -1.977002 3.557999 0.000000 0.809216 0.587512 0.015686 0.011765
$0b_restrictionpistol_led_y
  5 -3.585999 -1.977002 3.557999 0.000000 0.809216 0.587512 0.015686 0.129412
  5 -3.235999 -1.977002 3.557999 0.000000 0.707603 0.706610 0.015686 0.011765
  5 -3.585999 -1.767002 3.347999 0.000000 0.707603 0.706610 0.113725 0.129412
$0b_restrictionpistol_led_y
  5 -3.236000 -1.767002 1.167999 0.000000 0.951073 -0.308965 0.878431 0.011765
  5 -3.586000 -1.767002 1.167999 0.000000 0.809241 -0.587477 0.878431 0.129412
  5 -3.236000 -1.507002 1.687999 0.000000 0.809241 -0.587477 0.686275 0.011765
$0b_restrictionpistol_led_y
  5 -3.586000 -1.507002 1.687999 0.000000 0.809241 -0.587477 0.686275 0.129412
  5 -3.236000 -1.507002 1.687999 0.000000 0.951073 -0.308965 0.686275 0.011765
  5 -3.586000 -1.767002 1.167999 0.000000 0.951073 -0.308965 0.878431 0.129412
end
