// Created by Crowbar 0.68
version 1
nodes
  0 "root" -1
  1 "Bone01" 0
  2 "Bone_Lefthand" 1
  3 "Bone13" 2
  4 "Bone14" 3
  5 "Bone15" 4
  6 "ValveBiped.Bip01_L_Finger32" 5
  7 "ValveBiped.Bip01_L_Finger31" 4
  8 "ValveBiped.Bip01_L_Finger3" 3
  9 "Bone17" 2
  10 "Bone18" 9
  11 "Bone19" 10
  12 "ValveBiped.Bip01_L_Finger22" 11
  13 "ValveBiped.Bip01_L_Finger21" 10
  14 "ValveBiped.Bip01_L_Finger2" 9
  15 "Bone21" 2
  16 "Bone22" 15
  17 "Bone23" 16
  18 "ValveBiped.Bip01_L_Finger12" 17
  19 "ValveBiped.Bip01_L_Finger11" 16
  20 "ValveBiped.Bip01_L_Finger1" 15
  21 "Bone09" 2
  22 "Bone10" 21
  23 "Bone11" 22
  24 "ValveBiped.Bip01_L_Finger42" 23
  25 "ValveBiped.Bip01_L_Finger41" 22
  26 "ValveBiped.Bip01_L_Finger4" 21
  27 "Bone05" 2
  28 "Bone06" 27
  29 "Bone07" 28
  30 "ValveBiped.Bip01_L_Finger02" 29
  31 "ValveBiped.Bip01_L_Finger01" 28
  32 "ValveBiped.Bip01_L_Finger0" 27
  33 "ValveBiped.Bip01_L_Hand" 2
  34 "Bone_L_Upper" 1
  35 "ValveBiped.Bip01_L_UpperArm" 34
  36 "ValveBiped.Bip01_L_Forearm" 1
  37 "Bone04" 0
  38 "Bone_Righthand" 37
  39 "Bone39" 38
  40 "Bone40" 39
  41 "Bone41" 40
  42 "ValveBiped.Bip01_R_Finger32" 41
  43 "ValveBiped.Bip01_R_Finger31" 40
  44 "ValveBiped.Bip01_R_Finger3" 39
  45 "Bone35" 38
  46 "Bone36" 45
  47 "Bone37" 46
  48 "ValveBiped.Bip01_R_Finger22" 47
  49 "ValveBiped.Bip01_R_Finger21" 46
  50 "ValveBiped.Bip01_R_Finger2" 45
  51 "Bone31" 38
  52 "Bone32" 51
  53 "Bone33" 52
  54 "ValveBiped.Bip01_R_Finger12" 53
  55 "ValveBiped.Bip01_R_Finger11" 52
  56 "ValveBiped.Bip01_R_Finger1" 51
  57 "Bone43" 38
  58 "Bone44" 57
  59 "Bone45" 58
  60 "ValveBiped.Bip01_R_Finger42" 59
  61 "ValveBiped.Bip01_R_Finger41" 58
  62 "ValveBiped.Bip01_R_Finger4" 57
  63 "Bone27" 38
  64 "Bone28" 63
  65 "Bone29" 64
  66 "ValveBiped.Bip01_R_Finger02" 65
  67 "ValveBiped.Bip01_R_Finger01" 64
  68 "ValveBiped.Bip01_R_Finger0" 63
  69 "ValveBiped.Bip01_R_Hand" 38
  70 "Bone_R_Upper" 37
  71 "ValveBiped.Bip01_R_UpperArm" 70
  72 "ValveBiped.Bip01_R_Forearm" 37
  73 "Bone_Se_Hand-L" 2
  74 "Bone_Se_Hand-R" 38
  75 "ozwpnset1_root" 38
  76 "pipe1" 75
  77 "pipe2" 75
  78 "chain11" 75
  79 "chain1" 78
  80 "chain21" 75
  81 "bodycover02" 75
  82 "bodycover03" 75
  83 "bodycover1" 75
  84 "magazine3" 75
  85 "magazine_rot" 75
  86 "magazine2" 85
end
skeleton
  time 0
    0 -0.248901 -4.308594 -0.708008 -0.000001 -0.174529 -0.000006
    1 9.728085 9.625480 -6.814145 2.302604 -1.405366 -2.526268
    2 -0.083639 -10.619892 -0.123669 0.122142 0.332094 0.023131
    3 -0.610352 -3.443359 -0.285156 -0.726374 0.079841 -0.218959
    4 0.049805 -1.848633 0.037292 -1.552680 0.000000 0.000000
    5 0.035980 -1.343750 -0.028885 -0.992498 0.000000 0.000000
    6 0.007988 0.172184 -0.118553 -1.598091 -0.216549 -1.570593
    7 0.080660 0.135929 -0.203919 -1.506824 -0.066185 -1.662786
    8 0.117288 -0.155554 -0.604544 -1.412988 -0.374558 -1.569222
    9 0.312500 -3.525391 -0.297852 -0.572166 0.103584 -0.135712
    10 -0.062195 -2.099609 0.125488 -1.641971 0.000000 0.000000
    11 -0.042664 -1.434570 0.105896 -0.829270 0.000000 0.000000
    12 -0.018589 0.129953 -0.123721 -1.294580 0.001302 -1.635383
    13 -0.006160 0.170065 -0.110169 -1.280084 -0.068681 -1.597215
    14 0.047100 -0.104074 -0.352264 -1.243368 -0.257298 -1.694346
    15 1.196289 -3.431641 -0.112854 -0.293388 -0.016436 0.087924
    16 -0.041748 -1.746094 -0.014069 -1.011449 0.000000 0.000000
    17 -0.022361 -1.191820 0.022690 -0.872757 0.000000 -0.000001
    18 -0.022325 0.045422 -0.038284 -1.125544 -0.129230 -1.681412
    19 -0.042900 -0.061275 -0.071212 -1.124462 -0.060454 -1.586099
    20 0.063741 -0.109104 -0.248158 -1.142813 -0.125805 -1.693583
    21 -1.475586 -3.132813 -0.242310 -0.372946 0.114153 -0.031560
    22 -0.031204 -1.404297 0.021973 -1.365600 0.000000 0.000000
    23 -0.025070 -1.113281 0.012611 -0.866460 0.000000 0.000000
    24 -0.011721 0.093267 0.017949 -1.687855 -0.079155 -1.575164
    25 0.048862 -0.085541 0.028626 -1.715605 -0.034569 -1.653190
    26 0.173919 -0.198416 -0.336163 -1.668104 -0.422317 -1.710956
    27 0.724139 -1.494163 0.224443 0.197541 -0.606330 -0.142430
    28 1.914847 0.010252 0.005009 -0.002964 -0.012980 -0.276209
    29 1.374216 0.004522 -0.010680 -0.016123 0.001556 -1.299577
    30 -0.267710 0.037512 -0.093907 2.913812 -0.143386 0.078467
    31 -0.029266 0.205408 -0.329287 2.788574 -0.255486 -0.188917
    32 0.204373 0.521055 -0.268577 2.886669 0.042206 -0.230367
    33 0.195697 -0.010059 -0.293538 -1.333586 0.150863 -1.672749
    34 1.571289 10.953125 -0.192139 -1.570562 0.002683 -1.566808
    35 -0.093500 -0.114213 -0.738866 -1.570842 0.061811 0.002096
    36 0.010843 0.093624 -0.081439 -3.141462 0.041719 -1.568236
    37 -3.196639 -10.719708 -6.813991 -3.007349 0.015653 3.893827
    38 0.116467 -10.559858 -0.009359 0.070445 -0.190012 0.255288
    39 0.553428 -3.498228 -0.247313 -1.021626 0.000522 0.163145
    40 -0.041138 -1.849609 0.006172 -1.641062 0.000000 0.000000
    41 -0.033722 -1.345703 -0.025253 -1.574529 0.000000 0.000000
    42 0.006927 0.005329 -0.181358 -1.528500 -0.248579 -1.611362
    43 -0.052313 0.038589 -0.230757 -1.592493 -0.043415 -1.528515
    44 -0.232600 -0.209656 -0.420670 -1.713790 -0.167173 -1.438930
    45 -0.311768 -3.558594 -0.217529 -0.611012 -0.003049 0.061472
    46 0.053986 -2.103516 0.119995 -1.849632 0.002822 -0.000166
    47 0.039542 -1.449897 0.070563 -1.197466 0.003173 -0.003506
    48 -0.038065 0.069168 -0.159883 -1.816986 0.066178 -1.575392
    49 -0.025151 0.088764 -0.068836 -1.817843 0.044510 -1.568287
    50 -0.102916 -0.186983 -0.272246 -1.833683 -0.232962 -1.472375
    51 -1.204102 -3.480469 -0.106567 -0.559857 0.000064 -0.034530
    52 0.035553 -1.751953 0.007828 -1.649116 0.000000 0.000000
    53 0.021412 -1.192163 0.023950 -1.040338 0.000001 0.000001
    54 -0.004241 0.043709 -0.080203 -2.014997 -0.186996 -1.460723
    55 0.015383 -0.089136 -0.030010 -2.006083 0.036346 -1.568629
    56 -0.022610 -0.212357 -0.177906 -1.933161 -0.118801 -1.518895
    57 1.455078 -3.179688 -0.212891 -1.195393 0.008266 0.221155
    58 0.030029 -1.411133 0.022247 -1.078844 0.000000 0.000000
    59 0.014894 -1.102744 -0.019848 -1.745617 -0.000006 -0.000004
    60 -0.067139 0.063251 -0.010961 -0.899214 -0.014515 -1.600326
    61 -0.151180 -0.007393 -0.070065 -0.913061 -0.118819 -1.408558
    62 -0.178163 -0.244682 -0.357068 -1.159916 -0.384260 -1.556110
    63 -0.732910 -1.580078 0.250000 0.229189 -0.611229 -2.635591
    64 1.903320 0.073303 0.021057 0.001411 0.008981 0.881751
    65 1.396484 0.060516 -0.007202 -0.019046 -0.016498 0.913479
    66 -0.263408 -0.117640 -0.015659 0.000036 -0.082210 -0.026800
    67 0.007707 -0.334358 -0.191575 0.070788 -0.181563 0.282364
    68 0.225562 -0.567923 -0.420715 0.119895 -0.183798 0.223460
    69 -0.203683 -0.095654 -0.328305 -1.745077 0.075142 -1.515382
    70 -1.741211 11.046875 -0.299072 1.580804 -0.005024 -1.566848
    71 0.036020 0.082816 -0.692656 -1.570769 0.065989 0.001276
    72 -0.088586 0.054021 -0.088593 0.010231 0.033800 -1.560851
    73 0.096436 0.435059 -0.121704 -2.729171 -0.166706 -1.525878
    74 -0.037506 -0.007786 -0.035706 0.165906 0.129870 1.436263
    75 -0.681641 -3.382813 0.731934 1.511238 0.303606 0.490423
    76 -2.902684 4.077851 -1.155693 0.000000 1.570787 -0.174414
    77 2.232270 5.754207 -10.391143 0.000000 1.570787 -0.174398
    78 2.162405 2.533360 -0.877487 0.000000 0.000000 -1.570796
    79 -0.653823 0.606601 -0.252417 0.000000 0.000000 0.000000
    80 2.871818 2.533360 -0.581297 0.000000 0.000000 -1.570796
    81 0.000000 3.817256 -4.109225 0.000000 0.000000 -1.570796
    82 -0.000003 3.817256 -6.176540 0.000000 0.000000 -1.570796
    83 0.000000 3.817255 -1.752300 0.000000 0.000000 -1.570796
    84 -1.085938 22.640625 -1.504883 0.000000 1.570795 -0.000001
    85 0.000153 9.865690 -9.128512 0.000000 -1.570781 -1.563828
    86 7.623053 -0.017314 -3.650365 2.363127 -0.000001 -3.141577
  time 1
    0 -0.248901 -4.308594 -0.708008 -0.000001 -0.174529 -0.000006
    1 9.728085 9.766109 -6.814145 2.302604 -1.405366 -2.526268
    2 -0.138328 -10.783960 -0.139294 0.124213 0.330819 0.029891
    3 -0.610352 -3.443359 -0.285156 -0.726374 0.079841 -0.218959
    4 0.049805 -1.848633 0.037292 -1.552680 0.000000 0.000000
    5 0.035980 -1.343750 -0.028885 -0.992498 0.000000 0.000000
    6 0.007988 0.172184 -0.118553 -1.598091 -0.216549 -1.570593
    7 0.080660 0.135929 -0.203919 -1.506824 -0.066185 -1.662786
    8 0.117288 -0.155554 -0.604544 -1.412988 -0.374558 -1.569222
    9 0.312500 -3.525391 -0.297852 -0.572166 0.103584 -0.135712
    10 -0.062195 -2.099609 0.125488 -1.641971 0.000000 0.000000
    11 -0.042664 -1.434570 0.105896 -0.829270 0.000000 0.000000
    12 -0.018589 0.129953 -0.123721 -1.294580 0.001302 -1.635383
    13 -0.006160 0.170065 -0.110169 -1.280084 -0.068681 -1.597215
    14 0.047100 -0.104074 -0.352264 -1.243368 -0.257298 -1.694346
    15 1.196289 -3.431641 -0.112854 -0.293388 -0.016436 0.087924
    16 -0.041748 -1.746094 -0.014069 -1.011449 0.000000 0.000000
    17 -0.022361 -1.191820 0.022690 -0.872757 0.000000 -0.000001
    18 -0.022325 0.045422 -0.038284 -1.125544 -0.129230 -1.681412
    19 -0.042900 -0.061275 -0.071212 -1.124462 -0.060454 -1.586099
    20 0.063741 -0.109104 -0.248158 -1.142813 -0.125805 -1.693583
    21 -1.475586 -3.132813 -0.242310 -0.372946 0.114153 -0.031560
    22 -0.031204 -1.404297 0.021973 -1.365600 0.000000 0.000000
    23 -0.025070 -1.113281 0.012611 -0.866460 0.000000 0.000000
    24 -0.011721 0.093267 0.017949 -1.687855 -0.079155 -1.575164
    25 0.048862 -0.085541 0.028626 -1.715605 -0.034569 -1.653190
    26 0.173919 -0.198416 -0.336163 -1.668104 -0.422317 -1.710956
    27 0.728045 -1.494163 0.224443 0.197541 -0.606330 -0.142430
    28 1.914847 0.010252 0.005009 -0.002964 -0.012980 -0.276209
    29 1.374216 0.004522 -0.010680 -0.016135 0.001556 -1.299577
    30 -0.267710 0.037512 -0.093907 2.913812 -0.143386 0.078467
    31 -0.029266 0.205408 -0.329287 2.788574 -0.255486 -0.188917
    32 0.204373 0.521055 -0.268577 2.886669 0.042206 -0.230367
    33 0.195697 -0.010059 -0.293538 -1.333586 0.150863 -1.672749
    34 1.571289 10.953125 -0.192139 -1.570562 0.002683 -1.566808
    35 -0.093500 -0.114213 -0.738866 -1.570842 0.061811 0.002096
    36 0.010843 0.093624 -0.081439 -3.141462 0.041719 -1.568236
    37 -3.192733 -10.723614 -6.774927 -3.007349 0.015653 3.893827
    38 0.116467 -10.559858 -0.009359 0.076096 -0.187099 0.252490
    39 0.553428 -3.494322 -0.247313 -1.021626 0.000534 0.163145
    40 -0.041138 -1.849609 0.006172 -1.641062 0.000000 0.000000
    41 -0.033722 -1.345703 -0.025253 -1.574529 0.000000 0.000000
    42 0.006927 0.005329 -0.181358 -1.528500 -0.248579 -1.611362
    43 -0.052313 0.038589 -0.230757 -1.592493 -0.043415 -1.528515
    44 -0.232600 -0.209656 -0.420670 -1.713790 -0.167173 -1.438930
    45 -0.311768 -3.558594 -0.217529 -0.611012 -0.003049 0.061472
    46 0.053986 -2.103516 0.119995 -1.849632 0.002822 -0.000166
    47 0.035635 -1.449897 0.066656 -1.197466 0.003173 -0.003506
    48 -0.038065 0.069168 -0.159883 -1.816986 0.066178 -1.575392
    49 -0.025151 0.088764 -0.068836 -1.817843 0.044510 -1.568287
    50 -0.102916 -0.186983 -0.272246 -1.833683 -0.232962 -1.472375
    51 -1.204102 -3.480469 -0.106567 -0.559857 0.000064 -0.034530
    52 0.035553 -1.751953 0.007828 -1.649116 0.000000 0.000000
    53 0.025319 -1.196069 0.023950 -1.040338 0.000001 0.000001
    54 -0.004241 0.043709 -0.080203 -2.014997 -0.186996 -1.460723
    55 0.015383 -0.089136 -0.030010 -2.006083 0.036346 -1.568629
    56 -0.022610 -0.212357 -0.177906 -1.933161 -0.118801 -1.518895
    57 1.455078 -3.179688 -0.212891 -1.195393 0.008266 0.221155
    58 0.030029 -1.411133 0.022247 -1.078844 0.000000 0.000000
    59 0.014894 -1.102744 -0.019848 -1.745566 -0.000006 -0.000004
    60 -0.067139 0.063251 -0.010961 -0.899214 -0.014515 -1.600326
    61 -0.151180 -0.007393 -0.070065 -0.913061 -0.118819 -1.408558
    62 -0.178163 -0.244682 -0.357068 -1.159916 -0.384260 -1.556110
    63 -0.732910 -1.580078 0.250000 0.229189 -0.611229 -2.635591
    64 1.903320 0.073303 0.021057 0.001411 0.008981 0.881751
    65 1.396484 0.060516 -0.007202 -0.019046 -0.016498 0.913479
    66 -0.263408 -0.117640 -0.015659 0.000036 -0.082210 -0.026800
    67 0.007707 -0.334358 -0.191575 0.070788 -0.181563 0.282364
    68 0.225562 -0.567923 -0.420715 0.119895 -0.183798 0.223460
    69 -0.203683 -0.095654 -0.328305 -1.745077 0.075142 -1.515382
    70 -1.741211 11.046875 -0.299072 1.580804 -0.005024 -1.566848
    71 0.036020 0.082816 -0.692656 -1.570769 0.065989 0.001276
    72 -0.088586 0.054021 -0.088593 0.010231 0.033800 -1.560851
    73 0.096436 0.435059 -0.121704 -2.729171 -0.166706 -1.525878
    74 -0.037506 -0.007786 -0.035706 0.165906 0.129870 1.436263
    75 -0.681641 -3.382813 0.731934 1.511238 0.303606 0.490423
    76 -2.902684 4.077851 -1.155693 1.745137 1.561043 1.570634
    77 2.232270 5.754207 -10.391143 1.745111 1.565346 1.570688
    78 2.193655 2.533360 -0.881393 0.000000 0.000000 -1.570796
    79 -0.653823 0.606601 -0.252417 -0.016467 0.022879 -0.008018
    80 2.871818 2.533360 -0.581297 0.000000 0.000000 -1.570796
    81 0.000000 3.832882 -4.109225 0.000000 0.000000 -1.570796
    82 -0.000003 3.836788 -6.176540 -0.002277 0.009636 -1.577160
    83 0.000000 3.825068 -1.752300 0.000000 0.000000 -1.570796
    84 -1.085938 22.640625 -1.504883 0.000000 1.570795 -0.000001
    85 0.000153 9.865690 -9.128512 0.000000 -1.570781 -1.482167
    86 7.623053 -0.017314 -3.650365 2.363127 -0.000001 -3.141577
  time 2
    0 -0.248901 -4.308594 -0.708008 -0.000001 -0.174529 -0.000006
    1 9.731991 9.742671 -6.814145 2.302604 -1.405366 -2.526268
    2 -0.290676 -10.830836 -0.104137 0.127983 0.328426 0.042391
    3 -0.610352 -3.443359 -0.285156 -0.726374 0.079841 -0.218959
    4 0.049805 -1.848633 0.037292 -1.552680 0.000000 0.000000
    5 0.035980 -1.343750 -0.028885 -0.992498 0.000000 0.000000
    6 0.007988 0.172184 -0.118553 -1.598091 -0.216549 -1.570593
    7 0.080660 0.135929 -0.203919 -1.506824 -0.066185 -1.662786
    8 0.117288 -0.155554 -0.604544 -1.412988 -0.374558 -1.569222
    9 0.312500 -3.525391 -0.297852 -0.572166 0.103584 -0.135712
    10 -0.062195 -2.099609 0.125488 -1.641971 0.000000 0.000000
    11 -0.042664 -1.434570 0.105896 -0.829270 0.000000 0.000000
    12 -0.018589 0.129953 -0.123721 -1.294580 0.001302 -1.635383
    13 -0.006160 0.170065 -0.110169 -1.280084 -0.068681 -1.597215
    14 0.047100 -0.104074 -0.352264 -1.243368 -0.257298 -1.694346
    15 1.196289 -3.431641 -0.112854 -0.293388 -0.016436 0.087924
    16 -0.041748 -1.746094 -0.014069 -1.011449 0.000000 0.000000
    17 -0.022361 -1.195726 0.018784 -0.872757 0.000000 -0.000001
    18 -0.022325 0.045422 -0.038284 -1.125544 -0.129230 -1.681412
    19 -0.042900 -0.061275 -0.071212 -1.124462 -0.060454 -1.586099
    20 0.063741 -0.109104 -0.248158 -1.142813 -0.125805 -1.693583
    21 -1.475586 -3.132813 -0.242310 -0.372946 0.114153 -0.031560
    22 -0.031204 -1.404297 0.021973 -1.365600 0.000000 0.000000
    23 -0.025070 -1.113281 0.012611 -0.866460 0.000000 0.000000
    24 -0.011721 0.093267 0.017949 -1.687855 -0.079155 -1.575164
    25 0.048862 -0.085541 0.028626 -1.715605 -0.034569 -1.653190
    26 0.173919 -0.198416 -0.336163 -1.668104 -0.422317 -1.710956
    27 0.724139 -1.494163 0.224443 0.197541 -0.606330 -0.142430
    28 1.914847 0.010252 0.005009 -0.002964 -0.012980 -0.276209
    29 1.370309 0.004522 -0.010680 -0.016135 0.001556 -1.299577
    30 -0.267710 0.037512 -0.093907 2.913812 -0.143386 0.078467
    31 -0.029266 0.205408 -0.329287 2.788574 -0.255486 -0.188917
    32 0.204373 0.521055 -0.268577 2.886669 0.042206 -0.230367
    33 0.195697 -0.010059 -0.293538 -1.333586 0.150863 -1.672749
    34 1.571289 10.953125 -0.192139 -1.570562 0.002683 -1.566808
    35 -0.093500 -0.114213 -0.738866 -1.570842 0.061811 0.002096
    36 0.010843 0.093624 -0.081439 -3.141462 0.041719 -1.568236
    37 -3.181014 -10.735333 -6.720238 -3.007349 0.015653 3.893827
    38 0.116467 -10.559858 -0.009359 0.086561 -0.181730 0.247241
    39 0.553428 -3.494322 -0.247313 -1.021626 0.000534 0.163157
    40 -0.041138 -1.849609 0.006172 -1.641062 0.000000 0.000000
    41 -0.033722 -1.345703 -0.025253 -1.574529 0.000000 0.000000
    42 0.006927 0.005329 -0.181358 -1.528500 -0.248579 -1.611362
    43 -0.052313 0.038589 -0.230757 -1.592493 -0.043415 -1.528515
    44 -0.232600 -0.209656 -0.420670 -1.713790 -0.167173 -1.438930
    45 -0.311768 -3.558594 -0.217529 -0.611012 -0.003049 0.061472
    46 0.053986 -2.103516 0.119995 -1.849632 0.002822 -0.000166
    47 0.035635 -1.449897 0.066656 -1.197466 0.003173 -0.003506
    48 -0.038065 0.069168 -0.159883 -1.816986 0.066178 -1.575392
    49 -0.025151 0.088764 -0.068836 -1.817843 0.044510 -1.568287
    50 -0.102916 -0.186983 -0.272246 -1.833683 -0.232962 -1.472375
    51 -1.204102 -3.480469 -0.106567 -0.559857 0.000064 -0.034530
    52 0.035553 -1.751953 0.007828 -1.649116 0.000000 0.000000
    53 0.025319 -1.192163 0.023950 -1.040338 0.000001 0.000001
    54 -0.004241 0.043709 -0.080203 -2.014997 -0.186996 -1.460723
    55 0.015383 -0.089136 -0.030010 -2.006083 0.036346 -1.568629
    56 -0.022610 -0.212357 -0.177906 -1.933161 -0.118801 -1.518895
    57 1.455078 -3.179688 -0.212891 -1.195393 0.008266 0.221155
    58 0.030029 -1.411133 0.022247 -1.078844 0.000000 0.000000
    59 0.014894 -1.102744 -0.019848 -1.745617 -0.000006 -0.000004
    60 -0.067139 0.063251 -0.010961 -0.899214 -0.014515 -1.600326
    61 -0.151180 -0.007393 -0.070065 -0.913061 -0.118819 -1.408558
    62 -0.178163 -0.244682 -0.357068 -1.159916 -0.384260 -1.556110
    63 -0.732910 -1.580078 0.250000 0.229189 -0.611229 -2.635591
    64 1.903320 0.073303 0.021057 0.001411 0.008981 0.881751
    65 1.396484 0.060516 -0.007202 -0.019046 -0.016498 0.913479
    66 -0.263408 -0.117640 -0.015659 0.000036 -0.082210 -0.026800
    67 0.007707 -0.334358 -0.191575 0.070788 -0.181563 0.282364
    68 0.225562 -0.567923 -0.420715 0.119895 -0.183798 0.223460
    69 -0.203683 -0.095654 -0.328305 -1.745077 0.075142 -1.515382
    70 -1.741211 11.046875 -0.299072 1.580804 -0.005024 -1.566848
    71 0.036020 0.082816 -0.692656 -1.570769 0.065989 0.001276
    72 -0.088586 0.054021 -0.088593 0.010231 0.033800 -1.560851
    73 0.096436 0.435059 -0.121704 -2.729171 -0.166706 -1.525878
    74 -0.037506 -0.007786 -0.035706 0.165906 0.129870 1.436263
    75 -0.681641 -3.382813 0.731934 1.511238 0.303606 0.490423
    76 -2.902684 4.077851 -1.155693 1.744859 1.569552 1.570346
    77 2.232270 5.754207 -10.391143 1.745223 1.565777 1.570736
    78 2.162405 2.529454 -0.877487 0.000000 0.000000 -1.570796
    79 -0.653823 0.606601 -0.252417 -0.010654 0.050024 -0.018600
    80 2.871818 2.533360 -0.581297 0.000000 0.000000 -1.570796
    81 0.000000 3.836788 -4.109225 0.000000 0.000000 -1.570796
    82 -0.000003 3.817256 -6.176540 0.002253 0.011553 -1.571671
    83 0.000000 3.817255 -1.752300 0.000000 0.000000 -1.570796
    84 -1.085938 22.640625 -1.504883 0.000000 1.570795 -0.000001
    85 0.000153 9.865690 -9.128512 0.000000 -1.570781 -1.287423
    86 7.623053 -0.017314 -3.650365 2.363127 -0.000001 -3.141577
  time 3
    0 -0.248901 -4.308594 -0.708008 -0.000001 -0.174529 -0.000006
    1 9.716366 9.730952 -6.814145 2.302604 -1.405366 -2.526268
    2 -0.403961 -10.869900 -0.092418 0.130013 0.327073 0.049102
    3 -0.610352 -3.443359 -0.285156 -0.726374 0.079841 -0.218959
    4 0.049805 -1.848633 0.037292 -1.552680 0.000000 0.000000
    5 0.035980 -1.343750 -0.028885 -0.992498 0.000000 0.000000
    6 0.007988 0.172184 -0.118553 -1.598091 -0.216549 -1.570593
    7 0.080660 0.135929 -0.203919 -1.506824 -0.066185 -1.662786
    8 0.117288 -0.155554 -0.604544 -1.412988 -0.374558 -1.569222
    9 0.312500 -3.525391 -0.297852 -0.572166 0.103584 -0.135712
    10 -0.062195 -2.099609 0.125488 -1.641971 0.000000 0.000000
    11 -0.042664 -1.434570 0.105896 -0.829270 0.000000 0.000000
    12 -0.018589 0.129953 -0.123721 -1.294580 0.001302 -1.635383
    13 -0.006160 0.170065 -0.110169 -1.280084 -0.068681 -1.597215
    14 0.047100 -0.104074 -0.352264 -1.243368 -0.257298 -1.694346
    15 1.196289 -3.431641 -0.112854 -0.293388 -0.016436 0.087924
    16 -0.041748 -1.746094 -0.014069 -1.011449 0.000000 0.000000
    17 -0.022361 -1.191820 0.018784 -0.872757 0.000000 -0.000001
    18 -0.022325 0.045422 -0.038284 -1.125544 -0.129230 -1.681412
    19 -0.042900 -0.061275 -0.071212 -1.124462 -0.060454 -1.586099
    20 0.063741 -0.109104 -0.248158 -1.142813 -0.125805 -1.693583
    21 -1.475586 -3.132813 -0.242310 -0.372946 0.114153 -0.031560
    22 -0.031204 -1.404297 0.021973 -1.365600 0.000000 0.000000
    23 -0.025070 -1.113281 0.012611 -0.866460 0.000000 0.000000
    24 -0.011721 0.093267 0.017949 -1.687855 -0.079155 -1.575164
    25 0.048862 -0.085541 0.028626 -1.715605 -0.034569 -1.653190
    26 0.173919 -0.198416 -0.336163 -1.668104 -0.422317 -1.710956
    27 0.724139 -1.494163 0.224443 0.197541 -0.606330 -0.142430
    28 1.914847 0.010252 0.005009 -0.002964 -0.012980 -0.276209
    29 1.374216 0.004522 -0.010680 -0.016135 0.001556 -1.299577
    30 -0.267710 0.037512 -0.093907 2.913812 -0.143386 0.078467
    31 -0.029266 0.205408 -0.329287 2.788574 -0.255486 -0.188917
    32 0.204373 0.521055 -0.268577 2.886669 0.042206 -0.230367
    33 0.195697 -0.010059 -0.293538 -1.333586 0.150863 -1.672749
    34 1.571289 10.953125 -0.192139 -1.570562 0.002683 -1.566808
    35 -0.093500 -0.114213 -0.738866 -1.570842 0.061811 0.002096
    36 0.010843 0.093624 -0.081439 -3.141462 0.041719 -1.568236
    37 -3.181014 -10.758771 -6.731957 -3.007349 0.015653 3.893827
    38 0.116467 -10.559858 -0.009359 0.092213 -0.178830 0.244444
    39 0.553428 -3.498228 -0.247313 -1.021626 0.000522 0.163145
    40 -0.041138 -1.849609 0.006172 -1.641062 0.000000 0.000000
    41 -0.033722 -1.345703 -0.025253 -1.574529 0.000000 0.000000
    42 0.006927 0.005329 -0.181358 -1.528500 -0.248579 -1.611362
    43 -0.052313 0.038589 -0.230757 -1.592493 -0.043415 -1.528515
    44 -0.232600 -0.209656 -0.420670 -1.713790 -0.167173 -1.438930
    45 -0.311768 -3.558594 -0.217529 -0.611012 -0.003049 0.061472
    46 0.053986 -2.103516 0.119995 -1.849632 0.002822 -0.000166
    47 0.039542 -1.449897 0.066656 -1.197466 0.003173 -0.003506
    48 -0.038065 0.069168 -0.159883 -1.816986 0.066178 -1.575392
    49 -0.025151 0.088764 -0.068836 -1.817843 0.044510 -1.568287
    50 -0.102916 -0.186983 -0.272246 -1.833683 -0.232962 -1.472375
    51 -1.204102 -3.480469 -0.106567 -0.559857 0.000064 -0.034530
    52 0.035553 -1.751953 0.007828 -1.649116 0.000000 0.000000
    53 0.021412 -1.192163 0.023950 -1.040338 0.000001 0.000001
    54 -0.004241 0.043709 -0.080203 -2.014997 -0.186996 -1.460723
    55 0.015383 -0.089136 -0.030010 -2.006083 0.036346 -1.568629
    56 -0.022610 -0.212357 -0.177906 -1.933161 -0.118801 -1.518895
    57 1.455078 -3.179688 -0.212891 -1.195393 0.008266 0.221155
    58 0.030029 -1.411133 0.022247 -1.078844 0.000000 0.000000
    59 0.014894 -1.098838 -0.019848 -1.745617 -0.000006 -0.000004
    60 -0.067139 0.063251 -0.010961 -0.899214 -0.014515 -1.600326
    61 -0.151180 -0.007393 -0.070065 -0.913061 -0.118819 -1.408558
    62 -0.178163 -0.244682 -0.357068 -1.159916 -0.384260 -1.556110
    63 -0.732910 -1.580078 0.250000 0.229189 -0.611229 -2.635591
    64 1.903320 0.073303 0.021057 0.001411 0.008981 0.881751
    65 1.396484 0.060516 -0.007202 -0.019046 -0.016498 0.913479
    66 -0.263408 -0.117640 -0.015659 0.000036 -0.082210 -0.026800
    67 0.007707 -0.334358 -0.191575 0.070788 -0.181563 0.282364
    68 0.225562 -0.567923 -0.420715 0.119895 -0.183798 0.223460
    69 -0.203683 -0.095654 -0.328305 -1.745077 0.075142 -1.515382
    70 -1.741211 11.046875 -0.299072 1.580804 -0.005024 -1.566848
    71 0.036020 0.082816 -0.692656 -1.570769 0.065989 0.001276
    72 -0.088586 0.054021 -0.088593 0.010231 0.033800 -1.560851
    73 0.096436 0.435059 -0.121704 -2.729171 -0.166706 -1.525878
    74 -0.037506 -0.007786 -0.035706 0.165906 0.129870 1.436263
    75 -0.681641 -3.382813 0.731934 1.511238 0.303606 0.490423
    76 -2.902684 4.077851 -1.155693 -1.396043 1.565765 -1.570586
    77 2.232270 5.754207 -10.391143 1.745167 1.566532 1.570593
    78 2.135060 2.545079 -0.900925 0.000000 0.000000 -1.570796
    79 -0.653823 0.606601 -0.252417 0.002361 0.051702 -0.015951
    80 2.871818 2.533360 -0.581297 0.000000 0.000000 -1.570796
    81 0.000000 3.817256 -4.109225 0.000000 0.000000 -1.570796
    82 -0.000003 3.817256 -6.176540 0.000204 0.002720 -1.571156
    83 0.000000 3.817255 -1.752300 0.000000 0.000000 -1.570796
    84 -1.085938 22.640625 -1.504883 0.000000 1.570795 -0.000001
    85 0.000153 9.865690 -9.128512 0.000000 -1.570781 -1.054929
    86 7.623053 -0.017314 -3.650365 2.363127 -0.000001 -3.141577
  time 4
    0 -0.248901 -4.308594 -0.708008 -0.000001 -0.174529 -0.000006
    1 9.720272 9.707514 -6.829770 2.302604 -1.405366 -2.526268
    2 -0.294583 -10.807398 -0.104137 0.127527 0.328779 0.040821
    3 -0.610352 -3.443359 -0.285156 -0.726374 0.079841 -0.218959
    4 0.049805 -1.848633 0.037292 -1.552680 0.000000 0.000000
    5 0.035980 -1.343750 -0.028885 -0.992498 0.000000 0.000000
    6 0.007988 0.172184 -0.118553 -1.598091 -0.216549 -1.570593
    7 0.080660 0.135929 -0.203919 -1.506824 -0.066185 -1.662786
    8 0.117288 -0.155554 -0.604544 -1.412988 -0.374558 -1.569222
    9 0.312500 -3.525391 -0.297852 -0.572166 0.103584 -0.135712
    10 -0.062195 -2.099609 0.125488 -1.641971 0.000000 0.000000
    11 -0.042664 -1.434570 0.105896 -0.829270 0.000000 0.000000
    12 -0.018589 0.129953 -0.123721 -1.294580 0.001302 -1.635383
    13 -0.006160 0.170065 -0.110169 -1.280084 -0.068681 -1.597215
    14 0.047100 -0.104074 -0.352264 -1.243368 -0.257298 -1.694346
    15 1.196289 -3.431641 -0.112854 -0.293388 -0.016436 0.087924
    16 -0.041748 -1.746094 -0.014069 -1.011449 0.000000 0.000000
    17 -0.022361 -1.191820 0.018784 -0.872757 0.000000 -0.000001
    18 -0.022325 0.045422 -0.038284 -1.125544 -0.129230 -1.681412
    19 -0.042900 -0.061275 -0.071212 -1.124462 -0.060454 -1.586099
    20 0.063741 -0.109104 -0.248158 -1.142813 -0.125805 -1.693583
    21 -1.475586 -3.132813 -0.242310 -0.372946 0.114153 -0.031560
    22 -0.031204 -1.404297 0.021973 -1.365600 0.000000 0.000000
    23 -0.025070 -1.113281 0.012611 -0.866460 0.000000 0.000000
    24 -0.011721 0.093267 0.017949 -1.687855 -0.079155 -1.575164
    25 0.048862 -0.085541 0.028626 -1.715605 -0.034569 -1.653190
    26 0.173919 -0.198416 -0.336163 -1.668104 -0.422317 -1.710956
    27 0.724139 -1.494163 0.224443 0.197554 -0.606330 -0.142430
    28 1.914847 0.010252 0.005009 -0.002964 -0.012980 -0.276209
    29 1.370309 0.004522 -0.010680 -0.016135 0.001556 -1.299577
    30 -0.267710 0.037512 -0.093907 2.913812 -0.143386 0.078467
    31 -0.029266 0.205408 -0.329287 2.788574 -0.255486 -0.188917
    32 0.204373 0.521055 -0.268577 2.886669 0.042206 -0.230367
    33 0.195697 -0.010059 -0.293538 -1.333586 0.150863 -1.672749
    34 1.571289 10.953125 -0.192139 -1.570562 0.002683 -1.566808
    35 -0.093500 -0.114213 -0.738866 -1.570842 0.061811 0.002096
    36 0.010843 0.093624 -0.081439 -3.141462 0.041719 -1.568236
    37 -3.192733 -10.750959 -6.771021 -3.007349 0.015653 3.893827
    38 0.116467 -10.559858 -0.009359 0.085231 -0.182378 0.247935
    39 0.557334 -3.494322 -0.247313 -1.021626 0.000534 0.163145
    40 -0.041138 -1.849609 0.006172 -1.641062 0.000000 0.000000
    41 -0.033722 -1.345703 -0.025253 -1.574529 0.000000 0.000000
    42 0.006927 0.005329 -0.181358 -1.528500 -0.248579 -1.611362
    43 -0.052313 0.038589 -0.230757 -1.592493 -0.043415 -1.528515
    44 -0.232600 -0.209656 -0.420670 -1.713790 -0.167173 -1.438930
    45 -0.311768 -3.558594 -0.217529 -0.611012 -0.003049 0.061472
    46 0.053986 -2.103516 0.119995 -1.849632 0.002822 -0.000166
    47 0.039542 -1.445991 0.070563 -1.197466 0.003173 -0.003506
    48 -0.038065 0.069168 -0.159883 -1.816986 0.066178 -1.575392
    49 -0.025151 0.088764 -0.068836 -1.817843 0.044510 -1.568287
    50 -0.102916 -0.186983 -0.272246 -1.833683 -0.232962 -1.472375
    51 -1.204102 -3.480469 -0.106567 -0.559857 0.000064 -0.034530
    52 0.035553 -1.751953 0.007828 -1.649116 0.000000 0.000000
    53 0.021412 -1.192163 0.023950 -1.040370 0.000001 0.000001
    54 -0.004241 0.043709 -0.080203 -2.014997 -0.186996 -1.460723
    55 0.015383 -0.089136 -0.030010 -2.006083 0.036346 -1.568629
    56 -0.022610 -0.212357 -0.177906 -1.933161 -0.118801 -1.518895
    57 1.455078 -3.179688 -0.212891 -1.195393 0.008266 0.221155
    58 0.030029 -1.411133 0.022247 -1.078844 0.000000 0.000000
    59 0.014894 -1.098838 -0.019848 -1.745617 -0.000006 -0.000004
    60 -0.067139 0.063251 -0.010961 -0.899214 -0.014515 -1.600326
    61 -0.151180 -0.007393 -0.070065 -0.913061 -0.118819 -1.408558
    62 -0.178163 -0.244682 -0.357068 -1.159916 -0.384260 -1.556110
    63 -0.732910 -1.580078 0.250000 0.229189 -0.611229 -2.635591
    64 1.903320 0.073303 0.021057 0.001411 0.008981 0.881751
    65 1.396484 0.060516 -0.007202 -0.019046 -0.016498 0.913479
    66 -0.263408 -0.117640 -0.015659 0.000036 -0.082210 -0.026800
    67 0.007707 -0.334358 -0.191575 0.070788 -0.181563 0.282364
    68 0.225562 -0.567923 -0.420715 0.119895 -0.183798 0.223460
    69 -0.203683 -0.095654 -0.328305 -1.745077 0.075142 -1.515382
    70 -1.741211 11.046875 -0.299072 1.580804 -0.005024 -1.566848
    71 0.036020 0.082816 -0.692656 -1.570769 0.065989 0.001276
    72 -0.088586 0.054021 -0.088593 0.010231 0.033800 -1.560851
    73 0.096436 0.435059 -0.121704 -2.729171 -0.166706 -1.525878
    74 -0.037506 -0.007786 -0.035706 0.165906 0.129870 1.436263
    75 -0.681641 -3.382813 0.731934 1.511238 0.303606 0.490423
    76 -2.902684 4.077851 -1.155693 -1.396210 1.560300 -1.570634
    77 2.232270 5.754207 -10.391143 1.745111 1.557663 1.570688
    78 2.119434 2.533360 -0.900925 0.000000 0.000000 -1.570796
    79 -0.653823 0.606601 -0.252417 0.001210 0.054110 -0.004314
    80 2.871818 2.533360 -0.581297 0.000000 0.000000 -1.570796
    81 0.000000 3.813350 -4.109225 0.000000 0.000000 -1.570796
    82 -0.000003 3.797725 -6.176540 0.004207 -0.000204 -1.571431
    83 0.000000 3.813349 -1.752300 0.000000 0.000000 -1.570796
    84 -1.085938 22.640625 -1.504883 0.000000 1.570795 -0.000001
    85 0.000153 9.865690 -9.128512 0.000000 -1.570781 -0.860162
    86 7.623053 -0.017314 -3.646458 2.363127 -0.000001 -3.141577
  time 5
    0 -0.248901 -4.308594 -0.708008 -0.000001 -0.174529 -0.000006
    1 9.731991 9.699701 -6.814145 2.302604 -1.405366 -2.526268
    2 -0.079733 -10.737083 -0.147107 0.121852 0.332329 0.022520
    3 -0.610352 -3.443359 -0.285156 -0.726374 0.079841 -0.218959
    4 0.049805 -1.848633 0.037292 -1.552680 0.000000 0.000000
    5 0.035980 -1.343750 -0.028885 -0.992498 0.000000 0.000000
    6 0.007988 0.172184 -0.118553 -1.598091 -0.216549 -1.570593
    7 0.080660 0.135929 -0.203919 -1.506824 -0.066185 -1.662786
    8 0.117288 -0.155554 -0.604544 -1.412988 -0.374558 -1.569222
    9 0.312500 -3.525391 -0.297852 -0.572166 0.103584 -0.135712
    10 -0.062195 -2.099609 0.125488 -1.641971 0.000000 0.000000
    11 -0.042664 -1.434570 0.105896 -0.829270 0.000000 0.000000
    12 -0.018589 0.129953 -0.123721 -1.294580 0.001302 -1.635383
    13 -0.006160 0.170065 -0.110169 -1.280084 -0.068681 -1.597215
    14 0.047100 -0.104074 -0.352264 -1.243368 -0.257298 -1.694346
    15 1.196289 -3.431641 -0.112854 -0.293388 -0.016436 0.087924
    16 -0.041748 -1.746094 -0.014069 -1.011449 0.000000 0.000000
    17 -0.026267 -1.191820 0.022690 -0.872757 0.000000 -0.000001
    18 -0.022325 0.045422 -0.038284 -1.125544 -0.129230 -1.681412
    19 -0.042900 -0.061275 -0.071212 -1.124462 -0.060454 -1.586099
    20 0.063741 -0.109104 -0.248158 -1.142813 -0.125805 -1.693583
    21 -1.475586 -3.132813 -0.242310 -0.372946 0.114153 -0.031560
    22 -0.031204 -1.404297 0.021973 -1.365600 0.000000 0.000000
    23 -0.025070 -1.113281 0.012611 -0.866460 0.000000 0.000000
    24 -0.011721 0.093267 0.017949 -1.687855 -0.079155 -1.575164
    25 0.048862 -0.085541 0.028626 -1.715605 -0.034569 -1.653190
    26 0.173919 -0.198416 -0.336163 -1.668104 -0.422317 -1.710956
    27 0.724139 -1.494163 0.228349 0.197554 -0.606330 -0.142415
    28 1.914847 0.010252 0.005009 -0.002964 -0.012980 -0.276209
    29 1.374216 0.004522 -0.010680 -0.016135 0.001556 -1.299577
    30 -0.267710 0.037512 -0.093907 2.913812 -0.143386 0.078467
    31 -0.029266 0.205408 -0.329287 2.788574 -0.255486 -0.188917
    32 0.204373 0.521055 -0.268577 2.886669 0.042206 -0.230367
    33 0.195697 -0.010059 -0.293538 -1.333586 0.150863 -1.672749
    34 1.571289 10.953125 -0.192139 -1.570562 0.002683 -1.566808
    35 -0.093500 -0.114213 -0.738866 -1.570842 0.061811 0.002096
    36 0.010843 0.093624 -0.081439 -3.141462 0.041719 -1.568236
    37 -3.200546 -10.762678 -6.821804 -3.007349 0.015653 3.893827
    38 0.116467 -10.559858 -0.009359 0.069869 -0.190132 0.255681
    39 0.553428 -3.494322 -0.243407 -1.021626 0.000522 0.163145
    40 -0.041138 -1.849609 0.006172 -1.641062 0.000000 0.000000
    41 -0.033722 -1.345703 -0.025253 -1.574529 0.000000 0.000000
    42 0.006927 0.005329 -0.181358 -1.528500 -0.248579 -1.611362
    43 -0.052313 0.038589 -0.230757 -1.592493 -0.043415 -1.528515
    44 -0.232600 -0.209656 -0.420670 -1.713790 -0.167173 -1.438930
    45 -0.311768 -3.558594 -0.217529 -0.611012 -0.003049 0.061472
    46 0.053986 -2.103516 0.119995 -1.849632 0.002822 -0.000166
    47 0.039542 -1.449897 0.070563 -1.197466 0.003173 -0.003506
    48 -0.038065 0.069168 -0.159883 -1.816986 0.066178 -1.575392
    49 -0.025151 0.088764 -0.068836 -1.817843 0.044510 -1.568287
    50 -0.102916 -0.186983 -0.272246 -1.833683 -0.232962 -1.472375
    51 -1.204102 -3.480469 -0.106567 -0.559857 0.000064 -0.034530
    52 0.035553 -1.751953 0.007828 -1.649116 0.000000 0.000000
    53 0.025319 -1.192163 0.020043 -1.040370 0.000001 0.000001
    54 -0.004241 0.043709 -0.080203 -2.014997 -0.186996 -1.460723
    55 0.015383 -0.089136 -0.030010 -2.006083 0.036346 -1.568629
    56 -0.022610 -0.212357 -0.177906 -1.933161 -0.118801 -1.518895
    57 1.455078 -3.179688 -0.212891 -1.195393 0.008266 0.221155
    58 0.030029 -1.411133 0.022247 -1.078844 0.000000 0.000000
    59 0.014894 -1.102744 -0.019848 -1.745617 -0.000006 -0.000004
    60 -0.067139 0.063251 -0.010961 -0.899214 -0.014515 -1.600326
    61 -0.151180 -0.007393 -0.070065 -0.913061 -0.118819 -1.408558
    62 -0.178163 -0.244682 -0.357068 -1.159916 -0.384260 -1.556110
    63 -0.732910 -1.580078 0.250000 0.229189 -0.611229 -2.635591
    64 1.903320 0.073303 0.021057 0.001411 0.008981 0.881751
    65 1.396484 0.060516 -0.007202 -0.019046 -0.016498 0.913479
    66 -0.263408 -0.117640 -0.015659 0.000036 -0.082210 -0.026800
    67 0.007707 -0.334358 -0.191575 0.070788 -0.181563 0.282364
    68 0.225562 -0.567923 -0.420715 0.119895 -0.183798 0.223460
    69 -0.203683 -0.095654 -0.328305 -1.745077 0.075142 -1.515382
    70 -1.741211 11.046875 -0.299072 1.580804 -0.005024 -1.566848
    71 0.036020 0.082816 -0.692656 -1.570769 0.065989 0.001276
    72 -0.088586 0.054021 -0.088593 0.010231 0.033800 -1.560851
    73 0.096436 0.435059 -0.121704 -2.729171 -0.166706 -1.525878
    74 -0.037506 -0.007786 -0.035706 0.165906 0.129870 1.436263
    75 -0.681641 -3.382813 0.731934 1.511238 0.303606 0.490423
    76 -2.902684 4.077851 -1.155693 0.000000 1.570787 -0.174318
    77 2.232270 5.754207 -10.391143 0.000000 1.570787 -0.174302
    78 2.154592 2.533360 -0.877487 0.000000 0.000000 -1.570796
    79 -0.653823 0.606601 -0.252417 -0.000419 0.021608 0.001175
    80 2.871818 2.533360 -0.581297 0.000000 0.000000 -1.570796
    81 0.000000 3.817256 -4.109225 0.000000 0.000000 -1.570796
    82 -0.000003 3.778193 -6.176540 -0.007982 -0.002445 -1.574367
    83 0.000000 3.817255 -1.752300 0.000000 0.000000 -1.570796
    84 -1.085938 22.640625 -1.504883 0.000000 1.570795 -0.000001
    85 0.000153 9.865690 -9.128512 0.000000 -1.570781 -0.778477
    86 7.623053 -0.017314 -3.650365 2.363127 -0.000001 -3.141577
  time 6
    0 -0.248901 -4.308594 -0.708008 -0.000001 -0.174529 -0.000006
    1 9.716366 9.711420 -6.794613 2.302604 -1.405366 -2.526268
    2 0.158556 -10.670675 -0.229141 0.116342 0.335683 0.004304
    3 -0.610352 -3.443359 -0.285156 -0.726374 0.079841 -0.218959
    4 0.049805 -1.848633 0.037292 -1.552680 0.000000 0.000000
    5 0.035980 -1.343750 -0.028885 -0.992498 0.000000 0.000000
    6 0.007988 0.172184 -0.118553 -1.598091 -0.216549 -1.570593
    7 0.080660 0.135929 -0.203919 -1.506824 -0.066185 -1.662786
    8 0.117288 -0.155554 -0.604544 -1.412988 -0.374558 -1.569222
    9 0.312500 -3.525391 -0.297852 -0.572166 0.103584 -0.135712
    10 -0.062195 -2.099609 0.125488 -1.641971 0.000000 0.000000
    11 -0.042664 -1.434570 0.105896 -0.829270 0.000000 0.000000
    12 -0.018589 0.129953 -0.123721 -1.294580 0.001302 -1.635383
    13 -0.006160 0.170065 -0.110169 -1.280084 -0.068681 -1.597215
    14 0.047100 -0.104074 -0.352264 -1.243368 -0.257298 -1.694346
    15 1.196289 -3.431641 -0.112854 -0.293388 -0.016436 0.087924
    16 -0.041748 -1.746094 -0.014069 -1.011449 0.000000 0.000000
    17 -0.022361 -1.195726 0.022690 -0.872757 0.000000 -0.000001
    18 -0.022325 0.045422 -0.038284 -1.125544 -0.129230 -1.681412
    19 -0.042900 -0.061275 -0.071212 -1.124462 -0.060454 -1.586099
    20 0.063741 -0.109104 -0.248158 -1.142813 -0.125805 -1.693583
    21 -1.475586 -3.132813 -0.242310 -0.372946 0.114153 -0.031560
    22 -0.031204 -1.404297 0.021973 -1.365600 0.000000 0.000000
    23 -0.025070 -1.113281 0.012611 -0.866460 0.000000 0.000000
    24 -0.011721 0.093267 0.017949 -1.687855 -0.079155 -1.575164
    25 0.048862 -0.085541 0.028626 -1.715605 -0.034569 -1.653190
    26 0.173919 -0.198416 -0.336163 -1.668104 -0.422317 -1.710956
    27 0.724139 -1.494163 0.224443 0.187625 -0.608891 -0.125108
    28 1.914847 0.010252 0.005009 -0.002964 -0.012980 -0.292914
    29 1.374216 0.004522 -0.010680 -0.014481 0.004528 -1.084222
    30 -0.267710 0.037512 -0.093907 2.913812 -0.143386 0.078467
    31 -0.029266 0.205408 -0.329287 2.788574 -0.255486 -0.188917
    32 0.204373 0.521055 -0.268577 2.886669 0.042206 -0.230367
    33 0.195697 -0.010059 -0.293538 -1.333586 0.150863 -1.672749
    34 1.571289 10.953125 -0.192139 -1.570562 0.002683 -1.566808
    35 -0.093500 -0.114213 -0.738866 -1.570842 0.061811 0.002096
    36 0.010843 0.093624 -0.081439 -3.141462 0.041719 -1.568236
    37 -3.208359 -10.762678 -6.856961 -3.007349 0.015653 3.893827
    38 0.116467 -10.559858 -0.009359 0.054534 -0.197886 0.263380
    39 0.553428 -3.494322 -0.247313 -1.021626 0.000522 0.163145
    40 -0.041138 -1.849609 0.006172 -1.641062 0.000000 0.000000
    41 -0.033722 -1.345703 -0.025253 -1.574529 0.000000 0.000000
    42 0.006927 0.005329 -0.181358 -1.528500 -0.248579 -1.611362
    43 -0.052313 0.038589 -0.230757 -1.592493 -0.043415 -1.528515
    44 -0.232600 -0.209656 -0.420670 -1.713790 -0.167173 -1.438930
    45 -0.311768 -3.558594 -0.217529 -0.611012 -0.003049 0.061472
    46 0.053986 -2.103516 0.119995 -1.849632 0.002822 -0.000166
    47 0.039542 -1.449897 0.066656 -1.197466 0.003173 -0.003506
    48 -0.038065 0.069168 -0.159883 -1.816986 0.066178 -1.575392
    49 -0.025151 0.088764 -0.068836 -1.817843 0.044510 -1.568287
    50 -0.102916 -0.186983 -0.272246 -1.833683 -0.232962 -1.472375
    51 -1.204102 -3.480469 -0.106567 -0.559857 0.000064 -0.034530
    52 0.035553 -1.751953 0.007828 -1.649116 0.000000 0.000000
    53 0.025319 -1.192163 0.023950 -1.040338 0.000001 0.000001
    54 -0.004241 0.043709 -0.080203 -2.014997 -0.186996 -1.460723
    55 0.015383 -0.089136 -0.030010 -2.006083 0.036346 -1.568629
    56 -0.022610 -0.212357 -0.177906 -1.933161 -0.118801 -1.518895
    57 1.455078 -3.179688 -0.212891 -1.195393 0.008266 0.221155
    58 0.030029 -1.411133 0.022247 -1.078844 0.000000 0.000000
    59 0.014894 -1.102744 -0.019848 -1.745617 -0.000006 -0.000004
    60 -0.067139 0.063251 -0.010961 -0.899214 -0.014515 -1.600326
    61 -0.151180 -0.007393 -0.070065 -0.913061 -0.118819 -1.408558
    62 -0.178163 -0.244682 -0.357068 -1.159916 -0.384260 -1.556110
    63 -0.732910 -1.580078 0.250000 0.229189 -0.611229 -2.635591
    64 1.903320 0.073303 0.021057 0.001411 0.008981 0.881751
    65 1.396484 0.060516 -0.007202 -0.019046 -0.016498 0.913479
    66 -0.263408 -0.117640 -0.015659 0.000036 -0.082210 -0.026800
    67 0.007707 -0.334358 -0.191575 0.070788 -0.181563 0.282364
    68 0.225562 -0.567923 -0.420715 0.119895 -0.183798 0.223460
    69 -0.203683 -0.095654 -0.328305 -1.745077 0.075142 -1.515382
    70 -1.741211 11.046875 -0.299072 1.580804 -0.005024 -1.566848
    71 0.036020 0.082816 -0.692656 -1.570769 0.065989 0.001276
    72 -0.088586 0.054021 -0.088593 0.010231 0.033800 -1.560851
    73 0.096436 0.435059 -0.121704 -2.729171 -0.166706 -1.525878
    74 -0.037506 -0.007786 -0.035706 0.165906 0.129870 1.436263
    75 -0.681641 -3.382813 0.731934 1.511238 0.303606 0.490423
    76 -2.902684 4.077851 -1.155693 1.745082 1.560024 1.570634
    77 2.232270 5.754207 -10.391143 1.745056 1.565717 1.570640
    78 2.201468 2.537266 -0.834517 0.000000 0.000000 -1.570796
    79 -0.653823 0.606601 -0.252417 0.012764 0.005825 0.007838
    80 2.871818 2.533360 -0.581297 0.000000 0.000000 -1.570796
    81 0.000000 3.805537 -4.109225 0.000000 0.000000 -1.570796
    82 -0.000003 3.817256 -6.176540 -0.008197 -0.009815 -1.582721
    83 0.000000 3.817255 -1.752300 0.000000 0.000000 -1.570796
    84 -1.085938 22.640625 -1.504883 0.000000 1.570795 -0.000001
    85 0.000153 9.865690 -9.128512 0.000000 -1.570781 -0.778477
    86 7.623053 -0.017314 -3.646458 2.363127 -0.000001 -3.141577
  time 7
    0 -0.248901 -4.308594 -0.708008 -0.000001 -0.174529 -0.000006
    1 9.716366 9.691888 -6.794613 2.302604 -1.405366 -2.526268
    2 0.283560 -10.612079 -0.256485 0.113815 0.337115 -0.004038
    3 -0.610352 -3.443359 -0.285156 -0.726374 0.079841 -0.218959
    4 0.049805 -1.848633 0.037292 -1.552680 0.000000 0.000000
    5 0.035980 -1.343750 -0.028885 -0.992498 0.000000 0.000000
    6 0.007988 0.172184 -0.118553 -1.598091 -0.216549 -1.570593
    7 0.080660 0.135929 -0.203919 -1.506824 -0.066185 -1.662786
    8 0.117288 -0.155554 -0.604544 -1.412988 -0.374558 -1.569222
    9 0.312500 -3.525391 -0.297852 -0.572166 0.103584 -0.135712
    10 -0.062195 -2.099609 0.125488 -1.641971 0.000000 0.000000
    11 -0.042664 -1.434570 0.105896 -0.829270 0.000000 0.000000
    12 -0.018589 0.129953 -0.123721 -1.294580 0.001302 -1.635383
    13 -0.006160 0.170065 -0.110169 -1.280084 -0.068681 -1.597215
    14 0.047100 -0.104074 -0.352264 -1.243368 -0.257298 -1.694346
    15 1.196289 -3.431641 -0.112854 -0.293388 -0.016436 0.087924
    16 -0.041748 -1.746094 -0.014069 -1.011449 0.000000 0.000000
    17 -0.022361 -1.191820 0.018784 -0.872757 0.000000 -0.000001
    18 -0.022325 0.045422 -0.038284 -1.125544 -0.129230 -1.681412
    19 -0.042900 -0.061275 -0.071212 -1.124462 -0.060454 -1.586099
    20 0.063741 -0.109104 -0.248158 -1.142813 -0.125805 -1.693583
    21 -1.475586 -3.132813 -0.242310 -0.372946 0.114153 -0.031560
    22 -0.031204 -1.404297 0.021973 -1.365600 0.000000 0.000000
    23 -0.025070 -1.113281 0.012611 -0.866460 0.000000 0.000000
    24 -0.011721 0.093267 0.017949 -1.687855 -0.079155 -1.575164
    25 0.048862 -0.085541 0.028626 -1.715605 -0.034569 -1.653190
    26 0.173919 -0.198416 -0.336163 -1.668104 -0.422317 -1.710956
    27 0.724139 -1.494163 0.228349 0.169164 -0.613681 -0.092975
    28 1.914847 0.010252 0.005009 -0.002964 -0.012980 -0.326965
    29 1.374216 0.004522 -0.010680 -0.011413 0.010041 -0.684265
    30 -0.267710 0.037512 -0.093907 2.913812 -0.143386 0.078467
    31 -0.029266 0.205408 -0.329287 2.788574 -0.255486 -0.188917
    32 0.204373 0.521055 -0.268577 2.886669 0.042206 -0.230367
    33 0.195697 -0.010059 -0.293538 -1.333586 0.150863 -1.672749
    34 1.571289 10.953125 -0.192139 -1.570562 0.002683 -1.566808
    35 -0.093500 -0.114213 -0.738866 -1.570842 0.061811 0.002096
    36 0.010843 0.093624 -0.081439 -3.141462 0.041719 -1.568236
    37 -3.208359 -10.747052 -6.864774 -3.007349 0.015653 3.893827
    38 0.116467 -10.559858 -0.009359 0.047538 -0.201397 0.266871
    39 0.553428 -3.494322 -0.247313 -1.021626 0.000534 0.163145
    40 -0.041138 -1.849609 0.006172 -1.641062 0.000000 0.000000
    41 -0.033722 -1.345703 -0.025253 -1.574529 0.000000 0.000000
    42 0.006927 0.005329 -0.181358 -1.528500 -0.248579 -1.611362
    43 -0.052313 0.038589 -0.230757 -1.592493 -0.043415 -1.528515
    44 -0.232600 -0.209656 -0.420670 -1.713790 -0.167173 -1.438930
    45 -0.311768 -3.558594 -0.217529 -0.611012 -0.003049 0.061472
    46 0.053986 -2.103516 0.119995 -1.849632 0.002822 -0.000166
    47 0.035635 -1.449897 0.070563 -1.197466 0.003173 -0.003506
    48 -0.038065 0.069168 -0.159883 -1.816986 0.066178 -1.575392
    49 -0.025151 0.088764 -0.068836 -1.817843 0.044510 -1.568287
    50 -0.102916 -0.186983 -0.272246 -1.833683 -0.232962 -1.472375
    51 -1.204102 -3.480469 -0.106567 -0.559857 0.000064 -0.034530
    52 0.035553 -1.751953 0.007828 -1.649116 0.000000 0.000000
    53 0.025319 -1.192163 0.023950 -1.040338 0.000001 0.000001
    54 -0.004241 0.043709 -0.080203 -2.014997 -0.186996 -1.460723
    55 0.015383 -0.089136 -0.030010 -2.006083 0.036346 -1.568629
    56 -0.022610 -0.212357 -0.177906 -1.933161 -0.118801 -1.518895
    57 1.455078 -3.179688 -0.212891 -1.195393 0.008266 0.221155
    58 0.030029 -1.411133 0.022247 -1.078844 0.000000 0.000000
    59 0.014894 -1.102744 -0.019848 -1.745617 -0.000006 -0.000004
    60 -0.067139 0.063251 -0.010961 -0.899214 -0.014515 -1.600326
    61 -0.151180 -0.007393 -0.070065 -0.913061 -0.118819 -1.408558
    62 -0.178163 -0.244682 -0.357068 -1.159916 -0.384260 -1.556110
    63 -0.732910 -1.580078 0.250000 0.229189 -0.611229 -2.635591
    64 1.903320 0.073303 0.021057 0.001411 0.008981 0.881751
    65 1.396484 0.060516 -0.007202 -0.019046 -0.016498 0.913479
    66 -0.263408 -0.117640 -0.015659 0.000036 -0.082210 -0.026800
    67 0.007707 -0.334358 -0.191575 0.070788 -0.181563 0.282364
    68 0.225562 -0.567923 -0.420715 0.119895 -0.183798 0.223460
    69 -0.203683 -0.095654 -0.328305 -1.745077 0.075142 -1.515382
    70 -1.741211 11.046875 -0.299072 1.580804 -0.005024 -1.566848
    71 0.036020 0.082816 -0.692656 -1.570769 0.065989 0.001276
    72 -0.088586 0.054021 -0.088593 0.010231 0.033800 -1.560851
    73 0.096436 0.435059 -0.121704 -2.729171 -0.166706 -1.525878
    74 -0.037506 -0.007786 -0.035706 0.165906 0.129870 1.436263
    75 -0.681641 -3.382813 0.731934 1.511238 0.303606 0.490423
    76 -2.902684 4.077851 -1.155693 1.745082 1.566196 1.570586
    77 2.232270 5.754207 -10.391143 1.745167 1.565909 1.570640
    78 2.174124 2.533360 -0.877487 0.000000 0.000000 -1.570796
    79 -0.653823 0.606601 -0.252417 0.012824 -0.004734 -0.004087
    80 2.871818 2.533360 -0.581297 0.000000 0.000000 -1.570796
    81 0.000000 3.789912 -4.109225 0.000000 0.000000 -1.570796
    82 -0.000003 3.828976 -6.176540 -0.003188 -0.012128 -1.583907
    83 0.000000 3.825068 -1.752300 0.000000 0.000000 -1.570796
    84 -1.085938 22.640625 -1.504883 0.000000 1.570795 -0.000001
    85 0.000153 9.865690 -9.128512 0.000000 -1.570781 -0.778477
    86 7.623053 -0.017314 -3.646458 2.363127 -0.000001 -3.141577
  time 8
    0 -0.248901 -4.308594 -0.708008 -0.000001 -0.174529 -0.000006
    1 9.728085 9.656731 -6.814145 2.302604 -1.405366 -2.526268
    2 0.264028 -10.573016 -0.229141 0.114685 0.336605 -0.001185
    3 -0.610352 -3.443359 -0.285156 -0.726374 0.079841 -0.218959
    4 0.049805 -1.848633 0.037292 -1.552680 0.000000 0.000000
    5 0.035980 -1.343750 -0.028885 -0.992498 0.000000 0.000000
    6 0.007988 0.172184 -0.118553 -1.598091 -0.216549 -1.570593
    7 0.080660 0.135929 -0.203919 -1.506824 -0.066185 -1.662786
    8 0.117288 -0.155554 -0.604544 -1.412988 -0.374558 -1.569222
    9 0.312500 -3.525391 -0.297852 -0.572166 0.103584 -0.135712
    10 -0.062195 -2.099609 0.125488 -1.641971 0.000000 0.000000
    11 -0.042664 -1.434570 0.105896 -0.829270 0.000000 0.000000
    12 -0.018589 0.129953 -0.123721 -1.294580 0.001302 -1.635383
    13 -0.006160 0.170065 -0.110169 -1.280084 -0.068681 -1.597215
    14 0.047100 -0.104074 -0.352264 -1.243368 -0.257298 -1.694346
    15 1.196289 -3.431641 -0.112854 -0.293388 -0.016436 0.087924
    16 -0.041748 -1.746094 -0.014069 -1.011449 0.000000 0.000000
    17 -0.022361 -1.191820 0.022690 -0.872757 0.000000 -0.000001
    18 -0.022325 0.045422 -0.038284 -1.125544 -0.129230 -1.681412
    19 -0.042900 -0.061275 -0.071212 -1.124462 -0.060454 -1.586099
    20 0.063741 -0.109104 -0.248158 -1.142813 -0.125805 -1.693583
    21 -1.475586 -3.132813 -0.242310 -0.372946 0.114153 -0.031560
    22 -0.031204 -1.404297 0.021973 -1.365600 0.000000 0.000000
    23 -0.025070 -1.113281 0.012611 -0.866460 0.000000 0.000000
    24 -0.011721 0.093267 0.017949 -1.687855 -0.079155 -1.575164
    25 0.048862 -0.085541 0.028626 -1.715605 -0.034569 -1.653190
    26 0.173919 -0.198416 -0.336163 -1.668104 -0.422317 -1.710956
    27 0.724139 -1.490257 0.224443 0.159248 -0.616242 -0.075668
    28 1.918753 0.010252 0.005009 -0.002964 -0.012980 -0.354276
    29 1.374216 0.004522 -0.010680 -0.009747 0.013013 -0.468869
    30 -0.267710 0.037512 -0.093907 2.913812 -0.143386 0.078467
    31 -0.029266 0.205408 -0.329287 2.788574 -0.255486 -0.188917
    32 0.204373 0.521055 -0.268577 2.886669 0.042206 -0.230367
    33 0.195697 -0.010059 -0.293538 -1.333586 0.150863 -1.672749
    34 1.571289 10.953125 -0.192139 -1.570562 0.002683 -1.566808
    35 -0.093500 -0.114213 -0.738866 -1.570842 0.061811 0.002096
    36 0.010843 0.093624 -0.081439 -3.141462 0.041719 -1.568236
    37 -3.208359 -10.735333 -6.853055 -3.007349 0.015653 3.893827
    38 0.116467 -10.559858 -0.009359 0.049939 -0.200235 0.265669
    39 0.557334 -3.494322 -0.243407 -1.021626 0.000522 0.163145
    40 -0.041138 -1.849609 0.006172 -1.641062 0.000000 0.000000
    41 -0.033722 -1.345703 -0.025253 -1.574529 0.000000 0.000000
    42 0.006927 0.005329 -0.181358 -1.528500 -0.248579 -1.611362
    43 -0.052313 0.038589 -0.230757 -1.592493 -0.043415 -1.528515
    44 -0.232600 -0.209656 -0.420670 -1.713790 -0.167173 -1.438930
    45 -0.311768 -3.558594 -0.217529 -0.611012 -0.003049 0.061472
    46 0.053986 -2.103516 0.119995 -1.849632 0.002822 -0.000166
    47 0.039542 -1.449897 0.066656 -1.197466 0.003173 -0.003506
    48 -0.038065 0.069168 -0.159883 -1.816986 0.066178 -1.575392
    49 -0.025151 0.088764 -0.068836 -1.817843 0.044510 -1.568287
    50 -0.102916 -0.186983 -0.272246 -1.833683 -0.232962 -1.472375
    51 -1.204102 -3.480469 -0.106567 -0.559857 0.000064 -0.034530
    52 0.035553 -1.751953 0.007828 -1.649116 0.000000 0.000000
    53 0.025319 -1.192163 0.023950 -1.040338 0.000001 0.000001
    54 -0.004241 0.043709 -0.080203 -2.014997 -0.186996 -1.460723
    55 0.015383 -0.089136 -0.030010 -2.006083 0.036346 -1.568629
    56 -0.022610 -0.212357 -0.177906 -1.933161 -0.118801 -1.518895
    57 1.455078 -3.179688 -0.212891 -1.195393 0.008266 0.221155
    58 0.030029 -1.411133 0.022247 -1.078844 0.000000 0.000000
    59 0.014894 -1.102744 -0.019848 -1.745617 -0.000006 -0.000004
    60 -0.067139 0.063251 -0.010961 -0.899214 -0.014515 -1.600326
    61 -0.151180 -0.007393 -0.070065 -0.913061 -0.118819 -1.408558
    62 -0.178163 -0.244682 -0.357068 -1.159916 -0.384260 -1.556110
    63 -0.732910 -1.580078 0.250000 0.229189 -0.611229 -2.635591
    64 1.903320 0.073303 0.021057 0.001411 0.008981 0.881751
    65 1.396484 0.060516 -0.007202 -0.019046 -0.016498 0.913479
    66 -0.263408 -0.117640 -0.015659 0.000036 -0.082210 -0.026800
    67 0.007707 -0.334358 -0.191575 0.070788 -0.181563 0.282364
    68 0.225562 -0.567923 -0.420715 0.119895 -0.183798 0.223460
    69 -0.203683 -0.095654 -0.328305 -1.745077 0.075142 -1.515382
    70 -1.741211 11.046875 -0.299072 1.580804 -0.005024 -1.566848
    71 0.036020 0.082816 -0.692656 -1.570769 0.065989 0.001276
    72 -0.088586 0.054021 -0.088593 0.010231 0.033800 -1.560851
    73 0.096436 0.435059 -0.121704 -2.729171 -0.166706 -1.525878
    74 -0.037506 -0.007786 -0.035706 0.165906 0.129870 1.436263
    75 -0.681641 -3.382813 0.731934 1.511238 0.303606 0.490423
    76 -2.902684 4.077851 -1.155693 -1.395987 1.565837 -1.570538
    77 2.232270 5.754207 -10.391143 -1.396067 1.566820 -1.570688
    78 2.138966 2.533360 -0.881393 0.000000 0.000000 -1.570796
    79 -0.653823 0.606601 -0.252417 -0.010247 -0.001798 -0.000072
    80 2.871818 2.533360 -0.581297 0.000000 0.000000 -1.570796
    81 0.000000 3.809444 -4.109225 0.000000 0.000000 -1.570796
    82 -0.000003 3.840695 -6.176540 0.000336 -0.005801 -1.574451
    83 0.000000 3.817255 -1.752300 0.000000 0.000000 -1.570796
    84 -1.085938 22.640625 -1.504883 0.000000 1.570795 -0.000001
    85 0.000153 9.865690 -9.128512 0.000000 -1.570781 -0.778477
    86 7.623053 -0.017314 -3.650365 2.363127 -0.000001 -3.141577
  time 9
    0 -0.248901 -4.308594 -0.708008 -0.000001 -0.174529 -0.000006
    1 9.728085 9.637199 -6.837583 2.302604 -1.405366 -2.526268
    2 0.201526 -10.553484 -0.197890 0.116798 0.335389 0.005538
    3 -0.610352 -3.443359 -0.285156 -0.726374 0.079841 -0.218959
    4 0.049805 -1.848633 0.037292 -1.552680 0.000000 0.000000
    5 0.035980 -1.343750 -0.028885 -0.992498 0.000000 0.000000
    6 0.007988 0.172184 -0.118553 -1.598091 -0.216549 -1.570593
    7 0.080660 0.135929 -0.203919 -1.506824 -0.066185 -1.662786
    8 0.117288 -0.155554 -0.604544 -1.412988 -0.374558 -1.569222
    9 0.312500 -3.525391 -0.297852 -0.572166 0.103584 -0.135712
    10 -0.062195 -2.099609 0.125488 -1.641971 0.000000 0.000000
    11 -0.042664 -1.434570 0.105896 -0.829270 0.000000 0.000000
    12 -0.018589 0.129953 -0.123721 -1.294580 0.001302 -1.635383
    13 -0.006160 0.170065 -0.110169 -1.280084 -0.068681 -1.597215
    14 0.047100 -0.104074 -0.352264 -1.243368 -0.257298 -1.694346
    15 1.196289 -3.431641 -0.112854 -0.293388 -0.016436 0.087924
    16 -0.041748 -1.746094 -0.014069 -1.011449 0.000000 0.000000
    17 -0.026267 -1.191820 0.018784 -0.872757 0.000000 -0.000001
    18 -0.022325 0.045422 -0.038284 -1.125544 -0.129230 -1.681412
    19 -0.042900 -0.061275 -0.071212 -1.124462 -0.060454 -1.586099
    20 0.063741 -0.109104 -0.248158 -1.142813 -0.125805 -1.693583
    21 -1.475586 -3.132813 -0.242310 -0.372946 0.114153 -0.031560
    22 -0.031204 -1.404297 0.021973 -1.365600 0.000000 0.000000
    23 -0.025070 -1.113281 0.012611 -0.866460 0.000000 0.000000
    24 -0.011721 0.093267 0.017949 -1.687855 -0.079155 -1.575164
    25 0.048862 -0.085541 0.028626 -1.715605 -0.034569 -1.653190
    26 0.173919 -0.198416 -0.336163 -1.668104 -0.422317 -1.710956
    27 0.724139 -1.494163 0.228349 0.163374 -0.615192 -0.082861
    28 1.918753 0.010252 0.005009 -0.002964 -0.012980 -0.368500
    29 1.374216 0.004522 -0.010680 -0.010274 0.012462 -0.516653
    30 -0.267710 0.037512 -0.093907 2.913812 -0.143386 0.078467
    31 -0.029266 0.205408 -0.329287 2.788574 -0.255486 -0.188917
    32 0.204373 0.521055 -0.268577 2.886669 0.042206 -0.230367
    33 0.195697 -0.010059 -0.293538 -1.333586 0.150863 -1.672749
    34 1.571289 10.953125 -0.192139 -1.570562 0.002683 -1.566808
    35 -0.093500 -0.114213 -0.738866 -1.570842 0.061811 0.002096
    36 0.010843 0.093624 -0.081439 -3.141462 0.041719 -1.568236
    37 -3.208359 -10.711895 -6.821804 -3.007349 0.015653 3.893827
    38 0.116467 -10.559858 -0.009359 0.055604 -0.197394 0.262802
    39 0.553428 -3.498228 -0.247313 -1.021626 0.000522 0.163157
    40 -0.041138 -1.849609 0.006172 -1.641062 0.000000 0.000000
    41 -0.033722 -1.345703 -0.025253 -1.574529 0.000000 0.000000
    42 0.006927 0.005329 -0.181358 -1.528500 -0.248579 -1.611362
    43 -0.052313 0.038589 -0.230757 -1.592493 -0.043415 -1.528515
    44 -0.232600 -0.209656 -0.420670 -1.713790 -0.167173 -1.438930
    45 -0.311768 -3.558594 -0.217529 -0.611012 -0.003049 0.061472
    46 0.053986 -2.103516 0.119995 -1.849632 0.002822 -0.000166
    47 0.035635 -1.449897 0.066656 -1.197466 0.003173 -0.003506
    48 -0.038065 0.069168 -0.159883 -1.816986 0.066178 -1.575392
    49 -0.025151 0.088764 -0.068836 -1.817843 0.044510 -1.568287
    50 -0.102916 -0.186983 -0.272246 -1.833683 -0.232962 -1.472375
    51 -1.204102 -3.480469 -0.106567 -0.559857 0.000064 -0.034530
    52 0.035553 -1.751953 0.007828 -1.649116 0.000000 0.000000
    53 0.025319 -1.192163 0.023950 -1.040338 0.000001 0.000001
    54 -0.004241 0.043709 -0.080203 -2.014997 -0.186996 -1.460723
    55 0.015383 -0.089136 -0.030010 -2.006083 0.036346 -1.568629
    56 -0.022610 -0.212357 -0.177906 -1.933161 -0.118801 -1.518895
    57 1.455078 -3.179688 -0.212891 -1.195393 0.008266 0.221155
    58 0.030029 -1.411133 0.022247 -1.078844 0.000000 0.000000
    59 0.014894 -1.102744 -0.019848 -1.745617 -0.000006 -0.000004
    60 -0.067139 0.063251 -0.010961 -0.899214 -0.014515 -1.600326
    61 -0.151180 -0.007393 -0.070065 -0.913061 -0.118819 -1.408558
    62 -0.178163 -0.244682 -0.357068 -1.159916 -0.384260 -1.556110
    63 -0.732910 -1.580078 0.250000 0.229189 -0.611229 -2.635591
    64 1.903320 0.073303 0.021057 0.001411 0.008981 0.881751
    65 1.396484 0.060516 -0.007202 -0.019046 -0.016498 0.913479
    66 -0.263408 -0.117640 -0.015659 0.000036 -0.082210 -0.026800
    67 0.007707 -0.334358 -0.191575 0.070788 -0.181563 0.282364
    68 0.225562 -0.567923 -0.420715 0.119895 -0.183798 0.223460
    69 -0.203683 -0.095654 -0.328305 -1.745077 0.075142 -1.515382
    70 -1.741211 11.046875 -0.299072 1.580804 -0.005024 -1.566848
    71 0.036020 0.082816 -0.692656 -1.570769 0.065989 0.001276
    72 -0.088586 0.054021 -0.088593 0.010231 0.033800 -1.560851
    73 0.096436 0.435059 -0.121704 -2.729171 -0.166706 -1.525878
    74 -0.037506 -0.007786 -0.035706 0.165906 0.129870 1.436263
    75 -0.681641 -3.382813 0.731934 1.511238 0.303606 0.490423
    76 -2.902684 4.077851 -1.155693 1.744970 1.569420 1.570490
    77 2.232270 5.754207 -10.391143 -1.395955 1.567647 -1.570544
    78 2.166311 2.533360 -0.916550 0.000000 0.000000 -1.570796
    79 -0.653823 0.606601 -0.252417 -0.025180 -0.014549 -0.022207
    80 2.871818 2.533360 -0.581297 0.000000 0.000000 -1.570796
    81 0.000000 3.817256 -4.109225 0.000000 0.000000 -1.570796
    82 -0.000003 3.825069 -6.176540 0.002469 -0.000599 -1.572138
    83 0.000000 3.817255 -1.752300 0.000000 0.000000 -1.570796
    84 -1.085938 22.640625 -1.504883 0.000000 1.570795 -0.000001
    85 0.000153 9.865690 -9.128512 0.000000 -1.570781 -0.778477
    86 7.623053 -0.017314 -3.646458 2.363127 -0.000001 -3.141577
  time 10
    0 -0.248901 -4.308594 -0.708008 -0.000001 -0.174529 -0.000006
    1 9.728085 9.637199 -6.833677 2.302604 -1.405366 -2.526268
    2 0.084335 -10.576922 -0.162733 0.119242 0.333918 0.013616
    3 -0.610352 -3.443359 -0.285156 -0.726374 0.079841 -0.218959
    4 0.049805 -1.848633 0.037292 -1.552680 0.000000 0.000000
    5 0.035980 -1.343750 -0.028885 -0.992498 0.000000 0.000000
    6 0.007988 0.172184 -0.118553 -1.598091 -0.216549 -1.570593
    7 0.080660 0.135929 -0.203919 -1.506824 -0.066185 -1.662786
    8 0.117288 -0.155554 -0.604544 -1.412988 -0.374558 -1.569222
    9 0.312500 -3.525391 -0.297852 -0.572166 0.103584 -0.135712
    10 -0.062195 -2.099609 0.125488 -1.641971 0.000000 0.000000
    11 -0.042664 -1.434570 0.105896 -0.829270 0.000000 0.000000
    12 -0.018589 0.129953 -0.123721 -1.294580 0.001302 -1.635383
    13 -0.006160 0.170065 -0.110169 -1.280084 -0.068681 -1.597215
    14 0.047100 -0.104074 -0.352264 -1.243368 -0.257298 -1.694346
    15 1.196289 -3.431641 -0.112854 -0.293388 -0.016436 0.087924
    16 -0.041748 -1.746094 -0.014069 -1.011449 0.000000 0.000000
    17 -0.022361 -1.191820 0.022690 -0.872757 0.000000 -0.000001
    18 -0.022325 0.045422 -0.038284 -1.125544 -0.129230 -1.681412
    19 -0.042900 -0.061275 -0.071212 -1.124462 -0.060454 -1.586099
    20 0.063741 -0.109104 -0.248158 -1.142813 -0.125805 -1.693583
    21 -1.475586 -3.132813 -0.242310 -0.372946 0.114153 -0.031560
    22 -0.031204 -1.404297 0.021973 -1.365600 0.000000 0.000000
    23 -0.025070 -1.113281 0.012611 -0.866460 0.000000 0.000000
    24 -0.011721 0.093267 0.017949 -1.687855 -0.079155 -1.575164
    25 0.048862 -0.085541 0.028626 -1.715605 -0.034569 -1.653190
    26 0.173919 -0.198416 -0.336163 -1.668104 -0.422317 -1.710956
    27 0.724139 -1.494163 0.224443 0.172505 -0.612944 -0.098730
    28 1.914847 0.010252 0.005009 -0.002964 -0.012980 -0.379044
    29 1.374216 0.004522 -0.010680 -0.011485 0.011203 -0.621696
    30 -0.267710 0.037512 -0.093907 2.913812 -0.143386 0.078467
    31 -0.029266 0.205408 -0.329287 2.788574 -0.255486 -0.188917
    32 0.204373 0.521055 -0.268577 2.886669 0.042206 -0.230367
    33 0.195697 -0.010059 -0.293538 -1.333586 0.150863 -1.672749
    34 1.571289 10.953125 -0.192139 -1.570562 0.002683 -1.566808
    35 -0.093500 -0.114213 -0.738866 -1.570842 0.061811 0.002096
    36 0.010843 0.093624 -0.081439 -3.141462 0.041719 -1.568236
    37 -3.204452 -10.704082 -6.802272 -3.007349 0.015653 3.893827
    38 0.116467 -10.559858 -0.009359 0.062379 -0.194027 0.259357
    39 0.557334 -3.494322 -0.243407 -1.021626 0.000534 0.163157
    40 -0.041138 -1.849609 0.006172 -1.641062 0.000000 0.000000
    41 -0.033722 -1.345703 -0.025253 -1.574529 0.000000 0.000000
    42 0.006927 0.005329 -0.181358 -1.528500 -0.248579 -1.611362
    43 -0.052313 0.038589 -0.230757 -1.592493 -0.043415 -1.528515
    44 -0.232600 -0.209656 -0.420670 -1.713790 -0.167173 -1.438930
    45 -0.311768 -3.558594 -0.217529 -0.611012 -0.003049 0.061472
    46 0.053986 -2.103516 0.119995 -1.849632 0.002822 -0.000166
    47 0.039542 -1.449897 0.070563 -1.197466 0.003173 -0.003506
    48 -0.038065 0.069168 -0.159883 -1.816986 0.066178 -1.575392
    49 -0.025151 0.088764 -0.068836 -1.817843 0.044510 -1.568287
    50 -0.102916 -0.186983 -0.272246 -1.833683 -0.232962 -1.472375
    51 -1.204102 -3.480469 -0.106567 -0.559857 0.000064 -0.034530
    52 0.035553 -1.751953 0.007828 -1.649116 0.000000 0.000000
    53 0.025319 -1.192163 0.023950 -1.040370 0.000001 0.000001
    54 -0.004241 0.043709 -0.080203 -2.014997 -0.186996 -1.460723
    55 0.015383 -0.089136 -0.030010 -2.006083 0.036346 -1.568629
    56 -0.022610 -0.212357 -0.177906 -1.933161 -0.118801 -1.518895
    57 1.455078 -3.179688 -0.212891 -1.195393 0.008266 0.221155
    58 0.030029 -1.411133 0.022247 -1.078844 0.000000 0.000000
    59 0.014894 -1.102744 -0.019848 -1.745617 -0.000006 -0.000004
    60 -0.067139 0.063251 -0.010961 -0.899214 -0.014515 -1.600326
    61 -0.151180 -0.007393 -0.070065 -0.913061 -0.118819 -1.408558
    62 -0.178163 -0.244682 -0.357068 -1.159916 -0.384260 -1.556110
    63 -0.732910 -1.580078 0.250000 0.229189 -0.611229 -2.635591
    64 1.903320 0.073303 0.021057 0.001411 0.008981 0.881751
    65 1.396484 0.060516 -0.007202 -0.019046 -0.016498 0.913479
    66 -0.263408 -0.117640 -0.015659 0.000036 -0.082210 -0.026800
    67 0.007707 -0.334358 -0.191575 0.070788 -0.181563 0.282364
    68 0.225562 -0.567923 -0.420715 0.119895 -0.183798 0.223460
    69 -0.203683 -0.095654 -0.328305 -1.745077 0.075142 -1.515382
    70 -1.741211 11.046875 -0.299072 1.580804 -0.005024 -1.566848
    71 0.036020 0.082816 -0.692656 -1.570769 0.065989 0.001276
    72 -0.088586 0.054021 -0.088593 0.010231 0.033800 -1.560851
    73 0.096436 0.435059 -0.121704 -2.729171 -0.166706 -1.525878
    74 -0.037506 -0.007786 -0.035706 0.165906 0.129870 1.436263
    75 -0.681641 -3.382813 0.731934 1.511238 0.303606 0.490423
    76 -2.902684 4.077851 -1.155693 0.000000 1.570451 -0.174414
    77 2.232270 5.754207 -10.391143 0.000000 1.570787 -0.174398
    78 2.154592 2.533360 -0.877487 0.000000 0.000000 -1.570796
    79 -0.653823 0.606601 -0.252417 -0.030872 -0.047303 -0.050563
    80 2.871818 2.533360 -0.581297 0.000000 0.000000 -1.570796
    81 0.000000 3.832882 -4.109225 0.000000 0.000000 -1.570796
    82 -0.000003 3.793818 -6.176540 -0.008557 0.009396 -1.561280
    83 0.000000 3.817255 -1.752300 0.000000 0.000000 -1.570796
    84 -1.085938 22.640625 -1.504883 0.000000 1.570795 -0.000001
    85 0.000153 9.865690 -9.128512 0.000000 -1.570781 -0.778477
    86 7.623053 -0.017314 -3.650365 2.363127 -0.000001 -3.141577
  time 11
    0 -0.248901 -4.308594 -0.708008 -0.000001 -0.174529 -0.000006
    1 9.716366 9.617667 -6.798519 2.302604 -1.405366 -2.526268
    2 -0.060201 -10.596454 -0.135388 0.121272 0.332643 0.020303
    3 -0.610352 -3.443359 -0.285156 -0.726374 0.079841 -0.218959
    4 0.049805 -1.848633 0.037292 -1.552680 0.000000 0.000000
    5 0.035980 -1.343750 -0.028885 -0.992498 0.000000 0.000000
    6 0.007988 0.172184 -0.118553 -1.598091 -0.216549 -1.570593
    7 0.080660 0.135929 -0.203919 -1.506824 -0.066185 -1.662786
    8 0.117288 -0.155554 -0.604544 -1.412988 -0.374558 -1.569222
    9 0.312500 -3.525391 -0.297852 -0.572166 0.103584 -0.135712
    10 -0.062195 -2.099609 0.125488 -1.641971 0.000000 0.000000
    11 -0.042664 -1.434570 0.105896 -0.829270 0.000000 0.000000
    12 -0.018589 0.129953 -0.123721 -1.294580 0.001302 -1.635383
    13 -0.006160 0.170065 -0.110169 -1.280084 -0.068681 -1.597215
    14 0.047100 -0.104074 -0.352264 -1.243368 -0.257298 -1.694346
    15 1.196289 -3.431641 -0.112854 -0.293388 -0.016436 0.087924
    16 -0.041748 -1.746094 -0.014069 -1.011449 0.000000 0.000000
    17 -0.026267 -1.191820 0.018784 -0.872784 0.000000 -0.000001
    18 -0.022325 0.045422 -0.038284 -1.125544 -0.129230 -1.681412
    19 -0.042900 -0.061275 -0.071212 -1.124462 -0.060454 -1.586099
    20 0.063741 -0.109104 -0.248158 -1.142813 -0.125805 -1.693583
    21 -1.475586 -3.132813 -0.242310 -0.372946 0.114153 -0.031560
    22 -0.031204 -1.404297 0.021973 -1.365600 0.000000 0.000000
    23 -0.025070 -1.113281 0.012611 -0.866460 0.000000 0.000000
    24 -0.011721 0.093267 0.017949 -1.687855 -0.079155 -1.575164
    25 0.048862 -0.085541 0.028626 -1.715605 -0.034569 -1.653190
    26 0.173919 -0.198416 -0.336163 -1.668104 -0.422317 -1.710956
    27 0.724139 -1.494163 0.224443 0.181622 -0.610641 -0.114583
    28 1.914847 0.010252 0.005009 -0.002964 -0.012980 -0.385598
    29 1.374216 0.004522 -0.010680 -0.012635 0.010005 -0.726739
    30 -0.267710 0.037512 -0.093907 2.913812 -0.143386 0.078467
    31 -0.029266 0.205408 -0.329287 2.788574 -0.255486 -0.188917
    32 0.204373 0.521055 -0.268577 2.886669 0.042206 -0.230367
    33 0.195697 -0.010059 -0.293538 -1.333586 0.150863 -1.672749
    34 1.571289 10.953125 -0.192139 -1.570562 0.002683 -1.566808
    35 -0.093500 -0.114213 -0.738866 -1.570842 0.061811 0.002096
    36 0.010843 0.093624 -0.081439 -3.141462 0.041719 -1.568236
    37 -3.204452 -10.707989 -6.802272 -3.007349 0.015653 3.893827
    38 0.116467 -10.559858 -0.009359 0.068072 -0.191186 0.256513
    39 0.553428 -3.494322 -0.243407 -1.021626 0.000522 0.163145
    40 -0.041138 -1.849609 0.006172 -1.641062 0.000000 0.000000
    41 -0.033722 -1.345703 -0.025253 -1.574529 0.000000 0.000000
    42 0.006927 0.005329 -0.181358 -1.528500 -0.248579 -1.611362
    43 -0.052313 0.038589 -0.230757 -1.592493 -0.043415 -1.528515
    44 -0.232600 -0.209656 -0.420670 -1.713790 -0.167173 -1.438930
    45 -0.311768 -3.558594 -0.217529 -0.611012 -0.003049 0.061472
    46 0.053986 -2.103516 0.119995 -1.849632 0.002822 -0.000166
    47 0.039542 -1.449897 0.066656 -1.197466 0.003173 -0.003506
    48 -0.038065 0.069168 -0.159883 -1.816986 0.066178 -1.575392
    49 -0.025151 0.088764 -0.068836 -1.817843 0.044510 -1.568287
    50 -0.102916 -0.186983 -0.272246 -1.833683 -0.232962 -1.472375
    51 -1.204102 -3.480469 -0.106567 -0.559857 0.000064 -0.034530
    52 0.035553 -1.751953 0.007828 -1.649116 0.000000 0.000000
    53 0.025319 -1.192163 0.023950 -1.040370 0.000001 0.000001
    54 -0.004241 0.043709 -0.080203 -2.014997 -0.186996 -1.460723
    55 0.015383 -0.089136 -0.030010 -2.006083 0.036346 -1.568629
    56 -0.022610 -0.212357 -0.177906 -1.933161 -0.118801 -1.518895
    57 1.455078 -3.179688 -0.212891 -1.195393 0.008266 0.221155
    58 0.030029 -1.411133 0.022247 -1.078844 0.000000 0.000000
    59 0.014894 -1.102744 -0.019848 -1.745617 -0.000006 -0.000004
    60 -0.067139 0.063251 -0.010961 -0.899214 -0.014515 -1.600326
    61 -0.151180 -0.007393 -0.070065 -0.913061 -0.118819 -1.408558
    62 -0.178163 -0.244682 -0.357068 -1.159916 -0.384260 -1.556110
    63 -0.732910 -1.580078 0.250000 0.229189 -0.611229 -2.635591
    64 1.903320 0.073303 0.021057 0.001411 0.008981 0.881751
    65 1.396484 0.060516 -0.007202 -0.019046 -0.016498 0.913479
    66 -0.263408 -0.117640 -0.015659 0.000036 -0.082210 -0.026800
    67 0.007707 -0.334358 -0.191575 0.070788 -0.181563 0.282364
    68 0.225562 -0.567923 -0.420715 0.119895 -0.183798 0.223460
    69 -0.203683 -0.095654 -0.328305 -1.745077 0.075142 -1.515382
    70 -1.741211 11.046875 -0.299072 1.580804 -0.005024 -1.566848
    71 0.036020 0.082816 -0.692656 -1.570769 0.065989 0.001276
    72 -0.088586 0.054021 -0.088593 0.010231 0.033800 -1.560851
    73 0.096436 0.435059 -0.121704 -2.729171 -0.166706 -1.525878
    74 -0.037506 -0.007786 -0.035706 0.165906 0.129870 1.436263
    75 -0.681641 -3.382813 0.731934 1.511238 0.303606 0.490423
    76 -2.902684 4.077851 -1.155693 -1.395987 1.564686 -1.570586
    77 2.232270 5.754207 -10.391143 -1.396067 1.546062 -1.570736
    78 2.135060 2.545079 -0.869674 0.000000 0.000000 -1.570796
    79 -0.653823 0.606601 -0.252417 -0.025899 -0.045482 -0.046812
    80 2.871818 2.533360 -0.581297 0.000000 0.000000 -1.570796
    81 0.000000 3.832882 -4.109225 0.000000 0.000000 -1.570796
    82 -0.000003 3.817256 -6.176540 -0.004590 0.011889 -1.553239
    83 0.000000 3.817255 -1.752300 0.000000 0.000000 -1.570796
    84 -1.085938 22.640625 -1.504883 0.000000 1.570795 -0.000001
    85 0.000153 9.865690 -9.128512 0.000000 -1.570781 -0.778477
    86 7.623053 -0.017314 -3.650365 2.363127 -0.000001 -3.141577
  time 12
    0 -0.248901 -4.308594 -0.708008 -0.000001 -0.174529 -0.000006
    1 9.728085 9.609854 -6.802426 2.302604 -1.405366 -2.526268
    2 -0.095358 -10.612079 -0.123669 0.122142 0.332094 0.023131
    3 -0.610352 -3.443359 -0.285156 -0.726374 0.079841 -0.218959
    4 0.049805 -1.848633 0.037292 -1.552680 0.000000 0.000000
    5 0.035980 -1.343750 -0.028885 -0.992498 0.000000 0.000000
    6 0.007988 0.172184 -0.118553 -1.598091 -0.216549 -1.570593
    7 0.080660 0.135929 -0.203919 -1.506824 -0.066185 -1.662786
    8 0.117288 -0.155554 -0.604544 -1.412988 -0.374558 -1.569222
    9 0.312500 -3.525391 -0.297852 -0.572166 0.103584 -0.135712
    10 -0.062195 -2.099609 0.125488 -1.641971 0.000000 0.000000
    11 -0.042664 -1.434570 0.105896 -0.829270 0.000000 0.000000
    12 -0.018589 0.129953 -0.123721 -1.294580 0.001302 -1.635383
    13 -0.006160 0.170065 -0.110169 -1.280084 -0.068681 -1.597215
    14 0.047100 -0.104074 -0.352264 -1.243368 -0.257298 -1.694346
    15 1.196289 -3.431641 -0.112854 -0.293388 -0.016436 0.087924
    16 -0.041748 -1.746094 -0.014069 -1.011449 0.000000 0.000000
    17 -0.022361 -1.195726 0.018784 -0.872757 0.000000 -0.000001
    18 -0.022325 0.045422 -0.038284 -1.125544 -0.129230 -1.681412
    19 -0.042900 -0.061275 -0.071212 -1.124462 -0.060454 -1.586099
    20 0.063741 -0.109104 -0.248158 -1.142813 -0.125805 -1.693583
    21 -1.475586 -3.132813 -0.242310 -0.372946 0.114153 -0.031560
    22 -0.031204 -1.404297 0.021973 -1.365600 0.000000 0.000000
    23 -0.025070 -1.113281 0.012611 -0.866460 0.000000 0.000000
    24 -0.011721 0.093267 0.017949 -1.687855 -0.079155 -1.575164
    25 0.048862 -0.085541 0.028626 -1.715605 -0.034569 -1.653190
    26 0.173919 -0.198416 -0.336163 -1.668104 -0.422317 -1.710956
    27 0.724139 -1.490257 0.228349 0.185788 -0.609628 -0.121805
    28 1.914847 0.010252 0.005009 -0.002964 -0.012980 -0.387872
    29 1.374216 0.004522 -0.010680 -0.013199 0.009417 -0.774524
    30 -0.267710 0.037512 -0.093907 2.913812 -0.143386 0.078467
    31 -0.029266 0.205408 -0.329287 2.788574 -0.255486 -0.188917
    32 0.204373 0.521055 -0.268577 2.886669 0.042206 -0.230367
    33 0.195697 -0.010059 -0.293538 -1.333586 0.150863 -1.672749
    34 1.571289 10.953125 -0.192139 -1.570562 0.002683 -1.566808
    35 -0.093500 -0.114213 -0.738866 -1.570842 0.061811 0.002096
    36 0.010843 0.093624 -0.081439 -3.141462 0.041719 -1.568236
    37 -3.196639 -10.719708 -6.813991 -3.007349 0.015653 3.893827
    38 0.116467 -10.559858 -0.009359 0.070445 -0.190012 0.255288
    39 0.553428 -3.498228 -0.247313 -1.021626 0.000522 0.163145
    40 -0.041138 -1.849609 0.006172 -1.641062 0.000000 0.000000
    41 -0.033722 -1.345703 -0.025253 -1.574529 0.000000 0.000000
    42 0.006927 0.005329 -0.181358 -1.528500 -0.248579 -1.611362
    43 -0.052313 0.038589 -0.230757 -1.592493 -0.043415 -1.528515
    44 -0.232600 -0.209656 -0.420670 -1.713790 -0.167173 -1.438930
    45 -0.311768 -3.558594 -0.217529 -0.611012 -0.003049 0.061472
    46 0.053986 -2.103516 0.119995 -1.849632 0.002822 -0.000166
    47 0.039542 -1.449897 0.070563 -1.197466 0.003173 -0.003506
    48 -0.038065 0.069168 -0.159883 -1.816986 0.066178 -1.575392
    49 -0.025151 0.088764 -0.068836 -1.817843 0.044510 -1.568287
    50 -0.102916 -0.186983 -0.272246 -1.833683 -0.232962 -1.472375
    51 -1.204102 -3.480469 -0.106567 -0.559857 0.000064 -0.034530
    52 0.035553 -1.751953 0.007828 -1.649116 0.000000 0.000000
    53 0.021412 -1.192163 0.023950 -1.040338 0.000001 0.000001
    54 -0.004241 0.043709 -0.080203 -2.014997 -0.186996 -1.460723
    55 0.015383 -0.089136 -0.030010 -2.006083 0.036346 -1.568629
    56 -0.022610 -0.212357 -0.177906 -1.933161 -0.118801 -1.518895
    57 1.455078 -3.179688 -0.212891 -1.195393 0.008266 0.221155
    58 0.030029 -1.411133 0.022247 -1.078844 0.000000 0.000000
    59 0.014894 -1.102744 -0.019848 -1.745617 -0.000006 -0.000004
    60 -0.067139 0.063251 -0.010961 -0.899214 -0.014515 -1.600326
    61 -0.151180 -0.007393 -0.070065 -0.913061 -0.118819 -1.408558
    62 -0.178163 -0.244682 -0.357068 -1.159916 -0.384260 -1.556110
    63 -0.732910 -1.580078 0.250000 0.229189 -0.611229 -2.635591
    64 1.903320 0.073303 0.021057 0.001411 0.008981 0.881751
    65 1.396484 0.060516 -0.007202 -0.019046 -0.016498 0.913479
    66 -0.263408 -0.117640 -0.015659 0.000036 -0.082210 -0.026800
    67 0.007707 -0.334358 -0.191575 0.070788 -0.181563 0.282364
    68 0.225562 -0.567923 -0.420715 0.119895 -0.183798 0.223460
    69 -0.203683 -0.095654 -0.328305 -1.745077 0.075142 -1.515382
    70 -1.741211 11.046875 -0.299072 1.580804 -0.005024 -1.566848
    71 0.036020 0.082816 -0.692656 -1.570769 0.065989 0.001276
    72 -0.088586 0.054021 -0.088593 0.010231 0.033800 -1.560851
    73 0.096436 0.435059 -0.121704 -2.729171 -0.166706 -1.525878
    74 -0.037506 -0.007786 -0.035706 0.165906 0.129870 1.436263
    75 -0.681641 -3.382813 0.731934 1.511238 0.303606 0.490423
    76 -2.902684 4.077851 -1.155693 0.000000 1.570787 -0.174414
    77 2.232270 5.754207 -10.391143 -1.396123 1.563692 -1.570640
    78 2.162405 2.533360 -0.877487 0.000000 0.000000 -1.570796
    79 -0.653823 0.606601 -0.252417 -0.011673 -0.058533 -0.048633
    80 2.871818 2.533360 -0.581297 0.000000 0.000000 -1.570796
    81 0.000000 3.836788 -4.109225 0.000000 0.000000 -1.570796
    82 -0.000003 3.825069 -6.176540 -0.002864 0.010199 -1.559063
    83 0.000000 3.817255 -1.752300 0.000000 0.000000 -1.570796
    84 -1.085938 22.640625 -1.504883 0.000000 1.570795 -0.000001
    85 0.000153 9.865690 -9.128512 0.000000 -1.570781 -0.778477
    86 7.623053 -0.017314 -3.650365 2.363127 -0.000001 -3.141577
end
