// Created by Crowbar 0.34.0.0

$ModelName "weapons/tfa_cso/w_budgetsword_fire.mdl"

$BodyGroup "studio"
{
	studio "v_dualswordm_v_ref_1"
}

$collisionmodel "v_dualswordm_v_ref_1.smd"
{
	$mass 9
}

$CDMaterials "models\weapons\tfa_cso\budgetslayer"

$Sequence "idle" {
	"anims\idle.smd"
	fps 30
}