// Created by Crowbar 0.68

$modelname "weapons/tfa_cso/c_balrog_3.mdl"

$include "csonline_gmod.qci"

$bodygroup "weapon"
{
	studio "ref_balrog3"
}

$cdmaterials "models/weapons/tfa_cso/balrog_3"

$attachment 0 "reload" 5 -0.9 0 rotate 0 0 0
//$attachment 1 "balrog3_root" -1 3 0.8

$definebone "root" "" -1.000000 3.129157 1.241027 0.000000 0.000000 0.000000 0.000000 0.000000 0.000000 -0.000000 0.000000 0.000000
$definebone "Bone01" "root" 9.213061 0.858847 -7.257364 -87.597488 177.381760 171.407639 0.000000 0.000000 0.000000 -0.000000 0.000000 -0.000001
$definebone "Bone_Lefthand" "Bone01" -0.071918 -8.498731 -0.104136 16.186518 3.297717 8.666100 0.000000 -0.000000 0.000000 0.000001 0.000001 -0.000000
$definebone "balrog3_root" "Bone_Lefthand" 1.866657 -2.694575 1.223083 14.096770 179.366959 -3.079705 0.000000 0.000000 0.000000 0.000002 0.000001 -0.000000
$definebone "reload" "balrog3_root" -2.076918 6.052791 -0.000002 0.000000 89.999985 0.000002 0.000000 0.000000 0.000000 0.000000 -0.000001 0.000002
$definebone "magazine" "balrog3_root" 0.236201 4.531887 -0.000002 0.000002 20.000010 0.000000 0.000000 0.000000 0.000000 0.000002 0.000003 0.000000
$definebone "trigger" "balrog3_root" 0.752643 1.995334 -0.000001 0.000002 0.000001 -0.000000 0.000000 0.000000 0.000000 0.000002 0.000001 -0.000000
$definebone "mouth2" "balrog3_root" -2.503195 2.197397 -0.000001 0.000002 11.106905 0.000000 -0.000000 0.000000 -0.000000 0.000002 0.000002 0.000000
$definebone "mouth1" "balrog3_root" -2.612200 2.711869 -0.000001 -0.000000 -91.621170 -0.000002 0.000000 0.000000 0.000000 -0.000000 -0.000001 -0.000002
$definebone "bcs" "balrog3_root" -0.873391 0.315787 0.000000 0.000000 89.999985 0.000002 0.000000 -0.000000 0.000000 0.000000 -0.000001 0.000002
$definebone "safe" "balrog3_root" 0.137709 1.210200 0.000000 -0.000000 -89.999985 -0.000002 0.000000 0.000000 0.000000 -0.000000 -0.000001 -0.000002

$sequence "idle" {
	"v_balrog3_anims\idle"
	fps 12
	activity "ACT_VM_IDLE" 1
	loop
	snap
}
$sequence "reload" {
	"v_balrog3_anims\reload"
	{ event 5004 15 "BALROG3.ClipOut" }
	{ event 5004 46 "BALROG3.ClipIn" }
	{ event 5004 65 "BALROG3.BoltPull" }
	fps 38
	activity "ACT_VM_RELOAD" 1
	snap
}
$sequence "draw" {
	"v_balrog3_anims\draw"
	activity "ACT_VM_DRAW" 1
	{ event 5004 10 "BALROG3.Draw" }
	fps 35
	snap
}
$sequence "shoot1" {
	"v_balrog3_anims\shoot1"
	{ event 5001 0 "#I21 S0.05 R1.5 F0 P30 T0.01 A1 L0 O0" }
	activity "ACT_VM_PRIMARYATTACK" 1
	fps 30
	snap
}
$sequence "shoot2" {
	"v_balrog3_anims\shoot2"
	{ event 5001 0 "#I26 S0.05 R1.5 F0 P30 T0.01 A1 L0 O0" }
	activity "ACT_VM_PULLBACK" 1
	fps 30
	snap
}
