version 1
nodes
  0 "Bone01" -1
  1 "Bone_Lefthand" 0
  2 "Bone02" 1
  3 "Bone03" 2
  4 "Bone25" 3
  5 "Bone48" 3
  6 "Bone50" 3
  7 "Bone52" 3
  8 "Bone54" 3
  9 "Bone 04" 1
  10 "Bone13" 9
  11 "Bone14" 10
  12 "Bone15" 11
  13 "Bone17" 9
  14 "Bone18" 13
  15 "Bone19" 14
  16 "Bone21" 9
  17 "Bone22" 16
  18 "Bone23" 17
  19 "Bone05" 9
  20 "Bone06" 19
  21 "Bone07" 20
  22 "Bone09" 9
  23 "Bone10" 22
  24 "Bone11" 23
  25 "Bone04" -1
  26 "Bone_Righthand" 25
  27 "Bone26" 26
  28 "Bone35" 27
  29 "Bone36" 28
  30 "Bone37" 29
  31 "Bone31" 27
  32 "Bone32" 31
  33 "Bone33" 32
  34 "Bone39" 27
  35 "Bone40" 34
  36 "Bone41" 35
  37 "Bone43" 27
  38 "Bone44" 37
  39 "Bone45" 38
  40 "Bone27" 27
  41 "Bone28" 40
  42 "Bone29" 41
end
skeleton
  time 0
    0 8.106566 3.364881 -7.694043 -1.558276 -2.236606 0.966095
    1 0.000000 -8.563283 -0.000001 0.347509 -0.125220 -0.169570
    2 -0.657808 -3.130249 0.692628 -1.247037 1.437608 -1.233844
    3 0.000000 1.873662 1.027493 0.000000 0.000000 0.000000
    4 0.000000 -3.037148 1.087932 0.000000 0.000000 0.000000
    5 0.000001 -4.895699 1.027491 0.000000 0.000000 0.000000
    6 0.000001 -6.240505 1.163484 0.000000 0.000000 0.000000
    7 0.000000 -5.243233 2.931374 0.000000 0.000000 0.000000
    8 -0.214729 -14.141506 3.399045 0.000000 0.000000 0.000000
    9 -0.003480 -0.404829 0.000000 0.000000 0.000000 0.000000
    10 -0.519309 -2.501155 -0.278957 -1.003564 0.000000 -0.122173
    11 -0.010598 -1.208185 0.000001 -1.090831 0.000000 0.000000
    12 0.000000 -0.763067 0.000000 -1.343903 0.000000 0.000000
    13 0.105982 -2.607134 -0.278957 -0.890118 0.000000 -0.148353
    14 0.000000 -1.250579 0.000000 -1.213004 0.000000 0.000000
    15 0.000000 -0.932634 0.000000 -1.483530 0.000000 0.000000
    16 0.763064 -2.490556 -0.278957 -0.349065 0.000000 0.130900
    17 -0.012322 -1.280917 0.000001 -0.322892 0.000000 0.000000
    18 -0.001697 -0.749371 0.000001 -0.593412 0.000000 0.000000
    19 0.354567 0.016267 0.318134 0.342077 -0.443527 -1.083976
    20 1.887164 0.012877 0.000001 -0.305433 0.000000 -0.401426
    21 1.001874 -0.000270 0.000001 0.000000 0.000000 -0.488692
    22 -1.123358 -2.195093 -0.278957 -0.933751 0.000000 -0.087266
    23 0.010772 -0.963791 0.000000 -0.610865 0.000000 0.000000
    24 -0.010412 -0.631916 0.000000 -1.213004 0.000000 0.000000
    25 -3.976195 -4.669825 -14.002675 0.641632 0.018977 0.466868
    26 0.089928 -8.543161 0.000001 0.538694 0.017885 0.229038
    27 0.000000 -0.359713 0.000000 0.000000 0.000000 0.000000
    28 -0.170479 -2.636146 -0.277655 -1.692969 0.000000 0.000000
    29 0.010600 -1.261177 0.000001 -0.253073 0.000000 0.000000
    30 -0.000001 -0.943233 -0.000001 -0.532326 0.000000 0.000000
    31 -0.827563 -2.508973 -0.277656 -1.186834 0.000000 0.000000
    32 0.000000 -1.292971 -0.000001 -0.811554 0.000000 0.000000
    33 0.000000 -0.752465 0.000000 -0.445059 0.000000 0.000000
    34 0.444212 -2.561960 -0.277655 -1.727307 -0.046226 -0.024599
    35 0.021022 -1.208186 0.000000 -0.427606 0.000000 0.000000
    36 0.010597 -0.741866 -0.000001 -0.453786 0.000000 0.000000
    37 1.047445 -2.222819 -0.277655 -1.508123 -0.078971 -0.038609
    38 0.000001 -0.996223 0.000001 -0.863938 0.000000 0.000000
    39 -0.000001 -0.614690 0.000000 -0.523599 0.000000 0.000000
    40 -0.308254 -0.007814 0.307166 -0.145110 -0.159878 -2.467082
    41 1.978379 0.019543 0.000000 -0.091660 -0.050705 0.045957
    42 0.982426 0.003186 0.000000 0.000000 0.000000 0.383991
  time 1
    0 8.118285 3.318004 -7.694043 -1.561066 -2.201163 0.986192
    1 0.000000 -8.563283 -0.000001 0.349582 -0.119060 -0.186696
    2 -0.657808 -3.130249 0.692628 -1.247037 1.437608 -1.233844
    3 0.000000 1.873662 1.027493 0.000000 0.000000 0.000000
    4 0.000000 -3.037148 1.087932 0.000000 0.000000 0.000000
    5 0.000001 -4.895699 1.027491 0.000000 0.000000 0.000000
    6 0.000001 -6.240505 1.163484 0.000000 0.000000 0.000000
    7 0.000000 -5.243233 2.931374 0.000000 0.000000 0.000000
    8 -0.214729 -14.141506 3.399045 0.000000 0.000000 0.000000
    9 -0.003480 -0.404829 0.000000 0.000000 0.000000 0.000000
    10 -0.519309 -2.501155 -0.278957 -1.003564 0.000000 -0.122173
    11 -0.010598 -1.208185 0.000001 -1.090831 0.000000 0.000000
    12 0.000000 -0.763067 0.000000 -1.343903 0.000000 0.000000
    13 0.105982 -2.607134 -0.278957 -0.890118 0.000000 -0.148353
    14 0.000000 -1.250579 0.000000 -1.213004 0.000000 0.000000
    15 0.000000 -0.932634 0.000000 -1.483530 0.000000 0.000000
    16 0.763064 -2.490556 -0.278957 -0.349065 0.000000 0.130900
    17 -0.012322 -1.280917 0.000001 -0.322892 0.000000 0.000000
    18 -0.001697 -0.749371 0.000001 -0.593412 0.000000 0.000000
    19 0.354567 0.016267 0.318134 0.342077 -0.443527 -1.083976
    20 1.887164 0.012877 0.000001 -0.305433 0.000000 -0.401426
    21 1.001874 -0.000270 0.000001 0.000000 0.000000 -0.488692
    22 -1.123358 -2.195093 -0.278957 -0.933751 0.000000 -0.087266
    23 0.010772 -0.963791 0.000000 -0.610865 0.000000 0.000000
    24 -0.010412 -0.631916 0.000000 -1.213004 0.000000 0.000000
    25 -4.019165 -4.806548 -14.170649 0.593098 0.021370 0.481331
    26 0.089928 -8.543161 0.000001 0.538694 0.017885 0.229038
    27 0.000000 -0.359713 0.000000 0.000000 0.000000 0.000000
    28 -0.170479 -2.636146 -0.277655 -1.692969 0.000000 0.000000
    29 0.010600 -1.261177 0.000001 -0.253073 0.000000 0.000000
    30 -0.000001 -0.943233 -0.000001 -0.532326 0.000000 0.000000
    31 -0.827563 -2.508973 -0.277656 -1.186834 0.000000 0.000000
    32 0.000000 -1.292971 -0.000001 -0.811554 0.000000 0.000000
    33 0.000000 -0.752465 0.000000 -0.445059 0.000000 0.000000
    34 0.444212 -2.561960 -0.277655 -1.727307 -0.046226 -0.024599
    35 0.021022 -1.208186 0.000000 -0.427606 0.000000 0.000000
    36 0.010597 -0.741866 -0.000001 -0.453786 0.000000 0.000000
    37 1.047445 -2.222819 -0.277655 -1.508123 -0.078971 -0.038609
    38 0.000001 -0.996223 0.000001 -0.863938 0.000000 0.000000
    39 -0.000001 -0.614690 0.000000 -0.523599 0.000000 0.000000
    40 -0.308254 -0.007814 0.307166 -0.145110 -0.159878 -2.467082
    41 1.978379 0.019543 0.000000 -0.091660 -0.050705 0.045957
    42 0.982426 0.003186 0.000000 0.000000 0.000000 0.383991
  time 2
    0 8.126098 3.275034 -7.694043 -1.565501 -2.165277 1.008003
    1 0.000000 -8.563283 -0.000001 0.351787 -0.112085 -0.205859
    2 -0.657808 -3.130249 0.692628 -1.247037 1.437608 -1.233844
    3 0.000000 1.873662 1.027493 0.000000 0.000000 0.000000
    4 0.000000 -3.037148 1.087932 0.000000 0.000000 0.000000
    5 0.000001 -4.895699 1.027491 0.000000 0.000000 0.000000
    6 0.000001 -6.240505 1.163484 0.000000 0.000000 0.000000
    7 0.000000 -5.243233 2.931374 0.000000 0.000000 0.000000
    8 -0.214729 -14.141506 3.399045 0.000000 0.000000 0.000000
    9 -0.003480 -0.404829 0.000000 0.000000 0.000000 0.000000
    10 -0.519309 -2.501155 -0.278957 -1.003564 0.000000 -0.122173
    11 -0.010598 -1.208185 0.000001 -1.090831 0.000000 0.000000
    12 0.000000 -0.763067 0.000000 -1.343903 0.000000 0.000000
    13 0.105982 -2.607134 -0.278957 -0.890118 0.000000 -0.148353
    14 0.000000 -1.250579 0.000000 -1.213004 0.000000 0.000000
    15 0.000000 -0.932634 0.000000 -1.483530 0.000000 0.000000
    16 0.763064 -2.490556 -0.278957 -0.349065 0.000000 0.130900
    17 -0.012322 -1.280917 0.000001 -0.322892 0.000000 0.000000
    18 -0.001697 -0.749371 0.000001 -0.593412 0.000000 0.000000
    19 0.354567 0.016267 0.318134 0.342077 -0.443527 -1.083976
    20 1.887164 0.012877 0.000001 -0.305433 0.000000 -0.401426
    21 1.001874 -0.000270 0.000001 0.000000 0.000000 -0.488692
    22 -1.123358 -2.195093 -0.278957 -0.933751 0.000000 -0.087266
    23 0.010772 -0.963791 0.000000 -0.610865 0.000000 0.000000
    24 -0.010412 -0.631916 0.000000 -1.213004 0.000000 0.000000
    25 -4.054323 -4.954990 -14.307372 0.544051 0.024382 0.495941
    26 0.089928 -8.543161 0.000001 0.538694 0.017885 0.229038
    27 0.000000 -0.359713 0.000000 0.000000 0.000000 0.000000
    28 -0.170479 -2.636146 -0.277655 -1.692969 0.000000 0.000000
    29 0.010600 -1.261177 0.000001 -0.253073 0.000000 0.000000
    30 -0.000001 -0.943233 -0.000001 -0.532326 0.000000 0.000000
    31 -0.827563 -2.508973 -0.277656 -1.186834 0.000000 0.000000
    32 0.000000 -1.292971 -0.000001 -0.811554 0.000000 0.000000
    33 0.000000 -0.752465 0.000000 -0.445059 0.000000 0.000000
    34 0.444212 -2.561960 -0.277655 -1.727307 -0.046226 -0.024599
    35 0.021022 -1.208186 0.000000 -0.427606 0.000000 0.000000
    36 0.010597 -0.741866 -0.000001 -0.453786 0.000000 0.000000
    37 1.047445 -2.222819 -0.277655 -1.508123 -0.078971 -0.038609
    38 0.000001 -0.996223 0.000001 -0.863938 0.000000 0.000000
    39 -0.000001 -0.614690 0.000000 -0.523599 0.000000 0.000000
    40 -0.308254 -0.007814 0.307166 -0.145110 -0.159878 -2.467082
    41 1.978379 0.019543 0.000000 -0.091660 -0.050705 0.045957
    42 0.982426 0.003186 0.000000 0.000000 0.000000 0.383991
  time 3
    0 8.137817 3.232064 -7.694043 1.569597 -1.012502 -2.109805
    1 0.000000 -8.563283 -0.000001 0.354029 -0.104547 -0.226461
    2 -0.657808 -3.130249 0.692628 -1.247037 1.437608 -1.233844
    3 0.000000 1.873662 1.027493 0.000000 0.000000 0.000000
    4 0.000000 -3.037148 1.087932 0.000000 0.000000 0.000000
    5 0.000001 -4.895699 1.027491 0.000000 0.000000 0.000000
    6 0.000001 -6.240505 1.163484 0.000000 0.000000 0.000000
    7 0.000000 -5.243233 2.931374 0.000000 0.000000 0.000000
    8 -0.214729 -14.141506 3.399045 0.000000 0.000000 0.000000
    9 -0.003480 -0.404829 0.000000 0.000000 0.000000 0.000000
    10 -0.519309 -2.501155 -0.278957 -1.003564 0.000000 -0.122173
    11 -0.010598 -1.208185 0.000001 -1.090831 0.000000 0.000000
    12 0.000000 -0.763067 0.000000 -1.343903 0.000000 0.000000
    13 0.105982 -2.607134 -0.278957 -0.890118 0.000000 -0.148353
    14 0.000000 -1.250579 0.000000 -1.213004 0.000000 0.000000
    15 0.000000 -0.932634 0.000000 -1.483530 0.000000 0.000000
    16 0.763064 -2.490556 -0.278957 -0.349065 0.000000 0.130900
    17 -0.012322 -1.280917 0.000001 -0.322892 0.000000 0.000000
    18 -0.001697 -0.749371 0.000001 -0.593412 0.000000 0.000000
    19 0.354567 0.016267 0.318134 0.342077 -0.443527 -1.083976
    20 1.887164 0.012877 0.000001 -0.305433 0.000000 -0.401426
    21 1.001874 -0.000270 0.000001 0.000000 0.000000 -0.488692
    22 -1.123358 -2.195093 -0.278957 -0.933751 0.000000 -0.087266
    23 0.010772 -0.963791 0.000000 -0.610865 0.000000 0.000000
    24 -0.010412 -0.631916 0.000000 -1.213004 0.000000 0.000000
    25 -4.069948 -5.111245 -14.401125 0.494800 0.028015 0.510773
    26 0.089928 -8.543161 0.000001 0.538694 0.017885 0.229038
    27 0.000000 -0.359713 0.000000 0.000000 0.000000 0.000000
    28 -0.170479 -2.636146 -0.277655 -1.692969 0.000000 0.000000
    29 0.010600 -1.261177 0.000001 -0.253073 0.000000 0.000000
    30 -0.000001 -0.943233 -0.000001 -0.532326 0.000000 0.000000
    31 -0.827563 -2.508973 -0.277656 -1.186834 0.000000 0.000000
    32 0.000000 -1.292971 -0.000001 -0.811554 0.000000 0.000000
    33 0.000000 -0.752465 0.000000 -0.445059 0.000000 0.000000
    34 0.444212 -2.561960 -0.277655 -1.727307 -0.046226 -0.024599
    35 0.021022 -1.208186 0.000000 -0.427606 0.000000 0.000000
    36 0.010597 -0.741866 -0.000001 -0.453786 0.000000 0.000000
    37 1.047445 -2.222819 -0.277655 -1.508123 -0.078971 -0.038609
    38 0.000001 -0.996223 0.000001 -0.863938 0.000000 0.000000
    39 -0.000001 -0.614690 0.000000 -0.523599 0.000000 0.000000
    40 -0.308254 -0.007814 0.307166 -0.145110 -0.159878 -2.467082
    41 1.978379 0.019543 0.000000 -0.091660 -0.050705 0.045957
    42 0.982426 0.003186 0.000000 0.000000 0.000000 0.383991
  time 4
    0 8.149536 3.193000 -7.694043 1.560799 -1.048940 -2.083866
    1 0.000000 -8.563283 -0.000001 0.356174 -0.096661 -0.247829
    2 -0.657808 -3.130249 0.692628 -1.247037 1.437608 -1.233844
    3 0.000000 1.873662 1.027493 0.000000 0.000000 0.000000
    4 0.000000 -3.037148 1.087932 0.000000 0.000000 0.000000
    5 0.000001 -4.895699 1.027491 0.000000 0.000000 0.000000
    6 0.000001 -6.240505 1.163484 0.000000 0.000000 0.000000
    7 0.000000 -5.243233 2.931374 0.000000 0.000000 0.000000
    8 -0.214729 -14.141506 3.399045 0.000000 0.000000 0.000000
    9 -0.003480 -0.404829 0.000000 0.000000 0.000000 0.000000
    10 -0.519309 -2.501155 -0.278957 -1.003564 0.000000 -0.122173
    11 -0.010598 -1.208185 0.000001 -1.090831 0.000000 0.000000
    12 0.000000 -0.763067 0.000000 -1.343903 0.000000 0.000000
    13 0.105982 -2.607134 -0.278957 -0.890118 0.000000 -0.148353
    14 0.000000 -1.250579 0.000000 -1.213004 0.000000 0.000000
    15 0.000000 -0.932634 0.000000 -1.483530 0.000000 0.000000
    16 0.763064 -2.490556 -0.278957 -0.349065 0.000000 0.130900
    17 -0.012322 -1.280917 0.000001 -0.322892 0.000000 0.000000
    18 -0.001697 -0.749371 0.000001 -0.593412 0.000000 0.000000
    19 0.354567 0.016267 0.318134 0.342077 -0.443527 -1.083976
    20 1.887164 0.012877 0.000001 -0.305433 0.000000 -0.401426
    21 1.001874 -0.000270 0.000001 0.000000 0.000000 -0.488692
    22 -1.123358 -2.195093 -0.278957 -0.933751 0.000000 -0.087266
    23 0.010772 -0.963791 0.000000 -0.610865 0.000000 0.000000
    24 -0.010412 -0.631916 0.000000 -1.213004 0.000000 0.000000
    25 -4.073854 -5.275313 -14.463627 0.445191 0.032445 0.525457
    26 0.089928 -8.543161 0.000001 0.538694 0.017885 0.229038
    27 0.000000 -0.359713 0.000000 0.000000 0.000000 0.000000
    28 -0.170479 -2.636146 -0.277655 -1.692969 0.000000 0.000000
    29 0.010600 -1.261177 0.000001 -0.253073 0.000000 0.000000
    30 -0.000001 -0.943233 -0.000001 -0.532326 0.000000 0.000000
    31 -0.827563 -2.508973 -0.277656 -1.186834 0.000000 0.000000
    32 0.000000 -1.292971 -0.000001 -0.811554 0.000000 0.000000
    33 0.000000 -0.752465 0.000000 -0.445059 0.000000 0.000000
    34 0.444212 -2.561960 -0.277655 -1.727307 -0.046226 -0.024599
    35 0.021022 -1.208186 0.000000 -0.427606 0.000000 0.000000
    36 0.010597 -0.741866 -0.000001 -0.453786 0.000000 0.000000
    37 1.047445 -2.222819 -0.277655 -1.508123 -0.078971 -0.038609
    38 0.000001 -0.996223 0.000001 -0.863938 0.000000 0.000000
    39 -0.000001 -0.614690 0.000000 -0.523599 0.000000 0.000000
    40 -0.308254 -0.007814 0.307166 -0.145110 -0.159878 -2.467082
    41 1.978379 0.019543 0.000000 -0.091660 -0.050705 0.045957
    42 0.982426 0.003186 0.000000 0.000000 0.000000 0.383991
  time 5
    0 8.157349 3.153937 -7.694043 1.549282 -1.085516 -2.055045
    1 0.000000 -8.563283 -0.000001 0.358151 -0.088643 -0.269390
    2 -0.657808 -3.130249 0.692628 -1.247037 1.437608 -1.233844
    3 0.000000 1.873662 1.027493 0.000000 0.000000 0.000000
    4 0.000000 -3.037148 1.087932 0.000000 0.000000 0.000000
    5 0.000001 -4.895699 1.027491 0.000000 0.000000 0.000000
    6 0.000001 -6.240505 1.163484 0.000000 0.000000 0.000000
    7 0.000000 -5.243233 2.931374 0.000000 0.000000 0.000000
    8 -0.214729 -14.141506 3.399045 0.000000 0.000000 0.000000
    9 -0.003480 -0.404829 0.000000 0.000000 0.000000 0.000000
    10 -0.519309 -2.501155 -0.278957 -1.003564 0.000000 -0.122173
    11 -0.010598 -1.208185 0.000001 -1.090831 0.000000 0.000000
    12 0.000000 -0.763067 0.000000 -1.343903 0.000000 0.000000
    13 0.105982 -2.607134 -0.278957 -0.890118 0.000000 -0.148353
    14 0.000000 -1.250579 0.000000 -1.213004 0.000000 0.000000
    15 0.000000 -0.932634 0.000000 -1.483530 0.000000 0.000000
    16 0.763064 -2.490556 -0.278957 -0.349065 0.000000 0.130900
    17 -0.012322 -1.280917 0.000001 -0.322892 0.000000 0.000000
    18 -0.001697 -0.749371 0.000001 -0.593412 0.000000 0.000000
    19 0.354567 0.016267 0.318134 0.342077 -0.443527 -1.083976
    20 1.887164 0.012877 0.000001 -0.305433 0.000000 -0.401426
    21 1.001874 -0.000270 0.000001 0.000000 0.000000 -0.488692
    22 -1.123358 -2.195093 -0.278957 -0.933751 0.000000 -0.087266
    23 0.010772 -0.963791 0.000000 -0.610865 0.000000 0.000000
    24 -0.010412 -0.631916 0.000000 -1.213004 0.000000 0.000000
    25 -4.066042 -5.455005 -14.483159 0.395428 0.037496 0.540215
    26 0.089928 -8.543161 0.000001 0.538694 0.017885 0.229038
    27 0.000000 -0.359713 0.000000 0.000000 0.000000 0.000000
    28 -0.170479 -2.636146 -0.277655 -1.692969 0.000000 0.000000
    29 0.010600 -1.261177 0.000001 -0.253073 0.000000 0.000000
    30 -0.000001 -0.943233 -0.000001 -0.532326 0.000000 0.000000
    31 -0.827563 -2.508973 -0.277656 -1.186834 0.000000 0.000000
    32 0.000000 -1.292971 -0.000001 -0.811554 0.000000 0.000000
    33 0.000000 -0.752465 0.000000 -0.445059 0.000000 0.000000
    34 0.444212 -2.561960 -0.277655 -1.727307 -0.046226 -0.024599
    35 0.021022 -1.208186 0.000000 -0.427606 0.000000 0.000000
    36 0.010597 -0.741866 -0.000001 -0.453786 0.000000 0.000000
    37 1.047445 -2.222819 -0.277655 -1.508123 -0.078971 -0.038609
    38 0.000001 -0.996223 0.000001 -0.863938 0.000000 0.000000
    39 -0.000001 -0.614690 0.000000 -0.523599 0.000000 0.000000
    40 -0.308254 -0.007814 0.307166 -0.145110 -0.159878 -2.467082
    41 1.978379 0.019543 0.000000 -0.091660 -0.050705 0.045957
    42 0.982426 0.003186 0.000000 0.000000 0.000000 0.383991
  time 6
    0 8.165161 3.118779 -7.694043 1.534475 -1.122147 -2.022874
    1 0.000000 -8.563283 -0.000001 0.359937 -0.080745 -0.290507
    2 -0.657808 -3.130249 0.692628 -1.247037 1.437608 -1.233844
    3 0.000000 1.873662 1.027493 0.000000 0.000000 0.000000
    4 0.000000 -3.037148 1.087932 0.000000 0.000000 0.000000
    5 0.000001 -4.895699 1.027491 0.000000 0.000000 0.000000
    6 0.000001 -6.240505 1.163484 0.000000 0.000000 0.000000
    7 0.000000 -5.243233 2.931374 0.000000 0.000000 0.000000
    8 -0.214729 -14.141506 3.399045 0.000000 0.000000 0.000000
    9 -0.003480 -0.404829 0.000000 0.000000 0.000000 0.000000
    10 -0.519309 -2.501155 -0.278957 -1.003564 0.000000 -0.122173
    11 -0.010598 -1.208185 0.000001 -1.090831 0.000000 0.000000
    12 0.000000 -0.763067 0.000000 -1.343903 0.000000 0.000000
    13 0.105982 -2.607134 -0.278957 -0.890118 0.000000 -0.148353
    14 0.000000 -1.250579 0.000000 -1.213004 0.000000 0.000000
    15 0.000000 -0.932634 0.000000 -1.483530 0.000000 0.000000
    16 0.763064 -2.490556 -0.278957 -0.349065 0.000000 0.130900
    17 -0.012322 -1.280917 0.000001 -0.322892 0.000000 0.000000
    18 -0.001697 -0.749371 0.000001 -0.593412 0.000000 0.000000
    19 0.354567 0.016267 0.318134 0.342077 -0.443527 -1.083976
    20 1.887164 0.012877 0.000001 -0.305433 0.000000 -0.401426
    21 1.001874 -0.000270 0.000001 0.000000 0.000000 -0.488692
    22 -1.123358 -2.195093 -0.278957 -0.933751 0.000000 -0.087266
    23 0.010772 -0.963791 0.000000 -0.610865 0.000000 0.000000
    24 -0.010412 -0.631916 0.000000 -1.213004 0.000000 0.000000
    25 -4.042603 -5.642511 -14.467533 0.345562 0.043343 0.554751
    26 0.089928 -8.543161 0.000001 0.538694 0.017885 0.229038
    27 0.000000 -0.359713 0.000000 0.000000 0.000000 0.000000
    28 -0.170479 -2.636146 -0.277655 -1.692969 0.000000 0.000000
    29 0.010600 -1.261177 0.000001 -0.253073 0.000000 0.000000
    30 -0.000001 -0.943233 -0.000001 -0.532326 0.000000 0.000000
    31 -0.827563 -2.508973 -0.277656 -1.186834 0.000000 0.000000
    32 0.000000 -1.292971 -0.000001 -0.811554 0.000000 0.000000
    33 0.000000 -0.752465 0.000000 -0.445059 0.000000 0.000000
    34 0.444212 -2.561960 -0.277655 -1.727307 -0.046226 -0.024599
    35 0.021022 -1.208186 0.000000 -0.427606 0.000000 0.000000
    36 0.010597 -0.741866 -0.000001 -0.453786 0.000000 0.000000
    37 1.047445 -2.222819 -0.277655 -1.508123 -0.078971 -0.038609
    38 0.000001 -0.996223 0.000001 -0.863938 0.000000 0.000000
    39 -0.000001 -0.614690 0.000000 -0.523599 0.000000 0.000000
    40 -0.308254 -0.007814 0.307166 -0.145110 -0.159878 -2.467082
    41 1.978379 0.019543 0.000000 -0.091660 -0.050705 0.045957
    42 0.982426 0.003186 0.000000 0.000000 0.000000 0.383991
  time 7
    0 8.172974 3.087528 -7.694043 1.515233 -1.158613 -1.986575
    1 0.000000 -8.563283 -0.000001 0.361483 -0.073219 -0.310557
    2 -0.657808 -3.130249 0.692628 -1.247037 1.437608 -1.233844
    3 0.000000 1.873662 1.027493 0.000000 0.000000 0.000000
    4 0.000000 -3.037148 1.087932 0.000000 0.000000 0.000000
    5 0.000001 -4.895699 1.027491 0.000000 0.000000 0.000000
    6 0.000001 -6.240505 1.163484 0.000000 0.000000 0.000000
    7 0.000000 -5.243233 2.931374 0.000000 0.000000 0.000000
    8 -0.214729 -14.141506 3.399045 0.000000 0.000000 0.000000
    9 -0.003480 -0.404829 0.000000 0.000000 0.000000 0.000000
    10 -0.519309 -2.501155 -0.278957 -1.003564 0.000000 -0.122173
    11 -0.010598 -1.208185 0.000001 -1.090831 0.000000 0.000000
    12 0.000000 -0.763067 0.000000 -1.343903 0.000000 0.000000
    13 0.105982 -2.607134 -0.278957 -0.890118 0.000000 -0.148353
    14 0.000000 -1.250579 0.000000 -1.213004 0.000000 0.000000
    15 0.000000 -0.932634 0.000000 -1.483530 0.000000 0.000000
    16 0.763064 -2.490556 -0.278957 -0.349065 0.000000 0.130900
    17 -0.012322 -1.280917 0.000001 -0.322892 0.000000 0.000000
    18 -0.001697 -0.749371 0.000001 -0.593412 0.000000 0.000000
    19 0.354567 0.016267 0.318134 0.342077 -0.443527 -1.083976
    20 1.887164 0.012877 0.000001 -0.305433 0.000000 -0.401426
    21 1.001874 -0.000270 0.000001 0.000000 0.000000 -0.488692
    22 -1.123358 -2.195093 -0.278957 -0.933751 0.000000 -0.087266
    23 0.010772 -0.963791 0.000000 -0.610865 0.000000 0.000000
    24 -0.010412 -0.631916 0.000000 -1.213004 0.000000 0.000000
    25 -4.007446 -5.837830 -14.412844 0.295594 0.049900 0.569140
    26 0.089928 -8.543161 0.000001 0.538694 0.017885 0.229038
    27 0.000000 -0.359713 0.000000 0.000000 0.000000 0.000000
    28 -0.170479 -2.636146 -0.277655 -1.692969 0.000000 0.000000
    29 0.010600 -1.261177 0.000001 -0.253073 0.000000 0.000000
    30 -0.000001 -0.943233 -0.000001 -0.532326 0.000000 0.000000
    31 -0.827563 -2.508973 -0.277656 -1.186834 0.000000 0.000000
    32 0.000000 -1.292971 -0.000001 -0.811554 0.000000 0.000000
    33 0.000000 -0.752465 0.000000 -0.445059 0.000000 0.000000
    34 0.444212 -2.561960 -0.277655 -1.727307 -0.046226 -0.024599
    35 0.021022 -1.208186 0.000000 -0.427606 0.000000 0.000000
    36 0.010597 -0.741866 -0.000001 -0.453786 0.000000 0.000000
    37 1.047445 -2.222819 -0.277655 -1.508123 -0.078971 -0.038609
    38 0.000001 -0.996223 0.000001 -0.863938 0.000000 0.000000
    39 -0.000001 -0.614690 0.000000 -0.523599 0.000000 0.000000
    40 -0.308254 -0.007814 0.307166 -0.145110 -0.159878 -2.467082
    41 1.978379 0.019543 0.000000 -0.091660 -0.050705 0.045957
    42 0.982426 0.003186 0.000000 0.000000 0.000000 0.383991
  time 8
    0 8.180787 3.056278 -7.694043 1.490483 -1.194829 -1.944902
    1 0.000000 -8.563283 -0.000001 0.362765 -0.066256 -0.328941
    2 -0.657808 -3.130249 0.692628 -1.247037 1.437608 -1.233844
    3 0.000000 1.873662 1.027493 0.000000 0.000000 0.000000
    4 0.000000 -3.037148 1.087932 0.000000 0.000000 0.000000
    5 0.000001 -4.895699 1.027491 0.000000 0.000000 0.000000
    6 0.000001 -6.240505 1.163484 0.000000 0.000000 0.000000
    7 0.000000 -5.243233 2.931374 0.000000 0.000000 0.000000
    8 -0.214729 -14.141506 3.399045 0.000000 0.000000 0.000000
    9 -0.003480 -0.404829 0.000000 0.000000 0.000000 0.000000
    10 -0.519309 -2.501155 -0.278957 -1.003564 0.000000 -0.122173
    11 -0.010598 -1.208185 0.000001 -1.090831 0.000000 0.000000
    12 0.000000 -0.763067 0.000000 -1.343903 0.000000 0.000000
    13 0.105982 -2.607134 -0.278957 -0.890118 0.000000 -0.148353
    14 0.000000 -1.250579 0.000000 -1.213004 0.000000 0.000000
    15 0.000000 -0.932634 0.000000 -1.483530 0.000000 0.000000
    16 0.763064 -2.490556 -0.278957 -0.349065 0.000000 0.130900
    17 -0.012322 -1.280917 0.000001 -0.322892 0.000000 0.000000
    18 -0.001697 -0.749371 0.000001 -0.593412 0.000000 0.000000
    19 0.354567 0.016267 0.318134 0.342077 -0.443527 -1.083976
    20 1.887164 0.012877 0.000001 -0.305433 0.000000 -0.401426
    21 1.001874 -0.000270 0.000001 0.000000 0.000000 -0.488692
    22 -1.123358 -2.195093 -0.278957 -0.933751 0.000000 -0.087266
    23 0.010772 -0.963791 0.000000 -0.610865 0.000000 0.000000
    24 -0.010412 -0.631916 0.000000 -1.213004 0.000000 0.000000
    25 -3.956663 -6.048774 -14.322998 0.245678 0.057166 0.583234
    26 0.089928 -8.543161 0.000001 0.538694 0.017885 0.229038
    27 0.000000 -0.359713 0.000000 0.000000 0.000000 0.000000
    28 -0.170479 -2.636146 -0.277655 -1.692969 0.000000 0.000000
    29 0.010600 -1.261177 0.000001 -0.253073 0.000000 0.000000
    30 -0.000001 -0.943233 -0.000001 -0.532326 0.000000 0.000000
    31 -0.827563 -2.508973 -0.277656 -1.186834 0.000000 0.000000
    32 0.000000 -1.292971 -0.000001 -0.811554 0.000000 0.000000
    33 0.000000 -0.752465 0.000000 -0.445059 0.000000 0.000000
    34 0.444212 -2.561960 -0.277655 -1.727307 -0.046226 -0.024599
    35 0.021022 -1.208186 0.000000 -0.427606 0.000000 0.000000
    36 0.010597 -0.741866 -0.000001 -0.453786 0.000000 0.000000
    37 1.047445 -2.222819 -0.277655 -1.508123 -0.078971 -0.038609
    38 0.000001 -0.996223 0.000001 -0.863938 0.000000 0.000000
    39 -0.000001 -0.614690 0.000000 -0.523599 0.000000 0.000000
    40 -0.308254 -0.007814 0.307166 -0.145110 -0.159878 -2.467082
    41 1.978379 0.019543 0.000000 -0.091660 -0.050705 0.045957
    42 0.982426 0.003186 0.000000 0.000000 0.000000 0.383991
  time 9
    0 8.188600 3.025027 -7.694043 1.458866 -1.230576 -1.896296
    1 0.000000 -8.563283 -0.000001 0.363784 -0.060144 -0.345072
    2 -0.657808 -3.130249 0.692628 -1.247037 1.437608 -1.233844
    3 0.000000 1.873662 1.027493 0.000000 0.000000 0.000000
    4 0.000000 -3.037148 1.087932 0.000000 0.000000 0.000000
    5 0.000001 -4.895699 1.027491 0.000000 0.000000 0.000000
    6 0.000001 -6.240505 1.163484 0.000000 0.000000 0.000000
    7 0.000000 -5.243233 2.931374 0.000000 0.000000 0.000000
    8 -0.214729 -14.141506 3.399045 0.000000 0.000000 0.000000
    9 -0.003480 -0.404829 0.000000 0.000000 0.000000 0.000000
    10 -0.519309 -2.501155 -0.278957 -1.003564 0.000000 -0.122173
    11 -0.010598 -1.208185 0.000001 -1.090831 0.000000 0.000000
    12 0.000000 -0.763067 0.000000 -1.343903 0.000000 0.000000
    13 0.105982 -2.607134 -0.278957 -0.890118 0.000000 -0.148353
    14 0.000000 -1.250579 0.000000 -1.213004 0.000000 0.000000
    15 0.000000 -0.932634 0.000000 -1.483530 0.000000 0.000000
    16 0.763064 -2.490556 -0.278957 -0.349065 0.000000 0.130900
    17 -0.012322 -1.280917 0.000001 -0.322892 0.000000 0.000000
    18 -0.001697 -0.749371 0.000001 -0.593412 0.000000 0.000000
    19 0.354567 0.016267 0.318134 0.342077 -0.443527 -1.083976
    20 1.887164 0.012877 0.000001 -0.305433 0.000000 -0.401426
    21 1.001874 -0.000270 0.000001 0.000000 0.000000 -0.488692
    22 -1.123358 -2.195093 -0.278957 -0.933751 0.000000 -0.087266
    23 0.010772 -0.963791 0.000000 -0.610865 0.000000 0.000000
    24 -0.010412 -0.631916 0.000000 -1.213004 0.000000 0.000000
    25 -3.890255 -6.263624 -14.197994 0.195863 0.065052 0.596885
    26 0.089928 -8.543161 0.000001 0.538694 0.017885 0.229038
    27 0.000000 -0.359713 0.000000 0.000000 0.000000 0.000000
    28 -0.170479 -2.636146 -0.277655 -1.692969 0.000000 0.000000
    29 0.010600 -1.261177 0.000001 -0.253073 0.000000 0.000000
    30 -0.000001 -0.943233 -0.000001 -0.532326 0.000000 0.000000
    31 -0.827563 -2.508973 -0.277656 -1.186834 0.000000 0.000000
    32 0.000000 -1.292971 -0.000001 -0.811554 0.000000 0.000000
    33 0.000000 -0.752465 0.000000 -0.445059 0.000000 0.000000
    34 0.444212 -2.561960 -0.277655 -1.727307 -0.046226 -0.024599
    35 0.021022 -1.208186 0.000000 -0.427606 0.000000 0.000000
    36 0.010597 -0.741866 -0.000001 -0.453786 0.000000 0.000000
    37 1.047445 -2.222819 -0.277655 -1.508123 -0.078971 -0.038609
    38 0.000001 -0.996223 0.000001 -0.863938 0.000000 0.000000
    39 -0.000001 -0.614690 0.000000 -0.523599 0.000000 0.000000
    40 -0.308254 -0.007814 0.307166 -0.145110 -0.159878 -2.467082
    41 1.978379 0.019543 0.000000 -0.091660 -0.050705 0.045957
    42 0.982426 0.003186 0.000000 0.000000 0.000000 0.383991
  time 10
    0 8.196412 2.997682 -7.694043 1.418093 -1.265605 -1.838809
    1 0.000000 -8.563283 -0.000001 0.364551 -0.055086 -0.358327
    2 -0.657808 -3.130249 0.692628 -1.247037 1.437608 -1.233844
    3 0.000000 1.873662 1.027493 0.000000 0.000000 0.000000
    4 0.000000 -3.037148 1.087932 0.000000 0.000000 0.000000
    5 0.000001 -4.895699 1.027491 0.000000 0.000000 0.000000
    6 0.000001 -6.240505 1.163484 0.000000 0.000000 0.000000
    7 0.000000 -5.243233 2.931374 0.000000 0.000000 0.000000
    8 -0.214729 -14.141506 3.399045 0.000000 0.000000 0.000000
    9 -0.003480 -0.404829 0.000000 0.000000 0.000000 0.000000
    10 -0.519309 -2.501155 -0.278957 -1.003564 0.000000 -0.122173
    11 -0.010598 -1.208185 0.000001 -1.090831 0.000000 0.000000
    12 0.000000 -0.763067 0.000000 -1.343903 0.000000 0.000000
    13 0.105982 -2.607134 -0.278957 -0.890118 0.000000 -0.148353
    14 0.000000 -1.250579 0.000000 -1.213004 0.000000 0.000000
    15 0.000000 -0.932634 0.000000 -1.483530 0.000000 0.000000
    16 0.763064 -2.490556 -0.278957 -0.349065 0.000000 0.130900
    17 -0.012322 -1.280917 0.000001 -0.322892 0.000000 0.000000
    18 -0.001697 -0.749371 0.000001 -0.593412 0.000000 0.000000
    19 0.354567 0.016267 0.318134 0.342077 -0.443527 -1.083976
    20 1.887164 0.012877 0.000001 -0.305433 0.000000 -0.401426
    21 1.001874 -0.000270 0.000001 0.000000 0.000000 -0.488692
    22 -1.123358 -2.195093 -0.278957 -0.933751 0.000000 -0.087266
    23 0.010772 -0.963791 0.000000 -0.610865 0.000000 0.000000
    24 -0.010412 -0.631916 0.000000 -1.213004 0.000000 0.000000
    25 -3.812128 -6.494100 -14.033926 0.146203 0.073735 0.610167
    26 0.089928 -8.543161 0.000001 0.538694 0.017885 0.229038
    27 0.000000 -0.359713 0.000000 0.000000 0.000000 0.000000
    28 -0.170479 -2.636146 -0.277655 -1.692969 0.000000 0.000000
    29 0.010600 -1.261177 0.000001 -0.253073 0.000000 0.000000
    30 -0.000001 -0.943233 -0.000001 -0.532326 0.000000 0.000000
    31 -0.827563 -2.508973 -0.277656 -1.186834 0.000000 0.000000
    32 0.000000 -1.292971 -0.000001 -0.811554 0.000000 0.000000
    33 0.000000 -0.752465 0.000000 -0.445059 0.000000 0.000000
    34 0.444212 -2.561960 -0.277655 -1.727307 -0.046226 -0.024599
    35 0.021022 -1.208186 0.000000 -0.427606 0.000000 0.000000
    36 0.010597 -0.741866 -0.000001 -0.453786 0.000000 0.000000
    37 1.047445 -2.222819 -0.277655 -1.508123 -0.078971 -0.038609
    38 0.000001 -0.996223 0.000001 -0.863938 0.000000 0.000000
    39 -0.000001 -0.614690 0.000000 -0.523599 0.000000 0.000000
    40 -0.308254 -0.007814 0.307166 -0.145110 -0.159878 -2.467082
    41 1.978379 0.019543 0.000000 -0.091660 -0.050705 0.045957
    42 0.982426 0.003186 0.000000 0.000000 0.000000 0.383991
  time 11
    0 8.200319 2.974244 -7.694043 1.365159 -1.299640 -1.769172
    1 0.000000 -8.563283 -0.000001 0.365066 -0.051371 -0.368107
    2 -0.657808 -3.130249 0.692628 -1.247037 1.437608 -1.233844
    3 0.000000 1.873662 1.027493 0.000000 0.000000 0.000000
    4 0.000000 -3.037148 1.087932 0.000000 0.000000 0.000000
    5 0.000001 -4.895699 1.027491 0.000000 0.000000 0.000000
    6 0.000001 -6.240505 1.163484 0.000000 0.000000 0.000000
    7 0.000000 -5.243233 2.931374 0.000000 0.000000 0.000000
    8 -0.214729 -14.141506 3.399045 0.000000 0.000000 0.000000
    9 -0.003480 -0.404829 0.000000 0.000000 0.000000 0.000000
    10 -0.519309 -2.501155 -0.278957 -1.003564 0.000000 -0.122173
    11 -0.010598 -1.208185 0.000001 -1.090831 0.000000 0.000000
    12 0.000000 -0.763067 0.000000 -1.343903 0.000000 0.000000
    13 0.105982 -2.607134 -0.278957 -0.890118 0.000000 -0.148353
    14 0.000000 -1.250579 0.000000 -1.213004 0.000000 0.000000
    15 0.000000 -0.932634 0.000000 -1.483530 0.000000 0.000000
    16 0.763064 -2.490556 -0.278957 -0.349065 0.000000 0.130900
    17 -0.012322 -1.280917 0.000001 -0.322892 0.000000 0.000000
    18 -0.001697 -0.749371 0.000001 -0.593412 0.000000 0.000000
    19 0.354567 0.016267 0.318134 0.342077 -0.443527 -1.083976
    20 1.887164 0.012877 0.000001 -0.305433 0.000000 -0.401426
    21 1.001874 -0.000270 0.000001 0.000000 0.000000 -0.488692
    22 -1.123358 -2.195093 -0.278957 -0.933751 0.000000 -0.087266
    23 0.010772 -0.963791 0.000000 -0.610865 0.000000 0.000000
    24 -0.010412 -0.631916 0.000000 -1.213004 0.000000 0.000000
    25 -3.718375 -6.732388 -13.834701 0.096696 0.082950 0.622859
    26 0.089928 -8.543161 0.000001 0.538694 0.017885 0.229038
    27 0.000000 -0.359713 0.000000 0.000000 0.000000 0.000000
    28 -0.170479 -2.636146 -0.277655 -1.692969 0.000000 0.000000
    29 0.010600 -1.261177 0.000001 -0.253073 0.000000 0.000000
    30 -0.000001 -0.943233 -0.000001 -0.532326 0.000000 0.000000
    31 -0.827563 -2.508973 -0.277656 -1.186834 0.000000 0.000000
    32 0.000000 -1.292971 -0.000001 -0.811554 0.000000 0.000000
    33 0.000000 -0.752465 0.000000 -0.445059 0.000000 0.000000
    34 0.444212 -2.561960 -0.277655 -1.727307 -0.046226 -0.024599
    35 0.021022 -1.208186 0.000000 -0.427606 0.000000 0.000000
    36 0.010597 -0.741866 -0.000001 -0.453786 0.000000 0.000000
    37 1.047445 -2.222819 -0.277655 -1.508123 -0.078971 -0.038609
    38 0.000001 -0.996223 0.000001 -0.863938 0.000000 0.000000
    39 -0.000001 -0.614690 0.000000 -0.523599 0.000000 0.000000
    40 -0.308254 -0.007814 0.307166 -0.145110 -0.159878 -2.467082
    41 1.978379 0.019543 0.000000 -0.091660 -0.050705 0.045957
    42 0.982426 0.003186 0.000000 0.000000 0.000000 0.383991
  time 12
    0 8.208131 2.950806 -7.694043 1.295558 -1.332154 -1.683254
    1 0.000000 -8.563283 -0.000001 0.365354 -0.049202 -0.373763
    2 -0.657808 -3.130249 0.692628 -1.247037 1.437608 -1.233844
    3 0.000000 1.873662 1.027493 0.000000 0.000000 0.000000
    4 0.000000 -3.037148 1.087932 0.000000 0.000000 0.000000
    5 0.000001 -4.895699 1.027491 0.000000 0.000000 0.000000
    6 0.000001 -6.240505 1.163484 0.000000 0.000000 0.000000
    7 0.000000 -5.243233 2.931374 0.000000 0.000000 0.000000
    8 -0.214729 -14.141506 3.399045 0.000000 0.000000 0.000000
    9 -0.003480 -0.404829 0.000000 0.000000 0.000000 0.000000
    10 -0.519309 -2.501155 -0.278957 -1.003564 0.000000 -0.122173
    11 -0.010598 -1.208185 0.000001 -1.090831 0.000000 0.000000
    12 0.000000 -0.763067 0.000000 -1.343903 0.000000 0.000000
    13 0.105982 -2.607134 -0.278957 -0.890118 0.000000 -0.148353
    14 0.000000 -1.250579 0.000000 -1.213004 0.000000 0.000000
    15 0.000000 -0.932634 0.000000 -1.483530 0.000000 0.000000
    16 0.763064 -2.490556 -0.278957 -0.349065 0.000000 0.130900
    17 -0.012322 -1.280917 0.000001 -0.322892 0.000000 0.000000
    18 -0.001697 -0.749371 0.000001 -0.593412 0.000000 0.000000
    19 0.354567 0.016267 0.318134 0.342077 -0.443527 -1.083976
    20 1.887164 0.012877 0.000001 -0.305433 0.000000 -0.401426
    21 1.001874 -0.000270 0.000001 0.000000 0.000000 -0.488692
    22 -1.123358 -2.195093 -0.278957 -0.933751 0.000000 -0.087266
    23 0.010772 -0.963791 0.000000 -0.610865 0.000000 0.000000
    24 -0.010412 -0.631916 0.000000 -1.213004 0.000000 0.000000
    25 -3.612903 -6.982396 -13.592507 0.047496 0.092785 0.634960
    26 0.089928 -8.543161 0.000001 0.538694 0.017885 0.229038
    27 0.000000 -0.359713 0.000000 0.000000 0.000000 0.000000
    28 -0.170479 -2.636146 -0.277655 -1.692969 0.000000 0.000000
    29 0.010600 -1.261177 0.000001 -0.253073 0.000000 0.000000
    30 -0.000001 -0.943233 -0.000001 -0.532326 0.000000 0.000000
    31 -0.827563 -2.508973 -0.277656 -1.186834 0.000000 0.000000
    32 0.000000 -1.292971 -0.000001 -0.811554 0.000000 0.000000
    33 0.000000 -0.752465 0.000000 -0.445059 0.000000 0.000000
    34 0.444212 -2.561960 -0.277655 -1.727307 -0.046226 -0.024599
    35 0.021022 -1.208186 0.000000 -0.427606 0.000000 0.000000
    36 0.010597 -0.741866 -0.000001 -0.453786 0.000000 0.000000
    37 1.047445 -2.222819 -0.277655 -1.508123 -0.078971 -0.038609
    38 0.000001 -0.996223 0.000001 -0.863938 0.000000 0.000000
    39 -0.000001 -0.614690 0.000000 -0.523599 0.000000 0.000000
    40 -0.308254 -0.007814 0.307166 -0.145110 -0.159878 -2.467082
    41 1.978379 0.019543 0.000000 -0.091660 -0.050705 0.045957
    42 0.982426 0.003186 0.000000 0.000000 0.000000 0.383991
  time 13
    0 8.212038 2.931274 -7.694043 1.203425 -1.362736 -1.574747
    1 0.000000 -8.563283 -0.000001 0.365414 -0.048830 -0.374734
    2 -0.657808 -3.130249 0.692628 -1.247037 1.437608 -1.233844
    3 0.000000 1.873662 1.027493 0.000000 0.000000 0.000000
    4 0.000000 -3.037148 1.087932 0.000000 0.000000 0.000000
    5 0.000001 -4.895699 1.027491 0.000000 0.000000 0.000000
    6 0.000001 -6.240505 1.163484 0.000000 0.000000 0.000000
    7 0.000000 -5.243233 2.931374 0.000000 0.000000 0.000000
    8 -0.214729 -14.141506 3.399045 0.000000 0.000000 0.000000
    9 -0.003480 -0.404829 0.000000 0.000000 0.000000 0.000000
    10 -0.519309 -2.501155 -0.278957 -1.003564 0.000000 -0.122173
    11 -0.010598 -1.208185 0.000001 -1.090831 0.000000 0.000000
    12 0.000000 -0.763067 0.000000 -1.343903 0.000000 0.000000
    13 0.105982 -2.607134 -0.278957 -0.890118 0.000000 -0.148353
    14 0.000000 -1.250579 0.000000 -1.213004 0.000000 0.000000
    15 0.000000 -0.932634 0.000000 -1.483530 0.000000 0.000000
    16 0.763064 -2.490556 -0.278957 -0.349065 0.000000 0.130900
    17 -0.012322 -1.280917 0.000001 -0.322892 0.000000 0.000000
    18 -0.001697 -0.749371 0.000001 -0.593412 0.000000 0.000000
    19 0.354567 0.016267 0.318134 0.342077 -0.443527 -1.083976
    20 1.887164 0.012877 0.000001 -0.305433 0.000000 -0.401426
    21 1.001874 -0.000270 0.000001 0.000000 0.000000 -0.488692
    22 -1.123358 -2.195093 -0.278957 -0.933751 0.000000 -0.087266
    23 0.010772 -0.963791 0.000000 -0.610865 0.000000 0.000000
    24 -0.010412 -0.631916 0.000000 -1.213004 0.000000 0.000000
    25 -3.491805 -7.240216 -13.319061 -0.001397 0.103152 0.646545
    26 0.089928 -8.543161 0.000001 0.538694 0.017885 0.229038
    27 0.000000 -0.359713 0.000000 0.000000 0.000000 0.000000
    28 -0.170479 -2.636146 -0.277655 -1.692969 0.000000 0.000000
    29 0.010600 -1.261177 0.000001 -0.253073 0.000000 0.000000
    30 -0.000001 -0.943233 -0.000001 -0.532326 0.000000 0.000000
    31 -0.827563 -2.508973 -0.277656 -1.186834 0.000000 0.000000
    32 0.000000 -1.292971 -0.000001 -0.811554 0.000000 0.000000
    33 0.000000 -0.752465 0.000000 -0.445059 0.000000 0.000000
    34 0.444212 -2.561960 -0.277655 -1.727307 -0.046226 -0.024599
    35 0.021022 -1.208186 0.000000 -0.427606 0.000000 0.000000
    36 0.010597 -0.741866 -0.000001 -0.453786 0.000000 0.000000
    37 1.047445 -2.222819 -0.277655 -1.508123 -0.078971 -0.038609
    38 0.000001 -0.996223 0.000001 -0.863938 0.000000 0.000000
    39 -0.000001 -0.614690 0.000000 -0.523599 0.000000 0.000000
    40 -0.308254 -0.007814 0.307166 -0.145110 -0.159878 -2.467082
    41 1.978379 0.019543 0.000000 -0.091660 -0.050705 0.045957
    42 0.982426 0.003186 0.000000 0.000000 0.000000 0.383991
  time 14
    0 8.215944 2.911742 -7.694043 1.080248 -1.390306 -1.435471
    1 0.000000 -8.563283 -0.000001 0.365174 -0.050604 -0.370096
    2 -0.657808 -3.130249 0.692628 -1.247037 1.437608 -1.233844
    3 0.000000 1.873662 1.027493 0.000000 0.000000 0.000000
    4 0.000000 -3.037148 1.087932 0.000000 0.000000 0.000000
    5 0.000001 -4.895699 1.027491 0.000000 0.000000 0.000000
    6 0.000001 -6.240505 1.163484 0.000000 0.000000 0.000000
    7 0.000000 -5.243233 2.931374 0.000000 0.000000 0.000000
    8 -0.214729 -14.141506 3.399045 0.000000 0.000000 0.000000
    9 -0.003480 -0.404829 0.000000 0.000000 0.000000 0.000000
    10 -0.519309 -2.501155 -0.278957 -1.003564 0.000000 -0.122173
    11 -0.010598 -1.208185 0.000001 -1.090831 0.000000 0.000000
    12 0.000000 -0.763067 0.000000 -1.343903 0.000000 0.000000
    13 0.105982 -2.607134 -0.278957 -0.890118 0.000000 -0.148353
    14 0.000000 -1.250579 0.000000 -1.213004 0.000000 0.000000
    15 0.000000 -0.932634 0.000000 -1.483530 0.000000 0.000000
    16 0.763064 -2.490556 -0.278957 -0.349065 0.000000 0.130900
    17 -0.012322 -1.280917 0.000001 -0.322892 0.000000 0.000000
    18 -0.001697 -0.749371 0.000001 -0.593412 0.000000 0.000000
    19 0.354567 0.016267 0.318134 0.342077 -0.443527 -1.083976
    20 1.887164 0.012877 0.000001 -0.305433 0.000000 -0.401426
    21 1.001874 -0.000270 0.000001 0.000000 0.000000 -0.488692
    22 -1.123358 -2.195093 -0.278957 -0.933751 0.000000 -0.087266
    23 0.010772 -0.963791 0.000000 -0.610865 0.000000 0.000000
    24 -0.010412 -0.631916 0.000000 -1.213004 0.000000 0.000000
    25 -3.358989 -7.509756 -13.002645 -0.049931 0.114050 0.657245
    26 0.089928 -8.543161 0.000001 0.538694 0.017885 0.229038
    27 0.000000 -0.359713 0.000000 0.000000 0.000000 0.000000
    28 -0.170479 -2.636146 -0.277655 -1.692969 0.000000 0.000000
    29 0.010600 -1.261177 0.000001 -0.253073 0.000000 0.000000
    30 -0.000001 -0.943233 -0.000001 -0.532326 0.000000 0.000000
    31 -0.827563 -2.508973 -0.277656 -1.186834 0.000000 0.000000
    32 0.000000 -1.292971 -0.000001 -0.811554 0.000000 0.000000
    33 0.000000 -0.752465 0.000000 -0.445059 0.000000 0.000000
    34 0.444212 -2.561960 -0.277655 -1.727307 -0.046226 -0.024599
    35 0.021022 -1.208186 0.000000 -0.427606 0.000000 0.000000
    36 0.010597 -0.741866 -0.000001 -0.453786 0.000000 0.000000
    37 1.047445 -2.222819 -0.277655 -1.508123 -0.078971 -0.038609
    38 0.000001 -0.996223 0.000001 -0.863938 0.000000 0.000000
    39 -0.000001 -0.614690 0.000000 -0.523599 0.000000 0.000000
    40 -0.308254 -0.007814 0.307166 -0.145110 -0.159878 -2.467082
    41 1.978379 0.019543 0.000000 -0.091660 -0.050705 0.045957
    42 0.982426 0.003186 0.000000 0.000000 0.000000 0.383991
  time 15
    0 8.219851 2.896116 -7.694043 0.916583 -1.413539 -1.256080
    1 0.000000 -8.563283 -0.000001 0.364647 -0.054475 -0.359945
    2 -0.657808 -3.130249 0.692628 -1.247037 1.437608 -1.233844
    3 0.000000 1.873662 1.027493 0.000000 0.000000 0.000000
    4 0.000000 -3.037148 1.087932 0.000000 0.000000 0.000000
    5 0.000001 -4.895699 1.027491 0.000000 0.000000 0.000000
    6 0.000001 -6.240505 1.163484 0.000000 0.000000 0.000000
    7 0.000000 -5.243233 2.931374 0.000000 0.000000 0.000000
    8 -0.214729 -14.141506 3.399045 0.000000 0.000000 0.000000
    9 -0.003480 -0.404829 0.000000 0.000000 0.000000 0.000000
    10 -0.519309 -2.501155 -0.278957 -1.003564 0.000000 -0.122173
    11 -0.010598 -1.208185 0.000001 -1.090831 0.000000 0.000000
    12 0.000000 -0.763067 0.000000 -1.343903 0.000000 0.000000
    13 0.105982 -2.607134 -0.278957 -0.890118 0.000000 -0.148353
    14 0.000000 -1.250579 0.000000 -1.213004 0.000000 0.000000
    15 0.000000 -0.932634 0.000000 -1.483530 0.000000 0.000000
    16 0.763064 -2.490556 -0.278957 -0.349065 0.000000 0.130900
    17 -0.012322 -1.280917 0.000001 -0.322892 0.000000 0.000000
    18 -0.001697 -0.749371 0.000001 -0.593412 0.000000 0.000000
    19 0.354567 0.016267 0.318134 0.342077 -0.443527 -1.083976
    20 1.887164 0.012877 0.000001 -0.305433 0.000000 -0.401426
    21 1.001874 -0.000270 0.000001 0.000000 0.000000 -0.488692
    22 -1.123358 -2.195093 -0.278957 -0.933751 0.000000 -0.087266
    23 0.010772 -0.963791 0.000000 -0.610865 0.000000 0.000000
    24 -0.010412 -0.631916 0.000000 -1.213004 0.000000 0.000000
    25 -3.210547 -7.787108 -12.654978 -0.098005 0.125391 0.667280
    26 0.089928 -8.543161 0.000001 0.538694 0.017885 0.229038
    27 0.000000 -0.359713 0.000000 0.000000 0.000000 0.000000
    28 -0.170479 -2.636146 -0.277655 -1.692969 0.000000 0.000000
    29 0.010600 -1.261177 0.000001 -0.253073 0.000000 0.000000
    30 -0.000001 -0.943233 -0.000001 -0.532326 0.000000 0.000000
    31 -0.827563 -2.508973 -0.277656 -1.186834 0.000000 0.000000
    32 0.000000 -1.292971 -0.000001 -0.811554 0.000000 0.000000
    33 0.000000 -0.752465 0.000000 -0.445059 0.000000 0.000000
    34 0.444212 -2.561960 -0.277655 -1.727307 -0.046226 -0.024599
    35 0.021022 -1.208186 0.000000 -0.427606 0.000000 0.000000
    36 0.010597 -0.741866 -0.000001 -0.453786 0.000000 0.000000
    37 1.047445 -2.222819 -0.277655 -1.508123 -0.078971 -0.038609
    38 0.000001 -0.996223 0.000001 -0.863938 0.000000 0.000000
    39 -0.000001 -0.614690 0.000000 -0.523599 0.000000 0.000000
    40 -0.308254 -0.007814 0.307166 -0.145110 -0.159878 -2.467082
    41 1.978379 0.019543 0.000000 -0.091660 -0.050705 0.045957
    42 0.982426 0.003186 0.000000 0.000000 0.000000 0.383991
  time 16
    0 8.223757 2.880491 -7.694043 0.706351 -1.430639 -1.030186
    1 0.000000 -8.563283 -0.000001 0.363784 -0.060120 -0.345132
    2 -0.657808 -3.130249 0.692628 -1.247037 1.437608 -1.233844
    3 0.000000 1.873662 1.027493 0.000000 0.000000 0.000000
    4 0.000000 -3.037148 1.087932 0.000000 0.000000 0.000000
    5 0.000001 -4.895699 1.027491 0.000000 0.000000 0.000000
    6 0.000001 -6.240505 1.163484 0.000000 0.000000 0.000000
    7 0.000000 -5.243233 2.931374 0.000000 0.000000 0.000000
    8 -0.214729 -14.141506 3.399045 0.000000 0.000000 0.000000
    9 -0.003480 -0.404829 0.000000 0.000000 0.000000 0.000000
    10 -0.519309 -2.501155 -0.278957 -1.003564 0.000000 -0.122173
    11 -0.010598 -1.208185 0.000001 -1.090831 0.000000 0.000000
    12 0.000000 -0.763067 0.000000 -1.343903 0.000000 0.000000
    13 0.105982 -2.607134 -0.278957 -0.890118 0.000000 -0.148353
    14 0.000000 -1.250579 0.000000 -1.213004 0.000000 0.000000
    15 0.000000 -0.932634 0.000000 -1.483530 0.000000 0.000000
    16 0.763064 -2.490556 -0.278957 -0.349065 0.000000 0.130900
    17 -0.012322 -1.280917 0.000001 -0.322892 0.000000 0.000000
    18 -0.001697 -0.749371 0.000001 -0.593412 0.000000 0.000000
    19 0.354567 0.016267 0.318134 0.342077 -0.443527 -1.083976
    20 1.887164 0.012877 0.000001 -0.305433 0.000000 -0.401426
    21 1.001874 -0.000270 0.000001 0.000000 0.000000 -0.488692
    22 -1.123358 -2.195093 -0.278957 -0.933751 0.000000 -0.087266
    23 0.010772 -0.963791 0.000000 -0.610865 0.000000 0.000000
    24 -0.010412 -0.631916 0.000000 -1.213004 0.000000 0.000000
    25 -3.050386 -8.080086 -12.272154 -0.145618 0.136999 0.676504
    26 0.089928 -8.543161 0.000001 0.538694 0.017885 0.229038
    27 0.000000 -0.359713 0.000000 0.000000 0.000000 0.000000
    28 -0.170479 -2.636146 -0.277655 -1.692969 0.000000 0.000000
    29 0.010600 -1.261177 0.000001 -0.253073 0.000000 0.000000
    30 -0.000001 -0.943233 -0.000001 -0.532326 0.000000 0.000000
    31 -0.827563 -2.508973 -0.277656 -1.186834 0.000000 0.000000
    32 0.000000 -1.292971 -0.000001 -0.811554 0.000000 0.000000
    33 0.000000 -0.752465 0.000000 -0.445059 0.000000 0.000000
    34 0.444212 -2.561960 -0.277655 -1.727307 -0.046226 -0.024599
    35 0.021022 -1.208186 0.000000 -0.427606 0.000000 0.000000
    36 0.010597 -0.741866 -0.000001 -0.453786 0.000000 0.000000
    37 1.047445 -2.222819 -0.277655 -1.508123 -0.078971 -0.038609
    38 0.000001 -0.996223 0.000001 -0.863938 0.000000 0.000000
    39 -0.000001 -0.614690 0.000000 -0.523599 0.000000 0.000000
    40 -0.308254 -0.007814 0.307166 -0.145110 -0.159878 -2.467082
    41 1.978379 0.019543 0.000000 -0.091660 -0.050705 0.045957
    42 0.982426 0.003186 0.000000 0.000000 0.000000 0.383991
  time 17
    0 8.227663 2.868772 -7.694043 0.456347 -1.439617 -0.764955
    1 0.000000 -8.563283 -0.000001 0.362610 -0.067191 -0.326484
    2 -0.657808 -3.130249 0.692628 -1.247037 1.437608 -1.233844
    3 0.000000 1.873662 1.027493 0.000000 0.000000 0.000000
    4 0.000000 -3.037148 1.087932 0.000000 0.000000 0.000000
    5 0.000001 -4.895699 1.027491 0.000000 0.000000 0.000000
    6 0.000001 -6.240505 1.163484 0.000000 0.000000 0.000000
    7 0.000000 -5.243233 2.931374 0.000000 0.000000 0.000000
    8 -0.214729 -14.141506 3.399045 0.000000 0.000000 0.000000
    9 -0.003480 -0.404829 0.000000 0.000000 0.000000 0.000000
    10 -0.519309 -2.501155 -0.278957 -1.003564 0.000000 -0.122173
    11 -0.010598 -1.208185 0.000001 -1.090831 0.000000 0.000000
    12 0.000000 -0.763067 0.000000 -1.343903 0.000000 0.000000
    13 0.105982 -2.607134 -0.278957 -0.890118 0.000000 -0.148353
    14 0.000000 -1.250579 0.000000 -1.213004 0.000000 0.000000
    15 0.000000 -0.932634 0.000000 -1.483530 0.000000 0.000000
    16 0.763064 -2.490556 -0.278957 -0.349065 0.000000 0.130900
    17 -0.012322 -1.280917 0.000001 -0.322892 0.000000 0.000000
    18 -0.001697 -0.749371 0.000001 -0.593412 0.000000 0.000000
    19 0.354567 0.016267 0.318134 0.342077 -0.443527 -1.083976
    20 1.887164 0.012877 0.000001 -0.305433 0.000000 -0.401426
    21 1.001874 -0.000270 0.000001 0.000000 0.000000 -0.488692
    22 -1.123358 -2.195093 -0.278957 -0.933751 0.000000 -0.087266
    23 0.010772 -0.963791 0.000000 -0.610865 0.000000 0.000000
    24 -0.010412 -0.631916 0.000000 -1.213004 0.000000 0.000000
    25 -2.878505 -8.396502 -11.819015 -0.192719 0.148960 0.684768
    26 0.089928 -8.543161 0.000001 0.538694 0.017885 0.229038
    27 0.000000 -0.359713 0.000000 0.000000 0.000000 0.000000
    28 -0.170479 -2.636146 -0.277655 -1.692969 0.000000 0.000000
    29 0.010600 -1.261177 0.000001 -0.253073 0.000000 0.000000
    30 -0.000001 -0.943233 -0.000001 -0.532326 0.000000 0.000000
    31 -0.827563 -2.508973 -0.277656 -1.186834 0.000000 0.000000
    32 0.000000 -1.292971 -0.000001 -0.811554 0.000000 0.000000
    33 0.000000 -0.752465 0.000000 -0.445059 0.000000 0.000000
    34 0.444212 -2.561960 -0.277655 -1.727307 -0.046226 -0.024599
    35 0.021022 -1.208186 0.000000 -0.427606 0.000000 0.000000
    36 0.010597 -0.741866 -0.000001 -0.453786 0.000000 0.000000
    37 1.047445 -2.222819 -0.277655 -1.508123 -0.078971 -0.038609
    38 0.000001 -0.996223 0.000001 -0.863938 0.000000 0.000000
    39 -0.000001 -0.614690 0.000000 -0.523599 0.000000 0.000000
    40 -0.308254 -0.007814 0.307166 -0.145110 -0.159878 -2.467082
    41 1.978379 0.019543 0.000000 -0.091660 -0.050705 0.045957
    42 0.982426 0.003186 0.000000 0.000000 0.000000 0.383991
  time 18
    0 8.231570 2.860959 -7.694043 0.194326 -1.439202 -0.487884
    1 0.000000 -8.563283 -0.000001 0.361076 -0.075340 -0.304876
    2 -0.657808 -3.130249 0.692628 -1.247037 1.437608 -1.233844
    3 0.000000 1.873662 1.027493 0.000000 0.000000 0.000000
    4 0.000000 -3.037148 1.087932 0.000000 0.000000 0.000000
    5 0.000001 -4.895699 1.027491 0.000000 0.000000 0.000000
    6 0.000001 -6.240505 1.163484 0.000000 0.000000 0.000000
    7 0.000000 -5.243233 2.931374 0.000000 0.000000 0.000000
    8 -0.214729 -14.141506 3.399045 0.000000 0.000000 0.000000
    9 -0.003480 -0.404829 0.000000 0.000000 0.000000 0.000000
    10 -0.519309 -2.501155 -0.278957 -1.003564 0.000000 -0.122173
    11 -0.010598 -1.208185 0.000001 -1.090831 0.000000 0.000000
    12 0.000000 -0.763067 0.000000 -1.343903 0.000000 0.000000
    13 0.105982 -2.607134 -0.278957 -0.890118 0.000000 -0.148353
    14 0.000000 -1.250579 0.000000 -1.213004 0.000000 0.000000
    15 0.000000 -0.932634 0.000000 -1.483530 0.000000 0.000000
    16 0.763064 -2.490556 -0.278957 -0.349065 0.000000 0.130900
    17 -0.012322 -1.280917 0.000001 -0.322892 0.000000 0.000000
    18 -0.001697 -0.749371 0.000001 -0.593412 0.000000 0.000000
    19 0.354567 0.016267 0.318134 0.342077 -0.443527 -1.083976
    20 1.887164 0.012877 0.000001 -0.305433 0.000000 -0.401426
    21 1.001874 -0.000270 0.000001 0.000000 0.000000 -0.488692
    22 -1.123358 -2.195093 -0.278957 -0.933751 0.000000 -0.087266
    23 0.010772 -0.963791 0.000000 -0.610865 0.000000 0.000000
    24 -0.010412 -0.631916 0.000000 -1.213004 0.000000 0.000000
    25 -2.698812 -8.736356 -11.322906 -0.239256 0.161188 0.692221
    26 0.089928 -8.543161 0.000001 0.538694 0.017885 0.229038
    27 0.000000 -0.359713 0.000000 0.000000 0.000000 0.000000
    28 -0.170479 -2.636146 -0.277655 -1.692969 0.000000 0.000000
    29 0.010600 -1.261177 0.000001 -0.253073 0.000000 0.000000
    30 -0.000001 -0.943233 -0.000001 -0.532326 0.000000 0.000000
    31 -0.827563 -2.508973 -0.277656 -1.186834 0.000000 0.000000
    32 0.000000 -1.292971 -0.000001 -0.811554 0.000000 0.000000
    33 0.000000 -0.752465 0.000000 -0.445059 0.000000 0.000000
    34 0.444212 -2.561960 -0.277655 -1.727307 -0.046226 -0.024599
    35 0.021022 -1.208186 0.000000 -0.427606 0.000000 0.000000
    36 0.010597 -0.741866 -0.000001 -0.453786 0.000000 0.000000
    37 1.047445 -2.222819 -0.277655 -1.508123 -0.078971 -0.038609
    38 0.000001 -0.996223 0.000001 -0.863938 0.000000 0.000000
    39 -0.000001 -0.614690 0.000000 -0.523599 0.000000 0.000000
    40 -0.308254 -0.007814 0.307166 -0.145110 -0.159878 -2.467082
    41 1.978379 0.019543 0.000000 -0.091660 -0.050705 0.045957
    42 0.982426 0.003186 0.000000 0.000000 0.000000 0.383991
  time 19
    0 8.231570 2.853146 -7.694043 -0.044161 -1.430114 -0.234649
    1 0.000000 -8.563283 -0.000001 0.359182 -0.084257 -0.281159
    2 -0.657808 -3.130249 0.692628 -1.247037 1.437608 -1.233844
    3 0.000000 1.873662 1.027493 0.000000 0.000000 0.000000
    4 0.000000 -3.037148 1.087932 0.000000 0.000000 0.000000
    5 0.000001 -4.895699 1.027491 0.000000 0.000000 0.000000
    6 0.000001 -6.240505 1.163484 0.000000 0.000000 0.000000
    7 0.000000 -5.243233 2.931374 0.000000 0.000000 0.000000
    8 -0.214729 -14.141506 3.399045 0.000000 0.000000 0.000000
    9 -0.003480 -0.404829 0.000000 0.000000 0.000000 0.000000
    10 -0.519309 -2.501155 -0.278957 -1.003564 0.000000 -0.122173
    11 -0.010598 -1.208185 0.000001 -1.090831 0.000000 0.000000
    12 0.000000 -0.763067 0.000000 -1.343903 0.000000 0.000000
    13 0.105982 -2.607134 -0.278957 -0.890118 0.000000 -0.148353
    14 0.000000 -1.250579 0.000000 -1.213004 0.000000 0.000000
    15 0.000000 -0.932634 0.000000 -1.483530 0.000000 0.000000
    16 0.763064 -2.490556 -0.278957 -0.349065 0.000000 0.130900
    17 -0.012322 -1.280917 0.000001 -0.322892 0.000000 0.000000
    18 -0.001697 -0.749371 0.000001 -0.593412 0.000000 0.000000
    19 0.354567 0.016267 0.318134 0.342077 -0.443527 -1.083976
    20 1.887164 0.012877 0.000001 -0.305433 0.000000 -0.401426
    21 1.001874 -0.000270 0.000001 0.000000 0.000000 -0.488692
    22 -1.123358 -2.195093 -0.278957 -0.933751 0.000000 -0.087266
    23 0.010772 -0.963791 0.000000 -0.610865 0.000000 0.000000
    24 -0.010412 -0.631916 0.000000 -1.213004 0.000000 0.000000
    25 -2.499588 -9.064491 -10.815078 -0.285180 0.173504 0.698714
    26 0.089928 -8.543161 0.000001 0.538694 0.017885 0.229038
    27 0.000000 -0.359713 0.000000 0.000000 0.000000 0.000000
    28 -0.170479 -2.636146 -0.277655 -1.692969 0.000000 0.000000
    29 0.010600 -1.261177 0.000001 -0.253073 0.000000 0.000000
    30 -0.000001 -0.943233 -0.000001 -0.532326 0.000000 0.000000
    31 -0.827563 -2.508973 -0.277656 -1.186834 0.000000 0.000000
    32 0.000000 -1.292971 -0.000001 -0.811554 0.000000 0.000000
    33 0.000000 -0.752465 0.000000 -0.445059 0.000000 0.000000
    34 0.444212 -2.561960 -0.277655 -1.727307 -0.046226 -0.024599
    35 0.021022 -1.208186 0.000000 -0.427606 0.000000 0.000000
    36 0.010597 -0.741866 -0.000001 -0.453786 0.000000 0.000000
    37 1.047445 -2.222819 -0.277655 -1.508123 -0.078971 -0.038609
    38 0.000001 -0.996223 0.000001 -0.863938 0.000000 0.000000
    39 -0.000001 -0.614690 0.000000 -0.523599 0.000000 0.000000
    40 -0.308254 -0.007814 0.307166 -0.145110 -0.159878 -2.467082
    41 1.978379 0.019543 0.000000 -0.091660 -0.050705 0.045957
    42 0.982426 0.003186 0.000000 0.000000 0.000000 0.383991
  time 20
    0 8.231570 2.849240 -7.694043 -0.238657 -1.414340 -0.025892
    1 0.000000 -8.563283 -0.000001 0.356965 -0.093581 -0.256147
    2 -0.657808 -3.130249 0.692628 -1.247037 1.437608 -1.233844
    3 0.000000 1.873662 1.027493 0.000000 0.000000 0.000000
    4 0.000000 -3.037148 1.087932 0.000000 0.000000 0.000000
    5 0.000001 -4.895699 1.027491 0.000000 0.000000 0.000000
    6 0.000001 -6.240505 1.163484 0.000000 0.000000 0.000000
    7 0.000000 -5.243233 2.931374 0.000000 0.000000 0.000000
    8 -0.214729 -14.141506 3.399045 0.000000 0.000000 0.000000
    9 -0.003480 -0.404829 0.000000 0.000000 0.000000 0.000000
    10 -0.519309 -2.501155 -0.278957 -1.003564 0.000000 -0.122173
    11 -0.010598 -1.208185 0.000001 -1.090831 0.000000 0.000000
    12 0.000000 -0.763067 0.000000 -1.343903 0.000000 0.000000
    13 0.105982 -2.607134 -0.278957 -0.890118 0.000000 -0.148353
    14 0.000000 -1.250579 0.000000 -1.213004 0.000000 0.000000
    15 0.000000 -0.932634 0.000000 -1.483530 0.000000 0.000000
    16 0.763064 -2.490556 -0.278957 -0.349065 0.000000 0.130900
    17 -0.012322 -1.280917 0.000001 -0.322892 0.000000 0.000000
    18 -0.001697 -0.749371 0.000001 -0.593412 0.000000 0.000000
    19 0.354567 0.016267 0.318134 0.342077 -0.443527 -1.083976
    20 1.887164 0.012877 0.000001 -0.305433 0.000000 -0.401426
    21 1.001874 -0.000270 0.000001 0.000000 0.000000 -0.488692
    22 -1.123358 -2.195093 -0.278957 -0.933751 0.000000 -0.087266
    23 0.010772 -0.963791 0.000000 -0.610865 0.000000 0.000000
    24 -0.010412 -0.631916 0.000000 -1.213004 0.000000 0.000000
    25 -2.269112 -9.337936 -10.346314 -0.330489 0.185997 0.704249
    26 0.089928 -8.543161 0.000001 0.538694 0.017885 0.229038
    27 0.000000 -0.359713 0.000000 0.000000 0.000000 0.000000
    28 -0.170479 -2.636146 -0.277655 -1.692969 0.000000 0.000000
    29 0.010600 -1.261177 0.000001 -0.253073 0.000000 0.000000
    30 -0.000001 -0.943233 -0.000001 -0.532326 0.000000 0.000000
    31 -0.827563 -2.508973 -0.277656 -1.186834 0.000000 0.000000
    32 0.000000 -1.292971 -0.000001 -0.811554 0.000000 0.000000
    33 0.000000 -0.752465 0.000000 -0.445059 0.000000 0.000000
    34 0.444212 -2.561960 -0.277655 -1.727307 -0.046226 -0.024599
    35 0.021022 -1.208186 0.000000 -0.427606 0.000000 0.000000
    36 0.010597 -0.741866 -0.000001 -0.453786 0.000000 0.000000
    37 1.047445 -2.222819 -0.277655 -1.508123 -0.078971 -0.038609
    38 0.000001 -0.996223 0.000001 -0.863938 0.000000 0.000000
    39 -0.000001 -0.614690 0.000000 -0.523599 0.000000 0.000000
    40 -0.308254 -0.007814 0.307166 -0.145110 -0.159878 -2.467082
    41 1.978379 0.019543 0.000000 -0.091660 -0.050705 0.045957
    42 0.982426 0.003186 0.000000 0.000000 0.000000 0.383991
  time 21
    0 8.235476 2.845334 -7.694043 -0.388015 -1.394201 0.137687
    1 0.000000 -8.563283 -0.000001 0.354460 -0.102989 -0.230703
    2 -0.657808 -3.130249 0.692628 -1.247037 1.437608 -1.233844
    3 0.000000 1.873662 1.027493 0.000000 0.000000 0.000000
    4 0.000000 -3.037148 1.087932 0.000000 0.000000 0.000000
    5 0.000001 -4.895699 1.027491 0.000000 0.000000 0.000000
    6 0.000001 -6.240505 1.163484 0.000000 0.000000 0.000000
    7 0.000000 -5.243233 2.931374 0.000000 0.000000 0.000000
    8 -0.214729 -14.141506 3.399045 0.000000 0.000000 0.000000
    9 -0.003480 -0.404829 0.000000 0.000000 0.000000 0.000000
    10 -0.519309 -2.501155 -0.278957 -1.003564 0.000000 -0.122173
    11 -0.010598 -1.208185 0.000001 -1.090831 0.000000 0.000000
    12 0.000000 -0.763067 0.000000 -1.343903 0.000000 0.000000
    13 0.105982 -2.607134 -0.278957 -0.890118 0.000000 -0.148353
    14 0.000000 -1.250579 0.000000 -1.213004 0.000000 0.000000
    15 0.000000 -0.932634 0.000000 -1.483530 0.000000 0.000000
    16 0.763064 -2.490556 -0.278957 -0.349065 0.000000 0.130900
    17 -0.012322 -1.280917 0.000001 -0.322892 0.000000 0.000000
    18 -0.001697 -0.749371 0.000001 -0.593412 0.000000 0.000000
    19 0.354567 0.016267 0.318134 0.342077 -0.443527 -1.083976
    20 1.887164 0.012877 0.000001 -0.305433 0.000000 -0.401426
    21 1.001874 -0.000270 0.000001 0.000000 0.000000 -0.488692
    22 -1.123358 -2.195093 -0.278957 -0.933751 0.000000 -0.087266
    23 0.010772 -0.963791 0.000000 -0.610865 0.000000 0.000000
    24 -0.010412 -0.631916 0.000000 -1.213004 0.000000 0.000000
    25 -1.976134 -9.572319 -9.904894 -0.375030 0.198490 0.708897
    26 0.089928 -8.543161 0.000001 0.538694 0.017885 0.229038
    27 0.000000 -0.359713 0.000000 0.000000 0.000000 0.000000
    28 -0.170479 -2.636146 -0.277655 -1.692969 0.000000 0.000000
    29 0.010600 -1.261177 0.000001 -0.253073 0.000000 0.000000
    30 -0.000001 -0.943233 -0.000001 -0.532326 0.000000 0.000000
    31 -0.827563 -2.508973 -0.277656 -1.186834 0.000000 0.000000
    32 0.000000 -1.292971 -0.000001 -0.811554 0.000000 0.000000
    33 0.000000 -0.752465 0.000000 -0.445059 0.000000 0.000000
    34 0.444212 -2.561960 -0.277655 -1.727307 -0.046226 -0.024599
    35 0.021022 -1.208186 0.000000 -0.427606 0.000000 0.000000
    36 0.010597 -0.741866 -0.000001 -0.453786 0.000000 0.000000
    37 1.047445 -2.222819 -0.277655 -1.508123 -0.078971 -0.038609
    38 0.000001 -0.996223 0.000001 -0.863938 0.000000 0.000000
    39 -0.000001 -0.614690 0.000000 -0.523599 0.000000 0.000000
    40 -0.308254 -0.007814 0.307166 -0.145110 -0.159878 -2.467082
    41 1.978379 0.019543 0.000000 -0.091660 -0.050705 0.045957
    42 0.982426 0.003186 0.000000 0.000000 0.000000 0.383991
  time 22
    0 8.235476 2.845334 -7.694043 -0.500892 -1.371493 0.264188
    1 0.000000 -8.563283 -0.000001 0.351787 -0.112145 -0.205728
    2 -0.657808 -3.130249 0.692628 -1.247037 1.437608 -1.233844
    3 0.000000 1.873662 1.027493 0.000000 0.000000 0.000000
    4 0.000000 -3.037148 1.087932 0.000000 0.000000 0.000000
    5 0.000001 -4.895699 1.027491 0.000000 0.000000 0.000000
    6 0.000001 -6.240505 1.163484 0.000000 0.000000 0.000000
    7 0.000000 -5.243233 2.931374 0.000000 0.000000 0.000000
    8 -0.214729 -14.141506 3.399045 0.000000 0.000000 0.000000
    9 -0.003480 -0.404829 0.000000 0.000000 0.000000 0.000000
    10 -0.519309 -2.501155 -0.278957 -1.003564 0.000000 -0.122173
    11 -0.010598 -1.208185 0.000001 -1.090831 0.000000 0.000000
    12 0.000000 -0.763067 0.000000 -1.343903 0.000000 0.000000
    13 0.105982 -2.607134 -0.278957 -0.890118 0.000000 -0.148353
    14 0.000000 -1.250579 0.000000 -1.213004 0.000000 0.000000
    15 0.000000 -0.932634 0.000000 -1.483530 0.000000 0.000000
    16 0.763064 -2.490556 -0.278957 -0.349065 0.000000 0.130900
    17 -0.012322 -1.280917 0.000001 -0.322892 0.000000 0.000000
    18 -0.001697 -0.749371 0.000001 -0.593412 0.000000 0.000000
    19 0.354567 0.016267 0.318134 0.342077 -0.443527 -1.083976
    20 1.887164 0.012877 0.000001 -0.305433 0.000000 -0.401426
    21 1.001874 -0.000270 0.000001 0.000000 0.000000 -0.488692
    22 -1.123358 -2.195093 -0.278957 -0.933751 0.000000 -0.087266
    23 0.010772 -0.963791 0.000000 -0.610865 0.000000 0.000000
    24 -0.010412 -0.631916 0.000000 -1.213004 0.000000 0.000000
    25 -1.632374 -9.775450 -9.475193 -0.418905 0.210895 0.712439
    26 0.089928 -8.543161 0.000001 0.538694 0.017885 0.229038
    27 0.000000 -0.359713 0.000000 0.000000 0.000000 0.000000
    28 -0.170479 -2.636146 -0.277655 -1.692969 0.000000 0.000000
    29 0.010600 -1.261177 0.000001 -0.253073 0.000000 0.000000
    30 -0.000001 -0.943233 -0.000001 -0.532326 0.000000 0.000000
    31 -0.827563 -2.508973 -0.277656 -1.186834 0.000000 0.000000
    32 0.000000 -1.292971 -0.000001 -0.811554 0.000000 0.000000
    33 0.000000 -0.752465 0.000000 -0.445059 0.000000 0.000000
    34 0.444212 -2.561960 -0.277655 -1.727307 -0.046226 -0.024599
    35 0.021022 -1.208186 0.000000 -0.427606 0.000000 0.000000
    36 0.010597 -0.741866 -0.000001 -0.453786 0.000000 0.000000
    37 1.047445 -2.222819 -0.277655 -1.508123 -0.078971 -0.038609
    38 0.000001 -0.996223 0.000001 -0.863938 0.000000 0.000000
    39 -0.000001 -0.614690 0.000000 -0.523599 0.000000 0.000000
    40 -0.308254 -0.007814 0.307166 -0.145110 -0.159878 -2.467082
    41 1.978379 0.019543 0.000000 -0.091660 -0.050705 0.045957
    42 0.982426 0.003186 0.000000 0.000000 0.000000 0.383991
  time 23
    0 8.227663 2.864865 -7.694043 -0.586444 -1.347459 0.362958
    1 0.000000 -8.563283 -0.000001 0.349019 -0.120738 -0.182058
    2 -0.657808 -3.130249 0.692628 -1.247037 1.437608 -1.233844
    3 0.000000 1.873662 1.027493 0.000000 0.000000 0.000000
    4 0.000000 -3.037148 1.087932 0.000000 0.000000 0.000000
    5 0.000001 -4.895699 1.027491 0.000000 0.000000 0.000000
    6 0.000001 -6.240505 1.163484 0.000000 0.000000 0.000000
    7 0.000000 -5.243233 2.931374 0.000000 0.000000 0.000000
    8 -0.214729 -14.141506 3.399045 0.000000 0.000000 0.000000
    9 -0.003480 -0.404829 0.000000 0.000000 0.000000 0.000000
    10 -0.519309 -2.501155 -0.278957 -1.003564 0.000000 -0.122173
    11 -0.010598 -1.208185 0.000001 -1.090831 0.000000 0.000000
    12 0.000000 -0.763067 0.000000 -1.343903 0.000000 0.000000
    13 0.105982 -2.607134 -0.278957 -0.890118 0.000000 -0.148353
    14 0.000000 -1.250579 0.000000 -1.213004 0.000000 0.000000
    15 0.000000 -0.932634 0.000000 -1.483530 0.000000 0.000000
    16 0.763064 -2.490556 -0.278957 -0.349065 0.000000 0.130900
    17 -0.012322 -1.280917 0.000001 -0.322892 0.000000 0.000000
    18 -0.001697 -0.749371 0.000001 -0.593412 0.000000 0.000000
    19 0.354567 0.016267 0.318134 0.342077 -0.443527 -1.083976
    20 1.887164 0.012877 0.000001 -0.305433 0.000000 -0.401426
    21 1.001874 -0.000270 0.000001 0.000000 0.000000 -0.488692
    22 -1.123358 -2.195093 -0.278957 -0.933751 0.000000 -0.087266
    23 0.010772 -0.963791 0.000000 -0.610865 0.000000 0.000000
    24 -0.010412 -0.631916 0.000000 -1.213004 0.000000 0.000000
    25 -1.312051 -9.927798 -9.092369 -0.461961 0.223122 0.715022
    26 0.089928 -8.543161 0.000001 0.538694 0.017885 0.229038
    27 0.000000 -0.359713 0.000000 0.000000 0.000000 0.000000
    28 -0.170479 -2.636146 -0.277655 -1.692969 0.000000 0.000000
    29 0.010600 -1.261177 0.000001 -0.253073 0.000000 0.000000
    30 -0.000001 -0.943233 -0.000001 -0.532326 0.000000 0.000000
    31 -0.827563 -2.508973 -0.277656 -1.186834 0.000000 0.000000
    32 0.000000 -1.292971 -0.000001 -0.811554 0.000000 0.000000
    33 0.000000 -0.752465 0.000000 -0.445059 0.000000 0.000000
    34 0.444212 -2.561960 -0.277655 -1.727307 -0.046226 -0.024599
    35 0.021022 -1.208186 0.000000 -0.427606 0.000000 0.000000
    36 0.010597 -0.741866 -0.000001 -0.453786 0.000000 0.000000
    37 1.047445 -2.222819 -0.277655 -1.508123 -0.078971 -0.038609
    38 0.000001 -0.996223 0.000001 -0.863938 0.000000 0.000000
    39 -0.000001 -0.614690 0.000000 -0.523599 0.000000 0.000000
    40 -0.308254 -0.007814 0.307166 -0.145110 -0.159878 -2.467082
    41 1.978379 0.019543 0.000000 -0.091660 -0.050705 0.045957
    42 0.982426 0.003186 0.000000 0.000000 0.000000 0.383991
  time 24
    0 8.212038 2.923461 -7.694043 -0.652039 -1.323038 0.441476
    1 0.000000 -8.563283 -0.000001 0.346370 -0.128444 -0.160582
    2 -0.657808 -3.130249 0.692628 -1.247037 1.437608 -1.233844
    3 0.000000 1.873662 1.027493 0.000000 0.000000 0.000000
    4 0.000000 -3.037148 1.087932 0.000000 0.000000 0.000000
    5 0.000001 -4.895699 1.027491 0.000000 0.000000 0.000000
    6 0.000001 -6.240505 1.163484 0.000000 0.000000 0.000000
    7 0.000000 -5.243233 2.931374 0.000000 0.000000 0.000000
    8 -0.214729 -14.141506 3.399045 0.000000 0.000000 0.000000
    9 -0.003480 -0.404829 0.000000 0.000000 0.000000 0.000000
    10 -0.519309 -2.501155 -0.278957 -1.003564 0.000000 -0.122173
    11 -0.010598 -1.208185 0.000001 -1.090831 0.000000 0.000000
    12 0.000000 -0.763067 0.000000 -1.343903 0.000000 0.000000
    13 0.105982 -2.607134 -0.278957 -0.890118 0.000000 -0.148353
    14 0.000000 -1.250579 0.000000 -1.213004 0.000000 0.000000
    15 0.000000 -0.932634 0.000000 -1.483530 0.000000 0.000000
    16 0.763064 -2.490556 -0.278957 -0.349065 0.000000 0.130900
    17 -0.012322 -1.280917 0.000001 -0.322892 0.000000 0.000000
    18 -0.001697 -0.749371 0.000001 -0.593412 0.000000 0.000000
    19 0.354567 0.016267 0.318134 0.342077 -0.443527 -1.083976
    20 1.887164 0.012877 0.000001 -0.305433 0.000000 -0.401426
    21 1.001874 -0.000270 0.000001 0.000000 0.000000 -0.488692
    22 -1.123358 -2.195093 -0.278957 -0.933751 0.000000 -0.087266
    23 0.010772 -0.963791 0.000000 -0.610865 0.000000 0.000000
    24 -0.010412 -0.631916 0.000000 -1.213004 0.000000 0.000000
    25 -1.065950 -10.002019 -8.768141 -0.504199 0.235261 0.716719
    26 0.089928 -8.543161 0.000001 0.538694 0.017885 0.229038
    27 0.000000 -0.359713 0.000000 0.000000 0.000000 0.000000
    28 -0.170479 -2.636146 -0.277655 -1.692969 0.000000 0.000000
    29 0.010600 -1.261177 0.000001 -0.253073 0.000000 0.000000
    30 -0.000001 -0.943233 -0.000001 -0.532326 0.000000 0.000000
    31 -0.827563 -2.508973 -0.277656 -1.186834 0.000000 0.000000
    32 0.000000 -1.292971 -0.000001 -0.811554 0.000000 0.000000
    33 0.000000 -0.752465 0.000000 -0.445059 0.000000 0.000000
    34 0.444212 -2.561960 -0.277655 -1.727307 -0.046226 -0.024599
    35 0.021022 -1.208186 0.000000 -0.427606 0.000000 0.000000
    36 0.010597 -0.741866 -0.000001 -0.453786 0.000000 0.000000
    37 1.047445 -2.222819 -0.277655 -1.508123 -0.078971 -0.038609
    38 0.000001 -0.996223 0.000001 -0.863938 0.000000 0.000000
    39 -0.000001 -0.614690 0.000000 -0.523599 0.000000 0.000000
    40 -0.308254 -0.007814 0.307166 -0.145110 -0.159878 -2.467082
    41 1.978379 0.019543 0.000000 -0.091660 -0.050705 0.045957
    42 0.982426 0.003186 0.000000 0.000000 0.000000 0.383991
  time 25
    0 8.192506 3.009401 -7.694043 -0.694958 -1.306214 0.493275
    1 0.000000 -8.563283 -0.000001 0.343962 -0.134999 -0.142137
    2 -0.657808 -3.130249 0.692628 -1.247037 1.437608 -1.233844
    3 0.000000 1.873662 1.027493 0.000000 0.000000 0.000000
    4 0.000000 -3.037148 1.087932 0.000000 0.000000 0.000000
    5 0.000001 -4.895699 1.027491 0.000000 0.000000 0.000000
    6 0.000001 -6.240505 1.163484 0.000000 0.000000 0.000000
    7 0.000000 -5.243233 2.931374 0.000000 0.000000 0.000000
    8 -0.214729 -14.141506 3.399045 0.000000 0.000000 0.000000
    9 -0.003480 -0.404829 0.000000 0.000000 0.000000 0.000000
    10 -0.519309 -2.501155 -0.278957 -1.003564 0.000000 -0.122173
    11 -0.010598 -1.208185 0.000001 -1.090831 0.000000 0.000000
    12 0.000000 -0.763067 0.000000 -1.343903 0.000000 0.000000
    13 0.105982 -2.607134 -0.278957 -0.890118 0.000000 -0.148353
    14 0.000000 -1.250579 0.000000 -1.213004 0.000000 0.000000
    15 0.000000 -0.932634 0.000000 -1.483530 0.000000 0.000000
    16 0.763064 -2.490556 -0.278957 -0.349065 0.000000 0.130900
    17 -0.012322 -1.280917 0.000001 -0.322892 0.000000 0.000000
    18 -0.001697 -0.749371 0.000001 -0.593412 0.000000 0.000000
    19 0.354567 0.016267 0.318134 0.342077 -0.443527 -1.083976
    20 1.887164 0.012877 0.000001 -0.305433 0.000000 -0.401426
    21 1.001874 -0.000270 0.000001 0.000000 0.000000 -0.488692
    22 -1.123358 -2.195093 -0.278957 -0.933751 0.000000 -0.087266
    23 0.010772 -0.963791 0.000000 -0.610865 0.000000 0.000000
    24 -0.010412 -0.631916 0.000000 -1.213004 0.000000 0.000000
    25 -0.925321 -9.990300 -8.486882 -0.538961 0.244653 0.713915
    26 0.089928 -8.543161 0.000001 0.538694 0.017885 0.229038
    27 0.000000 -0.359713 0.000000 0.000000 0.000000 0.000000
    28 -0.170479 -2.636146 -0.277655 -1.692969 0.000000 0.000000
    29 0.010600 -1.261177 0.000001 -0.253073 0.000000 0.000000
    30 -0.000001 -0.943233 -0.000001 -0.532326 0.000000 0.000000
    31 -0.827563 -2.508973 -0.277656 -1.186834 0.000000 0.000000
    32 0.000000 -1.292971 -0.000001 -0.811554 0.000000 0.000000
    33 0.000000 -0.752465 0.000000 -0.445059 0.000000 0.000000
    34 0.444212 -2.561960 -0.277655 -1.727307 -0.046226 -0.024599
    35 0.021022 -1.208186 0.000000 -0.427606 0.000000 0.000000
    36 0.010597 -0.741866 -0.000001 -0.453786 0.000000 0.000000
    37 1.047445 -2.222819 -0.277655 -1.508123 -0.078971 -0.038609
    38 0.000001 -0.996223 0.000001 -0.863938 0.000000 0.000000
    39 -0.000001 -0.614690 0.000000 -0.523599 0.000000 0.000000
    40 -0.308254 -0.007814 0.307166 -0.145110 -0.159878 -2.467082
    41 1.978379 0.019543 0.000000 -0.091660 -0.050705 0.045957
    42 0.982426 0.003186 0.000000 0.000000 0.000000 0.383991
  time 26
    0 8.169068 3.103154 -7.694043 -0.719207 -1.302374 0.520461
    1 0.000000 -8.563283 -0.000001 0.341972 -0.140141 -0.127672
    2 -0.657808 -3.130249 0.692628 -1.247037 1.437608 -1.233844
    3 0.000000 1.873662 1.027493 0.000000 0.000000 0.000000
    4 0.000000 -3.037148 1.087932 0.000000 0.000000 0.000000
    5 0.000001 -4.895699 1.027491 0.000000 0.000000 0.000000
    6 0.000001 -6.240505 1.163484 0.000000 0.000000 0.000000
    7 0.000000 -5.243233 2.931374 0.000000 0.000000 0.000000
    8 -0.214729 -14.141506 3.399045 0.000000 0.000000 0.000000
    9 -0.003480 -0.404829 0.000000 0.000000 0.000000 0.000000
    10 -0.519309 -2.501155 -0.278957 -1.003564 0.000000 -0.122173
    11 -0.010598 -1.208185 0.000001 -1.090831 0.000000 0.000000
    12 0.000000 -0.763067 0.000000 -1.343903 0.000000 0.000000
    13 0.105982 -2.607134 -0.278957 -0.890118 0.000000 -0.148353
    14 0.000000 -1.250579 0.000000 -1.213004 0.000000 0.000000
    15 0.000000 -0.932634 0.000000 -1.483530 0.000000 0.000000
    16 0.763064 -2.490556 -0.278957 -0.349065 0.000000 0.130900
    17 -0.012322 -1.280917 0.000001 -0.322892 0.000000 0.000000
    18 -0.001697 -0.749371 0.000001 -0.593412 0.000000 0.000000
    19 0.354567 0.016267 0.318134 0.342077 -0.443527 -1.083976
    20 1.887164 0.012877 0.000001 -0.305433 0.000000 -0.401426
    21 1.001874 -0.000270 0.000001 0.000000 0.000000 -0.488692
    22 -1.123358 -2.195093 -0.278957 -0.933751 0.000000 -0.087266
    23 0.010772 -0.963791 0.000000 -0.610865 0.000000 0.000000
    24 -0.010412 -0.631916 0.000000 -1.213004 0.000000 0.000000
    25 -0.815943 -9.939517 -8.318908 -0.562051 0.249792 0.704913
    26 0.089928 -8.543161 0.000001 0.538694 0.017885 0.229038
    27 0.000000 -0.359713 0.000000 0.000000 0.000000 0.000000
    28 -0.170479 -2.636146 -0.277655 -1.692969 0.000000 0.000000
    29 0.010600 -1.261177 0.000001 -0.253073 0.000000 0.000000
    30 -0.000001 -0.943233 -0.000001 -0.532326 0.000000 0.000000
    31 -0.827563 -2.508973 -0.277656 -1.186834 0.000000 0.000000
    32 0.000000 -1.292971 -0.000001 -0.811554 0.000000 0.000000
    33 0.000000 -0.752465 0.000000 -0.445059 0.000000 0.000000
    34 0.444212 -2.561960 -0.277655 -1.727307 -0.046226 -0.024599
    35 0.021022 -1.208186 0.000000 -0.427606 0.000000 0.000000
    36 0.010597 -0.741866 -0.000001 -0.453786 0.000000 0.000000
    37 1.047445 -2.222819 -0.277655 -1.508123 -0.078971 -0.038609
    38 0.000001 -0.996223 0.000001 -0.863938 0.000000 0.000000
    39 -0.000001 -0.614690 0.000000 -0.523599 0.000000 0.000000
    40 -0.308254 -0.007814 0.307166 -0.145110 -0.159878 -2.467082
    41 1.978379 0.019543 0.000000 -0.091660 -0.050705 0.045957
    42 0.982426 0.003186 0.000000 0.000000 0.000000 0.383991
  time 27
    0 8.145630 3.200813 -7.694043 -0.734086 -1.307457 0.534404
    1 0.000000 -8.563283 -0.000001 0.341661 -0.140944 -0.125395
    2 -0.657808 -3.130249 0.692628 -1.247037 1.437608 -1.233844
    3 0.000000 1.873662 1.027493 0.000000 0.000000 0.000000
    4 0.000000 -3.037148 1.087932 0.000000 0.000000 0.000000
    5 0.000001 -4.895699 1.027491 0.000000 0.000000 0.000000
    6 0.000001 -6.240505 1.163484 0.000000 0.000000 0.000000
    7 0.000000 -5.243233 2.931374 0.000000 0.000000 0.000000
    8 -0.214729 -14.141506 3.399045 0.000000 0.000000 0.000000
    9 -0.003480 -0.404829 0.000000 0.000000 0.000000 0.000000
    10 -0.519309 -2.501155 -0.278957 -1.003564 0.000000 -0.122173
    11 -0.010598 -1.208185 0.000001 -1.090831 0.000000 0.000000
    12 0.000000 -0.763067 0.000000 -1.343903 0.000000 0.000000
    13 0.105982 -2.607134 -0.278957 -0.890118 0.000000 -0.148353
    14 0.000000 -1.250579 0.000000 -1.213004 0.000000 0.000000
    15 0.000000 -0.932634 0.000000 -1.483530 0.000000 0.000000
    16 0.763064 -2.490556 -0.278957 -0.349065 0.000000 0.130900
    17 -0.012322 -1.280917 0.000001 -0.322892 0.000000 0.000000
    18 -0.001697 -0.749371 0.000001 -0.593412 0.000000 0.000000
    19 0.354567 0.016267 0.318134 0.342077 -0.443527 -1.083976
    20 1.887164 0.012877 0.000001 -0.305433 0.000000 -0.401426
    21 1.001874 -0.000270 0.000001 0.000000 0.000000 -0.488692
    22 -1.123358 -2.195093 -0.278957 -0.933751 0.000000 -0.087266
    23 0.010772 -0.963791 0.000000 -0.610865 0.000000 0.000000
    24 -0.010412 -0.631916 0.000000 -1.213004 0.000000 0.000000
    25 -0.698751 -9.892641 -8.350159 -0.577461 0.252096 0.691852
    26 0.089928 -8.543161 0.000001 0.538694 0.017885 0.229038
    27 0.000000 -0.359713 0.000000 0.000000 0.000000 0.000000
    28 -0.170479 -2.636146 -0.277655 -1.692969 0.000000 0.000000
    29 0.010600 -1.261177 0.000001 -0.253073 0.000000 0.000000
    30 -0.000001 -0.943233 -0.000001 -0.532326 0.000000 0.000000
    31 -0.827563 -2.508973 -0.277656 -1.186834 0.000000 0.000000
    32 0.000000 -1.292971 -0.000001 -0.811554 0.000000 0.000000
    33 0.000000 -0.752465 0.000000 -0.445059 0.000000 0.000000
    34 0.444212 -2.561960 -0.277655 -1.727307 -0.046226 -0.024599
    35 0.021022 -1.208186 0.000000 -0.427606 0.000000 0.000000
    36 0.010597 -0.741866 -0.000001 -0.453786 0.000000 0.000000
    37 1.047445 -2.222819 -0.277655 -1.508123 -0.078971 -0.038609
    38 0.000001 -0.996223 0.000001 -0.863938 0.000000 0.000000
    39 -0.000001 -0.614690 0.000000 -0.523599 0.000000 0.000000
    40 -0.308254 -0.007814 0.307166 -0.145110 -0.159878 -2.467082
    41 1.978379 0.019543 0.000000 -0.091660 -0.050705 0.045957
    42 0.982426 0.003186 0.000000 0.000000 0.000000 0.383991
  time 28
    0 8.126098 3.282847 -7.694043 -0.745245 -1.316988 0.542427
    1 0.000000 -8.563283 -0.000001 0.343302 -0.136713 -0.137295
    2 -0.657808 -3.130249 0.692628 -1.247037 1.437608 -1.233844
    3 0.000000 1.873662 1.027493 0.000000 0.000000 0.000000
    4 0.000000 -3.037148 1.087932 0.000000 0.000000 0.000000
    5 0.000001 -4.895699 1.027491 0.000000 0.000000 0.000000
    6 0.000001 -6.240505 1.163484 0.000000 0.000000 0.000000
    7 0.000000 -5.243233 2.931374 0.000000 0.000000 0.000000
    8 -0.214729 -14.141506 3.399045 0.000000 0.000000 0.000000
    9 -0.003480 -0.404829 0.000000 0.000000 0.000000 0.000000
    10 -0.519309 -2.501155 -0.278957 -1.003564 0.000000 -0.122173
    11 -0.010598 -1.208185 0.000001 -1.090831 0.000000 0.000000
    12 0.000000 -0.763067 0.000000 -1.343903 0.000000 0.000000
    13 0.105982 -2.607134 -0.278957 -0.890118 0.000000 -0.148353
    14 0.000000 -1.250579 0.000000 -1.213004 0.000000 0.000000
    15 0.000000 -0.932634 0.000000 -1.483530 0.000000 0.000000
    16 0.763064 -2.490556 -0.278957 -0.349065 0.000000 0.130900
    17 -0.012322 -1.280917 0.000001 -0.322892 0.000000 0.000000
    18 -0.001697 -0.749371 0.000001 -0.593412 0.000000 0.000000
    19 0.354567 0.016267 0.318134 0.342077 -0.443527 -1.083976
    20 1.887164 0.012877 0.000001 -0.305433 0.000000 -0.401426
    21 1.001874 -0.000270 0.000001 0.000000 0.000000 -0.488692
    22 -1.123358 -2.195093 -0.278957 -0.933751 0.000000 -0.087266
    23 0.010772 -0.963791 0.000000 -0.610865 0.000000 0.000000
    24 -0.010412 -0.631916 0.000000 -1.213004 0.000000 0.000000
    25 -0.585467 -9.837952 -8.549384 -0.589031 0.252805 0.676799
    26 0.089928 -8.543161 0.000001 0.538694 0.017885 0.229038
    27 0.000000 -0.359713 0.000000 0.000000 0.000000 0.000000
    28 -0.170479 -2.636146 -0.277655 -1.692969 0.000000 0.000000
    29 0.010600 -1.261177 0.000001 -0.253073 0.000000 0.000000
    30 -0.000001 -0.943233 -0.000001 -0.532326 0.000000 0.000000
    31 -0.827563 -2.508973 -0.277656 -1.186834 0.000000 0.000000
    32 0.000000 -1.292971 -0.000001 -0.811554 0.000000 0.000000
    33 0.000000 -0.752465 0.000000 -0.445059 0.000000 0.000000
    34 0.444212 -2.561960 -0.277655 -1.727307 -0.046226 -0.024599
    35 0.021022 -1.208186 0.000000 -0.427606 0.000000 0.000000
    36 0.010597 -0.741866 -0.000001 -0.453786 0.000000 0.000000
    37 1.047445 -2.222819 -0.277655 -1.508123 -0.078971 -0.038609
    38 0.000001 -0.996223 0.000001 -0.863938 0.000000 0.000000
    39 -0.000001 -0.614690 0.000000 -0.523599 0.000000 0.000000
    40 -0.308254 -0.007814 0.307166 -0.145110 -0.159878 -2.467082
    41 1.978379 0.019543 0.000000 -0.091660 -0.050705 0.045957
    42 0.982426 0.003186 0.000000 0.000000 0.000000 0.383991
  time 29
    0 8.110472 3.341442 -7.694043 -0.757262 -1.326491 0.551151
    1 0.000000 -8.563283 -0.000001 0.345639 -0.130469 -0.154877
    2 -0.657808 -3.130249 0.692628 -1.247037 1.437608 -1.233844
    3 0.000000 1.873662 1.027493 0.000000 0.000000 0.000000
    4 0.000000 -3.037148 1.087932 0.000000 0.000000 0.000000
    5 0.000001 -4.895699 1.027491 0.000000 0.000000 0.000000
    6 0.000001 -6.240505 1.163484 0.000000 0.000000 0.000000
    7 0.000000 -5.243233 2.931374 0.000000 0.000000 0.000000
    8 -0.214729 -14.141506 3.399045 0.000000 0.000000 0.000000
    9 -0.003480 -0.404829 0.000000 0.000000 0.000000 0.000000
    10 -0.519309 -2.501155 -0.278957 -1.003564 0.000000 -0.122173
    11 -0.010598 -1.208185 0.000001 -1.090831 0.000000 0.000000
    12 0.000000 -0.763067 0.000000 -1.343903 0.000000 0.000000
    13 0.105982 -2.607134 -0.278957 -0.890118 0.000000 -0.148353
    14 0.000000 -1.250579 0.000000 -1.213004 0.000000 0.000000
    15 0.000000 -0.932634 0.000000 -1.483530 0.000000 0.000000
    16 0.763064 -2.490556 -0.278957 -0.349065 0.000000 0.130900
    17 -0.012322 -1.280917 0.000001 -0.322892 0.000000 0.000000
    18 -0.001697 -0.749371 0.000001 -0.593412 0.000000 0.000000
    19 0.354567 0.016267 0.318134 0.342077 -0.443527 -1.083976
    20 1.887164 0.012877 0.000001 -0.305433 0.000000 -0.401426
    21 1.001874 -0.000270 0.000001 0.000000 0.000000 -0.488692
    22 -1.123358 -2.195093 -0.278957 -0.933751 0.000000 -0.087266
    23 0.010772 -0.963791 0.000000 -0.610865 0.000000 0.000000
    24 -0.010412 -0.631916 0.000000 -1.213004 0.000000 0.000000
    25 -0.472182 -9.771543 -8.920489 -0.600550 0.253337 0.661820
    26 0.089928 -8.543161 0.000001 0.538694 0.017885 0.229038
    27 0.000000 -0.359713 0.000000 0.000000 0.000000 0.000000
    28 -0.170479 -2.636146 -0.277655 -1.692969 0.000000 0.000000
    29 0.010600 -1.261177 0.000001 -0.253073 0.000000 0.000000
    30 -0.000001 -0.943233 -0.000001 -0.532326 0.000000 0.000000
    31 -0.827563 -2.508973 -0.277656 -1.186834 0.000000 0.000000
    32 0.000000 -1.292971 -0.000001 -0.811554 0.000000 0.000000
    33 0.000000 -0.752465 0.000000 -0.445059 0.000000 0.000000
    34 0.444212 -2.561960 -0.277655 -1.727307 -0.046226 -0.024599
    35 0.021022 -1.208186 0.000000 -0.427606 0.000000 0.000000
    36 0.010597 -0.741866 -0.000001 -0.453786 0.000000 0.000000
    37 1.047445 -2.222819 -0.277655 -1.508123 -0.078971 -0.038609
    38 0.000001 -0.996223 0.000001 -0.863938 0.000000 0.000000
    39 -0.000001 -0.614690 0.000000 -0.523599 0.000000 0.000000
    40 -0.308254 -0.007814 0.307166 -0.145110 -0.159878 -2.467082
    41 1.978379 0.019543 0.000000 -0.091660 -0.050705 0.045957
    42 0.982426 0.003186 0.000000 0.000000 0.000000 0.383991
  time 30
    0 8.106566 3.364881 -7.694043 -0.774287 -1.331381 0.567197
    1 0.000000 -8.563283 -0.000001 0.347509 -0.125220 -0.169570
    2 -0.657808 -3.130249 0.692628 -1.247037 1.437608 -1.233844
    3 0.000000 1.873662 1.027493 0.000000 0.000000 0.000000
    4 0.000000 -3.037148 1.087932 0.000000 0.000000 0.000000
    5 0.000001 -4.895699 1.027491 0.000000 0.000000 0.000000
    6 0.000001 -6.240505 1.163484 0.000000 0.000000 0.000000
    7 0.000000 -5.243233 2.931374 0.000000 0.000000 0.000000
    8 -0.214729 -14.141506 3.399045 0.000000 0.000000 0.000000
    9 -0.003480 -0.404829 0.000000 0.000000 0.000000 0.000000
    10 -0.519309 -2.501155 -0.278957 -1.003564 0.000000 -0.122173
    11 -0.010598 -1.208185 0.000001 -1.090831 0.000000 0.000000
    12 0.000000 -0.763067 0.000000 -1.343903 0.000000 0.000000
    13 0.105982 -2.607134 -0.278957 -0.890118 0.000000 -0.148353
    14 0.000000 -1.250579 0.000000 -1.213004 0.000000 0.000000
    15 0.000000 -0.932634 0.000000 -1.483530 0.000000 0.000000
    16 0.763064 -2.490556 -0.278957 -0.349065 0.000000 0.130900
    17 -0.012322 -1.280917 0.000001 -0.322892 0.000000 0.000000
    18 -0.001697 -0.749371 0.000001 -0.593412 0.000000 0.000000
    19 0.354567 0.016267 0.318134 0.342077 -0.443527 -1.083976
    20 1.887164 0.012877 0.000001 -0.305433 0.000000 -0.401426
    21 1.001874 -0.000270 0.000001 0.000000 0.000000 -0.488692
    22 -1.123358 -2.195093 -0.278957 -0.933751 0.000000 -0.087266
    23 0.010772 -0.963791 0.000000 -0.610865 0.000000 0.000000
    24 -0.010412 -0.631916 0.000000 -1.213004 0.000000 0.000000
    25 -0.370616 -9.697322 -9.463474 -0.616063 0.255020 0.648685
    26 0.089928 -8.543161 0.000001 0.538694 0.017885 0.229038
    27 0.000000 -0.359713 0.000000 0.000000 0.000000 0.000000
    28 -0.170479 -2.636146 -0.277655 -1.692969 0.000000 0.000000
    29 0.010600 -1.261177 0.000001 -0.253073 0.000000 0.000000
    30 -0.000001 -0.943233 -0.000001 -0.532326 0.000000 0.000000
    31 -0.827563 -2.508973 -0.277656 -1.186834 0.000000 0.000000
    32 0.000000 -1.292971 -0.000001 -0.811554 0.000000 0.000000
    33 0.000000 -0.752465 0.000000 -0.445059 0.000000 0.000000
    34 0.444212 -2.561960 -0.277655 -1.727307 -0.046226 -0.024599
    35 0.021022 -1.208186 0.000000 -0.427606 0.000000 0.000000
    36 0.010597 -0.741866 -0.000001 -0.453786 0.000000 0.000000
    37 1.047445 -2.222819 -0.277655 -1.508123 -0.078971 -0.038609
    38 0.000001 -0.996223 0.000001 -0.863938 0.000000 0.000000
    39 -0.000001 -0.614690 0.000000 -0.523599 0.000000 0.000000
    40 -0.308254 -0.007814 0.307166 -0.145110 -0.159878 -2.467082
    41 1.978379 0.019543 0.000000 -0.091660 -0.050705 0.045957
    42 0.982426 0.003186 0.000000 0.000000 0.000000 0.383991
end
