// Created by Crowbar 0.49.0.0

$modelname "weapons/tfa_cso/c_famas.mdl"

$bodygroup "hands"
{
	studio "v_famas_f_famas_Male_hand_Low"
}

$bodygroup "weapon"
{
	studio "v_famas_famas"
}

$CDMaterials "models\weapons\tfa_cso\famas"

$attachment 0 "STOCK" 0 14.5 -2.9
//$attachment 1 "STOCK" -0.8 -4.4 -3.2

$definebone "Bip01" "" -1.785211 -1.593256 -27.456055 0.000000 -89.999928 0.000000 0.000000 0.000000 0.000000 -0.000000 0.000000 0.000000
$definebone "Bip01 Pelvis" "Bip01" 0.000000 0.000000 0.000000 -89.999983 -89.998207 0.000000 0.000000 0.000000 0.000000 0.000000 0.000000 0.000000
$definebone "Bip01 Spine" "Bip01 Pelvis" 3.435066 -0.003090 0.000005 -0.000057 0.045607 -0.000229 0.000000 0.000000 0.000000 -0.000000 -0.000000 0.000000
$definebone "Bip01 Spine1" "Bip01 Spine" 3.883118 -0.003092 0.000000 -0.000000 -0.000000 0.000000 0.000000 0.000000 0.000000 -0.000000 -0.000000 0.000000
$definebone "Bip01 Spine2" "Bip01 Spine1" 3.883120 -0.003092 0.000000 -0.000000 -0.000000 0.000000 0.000000 0.000000 0.000000 -0.000000 -0.000000 0.000000
$definebone "Bip01 Spine3" "Bip01 Spine2" 3.883116 -0.003092 0.000000 -0.000000 -0.000000 0.000000 0.000000 0.000000 0.000000 -0.000000 -0.000000 0.000000
$definebone "Bip01 Neck" "Bip01 Spine3" 3.883121 -0.001784 0.000000 -0.000000 -0.000000 0.000000 0.000000 0.000000 0.000000 -0.000000 -0.000000 0.000000
$definebone "Bip01 L Clavicle" "Bip01 Neck" -0.000005 0.001781 1.045454 -78.540824 179.955160 -0.000802 -0.000000 0.000000 0.000000 -0.000000 -0.000000 0.000000
$definebone "Bip01 L UpperArm" "Bip01 L Clavicle" 3.883118 0.000000 -0.000001 3.197791 -6.600704 -45.429429 0.000000 -0.000000 -0.000000 -0.000000 0.000000 0.000001
$definebone "Bip01 L Forearm" "Bip01 L UpperArm" 8.961033 -0.000000 -0.000003 -0.000001 -144.352361 0.000003 0.000000 -0.000000 0.000000 -0.000001 -0.000005 0.000003
$definebone "Bip01 L Hand" "Bip01 L Forearm" 8.961034 0.000000 0.000001 46.867259 68.285288 -156.209324 0.000000 0.000000 0.000000 0.000001 -0.000000 -0.000001
$definebone "STOCK" "Bip01 L Hand" 2.216100 0.436244 -0.089646 1.161155 -87.921290 -2.923060 0.000000 0.000000 -0.000000 -0.000002 0.000000 -0.000001
$definebone "Dummy22" "STOCK" -0.002090 -3.871861 4.477147 0.000001 89.999983 89.999983 0.000000 0.000000 0.000000 -0.000000 -0.000001 0.000002
$definebone "CHARGE" "Dummy22" -0.544868 0.004793 -0.010478 -89.999983 -89.999983 0.000000 -0.000000 0.000000 0.000000 -0.000002 0.000000 -0.000001
$definebone "Bip01 R Clavicle" "Bip01 Neck" -0.000005 0.001787 -1.045454 79.036327 140.621097 -39.851566 0.000000 0.000000 0.000000 -0.000000 -0.000000 -0.000001
$definebone "Bip01 R UpperArm" "Bip01 R Clavicle" 3.883118 0.000000 0.000002 -25.910045 -138.786973 102.811533 0.000000 0.000000 0.000000 0.000007 -0.000005 0.000004
$definebone "Bip01 R Forearm" "Bip01 R UpperArm" 8.961036 0.000001 -0.000004 0.000004 -67.427901 -0.000003 0.000000 0.000000 0.000000 0.000004 0.000007 -0.000003
$definebone "Bip01 R Hand" "Bip01 R Forearm" 8.961039 -0.000003 0.000000 6.591484 34.212056 138.593283 0.000000 0.000000 0.000000 -0.000005 -0.000004 -0.000005
$definebone "Bip01 R Finger0" "Bip01 R Hand" 0.642858 0.500636 1.160049 -41.999981 -0.041089 90.061393 0.000000 0.000000 0.000000 -0.000004 -0.000004 0.000000
$definebone "Bip01 R Finger01" "Bip01 R Finger0" 1.164115 0.000000 -0.000003 -0.000005 -2.000028 0.000000 -0.000001 0.000000 0.000000 -0.000005 -0.000004 0.000000
$definebone "Bip01 R Finger02" "Bip01 R Finger01" 0.947482 -0.000001 0.000001 -0.000003 -13.000014 0.000001 0.000000 0.000000 0.000000 -0.000003 -0.000002 0.000001
$definebone "Bip01 R Finger1" "Bip01 R Hand" 2.889328 -0.168188 1.032869 -7.293122 40.385604 -6.104416 0.000000 -0.000001 0.000000 0.000003 -0.000008 -0.000008
$definebone "Bip01 R Finger11" "Bip01 R Finger1" 1.200777 0.000000 0.000000 0.000005 37.500034 -0.000003 0.000000 0.000001 0.000000 0.000005 0.000004 -0.000003
$definebone "Bip01 R Finger12" "Bip01 R Finger11" 0.740586 0.000001 0.000001 0.000009 37.500048 0.000002 0.000000 0.000000 -0.000000 0.000009 0.000013 0.000002
$definebone "Bip01 R Finger2" "Bip01 R Hand" 2.985633 -0.166489 0.361958 -0.037815 55.999970 0.025489 -0.000000 0.000002 0.000000 0.000002 -0.000008 -0.000009
$definebone "Bip01 R Finger21" "Bip01 R Finger2" 1.223181 0.000000 0.000001 0.000009 52.500024 -0.000009 -0.000001 0.000000 -0.000000 0.000009 0.000011 -0.000009
$definebone "Bip01 R Finger22" "Bip01 R Finger21" 0.950415 0.000000 0.000002 0.000012 52.500011 0.000002 0.000000 0.000000 0.000000 0.000012 0.000002 0.000002
$definebone "Bip01 R Finger3" "Bip01 R Hand" 2.848552 -0.167758 -0.254627 3.872968 62.759795 7.572318 -0.000000 0.000000 -0.000000 0.000002 -0.000003 -0.000005
$definebone "Bip01 R Finger31" "Bip01 R Finger3" 1.263507 -0.000001 0.000000 0.000008 60.000037 -0.000003 0.000000 0.000000 0.000000 0.000008 0.000007 -0.000003
$definebone "Bip01 R Finger32" "Bip01 R Finger31" 0.753026 0.000002 -0.000001 0.000005 60.000030 0.000002 0.000000 -0.000000 0.000000 0.000005 -0.000003 0.000002
$definebone "Bip01 R Finger4" "Bip01 R Hand" 2.575171 -0.170754 -0.868191 5.105286 71.687337 15.183888 0.000000 0.000001 -0.000000 0.000001 0.000000 -0.000009
$definebone "Bip01 R Finger41" "Bip01 R Finger4" 1.008119 0.000001 -0.000000 0.000005 68.999992 -0.000002 0.000000 0.000000 0.000000 0.000005 0.000002 -0.000002
$definebone "Bip01 R Finger42" "Bip01 R Finger41" 0.643754 0.000003 0.000001 0.000005 68.999992 0.000006 -0.000000 0.000001 0.000000 0.000005 -0.000002 0.000006
$definebone "Bip01 L Finger0" "Bip01 L Hand" 0.642856 0.500634 -1.160047 7.651450 24.850443 -45.582118 0.000000 0.000000 -0.000000 -0.000002 0.000003 0.000005
$definebone "Bip01 L Finger01" "Bip01 L Finger0" 1.164114 0.000003 0.000001 -0.000001 -12.499987 0.000009 0.000000 0.000000 -0.000000 -0.000001 0.000003 0.000009
$definebone "Bip01 L Finger02" "Bip01 L Finger01" 0.947482 0.000002 0.000000 0.000004 -20.499975 0.000009 0.000001 0.000000 -0.000000 0.000004 -0.000005 0.000009
$definebone "Bip01 L Finger1" "Bip01 L Hand" 2.889326 -0.168190 -1.032867 9.451398 -5.583589 -0.964920 0.000000 -0.000000 -0.000000 0.000001 0.000000 -0.000001
$definebone "Bip01 L Finger11" "Bip01 L Finger1" 1.200778 -0.000000 -0.000001 0.000002 38.500015 -0.000000 0.000000 0.000000 0.000000 0.000002 0.000000 -0.000000
$definebone "Bip01 L Finger12" "Bip01 L Finger11" 0.740581 0.000000 -0.000002 0.000001 64.000007 0.000002 0.000000 0.000000 0.000000 0.000001 -0.000006 0.000002
$definebone "Bip01 L Finger2" "Bip01 L Hand" 2.985631 -0.166489 -0.361956 -3.961543 57.501710 -0.024580 0.000000 0.000000 -0.000000 0.000002 0.000009 -0.000000
$definebone "Bip01 L Finger21" "Bip01 L Finger2" 1.223180 0.000000 -0.000002 0.000001 83.499999 0.000002 -0.000001 0.000000 0.000000 0.000001 -0.000005 0.000002
$definebone "Bip01 L Finger22" "Bip01 L Finger21" 0.950413 0.000000 -0.000001 -0.000001 72.000003 0.000001 0.000000 0.000000 0.000000 -0.000001 0.000002 0.000001
$definebone "Bip01 L Finger3" "Bip01 L Hand" 2.848548 -0.167757 0.254628 -4.041470 72.883611 -7.452689 0.000000 0.000000 0.000000 0.000001 0.000005 0.000000
$definebone "Bip01 L Finger31" "Bip01 L Finger3" 1.263506 0.000001 0.000000 0.000000 65.999968 0.000001 0.000000 -0.000000 0.000000 0.000000 -0.000010 0.000001
$definebone "Bip01 L Finger32" "Bip01 L Finger31" 0.753028 -0.000002 -0.000001 -0.000001 81.000034 0.000001 -0.000000 0.000000 0.000000 -0.000001 0.000009 0.000001
$definebone "Bip01 L Finger4" "Bip01 L Hand" 2.575170 -0.170755 0.868194 -2.860891 71.929235 -13.385267 0.000000 0.000000 0.000000 0.000001 0.000003 0.000000
$definebone "Bip01 L Finger41" "Bip01 L Finger4" 1.008116 0.000002 -0.000000 0.000001 50.499978 -0.000001 0.000000 -0.000000 0.000000 0.000001 -0.000007 -0.000001
$definebone "Bip01 L Finger42" "Bip01 L Finger41" 0.643753 0.000001 -0.000001 0.000002 84.499994 0.000003 -0.000000 0.000000 0.000000 0.000002 0.000007 0.000003
$definebone "Dummy23" "STOCK" -0.002090 -2.053351 1.699483 0.000001 89.999983 89.999983 0.000000 0.000000 0.000000 -0.000000 -0.000001 0.000002
$definebone "Object01" "Dummy23" 3.214010 -1.699480 0.002091 -89.999983 -89.999983 0.000000 -0.000000 0.000000 0.000000 -0.000002 0.000000 -0.000001
$definebone "Dummy24" "STOCK" -0.002090 4.186653 0.241229 0.000001 89.999983 89.999983 0.000000 -0.000000 0.000000 -0.000000 -0.000001 0.000002
$definebone "CLIP" "Dummy24" 0.001758 -0.328108 -0.275527 -89.999983 -89.999983 0.000000 0.000000 0.000000 -0.000000 -0.000002 0.000000 -0.000001

$sequence "idle" {
	"v_famas_anims\idle"
	fps 30
	activity "ACT_VM_IDLE" 1
	snap
	loop
}
$sequence "reload" {
	"v_famas_anims\reload"
	{ event 5004 15 "Famas.ClipOut" }
	{ event 5004 47 "Famas.ClipIn" }
	{ event 5004 65 "Famas.Forearm" }
	fps 30
	activity "ACT_VM_RELOAD" 1
	snap
}
$sequence "draw" {
	"v_famas_anims\draw"
	{ event 5004 10 "Famas.Forearm" }
	fps 35
	activity "ACT_VM_DRAW" 1
	snap
}
$sequence "shoot1" {
	"v_famas_anims\shoot1"
	{ event 5001 0 "22" }
	fps 35
	activity "ACT_VM_PRIMARYATTACK" 1
	snap
}
$sequence "shoot2" {
	"v_famas_anims\shoot2"
	{ event 5001 0 "22" }
	fps 35
	activity "ACT_VM_PRIMARYATTACK" 1
	snap
}
$sequence "shoot3" {
	"v_famas_anims\shoot3"
	{ event 5001 0 "22" }
	fps 35
	activity "ACT_VM_PRIMARYATTACK" 1
	snap
}
