// Created by Crowbar 0.71

$modelname "models/weapons/tfa_cso/c_bearfurymk1.mdl"

$include "csonline_gmod.qci"

$bodygroup "weapon"
{
	studio "v_refb_l1"
}
$bodygroup "weapon"
{
	studio "v_refb_l2"
}
$bodygroup "weapon"
{
	studio "v_refb_r1"
}
$bodygroup "weapon"
{
	studio "v_refb_r2"
}

$cdmaterials "models\weapons\tfa_cso\bearfurymk1\"

$attachment 0 "root_bone_L" 15 0 1.5
$attachment 1 "root_bone_R" 15 0 1.5
//$attachment 2 "root_bone_L" 7 0 0
//$attachment 3 "root_bone_R" 7 0 0

$sequence "idle" {
	"v_y21s1jetgunmb_anims\idle"
	activity "ACT_VM_IDLE" 1
	fps 30
	loop
	snap
}
$sequence "shoot1" {
	"v_y21s1jetgunmb_anims\shoot1"
	activity "ACT_VM_PRIMARYATTACK" 1
	{ event 5011 2 "11" }
	fps 30
	snap
}
$sequence "shoot2" {
	"v_y21s1jetgunmb_anims\shoot2"
	activity "ACT_VM_SECONDARYATTACK" 1
	{ event 5001 2 "11" }
	fps 30
	snap
}
$sequence "shootb" {
	"v_y21s1jetgunmb_anims\shootb"
	activity "ACT_VM_DRYFIRE" 1
	{ event 5001 2 "11" }
	{ event 5011 2 "11" }
	fps 30
	snap
}
$sequence "reload" {
	"v_y21s1jetgunmb_anims\reload"
	activity "ACT_VM_RELOAD" 1
	{ event 5004 5 "BearFuryMK1.Reload" }
	fps 30
	snap
}
$sequence "draw" {
	"v_y21s1jetgunmb_anims\draw"
	activity "ACT_VM_DRAW" 1
	{ event 5004 5 "BearFuryMK1.Draw" }
	fps 30
	snap
}