version 1
nodes
  0 "Bone01" -1
  1 "Bone_Lefthand" 0
  2 "Bone_Heart_Root" 1
  3 "Bone_Heart22" 2
  4 "Bone_Heart21" 2
  5 "Bone_Heart20" 2
  6 "Bone_Heart19" 2
  7 "Bone_Heart18" 2
  8 "Bone_Heart17" 2
  9 "Bone_Heart16" 2
  10 "Bone_Heart15" 2
  11 "Bone_Heart14" 2
  12 "Bone_Heart13" 2
  13 "Bone_Heart12" 2
  14 "Bone_Heart11" 2
  15 "Bone_Heart10" 2
  16 "Bone_Heart09" 2
  17 "Bone_Heart08" 2
  18 "Bone_Heart07" 2
  19 "Bone_Heart06" 2
  20 "Bone_Heart00" 2
  21 "Bone_Heart03" 2
  22 "Bone_Heart01" 2
  23 "Bone_Heart05" 2
  24 "Bone04" -1
  25 "Bone_Righthand" 24
  26 "Bone_Arrow_Root" 25
  27 "Bone_Arrow00" 26
  28 "Bone_Arrow01" 27
  29 "Bone_Arrow02" 28
  30 "Bone_Arrow03" 29
  31 "Bone 04" 1
  32 "Bone13" 31
  33 "Bone14" 32
  34 "Bone15" 33
  35 "Bone17" 31
  36 "Bone18" 35
  37 "Bone19" 36
  38 "Bone21" 31
  39 "Bone22" 38
  40 "Bone23" 39
  41 "Bone05" 31
  42 "Bone06" 41
  43 "Bone07" 42
  44 "Bone09" 31
  45 "Bone10" 44
  46 "Bone11" 45
  47 "Bone26" 25
  48 "Bone35" 47
  49 "Bone36" 48
  50 "Bone37" 49
  51 "Bone31" 47
  52 "Bone32" 51
  53 "Bone33" 52
  54 "Bone39" 47
  55 "Bone40" 54
  56 "Bone41" 55
  57 "Bone43" 47
  58 "Bone44" 57
  59 "Bone45" 58
  60 "Bone27" 47
  61 "Bone28" 60
  62 "Bone29" 61
end
skeleton
  time 0
    0 6.801838 1.942964 -7.200335 0.111357 -1.621070 -0.877338
    1 0.000000 -8.563283 0.000000 0.618661 0.877698 0.270150
    2 -1.192515 -2.859134 2.916357 -0.194651 -0.629797 -2.765784
    3 1.252382 0.022832 -2.566491 -2.204871 -0.020119 1.560813
    4 1.121049 -0.460868 3.248204 1.748110 -0.316901 0.042163
    5 2.815902 0.026438 -1.221241 -2.653702 -0.005311 1.551300
    6 2.583418 -0.527653 2.993966 1.705746 0.603675 -0.097083
    7 3.501763 0.034378 1.653659 -0.252726 -3.113263 -1.543614
    8 1.432862 -1.356270 -1.566989 -2.518964 -0.079958 0.320920
    9 2.607458 -1.552344 1.432604 3.128692 0.112591 0.894265
    10 2.474784 -1.425987 -0.073298 -2.848359 -0.034026 0.644901
    11 -0.000625 0.000559 2.622585 0.000000 0.000000 -3.141592
    12 -0.000625 0.000559 -3.348136 3.141592 0.000000 0.000000
    13 -1.251203 0.022832 -2.566492 0.936722 0.020119 -1.560813
    14 -2.814722 0.026438 -1.221241 0.487890 0.005311 -1.551300
    15 -3.508396 0.034379 1.653659 -0.260444 0.028329 -1.597979
    16 -2.496298 -0.519841 3.064280 -1.438914 -0.569243 0.102632
    17 -1.084712 -0.468680 3.263830 -1.396191 0.266266 -0.051559
    18 0.000590 -1.195168 -2.345662 0.618089 0.000000 0.000000
    19 -1.431683 -1.356270 -1.566989 0.622628 0.079959 -0.320920
    20 -0.000625 -2.239614 -0.084813 0.095170 0.000000 0.000000
    21 -2.606279 -1.552344 1.432604 -0.273637 -0.166953 -1.021010
    22 -2.473604 -1.425987 -0.073298 0.194264 0.034026 -0.644900
    23 -0.000625 -2.016194 1.594357 -0.278920 0.000000 0.000000
    24 -9.699027 4.017939 -4.567289 0.290412 0.519990 0.607813
    25 0.089928 -8.543162 0.000000 0.336658 -0.175516 0.114146
    26 -31.002227 25.748078 40.490682 0.486612 -2.791605 -0.712432
    27 -2.076931 0.007429 0.000003 0.000000 1.570796 0.000000
    28 0.000000 -0.000682 1.034103 0.000000 0.000000 0.000000
    29 0.000000 -0.000682 1.161383 0.000000 0.000000 0.000000
    30 0.000000 -0.000682 1.191590 0.000000 0.000000 0.000000
    31 -0.003480 -0.404828 0.000000 -0.000001 0.000000 0.000000
    32 -0.519309 -2.501154 -0.278957 -0.385783 -0.072595 -0.273888
    33 -0.010598 -1.208185 -0.000001 -1.055894 0.000000 0.000000
    34 0.000000 -0.763066 0.000000 -0.602139 0.000000 0.000000
    35 0.105981 -2.607134 -0.278958 -0.535826 -0.068397 -0.215466
    36 0.000000 -1.250580 0.000000 -0.776671 0.000000 0.000000
    37 0.000000 -0.932634 0.000000 -1.230421 0.000000 0.000000
    38 0.763064 -2.490556 -0.278958 -0.330799 -0.113514 -0.187698
    39 -0.012322 -1.280918 0.000000 -0.750491 0.000000 0.000000
    40 -0.001695 -0.745903 0.000571 -0.907571 0.000000 0.000000
    41 0.354567 0.016267 0.318133 0.430988 -0.216714 -0.894104
    42 1.887165 0.012878 0.000000 -0.367979 -0.123456 -0.241983
    43 1.001874 -0.000270 0.000000 0.000000 0.000000 0.103411
    44 -1.123358 -2.195093 -0.278957 -0.155361 -0.023239 -0.234628
    45 0.010772 -0.963791 0.000000 -0.698111 0.000000 0.000000
    46 -0.010413 -0.631916 0.000000 -0.907545 0.000000 0.000000
    47 0.000000 -0.359712 0.000000 0.000000 0.000000 0.000000
    48 -0.170479 -2.636148 -0.277655 -0.331189 0.001388 0.011282
    49 0.010599 -1.261177 0.000001 -0.351029 0.000000 0.000000
    50 -0.000001 -0.943234 0.000000 -0.532326 0.000000 0.000000
    51 -0.827562 -2.508972 -0.277656 -0.489799 -0.000008 -0.000004
    52 0.000001 -1.292972 0.000000 -0.287978 0.000000 0.000000
    53 -0.000002 -0.752465 -0.000001 -0.445059 0.000000 0.000000
    54 0.444213 -2.561962 -0.277655 -0.343178 -0.063148 0.189351
    55 0.021023 -1.208187 0.000001 -0.427606 0.000000 0.000000
    56 0.010596 -0.741867 -0.000001 -0.453786 0.000000 0.000000
    57 1.047446 -2.222821 -0.277655 -0.275594 -0.204434 0.240758
    58 -0.000001 -0.996223 -0.000001 -0.353259 0.000000 0.000000
    59 -0.000001 -0.614690 0.000000 -0.349396 0.000000 0.000000
    60 -0.308256 -0.007814 0.307165 -0.196824 -0.141149 -2.414800
    61 1.978379 0.019544 0.000000 0.498707 0.027096 0.320390
    62 0.980611 0.003731 -0.000910 0.147470 0.041599 0.162594
  time 1
    0 6.661209 1.532795 -6.840949 -0.107750 -1.612340 -0.668472
    1 0.000000 -8.563283 0.000000 0.628314 0.878054 0.290891
    2 -1.344863 -2.546625 2.662443 -0.165006 -0.626831 -2.761010
    3 1.221131 0.046271 -2.476645 -2.232316 -0.020119 1.560813
    4 1.117142 -0.413991 3.177890 1.749069 -0.288893 0.047401
    5 2.714337 0.026438 -1.166552 -2.653702 -0.005311 1.551300
    6 2.513103 -0.508122 2.923652 1.707028 0.617050 -0.094854
    7 3.384572 0.030471 1.626314 -0.253816 -3.113263 -1.543614
    8 1.401611 -1.266423 -1.500581 -2.518964 -0.079958 0.320920
    9 2.435578 -1.747663 1.385727 3.128692 0.112591 0.894265
    10 2.396656 -1.332235 -0.042047 -2.848359 -0.034026 0.644901
    11 -0.000625 0.008372 2.575709 0.000000 0.000000 -3.141592
    12 -0.000625 0.023997 -3.246570 3.141592 0.000000 0.000000
    13 -1.227765 0.057990 -2.488365 0.904687 0.020119 -1.560813
    14 -2.713157 0.026438 -1.166552 0.487890 0.005311 -1.551300
    15 -3.387298 0.030472 1.626314 -0.256021 0.028329 -1.597979
    16 -2.429889 -0.500309 2.982246 -1.437081 -0.590288 0.099264
    17 -1.084712 -0.425710 3.193515 -1.396694 0.255612 -0.053513
    18 0.000590 -1.101415 -2.279254 0.618089 0.000000 0.000000
    19 -1.400432 -1.266423 -1.500581 0.622628 0.079959 -0.320920
    20 0.065783 -2.337273 -0.045749 0.095170 0.000000 0.000000
    21 -2.457837 -1.646097 1.397446 -0.273637 -0.166953 -1.021010
    22 -2.286098 -1.504115 -0.069392 0.194264 0.034026 -0.644900
    23 -0.000625 -2.043538 1.629515 -0.354703 0.000000 0.000000
    24 -9.640431 3.830433 -4.625884 0.275630 0.586728 0.591341
    25 0.089928 -8.543162 0.000000 0.298578 -0.186303 0.106898
    26 -31.002227 25.748078 40.490682 0.486612 -2.791605 -0.712432
    27 -2.076931 0.007429 0.000003 0.000000 1.570796 0.000000
    28 0.000000 -0.000682 1.034103 0.000000 0.000000 0.000000
    29 0.000000 -0.000682 1.161383 0.000000 0.000000 0.000000
    30 0.000000 -0.000682 1.191590 0.000000 0.000000 0.000000
    31 -0.003480 -0.404828 0.000000 -0.000001 0.000000 0.000000
    32 -0.519309 -2.501154 -0.278957 -0.385783 -0.072595 -0.273888
    33 -0.010598 -1.208185 -0.000001 -1.055894 0.000000 0.000000
    34 0.000000 -0.763066 0.000000 -0.602139 0.000000 0.000000
    35 0.105981 -2.607134 -0.278958 -0.535826 -0.068397 -0.215466
    36 0.000000 -1.250580 0.000000 -0.776671 0.000000 0.000000
    37 0.000000 -0.932634 0.000000 -1.230421 0.000000 0.000000
    38 0.763064 -2.490556 -0.278958 -0.330799 -0.113514 -0.187698
    39 -0.012322 -1.280918 0.000000 -0.750491 0.000000 0.000000
    40 -0.001695 -0.745903 0.000571 -0.907571 0.000000 0.000000
    41 0.354567 0.016267 0.318133 0.422390 -0.212435 -0.907871
    42 1.887165 0.012878 0.000000 -0.374774 -0.085537 -0.256749
    43 1.001874 -0.000270 0.000000 -0.003739 0.013962 0.055489
    44 -1.123358 -2.195093 -0.278957 -0.155361 -0.023239 -0.234628
    45 0.010772 -0.963791 0.000000 -0.698111 0.000000 0.000000
    46 -0.010413 -0.631916 0.000000 -0.907545 0.000000 0.000000
    47 0.000000 -0.359712 0.000000 0.000000 0.000000 0.000000
    48 -0.170479 -2.636148 -0.277655 -0.331189 0.001388 0.011282
    49 0.010599 -1.261177 0.000001 -0.351029 0.000000 0.000000
    50 -0.000001 -0.943234 0.000000 -0.532326 0.000000 0.000000
    51 -0.827562 -2.508972 -0.277656 -0.489799 -0.000008 -0.000004
    52 0.000001 -1.292972 0.000000 -0.287978 0.000000 0.000000
    53 -0.000002 -0.752465 -0.000001 -0.445059 0.000000 0.000000
    54 0.444213 -2.561962 -0.277655 -0.343178 -0.063148 0.189351
    55 0.021023 -1.208187 0.000001 -0.427606 0.000000 0.000000
    56 0.010596 -0.741867 -0.000001 -0.453786 0.000000 0.000000
    57 1.047446 -2.222821 -0.277655 -0.275594 -0.204434 0.240758
    58 -0.000001 -0.996223 -0.000001 -0.353259 0.000000 0.000000
    59 -0.000001 -0.614690 0.000000 -0.349396 0.000000 0.000000
    60 -0.308256 -0.007814 0.307165 -0.195349 -0.134702 -2.423730
    61 1.978379 0.019544 0.000000 0.482599 -0.009245 0.286652
    62 0.980611 0.003731 -0.000910 0.144942 0.049748 0.107259
  time 2
    0 6.520580 1.138252 -6.493282 1.513755 -1.549769 -2.305350
    1 0.000000 -8.563283 0.000000 0.624749 0.875690 0.313705
    2 -1.372208 -2.327868 2.490562 -0.088176 -0.608771 -2.743147
    3 1.166442 0.081428 -2.336015 -2.256333 -0.020119 1.560813
    4 1.109330 -0.339770 3.068511 1.750926 -0.244742 0.055478
    5 2.558082 0.030344 -1.084518 -2.653702 -0.005311 1.551300
    6 2.399819 -0.476871 2.806461 1.709126 0.638107 -0.091270
    7 3.200972 0.026565 1.583344 -0.255530 -3.113263 -1.543614
    8 1.346922 -1.133607 -1.395109 -2.518964 -0.079958 0.320920
    9 2.173851 -2.052359 1.311506 3.128692 0.112591 0.894265
    10 2.345874 -1.070508 0.020455 -2.848359 -0.034026 0.644901
    11 -0.000625 0.023997 2.505394 0.000000 0.000000 -3.141592
    12 -0.000625 0.063061 -3.094222 3.141592 0.000000 0.000000
    13 -1.188702 0.116585 -2.363361 0.876655 0.020119 -1.560813
    14 -2.556902 0.030344 -1.084518 0.487890 0.005311 -1.551300
    15 -3.195886 0.026566 1.579438 -0.249070 0.028329 -1.597979
    16 -2.332230 -0.469058 2.853336 -1.433941 -0.623438 0.093775
    17 -1.084712 -0.359302 3.080230 -1.397437 0.238821 -0.056545
    18 0.000590 -0.956879 -2.173782 0.618089 0.000000 0.000000
    19 -1.345743 -1.133607 -1.395109 0.622628 0.079959 -0.320920
    20 0.218132 -2.384149 0.040191 0.095170 0.000000 0.000000
    21 -2.211735 -1.747663 1.327132 -0.273637 -0.166953 -1.021010
    22 -1.989214 -1.582242 -0.053766 0.194264 0.034026 -0.644900
    23 -0.000625 -2.086509 1.688110 -0.474098 0.000000 0.000000
    24 -9.570117 3.615583 -4.688386 0.262258 0.658270 0.575754
    25 0.089928 -8.543162 0.000000 0.253388 -0.197232 0.099851
    26 -31.002227 25.748078 40.490682 0.486612 -2.791605 -0.712432
    27 -2.076931 0.007429 0.000003 0.000000 1.570796 0.000000
    28 0.000000 -0.000682 1.034103 0.000000 0.000000 0.000000
    29 0.000000 -0.000682 1.161383 0.000000 0.000000 0.000000
    30 0.000000 -0.000682 1.191590 0.000000 0.000000 0.000000
    31 -0.003480 -0.404828 0.000000 -0.000001 0.000000 0.000000
    32 -0.519309 -2.501154 -0.278957 -0.385783 -0.072595 -0.273888
    33 -0.010598 -1.208185 -0.000001 -1.055894 0.000000 0.000000
    34 0.000000 -0.763066 0.000000 -0.602139 0.000000 0.000000
    35 0.105981 -2.607134 -0.278958 -0.535826 -0.068397 -0.215466
    36 0.000000 -1.250580 0.000000 -0.776671 0.000000 0.000000
    37 0.000000 -0.932634 0.000000 -1.230421 0.000000 0.000000
    38 0.763064 -2.490556 -0.278958 -0.330799 -0.113514 -0.187698
    39 -0.012322 -1.280918 0.000000 -0.750491 0.000000 0.000000
    40 -0.001695 -0.745903 0.000571 -0.907571 0.000000 0.000000
    41 0.354567 0.016267 0.318133 0.414927 -0.208488 -0.922236
    42 1.887165 0.012878 0.000000 -0.382756 -0.044501 -0.278059
    43 1.001874 -0.000270 0.000000 -0.008881 0.029722 -0.002118
    44 -1.123358 -2.195093 -0.278957 -0.155361 -0.023239 -0.234628
    45 0.010772 -0.963791 0.000000 -0.698111 0.000000 0.000000
    46 -0.010413 -0.631916 0.000000 -0.907545 0.000000 0.000000
    47 0.000000 -0.359712 0.000000 0.000000 0.000000 0.000000
    48 -0.170479 -2.636148 -0.277655 -0.331189 0.001388 0.011282
    49 0.010599 -1.261177 0.000001 -0.351029 0.000000 0.000000
    50 -0.000001 -0.943234 0.000000 -0.532326 0.000000 0.000000
    51 -0.827562 -2.508972 -0.277656 -0.489799 -0.000008 -0.000004
    52 0.000001 -1.292972 0.000000 -0.287978 0.000000 0.000000
    53 -0.000002 -0.752465 -0.000001 -0.445059 0.000000 0.000000
    54 0.444213 -2.561962 -0.277655 -0.343178 -0.063148 0.189351
    55 0.021023 -1.208187 0.000001 -0.427606 0.000000 0.000000
    56 0.010596 -0.741867 -0.000001 -0.453786 0.000000 0.000000
    57 1.047446 -2.222821 -0.277655 -0.275594 -0.204434 0.240758
    58 -0.000001 -0.996223 -0.000001 -0.353259 0.000000 0.000000
    59 -0.000001 -0.614690 0.000000 -0.349396 0.000000 0.000000
    60 -0.308256 -0.007814 0.307165 -0.193743 -0.127367 -2.433825
    61 1.978379 0.019544 0.000000 0.465773 -0.051034 0.249719
    62 0.980611 0.003731 -0.000910 0.141526 0.058796 0.044410
  time 3
    0 6.383857 0.755427 -6.157334 0.535989 -1.494637 -1.345045
    1 0.000000 -8.563283 0.000000 0.611778 0.869869 0.334047
    2 -1.321425 -2.206771 2.373371 0.011246 -0.580242 -2.720922
    3 1.103940 0.124398 -2.179761 -2.276922 -0.020119 1.560813
    4 1.097611 -0.249924 2.943507 1.753515 -0.194035 0.064539
    5 2.378389 0.030344 -0.990765 -2.653702 -0.005311 1.551300
    6 2.278721 -0.441713 2.681457 1.711714 0.662304 -0.087004
    7 2.993935 0.026565 1.540374 -0.257495 -3.113263 -1.543614
    8 1.288326 -0.977352 -1.281824 -2.518964 -0.079958 0.320920
    9 1.869155 -2.403933 1.229473 3.128692 0.112591 0.894265
    10 2.279465 -0.773624 0.094676 -2.848359 -0.034026 0.644901
    11 -0.000625 0.043529 2.427266 0.000000 0.000000 -3.141592
    12 -0.000625 0.109937 -2.922342 3.141592 0.000000 0.000000
    13 -1.141825 0.186900 -2.222732 0.852626 0.020119 -1.560813
    14 -2.377209 0.030344 -0.990765 0.487890 0.005311 -1.551300
    15 -2.981036 0.026566 1.528655 -0.241088 0.028329 -1.597979
    16 -2.222852 -0.437807 2.708801 -1.429974 -0.661477 0.087148
    17 -1.084712 -0.281175 2.951320 -1.398216 0.219550 -0.060008
    18 0.000590 -0.792812 -2.060497 0.618089 0.000000 0.000000
    19 -1.287147 -0.977352 -1.281824 0.622628 0.079959 -0.320920
    20 0.397825 -2.438838 0.137850 0.095170 0.000000 0.000000
    21 -1.926570 -1.864854 1.245098 -0.273637 -0.166953 -1.021010
    22 -1.641547 -1.672089 -0.038141 0.194264 0.034026 -0.644900
    23 -0.000625 -2.133385 1.754518 -0.611195 0.000000 0.000000
    24 -9.488083 3.377295 -4.746982 0.246552 0.729641 0.557904
    25 0.089928 -8.543162 0.000000 0.208183 -0.208474 0.093283
    26 -31.002227 25.748078 40.490682 0.486612 -2.791605 -0.712432
    27 -2.076931 0.007429 0.000003 0.000000 1.570796 0.000000
    28 0.000000 -0.000682 1.034103 0.000000 0.000000 0.000000
    29 0.000000 -0.000682 1.161383 0.000000 0.000000 0.000000
    30 0.000000 -0.000682 1.191590 0.000000 0.000000 0.000000
    31 -0.003480 -0.404828 0.000000 -0.000001 0.000000 0.000000
    32 -0.519309 -2.501154 -0.278957 -0.385783 -0.072595 -0.273888
    33 -0.010598 -1.208185 -0.000001 -1.055894 0.000000 0.000000
    34 0.000000 -0.763066 0.000000 -0.602139 0.000000 0.000000
    35 0.105981 -2.607134 -0.278958 -0.535826 -0.068397 -0.215466
    36 0.000000 -1.250580 0.000000 -0.776671 0.000000 0.000000
    37 0.000000 -0.932634 0.000000 -1.230421 0.000000 0.000000
    38 0.763064 -2.490556 -0.278958 -0.330799 -0.113514 -0.187698
    39 -0.012322 -1.280918 0.000000 -0.750491 0.000000 0.000000
    40 -0.001695 -0.745903 0.000571 -0.907571 0.000000 0.000000
    41 0.354567 0.016267 0.318133 0.407982 -0.204741 -0.936911
    42 1.887165 0.012878 0.000000 -0.391600 -0.003646 -0.299689
    43 1.001874 -0.000270 0.000000 -0.014921 0.045146 -0.059860
    44 -1.123358 -2.195093 -0.278957 -0.155361 -0.023239 -0.234628
    45 0.010772 -0.963791 0.000000 -0.698111 0.000000 0.000000
    46 -0.010413 -0.631916 0.000000 -0.907545 0.000000 0.000000
    47 0.000000 -0.359712 0.000000 0.000000 0.000000 0.000000
    48 -0.170479 -2.636148 -0.277655 -0.331189 0.001388 0.011282
    49 0.010599 -1.261177 0.000001 -0.351029 0.000000 0.000000
    50 -0.000001 -0.943234 0.000000 -0.532326 0.000000 0.000000
    51 -0.827562 -2.508972 -0.277656 -0.489799 -0.000008 -0.000004
    52 0.000001 -1.292972 0.000000 -0.287978 0.000000 0.000000
    53 -0.000002 -0.752465 -0.000001 -0.445059 0.000000 0.000000
    54 0.444213 -2.561962 -0.277655 -0.343178 -0.063148 0.189351
    55 0.021023 -1.208187 0.000001 -0.427606 0.000000 0.000000
    56 0.010596 -0.741867 -0.000001 -0.453786 0.000000 0.000000
    57 1.047446 -2.222821 -0.277655 -0.275594 -0.204434 0.240758
    58 -0.000001 -0.996223 -0.000001 -0.353259 0.000000 0.000000
    59 -0.000001 -0.614690 0.000000 -0.349396 0.000000 0.000000
    60 -0.308256 -0.007814 0.307165 -0.192138 -0.119577 -2.444520
    61 1.978379 0.019544 0.000000 0.449582 -0.095921 0.211556
    62 0.980611 0.003731 -0.000910 0.137295 0.068132 -0.022224
  time 4
    0 6.247134 0.384322 -5.833106 0.366839 -1.421659 -1.192449
    1 0.000000 -8.563283 0.000000 0.593185 0.859575 0.347503
    2 -1.243298 -2.183333 2.279618 0.106760 -0.546128 -2.701002
    3 1.049251 0.163462 -2.027412 -2.294084 -0.020119 1.560813
    4 1.089798 -0.163983 2.826316 1.756391 -0.146336 0.072892
    5 2.206509 0.034250 -0.900919 -2.653702 -0.005311 1.551300
    6 2.157624 -0.406556 2.556453 1.714303 0.685026 -0.082833
    7 2.798616 0.022659 1.493497 -0.259341 -3.113263 -1.543614
    8 1.229730 -0.832816 -1.168539 -2.518964 -0.079958 0.320920
    9 1.580083 -2.735974 1.151345 3.128692 0.112591 0.894265
    10 2.181806 -0.566586 0.153271 -2.848359 -0.034026 0.644901
    11 -0.000625 0.063061 2.349139 0.000000 0.000000 -3.141592
    12 -0.000625 0.156814 -2.754368 3.141592 0.000000 0.000000
    13 -1.098855 0.249402 -2.086009 0.832612 0.020119 -1.560813
    14 -2.205329 0.034250 -0.900919 0.487890 0.005311 -1.551300
    15 -2.773998 0.022660 1.477872 -0.233574 0.028329 -1.597979
    16 -2.117380 -0.402650 2.568171 -1.425815 -0.697227 0.080532
    17 -1.084712 -0.210860 2.834129 -1.398887 0.201417 -0.063232
    18 0.000590 -0.632650 -1.947212 0.618089 0.000000 0.000000
    19 -1.228552 -0.832816 -1.168539 0.622628 0.079959 -0.320920
    20 0.530641 -2.563842 0.215977 0.095170 0.000000 0.000000
    21 -1.664844 -2.005483 1.182596 -0.273637 -0.166953 -1.021010
    22 -1.325131 -1.789280 -0.030328 0.194264 0.034026 -0.644900
    23 -0.000625 -2.180261 1.817020 -0.740104 0.000000 0.000000
    24 -9.398236 3.111662 -4.801671 0.224087 0.795598 0.533958
    25 0.089928 -8.543162 0.000000 0.170046 -0.220063 0.087384
    26 -31.002227 25.748078 40.490682 0.486612 -2.791605 -0.712432
    27 -2.076931 0.007429 0.000003 0.000000 1.570796 0.000000
    28 0.000000 -0.000682 1.034103 0.000000 0.000000 0.000000
    29 0.000000 -0.000682 1.161383 0.000000 0.000000 0.000000
    30 0.000000 -0.000682 1.191590 0.000000 0.000000 0.000000
    31 -0.003480 -0.404828 0.000000 -0.000001 0.000000 0.000000
    32 -0.519309 -2.501154 -0.278957 -0.385783 -0.072595 -0.273888
    33 -0.010598 -1.208185 -0.000001 -1.055894 0.000000 0.000000
    34 0.000000 -0.763066 0.000000 -0.602139 0.000000 0.000000
    35 0.105981 -2.607134 -0.278958 -0.535826 -0.068397 -0.215466
    36 0.000000 -1.250580 0.000000 -0.776671 0.000000 0.000000
    37 0.000000 -0.932634 0.000000 -1.230421 0.000000 0.000000
    38 0.763064 -2.490556 -0.278958 -0.330799 -0.113514 -0.187698
    39 -0.012322 -1.280918 0.000000 -0.750491 0.000000 0.000000
    40 -0.001695 -0.745903 0.000571 -0.907571 0.000000 0.000000
    41 0.354567 0.016267 0.318133 0.400977 -0.201082 -0.951612
    42 1.887165 0.012878 0.000000 -0.400361 0.033854 -0.315285
    43 1.001874 -0.000270 0.000000 -0.020853 0.058341 -0.108069
    44 -1.123358 -2.195093 -0.278957 -0.155361 -0.023239 -0.234628
    45 0.010772 -0.963791 0.000000 -0.698111 0.000000 0.000000
    46 -0.010413 -0.631916 0.000000 -0.907545 0.000000 0.000000
    47 0.000000 -0.359712 0.000000 0.000000 0.000000 0.000000
    48 -0.170479 -2.636148 -0.277655 -0.331189 0.001388 0.011282
    49 0.010599 -1.261177 0.000001 -0.351029 0.000000 0.000000
    50 -0.000001 -0.943234 0.000000 -0.532326 0.000000 0.000000
    51 -0.827562 -2.508972 -0.277656 -0.489799 -0.000008 -0.000004
    52 0.000001 -1.292972 0.000000 -0.287978 0.000000 0.000000
    53 -0.000002 -0.752465 -0.000001 -0.445059 0.000000 0.000000
    54 0.444213 -2.561962 -0.277655 -0.343178 -0.063148 0.189351
    55 0.021023 -1.208187 0.000001 -0.427606 0.000000 0.000000
    56 0.010596 -0.741867 -0.000001 -0.453786 0.000000 0.000000
    57 1.047446 -2.222821 -0.277655 -0.275594 -0.204434 0.240758
    58 -0.000001 -0.996223 -0.000001 -0.353259 0.000000 0.000000
    59 -0.000001 -0.614690 0.000000 -0.349396 0.000000 0.000000
    60 -0.308256 -0.007814 0.307165 -0.190615 -0.111775 -2.455179
    61 1.978379 0.019544 0.000000 0.435033 -0.141379 0.173910
    62 0.980611 0.003731 -0.000910 0.132454 0.077169 -0.088971
  time 5
    0 6.118224 0.024936 -5.524503 0.283356 -1.352121 -1.121587
    1 0.000000 -8.563283 0.000000 0.573194 0.843637 0.349942
    2 -1.165170 -2.253647 2.170240 0.169673 -0.512015 -2.687173
    3 1.010188 0.194713 -1.914128 -2.307807 -0.020119 1.560813
    4 1.081985 -0.101482 2.740376 1.758776 -0.111257 0.078956
    5 2.077598 0.034250 -0.830604 -2.653702 -0.005311 1.551300
    6 2.071684 -0.383118 2.466607 1.716328 0.701745 -0.079669
    7 2.650174 0.018752 1.458340 -0.260707 -3.113263 -1.543614
    8 1.186760 -0.723438 -1.082599 -2.518964 -0.079958 0.320920
    9 1.357420 -2.989888 1.088843 3.128692 0.112591 0.894265
    10 2.009926 -0.586118 0.168897 -2.848359 -0.034026 0.644901
    11 -0.000625 0.074780 2.298356 0.000000 0.000000 -3.141592
    12 -0.000625 0.188065 -2.629364 3.141592 0.000000 0.000000
    13 -1.067604 0.296278 -1.988350 0.816588 0.020119 -1.560813
    14 -2.076418 0.034250 -0.830604 0.487890 0.005311 -1.551300
    15 -2.625556 0.018753 1.442715 -0.228073 0.028329 -1.597979
    16 -2.035346 -0.375305 2.466606 -1.422483 -0.723497 0.075415
    17 -1.084712 -0.156171 2.744283 -1.399343 0.188090 -0.065581
    18 0.000590 -0.515459 -1.865179 0.618089 0.000000 0.000000
    19 -1.185581 -0.723438 -1.082599 0.622628 0.079959 -0.320920
    20 0.554079 -2.809943 0.243322 0.095170 0.000000 0.000000
    21 -1.500776 -2.177363 1.151345 -0.273637 -0.166953 -1.021010
    22 -1.106375 -1.937722 -0.038141 0.194264 0.034026 -0.644900
    23 -0.000625 -2.215419 1.863897 -0.834879 0.000000 0.000000
    24 -9.296671 2.822590 -4.856360 0.189757 0.850656 0.499539
    25 0.089928 -8.543162 0.000000 0.146132 -0.231952 0.082114
    26 -31.002227 25.748078 40.490682 0.486612 -2.791605 -0.712432
    27 -2.076931 0.007429 0.000003 0.000000 1.570796 0.000000
    28 0.000000 -0.000682 1.034103 0.000000 0.000000 0.000000
    29 0.000000 -0.000682 1.161383 0.000000 0.000000 0.000000
    30 0.000000 -0.000682 1.191590 0.000000 0.000000 0.000000
    31 -0.003480 -0.404828 0.000000 -0.000001 0.000000 0.000000
    32 -0.519309 -2.501154 -0.278957 -0.385783 -0.072595 -0.273888
    33 -0.010598 -1.208185 -0.000001 -1.055894 0.000000 0.000000
    34 0.000000 -0.763066 0.000000 -0.602139 0.000000 0.000000
    35 0.105981 -2.607134 -0.278958 -0.535826 -0.068397 -0.215466
    36 0.000000 -1.250580 0.000000 -0.776671 0.000000 0.000000
    37 0.000000 -0.932634 0.000000 -1.230421 0.000000 0.000000
    38 0.763064 -2.490556 -0.278958 -0.330799 -0.113514 -0.187698
    39 -0.012322 -1.280918 0.000000 -0.750491 0.000000 0.000000
    40 -0.001695 -0.745903 0.000571 -0.907571 0.000000 0.000000
    41 0.354567 0.016267 0.318133 0.393355 -0.197445 -0.966028
    42 1.887165 0.012878 0.000000 -0.407540 0.064978 -0.318397
    43 1.001874 -0.000270 0.000000 -0.025276 0.067581 -0.136990
    44 -1.123358 -2.195093 -0.278957 -0.155361 -0.023239 -0.234628
    45 0.010772 -0.963791 0.000000 -0.698111 0.000000 0.000000
    46 -0.010413 -0.631916 0.000000 -0.907545 0.000000 0.000000
    47 0.000000 -0.359712 0.000000 0.000000 0.000000 0.000000
    48 -0.170479 -2.636148 -0.277655 -0.331189 0.001388 0.011282
    49 0.010599 -1.261177 0.000001 -0.351029 0.000000 0.000000
    50 -0.000001 -0.943234 0.000000 -0.532326 0.000000 0.000000
    51 -0.827562 -2.508972 -0.277656 -0.489799 -0.000008 -0.000004
    52 0.000001 -1.292972 0.000000 -0.287978 0.000000 0.000000
    53 -0.000002 -0.752465 -0.000001 -0.445059 0.000000 0.000000
    54 0.444213 -2.561962 -0.277655 -0.343178 -0.063148 0.189351
    55 0.021023 -1.208187 0.000001 -0.427606 0.000000 0.000000
    56 0.010596 -0.741867 -0.000001 -0.453786 0.000000 0.000000
    57 1.047446 -2.222821 -0.277655 -0.275594 -0.204434 0.240758
    58 -0.000001 -0.996223 -0.000001 -0.353259 0.000000 0.000000
    59 -0.000001 -0.614690 0.000000 -0.349396 0.000000 0.000000
    60 -0.308256 -0.007814 0.307165 -0.189249 -0.104393 -2.465221
    61 1.978379 0.019544 0.000000 0.422844 -0.184794 0.138459
    62 0.980611 0.003731 -0.000910 0.127324 0.085390 -0.152045
  time 6
    0 5.985407 -0.318824 -5.223712 0.218583 -1.299398 -1.062361
    1 0.000000 -8.563283 0.000000 0.556274 0.820709 0.337411
    2 -1.106575 -2.433340 2.017892 0.170054 -0.483399 -2.681494
    3 0.994562 0.206432 -1.871158 -2.318101 -0.020119 1.560813
    4 1.081985 -0.078043 2.709125 1.759699 -0.098398 0.081161
    5 2.034628 0.034250 -0.807166 -2.653702 -0.005311 1.551300
    6 2.040433 -0.371399 2.431449 1.717095 0.707869 -0.078495
    7 2.599391 0.018752 1.446621 -0.261199 -3.113263 -1.543614
    8 1.171135 -0.684374 -1.055255 -2.518964 -0.079958 0.320920
    9 1.263667 -3.095360 1.065405 3.128692 0.112591 0.894265
    10 1.740386 -0.957223 0.114208 -2.848359 -0.034026 0.644901
    11 -0.000625 0.078686 2.278824 0.000000 0.000000 -3.141592
    12 -0.000625 0.199784 -2.586394 3.141592 0.000000 0.000000
    13 -1.059791 0.315810 -1.949286 0.804580 0.020119 -1.560813
    14 -2.033448 0.034250 -0.807166 0.487890 0.005311 -1.551300
    15 -2.566961 0.018753 1.427089 -0.226048 0.028329 -1.597979
    16 -2.008001 -0.367492 2.431448 -1.421189 -0.733133 0.073485
    17 -1.088618 -0.136639 2.709125 -1.399510 0.183201 -0.066444
    18 0.000590 -0.472489 -1.833928 0.618089 0.000000 0.000000
    19 -1.169956 -0.684374 -1.055255 0.622628 0.079959 -0.320920
    20 0.397825 -3.239644 0.196446 0.095170 0.000000 0.000000
    21 -1.489057 -2.396120 1.186502 -0.273637 -0.166953 -1.021010
    22 -1.063405 -2.129134 -0.069392 0.194264 0.034026 -0.644900
    23 -0.000625 -2.231044 1.883429 -0.869649 0.000000 0.000000
    24 -9.183386 2.506174 -4.907143 0.138895 0.888817 0.450613
    25 0.089928 -8.543162 0.000000 0.143624 -0.244032 0.077324
    26 -31.002227 25.748078 40.490682 0.486612 -2.791605 -0.712432
    27 -2.076931 0.007429 0.000003 0.000000 1.570796 0.000000
    28 0.000000 -0.000682 1.034103 0.000000 0.000000 0.000000
    29 0.000000 -0.000682 1.161383 0.000000 0.000000 0.000000
    30 0.000000 -0.000682 1.191590 0.000000 0.000000 0.000000
    31 -0.003480 -0.404828 0.000000 -0.000001 0.000000 0.000000
    32 -0.519309 -2.501154 -0.278957 -0.385783 -0.072595 -0.273888
    33 -0.010598 -1.208185 -0.000001 -1.055894 0.000000 0.000000
    34 0.000000 -0.763066 0.000000 -0.602139 0.000000 0.000000
    35 0.105981 -2.607134 -0.278958 -0.535826 -0.068397 -0.215466
    36 0.000000 -1.250580 0.000000 -0.776671 0.000000 0.000000
    37 0.000000 -0.932634 0.000000 -1.230421 0.000000 0.000000
    38 0.763064 -2.490556 -0.278958 -0.330799 -0.113514 -0.187698
    39 -0.012322 -1.280918 0.000000 -0.750491 0.000000 0.000000
    40 -0.001695 -0.745903 0.000571 -0.907571 0.000000 0.000000
    41 0.354567 0.016267 0.318133 0.384519 -0.193743 -0.979900
    42 1.887165 0.012878 0.000000 -0.411399 0.086730 -0.302405
    43 1.001874 -0.000270 0.000000 -0.026642 0.071248 -0.136906
    44 -1.123358 -2.195093 -0.278957 -0.155361 -0.023239 -0.234628
    45 0.010772 -0.963791 0.000000 -0.698111 0.000000 0.000000
    46 -0.010413 -0.631916 0.000000 -0.907545 0.000000 0.000000
    47 0.000000 -0.359712 0.000000 0.000000 0.000000 0.000000
    48 -0.170479 -2.636148 -0.277655 -0.331189 0.001388 0.011282
    49 0.010599 -1.261177 0.000001 -0.351029 0.000000 0.000000
    50 -0.000001 -0.943234 0.000000 -0.532326 0.000000 0.000000
    51 -0.827562 -2.508972 -0.277656 -0.489799 -0.000008 -0.000004
    52 0.000001 -1.292972 0.000000 -0.287978 0.000000 0.000000
    53 -0.000002 -0.752465 -0.000001 -0.445059 0.000000 0.000000
    54 0.444213 -2.561962 -0.277655 -0.343178 -0.063148 0.189351
    55 0.021023 -1.208187 0.000001 -0.427606 0.000000 0.000000
    56 0.010596 -0.741867 -0.000001 -0.453786 0.000000 0.000000
    57 1.047446 -2.222821 -0.277655 -0.275594 -0.204434 0.240758
    58 -0.000001 -0.996223 -0.000001 -0.353259 0.000000 0.000000
    59 -0.000001 -0.614690 0.000000 -0.349396 0.000000 0.000000
    60 -0.308256 -0.007814 0.307165 -0.188123 -0.097873 -2.474045
    61 1.978379 0.019544 0.000000 0.413412 -0.223459 0.106772
    62 0.980611 0.003731 -0.000910 0.122387 0.092353 -0.207698
  time 7
    0 5.856497 -0.682116 -4.919015 0.122279 -1.268391 -0.959072
    1 0.000000 -8.563283 0.000000 0.545936 0.775845 0.293378
    2 -1.172983 -2.663816 1.791322 0.076447 -0.477379 -2.690219
    3 1.018000 0.186900 -1.933659 -2.324969 -0.020119 1.560813
    4 1.081985 -0.113201 2.756002 1.758345 -0.117333 0.077901
    5 2.101037 0.034250 -0.842323 -2.653702 -0.005311 1.551300
    6 2.087309 -0.387024 2.482232 1.715969 0.698845 -0.080233
    7 2.677519 0.018752 1.466153 -0.260468 -3.113263 -1.543614
    8 1.194573 -0.742970 -1.098225 -2.518964 -0.079958 0.320920
    9 1.345701 -2.993794 1.088843 3.128692 0.112591 0.894265
    10 1.341937 -1.816624 -0.038141 -2.848359 -0.034026 0.644901
    11 -0.000625 0.070874 2.306169 0.000000 0.000000 -3.141592
    12 -0.000625 0.180252 -2.652802 3.141592 0.000000 0.000000
    13 -1.075417 0.288465 -2.003975 0.796562 0.020119 -1.560813
    14 -2.099857 0.034250 -0.842323 0.487890 0.005311 -1.551300
    15 -2.648994 0.018753 1.446621 -0.229020 0.028329 -1.597979
    16 -2.050972 -0.379211 2.486138 -1.423083 -0.718955 0.076326
    17 -1.084712 -0.163983 2.759908 -1.399271 0.190403 -0.065174
    18 0.000590 -0.538898 -1.876898 0.618089 0.000000 0.000000
    19 -1.193394 -0.742970 -1.098225 0.622628 0.079959 -0.320920
    20 -0.000625 -3.911540 0.036284 0.095170 0.000000 0.000000
    21 -1.696095 -2.665659 1.303694 -0.273637 -0.166953 -1.021010
    22 -1.266536 -2.375235 -0.131894 0.194264 0.034026 -0.644900
    23 -0.000625 -2.211512 1.856084 -0.818467 0.000000 0.000000
    24 -9.058382 2.088193 -4.961832 0.055404 0.890353 0.374300
    25 0.089928 -8.543162 0.000000 0.190497 -0.255981 0.072130
    26 -31.002227 25.748078 40.490682 0.486612 -2.791605 -0.712432
    27 -2.076931 0.007429 0.000003 0.000000 1.570796 0.000000
    28 0.000000 -0.000682 1.034103 0.000000 0.000000 0.000000
    29 0.000000 -0.000682 1.161383 0.000000 0.000000 0.000000
    30 0.000000 -0.000682 1.191590 0.000000 0.000000 0.000000
    31 -0.003480 -0.404828 0.000000 -0.000001 0.000000 0.000000
    32 -0.519309 -2.501154 -0.278957 -0.385783 -0.072595 -0.273888
    33 -0.010598 -1.208185 -0.000001 -1.055894 0.000000 0.000000
    34 0.000000 -0.763066 0.000000 -0.602139 0.000000 0.000000
    35 0.105981 -2.607134 -0.278958 -0.535826 -0.068397 -0.215466
    36 0.000000 -1.250580 0.000000 -0.776671 0.000000 0.000000
    37 0.000000 -0.932634 0.000000 -1.230421 0.000000 0.000000
    38 0.763064 -2.490556 -0.278958 -0.330799 -0.113514 -0.187698
    39 -0.012322 -1.280918 0.000000 -0.750491 0.000000 0.000000
    40 -0.001695 -0.745903 0.000571 -0.907571 0.000000 0.000000
    41 0.354567 0.016267 0.318133 0.373911 -0.189884 -0.992968
    42 1.887165 0.012878 0.000000 -0.405011 0.083254 -0.219636
    43 1.001874 -0.000270 0.000000 -0.018073 0.056064 -0.044927
    44 -1.123358 -2.195093 -0.278957 -0.155361 -0.023239 -0.234628
    45 0.010772 -0.963791 0.000000 -0.698111 0.000000 0.000000
    46 -0.010413 -0.631916 0.000000 -0.907545 0.000000 0.000000
    47 0.000000 -0.359712 0.000000 0.000000 0.000000 0.000000
    48 -0.170479 -2.636148 -0.277655 -0.331189 0.001388 0.011282
    49 0.010599 -1.261177 0.000001 -0.351029 0.000000 0.000000
    50 -0.000001 -0.943234 0.000000 -0.532326 0.000000 0.000000
    51 -0.827562 -2.508972 -0.277656 -0.489799 -0.000008 -0.000004
    52 0.000001 -1.292972 0.000000 -0.287978 0.000000 0.000000
    53 -0.000002 -0.752465 -0.000001 -0.445059 0.000000 0.000000
    54 0.444213 -2.561962 -0.277655 -0.343178 -0.063148 0.189351
    55 0.021023 -1.208187 0.000001 -0.427606 0.000000 0.000000
    56 0.010596 -0.741867 -0.000001 -0.453786 0.000000 0.000000
    57 1.047446 -2.222821 -0.277655 -0.275594 -0.204434 0.240758
    58 -0.000001 -0.996223 -0.000001 -0.353259 0.000000 0.000000
    59 -0.000001 -0.614690 0.000000 -0.349396 0.000000 0.000000
    60 -0.308256 -0.007814 0.307165 -0.187248 -0.092672 -2.481087
    61 1.978379 0.019544 0.000000 0.406893 -0.254645 0.080491
    62 0.980611 0.003731 -0.000910 0.118168 0.097698 -0.252146
  time 8
    0 5.723680 -1.057128 -4.606506 -0.007172 -1.245040 -0.811436
    1 0.000000 -8.563283 0.000000 0.541932 0.709935 0.222036
    2 -1.098762 -2.913824 2.056955 -0.051095 -0.494043 -2.711456
    3 1.084409 0.140023 -2.125072 -2.328396 -0.020119 1.560813
    4 1.093704 -0.218673 2.900537 1.754510 -0.176753 0.067571
    5 2.315887 0.030344 -0.955608 -2.653702 -0.005311 1.551300
    6 2.235751 -0.429994 2.634580 1.712625 0.670537 -0.085506
    7 2.923620 0.026565 1.520842 -0.258167 -3.113263 -1.543614
    8 1.264888 -0.926569 -1.238854 -2.518964 -0.079958 0.320920
    9 1.591802 -2.704723 1.155252 3.054879 0.072346 0.839255
    10 0.822390 -3.121352 -0.280336 -2.883714 -0.034026 0.644901
    11 -0.000625 0.051342 2.399922 0.000000 0.000000 -3.141592
    12 -0.000625 0.125563 -2.859840 3.141592 0.000000 0.000000
    13 -1.126200 0.210338 -2.171949 0.792559 0.020119 -1.560813
    14 -2.314707 0.030344 -0.955608 0.487890 0.005311 -1.551300
    15 -2.906815 0.026566 1.509123 -0.238368 0.028329 -1.597979
    16 -2.183788 -0.422181 2.658018 -1.428524 -0.674420 0.084799
    17 -1.084712 -0.257736 2.904444 -1.398468 0.212982 -0.061171
    18 0.000590 -0.734216 -2.017527 0.618089 0.000000 0.000000
    19 -1.263709 -0.926569 -1.238854 0.622628 0.079959 -0.320920
    20 -0.621738 -4.806098 -0.217630 0.071380 0.000000 0.000000
    21 -2.102357 -2.982075 1.495106 -0.239600 0.092190 -1.149717
    22 -1.696236 -2.676026 -0.221740 0.194264 0.034026 -0.644900
    23 -0.000625 -2.152917 1.777957 -0.657891 0.000000 0.000000
    24 -8.921659 1.595990 -5.016521 -0.046224 0.853704 0.284711
    25 0.089928 -8.543162 0.000000 0.283258 -0.267438 0.065827
    26 -31.002227 25.748078 40.490682 0.486612 -2.791605 -0.712432
    27 -2.076931 0.007429 0.000003 0.000000 1.570796 0.000000
    28 0.000000 -0.000682 1.034103 0.000000 0.000000 0.000000
    29 0.000000 -0.000682 1.161383 0.000000 0.000000 0.000000
    30 0.000000 -0.000682 1.191590 0.000000 0.000000 0.000000
    31 -0.003480 -0.404828 0.000000 -0.000001 0.000000 0.000000
    32 -0.519309 -2.501154 -0.278957 -0.385783 -0.072595 -0.273888
    33 -0.010598 -1.208185 -0.000001 -1.055894 0.000000 0.000000
    34 0.000000 -0.763066 0.000000 -0.602139 0.000000 0.000000
    35 0.105981 -2.607134 -0.278958 -0.535826 -0.068397 -0.215466
    36 0.000000 -1.250580 0.000000 -0.776671 0.000000 0.000000
    37 0.000000 -0.932634 0.000000 -1.230421 0.000000 0.000000
    38 0.763064 -2.490556 -0.278958 -0.330799 -0.113514 -0.187698
    39 -0.012322 -1.280918 0.000000 -0.750491 0.000000 0.000000
    40 -0.001695 -0.745903 0.000571 -0.907571 0.000000 0.000000
    41 0.354567 0.016267 0.318133 0.360956 -0.185827 -1.004947
    42 1.887165 0.012878 0.000000 -0.393015 0.053089 -0.085931
    43 1.001874 -0.000270 0.000000 -0.005561 0.024041 0.123929
    44 -1.123358 -2.195093 -0.278957 -0.155361 -0.023239 -0.234628
    45 0.010772 -0.963791 0.000000 -0.698111 0.000000 0.000000
    46 -0.010413 -0.631916 0.000000 -0.907545 0.000000 0.000000
    47 0.000000 -0.359712 0.000000 0.000000 0.000000 0.000000
    48 -0.170479 -2.636148 -0.277655 -0.331189 0.001388 0.011282
    49 0.010599 -1.261177 0.000001 -0.351029 0.000000 0.000000
    50 -0.000001 -0.943234 0.000000 -0.532326 0.000000 0.000000
    51 -0.827562 -2.508972 -0.277656 -0.489799 -0.000008 -0.000004
    52 0.000001 -1.292972 0.000000 -0.287978 0.000000 0.000000
    53 -0.000002 -0.752465 -0.000001 -0.445059 0.000000 0.000000
    54 0.444213 -2.561962 -0.277655 -0.343178 -0.063148 0.189351
    55 0.021023 -1.208187 0.000001 -0.427606 0.000000 0.000000
    56 0.010596 -0.741867 -0.000001 -0.453786 0.000000 0.000000
    57 1.047446 -2.222821 -0.277655 -0.275594 -0.204434 0.240758
    58 -0.000001 -0.996223 -0.000001 -0.353259 0.000000 0.000000
    59 -0.000001 -0.614690 0.000000 -0.349396 0.000000 0.000000
    60 -0.308256 -0.007814 0.307165 -0.186697 -0.089220 -2.485746
    61 1.978379 0.019544 0.000000 0.403297 -0.275596 0.061276
    62 0.980611 0.003731 -0.000910 0.115244 0.101138 -0.281603
  time 9
    0 5.598677 -1.373544 -4.336966 -0.122946 -1.217904 -0.672573
    1 0.000000 -8.563283 0.000000 0.538916 0.645219 0.147441
    2 -0.946414 -3.116955 2.533532 -0.107336 -0.513935 -2.734011
    3 1.178161 0.073615 -2.371173 -2.328396 -0.020119 1.560813
    4 1.109330 -0.355396 3.095856 1.750447 -0.255168 0.053585
    5 2.593239 0.030344 -1.104050 -2.653702 -0.005311 1.551300
    6 2.427163 -0.484683 2.833805 1.708610 0.633145 -0.092133
    7 3.247849 0.026565 1.595063 -0.255122 -3.113263 -1.543614
    8 1.358641 -1.164858 -1.422453 -2.518964 -0.079958 0.320920
    9 1.935563 -2.310180 1.249004 3.006258 0.003183 0.743139
    10 1.076304 -3.113539 -0.307680 -2.911986 -0.034026 0.644901
    11 -0.000625 0.020091 2.524926 0.000000 0.000000 -3.141592
    12 -0.000625 0.055248 -3.129379 3.141592 0.000000 0.000000
    13 -1.196514 0.104866 -2.390706 0.792559 0.020119 -1.560813
    14 -2.592059 0.030344 -1.104050 0.487890 0.005311 -1.551300
    15 -3.242762 0.026566 1.591157 -0.250712 0.028329 -1.597979
    16 -2.355668 -0.476871 2.884587 -1.434708 -0.615612 0.095094
    17 -1.084712 -0.374927 3.107575 -1.397257 0.242788 -0.055826
    18 0.000590 -0.992036 -2.201126 0.618089 0.000000 0.000000
    19 -1.357462 -1.164858 -1.422453 0.622628 0.079959 -0.320920
    20 -0.680333 -4.493589 -0.272319 0.047579 0.000000 0.000000
    21 -2.367990 -2.720348 1.541982 -0.223493 0.193472 -1.034209
    22 -2.039997 -2.449456 -0.213927 0.194264 0.034026 -0.644900
    23 -0.000625 -2.074789 1.676391 -0.445927 0.000000 0.000000
    24 -8.777124 1.178009 -5.063398 -0.132535 0.804303 0.210069
    25 0.089928 -8.543162 0.000000 0.381649 -0.278584 0.059045
    26 -31.002227 25.748078 40.490682 0.486612 -2.791605 -0.712432
    27 -2.076931 0.007429 0.000003 0.000000 1.570796 0.000000
    28 0.000000 -0.000682 1.034103 0.000000 0.000000 0.000000
    29 0.000000 -0.000682 1.161383 0.000000 0.000000 0.000000
    30 0.000000 -0.000682 1.191590 0.000000 0.000000 0.000000
    31 -0.003480 -0.404828 0.000000 -0.000001 0.000000 0.000000
    32 -0.519309 -2.501154 -0.278957 -0.385783 -0.072595 -0.273888
    33 -0.010598 -1.208185 -0.000001 -1.055894 0.000000 0.000000
    34 0.000000 -0.763066 0.000000 -0.602139 0.000000 0.000000
    35 0.105981 -2.607134 -0.278958 -0.535826 -0.068397 -0.215466
    36 0.000000 -1.250580 0.000000 -0.776671 0.000000 0.000000
    37 0.000000 -0.932634 0.000000 -1.230421 0.000000 0.000000
    38 0.763064 -2.490556 -0.278958 -0.330799 -0.113514 -0.187698
    39 -0.012322 -1.280918 0.000000 -0.750491 0.000000 0.000000
    40 -0.001695 -0.745903 0.000571 -0.907571 0.000000 0.000000
    41 0.354567 0.016267 0.318133 0.345075 -0.181503 -1.015603
    42 1.887165 0.012878 0.000000 -0.386890 0.017746 0.011057
    43 1.001874 -0.000270 0.000000 0.000000 0.000000 0.263863
    44 -1.123358 -2.195093 -0.278957 -0.155361 -0.023239 -0.234628
    45 0.010772 -0.963791 0.000000 -0.698111 0.000000 0.000000
    46 -0.010413 -0.631916 0.000000 -0.907545 0.000000 0.000000
    47 0.000000 -0.359712 0.000000 0.000000 0.000000 0.000000
    48 -0.170479 -2.636148 -0.277655 -0.331189 0.001388 0.011282
    49 0.010599 -1.261177 0.000001 -0.351029 0.000000 0.000000
    50 -0.000001 -0.943234 0.000000 -0.532326 0.000000 0.000000
    51 -0.827562 -2.508972 -0.277656 -0.489799 -0.000008 -0.000004
    52 0.000001 -1.292972 0.000000 -0.287978 0.000000 0.000000
    53 -0.000002 -0.752465 -0.000001 -0.445059 0.000000 0.000000
    54 0.444213 -2.561962 -0.277655 -0.343178 -0.063148 0.189351
    55 0.021023 -1.208187 0.000001 -0.427606 0.000000 0.000000
    56 0.010596 -0.741867 -0.000001 -0.453786 0.000000 0.000000
    57 1.047446 -2.222821 -0.277655 -0.275594 -0.204434 0.240758
    58 -0.000001 -0.996223 -0.000001 -0.353259 0.000000 0.000000
    59 -0.000001 -0.614690 0.000000 -0.349396 0.000000 0.000000
    60 -0.308256 -0.007814 0.307165 -0.186505 -0.087974 -2.487440
    61 1.978379 0.019544 0.000000 0.402650 -0.283634 0.050928
    62 0.980611 0.003731 -0.000910 0.114165 0.102360 -0.292265
  time 10
    0 5.485392 -1.568862 -4.157273 -0.183065 -1.183114 -0.591602
    1 0.000000 -8.563283 0.000000 0.524793 0.603151 0.089937
    2 -0.801878 -3.081797 3.002297 -0.013538 -0.520391 -2.745123
    3 1.252382 0.022832 -2.566491 -2.324969 -0.020119 1.560813
    4 1.121049 -0.460868 3.248204 1.748110 -0.316901 0.042163
    5 2.815902 0.026438 -1.221241 -2.653702 -0.005311 1.551300
    6 2.583418 -0.527653 2.993966 1.705746 0.603675 -0.097083
    7 3.501763 0.034378 1.653659 -0.252726 -3.113263 -1.543614
    8 1.432862 -1.356270 -1.566989 -2.518964 -0.079958 0.320920
    9 2.330106 -1.868760 1.354476 2.980635 -0.080637 0.623101
    10 1.869297 -2.176010 -0.178770 -2.933198 -0.034026 0.644901
    11 -0.000625 0.000559 2.622585 0.000000 0.000000 -3.141592
    12 -0.000625 0.000559 -3.348136 3.141592 0.000000 0.000000
    13 -1.251203 0.022832 -2.566492 0.796562 0.020119 -1.560813
    14 -2.814722 0.026438 -1.221241 0.487890 0.005311 -1.551300
    15 -3.508396 0.034379 1.653659 -0.260444 0.028329 -1.597979
    16 -2.496298 -0.519841 3.064280 -1.438914 -0.569243 0.102632
    17 -1.084712 -0.468680 3.263830 -1.396191 0.266266 -0.051559
    18 0.000590 -1.195168 -2.345662 0.618089 0.000000 0.000000
    19 -1.431683 -1.356270 -1.566989 0.622628 0.079959 -0.320920
    20 -0.320947 -3.306052 -0.174659 0.023789 0.000000 0.000000
    21 -2.512526 -2.056266 1.483387 -0.200830 0.171972 -0.750229
    22 -2.297817 -1.867407 -0.135800 0.194264 0.034026 -0.644900
    23 -0.000625 -2.016194 1.594357 -0.278920 0.000000 0.000000
    24 -8.628682 0.986597 -5.090742 -0.187287 0.772190 0.161144
    25 0.089928 -8.543162 0.000000 0.445210 -0.290281 0.053221
    26 -31.002227 25.748078 40.490682 0.486612 -2.791605 -0.712432
    27 -2.076931 0.007429 0.000003 0.000000 1.570796 0.000000
    28 0.000000 -0.000682 1.034103 0.000000 0.000000 0.000000
    29 0.000000 -0.000682 1.161383 0.000000 0.000000 0.000000
    30 0.000000 -0.000682 1.191590 0.000000 0.000000 0.000000
    31 -0.003480 -0.404828 0.000000 -0.000001 0.000000 0.000000
    32 -0.519309 -2.501154 -0.278957 -0.385783 -0.072595 -0.273888
    33 -0.010598 -1.208185 -0.000001 -1.055894 0.000000 0.000000
    34 0.000000 -0.763066 0.000000 -0.602121 0.000000 0.000000
    35 0.105981 -2.607134 -0.278958 -0.535826 -0.068397 -0.215466
    36 0.000000 -1.250580 0.000000 -0.776671 0.000000 0.000000
    37 0.000000 -0.932634 0.000000 -1.230421 0.000000 0.000000
    38 0.763064 -2.490556 -0.278958 -0.330799 -0.113514 -0.187698
    39 -0.012322 -1.280918 0.000000 -0.750491 0.000000 0.000000
    40 -0.001695 -0.745903 0.000571 -0.907571 0.000000 0.000000
    41 0.354567 0.016267 0.318133 0.287740 -0.179751 -1.016536
    42 1.887165 0.012878 0.000000 -0.386387 -0.017944 0.049056
    43 1.001874 -0.000270 0.000000 0.000683 -0.006124 0.353986
    44 -1.123358 -2.195093 -0.278957 -0.155361 -0.023239 -0.234628
    45 0.010772 -0.963791 0.000000 -0.698111 0.000000 0.000000
    46 -0.010413 -0.631916 0.000000 -0.907545 0.000000 0.000000
    47 0.000000 -0.359712 0.000000 0.000000 0.000000 0.000000
    48 -0.170479 -2.636148 -0.277655 -0.331189 0.001388 0.011282
    49 0.010599 -1.261177 0.000001 -0.351029 0.000000 0.000000
    50 -0.000001 -0.943234 0.000000 -0.532326 0.000000 0.000000
    51 -0.827562 -2.508972 -0.277656 -0.489799 -0.000008 -0.000004
    52 0.000001 -1.292972 0.000000 -0.287978 0.000000 0.000000
    53 -0.000002 -0.752465 -0.000001 -0.445059 0.000000 0.000000
    54 0.444213 -2.561962 -0.277655 -0.343178 -0.063148 0.189351
    55 0.021023 -1.208187 0.000001 -0.427606 0.000000 0.000000
    56 0.010596 -0.741867 -0.000001 -0.453786 0.000000 0.000000
    57 1.047446 -2.222821 -0.277655 -0.275594 -0.204434 0.240758
    58 -0.000001 -0.996223 -0.000001 -0.353259 0.000000 0.000000
    59 -0.000001 -0.614690 0.000000 -0.349396 0.000000 0.000000
    60 -0.308256 -0.007814 0.307165 -0.186637 -0.088825 -2.486293
    61 1.978379 0.019544 0.000000 0.407684 -0.265108 0.057583
    62 0.980611 0.003731 -0.000910 0.118240 0.097614 -0.251397
  time 11
    0 5.387733 -1.549330 -4.118210 -0.183540 -1.141056 -0.573291
    1 0.000000 -8.563283 0.000000 0.488842 0.592348 0.052376
    2 -0.712031 -3.105236 3.131207 0.001047 -0.504251 -2.737385
    3 1.310978 0.003301 -2.683682 -2.324969 -0.020119 1.560813
    4 1.117142 -0.515557 3.353676 1.747295 -0.342740 0.037250
    5 2.944812 0.022531 -1.291556 -2.653702 -0.005311 1.551300
    6 2.673264 -0.554998 3.095532 1.704547 0.590600 -0.099216
    7 3.654111 0.038284 1.688816 -0.252078 -3.113263 -1.543614
    8 1.479738 -1.465648 -1.652929 -2.518964 -0.079958 0.320920
    9 2.607458 -1.552344 1.432604 2.966253 -0.139781 0.535374
    10 2.474784 -1.425987 -0.073298 -2.947328 -0.034026 0.644901
    11 -0.000625 0.020091 2.696806 0.000000 0.000000 -3.141592
    12 -0.000625 0.008372 -3.445795 3.141592 0.000000 0.000000
    13 -1.301986 -0.012325 -2.671964 0.796562 0.020119 -1.560813
    14 -2.943632 0.022531 -1.291556 0.487890 0.005311 -1.551300
    15 -3.660744 0.038285 1.692722 -0.265130 0.028329 -1.597979
    16 -2.574425 -0.547185 3.173658 -1.440640 -0.548330 0.105880
    17 -1.076899 -0.515557 3.369302 -1.395771 0.274799 -0.050001
    18 0.000590 -1.316265 -2.431602 0.618089 0.000000 0.000000
    19 -1.478559 -1.465648 -1.652929 0.622628 0.079959 -0.320920
    20 -0.000625 -2.239614 -0.084813 0.000000 0.000000 0.000000
    21 -2.606279 -1.552344 1.432604 -0.175339 0.139781 -0.535374
    22 -2.473604 -1.425987 -0.073298 0.194264 0.034026 -0.644900
    23 -0.000625 -2.027913 1.570919 -0.207362 0.000000 0.000000
    24 -8.472427 1.115507 -5.094648 -0.213837 0.769386 0.133707
    25 0.089928 -8.543162 0.000000 0.460958 -0.308497 0.047612
    26 -31.002227 25.748078 40.490682 0.486612 -2.791605 -0.712432
    27 -2.076931 0.007429 0.000003 0.000000 1.570796 0.000000
    28 0.000000 -0.000682 1.034103 0.000000 0.000000 0.000000
    29 0.000000 -0.000682 1.161383 0.000000 0.000000 0.000000
    30 0.000000 -0.000682 1.191590 0.000000 0.000000 0.000000
    31 -0.003480 -0.404828 0.000000 -0.000001 0.000000 0.000000
    32 -0.519309 -2.501154 -0.278957 -0.385783 -0.072595 -0.273888
    33 -0.010598 -1.208185 -0.000001 -1.055894 0.000000 0.000000
    34 0.000000 -0.763066 0.000000 -0.602139 0.000000 0.000000
    35 0.105981 -2.607134 -0.278958 -0.535826 -0.068397 -0.215466
    36 0.000000 -1.250580 0.000000 -0.776671 0.000000 0.000000
    37 0.000000 -0.932634 0.000000 -1.230421 0.000000 0.000000
    38 0.763064 -2.490556 -0.278958 -0.330799 -0.113514 -0.187698
    39 -0.012322 -1.280918 0.000000 -0.750491 0.000000 0.000000
    40 -0.001695 -0.745903 0.000571 -0.907571 0.000000 0.000000
    41 0.354567 0.016267 0.318133 0.240256 -0.161569 -1.003028
    42 1.887165 0.012878 0.000000 -0.387801 -0.058931 0.065689
    43 1.001874 -0.000270 0.000000 0.000395 -0.005465 0.433192
    44 -1.123358 -2.195093 -0.278957 -0.155361 -0.023239 -0.234628
    45 0.010772 -0.963791 0.000000 -0.698111 0.000000 0.000000
    46 -0.010413 -0.631916 0.000000 -0.907545 0.000000 0.000000
    47 0.000000 -0.359712 0.000000 0.000000 0.000000 0.000000
    48 -0.170479 -2.636148 -0.277655 -0.331189 0.001388 0.011282
    49 0.010599 -1.261177 0.000001 -0.351029 0.000000 0.000000
    50 -0.000001 -0.943234 0.000000 -0.532326 0.000000 0.000000
    51 -0.827562 -2.508972 -0.277656 -0.489799 -0.000008 -0.000004
    52 0.000001 -1.292972 0.000000 -0.287978 0.000000 0.000000
    53 -0.000002 -0.752465 -0.000001 -0.445059 0.000000 0.000000
    54 0.444213 -2.561962 -0.277655 -0.343178 -0.063148 0.189351
    55 0.021023 -1.208187 0.000001 -0.427606 0.000000 0.000000
    56 0.010596 -0.741867 -0.000001 -0.453786 0.000000 0.000000
    57 1.047446 -2.222821 -0.277655 -0.275594 -0.204434 0.240758
    58 -0.000001 -0.996223 -0.000001 -0.353259 0.000000 0.000000
    59 -0.000001 -0.614690 0.000000 -0.349396 0.000000 0.000000
    60 -0.308256 -0.007814 0.307165 -0.187008 -0.091186 -2.483099
    61 1.978379 0.019544 0.000000 0.419932 -0.216767 0.083578
    62 0.980611 0.003731 -0.000910 0.127372 0.085330 -0.151539
  time 12
    0 5.297886 -1.303229 -4.235401 -0.159227 -1.095686 -0.579490
    1 0.000000 -8.563283 0.000000 0.436135 0.599541 0.021910
    2 -0.665155 -3.175550 3.010109 -0.045185 -0.478600 -2.720593
    3 1.369573 -0.000606 -2.750091 -2.324969 -0.020119 1.560813
    4 1.101517 -0.535089 3.435710 1.747115 -0.344549 0.036902
    5 3.026846 0.022531 -1.334526 -2.653702 -0.005311 1.551300
    6 2.727954 -0.574530 3.165847 1.704332 0.588263 -0.099600
    7 3.743958 0.038284 1.712254 -0.252702 -3.113263 -1.543614
    8 1.507083 -1.535963 -1.707618 -2.518964 -0.079958 0.320920
    9 2.693399 -1.485936 1.456042 2.960273 -0.155037 0.512256
    10 2.607600 -1.316609 -0.061579 -2.954387 -0.034026 0.644901
    11 -0.000625 0.086499 2.774933 0.000000 0.000000 -3.141592
    12 -0.000625 0.070874 -3.469233 3.141592 0.000000 0.000000
    13 -1.356675 -0.016231 -2.738372 0.796562 0.020119 -1.560813
    14 -3.025666 0.022531 -1.334526 0.487890 0.005311 -1.551300
    15 -3.754497 0.038285 1.716161 -0.266664 0.028329 -1.597979
    16 -2.625208 -0.562811 3.247880 -1.440988 -0.543980 0.106539
    17 -1.061273 -0.535089 3.455242 -1.395867 0.272929 -0.050349
    18 0.000590 -1.390486 -2.482385 0.618089 0.000000 0.000000
    19 -1.505904 -1.535963 -1.707618 0.622628 0.079959 -0.320920
    20 0.136098 -1.618501 -0.057468 0.000000 0.000000 0.000000
    21 -2.653155 -1.462498 1.428697 -0.163666 0.142645 -0.466699
    22 -2.543918 -1.347860 -0.065485 0.194264 0.034026 -0.644900
    23 -0.000625 -2.098228 1.582638 -0.199062 0.000000 0.000000
    24 -8.308359 1.470986 -5.075117 -0.223368 0.781383 0.119201
    25 0.089928 -8.543162 0.000000 0.450996 -0.331256 0.042670
    26 -31.002227 25.748078 40.490682 0.486612 -2.791605 -0.712432
    27 -2.076931 0.007429 0.000003 0.000000 1.570796 0.000000
    28 0.000000 -0.000682 1.034103 0.000000 0.000000 0.000000
    29 0.000000 -0.000682 1.161383 0.000000 0.000000 0.000000
    30 0.000000 -0.000682 1.191590 0.000000 0.000000 0.000000
    31 -0.003480 -0.404828 0.000000 -0.000001 0.000000 0.000000
    32 -0.519309 -2.501154 -0.278957 -0.385783 -0.072595 -0.273888
    33 -0.010598 -1.208185 -0.000001 -1.055894 0.000000 0.000000
    34 0.000000 -0.763066 0.000000 -0.602139 0.000000 0.000000
    35 0.105981 -2.607134 -0.278958 -0.535826 -0.068397 -0.215466
    36 0.000000 -1.250580 0.000000 -0.776671 0.000000 0.000000
    37 0.000000 -0.932634 0.000000 -1.230421 0.000000 0.000000
    38 0.763064 -2.490556 -0.278958 -0.330799 -0.113514 -0.187698
    39 -0.012322 -1.280918 0.000000 -0.750491 0.000000 0.000000
    40 -0.001695 -0.745903 0.000571 -0.907571 0.000000 0.000000
    41 0.354567 0.016267 0.318133 0.293412 -0.088685 -0.967791
    42 1.887165 0.012878 0.000000 -0.389192 -0.095736 0.064180
    43 1.001874 -0.000270 0.000000 0.000084 -0.002049 0.486158
    44 -1.123358 -2.195093 -0.278957 -0.155361 -0.023239 -0.234628
    45 0.010772 -0.963791 0.000000 -0.698111 0.000000 0.000000
    46 -0.010413 -0.631916 0.000000 -0.907545 0.000000 0.000000
    47 0.000000 -0.359712 0.000000 0.000000 0.000000 0.000000
    48 -0.170479 -2.636148 -0.277655 -0.331189 0.001388 0.011282
    49 0.010599 -1.261177 0.000001 -0.351029 0.000000 0.000000
    50 -0.000001 -0.943234 0.000000 -0.532326 0.000000 0.000000
    51 -0.827562 -2.508972 -0.277656 -0.489799 -0.000008 -0.000004
    52 0.000001 -1.292972 0.000000 -0.287978 0.000000 0.000000
    53 -0.000002 -0.752465 -0.000001 -0.445059 0.000000 0.000000
    54 0.444213 -2.561962 -0.277655 -0.343178 -0.063148 0.189351
    55 0.021023 -1.208187 0.000001 -0.427606 0.000000 0.000000
    56 0.010596 -0.741867 -0.000001 -0.453786 0.000000 0.000000
    57 1.047446 -2.222821 -0.277655 -0.275594 -0.204434 0.240758
    58 -0.000001 -0.996223 -0.000001 -0.353259 0.000000 0.000000
    59 -0.000001 -0.614690 0.000000 -0.349396 0.000000 0.000000
    60 -0.308256 -0.007814 0.307165 -0.187607 -0.094853 -2.478157
    61 1.978379 0.019544 0.000000 0.438065 -0.151563 0.122205
    62 0.980611 0.003731 -0.000910 0.136984 0.068768 -0.026796
  time 13
    0 5.219759 -0.885248 -4.469783 -0.130164 -1.051779 -0.590362
    1 0.000000 -8.563283 0.000000 0.375805 0.613191 -0.005495
    2 -0.579215 -3.226333 2.885106 -0.101807 -0.447541 -2.701085
    3 1.393012 0.011113 -2.761810 -2.324969 -0.020119 1.560813
    4 1.089798 -0.531182 3.466961 1.747307 -0.333440 0.039023
    5 3.042472 0.022531 -1.342338 -2.653702 -0.005311 1.551300
    6 2.735766 -0.578436 3.185379 1.704715 0.592469 -0.098917
    7 3.759583 0.038284 1.716161 -0.253660 -3.113263 -1.543614
    8 1.510989 -1.547682 -1.715431 -2.518964 -0.079958 0.320920
    9 2.666054 -1.544531 1.448229 2.963257 -0.147415 0.523833
    10 2.560724 -1.394737 -0.073298 -2.954387 -0.034026 0.644901
    11 -0.000625 0.137282 2.810091 0.000000 0.000000 -3.141592
    12 -0.000625 0.129469 -3.445795 3.141592 0.000000 0.000000
    13 -1.387926 -0.000606 -2.753998 0.796562 0.020119 -1.560813
    14 -3.041292 0.022531 -1.342338 0.487890 0.005311 -1.551300
    15 -3.770122 0.038285 1.720067 -0.265849 0.028329 -1.597979
    16 -2.633021 -0.566717 3.267411 -1.440496 -0.550092 0.105604
    17 -1.049554 -0.531182 3.486493 -1.396167 0.266793 -0.051463
    18 0.000590 -1.406111 -2.494104 0.618089 0.000000 0.000000
    19 -1.509810 -1.547682 -1.715431 0.622628 0.079959 -0.320920
    20 0.237664 -1.095047 -0.034030 0.000000 0.000000 0.000000
    21 -2.645342 -1.536719 1.436510 -0.163666 0.142645 -0.466699
    22 -2.524387 -1.410362 -0.073298 0.194264 0.034026 -0.644900
    23 -0.000625 -2.168542 1.609983 -0.226560 0.000000 0.000000
    24 -8.140385 1.900687 -5.043866 -0.217338 0.799109 0.115907
    25 0.089928 -8.543162 0.000000 0.427153 -0.347867 0.042141
    26 -31.002227 25.748078 40.490682 0.486612 -2.791605 -0.712432
    27 -2.076931 0.007429 0.000003 0.000000 1.570796 0.000000
    28 0.000000 -0.000682 1.034103 0.000000 0.000000 0.000000
    29 0.000000 -0.000682 1.161383 0.000000 0.000000 0.000000
    30 0.000000 -0.000682 1.191590 0.000000 0.000000 0.000000
    31 -0.003480 -0.404828 0.000000 -0.000001 0.000000 0.000000
    32 -0.519309 -2.501154 -0.278957 -0.385783 -0.072595 -0.273888
    33 -0.010598 -1.208185 -0.000001 -1.055894 0.000000 0.000000
    34 0.000000 -0.763066 0.000000 -0.602139 0.000000 0.000000
    35 0.105981 -2.607134 -0.278958 -0.535826 -0.068397 -0.215466
    36 0.000000 -1.250580 0.000000 -0.776671 0.000000 0.000000
    37 0.000000 -0.932634 0.000000 -1.230421 0.000000 0.000000
    38 0.763064 -2.490556 -0.278958 -0.330799 -0.113514 -0.187698
    39 -0.012322 -1.280918 0.000000 -0.750491 0.000000 0.000000
    40 -0.001695 -0.745903 0.000571 -0.907571 0.000000 0.000000
    41 0.354567 0.016267 0.318133 0.357533 -0.038817 -0.932451
    42 1.887165 0.012878 0.000000 -0.388928 -0.118854 0.047679
    43 1.001874 -0.000270 0.000000 0.000000 0.000000 0.497481
    44 -1.123358 -2.195093 -0.278957 -0.155361 -0.023239 -0.234628
    45 0.010772 -0.963791 0.000000 -0.698111 0.000000 0.000000
    46 -0.010413 -0.631916 0.000000 -0.907545 0.000000 0.000000
    47 0.000000 -0.359712 0.000000 0.000000 0.000000 0.000000
    48 -0.170479 -2.636148 -0.277655 -0.331189 0.001388 0.011282
    49 0.010599 -1.261177 0.000001 -0.351029 0.000000 0.000000
    50 -0.000001 -0.943234 0.000000 -0.532326 0.000000 0.000000
    51 -0.827562 -2.508972 -0.277656 -0.489799 -0.000008 -0.000004
    52 0.000001 -1.292972 0.000000 -0.287978 0.000000 0.000000
    53 -0.000002 -0.752465 -0.000001 -0.445059 0.000000 0.000000
    54 0.444213 -2.561962 -0.277655 -0.343178 -0.063148 0.189351
    55 0.021023 -1.208187 0.000001 -0.427606 0.000000 0.000000
    56 0.010596 -0.741867 -0.000001 -0.453786 0.000000 0.000000
    57 1.047446 -2.222821 -0.277655 -0.275594 -0.204434 0.240758
    58 -0.000001 -0.996223 -0.000001 -0.353259 0.000000 0.000000
    59 -0.000001 -0.614690 0.000000 -0.349396 0.000000 0.000000
    60 -0.308256 -0.007814 0.307165 -0.188398 -0.099539 -2.471804
    61 1.978379 0.019544 0.000000 0.459996 -0.082321 0.166720
    62 0.980611 0.003731 -0.000910 0.144019 0.052385 0.089064
  time 14
    0 5.153351 -0.346169 -4.786199 -0.110030 -1.014451 -0.592556
    1 0.000000 -8.563283 0.000000 0.318739 0.622037 -0.031879
    2 -0.547964 -3.120861 2.771821 -0.161860 -0.430615 -2.687338
    3 1.365667 0.018926 -2.703214 -2.324969 -0.020119 1.560813
    4 1.089798 -0.503838 3.412272 1.747726 -0.320520 0.041480
    5 2.976063 0.022531 -1.307181 -2.653702 -0.005311 1.551300
    6 2.688890 -0.562811 3.134596 1.705314 0.599013 -0.097850
    7 3.685362 0.038284 1.700535 -0.253984 -3.113263 -1.543614
    8 1.487551 -1.492993 -1.672461 -2.518964 -0.079958 0.320920
    9 2.607458 -1.552344 1.432604 2.966253 -0.139781 0.535374
    10 2.474784 -1.425987 -0.073298 -2.947328 -0.034026 0.644901
    11 -0.000625 0.125563 2.771027 0.000000 0.000000 -3.141592
    12 -0.000625 0.121656 -3.395012 3.141592 0.000000 0.000000
    13 -1.364488 0.018926 -2.699309 0.796562 0.020119 -1.560813
    14 -2.974883 0.022531 -1.307181 0.487890 0.005311 -1.551300
    15 -3.691995 0.038285 1.700535 -0.263500 0.028329 -1.597979
    16 -2.590050 -0.554998 3.212722 -1.439645 -0.560542 0.103986
    17 -1.053461 -0.507744 3.431804 -1.396370 0.262515 -0.052254
    18 0.000590 -1.343610 -2.451134 0.618089 0.000000 0.000000
    19 -1.486372 -1.492993 -1.672461 0.622628 0.079959 -0.320920
    20 0.307978 -0.704410 -0.018405 0.000000 0.000000 0.000000
    21 -2.606279 -1.552344 1.432604 -0.175339 0.139781 -0.535374
    22 -2.473604 -1.425987 -0.073298 0.194264 0.034026 -0.644900
    23 -0.000625 -2.160730 1.621702 -0.262339 0.000000 0.000000
    24 -7.972412 2.271792 -4.996989 -0.196526 0.813130 0.122692
    25 0.089928 -8.543162 0.000000 0.401515 -0.347304 0.048708
    26 -31.002227 25.748078 40.490682 0.486612 -2.791605 -0.712432
    27 -2.076931 0.007429 0.000003 0.000000 1.570796 0.000000
    28 0.000000 -0.000682 1.034103 0.000000 0.000000 0.000000
    29 0.000000 -0.000682 1.161383 0.000000 0.000000 0.000000
    30 0.000000 -0.000682 1.191590 0.000000 0.000000 0.000000
    31 -0.003480 -0.404828 0.000000 -0.000001 0.000000 0.000000
    32 -0.519309 -2.501154 -0.278957 -0.385783 -0.072595 -0.273888
    33 -0.010598 -1.208185 -0.000001 -1.055894 0.000000 0.000000
    34 0.000000 -0.763066 0.000000 -0.602121 0.000000 0.000000
    35 0.105981 -2.607134 -0.278958 -0.535826 -0.068397 -0.215466
    36 0.000000 -1.250580 0.000000 -0.776671 0.000000 0.000000
    37 0.000000 -0.932634 0.000000 -1.230421 0.000000 0.000000
    38 0.763064 -2.490556 -0.278958 -0.330799 -0.113514 -0.187698
    39 -0.012322 -1.280918 0.000000 -0.750491 0.000000 0.000000
    40 -0.001695 -0.745903 0.000571 -0.907571 0.000000 0.000000
    41 0.354567 0.016267 0.318133 0.376499 -0.050347 -0.920887
    42 1.887165 0.012878 0.000000 -0.386986 -0.128753 0.019826
    43 1.001874 -0.000270 0.000000 0.000000 0.000000 0.471833
    44 -1.123358 -2.195093 -0.278957 -0.155361 -0.023239 -0.234628
    45 0.010772 -0.963791 0.000000 -0.698111 0.000000 0.000000
    46 -0.010413 -0.631916 0.000000 -0.907545 0.000000 0.000000
    47 0.000000 -0.359712 0.000000 0.000000 0.000000 0.000000
    48 -0.170479 -2.636148 -0.277655 -0.331189 0.001388 0.011282
    49 0.010599 -1.261177 0.000001 -0.351029 0.000000 0.000000
    50 -0.000001 -0.943234 0.000000 -0.532326 0.000000 0.000000
    51 -0.827562 -2.508972 -0.277656 -0.489799 -0.000008 -0.000004
    52 0.000001 -1.292972 0.000000 -0.287978 0.000000 0.000000
    53 -0.000002 -0.752465 -0.000001 -0.445059 0.000000 0.000000
    54 0.444213 -2.561962 -0.277655 -0.343178 -0.063148 0.189351
    55 0.021023 -1.208187 0.000001 -0.427606 0.000000 0.000000
    56 0.010596 -0.741867 -0.000001 -0.453786 0.000000 0.000000
    57 1.047446 -2.222821 -0.277655 -0.275594 -0.204434 0.240758
    58 -0.000001 -0.996223 -0.000001 -0.353259 0.000000 0.000000
    59 -0.000001 -0.614690 0.000000 -0.349396 0.000000 0.000000
    60 -0.308256 -0.007814 0.307165 -0.189369 -0.105040 -2.464339
    61 1.978379 0.019544 0.000000 0.481952 -0.021384 0.209861
    62 0.980611 0.003731 -0.000910 0.147470 0.041599 0.162594
  time 15
    0 5.098661 0.255412 -5.149491 -0.098538 -0.984219 -0.586261
    1 0.000000 -8.563283 0.000000 0.267403 0.624426 -0.056973
    2 -0.469836 -3.109142 2.678068 -0.245554 -0.437071 -2.681329
    3 1.252382 0.022832 -2.566491 -2.324969 -0.020119 1.560813
    4 1.121049 -0.460868 3.248204 1.748110 -0.316901 0.042163
    5 2.815902 0.026438 -1.221241 -2.653702 -0.005311 1.551300
    6 2.583418 -0.527653 2.993966 1.705746 0.603675 -0.097083
    7 3.501763 0.034378 1.653659 -0.252726 -3.113263 -1.543614
    8 1.432862 -1.356270 -1.566989 -2.518964 -0.079958 0.320920
    9 2.529331 -1.419528 1.413072 2.966253 -0.139781 0.535374
    10 2.381031 -1.304890 -0.042047 -2.947328 -0.034026 0.644901
    11 -0.000625 0.000559 2.622585 0.000000 0.000000 -3.141592
    12 -0.000625 0.000559 -3.348136 3.141592 0.000000 0.000000
    13 -1.251203 0.022832 -2.566492 0.796562 0.020119 -1.560813
    14 -2.814722 0.026438 -1.221241 0.487890 0.005311 -1.551300
    15 -3.508396 0.034379 1.653659 -0.260444 0.028329 -1.597979
    16 -2.496298 -0.519841 3.064280 -1.438914 -0.569243 0.102632
    17 -1.084712 -0.468680 3.263830 -1.396191 0.266266 -0.051559
    18 0.000590 -1.195168 -2.345662 0.618089 0.000000 0.000000
    19 -1.431683 -1.356270 -1.566989 0.622628 0.079959 -0.320920
    20 0.343135 -0.462216 -0.010592 0.000000 0.000000 0.000000
    21 -2.528151 -1.419528 1.413072 -0.175339 0.139781 -0.535374
    22 -2.379851 -1.304890 -0.042047 0.194264 0.034026 -0.644900
    23 -0.000625 -2.016194 1.594357 -0.278939 0.000000 0.000000
    24 -7.788812 2.580395 -4.914955 -0.162196 0.821664 0.138722
    25 0.089928 -8.543162 0.000000 0.377060 -0.328799 0.061541
    26 -31.002227 25.748078 40.490682 0.486612 -2.791605 -0.712432
    27 -2.076931 0.007429 0.000003 0.000000 1.570796 0.000000
    28 0.000000 -0.000682 1.034103 0.000000 0.000000 0.000000
    29 0.000000 -0.000682 1.161383 0.000000 0.000000 0.000000
    30 0.000000 -0.000682 1.191590 0.000000 0.000000 0.000000
    31 -0.003480 -0.404828 0.000000 -0.000001 0.000000 0.000000
    32 -0.519309 -2.501154 -0.278957 -0.385783 -0.072595 -0.273888
    33 -0.010598 -1.208185 -0.000001 -1.055894 0.000000 0.000000
    34 0.000000 -0.763066 0.000000 -0.602139 0.000000 0.000000
    35 0.105981 -2.607134 -0.278958 -0.535826 -0.068397 -0.215466
    36 0.000000 -1.250580 0.000000 -0.776671 0.000000 0.000000
    37 0.000000 -0.932634 0.000000 -1.230421 0.000000 0.000000
    38 0.763064 -2.490556 -0.278958 -0.330799 -0.113514 -0.187698
    39 -0.012322 -1.280918 0.000000 -0.750491 0.000000 0.000000
    40 -0.001695 -0.745903 0.000571 -0.907571 0.000000 0.000000
    41 0.354567 0.016267 0.318133 0.390350 -0.070392 -0.912850
    42 1.887165 0.012878 0.000000 -0.384206 -0.133175 -0.016344
    43 1.001874 -0.000270 0.000000 0.000000 0.000000 0.427455
    44 -1.123358 -2.195093 -0.278957 -0.155361 -0.023239 -0.234628
    45 0.010772 -0.963791 0.000000 -0.698111 0.000000 0.000000
    46 -0.010413 -0.631916 0.000000 -0.907545 0.000000 0.000000
    47 0.000000 -0.359712 0.000000 0.000000 0.000000 0.000000
    48 -0.170479 -2.636148 -0.277655 -0.331189 0.001388 0.011282
    49 0.010599 -1.261177 0.000001 -0.351029 0.000000 0.000000
    50 -0.000001 -0.943234 0.000000 -0.532326 0.000000 0.000000
    51 -0.827562 -2.508972 -0.277656 -0.489799 -0.000008 -0.000004
    52 0.000001 -1.292972 0.000000 -0.287978 0.000000 0.000000
    53 -0.000002 -0.752465 -0.000001 -0.445059 0.000000 0.000000
    54 0.444213 -2.561962 -0.277655 -0.343178 -0.063148 0.189351
    55 0.021023 -1.208187 0.000001 -0.427606 0.000000 0.000000
    56 0.010596 -0.741867 -0.000001 -0.453786 0.000000 0.000000
    57 1.047446 -2.222821 -0.277655 -0.275594 -0.204434 0.240758
    58 -0.000001 -0.996223 -0.000001 -0.353259 0.000000 0.000000
    59 -0.000001 -0.614690 0.000000 -0.349396 0.000000 0.000000
    60 -0.308256 -0.007814 0.307165 -0.190484 -0.111080 -2.456115
    61 1.978379 0.019544 0.000000 0.498287 0.019617 0.243368
    62 0.980611 0.003731 -0.000910 0.148597 0.037344 0.191189
  time 16
    0 5.051785 0.868712 -5.528409 -0.088280 -0.957341 -0.578822
    1 0.000000 -8.563283 0.000000 0.216150 0.626078 -0.080536
    2 -0.247173 -3.335711 2.635098 -0.342021 -0.451641 -2.676555
    3 1.057064 0.018926 -2.351641 -2.324969 -0.020119 1.560813
    4 1.183551 -0.406178 2.970852 1.748445 -0.322582 0.041097
    5 2.558082 0.030344 -1.084518 -2.653702 -0.005311 1.551300
    6 2.411538 -0.472964 2.767397 1.706010 0.606479 -0.096616
    7 3.212691 0.026565 1.579438 -0.249885 -3.113263 -1.543614
    8 1.346922 -1.133607 -1.399015 -2.518964 -0.079958 0.320920
    9 2.451204 -1.278898 1.397446 2.966253 -0.139781 0.535374
    10 2.283372 -1.179886 -0.010796 -2.947328 -0.034026 0.644901
    11 -0.000625 -0.241636 2.364765 0.000000 0.000000 -3.141592
    12 -0.000625 -0.241636 -3.297353 3.141592 0.000000 0.000000
    13 -1.051979 0.018926 -2.355548 0.796562 0.020119 -1.560813
    14 -2.556902 0.030344 -1.084518 0.487890 0.005311 -1.551300
    15 -3.215418 0.026566 1.579438 -0.256668 0.028329 -1.597979
    16 -2.340043 -0.465151 2.822085 -1.438327 -0.576170 0.101529
    17 -1.139401 -0.413991 2.978665 -1.395603 0.278023 -0.049402
    18 0.000590 -0.956879 -2.177688 0.618089 0.000000 0.000000
    19 -1.345743 -1.133607 -1.399015 0.622628 0.079959 -0.320920
    20 0.343135 -0.391901 -0.010592 0.000000 0.000000 0.000000
    21 -2.450024 -1.278898 1.397446 -0.175339 0.139781 -0.535374
    22 -2.282192 -1.179886 -0.010796 0.194264 0.034026 -0.644900
    23 -0.000625 -1.727123 1.527949 -0.276303 0.000000 0.000000
    24 -7.573962 2.904624 -4.793858 -0.117072 0.829053 0.162521
    25 0.089928 -8.543162 0.000000 0.349541 -0.300839 0.077299
    26 -31.002227 25.748078 40.490682 0.486612 -2.791605 -0.712432
    27 -2.076931 0.007429 0.000003 0.000000 1.570796 0.000000
    28 0.000000 -0.000682 1.034103 0.000000 0.000000 0.000000
    29 0.000000 -0.000682 1.161383 0.000000 0.000000 0.000000
    30 0.000000 -0.000682 1.191590 0.000000 0.000000 0.000000
    31 -0.003480 -0.404828 0.000000 -0.000001 0.000000 0.000000
    32 -0.519309 -2.501154 -0.278957 -0.385783 -0.072595 -0.273888
    33 -0.010598 -1.208185 -0.000001 -1.055894 0.000000 0.000000
    34 0.000000 -0.763066 0.000000 -0.602121 0.000000 0.000000
    35 0.105981 -2.607134 -0.278958 -0.535826 -0.068397 -0.215466
    36 0.000000 -1.250580 0.000000 -0.776671 0.000000 0.000000
    37 0.000000 -0.932634 0.000000 -1.230421 0.000000 0.000000
    38 0.763064 -2.490556 -0.278958 -0.330799 -0.113514 -0.187698
    39 -0.012322 -1.280918 0.000000 -0.750491 0.000000 0.000000
    40 -0.001695 -0.745903 0.000571 -0.907571 0.000000 0.000000
    41 0.354567 0.016267 0.318133 0.400459 -0.096579 -0.907457
    42 1.887165 0.012878 0.000000 -0.380934 -0.133511 -0.058511
    43 1.001874 -0.000270 0.000000 0.000000 0.000000 0.369459
    44 -1.123358 -2.195093 -0.278957 -0.155361 -0.023239 -0.234628
    45 0.010772 -0.963791 0.000000 -0.698111 0.000000 0.000000
    46 -0.010413 -0.631916 0.000000 -0.907545 0.000000 0.000000
    47 0.000000 -0.359712 0.000000 0.000000 0.000000 0.000000
    48 -0.170479 -2.636148 -0.277655 -0.331189 0.001388 0.011282
    49 0.010599 -1.261177 0.000001 -0.351029 0.000000 0.000000
    50 -0.000001 -0.943234 0.000000 -0.532326 0.000000 0.000000
    51 -0.827562 -2.508972 -0.277656 -0.489799 -0.000008 -0.000004
    52 0.000001 -1.292972 0.000000 -0.287978 0.000000 0.000000
    53 -0.000002 -0.752465 -0.000001 -0.445059 0.000000 0.000000
    54 0.444213 -2.561962 -0.277655 -0.343178 -0.063148 0.189351
    55 0.021023 -1.208187 0.000001 -0.427606 0.000000 0.000000
    56 0.010596 -0.741867 -0.000001 -0.453786 0.000000 0.000000
    57 1.047446 -2.222821 -0.277655 -0.275594 -0.204434 0.240758
    58 -0.000001 -0.996223 -0.000001 -0.353259 0.000000 0.000000
    59 -0.000001 -0.614690 0.000000 -0.349396 0.000000 0.000000
    60 -0.308256 -0.007814 0.307165 -0.191706 -0.117432 -2.447449
    61 1.978379 0.019544 0.000000 0.505730 0.037560 0.265438
    62 0.980611 0.003731 -0.000910 0.148897 0.036146 0.199190
  time 17
    0 5.012721 1.439042 -5.879982 -0.078783 -0.932700 -0.570716
    1 0.000000 -8.563283 0.000000 0.164979 0.626968 -0.103078
    2 -0.051855 -3.574000 2.541345 -0.440585 -0.467258 -2.671122
    3 0.939873 0.018926 -2.214918 -2.324969 -0.020119 1.560813
    4 1.206989 -0.378834 2.791159 1.748901 -0.330156 0.039659
    5 2.397921 0.030344 -1.002484 -2.653702 -0.005311 1.551300
    6 2.294347 -0.441713 2.630674 1.706369 0.610207 -0.096004
    7 3.025186 0.026565 1.536468 -0.246086 -3.113263 -1.543614
    8 1.296139 -0.996884 -1.293543 -2.518964 -0.079958 0.320920
    9 2.404327 -1.204677 1.397446 2.966253 -0.139781 0.535374
    10 2.236495 -1.113478 0.000923 -2.947328 -0.034026 0.644901
    11 -0.000625 -0.366640 2.204603 0.000000 0.000000 -3.141592
    12 -0.000625 -0.366640 -3.230945 3.141592 0.000000 0.000000
    13 -0.934788 0.018926 -2.222732 0.796562 0.020119 -1.560813
    14 -2.396741 0.030344 -1.002484 0.487890 0.005311 -1.551300
    15 -3.027912 0.026566 1.536468 -0.251635 0.028329 -1.597979
    16 -2.242384 -0.437807 2.673643 -1.437512 -0.585422 0.100055
    17 -1.162839 -0.382740 2.798972 -1.394788 0.293687 -0.046514
    18 0.000590 -0.812343 -2.072216 0.618089 0.000000 0.000000
    19 -1.294960 -0.996884 -1.293543 0.622628 0.079959 -0.320920
    20 0.307978 -0.493466 -0.018405 0.000000 0.000000 0.000000
    21 -2.403147 -1.204677 1.397446 -0.175339 0.139781 -0.535374
    22 -2.235315 -1.113478 0.000923 0.194264 0.034026 -0.644900
    23 -0.000625 -1.547430 1.488885 -0.272807 0.000000 0.000000
    24 -7.359112 3.213227 -4.653229 -0.064410 0.835075 0.191778
    25 0.089928 -8.543162 0.000000 0.320540 -0.266336 0.094254
    26 -31.002227 25.748078 40.490682 0.486612 -2.791605 -0.712432
    27 -2.076931 0.007429 0.000003 0.000000 1.570796 0.000000
    28 0.000000 -0.000682 1.034103 0.000000 0.000000 0.000000
    29 0.000000 -0.000682 1.161383 0.000000 0.000000 0.000000
    30 0.000000 -0.000682 1.191590 0.000000 0.000000 0.000000
    31 -0.003480 -0.404828 0.000000 -0.000001 0.000000 0.000000
    32 -0.519309 -2.501154 -0.278957 -0.385783 -0.072595 -0.273888
    33 -0.010598 -1.208185 -0.000001 -1.055894 0.000000 0.000000
    34 0.000000 -0.763066 0.000000 -0.602139 0.000000 0.000000
    35 0.105981 -2.607134 -0.278958 -0.535826 -0.068397 -0.215466
    36 0.000000 -1.250580 0.000000 -0.776671 0.000000 0.000000
    37 0.000000 -0.932634 0.000000 -1.230421 0.000000 0.000000
    38 0.763064 -2.490556 -0.278958 -0.330799 -0.113514 -0.187698
    39 -0.012322 -1.280918 0.000000 -0.750491 0.000000 0.000000
    40 -0.001695 -0.745903 0.000571 -0.907571 0.000000 0.000000
    41 0.354567 0.016267 0.318133 0.408201 -0.126579 -0.903801
    42 1.887165 0.012878 0.000000 -0.377519 -0.131222 -0.104412
    43 1.001874 -0.000270 0.000000 0.000000 0.000000 0.302943
    44 -1.123358 -2.195093 -0.278957 -0.155361 -0.023239 -0.234628
    45 0.010772 -0.963791 0.000000 -0.698111 0.000000 0.000000
    46 -0.010413 -0.631916 0.000000 -0.907545 0.000000 0.000000
    47 0.000000 -0.359712 0.000000 0.000000 0.000000 0.000000
    48 -0.170479 -2.636148 -0.277655 -0.331189 0.001388 0.011282
    49 0.010599 -1.261177 0.000001 -0.351029 0.000000 0.000000
    50 -0.000001 -0.943234 0.000000 -0.532326 0.000000 0.000000
    51 -0.827562 -2.508972 -0.277656 -0.489799 -0.000008 -0.000004
    52 0.000001 -1.292972 0.000000 -0.287978 0.000000 0.000000
    53 -0.000002 -0.752465 -0.000001 -0.445059 0.000000 0.000000
    54 0.444213 -2.561962 -0.277655 -0.343178 -0.063148 0.189351
    55 0.021023 -1.208187 0.000001 -0.427606 0.000000 0.000000
    56 0.010596 -0.741867 -0.000001 -0.453786 0.000000 0.000000
    57 1.047446 -2.222821 -0.277655 -0.275594 -0.204434 0.240758
    58 -0.000001 -0.996223 -0.000001 -0.353259 0.000000 0.000000
    59 -0.000001 -0.614690 0.000000 -0.349396 0.000000 0.000000
    60 -0.308256 -0.007814 0.307165 -0.193012 -0.123856 -2.438643
    61 1.978379 0.019544 0.000000 0.506868 0.041039 0.281709
    62 0.980611 0.003731 -0.000910 0.148681 0.036996 0.193475
  time 18
    0 4.989283 1.915619 -6.176866 -0.069570 -0.909176 -0.562227
    1 0.000000 -8.563283 0.000000 0.113836 0.627044 -0.125111
    2 0.092681 -3.792757 2.428060 -0.530379 -0.476855 -2.663549
    3 0.892996 0.018926 -2.152416 -2.324969 -0.020119 1.560813
    4 1.187457 -0.367115 2.709125 1.749500 -0.339612 0.037849
    5 2.331512 0.030344 -0.963421 -2.653702 -0.005311 1.551300
    6 2.235751 -0.426088 2.583798 1.706813 0.614869 -0.095225
    7 2.935339 0.026565 1.516936 -0.241340 -3.113263 -1.543614
    8 1.272701 -0.938288 -1.250573 -2.518964 -0.079958 0.320920
    9 2.384795 -1.169520 1.409166 2.966253 -0.139781 0.535374
    10 2.213057 -1.082227 0.008736 -2.947328 -0.034026 0.644901
    11 -0.000625 -0.366640 2.142102 0.000000 0.000000 -3.141592
    12 -0.000625 -0.366640 -3.148911 3.141592 0.000000 0.000000
    13 -0.887911 0.018926 -2.160230 0.796562 0.020119 -1.560813
    14 -2.330332 0.030344 -0.963421 0.487890 0.005311 -1.551300
    15 -2.938066 0.026566 1.516936 -0.245355 0.028329 -1.597979
    16 -2.199414 -0.422181 2.611141 -1.436469 -0.596976 0.098186
    17 -1.151120 -0.371021 2.713032 -1.393698 0.313281 -0.042846
    18 0.000590 -0.749841 -2.029246 0.618089 0.000000 0.000000
    19 -1.271522 -0.938288 -1.250573 0.622628 0.079959 -0.320920
    20 0.237664 -0.755193 -0.034030 0.000000 0.000000 0.000000
    21 -2.383615 -1.169520 1.409166 -0.175339 0.139781 -0.535374
    22 -2.211877 -1.082227 0.008736 0.194264 0.034026 -0.644900
    23 -0.000625 -1.461489 1.484979 -0.268452 0.000000 0.000000
    24 -7.171606 3.471048 -4.528225 -0.007809 0.839659 0.224132
    25 0.089928 -8.543162 0.000000 0.291382 -0.228261 0.111020
    26 -31.002227 25.748078 40.490682 0.486612 -2.791605 -0.712432
    27 -2.076931 0.007429 0.000003 0.000000 1.570796 0.000000
    28 0.000000 -0.000682 1.034103 0.000000 0.000000 0.000000
    29 0.000000 -0.000682 1.161383 0.000000 0.000000 0.000000
    30 0.000000 -0.000682 1.191590 0.000000 0.000000 0.000000
    31 -0.003480 -0.404828 0.000000 -0.000001 0.000000 0.000000
    32 -0.519309 -2.501154 -0.278957 -0.385783 -0.072595 -0.273888
    33 -0.010598 -1.208185 -0.000001 -1.055894 0.000000 0.000000
    34 0.000000 -0.763066 0.000000 -0.602139 0.000000 0.000000
    35 0.105981 -2.607134 -0.278958 -0.535826 -0.068397 -0.215466
    36 0.000000 -1.250580 0.000000 -0.776671 0.000000 0.000000
    37 0.000000 -0.932634 0.000000 -1.230421 0.000000 0.000000
    38 0.763064 -2.490556 -0.278958 -0.330799 -0.113514 -0.187698
    39 -0.012322 -1.280918 0.000000 -0.750491 0.000000 0.000000
    40 -0.001695 -0.745903 0.000571 -0.907571 0.000000 0.000000
    41 0.354567 0.016267 0.318133 0.414947 -0.158110 -0.900923
    42 1.887165 0.012878 0.000000 -0.374199 -0.127770 -0.151784
    43 1.001874 -0.000270 0.000000 0.000000 0.000000 0.233035
    44 -1.123358 -2.195093 -0.278957 -0.155361 -0.023239 -0.234628
    45 0.010772 -0.963791 0.000000 -0.698111 0.000000 0.000000
    46 -0.010413 -0.631916 0.000000 -0.907545 0.000000 0.000000
    47 0.000000 -0.359712 0.000000 0.000000 0.000000 0.000000
    48 -0.170479 -2.636148 -0.277655 -0.331189 0.001388 0.011282
    49 0.010599 -1.261177 0.000001 -0.351029 0.000000 0.000000
    50 -0.000001 -0.943234 0.000000 -0.532326 0.000000 0.000000
    51 -0.827562 -2.508972 -0.277656 -0.489799 -0.000008 -0.000004
    52 0.000001 -1.292972 0.000000 -0.287978 0.000000 0.000000
    53 -0.000002 -0.752465 -0.000001 -0.445059 0.000000 0.000000
    54 0.444213 -2.561962 -0.277655 -0.343178 -0.063148 0.189351
    55 0.021023 -1.208187 0.000001 -0.427606 0.000000 0.000000
    56 0.010596 -0.741867 -0.000001 -0.453786 0.000000 0.000000
    57 1.047446 -2.222821 -0.277655 -0.275594 -0.204434 0.240758
    58 -0.000001 -0.996223 -0.000001 -0.353259 0.000000 0.000000
    59 -0.000001 -0.614690 0.000000 -0.349396 0.000000 0.000000
    60 -0.308256 -0.007814 0.307165 -0.194331 -0.130112 -2.430048
    61 1.978379 0.019544 0.000000 0.504208 0.036353 0.294591
    62 0.980611 0.003731 -0.000910 0.148201 0.038878 0.180902
  time 19
    0 4.973658 2.239848 -6.379997 -0.060263 -0.885739 -0.553644
    1 0.000000 -8.563283 0.000000 0.062692 0.626205 -0.147096
    2 0.143463 -3.972450 2.318682 -0.600060 -0.473191 -2.653177
    3 0.924247 0.018926 -2.168042 -2.324969 -0.020119 1.560813
    4 1.128862 -0.374927 2.724751 1.750231 -0.350961 0.035668
    5 2.358857 0.030344 -0.979046 -2.653702 -0.005311 1.551300
    6 2.231845 -0.426088 2.626768 1.707364 0.620477 -0.094279
    7 2.947058 0.026565 1.520842 -0.235647 -3.113263 -1.543614
    8 1.280513 -0.961726 -1.266199 -2.518964 -0.079958 0.320920
    9 2.380889 -1.169520 1.432604 2.966253 -0.139781 0.535374
    10 2.213057 -1.086133 0.008736 -2.947328 -0.034026 0.644901
    11 -0.000625 -0.241636 2.177259 0.000000 0.000000 -3.141592
    12 -0.000625 -0.241636 -3.051252 3.141592 0.000000 0.000000
    13 -0.919162 0.018926 -2.171949 0.796562 0.020119 -1.560813
    14 -2.357677 0.030344 -0.979046 0.487890 0.005311 -1.551300
    15 -2.949785 0.026566 1.520842 -0.237817 0.028329 -1.597979
    16 -2.211133 -0.426088 2.638486 -1.435163 -0.610830 0.095897
    17 -1.104243 -0.378834 2.724751 -1.392272 0.336783 -0.038388
    18 0.000590 -0.773280 -2.044872 0.618089 0.000000 0.000000
    19 -1.279334 -0.961726 -1.266199 0.622628 0.079959 -0.320920
    20 0.136098 -1.173175 -0.057468 0.000000 0.000000 0.000000
    21 -2.379709 -1.169520 1.432604 -0.175339 0.139781 -0.535374
    22 -2.211877 -1.086133 0.008736 0.194264 0.034026 -0.644900
    23 -0.000625 -1.477115 1.512323 -0.263218 0.000000 0.000000
    24 -7.042696 3.650741 -4.430566 0.049277 0.842976 0.256929
    25 0.089928 -8.543162 0.000000 0.263107 -0.189730 0.126513
    26 -31.002227 25.748078 40.490682 0.486612 -2.791605 -0.712432
    27 -2.076931 0.007429 0.000003 0.000000 1.570796 0.000000
    28 0.000000 -0.000682 1.034103 0.000000 0.000000 0.000000
    29 0.000000 -0.000682 1.161383 0.000000 0.000000 0.000000
    30 0.000000 -0.000682 1.191590 0.000000 0.000000 0.000000
    31 -0.003480 -0.404828 0.000000 -0.000001 0.000000 0.000000
    32 -0.519309 -2.501154 -0.278957 -0.385783 -0.072595 -0.273888
    33 -0.010598 -1.208185 -0.000001 -1.055894 0.000000 0.000000
    34 0.000000 -0.763066 0.000000 -0.602139 0.000000 0.000000
    35 0.105981 -2.607134 -0.278958 -0.535826 -0.068397 -0.215466
    36 0.000000 -1.250580 0.000000 -0.776671 0.000000 0.000000
    37 0.000000 -0.932634 0.000000 -1.230421 0.000000 0.000000
    38 0.763064 -2.490556 -0.278958 -0.330799 -0.113514 -0.187698
    39 -0.012322 -1.280918 0.000000 -0.750491 0.000000 0.000000
    40 -0.001695 -0.745903 0.000571 -0.907571 0.000000 0.000000
    41 0.354567 0.016267 0.318133 0.422112 -0.188887 -0.897967
    42 1.887165 0.012878 0.000000 -0.371035 -0.124678 -0.198364
    43 1.001874 -0.000270 0.000000 0.000000 0.000000 0.164814
    44 -1.123358 -2.195093 -0.278957 -0.155361 -0.023239 -0.234628
    45 0.010772 -0.963791 0.000000 -0.698111 0.000000 0.000000
    46 -0.010413 -0.631916 0.000000 -0.907545 0.000000 0.000000
    47 0.000000 -0.359712 0.000000 0.000000 0.000000 0.000000
    48 -0.170479 -2.636148 -0.277655 -0.331189 0.001388 0.011282
    49 0.010599 -1.261177 0.000001 -0.351029 0.000000 0.000000
    50 -0.000001 -0.943234 0.000000 -0.532326 0.000000 0.000000
    51 -0.827562 -2.508972 -0.277656 -0.489799 -0.000008 -0.000004
    52 0.000001 -1.292972 0.000000 -0.287978 0.000000 0.000000
    53 -0.000002 -0.752465 -0.000001 -0.445059 0.000000 0.000000
    54 0.444213 -2.561962 -0.277655 -0.343178 -0.063148 0.189351
    55 0.021023 -1.208187 0.000001 -0.427606 0.000000 0.000000
    56 0.010596 -0.741867 -0.000001 -0.453786 0.000000 0.000000
    57 1.047446 -2.222821 -0.277655 -0.275594 -0.204434 0.240758
    58 -0.000001 -0.996223 -0.000001 -0.353259 0.000000 0.000000
    59 -0.000001 -0.614690 0.000000 -0.349396 0.000000 0.000000
    60 -0.308256 -0.007814 0.307165 -0.195625 -0.135948 -2.422000
    61 1.978379 0.019544 0.000000 0.500516 0.029674 0.306652
    62 0.980611 0.003731 -0.000910 0.147698 0.040748 0.168309
  time 20
    0 4.965845 2.360945 -6.458125 -0.050670 -0.861226 -0.545251
    1 0.000000 -8.563283 0.000000 0.011604 0.624299 -0.169527
    2 0.065336 -4.085734 2.244461 -0.637904 -0.448762 -2.640089
    3 1.025813 0.018926 -2.257888 -2.324969 -0.020119 1.560813
    4 1.027296 -0.402272 2.834129 1.751130 -0.364192 0.033103
    5 2.476048 0.030344 -1.041548 -2.653702 -0.005311 1.551300
    6 2.278721 -0.449526 2.755678 1.707999 0.626997 -0.093176
    7 3.060343 0.026565 1.552093 -0.229020 -3.113263 -1.543614
    8 1.319577 -1.063292 -1.344326 -2.518964 -0.079958 0.320920
    9 2.400421 -1.212490 1.467761 2.966253 -0.139781 0.535374
    10 2.244308 -1.125197 0.000923 -2.947328 -0.034026 0.644901
    11 -0.000625 0.000559 2.306169 0.000000 0.000000 -3.141592
    12 -0.000625 0.000559 -2.937967 3.141592 0.000000 0.000000
    13 -1.024634 0.018926 -2.257889 0.796562 0.020119 -1.560813
    14 -2.474868 0.030344 -1.041548 0.487890 0.005311 -1.551300
    15 -3.059163 0.026566 1.552093 -0.229020 0.028329 -1.597979
    16 -2.277541 -0.449526 2.755677 -1.433593 -0.626997 0.093176
    17 -1.026116 -0.402272 2.834129 -1.390462 0.364192 -0.033103
    18 0.000590 -0.882658 -2.122999 0.618089 0.000000 0.000000
    19 -1.318398 -1.063292 -1.344326 0.622628 0.079959 -0.320920
    20 -0.000625 -1.747411 -0.084813 0.000000 0.000000 0.000000
    21 -2.399241 -1.212490 1.467761 -0.175339 0.139781 -0.535374
    22 -2.243128 -1.125197 0.000923 0.194264 0.034026 -0.644900
    23 -0.000625 -1.594306 1.570919 -0.257105 0.000000 0.000000
    24 -6.991913 3.717149 -4.395408 0.103252 0.845609 0.287710
    25 0.089928 -8.543162 0.000000 0.236543 -0.153944 0.139951
    26 -31.002227 25.748078 40.490682 0.486612 -2.791605 -0.712432
    27 -2.076931 0.007429 0.000003 0.000000 1.570796 0.000000
    28 0.000000 -0.000682 1.034103 0.000000 0.000000 0.000000
    29 0.000000 -0.000682 1.161383 0.000000 0.000000 0.000000
    30 0.000000 -0.000682 1.191590 0.000000 0.000000 0.000000
    31 -0.003480 -0.404828 0.000000 -0.000001 0.000000 0.000000
    32 -0.519309 -2.501154 -0.278957 -0.385783 -0.072595 -0.273888
    33 -0.010598 -1.208185 -0.000001 -1.055894 0.000000 0.000000
    34 0.000000 -0.763066 0.000000 -0.602139 0.000000 0.000000
    35 0.105981 -2.607134 -0.278958 -0.535826 -0.068397 -0.215466
    36 0.000000 -1.250580 0.000000 -0.776671 0.000000 0.000000
    37 0.000000 -0.932634 0.000000 -1.230421 0.000000 0.000000
    38 0.763064 -2.490556 -0.278958 -0.330799 -0.113514 -0.187698
    39 -0.012322 -1.280918 0.000000 -0.750491 0.000000 0.000000
    40 -0.001695 -0.745903 0.000571 -0.907571 0.000000 0.000000
    41 0.354567 0.016267 0.318133 0.430988 -0.216714 -0.894104
    42 1.887165 0.012878 0.000000 -0.367979 -0.123456 -0.241983
    43 1.001874 -0.000270 0.000000 0.000000 0.000000 0.103411
    44 -1.123358 -2.195093 -0.278957 -0.155361 -0.023239 -0.234628
    45 0.010772 -0.963791 0.000000 -0.698111 0.000000 0.000000
    46 -0.010413 -0.631916 0.000000 -0.907545 0.000000 0.000000
    47 0.000000 -0.359712 0.000000 0.000000 0.000000 0.000000
    48 -0.170479 -2.636148 -0.277655 -0.331189 0.001388 0.011282
    49 0.010599 -1.261177 0.000001 -0.351029 0.000000 0.000000
    50 -0.000001 -0.943234 0.000000 -0.532326 0.000000 0.000000
    51 -0.827562 -2.508972 -0.277656 -0.489799 -0.000008 -0.000004
    52 0.000001 -1.292972 0.000000 -0.287978 0.000000 0.000000
    53 -0.000002 -0.752465 -0.000001 -0.445059 0.000000 0.000000
    54 0.444213 -2.561962 -0.277655 -0.343178 -0.063148 0.189351
    55 0.021023 -1.208187 0.000001 -0.427606 0.000000 0.000000
    56 0.010596 -0.741867 -0.000001 -0.453786 0.000000 0.000000
    57 1.047446 -2.222821 -0.277655 -0.275594 -0.204434 0.240758
    58 -0.000001 -0.996223 -0.000001 -0.353259 0.000000 0.000000
    59 -0.000001 -0.614690 0.000000 -0.349396 0.000000 0.000000
    60 -0.308256 -0.007814 0.307165 -0.196824 -0.141149 -2.414800
    61 1.978379 0.019544 0.000000 0.498707 0.027096 0.320390
    62 0.980611 0.003731 -0.000910 0.147470 0.041599 0.162594
end
