// Created by Crowbar 0.49.0.0

$modelname "weapons/tfa_cso/c_thunderpistol.mdl"

$Include "csonline_gmod.qci"

$bodygroup "weapon"
{
	studio "v_thunderpistol_v_thundergun01"
}
$bodygroup "weapon"
{
	studio "v_thunderpistol_v_thundergun02"
}
$bodygroup "weapon"
{
	studio "v_thunderpistol_v_thundergun03"
}
$bodygroup "weapon"
{
	studio "v_thunderpistol_v_thundergun_ef"
}

$CDMaterials "models\weapons\tfa_cso\thunderpistol\"

$attachment "0" "ThunderGun_root" 0.00 -8.20 1.565 rotate 0 0 0
//$attachment 1 "ThunderGun_root" 0.5 3 1

$sequence "idle" {
	"v_thunderpistol_anims\idle"
	{ event 5004 1 "Thunder.Loop" }
	{ event 5004 34 "Thunder.Idle1" }
	{ event 5004 54 "Thunder.Idle2" }
	{ event 5004 112 "Thunder.Idle3" }
	fps 30
	loop
	activity "ACT_VM_IDLE" 1
	snap
}
$sequence "shootA" {
	"v_thunderpistol_anims\shootA"
	{ event 5001 0 "#I83 S0.043 R30 F0 P30 T999 A1 L0 O0 X0" }
	fps 30
	activity "ACT_VM_PRIMARYATTACK" 1
	snap
}
$sequence "shootB" {
	"v_thunderpistol_anims\shootB"
	{ event 5001 0 "#I84 S0.045 R30 F0 P30 T999 A1 L0 O0 X0" }
	fps 30
	activity "ACT_VM_PRIMARYATTACK" 1
	snap
}
$sequence "reload" {
	"v_thunderpistol_anims\reload"
	{ event 5004 9 "Thunder.ClipOut" }
	{ event 5004 29 "Thunder.ClipIn" }
	fps 30
	activity "ACT_VM_RELOAD" 1
	snap
}
$sequence "draw" {
	"v_thunderpistol_anims\draw"
	{ event 5004 5 "Thunder.Draw" }
	fps 30
	activity "ACT_VM_DRAW" 1
	snap
}
