// Created by Crowbar 0.49.0.0

$modelname "weapons/tfa_cso/c_xm1014.mdl"

$Include "csonline_gmod.qci"

$bodygroup "weapon"
{
	studio "v_xm1014_f_xm1014_template"
}

$CDMaterials "models\weapons\tfa_cso\xm1014"

$attachment 0 "Bone 04" 3.25 -21.200001 2.95
//$attachment 1 "Bone52" 0 -2.5 0

$definebone "Bone01" "" 12.233252 -3.264874 -2.279816 -32.003391 119.056441 159.568493 0.000001 0.000000 0.000000 0.000001 0.000000 0.000000
$definebone "Bone_Lefthand" "Bone01" 0.000000 -8.563282 -0.000001 -7.174579 -9.715648 -35.289214 0.000000 0.000000 0.000000 0.000002 0.000000 -0.000003
$definebone "Bone 04" "Bone_Lefthand" -0.003479 -0.404829 0.000000 0.000002 0.000000 -0.000003 0.000001 0.000000 0.000000 0.000002 0.000000 -0.000003
$definebone "Bone02" "Bone_Lefthand" -0.222119 -3.429973 0.817995 82.368872 -70.694098 -71.450022 0.000000 0.000000 0.000001 0.000002 0.000003 0.000000
$definebone "Bone03" "Bone02" 0.000000 2.338128 0.839328 0.000002 0.000003 0.000000 0.000000 -0.000000 -0.000000 0.000002 0.000003 0.000000
$definebone "Bone25" "Bone03" -0.000000 -3.357312 1.408873 0.000002 0.000003 0.000000 0.000000 0.000000 -0.000000 0.000002 0.000003 0.000000
$definebone "Bone50" "Bone03" -0.000001 -6.122600 1.221523 0.000002 0.000003 0.000000 -0.000000 0.000001 0.000000 0.000002 0.000003 0.000000
$definebone "Bone48" "Bone03" -0.000000 -2.229289 1.941595 0.000002 0.000003 0.000000 0.000000 0.000000 0.000000 0.000002 0.000003 0.000000
$definebone "Bone52" "Bone03" -0.000001 -5.493102 2.360611 0.000002 0.000003 0.000000 0.000000 0.000000 -0.000000 0.000002 0.000003 0.000000

$sequence "idle" {
	"v_xm1014_anims\idle"
	fps 12
	loop
	activity "ACT_VM_IDLE" 1
	snap
}
$sequence "shoot1" {
	"v_xm1014_anims\shoot1"
	{ event 5001 0 "21" }
	fps 40
	activity "ACT_VM_PRIMARYATTACK" 1
	snap
}
$sequence "shoot2" {
	"v_xm1014_anims\shoot2"
	{ event 5001 0 "21" }
	fps 40
	activity "ACT_VM_PRIMARYATTACK" 2
	snap
}
$sequence "insert" {
	"v_xm1014_anims\insert"
	{ event 5004 1 "XM1014.Insert" }
	fps 90
	activity "ACT_VM_RELOAD" 1
	snap
}
$sequence "after_reload" {
	"v_xm1014_anims\after_reload"
	fps 30
	activity "ACT_SHOTGUN_RELOAD_FINISH" 1
	snap
}
$sequence "start_reload" {
	"v_xm1014_anims\start_reload"
	{ event 5004 20 "items/cliprelease1.wav" }
	fps 30
	activity "ACT_SHOTGUN_RELOAD_START" 1
	snap
}
$sequence "draw" {
	"v_xm1014_anims\draw"
	{ event 5004 1 "weapons/de_deploy.wav" }
	fps 30
	activity "ACT_VM_DRAW" 1
	snap
}
