// Created by Crowbar 0.34.0.0

$ModelName "weapons/tfa_cso/w_broad.mdl"

$BodyGroup "studio"
{
	studio "v_broad2"
}

$collisionmodel "v_broad2.smd"
{
	$mass 9
}

$CDMaterials "models\weapons\tfa_cso\broad"

$attachment "0" "root" 0.00 -23.50 3.50 rotate -0 0 0

$Sequence "idle" {
	"anims\idle.smd"
	fps 30
}