// Created by Crowbar 0.71

$modelname "weapons/tfa_cso/c_bearfurymk2.mdl"

$include "csonline_gmod.qci"

$bodygroup "weapon"
{
	studio "v_refc_r"
}
$bodygroup "weapon"
{
	studio "v_refc_l"
}

$cdmaterials "models/weapons/tfa_cso/bearfurymk2"

$attachment 0 "root_bone_L" 15 0 1.5
$attachment 1 "root_bone_R" 15 0 1.5
//$attachment 2 "root_bone_L" 7 0 0
//$attachment 3 "root_bone_R" 7 0 0
//$attachment 4 "root_bone_L" 12.7 1.8 -1
//$attachment 5 "root_bone_R" 12.7 -1.8 -1

$sequence "idle" {
	"v_y21s1jetgunmc_anims\idle"
	activity "ACT_VM_IDLE" 1
	fps 30
	loop
	snap
}
$sequence "reload" {
	"v_y21s1jetgunmc_anims\reload"
	activity "ACT_VM_RELOAD" 1
	{ event 5031 10 "#I162 S0.1 R0 F0 P30 T999 A1 L0 O0 U X3" }
	{ event 5021 20 "#I162 S0.1 R0 F0 P30 T999 A1 L0 O0 U X2" }
	{ event 5004 5 "BearFuryMK2.Reload" }
	fps 30
	snap
}
$sequence "draw" {
	"v_y21s1jetgunmc_anims\draw"
	activity "ACT_VM_DRAW" 1
	{ event 5004 3 "BearFuryMK2.Draw" }
	fps 30
	snap
}
$sequence "shoot1" {
	"v_y21s1jetgunmc_anims\shoot1"
	activity "ACT_VM_PRIMARYATTACK" 1
	{ event 5011 2 "#I160 S0.1 R0 F0 P30 T999 A1 L0 O0 X1" }
	fps 30
	snap
}
$sequence "shoot2" {
	"v_y21s1jetgunmc_anims\shoot2"
	activity "ACT_VM_SECONDARYATTACK" 1
	{ event 5001 2 "#I160 S0.1 R0 F0 P30 T999 A1 L0 O0 X0" }
	fps 30
	snap
}
$sequence "dash_start" {
	"v_y21s1jetgunmc_anims\dash_start"
	fps 30
	snap
}
$sequence "dash_loop" {
	"v_y21s1jetgunmc_anims\dash_loop"
	fps 30
	loop
	snap
}
$sequence "dash_end" {
	"v_y21s1jetgunmc_anims\dash_end"
	fps 30
	snap
}

$sequence "dash" {
	"v_y21s1jetgunmc_anims\dash"
	activity "ACT_VM_DRYFIRE" 1
	fps 30
	snap
}
