version 1
nodes
  0 "Bip01 L Forearm" -1
  1 "Bip01 L Hand" 0
  2 "Bone_K1A" 1
  3 "Bone_Reload" 2
  4 "Bone_Magazine" 2
  5 "Bone_SlidingStick" 2
  6 "Bone_Trigger" 2
  7 "Bone_Magazine_Botten" 2
  8 "Bip01 R Forearm" -1
  9 "Bip01 R Hand" 8
  10 "Bip01 R Finger0" 9
  11 "Bip01 R Finger01" 10
  12 "Bip01 R Finger02" 11
  13 "Bip01 R Finger1" 9
  14 "Bip01 R Finger11" 13
  15 "Bip01 R Finger12" 14
  16 "Bip01 R Finger2" 9
  17 "Bip01 R Finger21" 16
  18 "Bip01 R Finger22" 17
  19 "Bip01 R Finger3" 9
  20 "Bip01 R Finger31" 19
  21 "Bip01 R Finger32" 20
  22 "Bip01 R Finger4" 9
  23 "Bip01 R Finger41" 22
  24 "Bip01 R Finger42" 23
  25 "Bone_Se_Hand-R" 9
  26 "Bip01 R ForeTwist2" 8
  27 "Bip01 L Finger0" 1
  28 "Bip01 L Finger01" 27
  29 "Bip01 L Finger02" 28
  30 "Bip01 L Finger1" 1
  31 "Bip01 L Finger11" 30
  32 "Bip01 L Finger12" 31
  33 "Bip01 L Finger2" 1
  34 "Bip01 L Finger21" 33
  35 "Bip01 L Finger22" 34
  36 "Bip01 L Finger3" 1
  37 "Bip01 L Finger31" 36
  38 "Bip01 L Finger32" 37
  39 "Bip01 L Finger4" 1
  40 "Bip01 L Finger41" 39
  41 "Bip01 L Finger42" 40
  42 "Bone_Se_Hand-L" 1
  43 "Bip01 L ForeTwist2" 0
end
skeleton
  time 0
    0 8.779114 3.633559 -8.018722 -0.901616 -0.118747 -1.732735
    1 8.499672 0.000001 -0.000001 -2.214431 0.056383 0.036077
    2 2.483044 0.746121 -0.242963 -6.223800 -3.125781 -4.895945
    3 0.000000 -6.072898 3.966896 0.000000 0.000000 0.000000
    4 0.000000 -5.306968 -0.748578 0.000000 0.000000 0.000000
    5 0.000001 4.106386 3.073854 1.570796 0.000000 0.000000
    6 0.000000 -2.562485 1.686582 -0.375655 0.000000 0.000000
    7 -0.469865 -4.004093 2.092578 0.000000 -1.570796 0.000000
    8 -0.424450 -9.384138 -9.389429 -0.684931 -0.608452 -0.808615
    9 8.499673 0.000000 0.000001 2.327256 0.303392 0.552870
    10 1.066141 0.161472 0.665474 -2.281337 -0.828829 1.010672
    11 1.535968 -0.000001 -0.000001 0.000000 0.000000 0.311243
    12 1.100830 -0.000001 0.000000 0.000000 0.000000 0.461505
    13 2.725986 -0.106123 1.020464 0.052322 0.067012 0.389522
    14 1.397575 0.000000 0.000000 0.000000 0.000000 1.018368
    15 0.957878 0.000000 -0.000001 0.000000 0.000000 0.721902
    16 2.818702 -0.176450 0.444442 0.250606 0.115521 0.790488
    17 1.684282 -0.000001 0.000001 0.000000 0.000000 1.169036
    18 1.151940 0.000000 -0.000001 0.000000 0.000000 0.585453
    19 2.804605 -0.069564 -0.290473 0.203686 0.118165 0.919294
    20 1.480629 0.000000 -0.000001 0.000000 0.000000 1.061942
    21 1.076366 0.000001 -0.000002 0.000000 0.000000 0.610484
    22 2.637186 0.041572 -0.929335 0.343052 0.184039 0.966582
    23 1.124349 -0.000001 -0.000001 0.000000 0.000000 0.998230
    24 0.891245 0.000001 -0.000001 0.000000 0.000000 0.386426
    25 0.077142 -0.333578 0.116334 4.843995 2.976957 -5.960779
    26 2.428478 -0.000001 0.000000 0.275112 0.000000 0.000000
    27 1.066141 0.161472 -0.665474 2.374423 0.704901 1.046698
    28 1.535968 -0.000001 0.000001 0.000000 0.000000 1.180468
    29 1.100830 0.000000 0.000000 0.000000 0.000000 0.433641
    30 2.725985 -0.106123 -1.020464 -0.067738 -0.027556 -0.128760
    31 1.397574 0.000000 0.000001 0.000000 0.000000 0.217909
    32 0.957879 -0.000001 0.000000 0.000000 0.000000 0.870694
    33 2.818702 -0.176450 -0.444442 -0.196584 -0.091181 0.608085
    34 1.684282 -0.000001 -0.000001 0.000000 0.000000 1.801003
    35 1.151941 0.000000 0.000001 0.000000 0.000000 0.674933
    36 2.804606 -0.069563 0.290473 -0.290281 -0.058740 0.816215
    37 1.480629 0.000000 0.000001 0.000000 0.000000 1.638044
    38 1.076367 0.000000 0.000000 0.000000 0.000000 0.282362
    39 2.637187 0.041572 0.929336 -0.425480 -0.043732 0.918245
    40 1.124349 0.000000 0.000000 0.000000 0.000000 1.285653
    41 0.891246 0.000001 0.000000 0.000000 0.000000 0.517941
    42 0.050302 -0.068011 -0.113034 1.724535 0.010837 0.011384
    43 2.428478 0.000001 0.000000 -0.241472 0.000000 0.000000
  time 1
    0 8.779114 3.633559 -8.018722 -0.901616 -0.118747 -1.732735
    1 8.499672 0.000001 -0.000001 -2.214431 0.056383 0.036077
    2 2.483044 0.746121 -0.242963 -6.223800 -3.125781 -4.895945
    3 0.000000 -6.072898 3.966896 0.000000 0.000000 0.000000
    4 0.000000 -5.306968 -0.748578 0.000000 0.000000 0.000000
    5 0.000001 4.106386 3.073854 1.570796 0.000000 0.000000
    6 0.000000 -2.562485 1.686582 -0.375655 0.000000 0.000000
    7 -0.469865 -4.004093 2.092578 0.000000 -1.570796 0.000000
    8 -0.424450 -9.384138 -9.389429 -0.684931 -0.608452 -0.808615
    9 8.499673 0.000000 0.000001 2.327256 0.303392 0.552870
    10 1.066141 0.161472 0.665474 -2.281337 -0.828829 1.010672
    11 1.535968 -0.000001 -0.000001 0.000000 0.000000 0.311243
    12 1.100830 -0.000001 0.000000 0.000000 0.000000 0.461505
    13 2.725986 -0.106123 1.020464 0.052322 0.067012 0.389522
    14 1.397575 0.000000 0.000000 0.000000 0.000000 1.018368
    15 0.957878 0.000000 -0.000001 0.000000 0.000000 0.721902
    16 2.818702 -0.176450 0.444442 0.250606 0.115521 0.790488
    17 1.684282 -0.000001 0.000001 0.000000 0.000000 1.169036
    18 1.151940 0.000000 -0.000001 0.000000 0.000000 0.585453
    19 2.804605 -0.069564 -0.290473 0.203686 0.118165 0.919294
    20 1.480629 0.000000 -0.000001 0.000000 0.000000 1.061942
    21 1.076366 0.000001 -0.000002 0.000000 0.000000 0.610484
    22 2.637186 0.041572 -0.929335 0.343052 0.184039 0.966582
    23 1.124349 -0.000001 -0.000001 0.000000 0.000000 0.998230
    24 0.891245 0.000001 -0.000001 0.000000 0.000000 0.386426
    25 0.077142 -0.333578 0.116334 4.843995 2.976957 -5.960779
    26 2.428478 -0.000001 0.000000 0.275112 0.000000 0.000000
    27 1.066141 0.161472 -0.665474 2.374423 0.704901 1.046698
    28 1.535968 -0.000001 0.000001 0.000000 0.000000 1.180468
    29 1.100830 0.000000 0.000000 0.000000 0.000000 0.433641
    30 2.725985 -0.106123 -1.020464 -0.067738 -0.027556 -0.128760
    31 1.397574 0.000000 0.000001 0.000000 0.000000 0.217909
    32 0.957879 -0.000001 0.000000 0.000000 0.000000 0.870694
    33 2.818702 -0.176450 -0.444442 -0.196584 -0.091181 0.608085
    34 1.684282 -0.000001 -0.000001 0.000000 0.000000 1.801003
    35 1.151941 0.000000 0.000001 0.000000 0.000000 0.674933
    36 2.804606 -0.069563 0.290473 -0.290281 -0.058740 0.816215
    37 1.480629 0.000000 0.000001 0.000000 0.000000 1.638044
    38 1.076367 0.000000 0.000000 0.000000 0.000000 0.282362
    39 2.637187 0.041572 0.929336 -0.425480 -0.043732 0.918245
    40 1.124349 0.000000 0.000000 0.000000 0.000000 1.285653
    41 0.891246 0.000001 0.000000 0.000000 0.000000 0.517941
    42 0.050302 -0.068011 -0.113034 1.724535 0.010837 0.011384
    43 2.428478 0.000001 0.000000 -0.241472 0.000000 0.000000
end
