version 1
nodes
  0 "Bone01" -1
  1 "Bone_Lefthand" 0
  2 "Bone02" 1
  3 "Bone03" 2
  4 "Bone52" 3
  5 "Bone48" 3
  6 "Bone25" 3
  7 "Bone50" 3
  8 "Bone54" 3
  9 "Bone 04" 1
  10 "Bone13" 9
  11 "Bone14" 10
  12 "Bone15" 11
  13 "Bone17" 9
  14 "Bone18" 13
  15 "Bone19" 14
  16 "Bone21" 9
  17 "Bone22" 16
  18 "Bone23" 17
  19 "Bone05" 9
  20 "Bone06" 19
  21 "Bone07" 20
  22 "Bone09" 9
  23 "Bone10" 22
  24 "Bone11" 23
  25 "Bone04" -1
  26 "Bone_Righthand" 25
  27 "Bone26" 26
  28 "Bone35" 27
  29 "Bone36" 28
  30 "Bone37" 29
  31 "Bone31" 27
  32 "Bone32" 31
  33 "Bone33" 32
  34 "Bone39" 27
  35 "Bone40" 34
  36 "Bone41" 35
  37 "Bone43" 27
  38 "Bone44" 37
  39 "Bone45" 38
  40 "Bone27" 27
  41 "Bone28" 40
  42 "Bone29" 41
end
skeleton
  time 0
    0 5.547614 2.732864 -7.224737 1.502055 -0.651336 -2.318057
    1 -0.001604 -8.561233 -0.002570 0.372420 -0.195434 -0.613076
    2 -0.365922 -3.554516 0.712018 -1.186454 1.434443 -1.173803
    3 0.000000 2.617617 0.665016 0.000000 0.000000 0.000000
    4 -0.000001 -1.655465 2.278034 0.000000 0.000000 0.000000
    5 -0.000001 -1.796958 1.330032 0.000000 0.000000 0.000000
    6 -0.000002 -2.886455 1.471525 0.000000 0.000000 0.000000
    7 0.000000 -0.778212 1.774024 -0.680679 0.000000 0.000000
    8 -0.000001 -1.598867 0.580120 0.000000 0.000000 0.000000
    9 -0.003480 -0.404829 0.000000 0.000000 0.000000 0.000000
    10 -0.519309 -2.501155 -0.278957 0.038340 0.000000 -0.122173
    11 -0.010598 -1.208185 -0.000001 0.097673 0.000000 0.000000
    12 0.000000 -0.763066 0.000000 0.195394 0.000000 0.000000
    13 0.105981 -2.607133 -0.278957 0.078487 0.000000 -0.148353
    14 0.000000 -1.250578 -0.000001 0.127333 0.000000 0.000000
    15 0.000000 -0.932634 0.000000 0.081993 0.000000 0.000000
    16 0.763063 -2.490556 -0.278957 -1.211705 0.030405 0.214564
    17 -0.012322 -1.280917 0.000000 0.263530 0.000000 0.000000
    18 -0.001697 -0.749371 -0.000001 0.092472 0.000000 0.000000
    19 0.354567 0.016267 0.318133 0.129899 -0.161122 -0.442578
    20 1.887164 0.012877 0.000000 -0.281692 0.119690 -0.010034
    21 1.001874 -0.000270 -0.000001 0.000000 0.000000 -0.541004
    22 -1.123358 -2.195093 -0.278957 -0.001796 0.000000 -0.087266
    23 0.010772 -0.963791 0.000000 -0.029694 0.000000 0.000000
    24 -0.010412 -0.631916 0.000000 0.211107 0.000000 0.000000
    25 -5.737969 -0.861116 -10.260372 -1.168537 2.380150 -1.280348
    26 0.089930 -8.543163 -0.000001 -0.380022 0.480782 0.067487
    27 0.000000 -0.359712 0.000000 0.000000 0.000000 0.000000
    28 -0.170479 -2.636146 -0.277655 -0.343897 0.000000 0.000000
    29 0.010599 -1.261176 0.000002 -0.343832 0.000000 0.000000
    30 -0.000001 -0.943232 -0.000001 -0.532326 0.000000 0.000000
    31 -0.827563 -2.508973 -0.277656 -0.303713 0.000000 0.000000
    32 0.000000 -1.292971 0.000000 -0.287979 0.000000 0.000000
    33 0.000000 -0.752466 0.000000 -0.445059 0.000000 0.000000
    34 0.444213 -2.561960 -0.277655 -0.275212 -0.046226 -0.024599
    35 0.021022 -1.208186 0.000000 -0.312444 0.000000 0.000000
    36 0.010597 -0.741867 -0.000001 -0.401443 0.000000 0.000000
    37 1.047444 -2.222821 -0.277655 -0.009116 -0.066950 -0.041090
    38 0.000000 -0.996223 -0.000002 -0.322899 0.000000 0.000000
    39 -0.000001 -0.614690 0.000000 -0.523599 0.000000 0.000000
    40 -0.308254 -0.007814 0.307166 -0.349218 -0.257566 -2.266880
    41 1.978377 0.019543 0.000001 -0.000002 -0.000010 0.287977
    42 0.982426 0.003186 0.000000 0.000000 0.000000 0.331617
  time 1
    0 5.703869 2.557078 -7.017700 1.514485 -0.776569 -2.247927
    1 -0.001604 -8.561233 -0.002570 0.339973 -0.186193 -0.659968
    2 -0.315139 -3.097471 0.899524 -1.130313 1.432308 -1.192854
    3 0.000000 2.617617 0.665016 0.000000 0.000000 0.000000
    4 -0.000001 -1.655465 2.278034 0.000000 0.000000 0.000000
    5 -0.000001 -1.796958 1.330032 0.000000 0.000000 0.000000
    6 -0.000002 -2.886455 1.471525 0.000000 0.000000 0.000000
    7 0.000000 -0.778212 1.774024 -0.680679 0.000000 0.000000
    8 -0.000001 -1.598867 0.580120 0.000000 0.000000 0.000000
    9 -0.003480 -0.404829 0.000000 0.000000 0.000000 0.000000
    10 -0.519309 -2.501155 -0.278957 0.040079 0.000000 -0.122173
    11 -0.010598 -1.208185 -0.000001 0.099657 0.000000 0.000000
    12 0.000000 -0.763066 0.000000 0.197963 0.000000 0.000000
    13 0.105981 -2.607133 -0.278957 0.080104 0.000000 -0.148353
    14 0.000000 -1.250578 -0.000001 0.129570 0.000000 0.000000
    15 0.000000 -0.932634 0.000000 0.084553 0.000000 0.000000
    16 0.763063 -2.490556 -0.278957 -1.178932 0.030405 0.214564
    17 -0.012322 -1.280917 0.000000 0.142925 0.000000 0.000000
    18 -0.001697 -0.749371 -0.000001 0.007009 0.000000 0.000000
    19 0.354567 0.016267 0.318133 0.129899 -0.161122 -0.442578
    20 1.887164 0.012877 0.000000 -0.281692 0.119690 -0.010034
    21 1.001874 -0.000270 -0.000001 0.000000 0.000000 -0.541004
    22 -1.123358 -2.195093 -0.278957 -0.000241 0.000000 -0.087266
    23 0.010772 -0.963791 0.000000 -0.028725 0.000000 0.000000
    24 -0.010412 -0.631916 0.000000 0.213483 0.000000 0.000000
    25 -5.769220 -0.861116 -10.272091 -1.154187 2.386131 -1.273107
    26 0.089930 -8.543163 -0.000001 -0.331534 0.441511 0.094636
    27 0.000000 -0.359712 0.000000 0.000000 0.000000 0.000000
    28 -0.170479 -2.636146 -0.277655 -0.343897 0.000000 0.000000
    29 0.010599 -1.261176 0.000002 -0.343832 0.000000 0.000000
    30 -0.000001 -0.943232 -0.000001 -0.532326 0.000000 0.000000
    31 -0.827563 -2.508973 -0.277656 -0.303713 0.000000 0.000000
    32 0.000000 -1.292971 0.000000 -0.287979 0.000000 0.000000
    33 0.000000 -0.752466 0.000000 -0.445059 0.000000 0.000000
    34 0.444213 -2.561960 -0.277655 -0.275212 -0.046226 -0.024599
    35 0.021022 -1.208186 0.000000 -0.312444 0.000000 0.000000
    36 0.010597 -0.741867 -0.000001 -0.401443 0.000000 0.000000
    37 1.047444 -2.222821 -0.277655 -0.009116 -0.066950 -0.041090
    38 0.000000 -0.996223 -0.000002 -0.322899 0.000000 0.000000
    39 -0.000001 -0.614690 0.000000 -0.523599 0.000000 0.000000
    40 -0.308254 -0.007814 0.307166 -0.349218 -0.257566 -2.266880
    41 1.978377 0.019543 0.000001 -0.000002 -0.000010 0.287977
    42 0.982426 0.003186 0.000000 0.000000 0.000000 0.331617
  time 2
    0 5.852311 2.389104 -6.826288 1.512126 -0.911587 -2.161758
    1 -0.001604 -8.561233 -0.002570 0.304849 -0.176888 -0.718901
    2 -0.268263 -2.761523 1.067497 -1.073789 1.428241 -1.231523
    3 0.000000 2.617617 0.665016 0.000000 0.000000 0.000000
    4 -0.000001 -1.655465 2.278034 0.000000 0.000000 0.000000
    5 -0.000001 -1.796958 1.330032 0.000000 0.000000 0.000000
    6 -0.000002 -2.886455 1.471525 0.000000 0.000000 0.000000
    7 0.000000 -0.778212 1.774024 -0.680679 0.000000 0.000000
    8 -0.000001 -1.598867 0.580120 0.000000 0.000000 0.000000
    9 -0.003480 -0.404829 0.000000 0.000000 0.000000 0.000000
    10 -0.519309 -2.501155 -0.278957 0.044878 0.000000 -0.122173
    11 -0.010598 -1.208185 -0.000001 0.105131 0.000000 0.000000
    12 0.000000 -0.763066 0.000000 0.205053 0.000000 0.000000
    13 0.105981 -2.607133 -0.278957 0.084565 0.000000 -0.148353
    14 0.000000 -1.250578 -0.000001 0.135743 0.000000 0.000000
    15 0.000000 -0.932634 0.000000 0.091764 0.000000 0.000000
    16 0.763063 -2.490556 -0.278957 -1.142705 0.030405 0.214564
    17 -0.012322 -1.280917 0.000000 0.009634 0.000000 0.000000
    18 -0.001697 -0.749371 -0.000001 -0.087442 0.000000 0.000000
    19 0.354567 0.016267 0.318133 0.129899 -0.161122 -0.442578
    20 1.887164 0.012877 0.000000 -0.281692 0.119690 -0.010034
    21 1.001874 -0.000270 -0.000001 0.000000 0.000000 -0.541004
    22 -1.123358 -2.195093 -0.278957 0.004052 0.000000 -0.087266
    23 0.010772 -0.963791 0.000000 -0.026052 0.000000 0.000000
    24 -0.010412 -0.631916 0.000000 0.220043 0.000000 0.000000
    25 -5.788752 -0.861116 -10.275998 -1.123051 2.399496 -1.257759
    26 0.089930 -8.543163 -0.000001 -0.284038 0.400417 0.119420
    27 0.000000 -0.359712 0.000000 0.000000 0.000000 0.000000
    28 -0.170479 -2.636146 -0.277655 -0.343897 0.000000 0.000000
    29 0.010599 -1.261176 0.000002 -0.343832 0.000000 0.000000
    30 -0.000001 -0.943232 -0.000001 -0.532326 0.000000 0.000000
    31 -0.827563 -2.508973 -0.277656 -0.303713 0.000000 0.000000
    32 0.000000 -1.292971 0.000000 -0.287979 0.000000 0.000000
    33 0.000000 -0.752466 0.000000 -0.445059 0.000000 0.000000
    34 0.444213 -2.561960 -0.277655 -0.275212 -0.046226 -0.024599
    35 0.021022 -1.208186 0.000000 -0.312444 0.000000 0.000000
    36 0.010597 -0.741867 -0.000001 -0.401443 0.000000 0.000000
    37 1.047444 -2.222821 -0.277655 -0.009116 -0.066950 -0.041090
    38 0.000000 -0.996223 -0.000002 -0.322899 0.000000 0.000000
    39 -0.000001 -0.614690 0.000000 -0.523599 0.000000 0.000000
    40 -0.308254 -0.007814 0.307166 -0.349218 -0.257566 -2.266880
    41 1.978377 0.019543 0.000001 -0.000002 -0.000010 0.287977
    42 0.982426 0.003186 0.000000 0.000000 0.000000 0.331617
  time 3
    0 5.989034 2.232849 -6.646595 1.482366 -1.052072 -2.048636
    1 -0.001604 -8.561233 -0.002570 0.267889 -0.168930 -0.784760
    2 -0.225293 -2.550579 1.219846 -1.018223 1.425496 -1.261231
    3 0.000000 2.617617 0.665016 0.000000 0.000000 0.000000
    4 -0.000001 -1.655465 2.278034 0.000000 0.000000 0.000000
    5 -0.000001 -1.796958 1.330032 0.000000 0.000000 0.000000
    6 -0.000002 -2.886455 1.471525 0.000000 0.000000 0.000000
    7 0.000000 -0.778212 1.774024 -0.680679 0.000000 0.000000
    8 -0.000001 -1.598867 0.580120 0.000000 0.000000 0.000000
    9 -0.003480 -0.404829 0.000000 0.000000 0.000000 0.000000
    10 -0.519309 -2.501155 -0.278957 0.052216 0.000000 -0.122173
    11 -0.010598 -1.208185 -0.000001 0.113501 0.000000 0.000000
    12 0.000000 -0.763066 0.000000 0.215893 0.000000 0.000000
    13 0.105981 -2.607133 -0.278957 0.091386 0.000000 -0.148353
    14 0.000000 -1.250578 -0.000001 0.145228 0.000000 0.000000
    15 0.000000 -0.932634 0.000000 0.102789 0.000000 0.000000
    16 0.763063 -2.490556 -0.278957 -1.108166 0.030405 0.214564
    17 -0.012322 -1.280917 0.000000 -0.117298 0.000000 0.000000
    18 -0.001697 -0.749371 -0.000001 -0.177428 0.000000 0.000000
    19 0.354567 0.016267 0.318133 0.129899 -0.161122 -0.442578
    20 1.887164 0.012877 0.000000 -0.281692 0.119690 -0.010034
    21 1.001874 -0.000270 -0.000001 0.000000 0.000000 -0.541004
    22 -1.123358 -2.195093 -0.278957 0.010615 0.000000 -0.087266
    23 0.010772 -0.963791 0.000000 -0.021961 0.000000 0.000000
    24 -0.010412 -0.631916 0.000000 0.230072 0.000000 0.000000
    25 -5.796564 -0.861116 -10.279904 -1.092565 2.413231 -1.243119
    26 0.089930 -8.543163 -0.000001 -0.237535 0.357689 0.141839
    27 0.000000 -0.359712 0.000000 0.000000 0.000000 0.000000
    28 -0.170479 -2.636146 -0.277655 -0.343897 0.000000 0.000000
    29 0.010599 -1.261176 0.000002 -0.343832 0.000000 0.000000
    30 -0.000001 -0.943232 -0.000001 -0.532326 0.000000 0.000000
    31 -0.827563 -2.508973 -0.277656 -0.303713 0.000000 0.000000
    32 0.000000 -1.292971 0.000000 -0.287979 0.000000 0.000000
    33 0.000000 -0.752466 0.000000 -0.445059 0.000000 0.000000
    34 0.444213 -2.561960 -0.277655 -0.275212 -0.046226 -0.024599
    35 0.021022 -1.208186 0.000000 -0.312444 0.000000 0.000000
    36 0.010597 -0.741867 -0.000001 -0.401443 0.000000 0.000000
    37 1.047444 -2.222821 -0.277655 -0.009116 -0.066950 -0.041090
    38 0.000000 -0.996223 -0.000002 -0.322899 0.000000 0.000000
    39 -0.000001 -0.614690 0.000000 -0.523599 0.000000 0.000000
    40 -0.308254 -0.007814 0.307166 -0.349218 -0.257566 -2.266880
    41 1.978377 0.019543 0.000001 -0.000002 -0.000010 0.287977
    42 0.982426 0.003186 0.000000 0.000000 0.000000 0.331617
  time 4
    0 6.117944 2.088313 -6.486434 1.396989 -1.191983 -1.880959
    1 -0.001604 -8.561233 -0.002570 0.230143 -0.163255 -0.852462
    2 -0.182323 -2.464639 1.348756 -0.964573 1.426818 -1.253121
    3 0.000000 2.617617 0.665016 0.000000 0.000000 0.000000
    4 -0.000001 -1.655465 2.278034 0.000000 0.000000 0.000000
    5 -0.000001 -1.796958 1.330032 0.000000 0.000000 0.000000
    6 -0.000002 -2.886455 1.471525 0.000000 0.000000 0.000000
    7 0.000000 -0.778212 1.774024 -0.680679 0.000000 0.000000
    8 -0.000001 -1.598867 0.580120 0.000000 0.000000 0.000000
    9 -0.003480 -0.404829 0.000000 0.000000 0.000000 0.000000
    10 -0.519309 -2.501155 -0.278957 0.061431 0.000000 -0.122173
    11 -0.010598 -1.208185 -0.000001 0.124013 0.000000 0.000000
    12 0.000000 -0.763066 0.000000 0.229508 0.000000 0.000000
    13 0.105981 -2.607133 -0.278957 0.099954 0.000000 -0.148353
    14 0.000000 -1.250578 -0.000001 0.157038 0.000000 0.000000
    15 0.000000 -0.932634 0.000000 0.116636 0.000000 0.000000
    16 0.763063 -2.490556 -0.278957 -1.080587 0.030405 0.214564
    17 -0.012322 -1.280917 0.000000 -0.218793 0.000000 0.000000
    18 -0.001697 -0.749371 -0.000001 -0.249353 0.000000 0.000000
    19 0.354567 0.016267 0.318133 0.129899 -0.161122 -0.442578
    20 1.887164 0.012877 0.000000 -0.281692 0.119690 -0.010034
    21 1.001874 -0.000270 -0.000001 0.000000 0.000000 -0.541004
    22 -1.123358 -2.195093 -0.278957 0.018858 0.000000 -0.087266
    23 0.010772 -0.963791 0.000000 -0.016829 0.000000 0.000000
    24 -0.010412 -0.631916 0.000000 0.242668 0.000000 0.000000
    25 -5.788752 -0.861116 -10.275998 -1.078973 2.419581 -1.236744
    26 0.089930 -8.543163 -0.000001 -0.192061 0.313535 0.161894
    27 0.000000 -0.359712 0.000000 0.000000 0.000000 0.000000
    28 -0.170479 -2.636146 -0.277655 -0.343897 0.000000 0.000000
    29 0.010599 -1.261176 0.000002 -0.343832 0.000000 0.000000
    30 -0.000001 -0.943232 -0.000001 -0.532326 0.000000 0.000000
    31 -0.827563 -2.508973 -0.277656 -0.303713 0.000000 0.000000
    32 0.000000 -1.292971 0.000000 -0.287979 0.000000 0.000000
    33 0.000000 -0.752466 0.000000 -0.445059 0.000000 0.000000
    34 0.444213 -2.561960 -0.277655 -0.275212 -0.046226 -0.024599
    35 0.021022 -1.208186 0.000000 -0.312444 0.000000 0.000000
    36 0.010597 -0.741867 -0.000001 -0.401443 0.000000 0.000000
    37 1.047444 -2.222821 -0.277655 -0.009116 -0.066950 -0.041090
    38 0.000000 -0.996223 -0.000002 -0.322899 0.000000 0.000000
    39 -0.000001 -0.614690 0.000000 -0.523599 0.000000 0.000000
    40 -0.308254 -0.007814 0.307166 -0.349218 -0.257566 -2.266880
    41 1.978377 0.019543 0.000001 -0.000002 -0.000010 0.287977
    42 0.982426 0.003186 0.000000 0.000000 0.000000 0.331617
  time 5
    0 6.235135 1.951590 -6.341898 1.175242 -1.320081 -1.579178
    1 -0.001604 -8.561233 -0.002570 0.192811 -0.160299 -0.916923
    2 -0.143259 -2.503703 1.462041 -0.909007 1.434443 -1.173803
    3 0.000000 2.617617 0.665016 0.000000 0.000000 0.000000
    4 -0.000001 -1.655465 2.278034 0.000000 0.000000 0.000000
    5 -0.000001 -1.796958 1.330032 0.000000 0.000000 0.000000
    6 -0.000002 -2.886455 1.471525 0.000000 0.000000 0.000000
    7 0.000000 -0.778212 1.774024 -0.680679 0.000000 0.000000
    8 -0.000001 -1.598867 0.580120 0.000000 0.000000 0.000000
    9 -0.003480 -0.404829 0.000000 0.000000 0.000000 0.000000
    10 -0.519309 -2.501155 -0.278957 0.072038 0.000000 -0.122173
    11 -0.010598 -1.208185 -0.000001 0.136112 0.000000 0.000000
    12 0.000000 -0.763066 0.000000 0.245127 0.000000 0.000000
    13 0.105981 -2.607133 -0.278957 0.109781 0.000000 -0.148353
    14 0.000000 -1.250578 -0.000001 0.170639 0.000000 0.000000
    15 0.000000 -0.932634 0.000000 0.132625 0.000000 0.000000
    16 0.763063 -2.490556 -0.278957 -1.065110 0.030405 0.214564
    17 -0.012322 -1.280917 0.000000 -0.275805 0.000000 0.000000
    18 -0.001697 -0.749371 -0.000001 -0.289764 0.000000 0.000000
    19 0.354567 0.016267 0.318133 0.129899 -0.161122 -0.442578
    20 1.887164 0.012877 0.000000 -0.281692 0.119690 -0.010034
    21 1.001874 -0.000270 -0.000001 0.000000 0.000000 -0.541004
    22 -1.123358 -2.195093 -0.278957 0.028345 0.000000 -0.087266
    23 0.010772 -0.963791 0.000000 -0.010917 0.000000 0.000000
    24 -0.010412 -0.631916 0.000000 0.257166 0.000000 0.000000
    25 -5.769220 -0.861116 -10.272091 -1.098034 2.410720 -1.245638
    26 0.089930 -8.543163 -0.000001 -0.147579 0.268166 0.179632
    27 0.000000 -0.359712 0.000000 0.000000 0.000000 0.000000
    28 -0.170479 -2.636146 -0.277655 -0.343897 0.000000 0.000000
    29 0.010599 -1.261176 0.000002 -0.343832 0.000000 0.000000
    30 -0.000001 -0.943232 -0.000001 -0.532326 0.000000 0.000000
    31 -0.827563 -2.508973 -0.277656 -0.303713 0.000000 0.000000
    32 0.000000 -1.292971 0.000000 -0.287979 0.000000 0.000000
    33 0.000000 -0.752466 0.000000 -0.445059 0.000000 0.000000
    34 0.444213 -2.561960 -0.277655 -0.275212 -0.046226 -0.024599
    35 0.021022 -1.208186 0.000000 -0.312444 0.000000 0.000000
    36 0.010597 -0.741867 -0.000001 -0.401443 0.000000 0.000000
    37 1.047444 -2.222821 -0.277655 -0.009116 -0.066950 -0.041090
    38 0.000000 -0.996223 -0.000002 -0.322899 0.000000 0.000000
    39 -0.000001 -0.614690 0.000000 -0.523599 0.000000 0.000000
    40 -0.308254 -0.007814 0.307166 -0.349218 -0.257566 -2.266880
    41 1.978377 0.019543 0.000001 -0.000002 -0.000010 0.287977
    42 0.982426 0.003186 0.000000 0.000000 0.000000 0.331617
  time 6
    0 6.340607 1.826586 -6.212988 0.607357 -1.403922 -0.934210
    1 -0.001604 -8.561233 -0.002570 0.157176 -0.159994 -0.972965
    2 -0.143259 -2.765430 1.547981 -0.794713 1.462403 -0.898597
    3 0.000000 2.617617 0.665016 0.000000 0.000000 0.000000
    4 -0.000001 -1.655465 2.278034 0.000000 0.000000 0.000000
    5 -0.000001 -1.796958 1.330032 0.000000 0.000000 0.000000
    6 -0.000002 -2.886455 1.471525 0.000000 0.000000 0.000000
    7 0.000000 -0.778212 1.774024 -0.680679 0.000000 0.000000
    8 -0.000001 -1.598867 0.580120 0.000000 0.000000 0.000000
    9 -0.003480 -0.404829 0.000000 0.000000 0.000000 0.000000
    10 -0.519309 -2.501155 -0.278957 0.083375 0.000000 -0.122173
    11 -0.010598 -1.208185 -0.000001 0.149044 0.000000 0.000000
    12 0.000000 -0.763066 0.000000 0.261927 0.000000 0.000000
    13 0.105981 -2.607133 -0.278957 0.120353 0.000000 -0.148353
    14 0.000000 -1.250578 -0.000001 0.185313 0.000000 0.000000
    15 0.000000 -0.932634 0.000000 0.149607 0.000000 0.000000
    16 0.763063 -2.490556 -0.278957 -1.060338 0.030405 0.214564
    17 -0.012322 -1.280917 0.000000 -0.298964 0.000000 0.000000
    18 -0.001697 -0.749371 -0.000001 -0.305520 0.000000 0.000000
    19 0.354567 0.016267 0.318133 0.135569 -0.161506 -0.455976
    20 1.887164 0.012877 0.000000 -0.281488 0.120181 -0.008328
    21 1.001874 -0.000270 -0.000001 0.000000 0.000000 -0.470737
    22 -1.123358 -2.195093 -0.278957 0.038486 0.000000 -0.087266
    23 0.010772 -0.963791 0.000000 -0.004579 0.000000 0.000000
    24 -0.010412 -0.631916 0.000000 0.272661 0.000000 0.000000
    25 -5.737969 -0.861116 -10.260372 -1.168537 2.380150 -1.280348
    26 0.089930 -8.543163 -0.000001 -0.104035 0.221793 0.195104
    27 0.000000 -0.359712 0.000000 0.000000 0.000000 0.000000
    28 -0.170479 -2.636146 -0.277655 -0.343897 0.000000 0.000000
    29 0.010599 -1.261176 0.000002 -0.343832 0.000000 0.000000
    30 -0.000001 -0.943232 -0.000001 -0.532326 0.000000 0.000000
    31 -0.827563 -2.508973 -0.277656 -0.303713 0.000000 0.000000
    32 0.000000 -1.292971 0.000000 -0.287979 0.000000 0.000000
    33 0.000000 -0.752466 0.000000 -0.445059 0.000000 0.000000
    34 0.444213 -2.561960 -0.277655 -0.275212 -0.046226 -0.024599
    35 0.021022 -1.208186 0.000000 -0.312444 0.000000 0.000000
    36 0.010597 -0.741867 -0.000001 -0.401443 0.000000 0.000000
    37 1.047444 -2.222821 -0.277655 -0.009116 -0.066950 -0.041090
    38 0.000000 -0.996223 -0.000002 -0.322899 0.000000 0.000000
    39 -0.000001 -0.614690 0.000000 -0.523599 0.000000 0.000000
    40 -0.308254 -0.007814 0.307166 -0.349218 -0.257566 -2.266880
    41 1.978377 0.019543 0.000001 -0.000002 -0.000010 0.287977
    42 0.982426 0.003186 0.000000 0.000000 0.000000 0.331617
  time 7
    0 6.438267 1.713302 -6.099703 6.111825 -1.383909 -0.081837
    1 -0.001604 -8.561233 -0.002570 0.124481 -0.161777 -1.015442
    2 -0.178416 -3.253726 1.618296 -0.441676 1.490312 -0.247457
    3 0.000000 2.617617 0.665016 0.000000 0.000000 0.000000
    4 -0.000001 -1.655465 2.278034 0.000000 0.000000 0.000000
    5 -0.000001 -1.796958 1.330032 0.000000 0.000000 0.000000
    6 -0.000002 -2.886455 1.471525 0.000000 0.000000 0.000000
    7 0.000000 -0.778212 1.774024 -0.680679 0.000000 0.000000
    8 -0.000001 -1.598867 0.580120 0.000000 0.000000 0.000000
    9 -0.003480 -0.404829 0.000000 0.000000 0.000000 0.000000
    10 -0.519309 -2.501155 -0.278957 0.094920 0.000000 -0.122173
    11 -0.010598 -1.208185 -0.000001 0.162214 0.000000 0.000000
    12 0.000000 -0.763066 0.000000 0.278984 0.000000 0.000000
    13 0.105981 -2.607133 -0.278957 0.131086 0.000000 -0.148353
    14 0.000000 -1.250578 -0.000001 0.200121 0.000000 0.000000
    15 0.000000 -0.932634 0.000000 0.167007 0.000000 0.000000
    16 0.763063 -2.490556 -0.278957 -1.060786 0.030405 0.214564
    17 -0.012322 -1.280917 0.000000 -0.312632 0.000000 0.000000
    18 -0.001697 -0.749371 -0.000001 -0.313561 0.000000 0.000000
    19 0.354567 0.016267 0.318133 0.143411 -0.159205 -0.471645
    20 1.887164 0.012877 0.000000 -0.280829 0.121739 -0.002874
    21 1.001874 -0.000270 -0.000001 0.000000 0.000000 -0.392851
    22 -1.123358 -2.195093 -0.278957 0.048813 0.000000 -0.087266
    23 0.010772 -0.963791 0.000000 0.001853 0.000000 0.000000
    24 -0.010412 -0.631916 0.000000 0.288442 0.000000 0.000000
    25 -5.694999 -0.861116 -10.240840 -1.281385 2.336805 -1.339221
    26 0.089930 -8.543163 -0.000001 -0.061412 0.174626 0.208374
    27 0.000000 -0.359712 0.000000 0.000000 0.000000 0.000000
    28 -0.170479 -2.636146 -0.277655 -0.343897 0.000000 0.000000
    29 0.010599 -1.261176 0.000002 -0.343832 0.000000 0.000000
    30 -0.000001 -0.943232 -0.000001 -0.532326 0.000000 0.000000
    31 -0.827563 -2.508973 -0.277656 -0.303713 0.000000 0.000000
    32 0.000000 -1.292971 0.000000 -0.287979 0.000000 0.000000
    33 0.000000 -0.752466 0.000000 -0.445059 0.000000 0.000000
    34 0.444213 -2.561960 -0.277655 -0.275212 -0.046226 -0.024599
    35 0.021022 -1.208186 0.000000 -0.312444 0.000000 0.000000
    36 0.010597 -0.741867 -0.000001 -0.401443 0.000000 0.000000
    37 1.047444 -2.222821 -0.277655 -0.009116 -0.066950 -0.041090
    38 0.000000 -0.996223 -0.000002 -0.322899 0.000000 0.000000
    39 -0.000001 -0.614690 0.000000 -0.523599 0.000000 0.000000
    40 -0.308254 -0.007814 0.307166 -0.349218 -0.257566 -2.266880
    41 1.978377 0.019543 0.000001 -0.000002 -0.000010 0.287977
    42 0.982426 0.003186 0.000000 0.000000 0.000000 0.331617
  time 8
    0 6.520300 1.607830 -6.002044 5.724313 -1.293897 -5.908095
    1 -0.001604 -8.561233 -0.002570 0.095912 -0.164777 -1.039269
    2 -0.201854 -3.816243 1.665172 -0.166049 1.480704 0.392459
    3 0.000000 2.617617 0.665016 0.000000 0.000000 0.000000
    4 -0.000001 -1.655465 2.278034 0.000000 0.000000 0.000000
    5 -0.000001 -1.796958 1.330032 0.000000 0.000000 0.000000
    6 -0.000002 -2.886455 1.471525 0.000000 0.000000 0.000000
    7 0.000000 -0.778212 1.774024 -0.680679 0.000000 0.000000
    8 -0.000001 -1.598867 0.580120 0.000000 0.000000 0.000000
    9 -0.003480 -0.404829 0.000000 0.000000 0.000000 0.000000
    10 -0.519309 -2.501155 -0.278957 0.106083 0.000000 -0.122173
    11 -0.010598 -1.208185 -0.000001 0.174947 0.000000 0.000000
    12 0.000000 -0.763066 0.000000 0.295476 0.000000 0.000000
    13 0.105981 -2.607133 -0.278957 0.141464 0.000000 -0.148353
    14 0.000000 -1.250578 -0.000001 0.214481 0.000000 0.000000
    15 0.000000 -0.932634 0.000000 0.183780 0.000000 0.000000
    16 0.763063 -2.490556 -0.278957 -1.065295 0.030405 0.214564
    17 -0.012322 -1.280917 0.000000 -0.318327 0.000000 0.000000
    18 -0.001697 -0.749371 -0.000001 -0.315158 0.000000 0.000000
    19 0.354567 0.016267 0.318133 0.152626 -0.155034 -0.488794
    20 1.887164 0.012877 0.000000 -0.279846 0.124041 0.005106
    21 1.001874 -0.000270 -0.000001 0.000000 0.000000 -0.310006
    22 -1.123358 -2.195093 -0.278957 0.058797 0.000000 -0.087266
    23 0.010772 -0.963791 0.000000 0.008073 0.000000 0.000000
    24 -0.010412 -0.631916 0.000000 0.303700 0.000000 0.000000
    25 -5.636403 -0.861116 -10.205683 -1.413510 2.294051 -1.412025
    26 0.089930 -8.543163 -0.000001 -0.019600 0.126874 0.219494
    27 0.000000 -0.359712 0.000000 0.000000 0.000000 0.000000
    28 -0.170479 -2.636146 -0.277655 -0.343897 0.000000 0.000000
    29 0.010599 -1.261176 0.000002 -0.343832 0.000000 0.000000
    30 -0.000001 -0.943232 -0.000001 -0.532326 0.000000 0.000000
    31 -0.827563 -2.508973 -0.277656 -0.303713 0.000000 0.000000
    32 0.000000 -1.292971 0.000000 -0.287979 0.000000 0.000000
    33 0.000000 -0.752466 0.000000 -0.445059 0.000000 0.000000
    34 0.444213 -2.561960 -0.277655 -0.275212 -0.046226 -0.024599
    35 0.021022 -1.208186 0.000000 -0.312444 0.000000 0.000000
    36 0.010597 -0.741867 -0.000001 -0.401443 0.000000 0.000000
    37 1.047444 -2.222821 -0.277655 -0.009116 -0.066950 -0.041090
    38 0.000000 -0.996223 -0.000002 -0.322899 0.000000 0.000000
    39 -0.000001 -0.614690 0.000000 -0.523599 0.000000 0.000000
    40 -0.308254 -0.007814 0.307166 -0.349218 -0.257566 -2.266880
    41 1.978377 0.019543 0.000001 -0.000002 -0.000010 0.287977
    42 0.982426 0.003186 0.000000 0.000000 0.000000 0.331617
  time 9
    0 6.598428 1.514077 -5.920010 5.569253 -1.193173 -5.689686
    1 -0.001604 -8.561233 -0.002570 0.072561 -0.167930 -1.039428
    2 -0.158884 -4.300633 1.700329 -0.233208 1.456557 0.717274
    3 0.000000 2.617617 0.665016 0.000000 0.000000 0.000000
    4 -0.000001 -1.655465 2.278034 0.000000 0.000000 0.000000
    5 -0.000001 -1.796958 1.330032 0.000000 0.000000 0.000000
    6 -0.000002 -2.886455 1.471525 0.000000 0.000000 0.000000
    7 0.000000 -0.778212 1.774024 -0.680679 0.000000 0.000000
    8 -0.000001 -1.598867 0.580120 0.000000 0.000000 0.000000
    9 -0.003480 -0.404829 0.000000 0.000000 0.000000 0.000000
    10 -0.519309 -2.501155 -0.278957 0.116272 0.000000 -0.122173
    11 -0.010598 -1.208185 -0.000001 0.186570 0.000000 0.000000
    12 0.000000 -0.763066 0.000000 0.310529 0.000000 0.000000
    13 0.105981 -2.607133 -0.278957 0.150936 0.000000 -0.148353
    14 0.000000 -1.250578 -0.000001 0.227589 0.000000 0.000000
    15 0.000000 -0.932634 0.000000 0.199090 0.000000 0.000000
    16 0.763063 -2.490556 -0.278957 -1.072783 0.030405 0.214564
    17 -0.012322 -1.280917 0.000000 -0.317472 0.000000 0.000000
    18 -0.001697 -0.749371 -0.000001 -0.311669 0.000000 0.000000
    19 0.354567 0.016267 0.318133 0.162480 -0.149809 -0.506634
    20 1.887164 0.012877 0.000000 -0.278683 0.126653 0.014349
    21 1.001874 -0.000270 -0.000001 0.000000 0.000000 -0.224681
    22 -1.123358 -2.195093 -0.278957 0.067911 0.000000 -0.087266
    23 0.010772 -0.963791 0.000000 0.013772 0.000000 0.000000
    24 -0.010412 -0.631916 0.000000 0.317674 0.000000 0.000000
    25 -5.566089 -0.861116 -10.154900 -1.567024 2.255063 -1.501908
    26 0.089930 -8.543163 -0.000001 0.021381 0.078749 0.228560
    27 0.000000 -0.359712 0.000000 0.000000 0.000000 0.000000
    28 -0.170479 -2.636146 -0.277655 -0.343897 0.000000 0.000000
    29 0.010599 -1.261176 0.000002 -0.343832 0.000000 0.000000
    30 -0.000001 -0.943232 -0.000001 -0.532326 0.000000 0.000000
    31 -0.827563 -2.508973 -0.277656 -0.303713 0.000000 0.000000
    32 0.000000 -1.292971 0.000000 -0.287979 0.000000 0.000000
    33 0.000000 -0.752466 0.000000 -0.445059 0.000000 0.000000
    34 0.444213 -2.561960 -0.277655 -0.275212 -0.046226 -0.024599
    35 0.021022 -1.208186 0.000000 -0.312444 0.000000 0.000000
    36 0.010597 -0.741867 -0.000001 -0.401443 0.000000 0.000000
    37 1.047444 -2.222821 -0.277655 -0.009116 -0.066950 -0.041090
    38 0.000000 -0.996223 -0.000002 -0.322899 0.000000 0.000000
    39 -0.000001 -0.614690 0.000000 -0.523599 0.000000 0.000000
    40 -0.308254 -0.007814 0.307166 -0.349218 -0.257566 -2.266880
    41 1.978377 0.019543 0.000001 -0.000002 -0.000010 0.287977
    42 0.982426 0.003186 0.000000 0.000000 0.000000 0.331617
  time 10
    0 6.660930 1.428137 -5.853602 5.499118 -1.101750 -5.563416
    1 -0.001604 -8.561233 -0.002570 0.055613 -0.170322 -1.010962
    2 0.009090 -4.562359 1.731580 -0.378925 1.433935 0.992103
    3 0.000000 2.617617 0.665016 0.000000 0.000000 0.000000
    4 -0.000001 -1.655465 2.278034 0.000000 0.000000 0.000000
    5 -0.000001 -1.796958 1.330032 0.000000 0.000000 0.000000
    6 -0.000002 -2.886455 1.471525 0.000000 0.000000 0.000000
    7 0.000000 -0.778212 1.774024 -0.680679 0.000000 0.000000
    8 -0.000001 -1.598867 0.580120 0.000000 0.000000 0.000000
    9 -0.003480 -0.404829 0.000000 0.000000 0.000000 0.000000
    10 -0.519309 -2.501155 -0.278957 0.124966 0.000000 -0.122173
    11 -0.010598 -1.208185 -0.000001 0.196448 0.000000 0.000000
    12 0.000000 -0.763066 0.000000 0.323322 0.000000 0.000000
    13 0.105981 -2.607133 -0.278957 0.158986 0.000000 -0.148353
    14 0.000000 -1.250578 -0.000001 0.238774 0.000000 0.000000
    15 0.000000 -0.932634 0.000000 0.212048 0.000000 0.000000
    16 0.763063 -2.490556 -0.278957 -1.082090 0.030405 0.214564
    17 -0.012322 -1.280917 0.000000 -0.311588 0.000000 0.000000
    18 -0.001697 -0.749371 -0.000001 -0.304397 0.000000 0.000000
    19 0.354567 0.016267 0.318133 0.172223 -0.144416 -0.524400
    20 1.887164 0.012877 0.000000 -0.277521 0.129290 0.023591
    21 1.001874 -0.000270 -0.000001 0.000000 0.000000 -0.139296
    22 -1.123358 -2.195093 -0.278957 0.075657 0.000000 -0.087266
    23 0.010772 -0.963791 0.000000 0.018597 0.000000 0.000000
    24 -0.010412 -0.631916 0.000000 0.329462 0.000000 0.000000
    25 -5.484055 -0.861116 -10.092398 1.399022 0.917723 1.531072
    26 0.089930 -8.543163 -0.000001 0.061640 0.030460 0.235655
    27 0.000000 -0.359712 0.000000 0.000000 0.000000 0.000000
    28 -0.170479 -2.636146 -0.277655 -0.343897 0.000000 0.000000
    29 0.010599 -1.261176 0.000002 -0.343832 0.000000 0.000000
    30 -0.000001 -0.943232 -0.000001 -0.532326 0.000000 0.000000
    31 -0.827563 -2.508973 -0.277656 -0.303713 0.000000 0.000000
    32 0.000000 -1.292971 0.000000 -0.287979 0.000000 0.000000
    33 0.000000 -0.752466 0.000000 -0.445059 0.000000 0.000000
    34 0.444213 -2.561960 -0.277655 -0.275212 -0.046226 -0.024599
    35 0.021022 -1.208186 0.000000 -0.312444 0.000000 0.000000
    36 0.010597 -0.741867 -0.000001 -0.401443 0.000000 0.000000
    37 1.047444 -2.222821 -0.277655 -0.009116 -0.066950 -0.041090
    38 0.000000 -0.996223 -0.000002 -0.322899 0.000000 0.000000
    39 -0.000001 -0.614690 0.000000 -0.523599 0.000000 0.000000
    40 -0.308254 -0.007814 0.307166 -0.349218 -0.257566 -2.266880
    41 1.978377 0.019543 0.000001 -0.000002 -0.000010 0.287977
    42 0.982426 0.003186 0.000000 0.000000 0.000000 0.331617
  time 11
    0 6.715619 1.357822 -5.802819 5.463370 -1.027563 -5.481069
    1 -0.001604 -8.561233 -0.002570 0.045110 -0.172539 -0.929568
    2 0.391914 -4.554547 1.747206 -0.576089 1.416295 1.232319
    3 0.000000 2.617617 0.665016 0.000000 0.000000 0.000000
    4 -0.000001 -1.655465 2.278034 0.000000 0.000000 0.000000
    5 -0.000001 -1.796958 1.330032 0.000000 0.000000 0.000000
    6 -0.000002 -2.886455 1.471525 0.000000 0.000000 0.000000
    7 0.000000 -0.778212 1.774024 -0.680679 0.000000 0.000000
    8 -0.000001 -1.598867 0.580120 0.000000 0.000000 0.000000
    9 -0.003480 -0.404829 0.000000 0.000000 0.000000 0.000000
    10 -0.519309 -2.501155 -0.278957 0.131504 0.000000 -0.122173
    11 -0.010598 -1.208185 -0.000001 0.203905 0.000000 0.000000
    12 0.000000 -0.763066 0.000000 0.332981 0.000000 0.000000
    13 0.105981 -2.607133 -0.278957 0.165064 0.000000 -0.148353
    14 0.000000 -1.250578 -0.000001 0.247185 0.000000 0.000000
    15 0.000000 -0.932634 0.000000 0.221924 0.000000 0.000000
    16 0.763063 -2.490556 -0.278957 -1.092135 0.030405 0.214564
    17 -0.012322 -1.280917 0.000000 -0.302159 0.000000 0.000000
    18 -0.001697 -0.749371 -0.000001 -0.294701 0.000000 0.000000
    19 0.354567 0.016267 0.318133 0.181183 -0.139766 -0.541401
    20 1.887164 0.012877 0.000000 -0.276466 0.131543 0.031585
    21 1.001874 -0.000270 -0.000001 0.000000 0.000000 -0.056481
    22 -1.123358 -2.195093 -0.278957 0.081505 0.000000 -0.087266
    23 0.010772 -0.963791 0.000000 0.022238 0.000000 0.000000
    24 -0.010412 -0.631916 0.000000 0.338446 0.000000 0.000000
    25 -5.386396 -0.861116 -10.025990 1.203704 0.937070 1.405534
    26 0.089930 -8.543163 -0.000001 0.101214 -0.017805 0.240845
    27 0.000000 -0.359712 0.000000 0.000000 0.000000 0.000000
    28 -0.170479 -2.636146 -0.277655 -0.343897 0.000000 0.000000
    29 0.010599 -1.261176 0.000002 -0.343832 0.000000 0.000000
    30 -0.000001 -0.943232 -0.000001 -0.532326 0.000000 0.000000
    31 -0.827563 -2.508973 -0.277656 -0.303713 0.000000 0.000000
    32 0.000000 -1.292971 0.000000 -0.287979 0.000000 0.000000
    33 0.000000 -0.752466 0.000000 -0.445059 0.000000 0.000000
    34 0.444213 -2.561960 -0.277655 -0.275212 -0.046226 -0.024599
    35 0.021022 -1.208186 0.000000 -0.312444 0.000000 0.000000
    36 0.010597 -0.741867 -0.000001 -0.401443 0.000000 0.000000
    37 1.047444 -2.222821 -0.277655 -0.009116 -0.066950 -0.041090
    38 0.000000 -0.996223 -0.000002 -0.322899 0.000000 0.000000
    39 -0.000001 -0.614690 0.000000 -0.523599 0.000000 0.000000
    40 -0.308254 -0.007814 0.307166 -0.349218 -0.257566 -2.266880
    41 1.978377 0.019543 0.000001 -0.000002 -0.000010 0.287977
    42 0.982426 0.003186 0.000000 0.000000 0.000000 0.331617
  time 12
    0 6.758589 1.291414 -5.767662 5.442139 -0.975372 -5.425022
    1 -0.001604 -8.561233 -0.002570 0.040376 -0.174996 -0.787842
    2 0.958337 -4.374854 1.755018 -0.804868 1.405823 1.445656
    3 0.000000 2.617617 0.665016 0.000000 0.000000 0.000000
    4 -0.000001 -1.655465 2.278034 0.000000 0.000000 0.000000
    5 -0.000001 -1.796958 1.330032 0.000000 0.000000 0.000000
    6 -0.000002 -2.886455 1.471525 0.000000 0.000000 0.000000
    7 0.000000 -0.778212 1.774024 -0.680679 0.000000 0.000000
    8 -0.000001 -1.598867 0.580120 0.000000 0.000000 0.000000
    9 -0.003480 -0.404829 0.000000 0.000000 0.000000 0.000000
    10 -0.519309 -2.501155 -0.278957 0.135364 0.000000 -0.122173
    11 -0.010598 -1.208185 -0.000001 0.208348 0.000000 0.000000
    12 0.000000 -0.763066 0.000000 0.338684 0.000000 0.000000
    13 0.105981 -2.607133 -0.278957 0.168652 0.000000 -0.148353
    14 0.000000 -1.250578 -0.000001 0.252106 0.000000 0.000000
    15 0.000000 -0.932634 0.000000 0.227724 0.000000 0.000000
    16 0.763063 -2.490556 -0.278957 -1.101785 0.030405 0.214564
    17 -0.012322 -1.280917 0.000000 -0.290643 0.000000 0.000000
    18 -0.001697 -0.749371 -0.000001 -0.283911 0.000000 0.000000
    19 0.354567 0.016267 0.318133 0.188705 -0.136781 -0.556872
    20 1.887164 0.012877 0.000000 -0.275735 0.133077 0.037066
    21 1.001874 -0.000270 -0.000001 0.000000 0.000000 0.021375
    22 -1.123358 -2.195093 -0.278957 0.084957 0.000000 -0.087266
    23 0.010772 -0.963791 0.000000 0.024391 0.000000 0.000000
    24 -0.010412 -0.631916 0.000000 0.343722 0.000000 0.000000
    25 -5.280924 -0.861116 -9.951769 0.994903 0.940762 1.268741
    26 0.089930 -8.543163 -0.000001 0.140138 -0.065860 0.244212
    27 0.000000 -0.359712 0.000000 0.000000 0.000000 0.000000
    28 -0.170479 -2.636146 -0.277655 -0.343897 0.000000 0.000000
    29 0.010599 -1.261176 0.000002 -0.343832 0.000000 0.000000
    30 -0.000001 -0.943232 -0.000001 -0.532326 0.000000 0.000000
    31 -0.827563 -2.508973 -0.277656 -0.303713 0.000000 0.000000
    32 0.000000 -1.292971 0.000000 -0.287979 0.000000 0.000000
    33 0.000000 -0.752466 0.000000 -0.445059 0.000000 0.000000
    34 0.444213 -2.561960 -0.277655 -0.275212 -0.046226 -0.024599
    35 0.021022 -1.208186 0.000000 -0.312444 0.000000 0.000000
    36 0.010597 -0.741867 -0.000001 -0.401443 0.000000 0.000000
    37 1.047444 -2.222821 -0.277655 -0.009116 -0.066950 -0.041090
    38 0.000000 -0.996223 -0.000002 -0.322899 0.000000 0.000000
    39 -0.000001 -0.614690 0.000000 -0.523599 0.000000 0.000000
    40 -0.308254 -0.007814 0.307166 -0.349218 -0.257566 -2.266880
    41 1.978377 0.019543 0.000001 -0.000002 -0.000010 0.287977
    42 0.982426 0.003186 0.000000 0.000000 0.000000 0.331617
  time 13
    0 6.793746 1.240631 -5.748130 5.424628 -0.949540 -5.386227
    1 -0.001604 -8.561233 -0.002570 0.041480 -0.177540 -0.606213
    2 1.559918 -4.089689 1.751112 -1.049072 1.403281 -4.646986
    3 0.000000 2.617617 0.665016 0.000000 0.000000 0.000000
    4 -0.000001 -1.655465 2.278034 0.000000 0.000000 0.000000
    5 -0.000001 -1.796958 1.330032 0.000000 0.000000 0.000000
    6 -0.000002 -2.886455 1.471525 0.000000 0.000000 0.000000
    7 0.000000 -0.778212 1.774024 -0.680679 0.000000 0.000000
    8 -0.000001 -1.598867 0.580120 0.000000 0.000000 0.000000
    9 -0.003480 -0.404829 0.000000 0.000000 0.000000 0.000000
    10 -0.519309 -2.501155 -0.278957 0.135885 0.000000 -0.122173
    11 -0.010598 -1.208185 -0.000001 0.208983 0.000000 0.000000
    12 0.000000 -0.763066 0.000000 0.339506 0.000000 0.000000
    13 0.105981 -2.607133 -0.278957 0.169202 0.000000 -0.148353
    14 0.000000 -1.250578 -0.000001 0.252911 0.000000 0.000000
    15 0.000000 -0.932634 0.000000 0.228612 0.000000 0.000000
    16 0.763063 -2.490556 -0.278957 -1.109959 0.030405 0.214564
    17 -0.012322 -1.280917 0.000000 -0.278494 0.000000 0.000000
    18 -0.001697 -0.749371 -0.000001 -0.273357 0.000000 0.000000
    19 0.354567 0.016267 0.318133 0.194215 -0.136470 -0.570196
    20 1.887164 0.012877 0.000000 -0.275519 0.133544 0.038759
    21 1.001874 -0.000270 -0.000001 0.000000 0.000000 0.091762
    22 -1.123358 -2.195093 -0.278957 0.085455 0.000000 -0.087266
    23 0.010772 -0.963791 0.000000 0.024722 0.000000 0.000000
    24 -0.010412 -0.631916 0.000000 0.344435 0.000000 0.000000
    25 -5.159826 -0.861116 -9.877548 0.782691 0.926437 1.130452
    26 0.089930 -8.543163 -0.000001 0.178467 -0.113518 0.245888
    27 0.000000 -0.359712 0.000000 0.000000 0.000000 0.000000
    28 -0.170479 -2.636146 -0.277655 -0.343897 0.000000 0.000000
    29 0.010599 -1.261176 0.000002 -0.343832 0.000000 0.000000
    30 -0.000001 -0.943232 -0.000001 -0.532326 0.000000 0.000000
    31 -0.827563 -2.508973 -0.277656 -0.303713 0.000000 0.000000
    32 0.000000 -1.292971 0.000000 -0.287979 0.000000 0.000000
    33 0.000000 -0.752466 0.000000 -0.445059 0.000000 0.000000
    34 0.444213 -2.561960 -0.277655 -0.275212 -0.046226 -0.024599
    35 0.021022 -1.208186 0.000000 -0.312444 0.000000 0.000000
    36 0.010597 -0.741867 -0.000001 -0.401443 0.000000 0.000000
    37 1.047444 -2.222821 -0.277655 -0.009116 -0.066950 -0.041090
    38 0.000000 -0.996223 -0.000002 -0.322899 0.000000 0.000000
    39 -0.000001 -0.614690 0.000000 -0.523599 0.000000 0.000000
    40 -0.308254 -0.007814 0.307166 -0.349218 -0.257566 -2.266880
    41 1.978377 0.019543 0.000001 -0.000002 -0.000010 0.287977
    42 0.982426 0.003186 0.000000 0.000000 0.000000 0.331617
  time 14
    0 6.817184 1.197661 -5.744223 5.404940 -0.949100 -5.357876
    1 -0.001604 -8.561233 -0.002570 0.048160 -0.180845 -0.405078
    2 2.056027 -3.769367 1.735487 -1.293467 1.408060 -4.476373
    3 0.000000 2.617617 0.665016 0.000000 0.000000 0.000000
    4 -0.000001 -1.655465 2.278034 0.000000 0.000000 0.000000
    5 -0.000001 -1.796958 1.330032 0.000000 0.000000 0.000000
    6 -0.000002 -2.886455 1.471525 0.000000 0.000000 0.000000
    7 0.000000 -0.778212 1.774024 -0.680679 0.000000 0.000000
    8 -0.000001 -1.598867 0.580120 0.000000 0.000000 0.000000
    9 -0.003480 -0.404829 0.000000 0.000000 0.000000 0.000000
    10 -0.519309 -2.501155 -0.278957 0.132616 0.000000 -0.122173
    11 -0.010598 -1.208185 -0.000001 0.205214 0.000000 0.000000
    12 0.000000 -0.763066 0.000000 0.334676 0.000000 0.000000
    13 0.105981 -2.607133 -0.278957 0.166131 0.000000 -0.148353
    14 0.000000 -1.250578 -0.000001 0.248661 0.000000 0.000000
    15 0.000000 -0.932634 0.000000 0.223648 0.000000 0.000000
    16 0.763063 -2.490556 -0.278957 -1.115522 0.030405 0.214564
    17 -0.012322 -1.280917 0.000000 -0.267263 0.000000 0.000000
    18 -0.001697 -0.749371 -0.000001 -0.264370 0.000000 0.000000
    19 0.354567 0.016267 0.318133 0.197074 -0.139778 -0.580658
    20 1.887164 0.012877 0.000000 -0.275975 0.132609 0.035427
    21 1.001874 -0.000270 -0.000001 0.000000 0.000000 0.152171
    22 -1.123358 -2.195093 -0.278957 0.082531 0.000000 -0.087266
    23 0.010772 -0.963791 0.000000 0.022901 0.000000 0.000000
    24 -0.010412 -0.631916 0.000000 0.339967 0.000000 0.000000
    25 -5.023103 -0.861116 -9.807233 0.578114 0.893503 1.001373
    26 0.089930 -8.543163 -0.000001 0.216218 -0.160592 0.245920
    27 0.000000 -0.359712 0.000000 0.000000 0.000000 0.000000
    28 -0.170479 -2.636146 -0.277655 -0.343897 0.000000 0.000000
    29 0.010599 -1.261176 0.000002 -0.343832 0.000000 0.000000
    30 -0.000001 -0.943232 -0.000001 -0.532326 0.000000 0.000000
    31 -0.827563 -2.508973 -0.277656 -0.303713 0.000000 0.000000
    32 0.000000 -1.292971 0.000000 -0.287979 0.000000 0.000000
    33 0.000000 -0.752466 0.000000 -0.445059 0.000000 0.000000
    34 0.444213 -2.561960 -0.277655 -0.275212 -0.046226 -0.024599
    35 0.021022 -1.208186 0.000000 -0.312444 0.000000 0.000000
    36 0.010597 -0.741867 -0.000001 -0.401443 0.000000 0.000000
    37 1.047444 -2.222821 -0.277655 -0.009116 -0.066950 -0.041090
    38 0.000000 -0.996223 -0.000002 -0.322899 0.000000 0.000000
    39 -0.000001 -0.614690 0.000000 -0.523599 0.000000 0.000000
    40 -0.308254 -0.007814 0.307166 -0.349218 -0.257566 -2.266880
    41 1.978377 0.019543 0.000001 -0.000002 -0.000010 0.287977
    42 0.982426 0.003186 0.000000 0.000000 0.000000 0.331617
  time 15
    0 6.828904 1.162504 -5.755942 5.381259 -0.969906 -5.336520
    1 -0.001604 -8.561233 -0.002570 0.059905 -0.185715 -0.204768
    2 2.298222 -3.476389 1.712048 -1.519659 1.418684 -4.319247
    3 0.000000 2.617617 0.665016 0.000000 0.000000 0.000000
    4 -0.000001 -1.655465 2.278034 0.000000 0.000000 0.000000
    5 -0.000001 -1.796958 1.330032 0.000000 0.000000 0.000000
    6 -0.000002 -2.886455 1.471525 0.000000 0.000000 0.000000
    7 0.000000 -0.778212 1.774024 -0.680679 0.000000 0.000000
    8 -0.000001 -1.598867 0.580120 0.000000 0.000000 0.000000
    9 -0.003480 -0.404829 0.000000 0.000000 0.000000 0.000000
    10 -0.519309 -2.501155 -0.278957 0.124966 0.000000 -0.122173
    11 -0.010598 -1.208185 -0.000001 0.196448 0.000000 0.000000
    12 0.000000 -0.763066 0.000000 0.323322 0.000000 0.000000
    13 0.105981 -2.607133 -0.278957 0.158986 0.000000 -0.148353
    14 0.000000 -1.250578 -0.000001 0.238774 0.000000 0.000000
    15 0.000000 -0.932634 0.000000 0.212048 0.000000 0.000000
    16 0.763063 -2.490556 -0.278957 -1.117341 0.030405 0.214564
    17 -0.012322 -1.280917 0.000000 -0.258341 0.000000 0.000000
    18 -0.001697 -0.749371 -0.000001 -0.258310 0.000000 0.000000
    19 0.354567 0.016267 0.318133 0.196675 -0.147675 -0.587567
    20 1.887164 0.012877 0.000000 -0.277221 0.129901 0.025795
    21 1.001874 -0.000270 -0.000001 0.000000 0.000000 0.200062
    22 -1.123358 -2.195093 -0.278957 0.075657 0.000000 -0.087266
    23 0.010772 -0.963791 0.000000 0.018597 0.000000 0.000000
    24 -0.010412 -0.631916 0.000000 0.329462 0.000000 0.000000
    25 -4.878568 -0.861116 -9.740825 0.389673 0.843734 0.889687
    26 0.089930 -8.543163 -0.000001 0.253373 -0.206895 0.244426
    27 0.000000 -0.359712 0.000000 0.000000 0.000000 0.000000
    28 -0.170479 -2.636146 -0.277655 -0.343897 0.000000 0.000000
    29 0.010599 -1.261176 0.000002 -0.343832 0.000000 0.000000
    30 -0.000001 -0.943232 -0.000001 -0.532326 0.000000 0.000000
    31 -0.827563 -2.508973 -0.277656 -0.303713 0.000000 0.000000
    32 0.000000 -1.292971 0.000000 -0.287979 0.000000 0.000000
    33 0.000000 -0.752466 0.000000 -0.445059 0.000000 0.000000
    34 0.444213 -2.561960 -0.277655 -0.275212 -0.046226 -0.024599
    35 0.021022 -1.208186 0.000000 -0.312444 0.000000 0.000000
    36 0.010597 -0.741867 -0.000001 -0.401443 0.000000 0.000000
    37 1.047444 -2.222821 -0.277655 -0.009116 -0.066950 -0.041090
    38 0.000000 -0.996223 -0.000002 -0.322899 0.000000 0.000000
    39 -0.000001 -0.614690 0.000000 -0.523599 0.000000 0.000000
    40 -0.308254 -0.007814 0.307166 -0.349218 -0.257566 -2.266880
    41 1.978377 0.019543 0.000001 -0.000002 -0.000010 0.287977
    42 0.982426 0.003186 0.000000 0.000000 0.000000 0.331617
  time 16
    0 6.828904 1.142972 -5.783287 5.352769 -1.007947 -5.319454
    1 -0.001604 -8.561233 -0.002570 0.076052 -0.192368 -0.025523
    2 2.231814 -3.140441 1.669078 -4.901240 1.707533 -1.054119
    3 0.000000 2.617617 0.665016 0.000000 0.000000 0.000000
    4 -0.000001 -1.655465 2.278034 0.000000 0.000000 0.000000
    5 -0.000001 -1.796958 1.330032 0.000000 0.000000 0.000000
    6 -0.000002 -2.886455 1.471525 0.000000 0.000000 0.000000
    7 0.000000 -0.778212 1.774024 -0.680679 0.000000 0.000000
    8 -0.000001 -1.598867 0.580120 0.000000 0.000000 0.000000
    9 -0.003480 -0.404829 0.000000 0.000000 0.000000 0.000000
    10 -0.519309 -2.501155 -0.278957 0.112238 0.000000 -0.122173
    11 -0.010598 -1.208185 -0.000001 0.181969 0.000000 0.000000
    12 0.000000 -0.763066 0.000000 0.304570 0.000000 0.000000
    13 0.105981 -2.607133 -0.278957 0.147186 0.000000 -0.148353
    14 0.000000 -1.250578 -0.000001 0.222445 0.000000 0.000000
    15 0.000000 -0.932634 0.000000 0.192976 0.000000 0.000000
    16 0.763063 -2.490556 -0.278957 -1.114335 0.030405 0.214564
    17 -0.012322 -1.280917 0.000000 -0.253279 0.000000 0.000000
    18 -0.001697 -0.749371 -0.000001 -0.256477 0.000000 0.000000
    19 0.354567 0.016267 0.318133 0.192378 -0.161146 -0.590133
    20 1.887164 0.012877 0.000000 -0.279402 0.125023 0.008626
    21 1.001874 -0.000270 -0.000001 0.000000 0.000000 0.233014
    22 -1.123358 -2.195093 -0.278957 0.064303 0.000000 -0.087266
    23 0.010772 -0.963791 0.000000 0.011526 0.000000 0.000000
    24 -0.010412 -0.631916 0.000000 0.312113 0.000000 0.000000
    25 -4.718406 -0.861116 -9.674417 0.221430 0.779862 0.799331
    26 0.089930 -8.543163 -0.000001 0.289933 -0.252264 0.241502
    27 0.000000 -0.359712 0.000000 0.000000 0.000000 0.000000
    28 -0.170479 -2.636146 -0.277655 -0.343897 0.000000 0.000000
    29 0.010599 -1.261176 0.000002 -0.343832 0.000000 0.000000
    30 -0.000001 -0.943232 -0.000001 -0.532326 0.000000 0.000000
    31 -0.827563 -2.508973 -0.277656 -0.303713 0.000000 0.000000
    32 0.000000 -1.292971 0.000000 -0.287979 0.000000 0.000000
    33 0.000000 -0.752466 0.000000 -0.445059 0.000000 0.000000
    34 0.444213 -2.561960 -0.277655 -0.275212 -0.046226 -0.024599
    35 0.021022 -1.208186 0.000000 -0.312444 0.000000 0.000000
    36 0.010597 -0.741867 -0.000001 -0.401443 0.000000 0.000000
    37 1.047444 -2.222821 -0.277655 -0.009116 -0.066950 -0.041090
    38 0.000000 -0.996223 -0.000002 -0.322899 0.000000 0.000000
    39 -0.000001 -0.614690 0.000000 -0.523599 0.000000 0.000000
    40 -0.308254 -0.007814 0.307166 -0.349218 -0.257566 -2.266880
    41 1.978377 0.019543 0.000001 -0.000002 -0.000010 0.287977
    42 0.982426 0.003186 0.000000 0.000000 0.000000 0.331617
  time 17
    0 6.821091 1.131253 -5.826257 5.318836 -1.059080 -5.303974
    1 -0.001604 -8.561233 -0.002570 0.096078 -0.199956 0.112327
    2 1.950555 -2.718553 1.598764 -5.204172 1.689334 -0.998475
    3 0.000000 2.617617 0.665016 0.000000 0.000000 0.000000
    4 -0.000001 -1.655465 2.278034 0.000000 0.000000 0.000000
    5 -0.000001 -1.796958 1.330032 0.000000 0.000000 0.000000
    6 -0.000002 -2.886455 1.471525 0.000000 0.000000 0.000000
    7 0.000000 -0.778212 1.774024 -0.680679 0.000000 0.000000
    8 -0.000001 -1.598867 0.580120 0.000000 0.000000 0.000000
    9 -0.003480 -0.404829 0.000000 0.000000 0.000000 0.000000
    10 -0.519309 -2.501155 -0.278957 0.093946 0.000000 -0.122173
    11 -0.010598 -1.208185 -0.000001 0.161103 0.000000 0.000000
    12 0.000000 -0.763066 0.000000 0.277545 0.000000 0.000000
    13 0.105981 -2.607133 -0.278957 0.130181 0.000000 -0.148353
    14 0.000000 -1.250578 -0.000001 0.198913 0.000000 0.000000
    15 0.000000 -0.932634 0.000000 0.165544 0.000000 0.000000
    16 0.763063 -2.490556 -0.278957 -1.105371 0.030405 0.214564
    17 -0.012322 -1.280917 0.000000 -0.253500 0.000000 0.000000
    18 -0.001697 -0.749371 -0.000001 -0.260202 0.000000 0.000000
    19 0.354567 0.016267 0.318133 0.183403 -0.181076 -0.587493
    20 1.887164 0.012877 0.000000 -0.282542 0.117605 -0.017316
    21 1.001874 -0.000270 -0.000001 0.000000 0.000000 0.248520
    22 -1.123358 -2.195093 -0.278957 0.047942 0.000000 -0.087266
    23 0.010772 -0.963791 0.000000 0.001309 0.000000 0.000000
    24 -0.010412 -0.631916 0.000000 0.287111 0.000000 0.000000
    25 -4.546526 -0.861116 -9.627540 0.073710 0.705134 0.730541
    26 0.089930 -8.543163 -0.000001 0.325862 -0.296534 0.237281
    27 0.000000 -0.359712 0.000000 0.000000 0.000000 0.000000
    28 -0.170479 -2.636146 -0.277655 -0.343897 0.000000 0.000000
    29 0.010599 -1.261176 0.000002 -0.343832 0.000000 0.000000
    30 -0.000001 -0.943232 -0.000001 -0.532326 0.000000 0.000000
    31 -0.827563 -2.508973 -0.277656 -0.303713 0.000000 0.000000
    32 0.000000 -1.292971 0.000000 -0.287979 0.000000 0.000000
    33 0.000000 -0.752466 0.000000 -0.445059 0.000000 0.000000
    34 0.444213 -2.561960 -0.277655 -0.275212 -0.046226 -0.024599
    35 0.021022 -1.208186 0.000000 -0.312444 0.000000 0.000000
    36 0.010597 -0.741867 -0.000001 -0.401443 0.000000 0.000000
    37 1.047444 -2.222821 -0.277655 -0.009116 -0.066950 -0.041090
    38 0.000000 -0.996223 -0.000002 -0.322899 0.000000 0.000000
    39 -0.000001 -0.614690 0.000000 -0.523599 0.000000 0.000000
    40 -0.308254 -0.007814 0.307166 -0.349218 -0.257566 -2.266880
    41 1.978377 0.019543 0.000001 -0.000002 -0.000010 0.287977
    42 0.982426 0.003186 0.000000 0.000000 0.000000 0.331617
  time 18
    0 6.793746 1.123440 -5.908291 5.278461 -1.119162 -5.287280
    1 -0.001604 -8.561233 -0.002570 0.119637 -0.206305 0.188575
    2 1.544293 -2.316197 1.524543 -5.571579 1.671745 -1.020638
    3 0.000000 2.617617 0.665016 0.000000 0.000000 0.000000
    4 -0.000001 -1.655465 2.278034 0.000000 0.000000 0.000000
    5 -0.000001 -1.796958 1.330032 0.000000 0.000000 0.000000
    6 -0.000002 -2.886455 1.471525 0.000000 0.000000 0.000000
    7 0.000000 -0.778212 1.774024 -0.680679 0.000000 0.000000
    8 -0.000001 -1.598867 0.580120 0.000000 0.000000 0.000000
    9 -0.003480 -0.404829 0.000000 0.000000 0.000000 0.000000
    10 -0.519309 -2.501155 -0.278957 0.069534 0.000000 -0.122173
    11 -0.010598 -1.208185 -0.000001 0.133256 0.000000 0.000000
    12 0.000000 -0.763066 0.000000 0.241479 0.000000 0.000000
    13 0.105981 -2.607133 -0.278957 0.107486 0.000000 -0.148353
    14 0.000000 -1.250578 -0.000001 0.167507 0.000000 0.000000
    15 0.000000 -0.932634 0.000000 0.128863 0.000000 0.000000
    16 0.763063 -2.490556 -0.278957 -1.089314 0.030405 0.214564
    17 -0.012322 -1.280917 0.000000 -0.260524 0.000000 0.000000
    18 -0.001697 -0.749371 -0.000001 -0.270874 0.000000 0.000000
    19 0.354567 0.016267 0.318133 0.150997 -0.224065 -0.556551
    20 1.887164 0.012877 0.000000 -0.289026 0.100155 -0.077004
    21 1.001874 -0.000270 -0.000001 0.000000 0.000000 0.189725
    22 -1.123358 -2.195093 -0.278957 0.026105 0.000000 -0.087266
    23 0.010772 -0.963791 0.000000 -0.012313 0.000000 0.000000
    24 -0.010412 -0.631916 0.000000 0.253743 0.000000 0.000000
    25 -4.359020 -0.861116 -9.588477 -0.055166 0.622727 0.681349
    26 0.089930 -8.543163 -0.000001 0.361086 -0.339614 0.231878
    27 0.000000 -0.359712 0.000000 0.000000 0.000000 0.000000
    28 -0.170479 -2.636146 -0.277655 -0.343897 0.000000 0.000000
    29 0.010599 -1.261176 0.000002 -0.343832 0.000000 0.000000
    30 -0.000001 -0.943232 -0.000001 -0.532326 0.000000 0.000000
    31 -0.827563 -2.508973 -0.277656 -0.303713 0.000000 0.000000
    32 0.000000 -1.292971 0.000000 -0.287979 0.000000 0.000000
    33 0.000000 -0.752466 0.000000 -0.445059 0.000000 0.000000
    34 0.444213 -2.561960 -0.277655 -0.275212 -0.046226 -0.024599
    35 0.021022 -1.208186 0.000000 -0.312444 0.000000 0.000000
    36 0.010597 -0.741867 -0.000001 -0.401443 0.000000 0.000000
    37 1.047444 -2.222821 -0.277655 -0.009116 -0.066950 -0.041090
    38 0.000000 -0.996223 -0.000002 -0.322899 0.000000 0.000000
    39 -0.000001 -0.614690 0.000000 -0.523599 0.000000 0.000000
    40 -0.308254 -0.007814 0.307166 -0.349218 -0.257566 -2.266880
    41 1.978377 0.019543 0.000001 -0.000002 -0.000010 0.287977
    42 0.982426 0.003186 0.000000 0.000000 0.000000 0.331617
  time 19
    0 6.735151 1.123440 -6.037201 5.230373 -1.184092 -5.265924
    1 -0.001604 -8.561233 -0.002570 0.158308 -0.209609 0.170625
    2 1.098967 -2.027126 1.473760 0.291796 1.658019 -1.116178
    3 0.000000 2.617617 0.665016 0.000000 0.000000 0.000000
    4 -0.000001 -1.655465 2.278034 0.000000 0.000000 0.000000
    5 -0.000001 -1.796958 1.330032 0.000000 0.000000 0.000000
    6 -0.000002 -2.886455 1.471525 0.000000 0.000000 0.000000
    7 0.000000 -0.778212 1.774024 -0.680679 0.000000 0.000000
    8 -0.000001 -1.598867 0.580120 0.000000 0.000000 0.000000
    9 -0.003480 -0.404829 0.000000 0.000000 0.000000 0.000000
    10 -0.519309 -2.501155 -0.278957 0.038340 0.000000 -0.122173
    11 -0.010598 -1.208185 -0.000001 0.097673 0.000000 0.000000
    12 0.000000 -0.763066 0.000000 0.195394 0.000000 0.000000
    13 0.105981 -2.607133 -0.278957 0.078487 0.000000 -0.148353
    14 0.000000 -1.250578 -0.000001 0.127333 0.000000 0.000000
    15 0.000000 -0.932634 0.000000 0.081993 0.000000 0.000000
    16 0.763063 -2.490556 -0.278957 -1.065110 0.030405 0.214564
    17 -0.012322 -1.280917 0.000000 -0.275805 0.000000 0.000000
    18 -0.001697 -0.749371 -0.000001 -0.289764 0.000000 0.000000
    19 0.354567 0.016267 0.318133 0.085515 -0.294127 -0.487412
    20 1.887164 0.012877 0.000000 -0.297739 0.069247 -0.179654
    21 1.001874 -0.000270 -0.000001 0.000000 0.000000 0.037418
    22 -1.123358 -2.195093 -0.278957 -0.001796 0.000000 -0.087266
    23 0.010772 -0.963791 0.000000 -0.029694 0.000000 0.000000
    24 -0.010412 -0.631916 0.000000 0.211107 0.000000 0.000000
    25 -4.163702 -0.861116 -9.568945 -0.167852 0.535373 0.649080
    26 0.089930 -8.543163 -0.000001 0.395535 -0.381338 0.225439
    27 0.000000 -0.359712 0.000000 0.000000 0.000000 0.000000
    28 -0.170479 -2.636146 -0.277655 -0.343897 0.000000 0.000000
    29 0.010599 -1.261176 0.000002 -0.343832 0.000000 0.000000
    30 -0.000001 -0.943232 -0.000001 -0.532326 0.000000 0.000000
    31 -0.827563 -2.508973 -0.277656 -0.303713 0.000000 0.000000
    32 0.000000 -1.292971 0.000000 -0.287979 0.000000 0.000000
    33 0.000000 -0.752466 0.000000 -0.445059 0.000000 0.000000
    34 0.444213 -2.561960 -0.277655 -0.275212 -0.046226 -0.024599
    35 0.021022 -1.208186 0.000000 -0.312444 0.000000 0.000000
    36 0.010597 -0.741867 -0.000001 -0.401443 0.000000 0.000000
    37 1.047444 -2.222821 -0.277655 -0.009116 -0.066950 -0.041090
    38 0.000000 -0.996223 -0.000002 -0.322899 0.000000 0.000000
    39 -0.000001 -0.614690 0.000000 -0.523599 0.000000 0.000000
    40 -0.308254 -0.007814 0.307166 -0.349218 -0.257566 -2.266880
    41 1.978377 0.019543 0.000001 -0.000002 -0.000010 0.287977
    42 0.982426 0.003186 0.000000 0.000000 0.000000 0.331617
  time 20
    0 6.660930 1.135159 -6.193456 5.172124 -1.249640 -5.235896
    1 -0.001604 -8.561233 -0.002570 0.216397 -0.205826 0.064863
    2 0.704423 -1.956811 1.462041 -0.138075 1.648767 -1.250951
    3 0.000000 2.617617 0.665016 0.000000 0.000000 0.000000
    4 -0.000001 -1.655465 2.278034 0.000000 0.000000 0.000000
    5 -0.000001 -1.796958 1.330032 0.000000 0.000000 0.000000
    6 -0.000002 -2.886455 1.471525 0.000000 0.000000 0.000000
    7 0.000000 -0.778212 1.774024 -0.680679 0.000000 0.000000
    8 -0.000001 -1.598867 0.580120 0.000000 0.000000 0.000000
    9 -0.003480 -0.404829 0.000000 0.000000 0.000000 0.000000
    10 -0.519309 -2.501155 -0.278957 -0.006798 0.000000 -0.122173
    11 -0.010598 -1.208185 -0.000001 0.046184 0.000000 0.000000
    12 0.000000 -0.763066 0.000000 0.128707 0.000000 0.000000
    13 0.105981 -2.607133 -0.278957 0.036524 0.000000 -0.148353
    14 0.000000 -1.250578 -0.000001 0.069263 0.000000 0.000000
    15 0.000000 -0.932634 0.000000 0.014170 0.000000 0.000000
    16 0.763063 -2.490556 -0.278957 -1.030070 0.030405 0.214564
    17 -0.012322 -1.280917 0.000000 -0.300071 0.000000 0.000000
    18 -0.001697 -0.749371 -0.000001 -0.318380 0.000000 0.000000
    19 0.354567 0.016267 0.318133 0.000915 -0.374124 -0.399792
    20 1.887164 0.012877 0.000000 -0.303935 0.030896 -0.303182
    21 1.001874 -0.000270 -0.000001 0.000000 0.000000 -0.154353
    22 -1.123358 -2.195093 -0.278957 -0.042171 0.000000 -0.087266
    23 0.010772 -0.963791 0.000000 -0.054880 0.000000 0.000000
    24 -0.010412 -0.631916 0.000000 0.149410 0.000000 0.000000
    25 -3.952758 -0.861116 -9.565038 -0.266837 0.445213 0.630819
    26 0.089930 -8.543163 -0.000001 0.429082 -0.421590 0.218147
    27 0.000000 -0.359712 0.000000 0.000000 0.000000 0.000000
    28 -0.170479 -2.636146 -0.277655 -0.343897 0.000000 0.000000
    29 0.010599 -1.261176 0.000002 -0.343832 0.000000 0.000000
    30 -0.000001 -0.943232 -0.000001 -0.532326 0.000000 0.000000
    31 -0.827563 -2.508973 -0.277656 -0.303713 0.000000 0.000000
    32 0.000000 -1.292971 0.000000 -0.287979 0.000000 0.000000
    33 0.000000 -0.752466 0.000000 -0.445059 0.000000 0.000000
    34 0.444213 -2.561960 -0.277655 -0.275212 -0.046226 -0.024599
    35 0.021022 -1.208186 0.000000 -0.312444 0.000000 0.000000
    36 0.010597 -0.741867 -0.000001 -0.401443 0.000000 0.000000
    37 1.047444 -2.222821 -0.277655 -0.009116 -0.066950 -0.041090
    38 0.000000 -0.996223 -0.000002 -0.322899 0.000000 0.000000
    39 -0.000001 -0.614690 0.000000 -0.523599 0.000000 0.000000
    40 -0.308254 -0.007814 0.307166 -0.349218 -0.257566 -2.266880
    41 1.978377 0.019543 0.000001 -0.000002 -0.000010 0.287977
    42 0.982426 0.003186 0.000000 0.000000 0.000000 0.331617
  time 21
    0 6.582802 1.154691 -6.361430 5.100537 -1.311485 -5.192344
    1 -0.001604 -8.561233 -0.002570 0.281635 -0.189302 -0.089444
    2 0.333318 -2.148223 1.497198 -0.526079 1.641294 -1.381198
    3 0.000000 2.617617 0.665016 0.000000 0.000000 0.000000
    4 -0.000001 -1.655465 2.278034 0.000000 0.000000 0.000000
    5 -0.000001 -1.796958 1.330032 0.000000 0.000000 0.000000
    6 -0.000002 -2.886455 1.471525 0.000000 0.000000 0.000000
    7 0.000000 -0.778212 1.774024 -0.680679 0.000000 0.000000
    8 -0.000001 -1.598867 0.580120 0.000000 0.000000 0.000000
    9 -0.003480 -0.404829 0.000000 0.000000 0.000000 0.000000
    10 -0.519309 -2.501155 -0.278957 -0.070785 0.000000 -0.122173
    11 -0.010598 -1.208185 -0.000001 -0.026806 0.000000 0.000000
    12 0.000000 -0.763066 0.000000 0.034174 0.000000 0.000000
    13 0.105981 -2.607133 -0.278957 -0.022961 0.000000 -0.148353
    14 0.000000 -1.250578 -0.000001 -0.013054 0.000000 0.000000
    15 0.000000 -0.932634 0.000000 -0.081974 0.000000 0.000000
    16 0.763063 -2.490556 -0.278957 -0.983560 0.030405 0.214564
    17 -0.012322 -1.280917 0.000000 -0.332311 0.000000 0.000000
    18 -0.001697 -0.749371 -0.000001 -0.356396 0.000000 0.000000
    19 0.354567 0.016267 0.318133 -0.083253 -0.451988 -0.318365
    20 1.887164 0.012877 0.000000 -0.305337 -0.007778 -0.426091
    21 1.001874 -0.000270 -0.000001 0.000000 0.000000 -0.331665
    22 -1.123358 -2.195093 -0.278957 -0.099406 0.000000 -0.087266
    23 0.010772 -0.963791 0.000000 -0.090567 0.000000 0.000000
    24 -0.010412 -0.631916 0.000000 0.061951 0.000000 0.000000
    25 -3.730095 -0.861116 -9.584570 -0.354289 0.354314 0.624287
    26 0.089930 -8.543163 -0.000001 0.461636 -0.460230 0.210165
    27 0.000000 -0.359712 0.000000 0.000000 0.000000 0.000000
    28 -0.170479 -2.636146 -0.277655 -0.391524 0.000000 0.000000
    29 0.010599 -1.261176 0.000002 -0.367924 0.000000 0.000000
    30 -0.000001 -0.943232 -0.000001 -0.532326 0.000000 0.000000
    31 -0.827563 -2.508973 -0.277656 -0.367628 0.000000 0.000000
    32 0.000000 -1.292971 0.000000 -0.287979 0.000000 0.000000
    33 0.000000 -0.752466 0.000000 -0.445059 0.000000 0.000000
    34 0.444213 -2.561960 -0.277655 -0.355883 -0.046226 -0.024599
    35 0.021022 -1.208186 0.000000 -0.323940 0.000000 0.000000
    36 0.010597 -0.741867 -0.000001 -0.406692 0.000000 0.000000
    37 1.047444 -2.222821 -0.277655 -0.110219 -0.066950 -0.041090
    38 0.000000 -0.996223 -0.000002 -0.349101 0.000000 0.000000
    39 -0.000001 -0.614690 0.000000 -0.523599 0.000000 0.000000
    40 -0.308254 -0.007814 0.307166 -0.336957 -0.297487 -2.314698
    41 1.978377 0.019543 0.000001 -0.000002 -0.000010 0.287316
    42 0.982426 0.003186 0.000000 0.000000 0.000000 0.337947
  time 22
    0 6.504675 1.189848 -6.517684 5.013163 -1.365395 -5.130794
    1 -0.001604 -8.561233 -0.002570 0.341450 -0.160472 -0.252932
    2 -0.002630 -2.402137 1.540168 -0.849896 1.631076 -1.492393
    3 0.000000 2.617617 0.665016 0.000000 0.000000 0.000000
    4 -0.000001 -1.655465 2.278034 0.000000 0.000000 0.000000
    5 -0.000001 -1.796958 1.330032 0.000000 0.000000 0.000000
    6 -0.000002 -2.886455 1.471525 0.000000 0.000000 0.000000
    7 0.000000 -0.778212 1.774024 -0.680679 0.000000 0.000000
    8 -0.000001 -1.598867 0.580120 0.000000 0.000000 0.000000
    9 -0.003480 -0.404829 0.000000 0.000000 0.000000 0.000000
    10 -0.519309 -2.501155 -0.278957 -0.150629 0.000000 -0.122173
    11 -0.010598 -1.208185 -0.000001 -0.117885 0.000000 0.000000
    12 0.000000 -0.763066 0.000000 -0.083787 0.000000 0.000000
    13 0.105981 -2.607133 -0.278957 -0.097188 0.000000 -0.148353
    14 0.000000 -1.250578 -0.000001 -0.115726 0.000000 0.000000
    15 0.000000 -0.932634 0.000000 -0.201997 0.000000 0.000000
    16 0.763063 -2.490556 -0.278957 -0.927427 0.030405 0.214564
    17 -0.012322 -1.280917 0.000000 -0.371257 0.000000 0.000000
    18 -0.001697 -0.749371 -0.000001 -0.402306 0.000000 0.000000
    19 0.354567 0.016267 0.318133 -0.139185 -0.522853 -0.275480
    20 1.887164 0.012877 0.000000 -0.302952 -0.039489 -0.527116
    21 1.001874 -0.000270 -0.000001 0.000000 0.000000 -0.440562
    22 -1.123358 -2.195093 -0.278957 -0.170824 0.000000 -0.087266
    23 0.010772 -0.963791 0.000000 -0.135097 0.000000 0.000000
    24 -0.010412 -0.631916 0.000000 -0.047183 0.000000 0.000000
    25 -3.491807 -0.861116 -9.619728 -0.352285 0.177169 0.663168
    26 0.089930 -8.543163 -0.000001 0.492908 -0.497165 0.201706
    27 0.000000 -0.359712 0.000000 0.000000 0.000000 0.000000
    28 -0.170479 -2.636146 -0.277655 -0.439178 0.000000 0.000000
    29 0.010599 -1.261176 0.000002 -0.392016 0.000000 0.000000
    30 -0.000001 -0.943232 -0.000001 -0.532326 0.000000 0.000000
    31 -0.827563 -2.508973 -0.277656 -0.431479 0.000000 0.000000
    32 0.000000 -1.292971 0.000000 -0.287979 0.000000 0.000000
    33 0.000000 -0.752466 0.000000 -0.445059 0.000000 0.000000
    34 0.444213 -2.561960 -0.277655 -0.436482 -0.046226 -0.024599
    35 0.021022 -1.208186 0.000000 -0.335473 0.000000 0.000000
    36 0.010597 -0.741867 -0.000001 -0.411941 0.000000 0.000000
    37 1.047444 -2.222821 -0.277655 -0.211249 -0.066950 -0.041090
    38 0.000000 -0.996223 -0.000002 -0.375268 0.000000 0.000000
    39 -0.000001 -0.614690 0.000000 -0.523599 0.000000 0.000000
    40 -0.308254 -0.007814 0.307166 -0.320632 -0.338382 -2.368629
    41 1.978377 0.019543 0.000001 -0.000002 -0.000010 0.282743
    42 0.982426 0.003186 0.000000 0.000000 0.000000 0.341324
  time 23
    0 6.438267 1.240631 -6.646595 4.913631 -1.407448 -5.053671
    1 -0.001604 -8.561233 -0.002570 0.386456 -0.127359 -0.387890
    2 -0.229199 -2.609175 1.575325 -4.277846 1.525388 1.525256
    3 0.000000 2.617617 0.665016 0.000000 0.000000 0.000000
    4 -0.000001 -1.655465 2.278034 0.000000 0.000000 0.000000
    5 -0.000001 -1.796958 1.330032 0.000000 0.000000 0.000000
    6 -0.000002 -2.886455 1.471525 0.000000 0.000000 0.000000
    7 0.000000 -0.778212 1.774024 -0.680679 0.000000 0.000000
    8 -0.000001 -1.598867 0.580120 0.000000 0.000000 0.000000
    9 -0.003480 -0.404829 0.000000 0.000000 0.000000 0.000000
    10 -0.519309 -2.501155 -0.278957 -0.243375 0.000000 -0.122173
    11 -0.010598 -1.208185 -0.000001 -0.223680 0.000000 0.000000
    12 0.000000 -0.763066 0.000000 -0.220809 0.000000 0.000000
    13 0.105981 -2.607133 -0.278957 -0.183409 0.000000 -0.148353
    14 0.000000 -1.250578 -0.000001 -0.235041 0.000000 0.000000
    15 0.000000 -0.932634 0.000000 -0.341353 0.000000 0.000000
    16 0.763063 -2.490556 -0.278957 -0.863411 0.030405 0.214564
    17 -0.012322 -1.280917 0.000000 -0.415614 0.000000 0.000000
    18 -0.001697 -0.749371 -0.000001 -0.454631 0.000000 0.000000
    19 0.354567 0.016267 0.318133 -0.146292 -0.607296 -0.296996
    20 1.887164 0.012877 0.000000 -0.298350 -0.066383 -0.613888
    21 1.001874 -0.000270 -0.000001 0.000000 0.000000 -0.485436
    22 -1.123358 -2.195093 -0.278957 -0.253783 0.000000 -0.087266
    23 0.010772 -0.963791 0.000000 -0.186841 0.000000 0.000000
    24 -0.010412 -0.631916 0.000000 -0.173951 0.000000 0.000000
    25 -3.245705 -0.861116 -9.662698 -0.310807 0.009771 0.695045
    26 0.089930 -8.543163 -0.000001 0.522774 -0.532371 0.193001
    27 0.000000 -0.359712 0.000000 0.000000 0.000000 0.000000
    28 -0.170479 -2.636146 -0.277655 -0.486831 0.000000 0.000000
    29 0.010599 -1.261176 0.000002 -0.416089 0.000000 0.000000
    30 -0.000001 -0.943232 -0.000001 -0.532326 0.000000 0.000000
    31 -0.827563 -2.508973 -0.277656 -0.495362 0.000000 0.000000
    32 0.000000 -1.292971 0.000000 -0.287979 0.000000 0.000000
    33 0.000000 -0.752466 0.000000 -0.445059 0.000000 0.000000
    34 0.444213 -2.561960 -0.277655 -0.517152 -0.046226 -0.024599
    35 0.021022 -1.208186 0.000000 -0.346987 0.000000 0.000000
    36 0.010597 -0.741867 -0.000001 -0.417141 0.000000 0.000000
    37 1.047444 -2.222821 -0.277655 -0.312280 -0.066950 -0.041090
    38 0.000000 -0.996223 -0.000002 -0.401452 0.000000 0.000000
    39 -0.000001 -0.614690 0.000000 -0.523599 0.000000 0.000000
    40 -0.308254 -0.007814 0.307166 -0.301756 -0.378369 -2.424070
    41 1.978377 0.019543 0.000001 -0.000002 -0.000010 0.278157
    42 0.982426 0.003186 0.000000 0.000000 0.000000 0.344728
  time 24
    0 6.395297 1.310946 -6.728628 4.825713 -1.434337 -4.982795
    1 -0.001604 -8.561233 -0.002570 0.412416 -0.102813 -0.458674
    2 -0.377641 -2.804493 1.598764 -4.649947 1.543486 1.272874
    3 0.000000 2.617617 0.665016 0.000000 0.000000 0.000000
    4 -0.000001 -1.655465 2.278034 0.000000 0.000000 0.000000
    5 -0.000001 -1.796958 1.330032 0.000000 0.000000 0.000000
    6 -0.000002 -2.886455 1.471525 0.000000 0.000000 0.000000
    7 0.000000 -0.778212 1.774024 -0.680679 0.000000 0.000000
    8 -0.000001 -1.598867 0.580120 0.000000 0.000000 0.000000
    9 -0.003480 -0.404829 0.000000 0.000000 0.000000 0.000000
    10 -0.519309 -2.501155 -0.278957 -0.346032 0.000000 -0.122173
    11 -0.010598 -1.208185 -0.000001 -0.340781 0.000000 0.000000
    12 0.000000 -0.763066 0.000000 -0.372472 0.000000 0.000000
    13 0.105981 -2.607133 -0.278957 -0.278844 0.000000 -0.148353
    14 0.000000 -1.250578 -0.000001 -0.367151 0.000000 0.000000
    15 0.000000 -0.932634 0.000000 -0.495601 0.000000 0.000000
    16 0.763063 -2.490556 -0.278957 -0.793357 0.030405 0.214564
    17 -0.012322 -1.280917 0.000000 -0.464178 0.000000 0.000000
    18 -0.001697 -0.749371 -0.000001 -0.511892 0.000000 0.000000
    19 0.354567 0.016267 0.318133 -0.105965 -0.705846 -0.377782
    20 1.887164 0.012877 0.000000 -0.291926 -0.091167 -0.695581
    21 1.001874 -0.000270 -0.000001 0.000000 0.000000 -0.509605
    22 -1.123358 -2.195093 -0.278957 -0.345606 0.000000 -0.087266
    23 0.010772 -0.963791 0.000000 -0.244095 0.000000 0.000000
    24 -0.010412 -0.631916 0.000000 -0.314266 0.000000 0.000000
    25 -2.983979 -0.861116 -9.721293 -0.300897 -0.038521 0.686072
    26 0.089930 -8.543163 -0.000001 0.515664 -0.545104 0.202938
    27 0.000000 -0.359712 0.000000 0.000000 0.000000 0.000000
    28 -0.170479 -2.636146 -0.277655 -0.534485 0.000000 0.000000
    29 0.010599 -1.261176 0.000002 -0.440181 0.000000 0.000000
    30 -0.000001 -0.943232 -0.000001 -0.532326 0.000000 0.000000
    31 -0.827563 -2.508973 -0.277656 -0.559214 0.000000 0.000000
    32 0.000000 -1.292971 0.000000 -0.287979 0.000000 0.000000
    33 0.000000 -0.752466 0.000000 -0.445059 0.000000 0.000000
    34 0.444213 -2.561960 -0.277655 -0.597751 -0.046226 -0.024599
    35 0.021022 -1.208186 0.000000 -0.358520 0.000000 0.000000
    36 0.010597 -0.741867 -0.000001 -0.422414 0.000000 0.000000
    37 1.047444 -2.222821 -0.277655 -0.413382 -0.066950 -0.041090
    38 0.000000 -0.996223 -0.000002 -0.427619 0.000000 0.000000
    39 -0.000001 -0.614690 0.000000 -0.523599 0.000000 0.000000
    40 -0.308254 -0.007814 0.307166 -0.282369 -0.415925 -2.476059
    41 1.978377 0.019543 0.000001 -0.000002 -0.000010 0.277510
    42 0.982426 0.003186 0.000000 0.000000 0.000000 0.351031
  time 25
    0 6.379671 1.404699 -6.744254 4.835603 -1.444608 -5.006482
    1 -0.001604 -8.561233 -0.002570 0.420531 -0.091985 -0.462232
    2 -0.479207 -2.980280 1.575325 -5.783784 1.556856 0.225901
    3 0.000000 2.617617 0.665016 0.000000 0.000000 0.000000
    4 -0.000001 -1.655465 2.278034 0.000000 0.000000 0.000000
    5 -0.000001 -1.796958 1.330032 0.000000 0.000000 0.000000
    6 -0.000002 -2.886455 1.471525 0.000000 0.000000 0.000000
    7 0.000000 -0.778212 1.774024 -0.680679 0.000000 0.000000
    8 -0.000001 -1.598867 0.580120 0.000000 0.000000 0.000000
    9 -0.003480 -0.404829 0.000000 0.000000 0.000000 0.000000
    10 -0.519309 -2.501155 -0.278957 -0.455609 0.000000 -0.122173
    11 -0.010598 -1.208185 -0.000001 -0.465776 0.000000 0.000000
    12 0.000000 -0.763066 0.000000 -0.534360 0.000000 0.000000
    13 0.105981 -2.607133 -0.278957 -0.380712 0.000000 -0.148353
    14 0.000000 -1.250578 -0.000001 -0.508119 0.000000 0.000000
    15 0.000000 -0.932634 0.000000 -0.660247 0.000000 0.000000
    16 0.763063 -2.490556 -0.278957 -0.719110 0.030405 0.214564
    17 -0.012322 -1.280917 0.000000 -0.515717 0.000000 0.000000
    18 -0.001697 -0.749371 -0.000001 -0.572613 0.000000 0.000000
    19 0.354567 0.016267 0.318133 -0.021908 -0.784261 -0.505943
    20 1.887164 0.012877 0.000000 -0.286246 -0.108065 -0.752730
    21 1.001874 -0.000270 -0.000001 0.000000 0.000000 -0.517970
    22 -1.123358 -2.195093 -0.278957 -0.443620 0.000000 -0.087266
    23 0.010772 -0.963791 0.000000 -0.305227 0.000000 0.000000
    24 -0.010412 -0.631916 0.000000 -0.464040 0.000000 0.000000
    25 -2.706626 -0.861116 -9.783795 -0.290826 -0.055874 0.666395
    26 0.089930 -8.543163 -0.000001 0.455735 -0.524592 0.240221
    27 0.000000 -0.359712 0.000000 0.000000 0.000000 0.000000
    28 -0.170479 -2.636146 -0.277655 -0.582139 0.000000 0.000000
    29 0.010599 -1.261176 0.000002 -0.464253 0.000000 0.000000
    30 -0.000001 -0.943232 -0.000001 -0.532326 0.000000 0.000000
    31 -0.827563 -2.508973 -0.277656 -0.623129 0.000000 0.000000
    32 0.000000 -1.292971 0.000000 -0.287979 0.000000 0.000000
    33 0.000000 -0.752466 0.000000 -0.445059 0.000000 0.000000
    34 0.444213 -2.561960 -0.277655 -0.678421 -0.046226 -0.024599
    35 0.021022 -1.208186 0.000000 -0.370034 0.000000 0.000000
    36 0.010597 -0.741867 -0.000001 -0.427639 0.000000 0.000000
    37 1.047444 -2.222821 -0.277655 -0.514413 -0.066950 -0.041090
    38 0.000000 -0.996223 -0.000002 -0.453821 0.000000 0.000000
    39 -0.000001 -0.614690 0.000000 -0.523599 0.000000 0.000000
    40 -0.308254 -0.007814 0.307166 -0.265221 -0.449881 -2.519155
    41 1.978377 0.019543 0.000001 -0.000002 -0.000010 0.284713
    42 0.982426 0.003186 0.000000 0.000000 0.000000 0.363157
  time 26
    0 6.395297 1.521890 -6.701284 4.973695 -1.440068 -5.158212
    1 -0.001604 -8.561233 -0.002570 0.416280 -0.089354 -0.427507
    2 -0.549521 -3.136535 1.497198 -0.661163 1.541249 -0.870869
    3 0.000000 2.617617 0.665016 0.000000 0.000000 0.000000
    4 -0.000001 -1.655465 2.278034 0.000000 0.000000 0.000000
    5 -0.000001 -1.796958 1.330032 0.000000 0.000000 0.000000
    6 -0.000002 -2.886455 1.471525 0.000000 0.000000 0.000000
    7 0.000000 -0.778212 1.774024 -0.680679 0.000000 0.000000
    8 -0.000001 -1.598867 0.580120 0.000000 0.000000 0.000000
    9 -0.003480 -0.404829 0.000000 0.000000 0.000000 0.000000
    10 -0.519309 -2.501155 -0.278957 -0.569185 0.000000 -0.122173
    11 -0.010598 -1.208185 -0.000001 -0.595333 0.000000 0.000000
    12 0.000000 -0.763066 0.000000 -0.702157 0.000000 0.000000
    13 0.105981 -2.607133 -0.278957 -0.486298 0.000000 -0.148353
    14 0.000000 -1.250578 -0.000001 -0.654187 0.000000 0.000000
    15 0.000000 -0.932634 0.000000 -0.830850 0.000000 0.000000
    16 0.763063 -2.490556 -0.278957 -0.642438 0.030405 0.214564
    17 -0.012322 -1.280917 0.000000 -0.568869 0.000000 0.000000
    18 -0.001697 -0.749371 -0.000001 -0.635284 0.000000 0.000000
    19 0.354567 0.016267 0.318133 0.079206 -0.810687 -0.648341
    20 1.887164 0.012877 0.000000 -0.284831 -0.111804 -0.765560
    21 1.001874 -0.000270 -0.000001 0.000000 0.000000 -0.515281
    22 -1.123358 -2.195093 -0.278957 -0.545211 0.000000 -0.087266
    23 0.010772 -0.963791 0.000000 -0.368559 0.000000 0.000000
    24 -0.010412 -0.631916 0.000000 -0.619280 0.000000 0.000000
    25 -2.421461 -0.861116 -9.861923 -0.285140 -0.056317 0.643727
    26 0.089930 -8.543163 -0.000001 0.374115 -0.485204 0.287441
    27 0.000000 -0.359712 0.000000 0.000000 0.000000 0.000000
    28 -0.170479 -2.636146 -0.277655 -0.629766 0.000000 0.000000
    29 0.010599 -1.261176 0.000002 -0.488345 0.000000 0.000000
    30 -0.000001 -0.943232 -0.000001 -0.532326 0.000000 0.000000
    31 -0.827563 -2.508973 -0.277656 -0.687012 0.000000 0.000000
    32 0.000000 -1.292971 0.000000 -0.287979 0.000000 0.000000
    33 0.000000 -0.752466 0.000000 -0.445059 0.000000 0.000000
    34 0.444213 -2.561960 -0.277655 -0.759020 -0.046226 -0.024599
    35 0.021022 -1.208186 0.000000 -0.381530 0.000000 0.000000
    36 0.010597 -0.741867 -0.000001 -0.432863 0.000000 0.000000
    37 1.047444 -2.222821 -0.277655 -0.615443 -0.066950 -0.041090
    38 0.000000 -0.996223 -0.000002 -0.479987 0.000000 0.000000
    39 -0.000001 -0.614690 0.000000 -0.523599 0.000000 0.000000
    40 -0.308254 -0.007814 0.307166 -0.253635 -0.479474 -2.547475
    41 1.978377 0.019543 0.000001 -0.000002 -0.000010 0.303690
    42 0.982426 0.003186 0.000000 0.000000 0.000000 0.383980
  time 27
    0 6.422641 1.654706 -6.627063 5.154250 -1.421113 -5.352188
    1 -0.001604 -8.561233 -0.002570 0.403680 -0.091659 -0.367335
    2 -0.572959 -3.269351 1.368288 -0.950202 1.515120 -1.109387
    3 0.000000 2.617617 0.665016 0.000000 0.000000 0.000000
    4 -0.000001 -1.655465 2.278034 0.000000 0.000000 0.000000
    5 -0.000001 -1.796958 1.330032 0.000000 0.000000 0.000000
    6 -0.000002 -2.886455 1.471525 0.000000 0.000000 0.000000
    7 0.000000 -0.778212 1.774024 -0.680679 0.000000 0.000000
    8 -0.000001 -1.598867 0.580120 0.000000 0.000000 0.000000
    9 -0.003480 -0.404829 0.000000 0.000000 0.000000 0.000000
    10 -0.519309 -2.501155 -0.278957 -0.683735 0.000000 -0.122173
    11 -0.010598 -1.208185 -0.000001 -0.726001 0.000000 0.000000
    12 0.000000 -0.763066 0.000000 -0.871392 0.000000 0.000000
    13 0.105981 -2.607133 -0.278957 -0.592789 0.000000 -0.148353
    14 0.000000 -1.250578 -0.000001 -0.801598 0.000000 0.000000
    15 0.000000 -0.932634 0.000000 -1.002968 0.000000 0.000000
    16 0.763063 -2.490556 -0.278957 -0.565134 0.030405 0.214564
    17 -0.012322 -1.280917 0.000000 -0.622464 0.000000 0.000000
    18 -0.001697 -0.749371 -0.000001 -0.698458 0.000000 0.000000
    19 0.354567 0.016267 0.318133 0.171424 -0.768166 -0.779686
    20 1.887164 0.012877 0.000000 -0.289961 -0.097411 -0.716525
    21 1.001874 -0.000270 -0.000001 0.000000 0.000000 -0.506259
    22 -1.123358 -2.195093 -0.278957 -0.647673 0.000000 -0.087266
    23 0.010772 -0.963791 0.000000 -0.432458 0.000000 0.000000
    24 -0.010412 -0.631916 0.000000 -0.775851 0.000000 0.000000
    25 -2.120671 -0.861116 -9.947863 -0.288335 -0.053954 0.625861
    26 0.089930 -8.543163 -0.000001 0.298830 -0.444134 0.330883
    27 0.000000 -0.359712 0.000000 0.000000 0.000000 0.000000
    28 -0.170479 -2.636146 -0.277655 -0.677420 0.000000 0.000000
    29 0.010599 -1.261176 0.000002 -0.512438 0.000000 0.000000
    30 -0.000001 -0.943232 -0.000001 -0.532326 0.000000 0.000000
    31 -0.827563 -2.508973 -0.277656 -0.750863 0.000000 0.000000
    32 0.000000 -1.292971 0.000000 -0.287979 0.000000 0.000000
    33 0.000000 -0.752466 0.000000 -0.445059 0.000000 0.000000
    34 0.444213 -2.561960 -0.277655 -0.839691 -0.046226 -0.024599
    35 0.021022 -1.208186 0.000000 -0.393063 0.000000 0.000000
    36 0.010597 -0.741867 -0.000001 -0.438112 0.000000 0.000000
    37 1.047444 -2.222821 -0.277655 -0.716546 -0.066950 -0.041090
    38 0.000000 -0.996223 -0.000002 -0.506172 0.000000 0.000000
    39 -0.000001 -0.614690 0.000000 -0.523599 0.000000 0.000000
    40 -0.308254 -0.007814 0.307166 -0.255873 -0.501682 -2.545042
    41 1.978377 0.019543 0.000001 -0.000002 -0.000010 0.345308
    42 0.982426 0.003186 0.000000 0.000000 0.000000 0.421610
  time 28
    0 6.469518 1.807055 -6.517684 5.305135 -1.391579 -5.516414
    1 -0.001604 -8.561233 -0.002570 0.386580 -0.095420 -0.294296
    2 -0.549521 -3.386542 1.196408 -1.071298 1.487363 -1.182951
    3 0.000000 2.617617 0.665016 0.000000 0.000000 0.000000
    4 -0.000001 -1.655465 2.278034 0.000000 0.000000 0.000000
    5 -0.000001 -1.796958 1.330032 0.000000 0.000000 0.000000
    6 -0.000002 -2.886455 1.471525 0.000000 0.000000 0.000000
    7 0.000000 -0.778212 1.774024 -0.680679 0.000000 0.000000
    8 -0.000001 -1.598867 0.580120 0.000000 0.000000 0.000000
    9 -0.003480 -0.404829 0.000000 0.000000 0.000000 0.000000
    10 -0.519309 -2.501155 -0.278957 -0.796303 0.000000 -0.122173
    11 -0.010598 -1.208185 -0.000001 -0.854407 0.000000 0.000000
    12 0.000000 -0.763066 0.000000 -1.037698 0.000000 0.000000
    13 0.105981 -2.607133 -0.278957 -0.697438 0.000000 -0.148353
    14 0.000000 -1.250578 -0.000001 -0.946368 0.000000 0.000000
    15 0.000000 -0.932634 0.000000 -1.172160 0.000000 0.000000
    16 0.763063 -2.490556 -0.278957 -0.489042 0.030405 0.214564
    17 -0.012322 -1.280917 0.000000 -0.675204 0.000000 0.000000
    18 -0.001697 -0.749371 -0.000001 -0.760656 0.000000 0.000000
    19 0.354567 0.016267 0.318133 0.247687 -0.673739 -0.897706
    20 1.887164 0.012877 0.000000 -0.297919 -0.068408 -0.620524
    21 1.001874 -0.000270 -0.000001 0.000000 0.000000 -0.495623
    22 -1.123358 -2.195093 -0.278957 -0.748362 0.000000 -0.087266
    23 0.010772 -0.963791 0.000000 -0.495246 0.000000 0.000000
    24 -0.010412 -0.631916 0.000000 -0.929712 0.000000 0.000000
    25 -1.808161 -0.861116 -10.041615 -0.308316 -0.044428 0.616023
    26 0.089930 -8.543163 -0.000001 0.228110 -0.400050 0.373242
    27 0.000000 -0.359712 0.000000 0.000000 0.000000 0.000000
    28 -0.170479 -2.636146 -0.277655 -0.725074 0.000000 0.000000
    29 0.010599 -1.261176 0.000002 -0.536510 0.000000 0.000000
    30 -0.000001 -0.943232 -0.000001 -0.532326 0.000000 0.000000
    31 -0.827563 -2.508973 -0.277656 -0.814778 0.000000 0.000000
    32 0.000000 -1.292971 0.000000 -0.287979 0.000000 0.000000
    33 0.000000 -0.752466 0.000000 -0.445059 0.000000 0.000000
    34 0.444213 -2.561960 -0.277655 -0.920290 -0.046226 -0.024599
    35 0.021022 -1.208186 0.000000 -0.404577 0.000000 0.000000
    36 0.010597 -0.741867 -0.000001 -0.443361 0.000000 0.000000
    37 1.047444 -2.222821 -0.277655 -0.817576 -0.066950 -0.041090
    38 0.000000 -0.996223 -0.000002 -0.532338 0.000000 0.000000
    39 -0.000001 -0.614690 0.000000 -0.523599 0.000000 0.000000
    40 -0.308254 -0.007814 0.307166 -0.272939 -0.516623 -2.511641
    41 1.978377 0.019543 0.000001 -0.000002 -0.000010 0.409057
    42 0.982426 0.003186 0.000000 0.000000 0.000000 0.475622
  time 29
    0 6.528113 1.978935 -6.373149 5.409567 -1.358916 -5.634291
    1 -0.001604 -8.561233 -0.002570 0.369246 -0.097964 -0.221193
    2 -0.479207 -3.480295 0.977651 -1.139798 1.459963 -1.197664
    3 0.000000 2.617617 0.665016 0.000000 0.000000 0.000000
    4 -0.000001 -1.655465 2.278034 0.000000 0.000000 0.000000
    5 -0.000001 -1.796958 1.330032 0.000000 0.000000 0.000000
    6 -0.000002 -2.886455 1.471525 0.000000 0.000000 0.000000
    7 0.000000 -0.778212 1.774024 -0.680679 0.000000 0.000000
    8 -0.000001 -1.598867 0.580120 0.000000 0.000000 0.000000
    9 -0.003480 -0.404829 0.000000 0.000000 0.000000 0.000000
    10 -0.519309 -2.501155 -0.278957 -0.903898 0.000000 -0.122173
    11 -0.010598 -1.208185 -0.000001 -0.977141 0.000000 0.000000
    12 0.000000 -0.763066 0.000000 -1.196657 0.000000 0.000000
    13 0.105981 -2.607133 -0.278957 -0.797463 0.000000 -0.148353
    14 0.000000 -1.250578 -0.000001 -1.084786 0.000000 0.000000
    15 0.000000 -0.932634 0.000000 -1.333828 0.000000 0.000000
    16 0.763063 -2.490556 -0.278957 -0.416008 0.030405 0.214564
    17 -0.012322 -1.280917 0.000000 -0.725857 0.000000 0.000000
    18 -0.001697 -0.749371 -0.000001 -0.820372 0.000000 0.000000
    19 0.354567 0.016267 0.318133 0.302213 -0.556062 -0.996948
    20 1.887164 0.012877 0.000000 -0.303707 -0.032946 -0.506145
    21 1.001874 -0.000270 -0.000001 0.000000 0.000000 -0.488274
    22 -1.123358 -2.195093 -0.278957 -0.844602 0.000000 -0.087266
    23 0.010772 -0.963791 0.000000 -0.555267 0.000000 0.000000
    24 -0.010412 -0.631916 0.000000 -1.076777 0.000000 0.000000
    25 -1.483933 -0.861116 -10.147087 -0.341726 -0.022055 0.609411
    26 0.089930 -8.543163 -0.000001 0.151904 -0.343795 0.416914
    27 0.000000 -0.359712 0.000000 0.000000 0.000000 0.000000
    28 -0.170479 -2.636146 -0.277655 -0.772728 0.000000 0.000000
    29 0.010599 -1.261176 0.000002 -0.560602 0.000000 0.000000
    30 -0.000001 -0.943232 -0.000001 -0.532326 0.000000 0.000000
    31 -0.827563 -2.508973 -0.277656 -0.878629 0.000000 0.000000
    32 0.000000 -1.292971 0.000000 -0.287979 0.000000 0.000000
    33 0.000000 -0.752466 0.000000 -0.445059 0.000000 0.000000
    34 0.444213 -2.561960 -0.277655 -1.000960 -0.046226 -0.024599
    35 0.021022 -1.208186 0.000000 -0.416110 0.000000 0.000000
    36 0.010597 -0.741867 -0.000001 -0.448561 0.000000 0.000000
    37 1.047444 -2.222821 -0.277655 -0.918643 -0.066950 -0.041090
    38 0.000000 -0.996223 -0.000002 -0.558523 0.000000 0.000000
    39 -0.000001 -0.614690 0.000000 -0.523599 0.000000 0.000000
    40 -0.308254 -0.007814 0.307166 -0.296588 -0.527833 -2.465357
    41 1.978377 0.019543 0.000001 -0.000002 -0.000010 0.481620
    42 0.982426 0.003186 0.000000 0.000000 0.000000 0.536149
  time 30
    0 6.606241 2.166441 -6.193456 5.477524 -1.331365 -5.715798
    1 -0.001604 -8.561233 -0.002570 0.356300 -0.097529 -0.160894
    2 -0.365922 -3.554516 0.712018 -1.186454 1.434443 -1.173803
    3 0.000000 2.617617 0.665016 0.000000 0.000000 0.000000
    4 -0.000001 -1.655465 2.278034 0.000000 0.000000 0.000000
    5 -0.000001 -1.796958 1.330032 0.000000 0.000000 0.000000
    6 -0.000002 -2.886455 1.471525 0.000000 0.000000 0.000000
    7 0.000000 -0.778212 1.774024 -0.680679 0.000000 0.000000
    8 -0.000001 -1.598867 0.580120 0.000000 0.000000 0.000000
    9 -0.003480 -0.404829 0.000000 0.000000 0.000000 0.000000
    10 -0.519309 -2.501155 -0.278957 -1.003564 0.000000 -0.122173
    11 -0.010598 -1.208185 -0.000001 -1.090831 0.000000 0.000000
    12 0.000000 -0.763066 0.000000 -1.343903 0.000000 0.000000
    13 0.105981 -2.607133 -0.278957 -0.890118 0.000000 -0.148353
    14 0.000000 -1.250578 -0.000001 -1.213004 0.000000 0.000000
    15 0.000000 -0.932634 0.000000 -1.483530 0.000000 0.000000
    16 0.763063 -2.490556 -0.278957 -0.347773 0.030405 0.214564
    17 -0.012322 -1.280917 0.000000 -0.773156 0.000000 0.000000
    18 -0.001697 -0.749371 -0.000001 -0.876155 0.000000 0.000000
    19 0.354567 0.016267 0.318133 0.342077 -0.443527 -1.083976
    20 1.887164 0.012877 0.000000 -0.305433 0.000000 -0.401426
    21 1.001874 -0.000270 -0.000001 0.000000 0.000000 -0.488692
    22 -1.123358 -2.195093 -0.278957 -0.933751 0.000000 -0.087266
    23 0.010772 -0.963791 0.000000 -0.610865 0.000000 0.000000
    24 -0.010412 -0.631916 0.000000 -1.213004 0.000000 0.000000
    25 -1.144079 -0.861116 -10.260372 -0.375299 0.000024 0.602091
    26 0.089930 -8.543163 -0.000001 0.079776 -0.284690 0.455199
    27 0.000000 -0.359712 0.000000 0.000000 0.000000 0.000000
    28 -0.170479 -2.636146 -0.277655 -0.820355 0.000000 0.000000
    29 0.010599 -1.261176 0.000002 -0.584675 0.000000 0.000000
    30 -0.000001 -0.943232 -0.000001 -0.532326 0.000000 0.000000
    31 -0.827563 -2.508973 -0.277656 -0.942512 0.000000 0.000000
    32 0.000000 -1.292971 0.000000 -0.287979 0.000000 0.000000
    33 0.000000 -0.752466 0.000000 -0.445059 0.000000 0.000000
    34 0.444213 -2.561960 -0.277655 -1.081559 -0.046226 -0.024599
    35 0.021022 -1.208186 0.000000 -0.427606 0.000000 0.000000
    36 0.010597 -0.741867 -0.000001 -0.453786 0.000000 0.000000
    37 1.047444 -2.222821 -0.277655 -1.019673 -0.066950 -0.041090
    38 0.000000 -0.996223 -0.000002 -0.584707 0.000000 0.000000
    39 -0.000001 -0.614690 0.000000 -0.523599 0.000000 0.000000
    40 -0.308254 -0.007814 0.307166 -0.318048 -0.539817 -2.424633
    41 1.978377 0.019543 0.000001 -0.000002 -0.000010 0.549762
    42 0.982426 0.003186 0.000000 0.000000 0.000000 0.593405
end
