version 1
nodes
  0 "buff_m249" -1
  1 "Dummy001" 0
  2 "lever" 1
  3 "Dummy003" 0
  4 "trigger" 3
  5 "wing1" 1
  6 "wing2" 1
  7 "wing003" 1
  8 "wing004" 1
  9 "wing005" 1
  10 "wing006" 1
  11 "wing007" 1
  12 "wing008" 1
  13 "wing009" 1
  14 "wing010" 1
  15 "wing011" 1
  16 "wing012" 1
  17 "wing013" 1
  18 "wing014" 1
  19 "cover" 0
  20 "Object028" 19
  21 "Point006" 19
  22 "????????" 21
  23 "magazine" 1
  24 "Dummy002" 23
  25 "bullet1" 24
  26 "bullet2" 25
  27 "bullet3" 26
  28 "bullet4" 27
  29 "bullet5" 28
  30 "bullet6" 29
  31 "bullet7" 30
  32 "bullet8" 31
  33 "Point001" 19
  34 "orange" 33
  35 "Point002" 2
  36 "leverlight1" 35
  37 "Point003" 2
  38 "leverlight2" 37
  39 "Point004" 1
  40 "GeoSphere001" 39
  41 "Point005" 1
  42 "GeoSphere002" 41
  43 "black1" 1
  44 "black2" 1
  45 "black3" 1
  46 "black4" 1
  47 "black5" 1
  48 "black6" 1
  49 "root" -1
  50 "Bone01" 49
  51 "Bone_L_Upper" 50
  52 "Bone_Lefthand" 50
  53 "Bone13" 52
  54 "Bone14" 53
  55 "Bone15" 54
  56 "Bone17" 52
  57 "Bone18" 56
  58 "Bone19" 57
  59 "Bone21" 52
  60 "Bone22" 59
  61 "Bone23" 60
  62 "Bone09" 52
  63 "Bone10" 62
  64 "Bone11" 63
  65 "Bone05" 52
  66 "Bone06" 65
  67 "Bone07" 66
  68 "Bone_Se_Hand-L" 52
  69 "Bone04" 49
  70 "Bone_Righthand" 69
  71 "Bone39" 70
  72 "Bone40" 71
  73 "Bone41" 72
  74 "Bone35" 70
  75 "Bone36" 74
  76 "Bone37" 75
  77 "Bone31" 70
  78 "Bone32" 77
  79 "Bone33" 78
  80 "Bone43" 70
  81 "Bone44" 80
  82 "Bone45" 81
  83 "Bone27" 70
  84 "Bone28" 83
  85 "Bone29" 84
  86 "Bone_Se_Hand-R" 70
  87 "Bone_R_Upper" 69
end
skeleton
  time 0
    0 7.216372 -8.312578 -3.381669 -1.521021 -3.131799 1.467669
    1 6.185434 0.379124 -0.000001 0.000000 0.000000 0.000000
    2 -3.563981 1.256647 -1.087708 0.000000 0.000000 0.021642
    3 -1.464251 -1.398945 0.000000 0.000000 0.000000 0.000000
    4 0.103153 0.068699 0.000000 0.000000 0.000000 -1.424330
    5 -1.646002 -1.588399 1.593848 -0.278216 -0.494126 -2.868259
    6 -0.998352 -1.580052 1.698083 -0.507848 -0.678035 -2.570251
    7 -0.165947 -1.834276 1.705774 -0.771421 -0.937955 -2.095339
    8 0.720433 -1.619241 1.641268 -1.057063 -1.015006 -1.580642
    9 1.291739 -1.362477 1.639532 -1.256646 -0.974371 -1.192860
    10 1.881563 -1.154258 1.658113 -1.556168 -0.918465 -0.701604
    11 2.533382 -0.880921 1.417083 -1.844576 -0.648490 -0.583211
    12 -0.114986 -1.811761 -2.226530 -0.927015 -0.513583 1.249772
    13 0.774039 -1.595395 -2.187590 -1.128328 -0.637551 1.565415
    14 1.346209 -1.338449 -2.194060 -1.305643 -0.661252 1.905686
    15 1.910635 -1.038882 -1.951995 1.514354 -2.466979 -0.724089
    16 2.590990 -0.855057 -2.002131 1.297019 -2.493108 -0.583215
    17 -0.949288 -1.766195 -2.232661 -0.891381 -0.346632 0.997588
    18 -1.589159 -1.561627 -2.172420 -0.758947 -0.143850 0.619577
    19 1.343212 0.759871 -0.659468 -1.570801 -1.547537 0.000008
    20 0.616271 -0.042046 0.018120 0.000000 0.000000 0.000000
    21 0.616272 -0.042044 0.191434 0.000000 0.000000 0.000000
    22 -0.000007 10.649727 -2.184227 0.000000 0.000000 0.000000
    23 -4.723832 -1.475883 0.721802 0.000001 0.000000 -1.570796
    24 0.579225 -0.112310 0.643977 -3.141592 1.570796 0.000000
    25 -0.183390 0.009382 0.270586 -1.570794 -0.677250 -0.000001
    26 0.298495 0.000000 -0.000001 0.000000 0.000000 -0.214661
    27 0.271157 0.000001 -0.000001 0.000000 0.000000 -0.272137
    28 0.339450 0.000000 -0.000001 -0.000297 0.000312 -0.185631
    29 0.339187 0.000000 -0.000001 0.000254 -0.000187 0.128251
    30 0.385388 0.000000 -0.000001 -0.000063 -0.000261 0.401172
    31 0.341048 0.000000 -0.000001 -0.000161 -0.000026 0.590021
    32 0.315277 0.000000 -0.000001 0.000247 -0.000021 0.243588
    33 0.617627 -0.042344 -0.213050 0.000008 0.000032 0.000001
    34 0.000054 0.000001 0.000000 -0.000002 0.000000 -0.000001
    35 -0.027699 2.056633 0.190775 0.141025 1.159637 3.136647
    36 0.000000 0.000000 0.000002 0.000000 0.000000 0.000000
    37 -0.108783 -0.003680 0.135396 0.141025 1.159637 3.136647
    38 0.000000 0.000000 0.000000 0.000000 0.000000 0.000000
    39 -1.639297 -0.733058 1.473499 -0.210880 2.081601 1.371256
    40 0.000000 0.000000 0.000000 0.000000 0.000000 0.000000
    41 -0.512197 -1.035055 1.997663 -0.210879 2.081601 1.371256
    42 0.000000 0.000000 0.000000 0.000000 0.000000 0.000000
    43 -8.459149 -0.575940 0.000001 0.000000 0.000000 1.562439
    44 -7.376782 -0.561701 -0.000804 0.000000 0.000000 1.562440
    45 -6.265542 -0.528891 -0.002659 0.000000 0.000000 1.562440
    46 -2.220867 -0.492363 -0.004725 0.000000 0.000000 1.562440
    47 -1.138244 -0.466984 -0.006159 0.000000 0.000000 1.562439
    48 -0.027756 -0.466983 -0.006160 0.000000 0.000000 1.562439
    49 0.001265 -0.569176 -20.601572 0.000000 0.000000 0.000000
    50 9.310103 -5.299614 -12.557959 3.138909 -0.000224 -1.566807
    51 1.257180 8.762585 -0.153713 -1.570562 0.002683 -1.566807
    52 -0.071921 -8.498736 -0.104134 -0.025046 0.287591 0.014898
    53 -0.488518 -2.755602 -0.228260 0.106454 0.010332 -0.264490
    54 0.039887 -1.479790 0.029854 -0.055395 0.000000 0.000001
    55 0.028786 -1.075731 -0.023109 0.002099 0.000000 0.000000
    56 0.250027 -2.820665 -0.238396 0.041826 -0.002921 0.008443
    57 -0.049759 -1.680544 0.100479 0.019826 0.000000 -0.000002
    58 -0.034142 -1.148312 0.084782 -0.040115 0.000000 0.000000
    59 0.957766 -2.746780 -0.090302 -0.017221 -0.162277 0.191558
    60 -0.033420 -1.397129 -0.011257 0.013931 0.000000 -0.000001
    61 -0.022360 -0.957436 0.018784 0.003845 0.000000 0.000000
    62 -1.180681 -2.507217 -0.193859 0.082999 0.013294 -0.477915
    63 -0.024967 -1.123934 0.017597 -0.018065 0.000000 0.000001
    64 -0.020057 -0.890968 0.010090 -0.060797 0.000000 0.000000
    65 0.583510 -1.197277 0.185379 0.158049 -0.404973 -0.364290
    66 1.535927 0.010246 0.005009 -0.002964 -0.012979 0.000887
    67 1.100771 0.004527 -0.010679 -0.002796 0.015973 0.003458
    68 0.120153 -0.050270 -0.054489 0.287569 3.110905 1.561085
    69 -9.310107 -5.231260 -12.513384 0.004984 -3.131565 -1.566847
    70 0.096944 -8.450418 -0.009365 -0.032965 -0.297907 -0.004663
    71 0.447953 -2.798986 -0.200443 0.106456 -0.010396 0.265094
    72 -0.032909 -1.480204 0.004940 -0.055403 0.000000 0.000002
    73 -0.027022 -1.076920 -0.020210 0.002094 0.000000 0.000000
    74 -0.249534 -2.846964 -0.174213 0.041903 -0.000125 -0.008396
    75 0.043235 -1.683941 0.096012 0.019757 0.002823 -0.000167
    76 0.031729 -1.160830 0.058838 -0.040181 0.000642 0.008372
    77 -0.963866 -2.785145 -0.085350 -0.017227 0.162276 -0.191556
    78 0.028479 -1.403067 0.006271 0.013941 0.000000 0.000000
    79 0.021413 -0.957781 0.020046 0.003851 0.000000 0.000000
    80 1.164475 -2.543940 -0.170330 0.083003 -0.013294 0.477915
    81 0.024032 -1.129042 0.017807 -0.018074 0.000000 0.000001
    82 0.014898 -0.883989 -0.019848 -0.060801 0.000000 0.000000
    83 -0.586770 -1.264477 0.200161 -0.152092 -0.410513 -2.814816
    84 1.522835 0.058681 0.016848 0.001410 0.008985 -0.046880
    85 1.117947 0.048424 -0.005766 -0.000243 -0.025198 0.065422
    86 -0.139399 -0.111698 0.014397 0.285382 -0.030687 1.580508
    87 -1.393470 8.839177 -0.239433 1.580804 -0.005023 -1.566847
end
triangles
$0b_buff_m249_2_glow.bmp
  44 6.732894 -6.935030 -2.736259 -0.883897 0.009037 0.467595 0.483366 0.780822
  44 6.678130 -7.753712 -2.723592 -0.816609 0.072999 0.572556 0.622309 0.780822
  44 6.877885 -7.774025 -2.533367 -0.543262 -0.010168 0.839502 0.624266 0.821918
$0b_buff_m249_2_glow.bmp
  44 6.732894 -6.935030 -2.736259 -0.883897 0.009037 0.467595 0.483366 0.780822
  44 6.573800 -6.919226 -3.144719 -0.924605 0.074499 0.373572 0.483366 0.706458
  44 6.678130 -7.753712 -2.723592 -0.816609 0.072999 0.572556 0.622309 0.780822
$0b_buff_m249_2_glow.bmp
  44 6.732894 -6.935030 -2.736259 -0.883897 0.009037 0.467595 0.483366 0.780822
  44 6.661681 -6.485747 -3.003042 -0.924605 0.074499 0.373572 0.409002 0.731898
  44 6.573800 -6.919226 -3.144719 -0.924605 0.074499 0.373572 0.483366 0.706458
$0b_buff_m249_2_glow.bmp
  44 6.732894 -6.935030 -2.736259 -0.883897 0.009037 0.467595 0.483366 0.780822
  44 6.714383 -6.490971 -2.860230 -0.986614 0.151551 -0.060202 0.409002 0.755382
  44 6.661681 -6.485747 -3.003042 -0.924605 0.074499 0.373572 0.409002 0.731898
$0b_buff_m249_2_glow.bmp
  44 6.732894 -6.935030 -2.736259 -0.883897 0.009037 0.467595 0.483366 0.780822
  44 6.645398 -6.483589 -2.673451 -0.910137 0.151406 0.385652 0.409002 0.784736
  44 6.714383 -6.490971 -2.860230 -0.986614 0.151551 -0.060202 0.409002 0.755382
$0b_buff_m249_2_glow.bmp
  44 6.732894 -6.935030 -2.736259 -0.883897 0.009037 0.467595 0.483366 0.780822
  44 6.841139 -6.503663 -2.603575 -0.539814 0.044804 0.840591 0.410959 0.812133
  44 6.645398 -6.483589 -2.673451 -0.910137 0.151406 0.385652 0.409002 0.784736
$0b_buff_m249_2_glow.bmp
  44 6.732894 -6.935030 -2.736259 -0.883897 0.009037 0.467595 0.483366 0.780822
  44 6.962411 -6.676665 -2.366165 -0.798901 -0.010267 0.601375 0.438356 0.851272
  44 6.841139 -6.503663 -2.603575 -0.539814 0.044804 0.840591 0.410959 0.812133
$0b_buff_m249_2_glow.bmp
  44 6.732894 -6.935030 -2.736259 -0.883897 0.009037 0.467595 0.483366 0.780822
  44 6.926683 -7.276334 -2.484153 -0.685941 -0.051662 0.725821 0.540117 0.831703
  44 6.962411 -6.676665 -2.366165 -0.798901 -0.010267 0.601375 0.438356 0.851272
$0b_buff_m249_2_glow.bmp
  44 6.732894 -6.935030 -2.736259 -0.883897 0.009037 0.467595 0.483366 0.780822
  44 6.877885 -7.774025 -2.533367 -0.543262 -0.010168 0.839502 0.624266 0.821918
  44 6.926683 -7.276334 -2.484153 -0.685941 -0.051662 0.725821 0.540117 0.831703
$0b_buff_m249_2_glow.bmp
  44 7.905230 -7.055782 -2.677551 0.816620 -0.166118 0.552754 0.483366 0.780822
  44 7.622137 -7.347966 -2.449326 0.585918 -0.182663 0.789515 0.540117 0.831703
  44 7.573339 -7.845658 -2.498540 0.444133 -0.111868 0.888950 0.624266 0.821918
$0b_buff_m249_2_glow.bmp
  44 7.905230 -7.055782 -2.677551 0.816620 -0.166118 0.552754 0.483366 0.780822
  44 7.697605 -6.752391 -2.329348 0.716675 -0.166374 0.677272 0.438356 0.851272
  44 7.622137 -7.347966 -2.449326 0.585918 -0.182663 0.789515 0.540117 0.831703
$0b_buff_m249_2_glow.bmp
  44 7.905230 -7.055782 -2.677551 0.816620 -0.166118 0.552754 0.483366 0.780822
  44 7.874384 -6.610088 -2.551832 0.451847 -0.057337 0.890251 0.410959 0.812133
  44 7.697605 -6.752391 -2.329348 0.716675 -0.166374 0.677272 0.438356 0.851272
$0b_buff_m249_2_glow.bmp
  44 7.905230 -7.055782 -2.677551 0.816620 -0.166118 0.552754 0.483366 0.780822
  44 8.076046 -6.630947 -2.601807 0.879231 -0.032901 0.475258 0.409002 0.784736
  44 7.874384 -6.610088 -2.551832 0.451847 -0.057337 0.890251 0.410959 0.812133
$0b_buff_m249_2_glow.bmp
  44 7.905230 -7.055782 -2.677551 0.816620 -0.166118 0.552754 0.483366 0.780822
  44 8.025810 -6.626050 -2.794557 0.997834 -0.052848 0.039171 0.409002 0.755382
  44 8.076046 -6.630947 -2.601807 0.879231 -0.032901 0.475258 0.409002 0.784736
$0b_buff_m249_2_glow.bmp
  44 7.905230 -7.055782 -2.677551 0.816620 -0.166118 0.552754 0.483366 0.780822
  44 8.092329 -6.633105 -2.931398 0.878881 -0.111262 0.463885 0.409002 0.731898
  44 8.025810 -6.626050 -2.794557 0.997834 -0.052848 0.039171 0.409002 0.755382
$0b_buff_m249_2_glow.bmp
  44 7.905230 -7.055782 -2.677551 0.816620 -0.166118 0.552754 0.483366 0.780822
  44 8.103798 -7.076818 -3.068100 0.878881 -0.111262 0.463885 0.483366 0.706458
  44 8.092329 -6.633105 -2.931398 0.878881 -0.111262 0.463885 0.409002 0.731898
$0b_buff_m249_2_glow.bmp
  44 7.905230 -7.055782 -2.677551 0.816620 -0.166118 0.552754 0.483366 0.780822
  44 7.790856 -7.868325 -2.667869 0.753705 -0.088745 0.651193 0.622309 0.780822
  44 8.103798 -7.076818 -3.068100 0.878881 -0.111262 0.463885 0.483366 0.706458
$0b_buff_m249_2_glow.bmp
  44 7.905230 -7.055782 -2.677551 0.816620 -0.166118 0.552754 0.483366 0.780822
  44 7.573339 -7.845658 -2.498540 0.444133 -0.111868 0.888950 0.624266 0.821918
  44 7.790856 -7.868325 -2.667869 0.753705 -0.088745 0.651193 0.622309 0.780822
$0b_buff_m249_2_glow.bmp
  44 7.280343 -7.827178 -3.644538 -0.102938 -0.994640 0.009793 0.741683 0.293542
  44 6.489231 -7.734838 -3.133544 -0.102938 -0.994640 0.009793 0.702544 0.326810
  44 6.515344 -7.748382 -3.682848 -0.102938 -0.994640 0.009793 0.702544 0.293542
$0b_buff_m249_2_glow.bmp
  44 7.280343 -7.827178 -3.644538 -0.102938 -0.994640 0.009793 0.741683 0.293542
  44 6.678130 -7.753712 -2.723592 -0.102938 -0.994640 0.009793 0.714286 0.350294
  44 6.489231 -7.734838 -3.133544 -0.102938 -0.994640 0.009793 0.702544 0.326810
$0b_buff_m249_2_glow.bmp
  44 7.280343 -7.827178 -3.644538 -0.102938 -0.994640 0.009793 0.741683 0.293542
  44 6.877885 -7.774025 -2.533367 -0.102938 -0.994640 0.009793 0.724070 0.360078
  44 6.678130 -7.753712 -2.723592 -0.102938 -0.994640 0.009793 0.714286 0.350294
$0b_buff_m249_2_glow.bmp
  44 7.280343 -7.827178 -3.644538 -0.102938 -0.994640 0.009793 0.741683 0.293542
  44 7.220678 -7.809187 -2.416077 -0.102938 -0.994640 0.009793 0.741683 0.365949
  44 6.877885 -7.774025 -2.533367 -0.102938 -0.994640 0.009793 0.724070 0.360078
$0b_buff_m249_2_glow.bmp
  44 7.280343 -7.827178 -3.644538 -0.102938 -0.994640 0.009793 0.741683 0.293542
  44 7.573339 -7.845658 -2.498540 -0.102938 -0.994640 0.009793 0.724070 0.360078
  44 7.220678 -7.809187 -2.416077 -0.102938 -0.994640 0.009793 0.741683 0.365949
$0b_buff_m249_2_glow.bmp
  44 7.280343 -7.827178 -3.644538 -0.102938 -0.994640 0.009793 0.741683 0.293542
  44 7.790856 -7.868325 -2.667869 -0.102938 -0.994640 0.009793 0.714286 0.350294
  44 7.573339 -7.845658 -2.498540 -0.102938 -0.994640 0.009793 0.724070 0.360078
$0b_buff_m249_2_glow.bmp
  44 7.280343 -7.827178 -3.644538 -0.102938 -0.994640 0.009793 0.741683 0.293542
  44 8.019229 -7.892430 -3.056925 -0.102938 -0.994640 0.009793 0.702544 0.326810
  44 7.790856 -7.868325 -2.667869 -0.102938 -0.994640 0.009793 0.714286 0.350294
$0b_buff_m249_2_glow.bmp
  44 7.280343 -7.827178 -3.644538 -0.102938 -0.994640 0.009793 0.741683 0.293542
  44 8.045342 -7.905974 -3.606229 -0.102938 -0.994640 0.009793 0.702544 0.293542
  44 8.019229 -7.892430 -3.056925 -0.102938 -0.994640 0.009793 0.702544 0.326810
$0b_buff_m249_2_glow.bmp
  44 6.962411 -6.676665 -2.366165 -0.866860 -0.210261 0.452045 0.438356 0.851272
  44 7.152400 -7.108213 -2.223792 -0.794522 -0.340334 0.502899 0.508806 0.894325
  44 7.106415 -6.731389 -2.138419 -0.771328 -0.221448 0.596669 0.444227 0.898239
$0b_buff_m249_2_glow.bmp
  44 7.106415 -6.731389 -2.138419 -0.771328 -0.221448 0.596669 0.444227 0.898239
  44 7.152400 -7.108213 -2.223792 -0.794522 -0.340334 0.502899 0.508806 0.894325
  44 7.270963 -7.180612 -2.127349 -0.095633 -0.514051 0.852412 0.516634 0.909980
$0b_buff_m249_2_glow.bmp
  44 7.152400 -7.108213 -2.223792 -0.794522 -0.340334 0.502899 0.508806 0.894325
  44 7.258845 -7.380669 -2.296849 -0.108767 -0.725661 0.679401 0.559687 0.890411
  44 7.270963 -7.180612 -2.127349 -0.095633 -0.514051 0.852412 0.516634 0.909980
$0b_buff_m249_2_glow.bmp
  44 7.270963 -7.180612 -2.127349 -0.095633 -0.514051 0.852412 0.516634 0.909980
  44 7.258845 -7.380669 -2.296849 -0.108767 -0.725661 0.679401 0.559687 0.890411
  44 7.410711 -7.134820 -2.210856 0.655032 -0.489640 0.575487 0.508806 0.894325
$0b_buff_m249_2_glow.bmp
  44 7.258845 -7.380669 -2.296849 -0.108767 -0.725661 0.679401 0.559687 0.890411
  44 7.534082 -7.077361 -2.345312 0.761906 -0.448646 0.467136 0.497065 0.859100
  44 7.410711 -7.134820 -2.210856 0.655032 -0.489640 0.575487 0.508806 0.894325
$0b_buff_m249_2_glow.bmp
  44 7.410711 -7.134820 -2.210856 0.655032 -0.489640 0.575487 0.508806 0.894325
  44 7.534082 -7.077361 -2.345312 0.761906 -0.448646 0.467136 0.497065 0.859100
  44 7.697605 -6.752391 -2.329348 0.756973 -0.377519 0.533359 0.438356 0.851272
$0b_buff_m249_2_glow.bmp
  44 6.489231 -7.734838 -3.133544 -0.993505 0.102332 -0.049752 0.622309 0.708415
  44 6.573800 -6.919226 -3.144719 -0.993505 0.102332 -0.049752 0.483366 0.706458
  44 6.515344 -7.748382 -3.682848 -0.993505 0.102332 -0.049752 0.624266 0.608611
$0b_buff_m249_2_glow.bmp
  44 6.515344 -7.748382 -3.682848 -0.993505 0.102332 -0.049752 0.624266 0.608611
  44 6.573800 -6.919226 -3.144719 -0.993505 0.102332 -0.049752 0.483366 0.706458
  44 6.601886 -6.933032 -3.733973 -0.993505 0.102332 -0.049752 0.487280 0.604697
$0b_buff_m249_2_glow.bmp
  44 6.573800 -6.919226 -3.144719 -0.993505 0.102332 -0.049752 0.483366 0.706458
  44 6.625290 -6.492474 -3.295155 -0.993505 0.102332 -0.049752 0.410959 0.675147
  44 6.601886 -6.933032 -3.733973 -0.993505 0.102332 -0.049752 0.487280 0.604697
$0b_buff_m249_2_glow.bmp
  44 6.601886 -6.933032 -3.733973 -0.993505 0.102332 -0.049752 0.487280 0.604697
  44 6.625290 -6.492474 -3.295155 -0.993505 0.102332 -0.049752 0.410959 0.675147
  44 6.640586 -6.494501 -3.604771 -0.993505 0.102332 -0.049752 0.412916 0.626223
$0b_buff_m249_2_glow.bmp
  44 7.220678 -7.809187 -2.416077 -0.066102 -0.163169 0.984381 0.630137 0.874755
  44 6.926683 -7.276334 -2.484153 -0.685941 -0.051662 0.725821 0.540117 0.831703
  44 6.877885 -7.774025 -2.533367 -0.543262 -0.010168 0.839502 0.624266 0.821918
$0b_buff_m249_2_glow.bmp
  44 7.220678 -7.809187 -2.416077 -0.066102 -0.163169 0.984381 0.630137 0.874755
  44 7.258845 -7.380669 -2.296849 -0.074568 -0.255303 0.963981 0.559687 0.890411
  44 6.926683 -7.276334 -2.484153 -0.685941 -0.051662 0.725821 0.540117 0.831703
$0b_buff_m249_2_glow.bmp
  44 7.220678 -7.809187 -2.416077 -0.066102 -0.163169 0.984381 0.630137 0.874755
  44 7.622137 -7.347966 -2.449326 0.585918 -0.182663 0.789515 0.540117 0.831703
  44 7.258845 -7.380669 -2.296849 -0.074568 -0.255303 0.963981 0.559687 0.890411
$0b_buff_m249_2_glow.bmp
  44 7.220678 -7.809187 -2.416077 -0.066102 -0.163169 0.984381 0.630137 0.874755
  44 7.573339 -7.845658 -2.498540 0.444133 -0.111868 0.888950 0.624266 0.821918
  44 7.622137 -7.347966 -2.449326 0.585918 -0.182663 0.789515 0.540117 0.831703
$0b_buff_m249_2_glow.bmp
  44 7.106415 -6.731389 -2.138419 -0.771328 -0.221448 0.596669 0.444227 0.898239
  44 7.270963 -7.180612 -2.127349 -0.095633 -0.514051 0.852412 0.516634 0.909980
  44 7.312892 -6.671927 -1.918348 -0.084481 -0.370433 0.925009 0.432485 0.947162
$0b_buff_m249_2_glow.bmp
  44 7.312892 -6.671927 -1.918348 -0.084481 -0.370433 0.925009 0.432485 0.947162
  44 7.270963 -7.180612 -2.127349 -0.095633 -0.514051 0.852412 0.516634 0.909980
  44 7.523687 -6.774368 -2.117523 0.647341 -0.367574 0.667711 0.444227 0.898239
$0b_buff_m249_2_glow.bmp
  44 7.270963 -7.180612 -2.127349 -0.095633 -0.514051 0.852412 0.516634 0.909980
  44 7.410711 -7.134820 -2.210856 0.655032 -0.489640 0.575487 0.508806 0.894325
  44 7.523687 -6.774368 -2.117523 0.647341 -0.367574 0.667711 0.444227 0.898239
$0b_buff_m249_2_glow.bmp
  44 7.523687 -6.774368 -2.117523 0.647341 -0.367574 0.667711 0.444227 0.898239
  44 7.410711 -7.134820 -2.210856 0.655032 -0.489640 0.575487 0.508806 0.894325
  44 7.697605 -6.752391 -2.329348 0.756973 -0.377519 0.533359 0.438356 0.851272
$0b_buff_m249_2_glow.bmp
  44 6.740232 -6.082747 -3.742718 0.044176 -0.015259 -0.998907 0.757339 0.299413
  44 6.647000 -6.495351 -3.734610 0.044176 -0.015259 -0.998907 0.769080 0.301370
  44 6.557585 -6.486141 -3.739088 0.044176 -0.015259 -0.998907 0.769080 0.303327
$0b_buff_m249_2_glow.bmp
  44 6.557585 -6.486141 -3.739088 0.044176 -0.015259 -0.998907 0.769080 0.303327
  44 6.647000 -6.495351 -3.734610 0.044176 -0.015259 -0.998907 0.769080 0.301370
  44 6.601886 -6.933032 -3.733973 0.044176 -0.015259 -0.998907 0.780822 0.301370
$0b_buff_m249_2_glow.bmp
  44 6.647000 -6.495351 -3.734610 0.044176 -0.015259 -0.998907 0.769080 0.301370
  44 7.402771 -6.663673 -3.696170 0.044176 -0.015259 -0.998907 0.772994 0.281800
  44 6.601886 -6.933032 -3.733973 0.044176 -0.015259 -0.998907 0.780822 0.301370
$0b_buff_m249_2_glow.bmp
  44 6.625290 -6.492474 -3.295155 0.215391 0.976519 -0.004060 0.551859 0.056751
  44 7.377152 -6.650194 -3.156854 0.215391 0.976519 -0.004060 0.675147 0.074364
  44 6.640586 -6.494501 -3.604771 0.215391 0.976519 -0.004060 0.551859 0.025440
$0b_buff_m249_2_glow.bmp
  44 6.640586 -6.494501 -3.604771 0.215391 0.976519 -0.004060 0.551859 0.025440
  44 7.377152 -6.650194 -3.156854 0.215391 0.976519 -0.004060 0.675147 0.074364
  44 6.647000 -6.495351 -3.734610 0.215391 0.976519 -0.004060 0.551859 0.011742
$0b_buff_m249_2_glow.bmp
  44 7.377152 -6.650194 -3.156854 0.215391 0.976519 -0.004060 0.675147 0.074364
  44 7.402771 -6.663673 -3.696170 0.215391 0.976519 -0.004060 0.675147 0.011742
  44 6.647000 -6.495351 -3.734610 0.215391 0.976519 -0.004060 0.551859 0.011742
$0b_buff_m249_2_glow.bmp
  44 6.601886 -6.933032 -3.733973 0.067148 -0.073197 -0.995054 0.780822 0.301370
  44 7.402771 -6.663673 -3.696170 0.067148 -0.073197 -0.995054 0.772994 0.281800
  44 6.515344 -7.748382 -3.682848 0.067148 -0.073197 -0.995054 0.806262 0.303327
$0b_buff_m249_2_glow.bmp
  44 6.515344 -7.748382 -3.682848 0.067148 -0.073197 -0.995054 0.806262 0.303327
  44 7.402771 -6.663673 -3.696170 0.067148 -0.073197 -0.995054 0.772994 0.281800
  44 7.280343 -7.827178 -3.644538 0.067148 -0.073197 -0.995054 0.806262 0.283757
$0b_buff_m249_2_glow.bmp
  44 7.402771 -6.663673 -3.696170 0.067148 -0.073197 -0.995054 0.772994 0.281800
  44 8.045342 -7.905974 -3.606229 0.067148 -0.073197 -0.995054 0.806262 0.303327
  44 7.280343 -7.827178 -3.644538 0.067148 -0.073197 -0.995054 0.806262 0.283757
$0b_buff_m249_2_glow.bmp
  44 8.045342 -7.905974 -3.606229 0.993505 -0.102331 0.049752 0.624266 0.608611
  44 8.131885 -7.090624 -3.657354 0.993505 -0.102331 0.049752 0.487280 0.604697
  44 8.103798 -7.076818 -3.068100 0.993505 -0.102331 0.049752 0.483366 0.706458
$0b_buff_m249_2_glow.bmp
  44 8.103798 -7.076818 -3.068100 0.993505 -0.102331 0.049752 0.483366 0.706458
  44 8.131885 -7.090624 -3.657354 0.993505 -0.102331 0.049752 0.487280 0.604697
  44 8.155288 -6.650066 -3.218537 0.993505 -0.102331 0.049752 0.410959 0.675147
$0b_buff_m249_2_glow.bmp
  44 8.131885 -7.090624 -3.657354 0.993505 -0.102331 0.049752 0.487280 0.604697
  44 8.170584 -6.652093 -3.528152 0.993505 -0.102331 0.049752 0.412916 0.626223
  44 8.155288 -6.650066 -3.218537 0.993505 -0.102331 0.049752 0.410959 0.675147
$0b_buff_m249_2_glow.bmp
  44 7.402771 -6.663673 -3.696170 -0.010855 0.999823 -0.015396 0.675147 0.011742
  44 7.377152 -6.650194 -3.156854 -0.010855 0.999823 -0.015396 0.675147 0.074364
  44 8.176998 -6.652943 -3.657991 -0.010855 0.999823 -0.015396 0.796477 0.011742
$0b_buff_m249_2_glow.bmp
  44 8.176998 -6.652943 -3.657991 -0.010855 0.999823 -0.015396 0.796477 0.011742
  44 7.377152 -6.650194 -3.156854 -0.010855 0.999823 -0.015396 0.675147 0.074364
  44 8.170584 -6.652093 -3.528152 -0.010855 0.999823 -0.015396 0.796477 0.025440
$0b_buff_m249_2_glow.bmp
  44 7.377152 -6.650194 -3.156854 -0.010855 0.999823 -0.015396 0.675147 0.074364
  44 8.155288 -6.650066 -3.218537 -0.010855 0.999823 -0.015396 0.796477 0.056751
  44 8.170584 -6.652093 -3.528152 -0.010855 0.999823 -0.015396 0.796477 0.025440
$0b_buff_m249_2_glow.bmp
  44 7.402771 -6.663673 -3.696170 0.044176 -0.015259 -0.998907 0.772994 0.281800
  44 8.176998 -6.652943 -3.657991 0.044176 -0.015259 -0.998907 0.769080 0.301370
  44 8.131885 -7.090624 -3.657354 0.044176 -0.015259 -0.998907 0.780822 0.301370
$0b_buff_m249_2_glow.bmp
  44 8.131885 -7.090624 -3.657354 0.044176 -0.015259 -0.998907 0.780822 0.301370
  44 8.176998 -6.652943 -3.657991 0.044176 -0.015259 -0.998907 0.769080 0.301370
  44 8.266414 -6.662153 -3.653514 0.044176 -0.015259 -0.998907 0.769080 0.303327
$0b_buff_m249_2_glow.bmp
  44 8.176998 -6.652943 -3.657991 0.044176 -0.015259 -0.998907 0.769080 0.301370
  44 8.170879 -6.230106 -3.671075 0.044176 -0.015259 -0.998907 0.757339 0.299413
  44 8.266414 -6.662153 -3.653514 0.044176 -0.015259 -0.998907 0.769080 0.303327
$0b_buff_m249_2_glow.bmp
  44 6.841139 -6.503663 -2.603575 -0.539814 0.044804 0.840591 0.410959 0.812133
  44 6.898084 -6.087423 -2.683586 -0.754740 0.500194 0.424468 0.338552 0.792564
  44 6.645398 -6.483589 -2.673451 -0.910137 0.151406 0.385652 0.409002 0.784736
$0b_buff_m249_2_glow.bmp
  44 6.645398 -6.483589 -2.673451 -0.910137 0.151406 0.385652 0.409002 0.784736
  44 6.898084 -6.087423 -2.683586 -0.754740 0.500194 0.424468 0.338552 0.792564
  44 6.714383 -6.490971 -2.860230 -0.986614 0.151551 -0.060202 0.409002 0.755382
$0b_buff_m249_2_glow.bmp
  44 7.258845 -7.380669 -2.296849 -0.108767 -0.725661 0.679401 0.559687 0.890411
  44 7.152400 -7.108213 -2.223792 -0.794522 -0.340334 0.502899 0.508806 0.894325
  44 7.057199 -7.028241 -2.369193 -0.879583 -0.279573 0.384932 0.497065 0.859100
$0b_buff_m249_2_glow.bmp
  44 7.057199 -7.028241 -2.369193 -0.879583 -0.279573 0.384932 0.497065 0.859100
  44 7.152400 -7.108213 -2.223792 -0.794522 -0.340334 0.502899 0.508806 0.894325
  44 6.962411 -6.676665 -2.366165 -0.866860 -0.210261 0.452045 0.438356 0.851272
$0b_buff_m249_2_glow.bmp
  44 6.714383 -6.490971 -2.860230 0.212857 0.975616 -0.053529 0.569472 0.131115
  44 7.377152 -6.650194 -3.156854 0.212857 0.975616 -0.053529 0.675147 0.074364
  44 6.661681 -6.485747 -3.003042 0.212857 0.975616 -0.053529 0.559687 0.105675
$0b_buff_m249_2_glow.bmp
  44 6.661681 -6.485747 -3.003042 0.212857 0.975616 -0.053529 0.559687 0.105675
  44 7.377152 -6.650194 -3.156854 0.212857 0.975616 -0.053529 0.675147 0.074364
  44 6.625290 -6.492474 -3.295155 0.212857 0.975616 -0.053529 0.551859 0.056751
$0b_buff_m249_2_glow.bmp
  44 7.874384 -6.610088 -2.551832 0.451847 -0.057337 0.890251 0.410959 0.812133
  44 8.076046 -6.630947 -2.601807 0.879231 -0.032901 0.475258 0.409002 0.784736
  44 7.911459 -6.191802 -2.632838 0.794941 0.340573 0.502074 0.338552 0.792564
$0b_buff_m249_2_glow.bmp
  44 7.911459 -6.191802 -2.632838 0.794941 0.340573 0.502074 0.338552 0.792564
  44 8.076046 -6.630947 -2.601807 0.879231 -0.032901 0.475258 0.409002 0.784736
  44 8.025810 -6.626050 -2.794557 0.997834 -0.052848 0.039171 0.409002 0.755382
$0b_buff_m249_2_glow.bmp
  44 8.025810 -6.626050 -2.794557 -0.003674 0.997919 -0.064379 0.780822 0.131115
  44 8.092329 -6.633105 -2.931398 -0.003674 0.997919 -0.064379 0.790607 0.105675
  44 7.377152 -6.650194 -3.156854 -0.003674 0.997919 -0.064379 0.675147 0.074364
$0b_buff_m249_2_glow.bmp
  44 7.377152 -6.650194 -3.156854 -0.003674 0.997919 -0.064379 0.675147 0.074364
  44 8.092329 -6.633105 -2.931398 -0.003674 0.997919 -0.064379 0.790607 0.105675
  44 8.155288 -6.650066 -3.218537 -0.003674 0.997919 -0.064379 0.796477 0.056751
$0b_buff_m249_2_glow.bmp
  44 6.678130 -7.753712 -2.723592 -0.816609 0.072999 0.572556 0.622309 0.780822
  44 6.573800 -6.919226 -3.144719 -0.924605 0.074499 0.373572 0.483366 0.706458
  44 6.489231 -7.734838 -3.133544 -0.903179 0.097590 0.418023 0.622309 0.708415
$0b_buff_m249_2_glow.bmp
  44 6.601886 -6.933032 -3.733973 -0.879754 -0.072994 0.469792 0.487280 0.604697
  44 6.640586 -6.494501 -3.604771 -0.879754 -0.072994 0.469792 0.412916 0.626223
  44 6.557585 -6.486141 -3.739088 -0.879754 -0.072994 0.469792 0.412916 0.598826
$0b_buff_m249_2_glow.bmp
  44 6.661681 -6.485747 -3.003042 -0.671643 0.336820 0.659885 0.409002 0.731898
  44 6.730990 -6.080935 -3.152454 -0.671643 0.336820 0.659885 0.340509 0.702544
  44 6.518538 -6.481260 -3.150316 -0.671643 0.336820 0.659885 0.410959 0.702544
$0b_buff_m249_2_glow.bmp
  44 6.518538 -6.481260 -3.150316 -0.733636 0.380685 -0.562900 0.410959 0.702544
  44 6.730990 -6.080935 -3.152454 -0.733636 0.380685 -0.562900 0.340509 0.702544
  44 6.625290 -6.492474 -3.295155 -0.733636 0.380685 -0.562900 0.410959 0.675147
$0b_buff_m249_2_glow.bmp
  44 6.661681 -6.485747 -3.003042 -0.730360 -0.068679 0.679601 0.409002 0.731898
  44 6.518538 -6.481260 -3.150316 -0.730360 -0.068679 0.679601 0.410959 0.702544
  44 6.573800 -6.919226 -3.144719 -0.730360 -0.068679 0.679601 0.483366 0.706458
$0b_buff_m249_2_glow.bmp
  44 6.518538 -6.481260 -3.150316 -0.810061 -0.103265 -0.577181 0.410959 0.702544
  44 6.625290 -6.492474 -3.295155 -0.810061 -0.103265 -0.577181 0.410959 0.675147
  44 6.573800 -6.919226 -3.144719 -0.810061 -0.103265 -0.577181 0.483366 0.706458
$0b_buff_m249_2_glow.bmp
  44 7.316679 -6.843843 -2.347569 0.115763 0.927356 -0.355823 0.675147 0.221135
  44 7.106415 -6.731389 -2.138419 0.115763 0.927356 -0.355823 0.637965 0.264188
  44 7.312892 -6.671927 -1.918348 0.115763 0.927356 -0.355823 0.675147 0.307241
$0b_buff_m249_2_glow.bmp
  44 7.316679 -6.843843 -2.347569 0.426014 0.904532 -0.018273 0.675147 0.221135
  44 6.962411 -6.676665 -2.366165 0.426014 0.904532 -0.018273 0.614481 0.221135
  44 7.106415 -6.731389 -2.138419 0.426014 0.904532 -0.018273 0.637965 0.264188
$0b_buff_m249_2_glow.bmp
  44 7.057199 -7.028241 -2.369193 -0.488013 -0.101142 0.866957 0.497065 0.859100
  44 6.926683 -7.276334 -2.484153 -0.488013 -0.101142 0.866957 0.540117 0.831703
  44 7.258845 -7.380669 -2.296849 -0.488013 -0.101142 0.866957 0.559687 0.890411
$0b_buff_m249_2_glow.bmp
  44 6.962411 -6.676665 -2.366165 -0.798901 -0.010267 0.601375 0.438356 0.851272
  44 6.926683 -7.276334 -2.484153 -0.685941 -0.051662 0.725821 0.540117 0.831703
  44 7.057199 -7.028241 -2.369193 -0.454554 -0.124747 0.881940 0.497065 0.859100
$0b_buff_m249_2_glow.bmp
  44 6.740232 -6.082747 -3.742718 -0.813703 0.362712 0.454232 0.342466 0.602740
  44 6.557585 -6.486141 -3.739088 -0.813703 0.362712 0.454232 0.412916 0.598826
  44 6.640586 -6.494501 -3.604771 -0.813703 0.362712 0.454232 0.412916 0.626223
$0b_buff_m249_2_glow.bmp
  44 6.714383 -6.490971 -2.860230 0.881290 -0.219281 -0.418622 0.569472 0.131115
  44 6.898084 -6.087423 -2.683586 0.881290 -0.219281 -0.418622 0.514677 0.189824
  44 6.841139 -6.503663 -2.603575 0.881290 -0.219281 -0.418622 0.589041 0.176125
$0b_buff_m249_2_glow.bmp
  44 6.625290 -6.492474 -3.295155 0.972797 -0.199348 -0.118008 0.551859 0.056751
  44 6.730990 -6.080935 -3.152454 0.972797 -0.199348 -0.118008 0.483366 0.091977
  44 6.661681 -6.485747 -3.003042 0.972797 -0.199348 -0.118008 0.559687 0.105675
$0b_buff_m249_2_glow.bmp
  44 6.647000 -6.495351 -3.734610 0.973321 -0.223804 0.050576 0.551859 0.011742
  44 6.740232 -6.082747 -3.742718 0.973321 -0.223804 0.050576 0.479452 0.011742
  44 6.640586 -6.494501 -3.604771 0.973321 -0.223804 0.050576 0.551859 0.025440
$0b_buff_m249_2_glow.bmp
  44 7.316679 -6.843843 -2.347569 0.366983 0.830564 0.418911 0.675147 0.221135
  44 6.841139 -6.503663 -2.603575 0.366983 0.830564 0.418911 0.589041 0.176125
  44 6.962411 -6.676665 -2.366165 0.366983 0.830564 0.418911 0.614481 0.221135
$0b_buff_m249_2_glow.bmp
  44 6.841139 -6.503663 -2.603575 0.165286 0.725349 0.668244 0.589041 0.176125
  44 7.316679 -6.843843 -2.347569 0.165286 0.725349 0.668244 0.675147 0.221135
  44 7.348040 -6.646336 -2.567585 0.165286 0.725349 0.668244 0.675147 0.174168
$0b_buff_m249_2_glow.bmp
  44 7.377152 -6.650194 -3.156854 0.215391 0.976519 -0.004060 0.675147 0.074364
  44 6.714383 -6.490971 -2.860230 0.215391 0.976519 -0.004060 0.569472 0.131115
  44 7.348040 -6.646336 -2.567585 0.215391 0.976519 -0.004060 0.675147 0.174168
$0b_buff_m249_2_glow.bmp
  44 8.045342 -7.905974 -3.606229 0.993505 -0.102331 0.049752 0.624266 0.608611
  44 8.103798 -7.076818 -3.068100 0.993505 -0.102331 0.049752 0.483366 0.706458
  44 8.019229 -7.892430 -3.056925 0.993505 -0.102331 0.049752 0.622309 0.708415
$0b_buff_m249_2_glow.bmp
  44 8.103798 -7.076818 -3.068100 0.878881 -0.111262 0.463885 0.483366 0.706458
  44 7.790856 -7.868325 -2.667869 0.753705 -0.088745 0.651193 0.622309 0.780822
  44 8.019229 -7.892430 -3.056925 0.858311 -0.083845 0.506234 0.622309 0.708415
$0b_buff_m249_2_glow.bmp
  44 8.266414 -6.662153 -3.653514 0.795693 -0.245568 0.553687 0.412916 0.598826
  44 8.170584 -6.652093 -3.528152 0.795693 -0.245568 0.553687 0.412916 0.626223
  44 8.131885 -7.090624 -3.657354 0.795693 -0.245568 0.553687 0.487280 0.604697
$0b_buff_m249_2_glow.bmp
  44 8.247237 -6.659318 -3.063747 0.657503 0.199919 0.726445 0.410959 0.702544
  44 8.121897 -6.224201 -3.082801 0.657503 0.199919 0.726445 0.340509 0.702544
  44 8.092329 -6.633105 -2.931398 0.657503 0.199919 0.726445 0.409002 0.731898
$0b_buff_m249_2_glow.bmp
  44 8.155288 -6.650066 -3.218537 0.847697 0.217806 -0.483705 0.410959 0.675147
  44 8.121897 -6.224201 -3.082801 0.847697 0.217806 -0.483705 0.340509 0.702544
  44 8.247237 -6.659318 -3.063747 0.847697 0.217806 -0.483705 0.410959 0.702544
$0b_buff_m249_2_glow.bmp
  44 8.103798 -7.076818 -3.068100 0.630301 -0.208828 0.747738 0.483366 0.706458
  44 8.247237 -6.659318 -3.063747 0.630301 -0.208828 0.747738 0.410959 0.702544
  44 8.092329 -6.633105 -2.931398 0.630301 -0.208828 0.747738 0.409002 0.731898
$0b_buff_m249_2_glow.bmp
  44 8.103798 -7.076818 -3.068100 0.825148 -0.271694 -0.495291 0.483366 0.706458
  44 8.155288 -6.650066 -3.218537 0.825148 -0.271694 -0.495291 0.410959 0.675147
  44 8.247237 -6.659318 -3.063747 0.825148 -0.271694 -0.495291 0.410959 0.702544
$0b_buff_m249_2_glow.bmp
  44 7.312892 -6.671927 -1.918348 0.115763 0.927356 -0.355823 0.675147 0.307241
  44 7.523687 -6.774368 -2.117523 0.115763 0.927356 -0.355823 0.712329 0.264188
  44 7.316679 -6.843843 -2.347569 0.115763 0.927356 -0.355823 0.675147 0.221135
$0b_buff_m249_2_glow.bmp
  44 7.523687 -6.774368 -2.117523 -0.229258 0.972025 -0.051080 0.712329 0.264188
  44 7.697605 -6.752391 -2.329348 -0.229258 0.972025 -0.051080 0.735812 0.221135
  44 7.316679 -6.843843 -2.347569 -0.229258 0.972025 -0.051080 0.675147 0.221135
$0b_buff_m249_2_glow.bmp
  44 7.258845 -7.380669 -2.296849 0.369108 -0.189431 0.909876 0.559687 0.890411
  44 7.622137 -7.347966 -2.449326 0.369108 -0.189431 0.909876 0.540117 0.831703
  44 7.534082 -7.077361 -2.345312 0.369108 -0.189431 0.909876 0.497065 0.859100
$0b_buff_m249_2_glow.bmp
  44 7.534082 -7.077361 -2.345312 0.330242 -0.205583 0.921236 0.497065 0.859100
  44 7.622137 -7.347966 -2.449326 0.585918 -0.182663 0.789515 0.540117 0.831703
  44 7.697605 -6.752391 -2.329348 0.716675 -0.166374 0.677272 0.438356 0.851272
$0b_buff_m249_2_glow.bmp
  44 8.170584 -6.652093 -3.528152 0.821487 0.194286 0.536109 0.412916 0.626223
  44 8.266414 -6.662153 -3.653514 0.821487 0.194286 0.536109 0.412916 0.598826
  44 8.170879 -6.230106 -3.671075 0.821487 0.194286 0.536109 0.342466 0.602740
$0b_buff_m249_2_glow.bmp
  44 7.874384 -6.610088 -2.551832 -0.861672 -0.039754 -0.505906 0.589041 0.176125
  44 7.911459 -6.191802 -2.632838 -0.861672 -0.039754 -0.505906 0.514677 0.189824
  44 8.025810 -6.626050 -2.794557 -0.861672 -0.039754 -0.505906 0.569472 0.131115
$0b_buff_m249_2_glow.bmp
  44 8.092329 -6.633105 -2.931398 -0.976476 0.001429 -0.215623 0.559687 0.105675
  44 8.121897 -6.224201 -3.082801 -0.976476 0.001429 -0.215623 0.483366 0.091977
  44 8.155288 -6.650066 -3.218537 -0.976476 0.001429 -0.215623 0.551859 0.056751
$0b_buff_m249_2_glow.bmp
  44 8.170584 -6.652093 -3.528152 -0.998625 -0.020692 -0.048168 0.551859 0.025440
  44 8.170879 -6.230106 -3.671075 -0.998625 -0.020692 -0.048168 0.479452 0.011742
  44 8.176998 -6.652943 -3.657991 -0.998625 -0.020692 -0.048168 0.551859 0.011742
$0b_buff_m249_2_glow.bmp
  44 7.316679 -6.843843 -2.347569 -0.079579 0.750570 0.655981 0.675147 0.221135
  44 7.874384 -6.610088 -2.551832 -0.079579 0.750570 0.655981 0.761252 0.176125
  44 7.348040 -6.646336 -2.567585 -0.079579 0.750570 0.655981 0.675147 0.174168
$0b_buff_m249_2_glow.bmp
  44 7.874384 -6.610088 -2.551832 -0.230014 0.892057 0.389008 0.761252 0.176125
  44 7.316679 -6.843843 -2.347569 -0.230014 0.892057 0.389008 0.675147 0.221135
  44 7.697605 -6.752391 -2.329348 -0.230014 0.892057 0.389008 0.735812 0.221135
$0b_buff_m249_2_glow.bmp
  44 7.874384 -6.610088 -2.551832 -0.058958 0.992698 -0.105237 0.761252 0.176125
  44 8.025810 -6.626050 -2.794557 -0.058958 0.992698 -0.105237 0.780822 0.131115
  44 7.348040 -6.646336 -2.567585 -0.058958 0.992698 -0.105237 0.675147 0.174168
$0b_buff_m249_2_glow.bmp
  44 8.045342 -7.905974 -3.606229 0.018075 -0.068142 -0.997512 0.806262 0.303327
  44 7.402771 -6.663673 -3.696170 0.018075 -0.068142 -0.997512 0.772994 0.281800
  44 8.131885 -7.090624 -3.657354 0.018075 -0.068142 -0.997512 0.780822 0.301370
$0b_buff_m249_2_glow.bmp
  44 7.348040 -6.646336 -2.567585 0.269684 0.958847 -0.088781 0.675147 0.174168
  44 6.714383 -6.490971 -2.860230 0.269684 0.958847 -0.088781 0.569472 0.131115
  44 6.841139 -6.503663 -2.603575 0.269684 0.958847 -0.088781 0.589041 0.176125
$0b_buff_m249_2_glow.bmp
  44 7.348040 -6.646336 -2.567585 -0.010855 0.999823 -0.015396 0.675147 0.174168
  44 8.025810 -6.626050 -2.794557 -0.010855 0.999823 -0.015396 0.780822 0.131115
  44 7.377152 -6.650194 -3.156854 -0.010855 0.999823 -0.015396 0.675147 0.074364
end
