version 1
nodes
0 "root" -1
end
skeleton
time 0
0 0 0 0 0 0 0
end
triangles
$0b_lockongun_ef.bmp
0  -0.703732 -0.006340 -0.315555  -0.108510 0.994095 0.000017  0.149606 0.212598 0
0  -0.703732 -0.006340 -0.325555  0.013520 -0.999909 -0.000022  0.259843 0.212598 0
0  -0.703733 -0.006343 0.304446  -0.202004 0.979385 0.000013  0.259843 0.779528 0
$0b_lockongun_ef.bmp
0  -0.703733 -0.006343 0.304446  0.000000 0.000000 0.000000  0.259843 0.779528 0
0  -0.703732 -0.006340 -0.325555  0.000000 0.000000 0.000000  0.259843 0.212598 0
0  -0.703733 -0.006343 0.304446  0.000000 0.000000 0.000000  0.440945 0.779528 0
$0b_lockongun_ef.bmp
0  -0.703732 -0.006340 -0.325555  0.000000 0.000000 0.000000  0.259843 0.212598 0
0  -0.703732 -0.006340 -0.325555  0.000000 0.000000 0.000000  0.440945 0.212598 0
0  -0.703733 -0.006343 0.304446  0.000000 0.000000 0.000000  0.440945 0.779528 0
$0b_lockongun_ef.bmp
0  -0.703733 -0.006343 0.304446  0.000000 0.000000 0.000000  0.440945 0.779528 0
0  -0.703732 -0.006340 -0.325555  0.000000 0.000000 0.000000  0.440945 0.212598 0
0  -0.703733 -0.006343 0.304446  0.000000 0.000000 0.000000  0.622047 0.779528 0
$0b_lockongun_ef.bmp
0  -0.703732 -0.006340 -0.325555  0.000000 0.000000 0.000000  0.440945 0.212598 0
0  -0.703732 -0.006340 -0.325555  0.000000 0.000000 0.000000  0.622047 0.212598 0
0  -0.703733 -0.006343 0.304446  0.000000 0.000000 0.000000  0.622047 0.779528 0
$0b_lockongun_ef.bmp
0  -0.703733 -0.006343 0.304446  0.000000 0.000000 0.000000  0.622047 0.779528 0
0  -0.703732 -0.006340 -0.325555  0.000000 0.000000 0.000000  0.622047 0.212598 0
0  -0.703733 -0.006343 0.304446  0.000000 0.000000 0.000000  0.803150 0.779528 0
$0b_lockongun_ef.bmp
0  -0.703732 -0.006340 -0.325555  0.000000 0.000000 0.000000  0.622047 0.212598 0
0  -0.703732 -0.006340 -0.325555  0.000000 0.000000 0.000000  0.803150 0.212598 0
0  -0.703733 -0.006343 0.304446  0.000000 0.000000 0.000000  0.803150 0.779528 0
$0b_lockongun_ef.bmp
0  -0.703732 -0.006340 -0.315555  -0.108510 0.994095 0.000017  0.149606 0.212598 0
0  -0.703732 -0.006340 -0.325555  0.013520 -0.999909 -0.000022  0.259843 0.212598 0
0  -0.703733 -0.006343 0.304446  -0.202004 0.979385 0.000013  0.259843 0.779528 0
$0b_lockongun_ef.bmp
0  -0.703733 -0.006343 0.304446  0.000000 0.000000 0.000000  0.259843 0.779528 0
0  -0.703732 -0.006340 -0.325555  0.000000 0.000000 0.000000  0.259843 0.212598 0
0  -0.703733 -0.006343 0.304446  0.000000 0.000000 0.000000  0.440945 0.779528 0
$0b_lockongun_ef.bmp
0  -0.703732 -0.006340 -0.325555  0.000000 0.000000 0.000000  0.259843 0.212598 0
0  -0.703732 -0.006340 -0.325555  0.000000 0.000000 0.000000  0.440945 0.212598 0
0  -0.703733 -0.006343 0.304446  0.000000 0.000000 0.000000  0.440945 0.779528 0
$0b_lockongun_ef.bmp
0  -0.703733 -0.006343 0.304446  0.000000 0.000000 0.000000  0.440945 0.779528 0
0  -0.703732 -0.006340 -0.325555  0.000000 0.000000 0.000000  0.440945 0.212598 0
0  -0.703733 -0.006343 0.304446  0.000000 0.000000 0.000000  0.622047 0.779528 0
$0b_lockongun_ef.bmp
0  -0.703732 -0.006340 -0.325555  0.000000 0.000000 0.000000  0.440945 0.212598 0
0  -0.703732 -0.006340 -0.325555  0.000000 0.000000 0.000000  0.622047 0.212598 0
0  -0.703733 -0.006343 0.304446  0.000000 0.000000 0.000000  0.622047 0.779528 0
$0b_lockongun_ef.bmp
0  -0.703733 -0.006343 0.304446  0.000000 0.000000 0.000000  0.622047 0.779528 0
0  -0.703732 -0.006340 -0.325555  0.000000 0.000000 0.000000  0.622047 0.212598 0
0  -0.703733 -0.006343 0.304446  0.000000 0.000000 0.000000  0.803150 0.779528 0
$0b_lockongun_ef.bmp
0  -0.703732 -0.006340 -0.325555  0.000000 0.000000 0.000000  0.622047 0.212598 0
0  -0.703732 -0.006340 -0.325555  0.000000 0.000000 0.000000  0.803150 0.212598 0
0  -0.703733 -0.006343 0.304446  0.000000 0.000000 0.000000  0.803150 0.779528 0
$0b_lockongun_ef.bmp
0  -0.703733 -0.006343 0.304446  -0.184694 0.982796 0.000047  0.259843 0.779528 0
0  -0.703733 -0.006343 0.324444  -0.090908 0.995859 0.000052  0.149606 0.779528 0
0  -0.703732 -0.006340 -0.315555  -0.090911 0.995859 -0.000043  0.149606 0.212598 0
$0b_lockongun_ef.bmp
0  -0.703733 -0.006343 0.304446  -0.184694 0.982796 0.000047  0.259843 0.779528 0
0  -0.703733 -0.006343 0.324444  -0.090908 0.995859 0.000052  0.149606 0.779528 0
0  -0.703732 -0.006340 -0.315555  -0.090911 0.995859 -0.000043  0.149606 0.212598 0
lockongun_v01.bmp
0  -0.795168 0.383323 0.004443  -0.999993 -0.003685 -0.000005  0.659491 0.113503 0
0  -0.792922 -0.226674 0.344443  -0.999993 -0.003685 -0.000005  0.682975 0.078278 0
0  -0.794543 0.213323 0.344443  -0.999993 -0.003685 -0.000005  0.682975 0.105675 0
lockongun_v01.bmp
0  -0.795168 0.383323 0.004443  -0.999993 -0.003682 0.000001  0.659491 0.113503 0
0  -0.792296 -0.396672 0.004443  -0.999993 -0.003682 0.000001  0.659491 0.070450 0
0  -0.792922 -0.226674 0.344443  -0.999993 -0.003682 0.000001  0.682975 0.078278 0
lockongun_v01.bmp
0  -0.795168 0.383323 0.004443  -0.999993 -0.003682 -0.000004  0.659491 0.113503 0
0  -0.792921 -0.226673 -0.335558  -0.999993 -0.003682 -0.000004  0.682975 0.078278 0
0  -0.792296 -0.396672 0.004443  -0.999993 -0.003682 -0.000004  0.659491 0.070450 0
lockongun_v01.bmp
0  -0.795168 0.383323 0.004443  -0.999993 -0.003685 0.000002  0.659491 0.113503 0
0  -0.794542 0.213324 -0.335558  -0.999993 -0.003685 0.000002  0.682975 0.105675 0
0  -0.792921 -0.226673 -0.335558  -0.999993 -0.003685 0.000002  0.682975 0.078278 0
lockongun_v01.bmp
0  0.977066 -0.220154 0.004444  0.999993 0.003681 0.000005  0.677104 0.035225 0
0  0.975704 0.149842 0.204445  0.999993 0.003681 0.000005  0.661448 0.062622 0
0  0.976808 -0.150156 0.204445  0.999993 0.003681 0.000005  0.661448 0.041096 0
lockongun_v01.bmp
0  0.977066 -0.220154 0.004444  0.999993 0.003685 -0.000004  0.677104 0.035225 0
0  0.975445 0.219843 0.004446  0.999993 0.003685 -0.000004  0.677104 0.068493 0
0  0.975704 0.149842 0.204445  0.999993 0.003685 -0.000004  0.661448 0.062622 0
lockongun_v01.bmp
0  0.977066 -0.220154 0.004444  0.999993 0.003686 0.000009  0.677104 0.035225 0
0  0.975704 0.149843 -0.195554  0.999993 0.003686 0.000009  0.661448 0.062622 0
0  0.975445 0.219843 0.004446  0.999993 0.003686 0.000009  0.677104 0.068493 0
lockongun_v01.bmp
0  0.977066 -0.220154 0.004444  0.999993 0.003677 -0.000006  0.677104 0.035225 0
0  0.976808 -0.150155 -0.195554  0.999993 0.003677 -0.000006  0.661448 0.041096 0
0  0.975704 0.149843 -0.195554  0.999993 0.003677 -0.000006  0.661448 0.062622 0
lockongun_v01.bmp
0  0.787067 -0.220855 0.344445  -0.000001 -0.000000 1.000000  0.794521 0.060665 0
0  0.785446 0.219142 0.344445  -0.000001 -0.000000 1.000000  0.794521 0.086106 0
0  -0.792922 -0.226674 0.344443  -0.000001 -0.000000 1.000000  0.686888 0.060665 0
lockongun_v01.bmp
0  -0.792922 -0.226674 0.344443  -0.000001 -0.000000 1.000000  0.686888 0.060665 0
0  0.785446 0.219142 0.344445  -0.000001 -0.000000 1.000000  0.794521 0.086106 0
0  -0.794543 0.213323 0.344443  -0.000001 -0.000000 1.000000  0.686888 0.086106 0
lockongun_v01.bmp
0  0.787067 -0.220855 0.344445  0.589213 0.002169 0.807975  0.794521 0.060665 0
0  0.976808 -0.150156 0.204445  0.589213 0.002169 0.807975  0.812133 0.060665 0
0  0.785446 0.219142 0.344445  0.589213 0.002168 0.807975  0.794521 0.086106 0
lockongun_v01.bmp
0  0.785446 0.219142 0.344445  0.589056 0.002168 0.808089  0.794521 0.086106 0
0  0.976808 -0.150156 0.204445  0.589056 0.002167 0.808089  0.812133 0.060665 0
0  0.975704 0.149842 0.204445  0.589056 0.002168 0.808089  0.812133 0.086106 0
lockongun_v01.bmp
0  -0.792296 -0.396672 0.004443  0.003303 -0.896492 0.443048  0.686888 0.033268 0
0  0.787694 -0.390852 0.004444  0.003301 -0.896492 0.443048  0.794521 0.033268 0
0  -0.792922 -0.226674 0.344443  0.003302 -0.896492 0.443048  0.686888 0.060665 0
lockongun_v01.bmp
0  -0.792922 -0.226674 0.344443  0.003300 -0.896493 0.443045  0.686888 0.060665 0
0  0.787694 -0.390852 0.004444  0.003301 -0.896493 0.443045  0.794521 0.033268 0
0  0.787067 -0.220855 0.344445  0.003300 -0.896493 0.443045  0.794521 0.060665 0
lockongun_v01.bmp
0  0.784821 0.389141 0.004446  -0.003288 0.892677 0.450685  0.794521 0.113503 0
0  -0.795168 0.383323 0.004443  -0.003288 0.892677 0.450685  0.686888 0.113503 0
0  0.785446 0.219142 0.344445  -0.003288 0.892677 0.450685  0.794521 0.086106 0
lockongun_v01.bmp
0  0.785446 0.219142 0.344445  -0.003288 0.892676 0.450686  0.794521 0.086106 0
0  -0.795168 0.383323 0.004443  -0.003288 0.892676 0.450686  0.686888 0.113503 0
0  -0.794543 0.213323 0.344443  -0.003288 0.892676 0.450686  0.686888 0.086106 0
lockongun_v01.bmp
0  -0.794542 0.213324 -0.335558  0.000001 0.000000 -1.000000  0.686888 0.086106 0
0  0.785447 0.219143 -0.335556  0.000001 0.000000 -1.000000  0.794521 0.086106 0
0  -0.792921 -0.226673 -0.335558  0.000001 0.000000 -1.000000  0.686888 0.060665 0
lockongun_v01.bmp
0  -0.792921 -0.226673 -0.335558  0.000001 0.000000 -1.000000  0.686888 0.060665 0
0  0.785447 0.219143 -0.335556  0.000001 0.000000 -1.000000  0.794521 0.086106 0
0  0.787068 -0.220854 -0.335556  0.000001 0.000000 -1.000000  0.794521 0.060665 0
lockongun_v01.bmp
0  0.975704 0.149843 -0.195554  0.589100 0.002172 -0.808057  0.812133 0.086106 0
0  0.976808 -0.150155 -0.195554  0.589100 0.002172 -0.808057  0.812133 0.060665 0
0  0.785447 0.219143 -0.335556  0.589100 0.002173 -0.808057  0.794521 0.086106 0
lockongun_v01.bmp
0  0.785447 0.219143 -0.335556  0.589143 0.002173 -0.808026  0.794521 0.086106 0
0  0.976808 -0.150155 -0.195554  0.589143 0.002172 -0.808026  0.812133 0.060665 0
0  0.787068 -0.220854 -0.335556  0.589143 0.002172 -0.808026  0.794521 0.060665 0
lockongun_v01.bmp
0  0.787068 -0.220854 -0.335556  0.003302 -0.896534 -0.442962  0.794521 0.060665 0
0  0.787694 -0.390852 0.004444  0.003303 -0.896534 -0.442962  0.794521 0.033268 0
0  -0.792921 -0.226673 -0.335558  0.003303 -0.896534 -0.442962  0.686888 0.060665 0
lockongun_v01.bmp
0  -0.792921 -0.226673 -0.335558  0.003302 -0.896534 -0.442963  0.686888 0.060665 0
0  0.787694 -0.390852 0.004444  0.003301 -0.896534 -0.442963  0.794521 0.033268 0
0  -0.792296 -0.396672 0.004443  0.003303 -0.896534 -0.442963  0.686888 0.033268 0
lockongun_v01.bmp
0  -0.794542 0.213324 -0.335558  -0.003287 0.892678 -0.450683  0.686888 0.086106 0
0  -0.795168 0.383323 0.004443  -0.003288 0.892678 -0.450683  0.686888 0.113503 0
0  0.785447 0.219143 -0.335556  -0.003288 0.892678 -0.450683  0.794521 0.086106 0
lockongun_v01.bmp
0  0.785447 0.219143 -0.335556  -0.003286 0.892615 -0.450808  0.794521 0.086106 0
0  -0.795168 0.383323 0.004443  -0.003286 0.892615 -0.450808  0.686888 0.113503 0
0  0.784821 0.389141 0.004446  -0.003286 0.892615 -0.450808  0.794521 0.113503 0
lockongun_v01.bmp
0  0.977066 -0.220154 0.004444  0.630453 -0.695479 0.344729  0.812133 0.033268 0
0  0.787067 -0.220855 0.344445  0.630507 -0.695468 0.344651  0.794521 0.060665 0
0  0.787694 -0.390852 0.004444  0.630507 -0.695468 0.344651  0.794521 0.033268 0
lockongun_v01.bmp
0  0.787067 -0.220855 0.344445  0.534414 -0.793747 0.290461  0.794521 0.060665 0
0  0.977066 -0.220154 0.004444  0.534414 -0.793747 0.290461  0.812133 0.033268 0
0  0.976808 -0.150156 0.204445  0.534415 -0.793747 0.290459  0.812133 0.060665 0
lockongun_v01.bmp
0  0.975704 0.149842 0.204445  0.553752 0.743694 0.374538  0.812133 0.086106 0
0  0.784821 0.389141 0.004446  0.553715 0.743724 0.374533  0.794521 0.113503 0
0  0.785446 0.219142 0.344445  0.553715 0.743724 0.374532  0.794521 0.086106 0
lockongun_v01.bmp
0  0.784821 0.389141 0.004446  0.642897 0.719785 0.261903  0.794521 0.113503 0
0  0.975704 0.149842 0.204445  0.642898 0.719768 0.261947  0.812133 0.086106 0
0  0.975445 0.219843 0.004446  0.642897 0.719785 0.261903  0.812133 0.113503 0
lockongun_v01.bmp
0  0.977066 -0.220154 0.004444  0.534459 -0.793711 -0.290476  0.812133 0.033268 0
0  0.787068 -0.220854 -0.335556  0.534460 -0.793712 -0.290472  0.794521 0.060665 0
0  0.976808 -0.150155 -0.195554  0.534459 -0.793711 -0.290475  0.812133 0.060665 0
lockongun_v01.bmp
0  0.787068 -0.220854 -0.335556  0.630454 -0.695476 -0.344732  0.794521 0.060665 0
0  0.977066 -0.220154 0.004444  0.630454 -0.695476 -0.344732  0.812133 0.033268 0
0  0.787694 -0.390852 0.004444  0.630428 -0.695480 -0.344772  0.794521 0.033268 0
lockongun_v01.bmp
0  0.975704 0.149843 -0.195554  0.642888 0.719794 -0.261899  0.812133 0.086106 0
0  0.784821 0.389141 0.004446  0.642887 0.719812 -0.261854  0.794521 0.113503 0
0  0.975445 0.219843 0.004446  0.642887 0.719811 -0.261854  0.812133 0.113503 0
lockongun_v01.bmp
0  0.784821 0.389141 0.004446  0.553788 0.743665 -0.374541  0.794521 0.113503 0
0  0.975704 0.149843 -0.195554  0.553788 0.743665 -0.374542  0.812133 0.086106 0
0  0.785447 0.219143 -0.335556  0.553788 0.743665 -0.374541  0.794521 0.086106 0
end
