// Created by Crowbar 0.49.0.0

$modelname "weapons/tfa_cso/c_bendita_v6.mdl"

$Include "csonline_gmod.qci"

$bodygroup "weapon"
{
	studio "v_bendita"
}

$CDMaterials "models\weapons\tfa_cso\bendita_v6"

$attachment 0 "bendita_root" -2.8 38 0
//$attachment 1 "bendita_root" -2 3.3 0

$definebone "root" "" 0.000000 0.000000 0.000000 0.000000 0.000000 0.000000 0.000000 0.000000 0.000000 -0.000000 0.000000 0.000000
$definebone "Bone01" "root" 6.210282 4.869267 -8.148848 -87.822546 -170.314498 168.002493 0.000001 0.000000 -0.000000 0.000000 0.000000 0.000000
$definebone "Bone_Lefthand" "Bone01" -0.071918 -8.498730 -0.104136 16.521926 8.533806 0.749257 0.000000 0.000000 0.000000 -0.000003 0.000000 -0.000001
$definebone "bendita_root" "Bone_Lefthand" 1.066394 -2.853785 1.145319 14.332597 171.856168 -3.918860 0.000000 0.000000 0.000000 0.000002 0.000000 0.000000
$definebone "reload" "bendita_root" -2.544339 6.190366 -0.177679 -89.999983 -89.999983 0.000000 0.000000 0.000000 0.000000 -0.000000 -0.000002 0.000000
$definebone "magazine" "bendita_root" -0.956247 5.815758 -0.075912 0.000002 0.000000 0.000058 0.000000 0.000000 0.000000 0.000002 0.000000 0.000000
$definebone "trigger" "bendita_root" -0.138642 1.369231 -0.000001 0.000002 0.303668 0.000000 0.000000 0.000000 0.000000 0.000002 0.000000 0.000000

$sequence "idle1" {
	"v_bendita_anims\idle1"
	fps 15
	loop
	activity "ACT_VM_IDLE" 1
	snap
}
$sequence "shoot1" {
	"v_bendita_anims\shoot1"
	{ event 5001 0 "43" }
	fps 30
	activity "ACT_VM_PRIMARYATTACK" 1
	snap
}
$sequence "shoot2" {
	"v_bendita_anims\shoot2"
	{ event 5001 0 "43" }
	fps 30
	activity "ACT_VM_PRIMARYATTACK" 2
	snap
}
$sequence "shoot3" {
	"v_bendita_anims\shoot3"
	{ event 5001 0 "43" }
	fps 30
	activity "ACT_VM_PRIMARYATTACK" 3
	snap
}
$sequence "reload" {
	"v_bendita_anims\reload"
	{ event 5004 15 "Bendita.ClipOut" }
	{ event 5004 40 "Bendita.ClipIn1" }
	{ event 5004 57 "Bendita.ClipIn2" }
	fps 30
	activity "ACT_VM_RELOAD" 1
	snap
}
$sequence "draw" {
	"v_bendita_anims\draw"
	{ event 5004 5 "Bendita.Draw" }
	fps 30
	activity "ACT_VM_DRAW" 1
	snap
}
