// Created by Crowbar 0.49.0.0

$modelname "weapons/tfa_cso/c_sl8g.mdl"

$Include "csonline_gmod.qci"

$bodygroup "weapon"
{
	studio "v_sl8g_NEXON_CSO_Gold_sl8_template"
}

$CDMaterials "models\weapons\tfa_cso\sl8g\"

$attachment 0 "Bone_Magazine" -0.011 -16.287001 0.759
//$attachment 1 "Bone_Magazine" 0.106 -0.012 0.7

$definebone "Bone01" "" 8.446210 -1.317284 -9.035816 -65.003553 83.685357 -101.104245 0.000000 0.000000 0.000000 -0.000000 0.000002 0.000000
$definebone "Bone_Lefthand" "Bone01" -0.071918 -8.498732 -0.104136 -15.041175 -9.121775 20.252679 0.000000 0.000000 0.000000 -0.000003 -0.000001 0.000005
$definebone "Bone_SL8" "Bone_Lefthand" 5.348424 -4.334386 0.397645 75.397844 -169.765638 -148.795181 -0.000000 0.000000 0.000000 -0.000002 -0.000004 0.000002
$definebone "Bone_Magazine" "Bone_SL8" -0.018918 -5.204148 1.209771 -0.000002 -0.000004 0.000002 0.000000 0.000000 0.000000 -0.000002 -0.000004 0.000002
$definebone "Bone_Bullet_HoTo" "Bone_Magazine" -0.106210 -0.041607 0.734739 -89.999983 0.000004 0.000000 0.000000 0.000000 0.000000 0.000002 0.000002 0.000004
$definebone "Bone_Nori" "Bone_SL8" -0.006608 -7.116273 2.875793 -0.000002 -0.000004 0.000002 0.000000 0.000000 0.000000 -0.000002 -0.000004 0.000002
$definebone "Bone_Nori_T" "Bone_Nori" 0.000031 -0.420788 -0.134254 -0.000002 -0.000004 0.000002 0.000000 0.000000 0.000000 -0.000002 -0.000004 0.000002
$definebone "Bone_Trigger" "Bone_SL8" -0.086616 -2.846227 0.453552 -0.000002 -0.000004 0.000002 0.000000 0.000000 0.000000 -0.000002 -0.000004 0.000002
$definebone "Bone_bullet_Cover" "Bone_SL8" -0.086616 -6.239247 1.961809 -0.000002 -0.000004 0.000002 0.000000 0.000000 0.000000 -0.000002 -0.000004 0.000002
$definebone "Bone_Magazine_Trigger" "Bone_SL8" -0.086617 -4.262174 -0.301127 -0.000002 -0.000004 0.000002 -0.000000 0.000000 0.000000 -0.000002 -0.000004 0.000002

$sequence "idle1" {
	"v_sl8g_anims\idle1"
	fps 16
	loop
	activity "ACT_VM_IDLE" 1
	snap
}
$sequence "shoot" {
	"v_sl8g_anims\shoot"
	{ event 5001 0 "31" }
	fps 30
	activity "ACT_VM_PRIMARYATTACK" 1
	snap
}
$sequence "shoot2" {
	"v_sl8g_anims\shoot2"
	{ event 5001 0 "31" }
	fps 30
	activity "ACT_VM_PRIMARYATTACK" 2
	snap
}
$sequence "reload" {
	"v_sl8g_anims\reload"
	{ event 5004 22 "SL8.ClipOut" }
	{ event 5004 46 "SL8.ClipIn" }
	{ event 5004 78 "SL8.Draw" }
	fps 30
	activity "ACT_VM_RELOAD" 1
	snap
}
$sequence "draw" {
	"v_sl8g_anims\draw"
	{ event 5004 10 "SL8.Draw" }
	fps 30
	activity "ACT_VM_DRAW" 1
	snap
}
