"UnlitGeneric"
{
	"$baseTexture" "sprites/buffaug_snowflake_smoke"
	"$translucent" 1
	"$additive" 1
	"$nocull" 0
	"Proxies"
	{
	"AnimatedTexture"
		{
		"animatedTextureVar" "$basetexture"
		"animatedTextureFrameNumVar" "$frame"
		"animatedTextureFrameRate" "27"
		}
	}
}