version 1
nodes
  0 "crow5_root" -1
  1 "megazine" 0
  2 "light" 0
  3 "light01" 0
  4 "light02" 0
  5 "lightning" 0
  6 "trigger" 0
  7 "reloader" 0
  8 "root" -1
  9 "Bone01" 8
  10 "Bone_L_Upper" 9
  11 "Bone_Lefthand" 9
  12 "Bone13" 11
  13 "Bone14" 12
  14 "Bone15" 13
  15 "Bone17" 11
  16 "Bone18" 15
  17 "Bone19" 16
  18 "Bone21" 11
  19 "Bone22" 18
  20 "Bone23" 19
  21 "Bone09" 11
  22 "Bone10" 21
  23 "Bone11" 22
  24 "Bone05" 11
  25 "Bone06" 24
  26 "Bone07" 25
  27 "Bone_Se_Hand-L" 11
  28 "Bone04" 8
  29 "Bone_Righthand" 28
  30 "Bone39" 29
  31 "Bone40" 30
  32 "Bone41" 31
  33 "Bone35" 29
  34 "Bone36" 33
  35 "Bone37" 34
  36 "Bone31" 29
  37 "Bone32" 36
  38 "Bone33" 37
  39 "Bone43" 29
  40 "Bone44" 39
  41 "Bone45" 40
  42 "Bone27" 29
  43 "Bone28" 42
  44 "Bone29" 43
  45 "Bone_Se_Hand-R" 29
  46 "Bone_R_Upper" 28
end
skeleton
  time 0
    0 5.496225 -8.953394 -11.778915 3.050832 -0.937790 -1.462562
    1 0.661211 -0.000004 -2.641094 0.000000 -3.141592 0.000000
    2 3.247482 -0.000005 -1.130647 0.000000 0.000000 -0.000001
    3 2.952324 0.797211 2.465918 2.208361 -1.542144 -1.139077
    4 2.953360 0.815595 1.314249 -2.040361 -1.570796 0.000000
    5 2.531871 -0.036995 -2.070253 0.000000 0.000000 -0.000001
    6 1.073001 -0.000003 4.918042 0.000000 -3.141592 0.000000
    7 2.916357 0.664625 10.775771 -3.048099 0.000000 1.570796
    8 0.923057 -2.001326 -3.726057 -0.062488 -0.333819 0.188710
    9 4.641992 0.391966 -8.737530 4.819529 -1.823614 1.058957
    10 7.882382 2.504581 -0.349031 1.566929 -3.120529 0.387090
    11 0.002300 -8.389358 -0.100228 -0.344372 0.517539 -0.361525
    12 -0.488518 -2.755602 -0.228260 -0.926864 0.104123 -0.205670
    13 0.039887 -1.530573 0.014229 -1.473570 -0.012212 0.032731
    14 0.028786 -1.169484 -0.124675 -1.082413 -0.015161 0.023166
    15 0.250027 -2.820665 -0.238396 -0.656416 0.070401 -0.070751
    16 -0.049759 -1.594604 0.026258 -1.644847 -0.001630 -0.043494
    17 -0.034142 -1.156125 0.057437 -0.778245 0.008377 -0.019511
    18 0.957766 -2.746780 -0.090302 0.192366 -0.212660 0.232006
    19 -0.033420 -1.397129 -0.026882 -0.840549 0.006592 -0.041348
    20 -0.022360 -0.957436 -0.000748 -0.702856 0.007562 -0.034132
    21 -1.180681 -2.507217 -0.193859 -1.000921 0.270987 -0.298350
    22 -0.024967 -1.127840 0.017597 -0.956758 0.004674 -0.041010
    23 -0.020057 -0.906594 0.033528 -1.043762 0.004698 -0.042809
    24 0.603042 -1.205090 0.189285 0.170717 -0.910476 -0.421804
    25 1.485144 -0.208511 0.067511 0.044099 -0.208064 -0.737596
    26 0.975767 -0.198604 0.051823 0.125211 -0.269176 -1.206668
    27 0.120153 -0.050270 -0.054489 0.287569 3.110905 1.561085
    28 -10.798434 -0.676433 -6.032717 -0.419853 -3.347242 -1.140928
    29 0.065693 -8.415261 -0.001552 -0.048645 -0.370156 0.245443
    30 0.447953 -2.798986 -0.200443 -1.080608 -0.116016 0.286451
    31 -0.032909 -1.495829 0.016659 -0.937501 0.019763 -0.014176
    32 -0.027022 -1.096452 -0.028023 -0.513425 0.013471 -0.005429
    33 -0.249534 -2.846964 -0.174213 -0.688709 -0.073099 0.004763
    34 0.043235 -1.660503 0.080387 -1.014688 -0.016652 0.001691
    35 0.031729 -1.153017 0.058838 -0.444953 -0.003900 0.005867
    36 -0.963866 -2.785145 -0.085350 -0.359784 0.157230 -0.206201
    37 0.028479 -1.403067 -0.013261 -0.774906 -0.017929 -0.029782
    38 0.021413 -0.957781 0.020046 -0.175941 -0.002013 -0.007862
    39 1.164475 -2.543940 -0.170330 -1.269961 -0.216253 0.419838
    40 0.024032 -1.136855 -0.001725 -0.773654 0.004039 0.041288
    41 0.014898 -0.895708 -0.019848 -0.595607 -0.000911 0.029698
    42 -0.586770 -1.264477 0.200161 -0.073069 -0.460710 -2.781506
    43 1.557992 0.035243 0.016848 -0.014170 -0.005588 0.722307
    44 1.117947 0.048424 -0.005766 0.002681 -0.021758 -0.075216
    45 -0.037833 -0.131230 -0.106700 0.756922 0.202509 1.380917
    46 -3.166962 8.327443 -0.286309 1.581667 -0.010858 -1.342138
  time 1
    0 5.515756 -9.379188 -11.396091 3.044534 -0.971181 -1.498576
    1 0.661211 -0.000004 -2.641094 0.000000 -3.141592 0.000000
    2 3.247482 -0.000005 -1.130647 0.000000 0.000000 -0.000001
    3 2.952324 0.797211 2.465918 2.208361 -1.542144 -1.139077
    4 2.953360 0.815595 1.314249 -2.040361 -1.570796 0.000000
    5 2.531871 -0.036995 -2.070253 0.000000 0.000000 -0.000001
    6 1.073001 -0.000003 4.918042 0.000000 -3.141592 0.000000
    7 2.916357 0.664625 10.775771 -3.048099 0.000000 1.570796
    8 0.923057 -2.001326 -3.726057 -0.062488 -0.333819 0.188710
    9 4.575584 -0.037735 -8.721904 4.912943 -1.786293 0.982989
    10 7.819880 2.766308 -0.341219 1.566642 -3.121198 0.420011
    11 0.002300 -8.377639 -0.104134 -0.388593 0.498899 -0.377274
    12 -0.488518 -2.755602 -0.228260 -0.926864 0.104123 -0.205670
    13 0.039887 -1.530573 0.014229 -1.473570 -0.012212 0.032731
    14 0.028786 -1.169484 -0.124675 -1.082413 -0.015161 0.023166
    15 0.250027 -2.820665 -0.238396 -0.656416 0.070401 -0.070751
    16 -0.049759 -1.594604 0.026258 -1.644847 -0.001630 -0.043494
    17 -0.034142 -1.156125 0.057437 -0.778245 0.008377 -0.019511
    18 0.957766 -2.746780 -0.090302 0.192366 -0.212660 0.232006
    19 -0.033420 -1.397129 -0.026882 -0.840549 0.006592 -0.041348
    20 -0.022360 -0.957436 -0.000748 -0.702856 0.007562 -0.034132
    21 -1.180681 -2.507217 -0.193859 -1.000921 0.270987 -0.298350
    22 -0.024967 -1.127840 0.017597 -0.956758 0.004674 -0.041010
    23 -0.020057 -0.906594 0.033528 -1.043762 0.004698 -0.042809
    24 0.603042 -1.205090 0.189285 0.170717 -0.910476 -0.421804
    25 1.485144 -0.208511 0.067511 0.044099 -0.208064 -0.737596
    26 0.975767 -0.198604 0.051823 0.125211 -0.269176 -1.206668
    27 0.120153 -0.050270 -0.054489 0.287569 3.110905 1.561085
    28 -10.353108 -1.610056 -6.806178 -0.520914 -3.477480 -0.987439
    29 0.011004 -8.426980 0.029699 -0.029484 -0.608497 0.272581
    30 0.447953 -2.798986 -0.200443 -0.876027 -0.126730 0.286343
    31 -0.032909 -1.495829 0.012753 -0.815013 0.017893 -0.011228
    32 -0.027022 -1.092546 -0.028023 -0.469999 0.012464 -0.004710
    33 -0.249534 -2.846964 -0.174213 -0.514031 -0.065932 0.009713
    34 0.043235 -1.660503 0.084293 -0.877104 -0.014327 0.000288
    35 0.031729 -1.153017 0.058838 -0.444953 -0.003900 0.005867
    36 -0.963866 -2.785145 -0.085350 -0.218521 0.159915 -0.200377
    37 0.028479 -1.403067 -0.013261 -0.666966 -0.014166 -0.026690
    38 0.021413 -0.957781 0.020046 -0.175941 -0.002013 -0.007862
    39 1.164475 -2.543940 -0.170330 -1.049902 -0.191721 0.429821
    40 0.024032 -1.132948 0.002182 -0.693479 0.002133 0.037201
    41 0.014898 -0.891802 -0.019848 -0.539885 -0.001558 0.026630
    42 -0.586770 -1.264477 0.200161 -0.041507 -0.442365 -2.851695
    43 1.554086 0.039149 0.016848 -0.011965 -0.004629 0.637954
    44 1.117947 0.048424 -0.005766 -0.000003 -0.024958 0.054583
    45 -0.037833 -0.131230 -0.106700 0.756922 0.202509 1.380917
    46 -4.073239 7.882117 -0.313654 1.581667 -0.014205 -1.219586
  time 2
    0 5.531382 -9.777638 -10.974203 3.041292 -1.001085 -1.540529
    1 0.661211 -0.000004 -2.641094 0.000000 -3.141592 0.000000
    2 3.247482 -0.000005 -1.130647 0.000000 0.000000 -0.000001
    3 2.952324 0.797211 2.465918 2.208361 -1.542144 -1.139077
    4 2.953360 0.815595 1.314249 -2.040361 -1.570796 0.000000
    5 2.531871 -0.036995 -2.070253 0.000000 0.000000 -0.000001
    6 1.073001 -0.000003 4.918042 0.000000 -3.141592 0.000000
    7 2.916357 0.664625 10.775771 -3.048099 0.000000 1.570796
    8 0.923057 -2.001326 -3.726057 -0.062488 -0.333819 0.188710
    9 4.513082 -0.459623 -8.675028 5.037403 -1.750346 0.876411
    10 7.753472 3.008503 -0.337312 1.566450 -3.121771 0.451202
    11 0.002300 -8.369826 -0.108040 -0.437313 0.477892 -0.396396
    12 -0.488518 -2.755602 -0.228260 -0.926864 0.104123 -0.205670
    13 0.039887 -1.530573 0.014229 -1.473570 -0.012212 0.032731
    14 0.028786 -1.169484 -0.124675 -1.082413 -0.015161 0.023166
    15 0.250027 -2.820665 -0.238396 -0.656416 0.070401 -0.070751
    16 -0.049759 -1.594604 0.026258 -1.644847 -0.001630 -0.043494
    17 -0.034142 -1.156125 0.057437 -0.778245 0.008377 -0.019511
    18 0.957766 -2.746780 -0.090302 0.192366 -0.212660 0.232006
    19 -0.033420 -1.397129 -0.026882 -0.840549 0.006592 -0.041348
    20 -0.022360 -0.957436 -0.000748 -0.702856 0.007562 -0.034132
    21 -1.180681 -2.507217 -0.193859 -1.000921 0.270987 -0.298350
    22 -0.024967 -1.127840 0.017597 -0.956758 0.004674 -0.041010
    23 -0.020057 -0.906594 0.033528 -1.043762 0.004698 -0.042809
    24 0.603042 -1.205090 0.189285 0.170717 -0.910476 -0.421804
    25 1.485144 -0.208511 0.067511 0.044099 -0.208064 -0.737596
    26 0.975767 -0.198604 0.051823 0.125211 -0.269176 -1.206668
    27 0.120153 -0.050270 -0.054489 0.287569 3.110905 1.561085
    28 -9.646055 -2.512427 -7.497606 -0.605847 -3.640599 -0.846761
    29 -0.047592 -8.446512 0.049231 -0.009562 -0.865326 0.300064
    30 0.447953 -2.798986 -0.200443 -0.662512 -0.138415 0.284054
    31 -0.032909 -1.491923 0.012753 -0.687021 0.015556 -0.008435
    32 -0.027022 -1.092546 -0.028023 -0.424632 0.011373 -0.004003
    33 -0.249534 -2.846964 -0.174213 -0.330991 -0.059485 0.016136
    34 0.043235 -1.664409 0.088199 -0.733371 -0.011702 -0.000814
    35 0.031729 -1.153017 0.058838 -0.444953 -0.003900 0.005867
    36 -0.963866 -2.785145 -0.085350 -0.067587 0.161857 -0.193797
    37 0.028479 -1.403067 -0.009354 -0.554141 -0.010606 -0.023022
    38 0.021413 -0.957781 0.020046 -0.175941 -0.002013 -0.007862
    39 1.164475 -2.543940 -0.170330 -0.819993 -0.168363 0.446851
    40 0.024032 -1.132948 0.002182 -0.609696 0.000503 0.032779
    41 0.014898 -0.891802 -0.019848 -0.481732 -0.002049 0.023394
    42 -0.586770 -1.264477 0.200161 -0.011154 -0.418220 -2.923600
    43 1.546273 0.039149 0.016848 -0.009879 -0.003503 0.554283
    44 1.117947 0.048424 -0.005766 -0.003323 -0.027966 0.194643
    45 -0.037833 -0.131230 -0.106700 0.756922 0.202509 1.380917
    46 -4.956079 7.303974 -0.340999 1.581187 -0.017553 -1.091008
  time 3
    0 5.550914 -10.160462 -10.528877 -0.097532 -2.108964 1.556321
    1 0.661211 -0.000004 -2.641094 0.000000 -3.141592 0.000000
    2 3.247482 -0.000005 -1.130647 0.000000 0.000000 -0.000001
    3 2.952324 0.797211 2.465918 2.208361 -1.542144 -1.139077
    4 2.953360 0.815595 1.314249 -2.040361 -1.570796 0.000000
    5 2.531871 -0.036995 -2.070253 0.000000 0.000000 -0.000001
    6 1.073001 -0.000003 4.918042 0.000000 -3.141592 0.000000
    7 2.916357 0.664625 10.775771 -3.048099 0.000000 1.570796
    8 0.923057 -2.001326 -3.726057 -0.062488 -0.333819 0.188710
    9 4.458393 -0.881510 -8.592994 5.212219 -1.717909 0.719828
    10 7.675345 3.258510 -0.333406 1.566162 -3.122440 0.483258
    11 -0.001606 -8.362013 -0.115853 -0.482498 0.457067 -0.412042
    12 -0.488518 -2.755602 -0.228260 -0.926864 0.104123 -0.205670
    13 0.039887 -1.530573 0.014229 -1.473570 -0.012212 0.032731
    14 0.028786 -1.169484 -0.124675 -1.082413 -0.015161 0.023166
    15 0.250027 -2.820665 -0.238396 -0.656416 0.070401 -0.070751
    16 -0.049759 -1.594604 0.026258 -1.644847 -0.001630 -0.043494
    17 -0.034142 -1.156125 0.057437 -0.778245 0.008377 -0.019511
    18 0.957766 -2.746780 -0.090302 0.192366 -0.212660 0.232006
    19 -0.033420 -1.397129 -0.026882 -0.840549 0.006592 -0.041348
    20 -0.022360 -0.957436 -0.000748 -0.702856 0.007562 -0.034132
    21 -1.180681 -2.507217 -0.193859 -1.000921 0.270987 -0.298350
    22 -0.024967 -1.127840 0.017597 -0.956758 0.004674 -0.041010
    23 -0.020057 -0.906594 0.033528 -1.043762 0.004698 -0.042809
    24 0.603042 -1.205090 0.189285 0.170717 -0.910476 -0.421804
    25 1.485144 -0.208511 0.067511 0.044099 -0.208064 -0.737596
    26 0.975767 -0.198604 0.051823 0.125211 -0.269176 -1.206668
    27 0.120153 -0.050270 -0.054489 0.287569 3.110905 1.561085
    28 -8.802279 -3.336671 -7.981996 -0.655824 -3.814745 -0.722945
    29 -0.102281 -8.458231 0.053137 -0.009098 -1.086065 0.330274
    30 0.447953 -2.798986 -0.200443 -0.466015 -0.146984 0.279619
    31 -0.032909 -1.491923 0.008846 -0.570082 0.013123 -0.006146
    32 -0.027022 -1.088639 -0.028023 -0.383188 0.010355 -0.003404
    33 -0.249534 -2.846964 -0.174213 -0.164794 -0.054691 0.022932
    34 0.043235 -1.668316 0.092106 -0.602028 -0.009198 -0.001497
    35 0.031729 -1.153017 0.058838 -0.444953 -0.003900 0.005867
    36 -0.963866 -2.785145 -0.085350 0.064150 0.162719 -0.187889
    37 0.028479 -1.403067 -0.005448 -0.451039 -0.007730 -0.019355
    38 0.021413 -0.957781 0.020046 -0.175941 -0.002013 -0.007862
    39 1.164475 -2.543940 -0.170330 -0.611630 -0.151848 0.464468
    40 0.024032 -1.129042 0.006088 -0.533130 -0.000635 0.028632
    41 0.014898 -0.891802 -0.019848 -0.428494 -0.002337 0.020422
    42 -0.586770 -1.264477 0.200161 0.016223 -0.400056 -2.988218
    43 1.542367 0.043056 0.016848 -0.007854 -0.002185 0.469249
    44 1.117947 0.048424 -0.005766 -0.006487 -0.030160 0.314206
    45 -0.037833 -0.131230 -0.106700 0.756922 0.202509 1.380917
    46 -5.690476 6.682861 -0.364437 1.580421 -0.020614 -0.974482
  time 4
    0 5.562633 -10.543286 -10.060112 -0.086603 -2.070833 1.512453
    1 0.661211 -0.000004 -2.641094 0.000000 -3.141592 0.000000
    2 3.247482 -0.000005 -1.130647 0.000000 0.000000 -0.000001
    3 2.952324 0.797211 2.465918 2.208361 -1.542144 -1.139077
    4 2.953360 0.815595 1.314249 -2.040361 -1.570796 0.000000
    5 2.531871 -0.036995 -2.070253 0.000000 0.000000 -0.000001
    6 1.073001 -0.000003 4.918042 0.000000 -3.141592 0.000000
    7 2.916357 0.664625 10.775771 -3.048099 0.000000 1.570796
    8 0.923057 -2.001326 -3.726057 -0.062488 -0.333819 0.188710
    9 4.407610 -1.315117 -8.483616 5.462062 -1.692037 0.488320
    10 7.581592 3.531956 -0.329500 1.565970 -3.123205 0.518700
    11 -0.001606 -8.354201 -0.123666 -0.516571 0.439664 -0.418076
    12 -0.488518 -2.755602 -0.228260 -0.926864 0.104123 -0.205670
    13 0.039887 -1.530573 0.014229 -1.473570 -0.012212 0.032731
    14 0.028786 -1.169484 -0.124675 -1.082413 -0.015161 0.023166
    15 0.250027 -2.820665 -0.238396 -0.656416 0.070401 -0.070751
    16 -0.049759 -1.594604 0.026258 -1.644847 -0.001630 -0.043494
    17 -0.034142 -1.156125 0.057437 -0.778268 0.008377 -0.019511
    18 0.957766 -2.746780 -0.090302 0.192366 -0.212660 0.232006
    19 -0.033420 -1.397129 -0.026882 -0.840549 0.006592 -0.041348
    20 -0.022360 -0.957436 -0.000748 -0.702856 0.007562 -0.034132
    21 -1.180681 -2.507217 -0.193859 -1.000921 0.270987 -0.298350
    22 -0.024967 -1.127840 0.017597 -0.956758 0.004674 -0.041010
    23 -0.020057 -0.906594 0.033528 -1.043762 0.004698 -0.042809
    24 0.603042 -1.205090 0.189285 0.170717 -0.910476 -0.421804
    25 1.485144 -0.208511 0.067511 0.044099 -0.208064 -0.737596
    26 0.975767 -0.198604 0.051823 0.125211 -0.269176 -1.206668
    27 0.120153 -0.050270 -0.054489 0.287569 3.110905 1.561085
    28 -8.017099 -4.074975 -8.220284 -0.654573 -3.968423 -0.605906
    29 -0.137438 -8.466044 0.045324 -0.059584 -1.215179 0.379787
    30 0.447953 -2.798986 -0.200443 -0.312852 -0.148926 0.274849
    31 -0.032909 -1.488017 0.008846 -0.480714 0.011110 -0.004612
    32 -0.027022 -1.088639 -0.028023 -0.351491 0.009564 -0.002984
    33 -0.249534 -2.846964 -0.174213 -0.040645 -0.051803 0.028576
    34 0.043235 -1.668316 0.092106 -0.501704 -0.007244 -0.001797
    35 0.031729 -1.153017 0.058838 -0.444953 -0.003900 0.005867
    36 -0.963866 -2.785145 -0.085350 0.147824 0.162875 -0.184090
    37 0.028479 -1.403067 -0.001542 -0.372224 -0.005801 -0.016359
    38 0.021413 -0.957781 0.020046 -0.175941 -0.002013 -0.007862
    39 1.164475 -2.543940 -0.170330 -0.456302 -0.144022 0.473828
    40 0.024032 -1.129042 0.006088 -0.474655 -0.001318 0.025408
    41 0.014898 -0.887895 -0.019848 -0.387848 -0.002457 0.018145
    42 -0.586770 -1.264477 0.200161 0.041012 -0.400096 -3.038023
    43 1.538460 0.043056 0.016848 -0.005877 -0.000639 0.380868
    44 1.117947 0.048424 -0.005766 -0.008393 -0.031226 0.382394
    45 -0.037833 -0.131230 -0.106700 0.756922 0.202509 1.380917
    46 -6.182679 6.171127 -0.380062 1.579654 -0.022718 -0.888269
  time 5
    0 5.566539 -10.933923 -9.579629 -0.065208 -2.021044 1.472894
    1 0.661211 -0.000004 -2.641094 0.000000 -3.141592 0.000000
    2 3.247482 -0.000005 -1.130647 0.000000 0.000000 -0.000001
    3 2.952324 0.797211 2.465918 2.208361 -1.542144 -1.139077
    4 2.953360 0.815595 1.314249 -2.040361 -1.570796 0.000000
    5 2.531871 -0.036995 -2.070253 0.000000 0.000000 -0.000001
    6 1.073001 -0.000003 4.918042 0.000000 -3.141592 0.000000
    7 2.916357 0.664625 10.775771 -3.048099 0.000000 1.570796
    8 0.923057 -2.001326 -3.726057 -0.062488 -0.333819 0.188710
    9 4.360734 -1.760443 -8.331267 5.795525 -1.677001 0.173552
    10 7.460494 3.844466 -0.321687 1.565683 -3.124065 0.560048
    11 -0.005513 -8.354201 -0.123666 -0.532505 0.429142 -0.409179
    12 -0.488518 -2.755602 -0.228260 -0.926864 0.104123 -0.205670
    13 0.039887 -1.530573 0.014229 -1.473570 -0.012212 0.032731
    14 0.028786 -1.169484 -0.124675 -1.082413 -0.015161 0.023166
    15 0.250027 -2.820665 -0.238396 -0.656416 0.070401 -0.070751
    16 -0.049759 -1.594604 0.026258 -1.644847 -0.001630 -0.043494
    17 -0.034142 -1.156125 0.057437 -0.778245 0.008377 -0.019511
    18 0.957766 -2.746780 -0.090302 0.192366 -0.212660 0.232006
    19 -0.033420 -1.397129 -0.026882 -0.840549 0.006592 -0.041348
    20 -0.022360 -0.957436 -0.000748 -0.702856 0.007562 -0.034132
    21 -1.180681 -2.507217 -0.193859 -1.000921 0.270987 -0.298350
    22 -0.024967 -1.127840 0.017597 -0.956758 0.004674 -0.041010
    23 -0.020057 -0.906594 0.033528 -1.043762 0.004698 -0.042809
    24 0.603042 -1.205090 0.189285 0.170717 -0.910476 -0.421804
    25 1.485144 -0.208511 0.067511 0.044099 -0.208064 -0.737596
    26 0.975767 -0.198604 0.051823 0.125211 -0.269176 -1.206668
    27 0.120153 -0.050270 -0.054489 0.287569 3.110905 1.561085
    28 -7.450675 -4.750776 -8.232003 -0.588271 -4.079942 -0.475229
    29 -0.133532 -8.454325 0.045324 -0.168280 -1.195257 0.438326
    30 0.447953 -2.798986 -0.200443 -0.194777 -0.140968 0.271158
    31 -0.032909 -1.488017 0.004940 -0.415585 0.009540 -0.003593
    32 -0.027022 -1.088639 -0.024116 -0.328391 0.008976 -0.002685
    33 -0.249534 -2.846964 -0.174213 0.043183 -0.050101 0.032831
    34 0.043235 -1.672222 0.096012 -0.428534 -0.005794 -0.001893
    35 0.031729 -1.153017 0.058838 -0.444953 -0.003900 0.005867
    36 -0.963866 -2.785145 -0.085350 0.169731 0.162863 -0.183083
    37 0.028479 -1.403067 -0.001542 -0.314811 -0.004542 -0.014082
    38 0.021413 -0.957781 0.020046 -0.175941 -0.002013 -0.007862
    39 1.164475 -2.543940 -0.170330 -0.351896 -0.143399 0.467153
    40 0.024032 -1.129042 0.006088 -0.431997 -0.001678 0.023047
    41 0.014898 -0.887895 -0.019848 -0.358247 -0.002481 0.016479
    42 -0.586770 -1.264477 0.200161 0.071348 -0.433594 -3.077898
    43 1.534554 0.046962 0.016848 -0.003456 0.001698 0.262661
    44 1.117947 0.048424 -0.005766 -0.008285 -0.031178 0.378829
    45 -0.037833 -0.131230 -0.106700 0.756922 0.202509 1.380917
    46 -6.444405 5.854711 -0.387875 1.579079 -0.023961 -0.838395
  time 6
    0 5.554820 -11.414407 -9.052269 -0.025753 -1.945346 1.441190
    1 0.661211 -0.000004 -2.641094 0.000000 -3.141592 0.000000
    2 3.247482 -0.000005 -1.130647 0.000000 0.000000 -0.000001
    3 2.952324 0.797211 2.465918 2.208361 -1.542144 -1.139077
    4 2.953360 0.815595 1.314249 -2.040361 -1.570796 0.000000
    5 2.531871 -0.036995 -2.070253 0.000000 0.000000 -0.000001
    6 1.073001 -0.000003 4.918042 0.000000 -3.141592 0.000000
    7 2.916357 0.664625 10.775771 -3.048099 0.000000 1.570796
    8 0.923057 -2.001326 -3.726057 -0.062488 -0.333819 0.188710
    9 4.302138 -2.291710 -8.104698 6.166409 -1.676620 -0.177277
    10 7.253457 4.301511 -0.309968 1.565395 -3.125308 0.621422
    11 -0.009419 -8.358107 -0.123666 -0.515423 0.430854 -0.371138
    12 -0.488518 -2.755602 -0.228260 -0.926864 0.104123 -0.205670
    13 0.039887 -1.530573 0.014229 -1.473570 -0.012212 0.032731
    14 0.028786 -1.169484 -0.124675 -1.082413 -0.015161 0.023166
    15 0.250027 -2.820665 -0.238396 -0.656416 0.070401 -0.070751
    16 -0.049759 -1.594604 0.026258 -1.644847 -0.001630 -0.043494
    17 -0.034142 -1.156125 0.057437 -0.778245 0.008377 -0.019511
    18 0.957766 -2.746780 -0.090302 0.192366 -0.212660 0.232006
    19 -0.033420 -1.397129 -0.026882 -0.840549 0.006592 -0.041348
    20 -0.022360 -0.957436 -0.000748 -0.702856 0.007562 -0.034132
    21 -1.180681 -2.507217 -0.193859 -1.000921 0.270987 -0.298350
    22 -0.024967 -1.127840 0.017597 -0.956758 0.004674 -0.041010
    23 -0.020057 -0.906594 0.033528 -1.043762 0.004698 -0.042809
    24 0.603042 -1.205090 0.189285 0.170717 -0.910476 -0.421804
    25 1.485144 -0.208511 0.067511 0.044099 -0.208064 -0.737596
    26 0.975767 -0.198604 0.051823 0.125211 -0.269176 -1.206668
    27 0.120153 -0.050270 -0.054489 0.287569 3.110905 1.561085
    28 -7.063945 -5.383608 -8.091374 -0.466836 -4.151548 -0.319673
    29 -0.102281 -8.430887 0.041418 -0.263883 -1.069725 0.447132
    30 0.447953 -2.798986 -0.200443 -0.103178 -0.126167 0.269492
    31 -0.032909 -1.488017 0.004940 -0.368393 0.008377 -0.002934
    32 -0.027022 -1.088639 -0.024116 -0.311671 0.008545 -0.002481
    33 -0.249534 -2.846964 -0.174213 0.097431 -0.049034 0.035923
    34 0.043235 -1.672222 0.096012 -0.375531 -0.004751 -0.001893
    35 0.031729 -1.153017 0.058838 -0.444953 -0.003900 0.005867
    36 -0.963866 -2.785145 -0.085350 0.147238 0.162875 -0.184114
    37 0.028479 -1.403067 -0.001542 -0.273217 -0.003715 -0.012392
    38 0.021413 -0.957781 0.020046 -0.175941 -0.002013 -0.007862
    39 1.164475 -2.543940 -0.170330 -0.284826 -0.146215 0.448229
    40 0.024032 -1.129042 0.009994 -0.401103 -0.001894 0.021322
    41 0.014898 -0.887895 -0.019848 -0.336819 -0.002457 0.015268
    42 -0.586770 -1.264477 0.200161 0.107801 -0.490435 -3.112740
    43 1.526741 0.054775 0.016848 -0.000999 0.004766 0.124343
    44 1.117947 0.048424 -0.005766 -0.006751 -0.030315 0.323985
    45 -0.037833 -0.131230 -0.106700 0.756922 0.202509 1.380917
    46 -6.565503 5.702363 -0.391781 1.578791 -0.024535 -0.814756
  time 7
    0 5.523569 -11.949579 -8.458501 0.036208 -1.848273 1.407858
    1 0.661211 -0.000004 -2.641094 0.000000 -3.141592 0.000000
    2 3.247482 -0.000005 -1.130647 0.000000 0.000000 -0.000001
    3 2.952324 0.797211 2.465918 2.208361 -1.542144 -1.139077
    4 2.953360 0.815595 1.314249 -2.040361 -1.570796 0.000000
    5 2.531871 -0.036995 -2.070253 0.000000 0.000000 -0.000001
    6 1.073001 -0.000003 4.918042 0.000000 -3.141592 0.000000
    7 2.916357 0.664625 10.775771 -3.048099 0.000000 1.570796
    8 0.923057 -2.001326 -3.726057 -0.062488 -0.333819 0.188710
    9 4.243543 -2.865946 -7.788282 0.203252 -1.688449 -0.475617
    10 6.960479 4.852309 -0.298249 1.565204 -3.126932 0.697996
    11 -0.017232 -8.369826 -0.115853 -0.469916 0.440756 -0.308554
    12 -0.488518 -2.755602 -0.228260 -0.926864 0.104123 -0.205670
    13 0.039887 -1.530573 0.014229 -1.473570 -0.012212 0.032731
    14 0.028786 -1.169484 -0.124675 -1.082413 -0.015161 0.023166
    15 0.250027 -2.820665 -0.238396 -0.656416 0.070401 -0.070751
    16 -0.049759 -1.594604 0.026258 -1.644847 -0.001630 -0.043494
    17 -0.034142 -1.156125 0.057437 -0.778245 0.008377 -0.019511
    18 0.957766 -2.746780 -0.090302 0.192366 -0.212660 0.232006
    19 -0.033420 -1.397129 -0.026882 -0.840549 0.006592 -0.041348
    20 -0.022360 -0.957436 -0.000748 -0.702856 0.007562 -0.034132
    21 -1.180681 -2.507217 -0.193859 -1.000921 0.270987 -0.298350
    22 -0.024967 -1.127840 0.017597 -0.956758 0.004674 -0.041010
    23 -0.020057 -0.906594 0.033528 -1.043762 0.004698 -0.042809
    24 0.603042 -1.205090 0.189285 0.170717 -0.910476 -0.421804
    25 1.485144 -0.208511 0.067511 0.044099 -0.208064 -0.737596
    26 0.975767 -0.198604 0.051823 0.125211 -0.269176 -1.206668
    27 0.120153 -0.050270 -0.054489 0.287569 3.110905 1.561085
    28 -6.767061 -5.996908 -7.860898 -0.319480 -4.190141 -0.150975
    29 -0.071030 -8.407448 0.037511 -0.333927 -0.934062 0.424475
    30 0.447953 -2.798986 -0.200443 -0.063685 -0.111282 0.269888
    31 -0.032909 -1.484110 0.004940 -0.351478 0.007946 -0.002707
    32 -0.027022 -1.088639 -0.024116 -0.305648 0.008389 -0.002409
    33 -0.249534 -2.846964 -0.174213 0.109989 -0.048615 0.036990
    34 0.043235 -1.676128 0.096012 -0.356528 -0.004368 -0.001881
    35 0.031729 -1.153017 0.058838 -0.444953 -0.003900 0.005867
    36 -0.963866 -2.785145 -0.085350 0.098147 0.162827 -0.186343
    37 0.028479 -1.403067 -0.001542 -0.258282 -0.003428 -0.011781
    38 0.021413 -0.957781 0.020046 -0.175941 -0.002013 -0.007862
    39 1.164475 -2.543940 -0.170330 -0.269621 -0.150889 0.426022
    40 0.024032 -1.129042 0.009994 -0.389982 -0.001953 0.020698
    41 0.014898 -0.887895 -0.019848 -0.329088 -0.002457 0.014837
    42 -0.586770 -1.264477 0.200161 0.136976 -0.546051 -3.132601
    43 1.522835 0.058681 0.016848 0.000583 0.007343 0.018191
    44 1.117947 0.048424 -0.005766 -0.004713 -0.028997 0.248379
    45 -0.037833 -0.131230 -0.106700 0.756922 0.202509 1.380917
    46 -6.581128 5.678924 -0.395688 1.578695 -0.024631 -0.811234
  time 8
    0 5.484505 -12.387093 -7.864733 0.127530 -1.753137 1.348377
    1 0.661211 -0.000004 -2.641094 0.000000 -3.141592 0.000000
    2 3.247482 -0.000005 -1.130647 0.000000 0.000000 -0.000001
    3 2.952324 0.797211 2.465918 2.208361 -1.542144 -1.139077
    4 2.953360 0.815595 1.314249 -2.040361 -1.570796 0.000000
    5 2.531871 -0.036995 -2.070253 0.000000 0.000000 -0.000001
    6 1.073001 -0.000003 4.918042 0.000000 -3.141592 0.000000
    7 2.916357 0.664625 10.775771 -3.048099 0.000000 1.570796
    8 0.923057 -2.001326 -3.726057 -0.062488 -0.333819 0.188710
    9 4.204479 -3.346429 -7.452334 0.442100 -1.706385 -0.694143
    10 6.671408 5.305448 -0.286530 1.565012 -3.128366 0.763981
    11 -0.025045 -8.381545 -0.111947 -0.418716 0.450149 -0.244539
    12 -0.488518 -2.755602 -0.228260 -0.926864 0.104123 -0.205670
    13 0.039887 -1.530573 0.014229 -1.473570 -0.012212 0.032731
    14 0.028786 -1.169484 -0.124675 -1.082413 -0.015161 0.023166
    15 0.250027 -2.820665 -0.238396 -0.656416 0.070401 -0.070751
    16 -0.049759 -1.594604 0.026258 -1.644847 -0.001630 -0.043494
    17 -0.034142 -1.156125 0.057437 -0.778245 0.008377 -0.019511
    18 0.957766 -2.746780 -0.090302 0.192366 -0.212660 0.232006
    19 -0.033420 -1.397129 -0.026882 -0.840549 0.006592 -0.041348
    20 -0.022360 -0.957436 -0.000748 -0.702856 0.007562 -0.034132
    21 -1.180681 -2.507217 -0.193859 -1.000921 0.270987 -0.298350
    22 -0.024967 -1.127840 0.017597 -0.956758 0.004674 -0.041010
    23 -0.020057 -0.906594 0.033528 -1.043762 0.004698 -0.042809
    24 0.603042 -1.205090 0.189285 0.170717 -0.910476 -0.421804
    25 1.485144 -0.208511 0.067511 0.044099 -0.208064 -0.737596
    26 0.975767 -0.198604 0.051823 0.125211 -0.269176 -1.206668
    27 0.120153 -0.050270 -0.054489 0.287569 3.110905 1.561085
    28 -6.446739 -6.575051 -7.595265 -0.178162 -4.209388 0.013590
    29 -0.055404 -8.395729 0.029699 -0.385209 -0.881393 0.413256
    30 0.447953 -2.798986 -0.200443 -0.101723 -0.102893 0.270942
    31 -0.032909 -1.488017 0.004940 -0.376917 0.008593 -0.003054
    32 -0.027022 -1.088639 -0.024116 -0.314682 0.008629 -0.002517
    33 -0.249534 -2.846964 -0.174213 0.068834 -0.049034 0.035180
    34 0.043235 -1.672222 0.096012 -0.385125 -0.004931 -0.001893
    35 0.031729 -1.153017 0.058838 -0.444953 -0.003900 0.005867
    36 -0.963866 -2.785145 -0.085350 0.040216 0.162624 -0.188967
    37 0.028479 -1.403067 -0.001542 -0.280708 -0.003859 -0.012704
    38 0.021413 -0.957781 0.020046 -0.175941 -0.002013 -0.007862
    39 1.164475 -2.543940 -0.170330 -0.321127 -0.157541 0.410142
    40 0.024032 -1.129042 0.009994 -0.406689 -0.001858 0.021633
    41 0.014898 -0.887895 -0.019848 -0.340685 -0.002469 0.015484
    42 -0.586770 -1.264477 0.200161 0.141279 -0.576699 -3.122973
    43 1.522835 0.058681 0.016848 0.000871 0.007882 -0.003519
    44 1.117947 0.048424 -0.005766 -0.003023 -0.027715 0.182504
    45 -0.037833 -0.131230 -0.106700 0.756922 0.202509 1.380917
    46 -6.530346 5.749239 -0.391781 1.578887 -0.024344 -0.821709
  time 9
    0 5.461067 -12.613662 -7.380343 0.266457 -1.684297 1.227690
    1 0.661211 -0.000004 -2.641094 0.000000 -3.141592 0.000000
    2 3.247482 -0.000005 -1.130647 0.000000 0.000000 -0.000001
    3 2.952324 0.797211 2.465918 2.208361 -1.542144 -1.139077
    4 2.953360 0.815595 1.314249 -2.040361 -1.570796 0.000000
    5 2.531871 -0.036995 -2.070253 0.000000 0.000000 -0.000001
    6 1.073001 -0.000003 4.918042 0.000000 -3.141592 0.000000
    7 2.916357 0.664625 10.775771 -3.048099 0.000000 1.570796
    8 0.923057 -2.001326 -3.726057 -0.062488 -0.333819 0.188710
    9 4.204479 -3.623782 -7.214046 0.616177 -1.726228 -0.852649
    10 6.534685 5.504673 -0.282623 1.565012 -3.129035 0.793588
    11 -0.028951 -8.393264 -0.108040 -0.386113 0.454446 -0.203685
    12 -0.488518 -2.755602 -0.228260 -0.926864 0.104123 -0.205670
    13 0.039887 -1.530573 0.014229 -1.473570 -0.012212 0.032731
    14 0.028786 -1.169484 -0.124675 -1.082413 -0.015161 0.023166
    15 0.250027 -2.820665 -0.238396 -0.656416 0.070401 -0.070751
    16 -0.049759 -1.594604 0.026258 -1.644847 -0.001630 -0.043494
    17 -0.034142 -1.156125 0.057437 -0.778245 0.008377 -0.019511
    18 0.957766 -2.746780 -0.090302 0.192366 -0.212660 0.232006
    19 -0.033420 -1.397129 -0.026882 -0.840549 0.006592 -0.041348
    20 -0.022360 -0.957436 -0.000748 -0.702856 0.007562 -0.034132
    21 -1.180681 -2.507217 -0.193859 -1.000921 0.270987 -0.298350
    22 -0.024967 -1.127840 0.017597 -0.956758 0.004674 -0.041010
    23 -0.020057 -0.906594 0.033528 -1.043762 0.004698 -0.042809
    24 0.603042 -1.205090 0.189285 0.170717 -0.910476 -0.421804
    25 1.485144 -0.208511 0.067511 0.044099 -0.208064 -0.737596
    26 0.975767 -0.198604 0.051823 0.125211 -0.269176 -1.206668
    27 0.120153 -0.050270 -0.054489 0.287569 3.110905 1.561085
    28 -6.028757 -7.211789 -7.247598 -0.047547 -4.213316 0.174849
    29 -0.071030 -8.395729 0.029699 -0.430325 -0.946240 0.435662
    30 0.447953 -2.798986 -0.200443 -0.257998 -0.102785 0.272381
    31 -0.032909 -1.488017 0.008846 -0.467706 0.010798 -0.004396
    32 -0.027022 -1.088639 -0.024116 -0.346855 0.009444 -0.002924
    33 -0.249534 -2.846964 -0.174213 -0.055970 -0.051239 0.029128
    34 0.043235 -1.672222 0.092106 -0.487033 -0.006956 -0.001821
    35 0.031729 -1.153017 0.058838 -0.444953 -0.003900 0.005867
    36 -0.963866 -2.785145 -0.085350 -0.037498 0.162120 -0.192455
    37 0.028479 -1.403067 -0.001542 -0.360779 -0.005537 -0.015916
    38 0.021413 -0.957781 0.020046 -0.175941 -0.002013 -0.007862
    39 1.164475 -2.543940 -0.170330 -0.476770 -0.169118 0.402867
    40 0.024032 -1.129042 0.006088 -0.466103 -0.001390 0.024941
    41 0.014898 -0.887895 -0.019848 -0.381939 -0.002457 0.017809
    42 -0.586770 -1.264477 0.200161 0.107028 -0.573768 -3.066048
    43 1.526741 0.054775 0.016848 -0.000555 0.005438 0.096236
    44 1.117947 0.048424 -0.005766 -0.001573 -0.026480 0.123132
    45 -0.037833 -0.131230 -0.106700 0.756922 0.202509 1.380917
    46 -6.350653 5.971902 -0.387875 1.579270 -0.023483 -0.856750
  time 10
    0 5.453254 -12.641007 -7.036583 0.481145 -1.644615 1.016106
    1 0.661211 -0.000004 -2.641094 0.000000 -3.141592 0.000000
    2 3.247482 -0.000005 -1.130647 0.000000 0.000000 -0.000001
    3 2.952324 0.797211 2.465918 2.208361 -1.542144 -1.139077
    4 2.953360 0.815595 1.314249 -2.040361 -1.570796 0.000000
    5 2.531871 -0.036995 -2.070253 0.000000 0.000000 -0.000001
    6 1.073001 -0.000003 4.918042 0.000000 -3.141592 0.000000
    7 2.916357 0.664625 10.775771 -3.048099 0.000000 1.570796
    8 0.923057 -2.001326 -3.726057 -0.062488 -0.333819 0.188710
    9 4.235730 -3.721441 -7.112480 0.746920 -1.747446 -0.972851
    10 6.573748 5.446077 -0.282623 1.565012 -3.128844 0.784944
    11 -0.028951 -8.393264 -0.108040 -0.375781 0.455101 -0.189522
    12 -0.488518 -2.755602 -0.228260 -0.926864 0.104123 -0.205670
    13 0.039887 -1.530573 0.014229 -1.473570 -0.012212 0.032731
    14 0.028786 -1.169484 -0.124675 -1.082413 -0.015161 0.023166
    15 0.250027 -2.820665 -0.238396 -0.656416 0.070401 -0.070751
    16 -0.049759 -1.594604 0.026258 -1.644847 -0.001630 -0.043494
    17 -0.034142 -1.156125 0.057437 -0.778245 0.008377 -0.019511
    18 0.957766 -2.746780 -0.090302 0.192366 -0.212660 0.232006
    19 -0.033420 -1.397129 -0.026882 -0.840549 0.006592 -0.041348
    20 -0.022360 -0.957436 -0.000748 -0.702856 0.007562 -0.034132
    21 -1.180681 -2.507217 -0.193859 -1.000921 0.270987 -0.298350
    22 -0.024967 -1.127840 0.017597 -0.956758 0.004674 -0.041010
    23 -0.020057 -0.906594 0.033528 -1.043762 0.004698 -0.042809
    24 0.603042 -1.205090 0.189285 0.170717 -0.910476 -0.421804
    25 1.485144 -0.208511 0.067511 0.044099 -0.208064 -0.737596
    26 0.975767 -0.198604 0.051823 0.125211 -0.269176 -1.206668
    27 0.120153 -0.050270 -0.054489 0.287569 3.110905 1.561085
    28 -5.552180 -7.868059 -6.778834 0.069592 -4.198394 0.323213
    29 -0.102281 -8.403542 0.029699 -0.490590 -1.072079 0.491443
    30 0.447953 -2.798986 -0.200443 -0.507449 -0.106536 0.275209
    31 -0.032909 -1.491923 0.008846 -0.610749 0.013998 -0.006913
    32 -0.027022 -1.092546 -0.028023 -0.397610 0.010714 -0.003607
    33 -0.249534 -2.846964 -0.174213 -0.249604 -0.056201 0.020295
    34 0.043235 -1.664409 0.092106 -0.647719 -0.010084 -0.001306
    35 0.031729 -1.153017 0.058838 -0.444953 -0.003900 0.005867
    36 -0.963866 -2.785145 -0.085350 -0.141223 0.161030 -0.197045
    37 0.028479 -1.403067 -0.005448 -0.486911 -0.008689 -0.020661
    38 0.021413 -0.957781 0.020046 -0.175941 -0.002013 -0.007862
    39 1.164475 -2.543940 -0.170330 -0.718645 -0.185788 0.401753
    40 0.024032 -1.132948 0.006088 -0.559772 -0.000276 0.030082
    41 0.014898 -0.891802 -0.019848 -0.446995 -0.002253 0.021464
    42 -0.586770 -1.264477 0.200161 0.048575 -0.549142 -2.975375
    43 1.534554 0.046962 0.016848 -0.003779 0.001351 0.279277
    44 1.117947 0.048424 -0.005766 -0.000015 -0.024970 0.055185
    45 -0.037833 -0.131230 -0.106700 0.756922 0.202509 1.380917
    46 -6.026424 6.343007 -0.376156 1.579941 -0.022048 -0.916358
  time 11
    0 5.453254 -12.578505 -6.767043 0.862361 -1.620824 0.632975
    1 0.661211 -0.000004 -2.641094 0.000000 -3.141592 0.000000
    2 3.247482 -0.000005 -1.130647 0.000000 0.000000 -0.000001
    3 2.952324 0.797211 2.465918 2.208361 -1.542144 -1.139077
    4 2.953360 0.815595 1.314249 -2.040361 -1.570796 0.000000
    5 2.531871 -0.036995 -2.070253 0.000000 0.000000 -0.000001
    6 1.073001 -0.000003 4.918042 0.000000 -3.141592 0.000000
    7 2.916357 0.664625 10.775771 -3.048099 0.000000 1.570796
    8 0.923057 -2.001326 -3.726057 -0.062488 -0.333819 0.188710
    9 4.282606 -3.733160 -7.085135 0.847171 -1.770342 -1.065005
    10 6.698752 5.266384 -0.286530 1.565012 -3.128175 0.757858
    11 -0.028951 -8.393264 -0.108040 -0.372980 0.455064 -0.186045
    12 -0.488518 -2.755602 -0.228260 -0.926864 0.104123 -0.205670
    13 0.039887 -1.530573 0.014229 -1.473570 -0.012212 0.032731
    14 0.028786 -1.169484 -0.124675 -1.082413 -0.015161 0.023166
    15 0.250027 -2.820665 -0.238396 -0.656416 0.070401 -0.070751
    16 -0.049759 -1.594604 0.026258 -1.644847 -0.001630 -0.043494
    17 -0.034142 -1.156125 0.057437 -0.778245 0.008377 -0.019511
    18 0.957766 -2.746780 -0.090302 0.192366 -0.212660 0.232006
    19 -0.033420 -1.397129 -0.026882 -0.840549 0.006592 -0.041348
    20 -0.022360 -0.957436 -0.000748 -0.702856 0.007562 -0.034132
    21 -1.180681 -2.507217 -0.193859 -1.000921 0.270987 -0.298350
    22 -0.024967 -1.127840 0.017597 -0.956758 0.004674 -0.041010
    23 -0.020057 -0.906594 0.033528 -1.043762 0.004698 -0.042809
    24 0.603042 -1.205090 0.189285 0.170717 -0.910476 -0.421804
    25 1.485144 -0.208511 0.067511 0.044099 -0.208064 -0.737596
    26 0.975767 -0.198604 0.051823 0.125211 -0.269176 -1.206668
    27 0.120153 -0.050270 -0.054489 0.287569 3.110905 1.561085
    28 -5.087322 -8.403232 -6.282725 0.160122 -4.173403 0.440913
    29 -0.133532 -8.411355 0.029699 -0.587618 -1.213200 0.595641
    30 0.447953 -2.798986 -0.200443 -0.776748 -0.111270 0.279655
    31 -0.032909 -1.495829 0.012753 -0.764535 0.017006 -0.010089
    32 -0.027022 -1.092546 -0.028023 -0.452090 0.012033 -0.004422
    33 -0.249534 -2.846964 -0.174213 -0.456569 -0.063296 0.012062
    34 0.043235 -1.660503 0.088199 -0.820421 -0.013308 -0.000191
    35 0.031729 -1.153017 0.058838 -0.444953 -0.003900 0.005867
    36 -0.963866 -2.785145 -0.085350 -0.246095 0.159460 -0.201539
    37 0.028479 -1.403067 -0.009354 -0.622441 -0.012704 -0.025287
    38 0.021413 -0.957781 0.020046 -0.175941 -0.002013 -0.007862
    39 1.164475 -2.543940 -0.170330 -0.978019 -0.201860 0.407350
    40 0.024032 -1.132948 0.002182 -0.660411 0.001450 0.035463
    41 0.014898 -0.891802 -0.019848 -0.516966 -0.001774 0.025359
    42 -0.586770 -1.264477 0.200161 -0.011440 -0.511930 -2.881420
    43 1.542367 0.039149 0.016848 -0.008214 -0.002448 0.485006
    44 1.117947 0.048424 -0.005766 0.001363 -0.023436 -0.008907
    45 -0.037833 -0.131230 -0.106700 0.756922 0.202509 1.380917
    46 -5.663132 6.706300 -0.364437 1.580516 -0.020422 -0.979117
  time 12
    0 5.461067 -12.453501 -6.556099 1.390006 -1.613310 0.099943
    1 0.661211 -0.000004 -2.641094 0.000000 -3.141592 0.000000
    2 3.247482 -0.000005 -1.130647 0.000000 0.000000 -0.000001
    3 2.952324 0.797211 2.465918 2.208361 -1.542144 -1.139077
    4 2.953360 0.815595 1.314249 -2.040361 -1.570796 0.000000
    5 2.531871 -0.036995 -2.070253 0.000000 0.000000 -0.000001
    6 1.073001 -0.000003 4.918042 0.000000 -3.141592 0.000000
    7 2.916357 0.664625 10.775771 -3.048099 0.000000 1.570796
    8 0.923057 -2.001326 -3.726057 -0.062488 -0.333819 0.188710
    9 4.337295 -3.686283 -7.104667 0.923307 -1.793925 -1.135043
    10 6.874539 4.992938 -0.294342 1.565108 -3.127410 0.718383
    11 -0.028951 -8.393264 -0.108040 -0.375184 0.454737 -0.189573
    12 -0.488518 -2.755602 -0.228260 -0.926864 0.104123 -0.205670
    13 0.039887 -1.530573 0.014229 -1.473570 -0.012212 0.032731
    14 0.028786 -1.169484 -0.124675 -1.082413 -0.015161 0.023166
    15 0.250027 -2.820665 -0.238396 -0.656416 0.070401 -0.070751
    16 -0.049759 -1.594604 0.026258 -1.644847 -0.001630 -0.043494
    17 -0.034142 -1.156125 0.057437 -0.778245 0.008377 -0.019511
    18 0.957766 -2.746780 -0.090302 0.192366 -0.212660 0.232006
    19 -0.033420 -1.397129 -0.026882 -0.840549 0.006592 -0.041348
    20 -0.022360 -0.957436 -0.000748 -0.702856 0.007562 -0.034132
    21 -1.180681 -2.507217 -0.193859 -1.000921 0.270987 -0.298350
    22 -0.024967 -1.127840 0.017597 -0.956758 0.004674 -0.041010
    23 -0.020057 -0.906594 0.033528 -1.043762 0.004698 -0.042809
    24 0.603042 -1.205090 0.189285 0.170717 -0.910476 -0.421804
    25 1.485144 -0.208511 0.067511 0.044099 -0.208064 -0.737596
    26 0.975767 -0.198604 0.051823 0.125211 -0.269176 -1.206668
    27 0.120153 -0.050270 -0.054489 0.287569 3.110905 1.561085
    28 -4.735749 -8.743086 -5.888182 0.221121 -4.149270 0.521502
    29 -0.160876 -8.423074 0.021886 -0.737486 -1.324337 0.757876
    30 0.447953 -2.798986 -0.200443 -0.992324 -0.114734 0.284281
    31 -0.032909 -1.495829 0.016659 -0.887334 0.019044 -0.012941
    32 -0.027022 -1.096452 -0.028023 -0.495635 0.013063 -0.005129
    33 -0.249534 -2.846964 -0.174213 -0.621427 -0.070091 0.006645
    34 0.043235 -1.660503 0.084293 -0.958332 -0.015717 0.001079
    35 0.031729 -1.153017 0.058838 -0.444953 -0.003900 0.005867
    36 -0.963866 -2.785145 -0.085350 -0.327228 0.157926 -0.204895
    37 0.028479 -1.403067 -0.013261 -0.730660 -0.016347 -0.028559
    38 0.021413 -0.957781 0.020046 -0.175941 -0.002013 -0.007862
    39 1.164475 -2.543940 -0.170330 -1.185212 -0.212586 0.415619
    40 0.024032 -1.132948 0.002182 -0.740783 0.003224 0.039622
    41 0.014898 -0.891802 -0.019848 -0.572799 -0.001198 0.028451
    42 -0.586770 -1.264477 0.200161 -0.055893 -0.476506 -2.809834
    43 1.554086 0.039149 0.016848 -0.012348 -0.004821 0.652882
    44 1.117947 0.048424 -0.005766 0.002322 -0.022238 -0.056550
    45 -0.037833 -0.131230 -0.106700 0.756922 0.202509 1.380917
    46 -5.393592 6.952401 -0.352718 1.580804 -0.019370 -1.023243
  time 13
    0 5.468880 -12.289434 -6.388125 -1.303511 -1.523422 -3.496797
    1 0.661211 -0.000004 -2.641094 0.000000 -3.141592 0.000000
    2 3.247482 -0.000005 -1.130647 0.000000 0.000000 -0.000001
    3 2.952324 0.797211 2.465918 2.208361 -1.542144 -1.139077
    4 2.953360 0.815595 1.314249 -2.040361 -1.570796 0.000000
    5 2.531871 -0.036995 -2.070253 0.000000 0.000000 -0.000001
    6 1.073001 -0.000003 4.918042 0.000000 -3.141592 0.000000
    7 2.916357 0.664625 10.775771 -3.048099 0.000000 1.570796
    8 0.923057 -2.001326 -3.726057 -0.062488 -0.333819 0.188710
    9 4.391985 -3.608156 -7.151544 0.981425 -1.817203 -1.188412
    10 7.062045 4.672616 -0.302155 1.565204 -3.126359 0.672640
    11 -0.028951 -8.393264 -0.108040 -0.379822 0.454336 -0.196220
    12 -0.488518 -2.755602 -0.228260 -0.926864 0.104123 -0.205670
    13 0.039887 -1.530573 0.014229 -1.473570 -0.012212 0.032731
    14 0.028786 -1.169484 -0.124675 -1.082413 -0.015161 0.023166
    15 0.250027 -2.820665 -0.238396 -0.656416 0.070401 -0.070751
    16 -0.049759 -1.594604 0.026258 -1.644847 -0.001630 -0.043494
    17 -0.034142 -1.156125 0.057437 -0.778245 0.008377 -0.019511
    18 0.957766 -2.746780 -0.090302 0.192366 -0.212660 0.232006
    19 -0.033420 -1.397129 -0.026882 -0.840549 0.006592 -0.041348
    20 -0.022360 -0.957436 -0.000748 -0.702856 0.007562 -0.034132
    21 -1.180681 -2.507217 -0.193859 -1.000921 0.270987 -0.298350
    22 -0.024967 -1.127840 0.017597 -0.956758 0.004674 -0.041010
    23 -0.020057 -0.906594 0.033528 -1.043762 0.004698 -0.042809
    24 0.603042 -1.205090 0.189285 0.170717 -0.910476 -0.421804
    25 1.485144 -0.208511 0.067511 0.044099 -0.208064 -0.737596
    26 0.975767 -0.198604 0.051823 0.125211 -0.269176 -1.206668
    27 0.120153 -0.050270 -0.054489 0.287569 3.110905 1.561085
    28 -4.610745 -8.844651 -5.751459 0.254309 -4.136758 0.564151
    29 -0.172595 -8.426980 0.017980 -0.834182 -1.367523 0.865960
    30 0.447953 -2.798986 -0.200443 -1.080608 -0.116016 0.286451
    31 -0.032909 -1.495829 0.016659 -0.937501 0.019763 -0.014176
    32 -0.027022 -1.096452 -0.028023 -0.513425 0.013471 -0.005429
    33 -0.249534 -2.846964 -0.174213 -0.688709 -0.073099 0.004763
    34 0.043235 -1.660503 0.080387 -1.014688 -0.016652 0.001691
    35 0.031729 -1.153017 0.058838 -0.444953 -0.003900 0.005867
    36 -0.963866 -2.785145 -0.085350 -0.359784 0.157230 -0.206201
    37 0.028479 -1.403067 -0.013261 -0.774906 -0.017929 -0.029782
    38 0.021413 -0.957781 0.020046 -0.175941 -0.002013 -0.007862
    39 1.164475 -2.543940 -0.170330 -1.269961 -0.216253 0.419838
    40 0.024032 -1.136855 -0.001725 -0.773654 0.004039 0.041288
    41 0.014898 -0.895708 -0.019848 -0.595607 -0.000911 0.029698
    42 -0.586770 -1.264477 0.200161 -0.073069 -0.460710 -2.781506
    43 1.557992 0.035243 0.016848 -0.014170 -0.005588 0.722307
    44 1.117947 0.048424 -0.005766 0.002681 -0.021758 -0.075216
    45 -0.037833 -0.131230 -0.106700 0.756922 0.202509 1.380917
    46 -5.366248 6.971933 -0.352718 1.580804 -0.019275 -1.027229
  time 14
    0 5.472786 -12.113647 -6.247496 -1.008893 -1.512331 -3.798800
    1 0.661211 -0.000004 -2.641094 0.000000 -3.141592 0.000000
    2 3.247482 -0.000005 -1.130647 0.000000 0.000000 -0.000001
    3 2.952324 0.797211 2.465918 2.208361 -1.542144 -1.139077
    4 2.953360 0.815595 1.314249 -2.040361 -1.570796 0.000000
    5 2.531871 -0.036995 -2.070253 0.000000 0.000000 -0.000001
    6 1.073001 -0.000003 4.918042 0.000000 -3.141592 0.000000
    7 2.916357 0.664625 10.775771 -3.048099 0.000000 1.570796
    8 0.923057 -2.001326 -3.726057 -0.062488 -0.333819 0.188710
    9 4.446674 -3.514403 -7.206233 1.025868 -1.839489 -1.228960
    10 7.233925 4.340575 -0.309968 1.565395 -3.125403 0.626825
    11 -0.028951 -8.393264 -0.108040 -0.384322 0.454154 -0.202202
    12 -0.488518 -2.755602 -0.228260 -0.926864 0.104123 -0.205670
    13 0.039887 -1.530573 0.014229 -1.473570 -0.012212 0.032731
    14 0.028786 -1.169484 -0.124675 -1.082413 -0.015161 0.023166
    15 0.250027 -2.820665 -0.238396 -0.656416 0.070401 -0.070751
    16 -0.049759 -1.594604 0.026258 -1.644847 -0.001630 -0.043494
    17 -0.034142 -1.156125 0.057437 -0.778245 0.008377 -0.019511
    18 0.957766 -2.746780 -0.090302 0.192366 -0.212660 0.232006
    19 -0.033420 -1.397129 -0.026882 -0.840549 0.006592 -0.041348
    20 -0.022360 -0.957436 -0.000748 -0.702856 0.007562 -0.034132
    21 -1.180681 -2.507217 -0.193859 -1.000921 0.270987 -0.298350
    22 -0.024967 -1.127840 0.017597 -0.956758 0.004674 -0.041010
    23 -0.020057 -0.906594 0.033528 -1.043762 0.004698 -0.042809
    24 0.603042 -1.205090 0.189285 0.170717 -0.910476 -0.421804
    25 1.485144 -0.208511 0.067511 0.044099 -0.208064 -0.737596
    26 0.975767 -0.198604 0.051823 0.125211 -0.269176 -1.206668
    27 0.120153 -0.050270 -0.054489 0.287569 3.110905 1.561085
    28 -4.673247 -8.789962 -5.798335 0.317739 -4.124114 0.636061
    29 -0.172595 -8.430887 0.021886 -0.784790 -1.367148 0.843177
    30 0.447953 -2.798986 -0.200443 -1.080608 -0.116016 0.286451
    31 -0.032909 -1.495829 0.016659 -0.937501 0.019763 -0.014176
    32 -0.027022 -1.096452 -0.028023 -0.513425 0.013471 -0.005429
    33 -0.249534 -2.846964 -0.174213 -0.688709 -0.073099 0.004763
    34 0.043235 -1.660503 0.080387 -1.014688 -0.016652 0.001691
    35 0.031729 -1.153017 0.058838 -0.444953 -0.003900 0.005867
    36 -0.963866 -2.785145 -0.085350 -0.359784 0.157230 -0.206201
    37 0.028479 -1.403067 -0.013261 -0.774906 -0.017929 -0.029782
    38 0.021413 -0.957781 0.020046 -0.175941 -0.002013 -0.007862
    39 1.164475 -2.543940 -0.170330 -1.269961 -0.216253 0.419838
    40 0.024032 -1.136855 -0.001725 -0.773654 0.004039 0.041288
    41 0.014898 -0.895708 -0.019848 -0.595607 -0.000911 0.029698
    42 -0.586770 -1.264477 0.200161 -0.073069 -0.460710 -2.781506
    43 1.557992 0.035243 0.016848 -0.014170 -0.005588 0.722307
    44 1.117947 0.048424 -0.005766 0.002681 -0.021758 -0.075216
    45 -0.037833 -0.131230 -0.106700 0.756922 0.202509 1.380917
    46 -5.741259 6.632079 -0.364437 1.580421 -0.020805 -0.966046
  time 15
    0 5.476693 -11.953486 -6.114680 -0.798002 -1.496947 -4.015557
    1 0.661211 -0.000004 -2.641094 0.000000 -3.141592 0.000000
    2 3.247482 -0.000005 -1.130647 0.000000 0.000000 -0.000001
    3 2.952324 0.797211 2.465918 2.208361 -1.542144 -1.139077
    4 2.953360 0.815595 1.314249 -2.040361 -1.570796 0.000000
    5 2.531871 -0.036995 -2.070253 0.000000 0.000000 -0.000001
    6 1.073001 -0.000003 4.918042 0.000000 -3.141592 0.000000
    7 2.916357 0.664625 10.775771 -3.048099 0.000000 1.570796
    8 0.923057 -2.001326 -3.726057 -0.062488 -0.333819 0.188710
    9 4.493550 -3.436276 -7.249203 1.060240 -1.860020 -1.259652
    10 7.370648 4.047597 -0.317781 1.565587 -3.124639 0.587061
    11 -0.028951 -8.393264 -0.108040 -0.386113 0.454446 -0.203685
    12 -0.488518 -2.755602 -0.228260 -0.926864 0.104123 -0.205670
    13 0.039887 -1.530573 0.014229 -1.473570 -0.012212 0.032731
    14 0.028786 -1.169484 -0.124675 -1.082413 -0.015161 0.023166
    15 0.250027 -2.820665 -0.238396 -0.656416 0.070401 -0.070751
    16 -0.049759 -1.594604 0.026258 -1.644847 -0.001630 -0.043494
    17 -0.034142 -1.156125 0.057437 -0.778245 0.008377 -0.019511
    18 0.957766 -2.746780 -0.090302 0.192366 -0.212660 0.232006
    19 -0.033420 -1.397129 -0.026882 -0.840549 0.006592 -0.041348
    20 -0.022360 -0.957436 -0.000748 -0.702856 0.007562 -0.034132
    21 -1.180681 -2.507217 -0.193859 -1.000921 0.270987 -0.298350
    22 -0.024967 -1.127840 0.017597 -0.956758 0.004674 -0.041010
    23 -0.020057 -0.906594 0.033528 -1.043762 0.004698 -0.042809
    24 0.603042 -1.205090 0.189285 0.170717 -0.910476 -0.421804
    25 1.485144 -0.208511 0.067511 0.044099 -0.208064 -0.737596
    26 0.975767 -0.198604 0.051823 0.125211 -0.269176 -1.206668
    27 0.120153 -0.050270 -0.054489 0.287569 3.110905 1.561085
    28 -4.708404 -8.758711 -5.813961 0.372503 -4.110579 0.698052
    29 -0.172595 -8.434793 0.021886 -0.737950 -1.364453 0.817042
    30 0.447953 -2.798986 -0.200443 -1.080608 -0.116016 0.286451
    31 -0.032909 -1.495829 0.016659 -0.937501 0.019763 -0.014176
    32 -0.027022 -1.096452 -0.028023 -0.513425 0.013471 -0.005429
    33 -0.249534 -2.846964 -0.174213 -0.688709 -0.073099 0.004763
    34 0.043235 -1.660503 0.080387 -1.014688 -0.016652 0.001691
    35 0.031729 -1.153017 0.058838 -0.444953 -0.003900 0.005867
    36 -0.963866 -2.785145 -0.085350 -0.359784 0.157230 -0.206201
    37 0.028479 -1.403067 -0.013261 -0.774906 -0.017929 -0.029782
    38 0.021413 -0.957781 0.020046 -0.175941 -0.002013 -0.007862
    39 1.164475 -2.543940 -0.170330 -1.269961 -0.216253 0.419838
    40 0.024032 -1.136855 -0.001725 -0.773654 0.004039 0.041288
    41 0.014898 -0.895708 -0.019848 -0.595607 -0.000911 0.029698
    42 -0.586770 -1.264477 0.200161 -0.073069 -0.460710 -2.781506
    43 1.557992 0.035243 0.016848 -0.014170 -0.005588 0.722307
    44 1.117947 0.048424 -0.005766 0.002681 -0.021758 -0.075216
    45 -0.037833 -0.131230 -0.106700 0.756922 0.202509 1.380917
    46 -6.022518 6.346914 -0.376156 1.579941 -0.022048 -0.917285
  time 16
    0 5.480599 -11.777699 -6.063897 -0.644349 -1.481265 -4.175035
    1 0.661211 -0.000004 -2.641094 0.000000 -3.141592 0.000000
    2 3.247482 -0.000005 -1.130647 0.000000 0.000000 -0.000001
    3 2.952324 0.797211 2.465918 2.208361 -1.542144 -1.139077
    4 2.953360 0.815595 1.314249 -2.040361 -1.570796 0.000000
    5 2.531871 -0.036995 -2.070253 0.000000 0.000000 -0.000001
    6 1.073001 -0.000003 4.918042 0.000000 -3.141592 0.000000
    7 2.916357 0.664625 10.775771 -3.048099 0.000000 1.570796
    8 0.923057 -2.001326 -3.726057 -0.062488 -0.333819 0.188710
    9 4.536520 -3.326898 -7.315611 1.082970 -1.874444 -1.280968
    10 7.499558 3.750713 -0.321687 1.565779 -3.123778 0.547154
    11 -0.028951 -8.393264 -0.108040 -0.384919 0.456302 -0.198163
    12 -0.488518 -2.755602 -0.228260 -0.926864 0.104123 -0.205670
    13 0.039887 -1.530573 0.014229 -1.473570 -0.012212 0.032731
    14 0.028786 -1.169484 -0.124675 -1.082413 -0.015161 0.023166
    15 0.250027 -2.820665 -0.238396 -0.656416 0.070401 -0.070751
    16 -0.049759 -1.594604 0.026258 -1.644847 -0.001630 -0.043494
    17 -0.034142 -1.156125 0.057437 -0.778245 0.008377 -0.019511
    18 0.957766 -2.746780 -0.090302 0.192366 -0.212660 0.232006
    19 -0.033420 -1.397129 -0.026882 -0.840549 0.006592 -0.041348
    20 -0.022360 -0.957436 -0.000748 -0.702856 0.007562 -0.034132
    21 -1.180681 -2.507217 -0.193859 -1.000921 0.270987 -0.298350
    22 -0.024967 -1.127840 0.017597 -0.956758 0.004674 -0.041010
    23 -0.020057 -0.906594 0.033528 -1.043762 0.004698 -0.042809
    24 0.603042 -1.205090 0.189285 0.170717 -0.910476 -0.421804
    25 1.485144 -0.208511 0.067511 0.044099 -0.208064 -0.737596
    26 0.975767 -0.198604 0.051823 0.125211 -0.269176 -1.206668
    27 0.120153 -0.050270 -0.054489 0.287569 3.110905 1.561085
    28 -4.763093 -8.696209 -5.872556 0.418603 -4.097175 0.752273
    29 -0.172595 -8.438699 0.021886 -0.681961 -1.359848 0.779907
    30 0.447953 -2.798986 -0.200443 -1.080608 -0.116016 0.286451
    31 -0.032909 -1.495829 0.016659 -0.937501 0.019763 -0.014176
    32 -0.027022 -1.096452 -0.028023 -0.513425 0.013471 -0.005429
    33 -0.249534 -2.846964 -0.174213 -0.688709 -0.073099 0.004763
    34 0.043235 -1.660503 0.080387 -1.014688 -0.016652 0.001691
    35 0.031729 -1.153017 0.058838 -0.444953 -0.003900 0.005867
    36 -0.963866 -2.785145 -0.085350 -0.359784 0.157230 -0.206201
    37 0.028479 -1.403067 -0.013261 -0.774906 -0.017929 -0.029782
    38 0.021413 -0.957781 0.020046 -0.175941 -0.002013 -0.007862
    39 1.164475 -2.543940 -0.170330 -1.269961 -0.216253 0.419838
    40 0.024032 -1.136855 -0.001725 -0.773654 0.004039 0.041288
    41 0.014898 -0.895708 -0.019848 -0.595607 -0.000911 0.029698
    42 -0.586770 -1.264477 0.200161 -0.073069 -0.460710 -2.781506
    43 1.557992 0.035243 0.016848 -0.014170 -0.005588 0.722307
    44 1.117947 0.048424 -0.005766 0.002681 -0.021758 -0.075216
    45 -0.037833 -0.131230 -0.106700 0.756922 0.202509 1.380917
    46 -6.311589 6.018779 -0.383969 1.579366 -0.023292 -0.864074
  time 17
    0 5.488412 -11.582381 -6.106867 -0.546359 -1.470204 -4.279439
    1 0.661211 -0.000004 -2.641094 0.000000 -3.141592 0.000000
    2 3.247482 -0.000005 -1.130647 0.000000 0.000000 -0.000001
    3 2.952324 0.797211 2.465918 2.208361 -1.542144 -1.139077
    4 2.953360 0.815595 1.314249 -2.040361 -1.570796 0.000000
    5 2.531871 -0.036995 -2.070253 0.000000 0.000000 -0.000001
    6 1.073001 -0.000003 4.918042 0.000000 -3.141592 0.000000
    7 2.916357 0.664625 10.775771 -3.048099 0.000000 1.570796
    8 0.923057 -2.001326 -3.726057 -0.062488 -0.333819 0.188710
    9 4.567771 -3.174549 -7.417177 1.095444 -1.881618 -1.294831
    10 7.612843 3.442110 -0.329500 1.566066 -3.122918 0.506742
    11 -0.028951 -8.393264 -0.108040 -0.383174 0.459069 -0.189982
    12 -0.488518 -2.755602 -0.228260 -0.926864 0.104123 -0.205670
    13 0.039887 -1.530573 0.014229 -1.473570 -0.012212 0.032731
    14 0.028786 -1.169484 -0.124675 -1.082413 -0.015161 0.023166
    15 0.250027 -2.820665 -0.238396 -0.656416 0.070401 -0.070751
    16 -0.049759 -1.594604 0.026258 -1.644847 -0.001630 -0.043494
    17 -0.034142 -1.156125 0.057437 -0.778245 0.008377 -0.019511
    18 0.957766 -2.746780 -0.090302 0.192366 -0.212660 0.232006
    19 -0.033420 -1.397129 -0.026882 -0.840549 0.006592 -0.041348
    20 -0.022360 -0.957436 -0.000748 -0.702856 0.007562 -0.034132
    21 -1.180681 -2.507217 -0.193859 -1.000921 0.270987 -0.298350
    22 -0.024967 -1.127840 0.017597 -0.956758 0.004674 -0.041010
    23 -0.020057 -0.906594 0.033528 -1.043762 0.004698 -0.042809
    24 0.603042 -1.205090 0.189285 0.170717 -0.910476 -0.421804
    25 1.485144 -0.208511 0.067511 0.044099 -0.208064 -0.737596
    26 0.975767 -0.198604 0.051823 0.125211 -0.269176 -1.206668
    27 0.120153 -0.050270 -0.054489 0.287569 3.110905 1.561085
    28 -4.849034 -8.598550 -5.989747 0.452895 -4.085918 0.795749
    29 -0.172595 -8.438699 0.025792 -0.622159 -1.355618 0.739074
    30 0.447953 -2.798986 -0.200443 -1.080608 -0.116016 0.286451
    31 -0.032909 -1.495829 0.016659 -0.937501 0.019763 -0.014176
    32 -0.027022 -1.096452 -0.028023 -0.513425 0.013471 -0.005429
    33 -0.249534 -2.846964 -0.174213 -0.688709 -0.073099 0.004763
    34 0.043235 -1.660503 0.080387 -1.014688 -0.016652 0.001691
    35 0.031729 -1.153017 0.058838 -0.444953 -0.003900 0.005867
    36 -0.963866 -2.785145 -0.085350 -0.359784 0.157230 -0.206201
    37 0.028479 -1.403067 -0.013261 -0.774906 -0.017929 -0.029782
    38 0.021413 -0.957781 0.020046 -0.175941 -0.002013 -0.007862
    39 1.164475 -2.543940 -0.170330 -1.269961 -0.216253 0.419838
    40 0.024032 -1.136855 -0.001725 -0.773654 0.004039 0.041288
    41 0.014898 -0.895708 -0.019848 -0.595607 -0.000911 0.029698
    42 -0.586770 -1.264477 0.200161 -0.073069 -0.460710 -2.781506
    43 1.557992 0.035243 0.016848 -0.014170 -0.005588 0.722307
    44 1.117947 0.048424 -0.005766 0.002681 -0.021758 -0.075216
    45 -0.037833 -0.131230 -0.106700 0.756922 0.202509 1.380917
    46 -6.620192 5.628142 -0.395688 1.578599 -0.024822 -0.803632
  time 18
    0 5.496225 -11.453471 -6.142024 -0.503384 -1.464391 -4.326181
    1 0.661211 -0.000004 -2.641094 0.000000 -3.141592 0.000000
    2 3.247482 -0.000005 -1.130647 0.000000 0.000000 -0.000001
    3 3.260927 1.355822 2.192472 2.208361 -1.542144 -1.139077
    4 3.261963 1.374206 1.040803 -2.040361 -1.570796 0.000000
    5 2.531871 -0.036995 -2.070253 0.000000 0.000000 -0.000001
    6 1.073001 -0.000003 4.918042 0.000000 -3.141592 0.000000
    7 2.916357 0.664625 10.775771 -3.048099 0.000000 1.570796
    8 0.923057 -2.001326 -3.726057 -0.062488 -0.333819 0.188710
    9 4.587303 -3.072984 -7.479679 1.102189 -1.885206 -1.302764
    10 7.683157 3.242885 -0.333406 1.566162 -3.122440 0.481097
    11 -0.028951 -8.393264 -0.108040 -0.382302 0.460453 -0.185790
    12 -0.488518 -2.755602 -0.228260 -0.926864 0.104123 -0.205670
    13 0.039887 -1.530573 0.014229 -1.473570 -0.012212 0.032731
    14 0.028786 -1.169484 -0.124675 -1.082413 -0.015161 0.023166
    15 0.250027 -2.820665 -0.238396 -0.656416 0.070401 -0.070751
    16 -0.049759 -1.594604 0.026258 -1.644847 -0.001630 -0.043494
    17 -0.034142 -1.156125 0.057437 -0.778245 0.008377 -0.019511
    18 0.957766 -2.746780 -0.090302 0.192366 -0.212660 0.232006
    19 -0.033420 -1.397129 -0.026882 -0.840549 0.006592 -0.041348
    20 -0.022360 -0.957436 -0.000748 -0.702856 0.007562 -0.034132
    21 -1.180681 -2.507217 -0.193859 -1.000921 0.270987 -0.298350
    22 -0.024967 -1.127840 0.017597 -0.956758 0.004674 -0.041010
    23 -0.020057 -0.906594 0.033528 -1.043762 0.004698 -0.042809
    24 0.603042 -1.205090 0.189285 0.170717 -0.910476 -0.421804
    25 1.485144 -0.208511 0.067511 0.044099 -0.208064 -0.737596
    26 0.975767 -0.198604 0.051823 0.125211 -0.269176 -1.206668
    27 0.120153 -0.050270 -0.054489 0.287569 3.110905 1.561085
    28 -4.903723 -8.524329 -6.071781 0.471453 -4.079315 0.820215
    29 -0.172595 -8.442606 0.025792 -0.587054 -1.353366 0.715852
    30 0.447953 -2.798986 -0.200443 -1.080608 -0.116016 0.286451
    31 -0.032909 -1.495829 0.016659 -0.937501 0.019763 -0.014176
    32 -0.027022 -1.096452 -0.028023 -0.513425 0.013471 -0.005429
    33 -0.249534 -2.846964 -0.174213 -0.688709 -0.073099 0.004763
    34 0.043235 -1.660503 0.080387 -1.014688 -0.016652 0.001691
    35 0.031729 -1.153017 0.058838 -0.444953 -0.003900 0.005867
    36 -0.963866 -2.785145 -0.085350 -0.359784 0.157230 -0.206201
    37 0.028479 -1.403067 -0.013261 -0.774906 -0.017929 -0.029782
    38 0.021413 -0.957781 0.020046 -0.175941 -0.002013 -0.007862
    39 1.164475 -2.543940 -0.170330 -1.269961 -0.216253 0.419838
    40 0.024032 -1.136855 -0.001725 -0.773654 0.004039 0.041288
    41 0.014898 -0.895708 -0.019848 -0.595607 -0.000911 0.029698
    42 -0.586770 -1.264477 0.200161 -0.073069 -0.460710 -2.781506
    43 1.557992 0.035243 0.016848 -0.014170 -0.005588 0.722307
    44 1.117947 0.048424 -0.005766 0.002681 -0.021758 -0.075216
    45 -0.037833 -0.131230 -0.106700 0.756922 0.202509 1.380917
    46 -6.799885 5.374228 -0.403501 1.578120 -0.025683 -0.765624
  time 19
    0 5.492318 -11.418313 -6.142024 -0.506441 -1.463615 -4.323690
    1 0.661211 -0.000004 -2.641094 0.000000 -3.141592 0.000000
    2 3.247482 -0.000005 -1.130647 0.000000 0.000000 -0.000001
    3 2.952324 0.797211 2.465918 2.208361 -1.542144 -1.139077
    4 2.953360 0.815595 1.314249 -2.040361 -1.570796 0.000000
    5 2.531871 -0.036995 -2.070253 0.000000 0.000000 -0.000001
    6 1.073001 -0.000003 4.918042 0.000000 -3.141592 0.000000
    7 2.916357 0.664625 10.775771 -3.048099 0.000000 1.570796
    8 0.923057 -2.001326 -3.726057 -0.062488 -0.333819 0.188710
    9 4.595116 -3.041733 -7.495304 1.105238 -1.887266 -1.305970
    10 7.702689 3.176477 -0.333406 1.566258 -3.122249 0.472669
    11 -0.028951 -8.393264 -0.108040 -0.382623 0.459907 -0.187375
    12 -0.488518 -2.755602 -0.228260 -0.926864 0.104123 -0.205670
    13 0.039887 -1.530573 0.014229 -1.473570 -0.012212 0.032731
    14 0.028786 -1.169484 -0.124675 -1.082413 -0.015161 0.023166
    15 0.250027 -2.820665 -0.238396 -0.656416 0.070401 -0.070751
    16 -0.049759 -1.594604 0.026258 -1.644847 -0.001630 -0.043494
    17 -0.034142 -1.156125 0.057437 -0.778245 0.008377 -0.019511
    18 0.957766 -2.746780 -0.090302 0.192366 -0.212660 0.232006
    19 -0.033420 -1.397129 -0.026882 -0.840549 0.006592 -0.041348
    20 -0.022360 -0.957436 -0.000748 -0.702856 0.007562 -0.034132
    21 -1.180681 -2.507217 -0.193859 -1.000921 0.270987 -0.298350
    22 -0.024967 -1.127840 0.017597 -0.956758 0.004674 -0.041010
    23 -0.020057 -0.906594 0.033528 -1.043762 0.004698 -0.042809
    24 0.603042 -1.205090 0.189285 0.170717 -0.910476 -0.421804
    25 1.485144 -0.208511 0.067511 0.044099 -0.208064 -0.737596
    26 0.975767 -0.198604 0.051823 0.125211 -0.269176 -1.206668
    27 0.120153 -0.050270 -0.054489 0.287569 3.110905 1.561085
    28 -4.919348 -8.504797 -6.095219 0.476240 -4.077565 0.826993
    29 -0.172595 -8.442606 0.025792 -0.581253 -1.354083 0.713910
    30 0.447953 -2.798986 -0.200443 -1.080608 -0.116016 0.286451
    31 -0.032909 -1.495829 0.016659 -0.937501 0.019763 -0.014176
    32 -0.027022 -1.096452 -0.028023 -0.513425 0.013471 -0.005429
    33 -0.249534 -2.846964 -0.174213 -0.688709 -0.073099 0.004763
    34 0.043235 -1.660503 0.080387 -1.014688 -0.016652 0.001691
    35 0.031729 -1.153017 0.058838 -0.444953 -0.003900 0.005867
    36 -0.963866 -2.785145 -0.085350 -0.359784 0.157230 -0.206201
    37 0.028479 -1.403067 -0.013261 -0.774906 -0.017929 -0.029782
    38 0.021413 -0.957781 0.020046 -0.175941 -0.002013 -0.007862
    39 1.164475 -2.543940 -0.170330 -1.269961 -0.216253 0.419838
    40 0.024032 -1.136855 -0.001725 -0.773654 0.004039 0.041288
    41 0.014898 -0.895708 -0.019848 -0.595607 -0.000911 0.029698
    42 -0.586770 -1.264477 0.200161 -0.073069 -0.460710 -2.781506
    43 1.557992 0.035243 0.016848 -0.014170 -0.005588 0.722307
    44 1.117947 0.048424 -0.005766 0.002681 -0.021758 -0.075216
    45 -0.037833 -0.131230 -0.106700 0.756922 0.202509 1.380917
    46 -6.850668 5.300007 -0.403501 1.578024 -0.025874 -0.754964
  time 20
    0 5.492318 -11.418313 -6.142024 -0.530521 -1.466030 -4.298787
    1 0.661211 -0.000004 -2.641094 0.000000 -3.141592 0.000000
    2 3.247482 -0.000005 -1.130647 0.000000 0.000000 -0.000001
    3 3.260927 1.355822 2.192472 2.208361 -1.542144 -1.139077
    4 3.261963 1.374206 1.040803 -2.040361 -1.570796 0.000000
    5 2.531871 -0.036995 -2.070253 0.000000 0.000000 -0.000001
    6 1.073001 -0.000003 4.918042 0.000000 -3.141592 0.000000
    7 2.916357 0.664625 10.775771 -3.048099 0.000000 1.570796
    8 0.923057 -2.001326 -3.726057 -0.062488 -0.333819 0.188710
    9 4.595116 -3.037826 -7.499210 1.105607 -1.887495 -1.306370
    10 7.706596 3.168664 -0.333406 1.566258 -3.122249 0.471588
    11 -0.028951 -8.393264 -0.108040 -0.383495 0.458596 -0.191363
    12 -0.488518 -2.755602 -0.228260 -0.926864 0.104123 -0.205670
    13 0.039887 -1.530573 0.014229 -1.473570 -0.012212 0.032731
    14 0.028786 -1.169484 -0.124675 -1.082413 -0.015161 0.023166
    15 0.250027 -2.820665 -0.238396 -0.656416 0.070401 -0.070751
    16 -0.049759 -1.594604 0.026258 -1.644847 -0.001630 -0.043494
    17 -0.034142 -1.156125 0.057437 -0.778268 0.008377 -0.019511
    18 0.957766 -2.746780 -0.090302 0.192366 -0.212660 0.232006
    19 -0.033420 -1.397129 -0.026882 -0.840549 0.006592 -0.041348
    20 -0.022360 -0.957436 -0.000748 -0.702856 0.007562 -0.034132
    21 -1.180681 -2.507217 -0.193859 -1.000921 0.270987 -0.298350
    22 -0.024967 -1.127840 0.017597 -0.956758 0.004674 -0.041010
    23 -0.020057 -0.906594 0.033528 -1.043762 0.004698 -0.042809
    24 0.603042 -1.205090 0.189285 0.170717 -0.910476 -0.421804
    25 1.485144 -0.208511 0.067511 0.044099 -0.208064 -0.737596
    26 0.975767 -0.198604 0.051823 0.125211 -0.269176 -1.206668
    27 0.120153 -0.050270 -0.054489 0.287569 3.110905 1.561085
    28 -4.919348 -8.500891 -6.103032 0.473711 -4.078556 0.824761
    29 -0.172595 -8.442606 0.025792 -0.587519 -1.356402 0.720584
    30 0.447953 -2.798986 -0.200443 -1.080608 -0.116016 0.286451
    31 -0.032909 -1.495829 0.016659 -0.937501 0.019763 -0.014176
    32 -0.027022 -1.096452 -0.028023 -0.513425 0.013471 -0.005429
    33 -0.249534 -2.846964 -0.174213 -0.688709 -0.073099 0.004763
    34 0.043235 -1.660503 0.080387 -1.014688 -0.016652 0.001691
    35 0.031729 -1.153017 0.058838 -0.444953 -0.003900 0.005867
    36 -0.963866 -2.785145 -0.085350 -0.359784 0.157230 -0.206201
    37 0.028479 -1.403067 -0.013261 -0.774906 -0.017929 -0.029782
    38 0.021413 -0.957781 0.020046 -0.175941 -0.002013 -0.007862
    39 1.164475 -2.543940 -0.170330 -1.269961 -0.216253 0.419838
    40 0.024032 -1.136855 -0.001725 -0.773654 0.004039 0.041288
    41 0.014898 -0.895708 -0.019848 -0.595607 -0.000911 0.029698
    42 -0.586770 -1.264477 0.200161 -0.073069 -0.460710 -2.781506
    43 1.557992 0.035243 0.016848 -0.014170 -0.005588 0.722307
    44 1.117947 0.048424 -0.005766 0.002681 -0.021758 -0.075216
    45 -0.037833 -0.131230 -0.106700 0.756922 0.202509 1.380917
    46 -6.850668 5.300007 -0.403501 1.578024 -0.025874 -0.754871
  time 21
    0 5.488412 -11.437845 -6.142024 -0.566735 -1.469936 -4.260952
    1 0.661211 -0.000004 -2.641094 0.000000 -3.141592 0.000000
    2 3.247482 -0.000005 -1.130647 0.000000 0.000000 -0.000001
    3 3.260927 1.355822 2.192472 2.208361 -1.542144 -1.139077
    4 3.261963 1.374206 1.040803 -2.040361 -1.570796 0.000000
    5 2.531871 -0.036995 -2.070253 0.000000 0.000000 -0.000001
    6 1.073001 -0.000003 4.918042 0.000000 -3.141592 0.000000
    7 2.916357 0.664625 10.775771 -3.048099 0.000000 1.570796
    8 0.923057 -2.001326 -3.726057 -0.062488 -0.333819 0.188710
    9 4.595116 -3.049545 -7.491398 1.104406 -1.886732 -1.305168
    10 7.698783 3.192102 -0.333406 1.566258 -3.122249 0.474758
    11 -0.028951 -8.393264 -0.108040 -0.384552 0.456921 -0.196322
    12 -0.488518 -2.755602 -0.228260 -0.926864 0.104123 -0.205670
    13 0.039887 -1.530573 0.014229 -1.473570 -0.012212 0.032731
    14 0.028786 -1.169484 -0.124675 -1.082413 -0.015161 0.023166
    15 0.250027 -2.820665 -0.238396 -0.656416 0.070401 -0.070751
    16 -0.049759 -1.594604 0.026258 -1.644847 -0.001630 -0.043494
    17 -0.034142 -1.156125 0.057437 -0.778245 0.008377 -0.019511
    18 0.957766 -2.746780 -0.090302 0.192366 -0.212660 0.232006
    19 -0.033420 -1.397129 -0.026882 -0.840549 0.006592 -0.041348
    20 -0.022360 -0.957436 -0.000748 -0.702856 0.007562 -0.034132
    21 -1.180681 -2.507217 -0.193859 -1.000921 0.270987 -0.298350
    22 -0.024967 -1.127840 0.017597 -0.956758 0.004674 -0.041010
    23 -0.020057 -0.906594 0.033528 -1.043762 0.004698 -0.042809
    24 0.603042 -1.205090 0.189285 0.170717 -0.910476 -0.421804
    25 1.485144 -0.208511 0.067511 0.044099 -0.208064 -0.737596
    26 0.975767 -0.198604 0.051823 0.125211 -0.269176 -1.206668
    27 0.120153 -0.050270 -0.054489 0.287569 3.110905 1.561085
    28 -4.915442 -8.500891 -6.106938 0.467280 -4.080999 0.817735
    29 -0.172595 -8.442606 0.025792 -0.600314 -1.359404 0.731866
    30 0.447953 -2.798986 -0.200443 -1.080608 -0.116016 0.286451
    31 -0.032909 -1.495829 0.016659 -0.937501 0.019763 -0.014176
    32 -0.027022 -1.096452 -0.028023 -0.513425 0.013471 -0.005429
    33 -0.249534 -2.846964 -0.174213 -0.688709 -0.073099 0.004763
    34 0.043235 -1.660503 0.080387 -1.014688 -0.016652 0.001691
    35 0.031729 -1.153017 0.058838 -0.444953 -0.003900 0.005867
    36 -0.963866 -2.785145 -0.085350 -0.359784 0.157230 -0.206201
    37 0.028479 -1.403067 -0.013261 -0.774906 -0.017929 -0.029782
    38 0.021413 -0.957781 0.020046 -0.175941 -0.002013 -0.007862
    39 1.164475 -2.543940 -0.170330 -1.269961 -0.216253 0.419838
    40 0.024032 -1.136855 -0.001725 -0.773654 0.004039 0.041288
    41 0.014898 -0.895708 -0.019848 -0.595607 -0.000911 0.029698
    42 -0.586770 -1.264477 0.200161 -0.073069 -0.460710 -2.781506
    43 1.557992 0.035243 0.016848 -0.014170 -0.005588 0.722307
    44 1.117947 0.048424 -0.005766 0.002681 -0.021758 -0.075216
    45 -0.037833 -0.131230 -0.106700 0.756922 0.202509 1.380917
    46 -6.827230 5.339070 -0.403501 1.578120 -0.025779 -0.760526
  time 22
    0 5.488412 -11.461283 -6.138118 -0.604245 -1.473693 -4.221969
    1 0.661211 -0.000004 -2.641094 0.000000 -3.141592 0.000000
    2 3.247482 -0.000005 -1.130647 0.000000 0.000000 -0.000001
    3 2.952324 0.797211 2.465918 2.208361 -1.542144 -1.139077
    4 2.953360 0.815595 1.314249 -2.040361 -1.570796 0.000000
    5 2.531871 -0.036995 -2.070253 0.000000 0.000000 -0.000001
    6 1.073001 -0.000003 4.918042 0.000000 -3.141592 0.000000
    7 2.916357 0.664625 10.775771 -3.048099 0.000000 1.570796
    8 0.923057 -2.001326 -3.726057 -0.062488 -0.333819 0.188710
    9 4.591209 -3.065171 -7.483585 1.102928 -1.885663 -1.303566
    10 7.687064 3.227260 -0.333406 1.566162 -3.122345 0.479008
    11 -0.028951 -8.393264 -0.108040 -0.385516 0.455392 -0.200873
    12 -0.488518 -2.755602 -0.228260 -0.926864 0.104123 -0.205670
    13 0.039887 -1.530573 0.014229 -1.473570 -0.012212 0.032731
    14 0.028786 -1.169484 -0.124675 -1.082413 -0.015161 0.023166
    15 0.250027 -2.820665 -0.238396 -0.656416 0.070401 -0.070751
    16 -0.049759 -1.594604 0.026258 -1.644847 -0.001630 -0.043494
    17 -0.034142 -1.156125 0.057437 -0.778245 0.008377 -0.019511
    18 0.957766 -2.746780 -0.090302 0.192366 -0.212660 0.232006
    19 -0.033420 -1.397129 -0.026882 -0.840549 0.006592 -0.041348
    20 -0.022360 -0.957436 -0.000748 -0.702856 0.007562 -0.034132
    21 -1.180681 -2.507217 -0.193859 -1.000921 0.270987 -0.298350
    22 -0.024967 -1.127840 0.017597 -0.956758 0.004674 -0.041010
    23 -0.020057 -0.906594 0.033528 -1.043762 0.004698 -0.042809
    24 0.603042 -1.205090 0.189285 0.170717 -0.910476 -0.421804
    25 1.485144 -0.208511 0.067511 0.044099 -0.208064 -0.737596
    26 0.975767 -0.198604 0.051823 0.125211 -0.269176 -1.206668
    27 0.120153 -0.050270 -0.054489 0.287569 3.110905 1.561085
    28 -4.911536 -8.508704 -6.103032 0.460333 -4.083574 0.809966
    29 -0.172595 -8.442606 0.025792 -0.613872 -1.362167 0.743398
    30 0.447953 -2.798986 -0.200443 -1.080608 -0.116016 0.286451
    31 -0.032909 -1.495829 0.016659 -0.937501 0.019763 -0.014176
    32 -0.027022 -1.096452 -0.028023 -0.513425 0.013471 -0.005429
    33 -0.249534 -2.846964 -0.174213 -0.688709 -0.073099 0.004763
    34 0.043235 -1.660503 0.080387 -1.014688 -0.016652 0.001691
    35 0.031729 -1.153017 0.058838 -0.444953 -0.003900 0.005867
    36 -0.963866 -2.785145 -0.085350 -0.359784 0.157230 -0.206201
    37 0.028479 -1.403067 -0.013261 -0.774906 -0.017929 -0.029782
    38 0.021413 -0.957781 0.020046 -0.175941 -0.002013 -0.007862
    39 1.164475 -2.543940 -0.170330 -1.269961 -0.216253 0.419838
    40 0.024032 -1.136855 -0.001725 -0.773654 0.004039 0.041288
    41 0.014898 -0.895708 -0.019848 -0.595607 -0.000911 0.029698
    42 -0.586770 -1.264477 0.200161 -0.073069 -0.460710 -2.781506
    43 1.557992 0.035243 0.016848 -0.014170 -0.005588 0.722307
    44 1.117947 0.048424 -0.005766 0.002681 -0.021758 -0.075216
    45 -0.037833 -0.131230 -0.106700 0.756922 0.202509 1.380917
    46 -6.792072 5.385947 -0.403501 1.578120 -0.025587 -0.767571
  time 23
    0 5.484505 -11.473002 -6.138118 -0.628326 -1.475809 -4.196970
    1 0.661211 -0.000004 -2.641094 0.000000 -3.141592 0.000000
    2 3.247482 -0.000005 -1.130647 0.000000 0.000000 -0.000001
    3 2.952324 0.797211 2.465918 2.208361 -1.542144 -1.139077
    4 2.953360 0.815595 1.314249 -2.040361 -1.570796 0.000000
    5 2.531871 -0.036995 -2.070253 0.000000 0.000000 -0.000001
    6 1.073001 -0.000003 4.918042 0.000000 -3.141592 0.000000
    7 2.916357 0.664625 10.775771 -3.048099 0.000000 1.570796
    8 0.923057 -2.001326 -3.726057 -0.062488 -0.333819 0.188710
    9 4.587303 -3.072984 -7.479679 1.102189 -1.885206 -1.302764
    10 7.683157 3.242885 -0.333406 1.566162 -3.122440 0.481097
    11 -0.028951 -8.393264 -0.108040 -0.386113 0.454446 -0.203685
    12 -0.488518 -2.755602 -0.228260 -0.926864 0.104123 -0.205670
    13 0.039887 -1.530573 0.014229 -1.473570 -0.012212 0.032731
    14 0.028786 -1.169484 -0.124675 -1.082413 -0.015161 0.023166
    15 0.250027 -2.820665 -0.238396 -0.656416 0.070401 -0.070751
    16 -0.049759 -1.594604 0.026258 -1.644847 -0.001630 -0.043494
    17 -0.034142 -1.156125 0.057437 -0.778245 0.008377 -0.019511
    18 0.957766 -2.746780 -0.090302 0.192366 -0.212660 0.232006
    19 -0.033420 -1.397129 -0.026882 -0.840549 0.006592 -0.041348
    20 -0.022360 -0.957436 -0.000748 -0.702856 0.007562 -0.034132
    21 -1.180681 -2.507217 -0.193859 -1.000921 0.270987 -0.298350
    22 -0.024967 -1.127840 0.017597 -0.956758 0.004674 -0.041010
    23 -0.020057 -0.906594 0.033528 -1.043762 0.004698 -0.042809
    24 0.603042 -1.205090 0.189285 0.170717 -0.910476 -0.421804
    25 1.485144 -0.208511 0.067511 0.044099 -0.208064 -0.737596
    26 0.975767 -0.198604 0.051823 0.125211 -0.269176 -1.206668
    27 0.120153 -0.050270 -0.054489 0.287569 3.110905 1.561085
    28 -4.907629 -8.512610 -6.103032 0.456381 -4.085026 0.805668
    29 -0.172595 -8.442606 0.025792 -0.621894 -1.363839 0.750387
    30 0.447953 -2.798986 -0.200443 -1.080608 -0.116016 0.286451
    31 -0.032909 -1.495829 0.016659 -0.937501 0.019763 -0.014176
    32 -0.027022 -1.096452 -0.028023 -0.513425 0.013471 -0.005429
    33 -0.249534 -2.846964 -0.174213 -0.688709 -0.073099 0.004763
    34 0.043235 -1.660503 0.080387 -1.014688 -0.016652 0.001691
    35 0.031729 -1.153017 0.058838 -0.444953 -0.003900 0.005867
    36 -0.963866 -2.785145 -0.085350 -0.359784 0.157230 -0.206201
    37 0.028479 -1.403067 -0.013261 -0.774906 -0.017929 -0.029782
    38 0.021413 -0.957781 0.020046 -0.175941 -0.002013 -0.007862
    39 1.164475 -2.543940 -0.170330 -1.269961 -0.216253 0.419838
    40 0.024032 -1.136855 -0.001725 -0.773654 0.004039 0.041288
    41 0.014898 -0.895708 -0.019848 -0.595607 -0.000911 0.029698
    42 -0.586770 -1.264477 0.200161 -0.073069 -0.460710 -2.781506
    43 1.557992 0.035243 0.016848 -0.014170 -0.005588 0.722307
    44 1.117947 0.048424 -0.005766 0.002681 -0.021758 -0.075216
    45 -0.037833 -0.131230 -0.106700 0.756922 0.202509 1.380917
    46 -6.776447 5.413291 -0.399594 1.578216 -0.025492 -0.771279
  time 24
    0 5.484505 -11.476909 -6.138118 -0.636939 -1.476465 -4.188062
    1 0.661211 -0.000004 -2.641094 0.000000 -3.141592 0.000000
    2 3.247482 -0.000005 -1.130647 0.000000 0.000000 -0.000001
    3 2.952324 0.797211 2.465918 2.208361 -1.542144 -1.139077
    4 2.953360 0.815595 1.314249 -2.040361 -1.570796 0.000000
    5 2.531871 -0.036995 -2.070253 0.000000 0.000000 -0.000001
    6 1.073001 -0.000003 4.918042 0.000000 -3.141592 0.000000
    7 2.916357 0.664625 10.775771 -3.048099 0.000000 1.570796
    8 0.923057 -2.001326 -3.726057 -0.062488 -0.333819 0.188710
    9 4.587303 -3.072984 -7.479679 1.102189 -1.885206 -1.302764
    10 7.683157 3.242885 -0.333406 1.566162 -3.122440 0.481097
    11 -0.028951 -8.389358 -0.108040 -0.386342 0.454081 -0.204810
    12 -0.488518 -2.755602 -0.228260 -0.926864 0.104123 -0.205670
    13 0.039887 -1.530573 0.014229 -1.473570 -0.012212 0.032731
    14 0.028786 -1.169484 -0.124675 -1.082413 -0.015161 0.023166
    15 0.250027 -2.820665 -0.238396 -0.656416 0.070401 -0.070751
    16 -0.049759 -1.594604 0.026258 -1.644847 -0.001630 -0.043494
    17 -0.034142 -1.156125 0.057437 -0.778245 0.008377 -0.019511
    18 0.957766 -2.746780 -0.090302 0.192366 -0.212660 0.232006
    19 -0.033420 -1.397129 -0.026882 -0.840549 0.006592 -0.041348
    20 -0.022360 -0.957436 -0.000748 -0.702856 0.007562 -0.034132
    21 -1.180681 -2.507217 -0.193859 -1.000921 0.270987 -0.298350
    22 -0.024967 -1.127840 0.017597 -0.956758 0.004674 -0.041010
    23 -0.020057 -0.906594 0.033528 -1.043762 0.004698 -0.042809
    24 0.603042 -1.205090 0.189285 0.170717 -0.910476 -0.421804
    25 1.485144 -0.208511 0.067511 0.044099 -0.208064 -0.737596
    26 0.975767 -0.198604 0.051823 0.125211 -0.269176 -1.206668
    27 0.120153 -0.050270 -0.054489 0.287569 3.110905 1.561085
    28 -4.907629 -8.508704 -6.106938 0.455473 -4.085356 0.804759
    29 -0.172595 -8.442606 0.025792 -0.624115 -1.364453 0.752612
    30 0.447953 -2.798986 -0.200443 -1.080608 -0.116016 0.286451
    31 -0.032909 -1.495829 0.016659 -0.937501 0.019763 -0.014176
    32 -0.027022 -1.096452 -0.028023 -0.513425 0.013471 -0.005429
    33 -0.249534 -2.846964 -0.174213 -0.688709 -0.073099 0.004763
    34 0.043235 -1.660503 0.080387 -1.014688 -0.016652 0.001691
    35 0.031729 -1.153017 0.058838 -0.444953 -0.003900 0.005867
    36 -0.963866 -2.785145 -0.085350 -0.359784 0.157230 -0.206201
    37 0.028479 -1.403067 -0.013261 -0.774906 -0.017929 -0.029782
    38 0.021413 -0.957781 0.020046 -0.175941 -0.002013 -0.007862
    39 1.164475 -2.543940 -0.170330 -1.269961 -0.216253 0.419838
    40 0.024032 -1.136855 -0.001725 -0.773654 0.004039 0.041288
    41 0.014898 -0.895708 -0.019848 -0.595607 -0.000911 0.029698
    42 -0.586770 -1.264477 0.200161 -0.073069 -0.460710 -2.781506
    43 1.557992 0.035243 0.016848 -0.014170 -0.005588 0.722307
    44 1.117947 0.048424 -0.005766 0.002681 -0.021758 -0.075216
    45 -0.037833 -0.131230 -0.106700 0.756922 0.202509 1.380917
    46 -6.772540 5.413291 -0.399594 1.578216 -0.025492 -0.771650
  time 25
    0 5.484505 -11.476909 -6.138118 -0.640274 -1.476704 -4.184614
    1 0.661211 -0.000004 -2.641094 0.000000 -3.141592 0.000000
    2 3.247482 -0.000005 -1.130647 0.000000 0.000000 -0.000001
    3 2.952324 0.797211 2.465918 2.208361 -1.542144 -1.139077
    4 2.953360 0.815595 1.314249 -2.040361 -1.570796 0.000000
    5 2.531871 -0.036995 -2.070253 0.000000 0.000000 -0.000001
    6 1.073001 -0.000003 4.918042 0.000000 -3.141592 0.000000
    7 2.916357 0.664625 10.775771 -3.048099 0.000000 1.570796
    8 0.923057 -2.001326 -3.726057 -0.062488 -0.333819 0.188710
    9 4.587303 -3.072984 -7.479679 1.102189 -1.885206 -1.302764
    10 7.683157 3.242885 -0.333406 1.566162 -3.122440 0.481097
    11 -0.028951 -8.389358 -0.108040 -0.386434 0.453936 -0.205219
    12 -0.488518 -2.755602 -0.228260 -0.926864 0.104123 -0.205670
    13 0.039887 -1.530573 0.014229 -1.473570 -0.012212 0.032731
    14 0.028786 -1.169484 -0.124675 -1.082413 -0.015161 0.023166
    15 0.250027 -2.820665 -0.238396 -0.656416 0.070401 -0.070751
    16 -0.049759 -1.594604 0.026258 -1.644847 -0.001630 -0.043494
    17 -0.034142 -1.156125 0.057437 -0.778245 0.008377 -0.019511
    18 0.957766 -2.746780 -0.090302 0.192366 -0.212660 0.232006
    19 -0.033420 -1.397129 -0.026882 -0.840549 0.006592 -0.041348
    20 -0.022360 -0.957436 -0.000748 -0.702856 0.007562 -0.034132
    21 -1.180681 -2.507217 -0.193859 -1.000921 0.270987 -0.298350
    22 -0.024967 -1.127840 0.017597 -0.956758 0.004674 -0.041010
    23 -0.020057 -0.906594 0.033528 -1.043762 0.004698 -0.042809
    24 0.603042 -1.205090 0.189285 0.170717 -0.910476 -0.421804
    25 1.485144 -0.208511 0.067511 0.044099 -0.208064 -0.737596
    26 0.975767 -0.198604 0.051823 0.125211 -0.269176 -1.206668
    27 0.120153 -0.050270 -0.054489 0.287569 3.110905 1.561085
    28 -4.907629 -8.508704 -6.106938 0.455105 -4.085488 0.804428
    29 -0.172595 -8.442606 0.025792 -0.625010 -1.364692 0.753489
    30 0.447953 -2.798986 -0.200443 -1.080608 -0.116016 0.286451
    31 -0.032909 -1.495829 0.016659 -0.937501 0.019763 -0.014176
    32 -0.027022 -1.096452 -0.028023 -0.513425 0.013471 -0.005429
    33 -0.249534 -2.846964 -0.174213 -0.688709 -0.073099 0.004763
    34 0.043235 -1.660503 0.080387 -1.014688 -0.016652 0.001691
    35 0.031729 -1.153017 0.058838 -0.444953 -0.003900 0.005867
    36 -0.963866 -2.785145 -0.085350 -0.359784 0.157230 -0.206201
    37 0.028479 -1.403067 -0.013261 -0.774906 -0.017929 -0.029782
    38 0.021413 -0.957781 0.020046 -0.175941 -0.002013 -0.007862
    39 1.164475 -2.543940 -0.170330 -1.269961 -0.216253 0.419838
    40 0.024032 -1.136855 -0.001725 -0.773654 0.004039 0.041288
    41 0.014898 -0.895708 -0.019848 -0.595607 -0.000911 0.029698
    42 -0.586770 -1.264477 0.200161 -0.073069 -0.460710 -2.781506
    43 1.557992 0.035243 0.016848 -0.014170 -0.005588 0.722307
    44 1.117947 0.048424 -0.005766 0.002681 -0.021758 -0.075216
    45 -0.037833 -0.131230 -0.106700 0.756922 0.202509 1.380917
    46 -6.772540 5.413291 -0.399594 1.578216 -0.025492 -0.771743
  time 26
    0 5.484505 -11.476909 -6.138118 -0.639811 -1.476674 -4.185092
    1 0.661211 -0.000004 -2.641094 0.000000 -3.141592 0.000000
    2 3.247482 -0.000005 -1.130647 0.000000 0.000000 -0.000001
    3 3.260927 1.355822 2.192472 2.208361 -1.542144 -1.139077
    4 3.261963 1.374206 1.040803 -2.040361 -1.570796 0.000000
    5 2.531871 -0.036995 -2.070253 0.000000 0.000000 -0.000001
    6 1.073001 -0.000003 4.918042 0.000000 -3.141592 0.000000
    7 2.916357 0.664625 10.775771 -3.048099 0.000000 1.570796
    8 0.923057 -2.001326 -3.726057 -0.062488 -0.333819 0.188710
    9 4.587303 -3.072984 -7.479679 1.102189 -1.885206 -1.302764
    10 7.683157 3.242885 -0.333406 1.566162 -3.122440 0.481097
    11 -0.028951 -8.389358 -0.108040 -0.386388 0.453972 -0.205168
    12 -0.488518 -2.755602 -0.228260 -0.926864 0.104123 -0.205670
    13 0.039887 -1.530573 0.014229 -1.473570 -0.012212 0.032731
    14 0.028786 -1.169484 -0.124675 -1.082413 -0.015161 0.023166
    15 0.250027 -2.820665 -0.238396 -0.656416 0.070401 -0.070751
    16 -0.049759 -1.594604 0.026258 -1.644847 -0.001630 -0.043494
    17 -0.034142 -1.156125 0.057437 -0.778245 0.008377 -0.019511
    18 0.957766 -2.746780 -0.090302 0.192366 -0.212660 0.232006
    19 -0.033420 -1.397129 -0.026882 -0.840549 0.006592 -0.041348
    20 -0.022360 -0.957436 -0.000748 -0.702856 0.007562 -0.034132
    21 -1.180681 -2.507217 -0.193859 -1.000921 0.270987 -0.298350
    22 -0.024967 -1.127840 0.017597 -0.956758 0.004674 -0.041010
    23 -0.020057 -0.906594 0.033528 -1.043762 0.004698 -0.042809
    24 0.603042 -1.205090 0.189285 0.170717 -0.910476 -0.421804
    25 1.485144 -0.208511 0.067511 0.044099 -0.208064 -0.737596
    26 0.975767 -0.198604 0.051823 0.125211 -0.269176 -1.206668
    27 0.120153 -0.050270 -0.054489 0.287569 3.110905 1.561085
    28 -4.907629 -8.508704 -6.106938 0.455154 -4.085488 0.804511
    29 -0.172595 -8.442606 0.025792 -0.624878 -1.364657 0.753364
    30 0.447953 -2.798986 -0.200443 -1.080608 -0.116016 0.286451
    31 -0.032909 -1.495829 0.016659 -0.937501 0.019763 -0.014176
    32 -0.027022 -1.096452 -0.028023 -0.513425 0.013471 -0.005429
    33 -0.249534 -2.846964 -0.174213 -0.688709 -0.073099 0.004763
    34 0.043235 -1.660503 0.080387 -1.014688 -0.016652 0.001691
    35 0.031729 -1.153017 0.058838 -0.444953 -0.003900 0.005867
    36 -0.963866 -2.785145 -0.085350 -0.359784 0.157230 -0.206201
    37 0.028479 -1.403067 -0.013261 -0.774906 -0.017929 -0.029782
    38 0.021413 -0.957781 0.020046 -0.175941 -0.002013 -0.007862
    39 1.164475 -2.543940 -0.170330 -1.269961 -0.216253 0.419838
    40 0.024032 -1.136855 -0.001725 -0.773654 0.004039 0.041288
    41 0.014898 -0.895708 -0.019848 -0.595607 -0.000911 0.029698
    42 -0.586770 -1.264477 0.200161 -0.073069 -0.460710 -2.781506
    43 1.557992 0.035243 0.016848 -0.014170 -0.005588 0.722307
    44 1.117947 0.048424 -0.005766 0.002681 -0.021758 -0.075216
    45 -0.037833 -0.131230 -0.106700 0.756922 0.202509 1.380917
    46 -6.772540 5.413291 -0.399594 1.578216 -0.025492 -0.771743
  time 27
    0 5.484505 -11.476909 -6.138118 -0.636939 -1.476465 -4.188062
    1 0.661211 -0.000004 -2.641094 0.000000 -3.141592 0.000000
    2 3.247482 -0.000005 -1.130647 0.000000 0.000000 -0.000001
    3 3.260927 1.355822 2.192472 2.208361 -1.542144 -1.139077
    4 3.261963 1.374206 1.040803 -2.040361 -1.570796 0.000000
    5 2.531871 -0.036995 -2.070253 0.000000 0.000000 -0.000001
    6 1.073001 -0.000003 4.918042 0.000000 -3.141592 0.000000
    7 2.916357 0.664625 10.775771 -3.048099 0.000000 1.570796
    8 0.923057 -2.001326 -3.726057 -0.062488 -0.333819 0.188710
    9 4.587303 -3.072984 -7.479679 1.102189 -1.885206 -1.302764
    10 7.683157 3.242885 -0.333406 1.566162 -3.122440 0.481097
    11 -0.028951 -8.389358 -0.108040 -0.386342 0.454081 -0.204810
    12 -0.488518 -2.755602 -0.228260 -0.926864 0.104123 -0.205670
    13 0.039887 -1.530573 0.014229 -1.473570 -0.012212 0.032731
    14 0.028786 -1.169484 -0.124675 -1.082413 -0.015161 0.023166
    15 0.250027 -2.820665 -0.238396 -0.656416 0.070401 -0.070751
    16 -0.049759 -1.594604 0.026258 -1.644847 -0.001630 -0.043494
    17 -0.034142 -1.156125 0.057437 -0.778245 0.008377 -0.019511
    18 0.957766 -2.746780 -0.090302 0.192366 -0.212660 0.232006
    19 -0.033420 -1.397129 -0.026882 -0.840549 0.006592 -0.041348
    20 -0.022360 -0.957436 -0.000748 -0.702856 0.007562 -0.034132
    21 -1.180681 -2.507217 -0.193859 -1.000921 0.270987 -0.298350
    22 -0.024967 -1.127840 0.017597 -0.956758 0.004674 -0.041010
    23 -0.020057 -0.906594 0.033528 -1.043762 0.004698 -0.042809
    24 0.603042 -1.205090 0.189285 0.170717 -0.910476 -0.421804
    25 1.485144 -0.208511 0.067511 0.044099 -0.208064 -0.737596
    26 0.975767 -0.198604 0.051823 0.125211 -0.269176 -1.206668
    27 0.120153 -0.050270 -0.054489 0.287569 3.110905 1.561085
    28 -4.907629 -8.508704 -6.106938 0.455473 -4.085356 0.804759
    29 -0.172595 -8.442606 0.025792 -0.624115 -1.364453 0.752612
    30 0.447953 -2.798986 -0.200443 -1.080608 -0.116016 0.286451
    31 -0.032909 -1.495829 0.016659 -0.937501 0.019763 -0.014176
    32 -0.027022 -1.096452 -0.028023 -0.513425 0.013471 -0.005429
    33 -0.249534 -2.846964 -0.174213 -0.688709 -0.073099 0.004763
    34 0.043235 -1.660503 0.080387 -1.014688 -0.016652 0.001691
    35 0.031729 -1.153017 0.058838 -0.444953 -0.003900 0.005867
    36 -0.963866 -2.785145 -0.085350 -0.359784 0.157230 -0.206201
    37 0.028479 -1.403067 -0.013261 -0.774906 -0.017929 -0.029782
    38 0.021413 -0.957781 0.020046 -0.175941 -0.002013 -0.007862
    39 1.164475 -2.543940 -0.170330 -1.269961 -0.216253 0.419838
    40 0.024032 -1.136855 -0.001725 -0.773654 0.004039 0.041288
    41 0.014898 -0.895708 -0.019848 -0.595607 -0.000911 0.029698
    42 -0.586770 -1.264477 0.200161 -0.073069 -0.460710 -2.781506
    43 1.557992 0.035243 0.016848 -0.014170 -0.005588 0.722307
    44 1.117947 0.048424 -0.005766 0.002681 -0.021758 -0.075216
    45 -0.037833 -0.131230 -0.106700 0.756922 0.202509 1.380917
    46 -6.772540 5.413291 -0.399594 1.578216 -0.025492 -0.771650
  time 28
    0 5.484505 -11.473002 -6.138118 -0.633049 -1.476167 -4.192085
    1 0.661211 -0.000004 -2.641094 0.000000 -3.141592 0.000000
    2 3.247482 -0.000005 -1.130647 0.000000 0.000000 -0.000001
    3 3.260927 1.355822 2.192472 2.208361 -1.542144 -1.139077
    4 3.261963 1.374206 1.040803 -2.040361 -1.570796 0.000000
    5 2.531871 -0.036995 -2.070253 0.000000 0.000000 -0.000001
    6 1.073001 -0.000003 4.918042 0.000000 -3.141592 0.000000
    7 2.916357 0.664625 10.775771 -3.048099 0.000000 1.570796
    8 0.923057 -2.001326 -3.726057 -0.062488 -0.333819 0.188710
    9 4.587303 -3.072984 -7.479679 1.102189 -1.885206 -1.302764
    10 7.683157 3.242885 -0.333406 1.566162 -3.122440 0.481097
    11 -0.028951 -8.389358 -0.108040 -0.386205 0.454227 -0.204299
    12 -0.488518 -2.755602 -0.228260 -0.926864 0.104123 -0.205670
    13 0.039887 -1.530573 0.014229 -1.473570 -0.012212 0.032731
    14 0.028786 -1.169484 -0.124675 -1.082413 -0.015161 0.023166
    15 0.250027 -2.820665 -0.238396 -0.656416 0.070401 -0.070751
    16 -0.049759 -1.594604 0.026258 -1.644847 -0.001630 -0.043494
    17 -0.034142 -1.156125 0.057437 -0.778245 0.008377 -0.019511
    18 0.957766 -2.746780 -0.090302 0.192366 -0.212660 0.232006
    19 -0.033420 -1.397129 -0.026882 -0.840549 0.006592 -0.041348
    20 -0.022360 -0.957436 -0.000748 -0.702856 0.007562 -0.034132
    21 -1.180681 -2.507217 -0.193859 -1.000921 0.270987 -0.298350
    22 -0.024967 -1.127840 0.017597 -0.956758 0.004674 -0.041010
    23 -0.020057 -0.906594 0.033528 -1.043762 0.004698 -0.042809
    24 0.603042 -1.205090 0.189285 0.170717 -0.910476 -0.421804
    25 1.485144 -0.208511 0.067511 0.044099 -0.208064 -0.737596
    26 0.975767 -0.198604 0.051823 0.125211 -0.269176 -1.206668
    27 0.120153 -0.050270 -0.054489 0.287569 3.110905 1.561085
    28 -4.907629 -8.508704 -6.103032 0.455890 -4.085224 0.805172
    29 -0.172595 -8.442606 0.025792 -0.623121 -1.364180 0.751609
    30 0.447953 -2.798986 -0.200443 -1.080608 -0.116016 0.286451
    31 -0.032909 -1.495829 0.016659 -0.937501 0.019763 -0.014176
    32 -0.027022 -1.096452 -0.028023 -0.513425 0.013471 -0.005429
    33 -0.249534 -2.846964 -0.174213 -0.688709 -0.073099 0.004763
    34 0.043235 -1.660503 0.080387 -1.014688 -0.016652 0.001691
    35 0.031729 -1.153017 0.058838 -0.444953 -0.003900 0.005867
    36 -0.963866 -2.785145 -0.085350 -0.359784 0.157230 -0.206201
    37 0.028479 -1.403067 -0.013261 -0.774906 -0.017929 -0.029782
    38 0.021413 -0.957781 0.020046 -0.175941 -0.002013 -0.007862
    39 1.164475 -2.543940 -0.170330 -1.269961 -0.216253 0.419838
    40 0.024032 -1.136855 -0.001725 -0.773654 0.004039 0.041288
    41 0.014898 -0.895708 -0.019848 -0.595607 -0.000911 0.029698
    42 -0.586770 -1.264477 0.200161 -0.073069 -0.460710 -2.781506
    43 1.557992 0.035243 0.016848 -0.014170 -0.005588 0.722307
    44 1.117947 0.048424 -0.005766 0.002681 -0.021758 -0.075216
    45 -0.037833 -0.131230 -0.106700 0.756922 0.202509 1.380917
    46 -6.776447 5.413291 -0.399594 1.578216 -0.025492 -0.771464
  time 29
    0 5.484505 -11.473002 -6.138118 -0.629715 -1.475929 -4.195533
    1 0.661211 -0.000004 -2.641094 0.000000 -3.141592 0.000000
    2 3.247482 -0.000005 -1.130647 0.000000 0.000000 -0.000001
    3 3.260927 1.355822 2.192472 2.208361 -1.542144 -1.139077
    4 3.261963 1.374206 1.040803 -2.040361 -1.570796 0.000000
    5 2.531871 -0.036995 -2.070253 0.000000 0.000000 -0.000001
    6 1.073001 -0.000003 4.918042 0.000000 -3.141592 0.000000
    7 2.916357 0.664625 10.775771 -3.048099 0.000000 1.570796
    8 0.923057 -2.001326 -3.726057 -0.062488 -0.333819 0.188710
    9 4.587303 -3.072984 -7.479679 1.102189 -1.885206 -1.302764
    10 7.683157 3.242885 -0.333406 1.566162 -3.122440 0.481097
    11 -0.028951 -8.393264 -0.108040 -0.386159 0.454373 -0.203890
    12 -0.488518 -2.755602 -0.228260 -0.926864 0.104123 -0.205670
    13 0.039887 -1.530573 0.014229 -1.473570 -0.012212 0.032731
    14 0.028786 -1.169484 -0.124675 -1.082413 -0.015161 0.023166
    15 0.250027 -2.820665 -0.238396 -0.656416 0.070401 -0.070751
    16 -0.049759 -1.594604 0.026258 -1.644847 -0.001630 -0.043494
    17 -0.034142 -1.156125 0.057437 -0.778245 0.008377 -0.019511
    18 0.957766 -2.746780 -0.090302 0.192366 -0.212660 0.232006
    19 -0.033420 -1.397129 -0.026882 -0.840549 0.006592 -0.041348
    20 -0.022360 -0.957436 -0.000748 -0.702856 0.007562 -0.034132
    21 -1.180681 -2.507217 -0.193859 -1.000921 0.270987 -0.298350
    22 -0.024967 -1.127840 0.017597 -0.956758 0.004674 -0.041010
    23 -0.020057 -0.906594 0.033528 -1.043762 0.004698 -0.042809
    24 0.603042 -1.205090 0.189285 0.170717 -0.910476 -0.421804
    25 1.485144 -0.208511 0.067511 0.044099 -0.208064 -0.737596
    26 0.975767 -0.198604 0.051823 0.125211 -0.269176 -1.206668
    27 0.120153 -0.050270 -0.054489 0.287569 3.110905 1.561085
    28 -4.907629 -8.512610 -6.103032 0.456234 -4.085092 0.805502
    29 -0.172595 -8.442606 0.025792 -0.622226 -1.363941 0.750731
    30 0.447953 -2.798986 -0.200443 -1.080608 -0.116016 0.286451
    31 -0.032909 -1.495829 0.016659 -0.937501 0.019763 -0.014176
    32 -0.027022 -1.096452 -0.028023 -0.513425 0.013471 -0.005429
    33 -0.249534 -2.846964 -0.174213 -0.688709 -0.073099 0.004763
    34 0.043235 -1.660503 0.080387 -1.014688 -0.016652 0.001691
    35 0.031729 -1.153017 0.058838 -0.444953 -0.003900 0.005867
    36 -0.963866 -2.785145 -0.085350 -0.359784 0.157230 -0.206201
    37 0.028479 -1.403067 -0.013261 -0.774906 -0.017929 -0.029782
    38 0.021413 -0.957781 0.020046 -0.175941 -0.002013 -0.007862
    39 1.164475 -2.543940 -0.170330 -1.269961 -0.216253 0.419838
    40 0.024032 -1.136855 -0.001725 -0.773654 0.004039 0.041288
    41 0.014898 -0.895708 -0.019848 -0.595607 -0.000911 0.029698
    42 -0.586770 -1.264477 0.200161 -0.073069 -0.460710 -2.781506
    43 1.557992 0.035243 0.016848 -0.014170 -0.005588 0.722307
    44 1.117947 0.048424 -0.005766 0.002681 -0.021758 -0.075216
    45 -0.037833 -0.131230 -0.106700 0.756922 0.202509 1.380917
    46 -6.776447 5.413291 -0.399594 1.578216 -0.025492 -0.771372
  time 30
    0 5.484505 -11.473002 -6.138118 -0.628326 -1.475809 -4.196970
    1 0.661211 -0.000004 -2.641094 0.000000 -3.141592 0.000000
    2 3.247482 -0.000005 -1.130647 0.000000 0.000000 -0.000001
    3 3.260927 1.355822 2.192472 2.208361 -1.542144 -1.139077
    4 3.261963 1.374206 1.040803 -2.040361 -1.570796 0.000000
    5 2.531871 -0.036995 -2.070253 0.000000 0.000000 -0.000001
    6 1.073001 -0.000003 4.918042 0.000000 -3.141592 0.000000
    7 2.916357 0.664625 10.775771 -3.048099 0.000000 1.570796
    8 0.923057 -2.001326 -3.726057 -0.062488 -0.333819 0.188710
    9 4.587303 -3.072984 -7.479679 1.102189 -1.885206 -1.302764
    10 7.683157 3.242885 -0.333406 1.566162 -3.122440 0.481097
    11 -0.028951 -8.393264 -0.108040 -0.386113 0.454446 -0.203685
    12 -0.488518 -2.755602 -0.228260 -0.926864 0.104123 -0.205670
    13 0.039887 -1.530573 0.014229 -1.473570 -0.012212 0.032731
    14 0.028786 -1.169484 -0.124675 -1.082413 -0.015161 0.023166
    15 0.250027 -2.820665 -0.238396 -0.656416 0.070401 -0.070751
    16 -0.049759 -1.594604 0.026258 -1.644847 -0.001630 -0.043494
    17 -0.034142 -1.156125 0.057437 -0.778245 0.008377 -0.019511
    18 0.957766 -2.746780 -0.090302 0.192366 -0.212660 0.232006
    19 -0.033420 -1.397129 -0.026882 -0.840549 0.006592 -0.041348
    20 -0.022360 -0.957436 -0.000748 -0.702856 0.007562 -0.034132
    21 -1.180681 -2.507217 -0.193859 -1.000921 0.270987 -0.298350
    22 -0.024967 -1.127840 0.017597 -0.956758 0.004674 -0.041010
    23 -0.020057 -0.906594 0.033528 -1.043762 0.004698 -0.042809
    24 0.603042 -1.205090 0.189285 0.170717 -0.910476 -0.421804
    25 1.485144 -0.208511 0.067511 0.044099 -0.208064 -0.737596
    26 0.975767 -0.198604 0.051823 0.125211 -0.269176 -1.206668
    27 0.120153 -0.050270 -0.054489 0.287569 3.110905 1.561085
    28 -4.907629 -8.512610 -6.103032 0.456406 -4.085026 0.805668
    29 -0.172595 -8.442606 0.025792 -0.621861 -1.363805 0.750355
    30 0.447953 -2.798986 -0.200443 -1.080608 -0.116016 0.286451
    31 -0.032909 -1.495829 0.016659 -0.937501 0.019763 -0.014176
    32 -0.027022 -1.096452 -0.028023 -0.513425 0.013471 -0.005429
    33 -0.249534 -2.846964 -0.174213 -0.688709 -0.073099 0.004763
    34 0.043235 -1.660503 0.080387 -1.014688 -0.016652 0.001691
    35 0.031729 -1.153017 0.058838 -0.444953 -0.003900 0.005867
    36 -0.963866 -2.785145 -0.085350 -0.359784 0.157230 -0.206201
    37 0.028479 -1.403067 -0.013261 -0.774906 -0.017929 -0.029782
    38 0.021413 -0.957781 0.020046 -0.175941 -0.002013 -0.007862
    39 1.164475 -2.543940 -0.170330 -1.269961 -0.216253 0.419838
    40 0.024032 -1.136855 -0.001725 -0.773654 0.004039 0.041288
    41 0.014898 -0.895708 -0.019848 -0.595607 -0.000911 0.029698
    42 -0.586770 -1.264477 0.200161 -0.073069 -0.460710 -2.781506
    43 1.557992 0.035243 0.016848 -0.014170 -0.005588 0.722307
    44 1.117947 0.048424 -0.005766 0.002681 -0.021758 -0.075216
    45 -0.037833 -0.131230 -0.106700 0.756922 0.202509 1.380917
    46 -6.776447 5.413291 -0.399594 1.578216 -0.025492 -0.771279
end
