version 1
nodes
  0 "crow5_root" -1
  1 "megazine" 0
  2 "light" 0
  3 "light01" 0
  4 "light02" 0
  5 "lightning" 0
  6 "trigger" 0
  7 "reloader" 0
  8 "root" -1
  9 "Bone01" 8
  10 "Bone_L_Upper" 9
  11 "Bone_Lefthand" 9
  12 "Bone13" 11
  13 "Bone14" 12
  14 "Bone15" 13
  15 "Bone17" 11
  16 "Bone18" 15
  17 "Bone19" 16
  18 "Bone21" 11
  19 "Bone22" 18
  20 "Bone23" 19
  21 "Bone09" 11
  22 "Bone10" 21
  23 "Bone11" 22
  24 "Bone05" 11
  25 "Bone06" 24
  26 "Bone07" 25
  27 "Bone_Se_Hand-L" 11
  28 "Bone04" 8
  29 "Bone_Righthand" 28
  30 "Bone39" 29
  31 "Bone40" 30
  32 "Bone41" 31
  33 "Bone35" 29
  34 "Bone36" 33
  35 "Bone37" 34
  36 "Bone31" 29
  37 "Bone32" 36
  38 "Bone33" 37
  39 "Bone43" 29
  40 "Bone44" 39
  41 "Bone45" 40
  42 "Bone27" 29
  43 "Bone28" 42
  44 "Bone29" 43
  45 "Bone_Se_Hand-R" 29
  46 "Bone_R_Upper" 28
end
skeleton
  time 0
    0 5.484505 -11.473002 -6.138118 -0.628326 -1.475809 -4.196970
    1 0.661211 -0.000004 -2.641094 0.000000 -3.141592 0.000000
    2 3.247482 -0.000005 -1.130647 0.000000 0.000000 -0.000001
    3 3.260927 1.355822 2.192472 2.208361 -1.542144 -1.139077
    4 3.261963 1.374206 1.040803 -2.040361 -1.570796 0.000000
    5 2.531871 -0.036995 -2.070253 0.000000 0.000000 -0.000001
    6 1.073001 -0.000003 4.918042 0.000000 -3.141592 0.000000
    7 2.916357 0.664625 10.775771 -3.048099 0.000000 1.570796
    8 0.923057 -2.001326 -3.726057 -0.062488 -0.333819 0.188710
    9 4.587303 -3.072984 -7.479679 1.102189 -1.885206 -1.302764
    10 7.683157 3.242885 -0.333406 1.566162 -3.122440 0.481097
    11 -0.028951 -8.393264 -0.108040 -0.386113 0.454446 -0.203685
    12 -0.488518 -2.755602 -0.228260 -0.926864 0.104123 -0.205670
    13 0.039887 -1.530573 0.014229 -1.473570 -0.012212 0.032731
    14 0.028786 -1.169484 -0.124675 -1.082413 -0.015161 0.023166
    15 0.250027 -2.820665 -0.238396 -0.656416 0.070401 -0.070751
    16 -0.049759 -1.594604 0.026258 -1.644847 -0.001630 -0.043494
    17 -0.034142 -1.156125 0.057437 -0.778245 0.008377 -0.019511
    18 0.957766 -2.746780 -0.090302 0.192366 -0.212660 0.232006
    19 -0.033420 -1.397129 -0.026882 -0.840549 0.006592 -0.041348
    20 -0.022360 -0.957436 -0.000748 -0.702856 0.007562 -0.034132
    21 -1.180681 -2.507217 -0.193859 -1.000921 0.270987 -0.298350
    22 -0.024967 -1.127840 0.017597 -0.956758 0.004674 -0.041010
    23 -0.020057 -0.906594 0.033528 -1.043762 0.004698 -0.042809
    24 0.603042 -1.205090 0.189285 0.170717 -0.910476 -0.421804
    25 1.485144 -0.208511 0.067511 0.044099 -0.208064 -0.737596
    26 0.975767 -0.198604 0.051823 0.125211 -0.269176 -1.206668
    27 0.120153 -0.050270 -0.054489 0.287569 3.110905 1.561085
    28 -4.907629 -8.512610 -6.103032 0.456406 -4.085026 0.805668
    29 -0.172595 -8.442606 0.025792 -0.621861 -1.363805 0.750355
    30 0.447953 -2.798986 -0.200443 -1.080608 -0.116016 0.286451
    31 -0.032909 -1.495829 0.016659 -0.937501 0.019763 -0.014176
    32 -0.027022 -1.096452 -0.028023 -0.513425 0.013471 -0.005429
    33 -0.249534 -2.846964 -0.174213 -0.688709 -0.073099 0.004763
    34 0.043235 -1.660503 0.080387 -1.014688 -0.016652 0.001691
    35 0.031729 -1.153017 0.058838 -0.444953 -0.003900 0.005867
    36 -0.963866 -2.785145 -0.085350 -0.359784 0.157230 -0.206201
    37 0.028479 -1.403067 -0.013261 -0.774906 -0.017929 -0.029782
    38 0.021413 -0.957781 0.020046 -0.175941 -0.002013 -0.007862
    39 1.164475 -2.543940 -0.170330 -1.269961 -0.216253 0.419838
    40 0.024032 -1.136855 -0.001725 -0.773654 0.004039 0.041288
    41 0.014898 -0.895708 -0.019848 -0.595607 -0.000911 0.029698
    42 -0.586770 -1.264477 0.200161 -0.073069 -0.460710 -2.781506
    43 1.557992 0.035243 0.016848 -0.014170 -0.005588 0.722307
    44 1.117947 0.048424 -0.005766 0.002681 -0.021758 -0.075216
    45 -0.037833 -0.131230 -0.106700 0.756922 0.202509 1.380917
    46 -6.776447 5.413291 -0.399594 1.578216 -0.025492 -0.771279
  time 1
    0 5.457161 -9.308874 -6.052178 -0.735207 -1.438065 -4.081072
    1 0.661211 -0.000004 -2.641094 0.000000 -3.141592 0.000000
    2 3.247482 -0.000005 -1.130647 0.000000 0.000000 -0.000001
    3 3.260927 1.355822 2.192472 2.208361 -1.542144 -1.139077
    4 3.261963 1.374206 1.040803 -2.040361 -1.570796 0.000000
    5 2.531871 -0.036995 -2.070253 0.000000 0.000000 -0.000001
    6 1.073001 -0.000003 4.918042 0.000000 -3.916668 0.000000
    7 2.549158 0.664625 6.853776 -3.048099 0.000000 1.570796
    8 0.923057 -2.001326 -3.726057 -0.062488 -0.333819 0.188710
    9 5.013097 -1.248709 -8.151574 1.206413 -1.981828 -1.404214
    10 8.003480 -0.393945 -0.392002 -1.570274 -0.027231 -3.112478
    11 -0.025045 -8.381545 -0.111947 -0.378536 0.425902 -0.285443
    12 -0.488518 -2.755602 -0.228260 -0.926864 0.104123 -0.205670
    13 0.039887 -1.530573 0.014229 -1.473570 -0.012212 0.032731
    14 0.028786 -1.169484 -0.124675 -1.082413 -0.015161 0.023166
    15 0.250027 -2.820665 -0.238396 -0.656416 0.070401 -0.070751
    16 -0.049759 -1.594604 0.026258 -1.644847 -0.001630 -0.043494
    17 -0.034142 -1.156125 0.057437 -0.778245 0.008377 -0.019511
    18 0.957766 -2.746780 -0.090302 0.191682 -0.110288 0.253974
    19 -0.033420 -1.397129 -0.034695 -1.363418 -0.006615 -0.063879
    20 -0.022360 -0.957436 -0.000748 -0.754936 0.007143 -0.036733
    21 -1.180681 -2.507217 -0.193859 -1.000921 0.270987 -0.298350
    22 -0.024967 -1.127840 0.017597 -0.956758 0.004674 -0.041010
    23 -0.020057 -0.906594 0.033528 -1.043762 0.004698 -0.042809
    24 0.603042 -1.205090 0.189285 0.170717 -0.910476 -0.421804
    25 1.485144 -0.208511 0.067511 0.044099 -0.208064 -0.737596
    26 0.975767 -0.198604 0.051823 0.125211 -0.269176 -1.206668
    27 0.120153 -0.050270 -0.054489 0.287569 3.110905 1.561085
    28 -5.419363 -7.414920 -7.017122 0.632948 -4.004209 1.104794
    29 -0.180408 -8.473857 0.029699 -0.302700 -1.397473 0.599903
    30 0.447953 -2.798986 -0.200443 -1.080608 -0.116016 0.286451
    31 -0.032909 -1.495829 0.016659 -0.937501 0.019763 -0.014176
    32 -0.027022 -1.096452 -0.028023 -0.513425 0.013471 -0.005429
    33 -0.249534 -2.846964 -0.174213 -0.688709 -0.073099 0.004763
    34 0.043235 -1.660503 0.080387 -1.014688 -0.016652 0.001691
    35 0.031729 -1.153017 0.058838 -0.444953 -0.003900 0.005867
    36 -0.963866 -2.785145 -0.085350 -0.359784 0.157230 -0.206201
    37 0.028479 -1.403067 -0.013261 -0.774906 -0.017929 -0.029782
    38 0.021413 -0.957781 0.020046 -0.175941 -0.002013 -0.007862
    39 1.164475 -2.543940 -0.170330 -1.269961 -0.216253 0.419838
    40 0.024032 -1.136855 -0.001725 -0.773654 0.004039 0.041288
    41 0.014898 -0.895708 -0.019848 -0.595607 -0.000911 0.029698
    42 -0.586770 -1.264477 0.200161 -0.073069 -0.460710 -2.781506
    43 1.557992 0.035243 0.016848 -0.014170 -0.005588 0.722307
    44 1.117947 0.048424 -0.005766 0.002681 -0.021758 -0.075216
    45 -0.037833 -0.131230 -0.106700 0.756922 0.202509 1.380917
    46 -8.159302 1.889746 -0.462096 1.569781 -0.034483 -0.307769
  time 2
    0 5.554820 -9.219027 -5.977957 -0.624621 -1.424947 -4.198119
    1 0.661211 -0.000004 -2.641094 0.000000 -3.141592 0.000000
    2 3.247482 -0.000005 -1.130647 0.000000 0.000000 -0.000001
    3 3.260927 1.355822 2.192472 2.208361 -1.542144 -1.139077
    4 3.261963 1.374206 1.040803 -2.040361 -1.570796 0.000000
    5 2.531871 -0.036995 -2.070253 0.000000 0.000000 -0.000001
    6 1.073001 -0.000003 4.918042 0.000000 -3.916668 0.000000
    7 2.674162 0.664625 8.162410 -3.048099 0.000000 1.570796
    8 0.923057 -2.001326 -3.726057 -0.062488 -0.333819 0.188710
    9 5.056067 -1.213552 -8.151574 1.204658 -1.989002 -1.391954
    10 7.987854 -0.495510 -0.392002 -1.570083 -0.027422 -3.125084
    11 -0.025045 -8.385452 -0.111947 -0.387490 0.435951 -0.273632
    12 -0.488518 -2.755602 -0.228260 -0.926864 0.104123 -0.205670
    13 0.039887 -1.530573 0.014229 -1.473570 -0.012212 0.032731
    14 0.028786 -1.169484 -0.124675 -1.082413 -0.015161 0.023166
    15 0.250027 -2.820665 -0.238396 -0.656416 0.070401 -0.070751
    16 -0.049759 -1.594604 0.026258 -1.644847 -0.001630 -0.043494
    17 -0.034142 -1.156125 0.057437 -0.778245 0.008377 -0.019511
    18 0.957766 -2.746780 -0.090302 0.191742 -0.098902 0.256395
    19 -0.033420 -1.397129 -0.034695 -1.421461 -0.008761 -0.065880
    20 -0.022360 -0.957436 -0.000748 -0.760746 0.007083 -0.037020
    21 -1.180681 -2.507217 -0.193859 -1.000921 0.270987 -0.298350
    22 -0.024967 -1.127840 0.017597 -0.956758 0.004674 -0.041010
    23 -0.020057 -0.906594 0.033528 -1.043762 0.004698 -0.042809
    24 0.603042 -1.205090 0.189285 0.170717 -0.910476 -0.421804
    25 1.485144 -0.208511 0.067511 0.044099 -0.208064 -0.737596
    26 0.975767 -0.198604 0.051823 0.125211 -0.269176 -1.206668
    27 0.120153 -0.050270 -0.054489 0.287569 3.110905 1.561085
    28 -5.360768 -7.465703 -6.962433 0.651653 -3.990311 1.132897
    29 -0.176502 -8.473857 0.033605 -0.236104 -1.384477 0.544874
    30 0.447953 -2.798986 -0.200443 -1.080608 -0.116016 0.286451
    31 -0.032909 -1.495829 0.016659 -0.937501 0.019763 -0.014176
    32 -0.027022 -1.096452 -0.028023 -0.513425 0.013471 -0.005429
    33 -0.249534 -2.846964 -0.174213 -0.688709 -0.073099 0.004763
    34 0.043235 -1.660503 0.080387 -1.014688 -0.016652 0.001691
    35 0.031729 -1.153017 0.058838 -0.444953 -0.003900 0.005867
    36 -0.963866 -2.785145 -0.085350 -0.359784 0.157230 -0.206201
    37 0.028479 -1.403067 -0.013261 -0.774906 -0.017929 -0.029782
    38 0.021413 -0.957781 0.020046 -0.175941 -0.002013 -0.007862
    39 1.164475 -2.543940 -0.170330 -1.269961 -0.216253 0.419838
    40 0.024032 -1.136855 -0.001725 -0.773654 0.004039 0.041288
    41 0.014898 -0.895708 -0.019848 -0.595607 -0.000911 0.029698
    42 -0.586770 -1.264477 0.200161 -0.073069 -0.460710 -2.781506
    43 1.557992 0.035243 0.016848 -0.014170 -0.005588 0.722307
    44 1.117947 0.048424 -0.005766 0.002681 -0.021758 -0.075216
    45 -0.037833 -0.131230 -0.106700 0.756922 0.202509 1.380917
    46 -8.167114 1.827244 -0.462096 1.569590 -0.034578 -0.300353
  time 3
    0 5.711075 -9.547162 -5.942799 -0.494493 -1.414482 -4.337483
    1 0.661211 -0.000004 -2.641094 0.000000 -3.141592 0.000000
    2 3.247482 -0.000005 -1.130647 0.000000 0.000000 -0.000001
    3 3.260927 1.355822 2.192472 2.208361 -1.542144 -1.139077
    4 3.261963 1.374206 1.040803 -2.040361 -1.570796 0.000000
    5 2.531871 -0.036995 -2.070253 0.000000 0.000000 -0.000001
    6 1.073001 -0.000003 4.918042 0.000000 -3.916668 0.000000
    7 2.795260 0.664625 9.471044 -3.048099 0.000000 1.570796
    8 0.923057 -2.001326 -3.726057 -0.062488 -0.333819 0.188710
    9 5.036536 -1.529968 -8.085166 1.190059 -1.978852 -1.365109
    10 8.054262 0.063100 -0.388095 1.570476 -3.115081 0.085621
    11 -0.025045 -8.385452 -0.108040 -0.399338 0.453244 -0.244845
    12 -0.488518 -2.755602 -0.228260 -0.926864 0.104123 -0.205670
    13 0.039887 -1.530573 0.014229 -1.473570 -0.012212 0.032731
    14 0.028786 -1.169484 -0.124675 -1.082413 -0.015161 0.023166
    15 0.250027 -2.820665 -0.238396 -0.656416 0.070401 -0.070751
    16 -0.049759 -1.594604 0.026258 -1.644847 -0.001630 -0.043494
    17 -0.034142 -1.156125 0.057437 -0.778245 0.008377 -0.019511
    18 0.957766 -2.746780 -0.090302 0.191706 -0.104595 0.255184
    19 -0.033420 -1.397129 -0.034695 -1.392462 -0.007670 -0.064898
    20 -0.022360 -0.957436 -0.000748 -0.757829 0.007107 -0.036877
    21 -1.180681 -2.507217 -0.193859 -1.000921 0.270987 -0.298350
    22 -0.024967 -1.127840 0.017597 -0.956758 0.004674 -0.041010
    23 -0.020057 -0.906594 0.033528 -1.043762 0.004698 -0.042809
    24 0.603042 -1.205090 0.189285 0.170717 -0.910476 -0.421804
    25 1.485144 -0.208511 0.067511 0.044099 -0.208064 -0.737596
    26 0.975767 -0.198604 0.051823 0.125211 -0.269176 -1.206668
    27 0.120153 -0.050270 -0.054489 0.287569 3.110905 1.561085
    28 -5.204513 -7.719617 -6.774927 0.644633 -3.993579 1.113886
    29 -0.172595 -8.469950 0.033605 -0.227982 -1.364043 0.517485
    30 0.447953 -2.798986 -0.200443 -1.080608 -0.116016 0.286451
    31 -0.032909 -1.495829 0.016659 -0.937501 0.019763 -0.014176
    32 -0.027022 -1.096452 -0.028023 -0.513425 0.013471 -0.005429
    33 -0.249534 -2.846964 -0.174213 -0.688709 -0.073099 0.004763
    34 0.043235 -1.660503 0.080387 -1.014688 -0.016652 0.001691
    35 0.031729 -1.153017 0.058838 -0.444953 -0.003900 0.005867
    36 -0.963866 -2.785145 -0.085350 -0.359784 0.157230 -0.206201
    37 0.028479 -1.403067 -0.013261 -0.774906 -0.017929 -0.029782
    38 0.021413 -0.957781 0.020046 -0.175941 -0.002013 -0.007862
    39 1.164475 -2.543940 -0.170330 -1.269961 -0.216253 0.419838
    40 0.024032 -1.136855 -0.001725 -0.773654 0.004039 0.041288
    41 0.014898 -0.895708 -0.019848 -0.595607 -0.000911 0.029698
    42 -0.586770 -1.264477 0.200161 -0.073069 -0.460710 -2.781506
    43 1.557992 0.035243 0.016848 -0.014170 -0.005588 0.722307
    44 1.117947 0.048424 -0.005766 0.002681 -0.021758 -0.075216
    45 -0.037833 -0.131230 -0.106700 0.756922 0.202509 1.380917
    46 -8.065549 2.417106 -0.454283 1.571219 -0.033430 -0.372846
  time 4
    0 5.828266 -9.820608 -5.927174 -0.413823 -1.409563 -4.426178
    1 0.661211 -0.000004 -2.641094 0.000000 -3.141592 0.000000
    2 3.247482 -0.000005 -1.130647 0.000000 0.000000 -0.000001
    3 3.260927 1.355822 2.192472 2.208361 -1.542144 -1.139077
    4 3.261963 1.374206 1.040803 -2.040361 -1.570796 0.000000
    5 2.531871 -0.036995 -2.070253 0.000000 0.000000 -0.000001
    6 1.073001 -0.000003 4.918042 0.000000 -3.916645 0.000000
    7 2.916357 0.664625 10.775771 -3.048099 0.000000 1.570796
    8 0.923057 -2.001326 -3.726057 -0.062488 -0.333819 0.188710
    9 5.013097 -1.791694 -8.014851 1.177216 -1.967404 -1.343633
    10 8.077701 0.551397 -0.380282 1.569613 -3.116133 0.145626
    11 -0.025045 -8.385452 -0.108040 -0.410313 0.466314 -0.224342
    12 -0.488518 -2.755602 -0.228260 -0.926864 0.104123 -0.205670
    13 0.039887 -1.530573 0.014229 -1.473570 -0.012212 0.032731
    14 0.028786 -1.169484 -0.124675 -1.082413 -0.015161 0.023166
    15 0.250027 -2.820665 -0.238396 -0.656416 0.070401 -0.070751
    16 -0.049759 -1.594604 0.026258 -1.644847 -0.001630 -0.043494
    17 -0.034142 -1.156125 0.057437 -0.778245 0.008377 -0.019511
    18 0.957766 -2.746780 -0.090302 0.191682 -0.110288 0.253974
    19 -0.033420 -1.397129 -0.034695 -1.363418 -0.006615 -0.063879
    20 -0.022360 -0.957436 -0.000748 -0.754936 0.007143 -0.036733
    21 -1.180681 -2.507217 -0.193859 -1.000921 0.270987 -0.298350
    22 -0.024967 -1.127840 0.017597 -0.956758 0.004674 -0.041010
    23 -0.020057 -0.906594 0.033528 -1.043762 0.004698 -0.042809
    24 0.603042 -1.205090 0.189285 0.170717 -0.910476 -0.421804
    25 1.485144 -0.208511 0.067511 0.044099 -0.208064 -0.737596
    26 0.975767 -0.198604 0.051823 0.125211 -0.269176 -1.206668
    27 0.120153 -0.050270 -0.054489 0.287569 3.110905 1.561085
    28 -5.091228 -7.899310 -6.630392 0.633685 -4.000116 1.091900
    29 -0.168689 -8.466044 0.033605 -0.222512 -1.349819 0.495486
    30 0.447953 -2.798986 -0.200443 -1.080608 -0.116016 0.286451
    31 -0.032909 -1.495829 0.016659 -0.937501 0.019763 -0.014176
    32 -0.027022 -1.096452 -0.028023 -0.513425 0.013471 -0.005429
    33 -0.249534 -2.846964 -0.174213 -0.688709 -0.073099 0.004763
    34 0.043235 -1.660503 0.080387 -1.014688 -0.016652 0.001691
    35 0.031729 -1.153017 0.058838 -0.444953 -0.003900 0.005867
    36 -0.963866 -2.785145 -0.085350 -0.359784 0.157230 -0.206201
    37 0.028479 -1.403067 -0.013261 -0.774906 -0.017929 -0.029782
    38 0.021413 -0.957781 0.020046 -0.175941 -0.002013 -0.007862
    39 1.164475 -2.543940 -0.170330 -1.269961 -0.216253 0.419838
    40 0.024032 -1.136855 -0.001725 -0.773654 0.004039 0.041288
    41 0.014898 -0.895708 -0.019848 -0.595607 -0.000911 0.029698
    42 -0.586770 -1.264477 0.200161 -0.073069 -0.460710 -2.781506
    43 1.557992 0.035243 0.016848 -0.014170 -0.005588 0.722307
    44 1.117947 0.048424 -0.005766 0.002681 -0.021758 -0.075216
    45 -0.037833 -0.131230 -0.106700 0.756922 0.202509 1.380917
    46 -7.948358 2.901496 -0.450377 1.572465 -0.032474 -0.433381
  time 5
    0 5.875142 -9.890923 -5.958425 -0.408636 -1.416152 -4.437193
    1 0.661211 -0.000004 -2.641094 0.000000 -3.141592 0.000000
    2 3.247482 -0.000005 -1.130647 0.000000 0.000000 -0.000001
    3 3.260927 1.355822 2.192472 2.208361 -1.542144 -1.139077
    4 3.261963 1.374206 1.040803 -2.040361 -1.570796 0.000000
    5 2.531871 -0.036995 -2.070253 0.000000 0.000000 -0.000001
    6 1.073001 -0.000003 4.918042 0.000000 -3.916668 0.000000
    7 2.861668 0.664625 10.178097 0.093493 3.141592 -1.570796
    8 0.923057 -2.001326 -3.726057 -0.062488 -0.333819 0.188710
    9 5.009191 -1.842477 -8.003132 1.169916 -1.959848 -1.334738
    10 8.081607 0.692026 -0.376376 1.569422 -3.116419 0.162915
    11 -0.025045 -8.385452 -0.108040 -0.420002 0.469882 -0.223166
    12 -0.488518 -2.755602 -0.228260 -0.926864 0.104123 -0.205670
    13 0.039887 -1.530573 0.014229 -1.473570 -0.012212 0.032731
    14 0.028786 -1.169484 -0.124675 -1.082413 -0.015161 0.023166
    15 0.250027 -2.820665 -0.238396 -0.656416 0.070401 -0.070751
    16 -0.049759 -1.594604 0.026258 -1.644847 -0.001630 -0.043494
    17 -0.034142 -1.156125 0.057437 -0.778245 0.008377 -0.019511
    18 0.957766 -2.746780 -0.090302 0.191694 -0.106489 0.254789
    19 -0.033420 -1.397129 -0.034695 -1.382780 -0.007323 -0.064562
    20 -0.022360 -0.957436 -0.000748 -0.756873 0.007119 -0.036829
    21 -1.180681 -2.507217 -0.193859 -1.000921 0.270987 -0.298350
    22 -0.024967 -1.127840 0.017597 -0.956758 0.004674 -0.041010
    23 -0.020057 -0.906594 0.033528 -1.043762 0.004698 -0.042809
    24 0.603042 -1.205090 0.189285 0.170717 -0.910476 -0.421804
    25 1.485144 -0.208511 0.067511 0.044099 -0.208064 -0.737596
    26 0.975767 -0.198604 0.051823 0.125211 -0.269176 -1.206668
    27 0.120153 -0.050270 -0.054489 0.287569 3.110905 1.561085
    28 -5.091228 -7.903216 -6.634298 0.625216 -4.005827 1.080577
    29 -0.168689 -8.466044 0.033605 -0.203783 -1.349102 0.475806
    30 0.447953 -2.798986 -0.200443 -1.080608 -0.116016 0.286451
    31 -0.032909 -1.495829 0.016659 -0.937501 0.019763 -0.014176
    32 -0.027022 -1.096452 -0.028023 -0.513425 0.013471 -0.005429
    33 -0.249534 -2.846964 -0.174213 -0.688709 -0.073099 0.004763
    34 0.043235 -1.660503 0.080387 -1.014688 -0.016652 0.001691
    35 0.031729 -1.153017 0.058838 -0.444953 -0.003900 0.005867
    36 -0.963866 -2.785145 -0.085350 -0.359784 0.157230 -0.206201
    37 0.028479 -1.403067 -0.013261 -0.774906 -0.017929 -0.029782
    38 0.021413 -0.957781 0.020046 -0.175941 -0.002013 -0.007862
    39 1.164475 -2.543940 -0.170330 -1.269961 -0.216253 0.419838
    40 0.024032 -1.136855 -0.001725 -0.773654 0.004039 0.041288
    41 0.014898 -0.895708 -0.019848 -0.595607 -0.000911 0.029698
    42 -0.586770 -1.264477 0.200161 -0.073069 -0.460710 -2.781506
    43 1.557992 0.035243 0.016848 -0.014170 -0.005588 0.722307
    44 1.117947 0.048424 -0.005766 0.002681 -0.021758 -0.075216
    45 -0.037833 -0.131230 -0.106700 0.756922 0.202509 1.380917
    46 -7.924919 2.975717 -0.446471 1.572657 -0.032283 -0.442929
  time 6
    0 5.882955 -9.918267 -6.028739 -0.443460 -1.430731 -4.407309
    1 0.661211 -0.000004 -2.641094 0.000000 -3.141592 0.000000
    2 3.247482 -0.000005 -1.130647 0.000000 0.000000 -0.000001
    3 3.260927 1.355822 2.192472 2.208361 -1.542144 -1.139077
    4 3.261963 1.374206 1.040803 -2.040361 -1.570796 0.000000
    5 2.531871 -0.036995 -2.070253 0.000000 0.000000 -0.000001
    6 1.073001 -0.000003 4.918042 0.000000 -3.916645 0.000000
    7 2.889012 0.664625 10.478887 -3.048099 0.000000 1.570796
    8 0.923057 -2.001326 -3.726057 -0.062488 -0.333819 0.188710
    9 4.997472 -1.838571 -8.010945 1.163079 -1.951223 -1.330250
    10 8.081607 0.758434 -0.376376 1.569326 -3.116515 0.170983
    11 -0.021138 -8.385452 -0.111947 -0.429232 0.468936 -0.230222
    12 -0.488518 -2.755602 -0.228260 -0.926864 0.104123 -0.205670
    13 0.039887 -1.530573 0.014229 -1.473570 -0.012212 0.032731
    14 0.028786 -1.169484 -0.124675 -1.082413 -0.015161 0.023166
    15 0.250027 -2.820665 -0.238396 -0.656416 0.070401 -0.070751
    16 -0.049759 -1.594604 0.026258 -1.644847 -0.001630 -0.043494
    17 -0.034142 -1.156125 0.057437 -0.778245 0.008377 -0.019511
    18 0.957766 -2.746780 -0.090302 0.191718 -0.102702 0.255592
    19 -0.033420 -1.397129 -0.034695 -1.402143 -0.008042 -0.065221
    20 -0.022360 -0.957436 -0.000748 -0.758809 0.007107 -0.036925
    21 -1.180681 -2.507217 -0.193859 -1.000921 0.270987 -0.298350
    22 -0.024967 -1.127840 0.017597 -0.956758 0.004674 -0.041010
    23 -0.020057 -0.906594 0.033528 -1.043762 0.004698 -0.042809
    24 0.603042 -1.205090 0.189285 0.170717 -0.910476 -0.421804
    25 1.485144 -0.208511 0.067511 0.044099 -0.208064 -0.737596
    26 0.975767 -0.198604 0.051823 0.125211 -0.269176 -1.206668
    27 0.120153 -0.050270 -0.054489 0.287569 3.110905 1.561085
    28 -5.142011 -7.840714 -6.700706 0.612771 -4.014410 1.065782
    29 -0.168689 -8.469950 0.033605 -0.186612 -1.355277 0.460670
    30 0.447953 -2.798986 -0.200443 -1.080608 -0.116016 0.286451
    31 -0.032909 -1.495829 0.016659 -0.937501 0.019763 -0.014176
    32 -0.027022 -1.096452 -0.028023 -0.513425 0.013471 -0.005429
    33 -0.249534 -2.846964 -0.174213 -0.688709 -0.073099 0.004763
    34 0.043235 -1.660503 0.080387 -1.014688 -0.016652 0.001691
    35 0.031729 -1.153017 0.058838 -0.444953 -0.003900 0.005867
    36 -0.963866 -2.785145 -0.085350 -0.359784 0.157230 -0.206201
    37 0.028479 -1.403067 -0.013261 -0.774906 -0.017929 -0.029782
    38 0.021413 -0.957781 0.020046 -0.175941 -0.002013 -0.007862
    39 1.164475 -2.543940 -0.170330 -1.269961 -0.216253 0.419838
    40 0.024032 -1.136855 -0.001725 -0.773654 0.004039 0.041288
    41 0.014898 -0.895708 -0.019848 -0.595607 -0.000911 0.029698
    42 -0.586770 -1.264477 0.200161 -0.073069 -0.460710 -2.781506
    43 1.557992 0.035243 0.016848 -0.014170 -0.005588 0.722307
    44 1.117947 0.048424 -0.005766 0.002681 -0.021758 -0.075216
    45 -0.037833 -0.131230 -0.106700 0.756922 0.202509 1.380917
    46 -7.936638 2.940560 -0.450377 1.572561 -0.032378 -0.438108
  time 7
    0 5.882955 -9.953425 -6.095148 -0.489862 -1.445250 -4.364781
    1 0.661211 -0.000004 -2.641094 0.000000 -3.141592 0.000000
    2 3.247482 -0.000005 -1.130647 0.000000 0.000000 -0.000001
    3 3.260927 1.355822 2.192472 2.208361 -1.542144 -1.139077
    4 3.261963 1.374206 1.040803 -2.040361 -1.570796 0.000000
    5 2.531871 -0.036995 -2.070253 0.000000 0.000000 -0.000001
    6 1.073001 -0.000003 4.918042 0.000000 -3.916645 0.000000
    7 2.916357 0.664625 10.775771 -3.048099 0.000000 1.570796
    8 0.923057 -2.001326 -3.726057 -0.062488 -0.333819 0.188710
    9 4.985753 -1.842477 -8.018758 1.156519 -1.942752 -1.326805
    10 8.077701 0.828749 -0.376376 1.569134 -3.116706 0.179627
    11 -0.021138 -8.381545 -0.111947 -0.436854 0.467079 -0.237585
    12 -0.488518 -2.755602 -0.228260 -0.926864 0.104123 -0.205670
    13 0.039887 -1.530573 0.014229 -1.473570 -0.012212 0.032731
    14 0.028786 -1.169484 -0.124675 -1.082413 -0.015161 0.023166
    15 0.250027 -2.820665 -0.238396 -0.656416 0.070401 -0.070751
    16 -0.049759 -1.594604 0.026258 -1.644847 -0.001630 -0.043494
    17 -0.034142 -1.156125 0.057437 -0.778245 0.008377 -0.019511
    18 0.957766 -2.746780 -0.090302 0.191682 -0.110288 0.253974
    19 -0.033420 -1.397129 -0.034695 -1.363418 -0.006615 -0.063879
    20 -0.022360 -0.957436 -0.000748 -0.754936 0.007143 -0.036733
    21 -1.180681 -2.507217 -0.193859 -1.000921 0.270987 -0.298350
    22 -0.024967 -1.127840 0.017597 -0.956758 0.004674 -0.041010
    23 -0.020057 -0.906594 0.033528 -1.043762 0.004698 -0.042809
    24 0.603042 -1.205090 0.189285 0.170717 -0.910476 -0.421804
    25 1.485144 -0.208511 0.067511 0.044099 -0.208064 -0.737596
    26 0.975767 -0.198604 0.051823 0.125211 -0.269176 -1.206668
    27 0.120153 -0.050270 -0.054489 0.287569 3.110905 1.561085
    28 -5.192794 -7.782119 -6.767115 0.599393 -4.023258 1.049416
    29 -0.168689 -8.469950 0.033605 -0.174943 -1.362065 0.449796
    30 0.447953 -2.798986 -0.200443 -1.080608 -0.116016 0.286451
    31 -0.032909 -1.495829 0.016659 -0.937501 0.019763 -0.014176
    32 -0.027022 -1.096452 -0.028023 -0.513425 0.013471 -0.005429
    33 -0.249534 -2.846964 -0.174213 -0.688709 -0.073099 0.004763
    34 0.043235 -1.660503 0.080387 -1.014688 -0.016652 0.001691
    35 0.031729 -1.153017 0.058838 -0.444953 -0.003900 0.005867
    36 -0.963866 -2.785145 -0.085350 -0.359784 0.157230 -0.206201
    37 0.028479 -1.403067 -0.013261 -0.774906 -0.017929 -0.029782
    38 0.021413 -0.957781 0.020046 -0.175941 -0.002013 -0.007862
    39 1.164475 -2.543940 -0.170330 -1.269961 -0.216253 0.419838
    40 0.024032 -1.136855 -0.001725 -0.773654 0.004039 0.041288
    41 0.014898 -0.895708 -0.019848 -0.595607 -0.000911 0.029698
    42 -0.586770 -1.264477 0.200161 -0.073069 -0.460710 -2.781506
    43 1.557992 0.035243 0.016848 -0.014170 -0.005588 0.722307
    44 1.117947 0.048424 -0.005766 0.002681 -0.021758 -0.075216
    45 -0.037833 -0.131230 -0.106700 0.756922 0.202509 1.380917
    46 -7.944451 2.913215 -0.450377 1.572465 -0.032378 -0.434678
  time 8
    0 5.882955 -9.988582 -6.165462 -0.546266 -1.459143 -4.312005
    1 0.661211 -0.000004 -2.641094 0.000000 -3.141592 0.000000
    2 3.247482 -0.000005 -1.130647 0.000000 0.000000 -0.000001
    3 3.260927 1.355822 2.192472 2.208361 -1.542144 -1.139077
    4 3.261963 1.374206 1.040803 -2.040361 -1.570796 0.000000
    5 2.531871 -0.036995 -2.070253 0.000000 0.000000 -0.000001
    6 1.073001 -0.000003 4.918042 0.000000 -3.658302 0.000000
    7 2.916357 0.664625 10.775771 -3.048099 0.000000 1.570796
    8 0.923057 -2.001326 -3.726057 -0.062488 -0.333819 0.188710
    9 4.970127 -1.846384 -8.022664 1.149773 -1.934356 -1.323198
    10 8.077701 0.902970 -0.372470 1.569038 -3.116802 0.188848
    11 -0.021138 -8.381545 -0.111947 -0.443972 0.465149 -0.244590
    12 -0.488518 -2.755602 -0.228260 -0.926864 0.104123 -0.205670
    13 0.039887 -1.530573 0.014229 -1.473570 -0.012212 0.032731
    14 0.028786 -1.169484 -0.124675 -1.082413 -0.015161 0.023166
    15 0.250027 -2.820665 -0.238396 -0.656416 0.070401 -0.070751
    16 -0.049759 -1.594604 0.026258 -1.644847 -0.001630 -0.043494
    17 -0.034142 -1.156125 0.057437 -0.778245 0.008377 -0.019511
    18 0.957766 -2.746780 -0.090302 0.191646 -0.142347 0.247143
    19 -0.033420 -1.397129 -0.030789 -1.199715 -0.001234 -0.057611
    20 -0.022360 -0.957436 -0.000748 -0.738626 0.007287 -0.035918
    21 -1.180681 -2.507217 -0.193859 -1.000921 0.270987 -0.298350
    22 -0.024967 -1.127840 0.017597 -0.956758 0.004674 -0.041010
    23 -0.020057 -0.906594 0.033528 -1.043762 0.004698 -0.042809
    24 0.603042 -1.205090 0.189285 0.170717 -0.910476 -0.421804
    25 1.485144 -0.208511 0.067511 0.044099 -0.208064 -0.737596
    26 0.975767 -0.198604 0.051823 0.125211 -0.269176 -1.206668
    27 0.120153 -0.050270 -0.054489 0.287569 3.110905 1.561085
    28 -5.239671 -7.727430 -6.825710 0.585572 -4.031974 1.032389
    29 -0.168689 -8.469950 0.033605 -0.164866 -1.368717 0.439924
    30 0.447953 -2.798986 -0.200443 -1.080608 -0.116016 0.286451
    31 -0.032909 -1.495829 0.016659 -0.937501 0.019763 -0.014176
    32 -0.027022 -1.096452 -0.028023 -0.513425 0.013471 -0.005429
    33 -0.249534 -2.846964 -0.174213 -0.688709 -0.073099 0.004763
    34 0.043235 -1.660503 0.080387 -1.014688 -0.016652 0.001691
    35 0.031729 -1.153017 0.058838 -0.444953 -0.003900 0.005867
    36 -0.963866 -2.785145 -0.085350 -0.359784 0.157230 -0.206201
    37 0.028479 -1.403067 -0.013261 -0.774906 -0.017929 -0.029782
    38 0.021413 -0.957781 0.020046 -0.175941 -0.002013 -0.007862
    39 1.164475 -2.543940 -0.170330 -1.269961 -0.216253 0.419838
    40 0.024032 -1.136855 -0.001725 -0.773654 0.004039 0.041288
    41 0.014898 -0.895708 -0.019848 -0.595607 -0.000911 0.029698
    42 -0.586770 -1.264477 0.200161 -0.073069 -0.460710 -2.781506
    43 1.557992 0.035243 0.016848 -0.014170 -0.005588 0.722307
    44 1.117947 0.048424 -0.005766 0.002681 -0.021758 -0.075216
    45 -0.037833 -0.131230 -0.106700 0.756922 0.202509 1.380917
    46 -7.948358 2.893683 -0.450377 1.572465 -0.032474 -0.432454
  time 9
    0 5.871236 -10.031552 -6.231871 -0.624066 -1.472589 -4.236911
    1 0.661211 -0.000004 -2.641094 0.000000 -3.141592 0.000000
    2 3.247482 -0.000005 -1.130647 0.000000 0.000000 -0.000001
    3 3.260927 1.355822 2.192472 2.208361 -1.542144 -1.139077
    4 3.261963 1.374206 1.040803 -2.040361 -1.570796 0.000000
    5 2.531871 -0.036995 -2.070253 0.000000 0.000000 -0.000001
    6 1.073001 -0.000003 4.918042 0.000000 -3.399935 0.000000
    7 2.916357 0.664625 10.775771 -3.048099 0.000000 1.570796
    8 0.923057 -2.001326 -3.726057 -0.062488 -0.333819 0.188710
    9 4.954502 -1.854196 -8.026570 1.143306 -1.926190 -1.320634
    10 8.077701 0.981097 -0.372470 1.568942 -3.116993 0.198573
    11 -0.021138 -8.377639 -0.111947 -0.449390 0.462382 -0.251953
    12 -0.488518 -2.755602 -0.228260 -0.926864 0.104123 -0.205670
    13 0.039887 -1.530573 0.014229 -1.473570 -0.012212 0.032731
    14 0.028786 -1.169484 -0.124675 -1.082413 -0.015161 0.023166
    15 0.250027 -2.820665 -0.238396 -0.656416 0.070401 -0.070751
    16 -0.049759 -1.594604 0.026258 -1.644847 -0.001630 -0.043494
    17 -0.034142 -1.156125 0.057437 -0.778245 0.008377 -0.019511
    18 0.957766 -2.746780 -0.090302 0.191958 -0.185767 0.237819
    19 -0.033420 -1.397129 -0.026882 -0.977881 0.004290 -0.047891
    20 -0.022360 -0.957436 -0.000748 -0.716529 0.007466 -0.034815
    21 -1.180681 -2.507217 -0.193859 -1.000921 0.270987 -0.298350
    22 -0.024967 -1.127840 0.017597 -0.956758 0.004674 -0.041010
    23 -0.020057 -0.906594 0.033528 -1.043762 0.004698 -0.042809
    24 0.603042 -1.205090 0.189285 0.170717 -0.910476 -0.421804
    25 1.485144 -0.208511 0.067511 0.044099 -0.208064 -0.737596
    26 0.975767 -0.198604 0.051823 0.125211 -0.269176 -1.206668
    27 0.120153 -0.050270 -0.054489 0.287569 3.110905 1.561085
    28 -5.286547 -7.668834 -6.884306 0.570697 -4.040887 1.013627
    29 -0.172595 -8.473857 0.033605 -0.160987 -1.376119 0.435004
    30 0.447953 -2.798986 -0.200443 -1.080608 -0.116016 0.286451
    31 -0.032909 -1.495829 0.016659 -0.937501 0.019763 -0.014176
    32 -0.027022 -1.096452 -0.028023 -0.513425 0.013471 -0.005429
    33 -0.249534 -2.846964 -0.174213 -0.688709 -0.073099 0.004763
    34 0.043235 -1.660503 0.080387 -1.014688 -0.016652 0.001691
    35 0.031729 -1.153017 0.058838 -0.444953 -0.003900 0.005867
    36 -0.963866 -2.785145 -0.085350 -0.359784 0.157230 -0.206201
    37 0.028479 -1.403067 -0.013261 -0.774906 -0.017929 -0.029782
    38 0.021413 -0.957781 0.020046 -0.175941 -0.002013 -0.007862
    39 1.164475 -2.543940 -0.170330 -1.269961 -0.216253 0.419838
    40 0.024032 -1.136855 -0.001725 -0.773654 0.004039 0.041288
    41 0.014898 -0.895708 -0.019848 -0.595607 -0.000911 0.029698
    42 -0.586770 -1.264477 0.200161 -0.073069 -0.460710 -2.781506
    43 1.557992 0.035243 0.016848 -0.014170 -0.005588 0.722307
    44 1.117947 0.048424 -0.005766 0.002681 -0.021758 -0.075216
    45 -0.037833 -0.131230 -0.106700 0.756922 0.202509 1.380917
    46 -7.952264 2.885870 -0.450377 1.572465 -0.032474 -0.431434
  time 10
    0 5.847798 -10.129211 -6.270934 -0.676117 -1.479953 -4.184422
    1 0.661211 -0.000004 -2.641094 0.000000 -3.141592 0.000000
    2 3.247482 -0.000005 -1.130647 0.000000 0.000000 -0.000001
    3 3.260927 1.355822 2.192472 2.208361 -1.542144 -1.139077
    4 3.261963 1.374206 1.040803 -2.040361 -1.570796 0.000000
    5 2.531871 -0.036995 -2.070253 0.000000 0.000000 -0.000001
    6 1.073001 -0.000003 4.918042 0.000000 -3.141592 0.000000
    7 2.916357 0.664625 10.775771 -3.048099 0.000000 1.570796
    8 0.923057 -2.001326 -3.726057 -0.062488 -0.333819 0.188710
    9 4.927157 -1.924511 -8.010945 1.138224 -1.919626 -1.318871
    10 8.069888 1.141258 -0.372470 1.568751 -3.117375 0.218022
    11 -0.021138 -8.377639 -0.111947 -0.449069 0.460416 -0.253640
    12 -0.488518 -2.755602 -0.228260 -0.926864 0.104123 -0.205670
    13 0.039887 -1.530573 0.014229 -1.473570 -0.012212 0.032731
    14 0.028786 -1.169484 -0.124675 -1.082413 -0.015161 0.023166
    15 0.250027 -2.820665 -0.238396 -0.656416 0.070401 -0.070751
    16 -0.049759 -1.594604 0.026258 -1.644847 -0.001630 -0.043494
    17 -0.034142 -1.156125 0.057437 -0.778245 0.008377 -0.019511
    18 0.957766 -2.746780 -0.090302 0.192366 -0.212660 0.232006
    19 -0.033420 -1.397129 -0.026882 -0.840549 0.006592 -0.041348
    20 -0.022360 -0.957436 -0.000748 -0.702856 0.007562 -0.034132
    21 -1.180681 -2.507217 -0.193859 -1.000921 0.270987 -0.298350
    22 -0.024967 -1.127840 0.017597 -0.956758 0.004674 -0.041010
    23 -0.020057 -0.906594 0.033528 -1.043762 0.004698 -0.042809
    24 0.603042 -1.205090 0.189285 0.170717 -0.910476 -0.421804
    25 1.485144 -0.208511 0.067511 0.044099 -0.208064 -0.737596
    26 0.975767 -0.198604 0.051823 0.125211 -0.269176 -1.206668
    27 0.120153 -0.050270 -0.054489 0.287569 3.110905 1.561085
    28 -5.298266 -7.684460 -6.884306 0.557000 -4.048084 0.993128
    29 -0.172595 -8.469950 0.033605 -0.184092 -1.380417 0.450360
    30 0.447953 -2.798986 -0.200443 -1.080608 -0.116016 0.286451
    31 -0.032909 -1.495829 0.016659 -0.937501 0.019763 -0.014176
    32 -0.027022 -1.096452 -0.028023 -0.513425 0.013471 -0.005429
    33 -0.249534 -2.846964 -0.174213 -0.688709 -0.073099 0.004763
    34 0.043235 -1.660503 0.080387 -1.014688 -0.016652 0.001691
    35 0.031729 -1.153017 0.058838 -0.444953 -0.003900 0.005867
    36 -0.963866 -2.785145 -0.085350 -0.359784 0.157230 -0.206201
    37 0.028479 -1.403067 -0.013261 -0.774906 -0.017929 -0.029782
    38 0.021413 -0.957781 0.020046 -0.175941 -0.002013 -0.007862
    39 1.164475 -2.543940 -0.170330 -1.269961 -0.216253 0.419838
    40 0.024032 -1.136855 -0.001725 -0.773654 0.004039 0.041288
    41 0.014898 -0.895708 -0.019848 -0.595607 -0.000911 0.029698
    42 -0.586770 -1.264477 0.200161 -0.073069 -0.460710 -2.781506
    43 1.557992 0.035243 0.016848 -0.014170 -0.005588 0.722307
    44 1.117947 0.048424 -0.005766 0.002681 -0.021758 -0.075216
    45 -0.037833 -0.131230 -0.106700 0.756922 0.202509 1.380917
    46 -7.917107 3.010874 -0.446471 1.572753 -0.032187 -0.447193
  time 11
    0 5.812640 -10.293279 -6.278747 -0.685749 -1.481891 -4.171491
    1 0.661211 -0.000004 -2.641094 0.000000 -3.141592 0.000000
    2 3.247482 -0.000005 -1.130647 0.000000 0.000000 -0.000001
    3 3.260927 1.355822 2.192472 2.208361 -1.542144 -1.139077
    4 3.261963 1.374206 1.040803 -2.040361 -1.570796 0.000000
    5 2.531871 -0.036995 -2.070253 0.000000 0.000000 -0.000001
    6 1.073001 -0.000003 4.918042 0.000000 -3.141592 0.000000
    7 2.916357 0.664625 10.775771 -3.048099 0.000000 1.570796
    8 0.923057 -2.001326 -3.726057 -0.062488 -0.333819 0.188710
    9 4.888093 -2.061234 -7.964068 1.133881 -1.914208 -1.317349
    10 8.054262 1.391266 -0.368563 1.568367 -3.117949 0.248854
    11 -0.021138 -8.381545 -0.111947 -0.443145 0.459470 -0.249345
    12 -0.488518 -2.755602 -0.228260 -0.926864 0.104123 -0.205670
    13 0.039887 -1.530573 0.014229 -1.473570 -0.012212 0.032731
    14 0.028786 -1.169484 -0.124675 -1.082413 -0.015161 0.023166
    15 0.250027 -2.820665 -0.238396 -0.656416 0.070401 -0.070751
    16 -0.049759 -1.594604 0.026258 -1.644847 -0.001630 -0.043494
    17 -0.034142 -1.156125 0.057437 -0.778245 0.008377 -0.019511
    18 0.957766 -2.746780 -0.090302 0.192497 -0.219779 0.230460
    19 -0.033420 -1.393223 -0.022976 -0.804147 0.007047 -0.039562
    20 -0.022360 -0.957436 -0.000748 -0.699216 0.007586 -0.033952
    21 -1.180681 -2.507217 -0.193859 -1.000921 0.270987 -0.298350
    22 -0.024967 -1.127840 0.017597 -0.956758 0.004674 -0.041010
    23 -0.020057 -0.906594 0.033528 -1.043762 0.004698 -0.042809
    24 0.603042 -1.205090 0.189285 0.170717 -0.910476 -0.421804
    25 1.485144 -0.208511 0.067511 0.044099 -0.208064 -0.737596
    26 0.975767 -0.198604 0.051823 0.125211 -0.269176 -1.206668
    27 0.120153 -0.050270 -0.054489 0.287569 3.110905 1.561085
    28 -5.263109 -7.770400 -6.821804 0.544014 -4.053829 0.969985
    29 -0.172595 -8.466044 0.033605 -0.235242 -1.381270 0.486617
    30 0.447953 -2.798986 -0.200443 -1.080608 -0.116016 0.286451
    31 -0.032909 -1.495829 0.016659 -0.937501 0.019763 -0.014176
    32 -0.027022 -1.096452 -0.028023 -0.513425 0.013471 -0.005429
    33 -0.249534 -2.846964 -0.174213 -0.688709 -0.073099 0.004763
    34 0.043235 -1.660503 0.080387 -1.014688 -0.016652 0.001691
    35 0.031729 -1.153017 0.058838 -0.444953 -0.003900 0.005867
    36 -0.963866 -2.785145 -0.085350 -0.359784 0.157230 -0.206201
    37 0.028479 -1.403067 -0.013261 -0.774906 -0.017929 -0.029782
    38 0.021413 -0.957781 0.020046 -0.175941 -0.002013 -0.007862
    39 1.164475 -2.543940 -0.170330 -1.269961 -0.216253 0.419838
    40 0.024032 -1.136855 -0.001725 -0.773654 0.004039 0.041288
    41 0.014898 -0.895708 -0.019848 -0.595607 -0.000911 0.029698
    42 -0.586770 -1.264477 0.200161 -0.073069 -0.460710 -2.781506
    43 1.557992 0.035243 0.016848 -0.014170 -0.005588 0.722307
    44 1.117947 0.048424 -0.005766 0.002681 -0.021758 -0.075216
    45 -0.037833 -0.131230 -0.106700 0.756922 0.202509 1.380917
    46 -7.835073 3.276507 -0.442564 1.573424 -0.031613 -0.481122
  time 12
    0 5.769670 -10.484691 -6.278747 -0.685008 -1.482547 -4.167660
    1 0.661211 -0.000004 -2.641094 0.000000 -3.141592 0.000000
    2 3.247482 -0.000005 -1.130647 0.000000 0.000000 -0.000001
    3 3.260927 1.355822 2.192472 2.208361 -1.542144 -1.139077
    4 3.261963 1.374206 1.040803 -2.040361 -1.570796 0.000000
    5 2.531871 -0.036995 -2.070253 0.000000 0.000000 -0.000001
    6 1.073001 -0.000003 4.918042 0.000000 -3.141592 0.000000
    7 2.916357 0.664625 10.775771 -3.048099 0.000000 1.570796
    8 0.923057 -2.001326 -3.726057 -0.062488 -0.333819 0.188710
    9 4.841217 -2.221395 -7.905473 1.129261 -1.908789 -1.315666
    10 8.023011 1.684244 -0.360751 1.567984 -3.118618 0.285016
    11 -0.025045 -8.381545 -0.111947 -0.435155 0.458560 -0.243260
    12 -0.488518 -2.755602 -0.228260 -0.926864 0.104123 -0.205670
    13 0.039887 -1.530573 0.014229 -1.473570 -0.012212 0.032731
    14 0.028786 -1.169484 -0.124675 -1.082413 -0.015161 0.023166
    15 0.250027 -2.820665 -0.238396 -0.656416 0.070401 -0.070751
    16 -0.049759 -1.594604 0.026258 -1.644847 -0.001630 -0.043494
    17 -0.034142 -1.156125 0.057437 -0.778245 0.008377 -0.019511
    18 0.957766 -2.746780 -0.090302 0.192569 -0.223123 0.229729
    19 -0.033420 -1.393223 -0.022976 -0.787062 0.007239 -0.038723
    20 -0.022360 -0.957436 -0.000748 -0.697512 0.007598 -0.033868
    21 -1.180681 -2.507217 -0.193859 -1.000921 0.270987 -0.298350
    22 -0.024967 -1.127840 0.017597 -0.956758 0.004674 -0.041010
    23 -0.020057 -0.906594 0.033528 -1.043762 0.004698 -0.042809
    24 0.603042 -1.205090 0.189285 0.170717 -0.910476 -0.421804
    25 1.485144 -0.208511 0.067511 0.044099 -0.208064 -0.737596
    26 0.975767 -0.198604 0.051823 0.125211 -0.269176 -1.206668
    27 0.120153 -0.050270 -0.054489 0.287569 3.110905 1.561085
    28 -5.216232 -7.879778 -6.735864 0.530022 -4.059507 0.944031
    29 -0.172595 -8.462138 0.029699 -0.297794 -1.380861 0.531054
    30 0.447953 -2.798986 -0.200443 -1.080608 -0.116016 0.286451
    31 -0.032909 -1.495829 0.016659 -0.937501 0.019763 -0.014176
    32 -0.027022 -1.096452 -0.028023 -0.513425 0.013471 -0.005429
    33 -0.249534 -2.846964 -0.174213 -0.688709 -0.073099 0.004763
    34 0.043235 -1.660503 0.080387 -1.014688 -0.016652 0.001691
    35 0.031729 -1.153017 0.058838 -0.444953 -0.003900 0.005867
    36 -0.963866 -2.785145 -0.085350 -0.359784 0.157230 -0.206201
    37 0.028479 -1.403067 -0.013261 -0.774906 -0.017929 -0.029782
    38 0.021413 -0.957781 0.020046 -0.175941 -0.002013 -0.007862
    39 1.164475 -2.543940 -0.170330 -1.269961 -0.216253 0.419838
    40 0.024032 -1.136855 -0.001725 -0.773654 0.004039 0.041288
    41 0.014898 -0.895708 -0.019848 -0.595607 -0.000911 0.029698
    42 -0.586770 -1.264477 0.200161 -0.073069 -0.460710 -2.781506
    43 1.557992 0.035243 0.016848 -0.014170 -0.005588 0.722307
    44 1.117947 0.048424 -0.005766 0.002681 -0.021758 -0.075216
    45 -0.037833 -0.131230 -0.106700 0.756922 0.202509 1.380917
    46 -7.721788 3.604642 -0.438658 1.574190 -0.030848 -0.522931
  time 13
    0 5.722794 -10.687822 -6.263122 -0.677043 -1.482160 -4.170438
    1 0.661211 -0.000004 -2.641094 0.000000 -3.141592 0.000000
    2 3.247482 -0.000005 -1.130647 0.000000 0.000000 -0.000001
    3 3.260927 1.355822 2.192472 2.208361 -1.542144 -1.139077
    4 3.261963 1.374206 1.040803 -2.040361 -1.570796 0.000000
    5 2.531871 -0.036995 -2.070253 0.000000 0.000000 -0.000001
    6 1.073001 -0.000003 4.918042 0.000000 -3.141592 0.000000
    7 2.916357 0.664625 10.775771 -3.048099 0.000000 1.570796
    8 0.923057 -2.001326 -3.726057 -0.062488 -0.333819 0.188710
    9 4.794341 -2.393275 -7.831252 1.124364 -1.903523 -1.313662
    10 7.980041 2.000660 -0.356844 1.567504 -3.119287 0.324131
    11 -0.025045 -8.381545 -0.111947 -0.425879 0.457759 -0.235898
    12 -0.488518 -2.755602 -0.228260 -0.926864 0.104123 -0.205670
    13 0.039887 -1.530573 0.014229 -1.473570 -0.012212 0.032731
    14 0.028786 -1.169484 -0.124675 -1.082413 -0.015161 0.023166
    15 0.250027 -2.820665 -0.238396 -0.656416 0.070401 -0.070751
    16 -0.049759 -1.594604 0.026258 -1.644847 -0.001630 -0.043494
    17 -0.034142 -1.156125 0.057437 -0.778245 0.008377 -0.019511
    18 0.957766 -2.746780 -0.090302 0.192569 -0.223566 0.229633
    19 -0.033420 -1.393223 -0.022976 -0.784828 0.007263 -0.038615
    20 -0.022360 -0.957436 -0.000748 -0.697302 0.007598 -0.033856
    21 -1.180681 -2.507217 -0.193859 -1.000921 0.270987 -0.298350
    22 -0.024967 -1.127840 0.017597 -0.956758 0.004674 -0.041010
    23 -0.020057 -0.906594 0.033528 -1.043762 0.004698 -0.042809
    24 0.603042 -1.205090 0.189285 0.170717 -0.910476 -0.421804
    25 1.485144 -0.208511 0.067511 0.044099 -0.208064 -0.737596
    26 0.975767 -0.198604 0.051823 0.125211 -0.269176 -1.206668
    27 0.120153 -0.050270 -0.054489 0.287569 3.110905 1.561085
    28 -5.161543 -8.004782 -6.626485 0.515515 -4.065020 0.916673
    29 -0.172595 -8.458231 0.029699 -0.365949 -1.379223 0.579126
    30 0.447953 -2.798986 -0.200443 -1.080608 -0.116016 0.286451
    31 -0.032909 -1.495829 0.016659 -0.937501 0.019763 -0.014176
    32 -0.027022 -1.096452 -0.028023 -0.513425 0.013471 -0.005429
    33 -0.249534 -2.846964 -0.174213 -0.688709 -0.073099 0.004763
    34 0.043235 -1.660503 0.080387 -1.014688 -0.016652 0.001691
    35 0.031729 -1.153017 0.058838 -0.444953 -0.003900 0.005867
    36 -0.963866 -2.785145 -0.085350 -0.359784 0.157230 -0.206201
    37 0.028479 -1.403067 -0.013261 -0.774906 -0.017929 -0.029782
    38 0.021413 -0.957781 0.020046 -0.175941 -0.002013 -0.007862
    39 1.164475 -2.543940 -0.170330 -1.269961 -0.216253 0.419838
    40 0.024032 -1.136855 -0.001725 -0.773654 0.004039 0.041288
    41 0.014898 -0.895708 -0.019848 -0.595607 -0.000911 0.029698
    42 -0.586770 -1.264477 0.200161 -0.073069 -0.460710 -2.781506
    43 1.557992 0.035243 0.016848 -0.014170 -0.005588 0.722307
    44 1.117947 0.048424 -0.005766 0.002681 -0.021758 -0.075216
    45 -0.037833 -0.131230 -0.106700 0.756922 0.202509 1.380917
    46 -7.577253 3.960122 -0.430845 1.575053 -0.029891 -0.569838
  time 14
    0 5.668105 -10.890953 -6.239683 -0.665095 -1.481027 -4.176855
    1 0.661211 -0.000004 -2.641094 0.000000 -3.141592 0.000000
    2 3.247482 -0.000005 -1.130647 0.000000 0.000000 -0.000001
    3 3.260927 1.355822 2.192472 2.208361 -1.542144 -1.139077
    4 3.261963 1.374206 1.040803 -2.040361 -1.570796 0.000000
    5 2.531871 -0.036995 -2.070253 0.000000 0.000000 -0.000001
    6 1.073001 -0.000003 4.918042 0.000000 -3.141592 0.000000
    7 2.916357 0.664625 10.775771 -3.048099 0.000000 1.570796
    8 0.923057 -2.001326 -3.726057 -0.062488 -0.333819 0.188710
    9 4.743558 -2.569062 -7.753124 1.119190 -1.898638 -1.311419
    10 7.921446 2.320982 -0.352938 1.567121 -3.120051 0.363823
    11 -0.025045 -8.385452 -0.111947 -0.416053 0.456958 -0.228023
    12 -0.488518 -2.755602 -0.228260 -0.926864 0.104123 -0.205670
    13 0.039887 -1.530573 0.014229 -1.473570 -0.012212 0.032731
    14 0.028786 -1.169484 -0.124675 -1.082413 -0.015161 0.023166
    15 0.250027 -2.820665 -0.238396 -0.656416 0.070401 -0.070751
    16 -0.049759 -1.594604 0.026258 -1.644847 -0.001630 -0.043494
    17 -0.034142 -1.156125 0.057437 -0.778245 0.008377 -0.019511
    18 0.957766 -2.746780 -0.090302 0.192545 -0.221960 0.229981
    19 -0.033420 -1.393223 -0.022976 -0.793020 0.007179 -0.039011
    20 -0.022360 -0.957436 -0.000748 -0.698119 0.007598 -0.033892
    21 -1.180681 -2.507217 -0.193859 -1.000921 0.270987 -0.298350
    22 -0.024967 -1.127840 0.017597 -0.956758 0.004674 -0.041010
    23 -0.020057 -0.906594 0.033528 -1.043762 0.004698 -0.042809
    24 0.603042 -1.205090 0.189285 0.170717 -0.910476 -0.421804
    25 1.485144 -0.208511 0.067511 0.044099 -0.208064 -0.737596
    26 0.975767 -0.198604 0.051823 0.125211 -0.269176 -1.206668
    27 0.120153 -0.050270 -0.054489 0.287569 3.110905 1.561085
    28 -5.099041 -8.133692 -6.509294 0.500983 -4.070236 0.889066
    29 -0.172595 -8.454325 0.029699 -0.434104 -1.376460 0.626509
    30 0.447953 -2.798986 -0.200443 -1.080608 -0.116016 0.286451
    31 -0.032909 -1.495829 0.016659 -0.937501 0.019763 -0.014176
    32 -0.027022 -1.096452 -0.028023 -0.513425 0.013471 -0.005429
    33 -0.249534 -2.846964 -0.174213 -0.688709 -0.073099 0.004763
    34 0.043235 -1.660503 0.080387 -1.014688 -0.016652 0.001691
    35 0.031729 -1.153017 0.058838 -0.444953 -0.003900 0.005867
    36 -0.963866 -2.785145 -0.085350 -0.359784 0.157230 -0.206201
    37 0.028479 -1.403067 -0.013261 -0.774906 -0.017929 -0.029782
    38 0.021413 -0.957781 0.020046 -0.175941 -0.002013 -0.007862
    39 1.164475 -2.543940 -0.170330 -1.269961 -0.216253 0.419838
    40 0.024032 -1.136855 -0.001725 -0.773654 0.004039 0.041288
    41 0.014898 -0.895708 -0.019848 -0.595607 -0.000911 0.029698
    42 -0.586770 -1.264477 0.200161 -0.073069 -0.460710 -2.781506
    43 1.557992 0.035243 0.016848 -0.014170 -0.005588 0.722307
    44 1.117947 0.048424 -0.005766 0.002681 -0.021758 -0.075216
    45 -0.037833 -0.131230 -0.106700 0.756922 0.202509 1.380917
    46 -7.409279 4.331227 -0.426939 1.575916 -0.028839 -0.618877
  time 15
    0 5.613416 -11.082365 -6.212339 -0.652129 -1.479506 -4.184518
    1 0.661211 -0.000004 -2.641094 0.000000 -3.141592 0.000000
    2 3.247482 -0.000005 -1.130647 0.000000 0.000000 -0.000001
    3 3.260927 1.355822 2.192472 2.208361 -1.542144 -1.139077
    4 3.261963 1.374206 1.040803 -2.040361 -1.570796 0.000000
    5 2.531871 -0.036995 -2.070253 0.000000 0.000000 -0.000001
    6 1.073001 -0.000003 4.918042 0.000000 -3.141592 0.000000
    7 2.916357 0.664625 10.775771 -3.048099 0.000000 1.570796
    8 0.923057 -2.001326 -3.726057 -0.062488 -0.333819 0.188710
    9 4.692775 -2.737036 -7.671091 1.114108 -1.894211 -1.309015
    10 7.855038 2.621772 -0.345125 1.566833 -3.120816 0.401713
    11 -0.025045 -8.385452 -0.108040 -0.406409 0.456193 -0.220200
    12 -0.488518 -2.755602 -0.228260 -0.926864 0.104123 -0.205670
    13 0.039887 -1.530573 0.014229 -1.473570 -0.012212 0.032731
    14 0.028786 -1.169484 -0.124675 -1.082413 -0.015161 0.023166
    15 0.250027 -2.820665 -0.238396 -0.656416 0.070401 -0.070751
    16 -0.049759 -1.594604 0.026258 -1.644847 -0.001630 -0.043494
    17 -0.034142 -1.156125 0.057437 -0.778245 0.008377 -0.019511
    18 0.957766 -2.746780 -0.090302 0.192485 -0.219204 0.230580
    19 -0.033420 -1.393223 -0.022976 -0.807125 0.007011 -0.039706
    20 -0.022360 -0.957436 -0.000748 -0.699519 0.007586 -0.033964
    21 -1.180681 -2.507217 -0.193859 -1.000921 0.270987 -0.298350
    22 -0.024967 -1.127840 0.017597 -0.956758 0.004674 -0.041010
    23 -0.020057 -0.906594 0.033528 -1.043762 0.004698 -0.042809
    24 0.603042 -1.205090 0.189285 0.170717 -0.910476 -0.421804
    25 1.485144 -0.208511 0.067511 0.044099 -0.208064 -0.737596
    26 0.975767 -0.198604 0.051823 0.125211 -0.269176 -1.206668
    27 0.120153 -0.050270 -0.054489 0.287569 3.110905 1.561085
    28 -5.040446 -8.258696 -6.384291 0.487040 -4.075023 0.862617
    29 -0.172595 -8.450418 0.025792 -0.497386 -1.372981 0.669473
    30 0.447953 -2.798986 -0.200443 -1.080608 -0.116016 0.286451
    31 -0.032909 -1.495829 0.016659 -0.937501 0.019763 -0.014176
    32 -0.027022 -1.096452 -0.028023 -0.513425 0.013471 -0.005429
    33 -0.249534 -2.846964 -0.174213 -0.688709 -0.073099 0.004763
    34 0.043235 -1.660503 0.080387 -1.014688 -0.016652 0.001691
    35 0.031729 -1.153017 0.058838 -0.444953 -0.003900 0.005867
    36 -0.963866 -2.785145 -0.085350 -0.359784 0.157230 -0.206201
    37 0.028479 -1.403067 -0.013261 -0.774906 -0.017929 -0.029782
    38 0.021413 -0.957781 0.020046 -0.175941 -0.002013 -0.007862
    39 1.164475 -2.543940 -0.170330 -1.269961 -0.216253 0.419838
    40 0.024032 -1.136855 -0.001725 -0.773654 0.004039 0.041288
    41 0.014898 -0.895708 -0.019848 -0.595607 -0.000911 0.029698
    42 -0.586770 -1.264477 0.200161 -0.073069 -0.460710 -2.781506
    43 1.557992 0.035243 0.016848 -0.014170 -0.005588 0.722307
    44 1.117947 0.048424 -0.005766 0.002681 -0.021758 -0.075216
    45 -0.037833 -0.131230 -0.106700 0.756922 0.202509 1.380917
    46 -7.225679 4.682800 -0.419126 1.576682 -0.027883 -0.666989
  time 16
    0 5.558726 -11.250339 -6.184994 -0.640366 -1.477896 -4.191318
    1 0.661211 -0.000004 -2.641094 0.000000 -3.141592 0.000000
    2 3.247482 -0.000005 -1.130647 0.000000 0.000000 -0.000001
    3 3.260927 1.355822 2.192472 2.208361 -1.542144 -1.139077
    4 3.261963 1.374206 1.040803 -2.040361 -1.570796 0.000000
    5 2.531871 -0.036995 -2.070253 0.000000 0.000000 -0.000001
    6 1.073001 -0.000003 4.918042 0.000000 -3.141592 0.000000
    7 2.916357 0.664625 10.775771 -3.048099 0.000000 1.570796
    8 0.923057 -2.001326 -3.726057 -0.062488 -0.333819 0.188710
    9 4.649805 -2.881571 -7.592963 1.109303 -1.890395 -1.306611
    10 7.788629 2.887405 -0.341219 1.566546 -3.121485 0.435498
    11 -0.025045 -8.389358 -0.108040 -0.397731 0.455501 -0.213093
    12 -0.488518 -2.755602 -0.228260 -0.926864 0.104123 -0.205670
    13 0.039887 -1.530573 0.014229 -1.473570 -0.012212 0.032731
    14 0.028786 -1.169484 -0.124675 -1.082413 -0.015161 0.023166
    15 0.250027 -2.820665 -0.238396 -0.656416 0.070401 -0.070751
    16 -0.049759 -1.594604 0.026258 -1.644847 -0.001630 -0.043494
    17 -0.034142 -1.156125 0.057437 -0.778245 0.008377 -0.019511
    18 0.957766 -2.746780 -0.090302 0.192425 -0.216148 0.231251
    19 -0.033420 -1.397129 -0.026882 -0.822720 0.006819 -0.040473
    20 -0.022360 -0.957436 -0.000748 -0.701059 0.007574 -0.034048
    21 -1.180681 -2.507217 -0.193859 -1.000921 0.270987 -0.298350
    22 -0.024967 -1.127840 0.017597 -0.956758 0.004674 -0.041010
    23 -0.020057 -0.906594 0.033528 -1.043762 0.004698 -0.042809
    24 0.603042 -1.205090 0.189285 0.170717 -0.910476 -0.421804
    25 1.485144 -0.208511 0.067511 0.044099 -0.208064 -0.737596
    26 0.975767 -0.198604 0.051823 0.125211 -0.269176 -1.206668
    27 0.120153 -0.050270 -0.054489 0.287569 3.110905 1.561085
    28 -4.981850 -8.368074 -6.267099 0.474399 -4.079216 0.838812
    29 -0.172595 -8.446512 0.025792 -0.551751 -1.369297 0.705480
    30 0.447953 -2.798986 -0.200443 -1.080608 -0.116016 0.286451
    31 -0.032909 -1.495829 0.016659 -0.937501 0.019763 -0.014176
    32 -0.027022 -1.096452 -0.028023 -0.513425 0.013471 -0.005429
    33 -0.249534 -2.846964 -0.174213 -0.688709 -0.073099 0.004763
    34 0.043235 -1.660503 0.080387 -1.014688 -0.016652 0.001691
    35 0.031729 -1.153017 0.058838 -0.444953 -0.003900 0.005867
    36 -0.963866 -2.785145 -0.085350 -0.359784 0.157230 -0.206201
    37 0.028479 -1.403067 -0.013261 -0.774906 -0.017929 -0.029782
    38 0.021413 -0.957781 0.020046 -0.175941 -0.002013 -0.007862
    39 1.164475 -2.543940 -0.170330 -1.269961 -0.216253 0.419838
    40 0.024032 -1.136855 -0.001725 -0.773654 0.004039 0.041288
    41 0.014898 -0.895708 -0.019848 -0.595607 -0.000911 0.029698
    42 -0.586770 -1.264477 0.200161 -0.073069 -0.460710 -2.781506
    43 1.557992 0.035243 0.016848 -0.014170 -0.005588 0.722307
    44 1.117947 0.048424 -0.005766 0.002681 -0.021758 -0.075216
    45 -0.037833 -0.131230 -0.106700 0.756922 0.202509 1.380917
    46 -7.045986 4.995310 -0.411313 1.577353 -0.026926 -0.710837
  time 17
    0 5.515756 -11.383156 -6.157650 -0.631845 -1.476555 -4.195916
    1 0.661211 -0.000004 -2.641094 0.000000 -3.141592 0.000000
    2 3.247482 -0.000005 -1.130647 0.000000 0.000000 -0.000001
    3 3.260927 1.355822 2.192472 2.208361 -1.542144 -1.139077
    4 3.261963 1.374206 1.040803 -2.040361 -1.570796 0.000000
    5 2.531871 -0.036995 -2.070253 0.000000 0.000000 -0.000001
    6 1.073001 -0.000003 4.918042 0.000000 -3.141592 0.000000
    7 2.916357 0.664625 10.775771 -3.048099 0.000000 1.570796
    8 0.923057 -2.001326 -3.726057 -0.062488 -0.333819 0.188710
    9 4.610741 -2.994856 -7.526555 1.105238 -1.887343 -1.304447
    10 7.726127 3.102256 -0.337312 1.566354 -3.122058 0.462728
    11 -0.028951 -8.389358 -0.108040 -0.390705 0.454919 -0.207418
    12 -0.488518 -2.755602 -0.228260 -0.926864 0.104123 -0.205670
    13 0.039887 -1.530573 0.014229 -1.473570 -0.012212 0.032731
    14 0.028786 -1.169484 -0.124675 -1.082413 -0.015161 0.023166
    15 0.250027 -2.820665 -0.238396 -0.656416 0.070401 -0.070751
    16 -0.049759 -1.594604 0.026258 -1.644847 -0.001630 -0.043494
    17 -0.034142 -1.156125 0.057437 -0.778245 0.008377 -0.019511
    18 0.957766 -2.746780 -0.090302 0.192389 -0.213679 0.231790
    19 -0.033420 -1.397129 -0.026882 -0.835337 0.006663 -0.041096
    20 -0.022360 -0.957436 -0.000748 -0.702319 0.007562 -0.034108
    21 -1.180681 -2.507217 -0.193859 -1.000921 0.270987 -0.298350
    22 -0.024967 -1.127840 0.017597 -0.956758 0.004674 -0.041010
    23 -0.020057 -0.906594 0.033528 -1.043762 0.004698 -0.042809
    24 0.603042 -1.205090 0.189285 0.170717 -0.910476 -0.421804
    25 1.485144 -0.208511 0.067511 0.044099 -0.208064 -0.737596
    26 0.975767 -0.198604 0.051823 0.125211 -0.269176 -1.206668
    27 0.120153 -0.050270 -0.054489 0.287569 3.110905 1.561085
    28 -4.938880 -8.454014 -6.169440 0.463868 -4.082616 0.819306
    29 -0.172595 -8.446512 0.025792 -0.594115 -1.366022 0.732775
    30 0.447953 -2.798986 -0.200443 -1.080608 -0.116016 0.286451
    31 -0.032909 -1.495829 0.016659 -0.937501 0.019763 -0.014176
    32 -0.027022 -1.096452 -0.028023 -0.513425 0.013471 -0.005429
    33 -0.249534 -2.846964 -0.174213 -0.688709 -0.073099 0.004763
    34 0.043235 -1.660503 0.080387 -1.014688 -0.016652 0.001691
    35 0.031729 -1.153017 0.058838 -0.444953 -0.003900 0.005867
    36 -0.963866 -2.785145 -0.085350 -0.359784 0.157230 -0.206201
    37 0.028479 -1.403067 -0.013261 -0.774906 -0.017929 -0.029782
    38 0.021413 -0.957781 0.020046 -0.175941 -0.002013 -0.007862
    39 1.164475 -2.543940 -0.170330 -1.269961 -0.216253 0.419838
    40 0.024032 -1.136855 -0.001725 -0.773654 0.004039 0.041288
    41 0.014898 -0.895708 -0.019848 -0.595607 -0.000911 0.029698
    42 -0.586770 -1.264477 0.200161 -0.073069 -0.460710 -2.781506
    43 1.557992 0.035243 0.016848 -0.014170 -0.005588 0.722307
    44 1.117947 0.048424 -0.005766 0.002681 -0.021758 -0.075216
    45 -0.037833 -0.131230 -0.106700 0.756922 0.202509 1.380917
    46 -6.885825 5.245317 -0.403501 1.577928 -0.026066 -0.746898
  time 18
    0 5.484505 -11.473002 -6.138118 -0.628326 -1.475809 -4.196970
    1 0.661211 -0.000004 -2.641094 0.000000 -3.141592 0.000000
    2 3.247482 -0.000005 -1.130647 0.000000 0.000000 -0.000001
    3 3.260927 1.355822 2.192472 2.208361 -1.542144 -1.139077
    4 3.261963 1.374206 1.040803 -2.040361 -1.570796 0.000000
    5 2.531871 -0.036995 -2.070253 0.000000 0.000000 -0.000001
    6 1.073001 -0.000003 4.918042 0.000000 -3.141592 0.000000
    7 2.916357 0.664625 10.775771 -3.048099 0.000000 1.570796
    8 0.923057 -2.001326 -3.726057 -0.062488 -0.333819 0.188710
    9 4.587303 -3.072984 -7.479679 1.102189 -1.885206 -1.302764
    10 7.683157 3.242885 -0.333406 1.566162 -3.122440 0.481097
    11 -0.028951 -8.393264 -0.108040 -0.386113 0.454446 -0.203685
    12 -0.488518 -2.755602 -0.228260 -0.926864 0.104123 -0.205670
    13 0.039887 -1.530573 0.014229 -1.473570 -0.012212 0.032731
    14 0.028786 -1.169484 -0.124675 -1.082413 -0.015161 0.023166
    15 0.250027 -2.820665 -0.238396 -0.656416 0.070401 -0.070751
    16 -0.049759 -1.594604 0.026258 -1.644847 -0.001630 -0.043494
    17 -0.034142 -1.156125 0.057437 -0.778245 0.008377 -0.019511
    18 0.957766 -2.746780 -0.090302 0.192366 -0.212660 0.232006
    19 -0.033420 -1.397129 -0.026882 -0.840549 0.006592 -0.041348
    20 -0.022360 -0.957436 -0.000748 -0.702856 0.007562 -0.034132
    21 -1.180681 -2.507217 -0.193859 -1.000921 0.270987 -0.298350
    22 -0.024967 -1.127840 0.017597 -0.956758 0.004674 -0.041010
    23 -0.020057 -0.906594 0.033528 -1.043762 0.004698 -0.042809
    24 0.603042 -1.205090 0.189285 0.170717 -0.910476 -0.421804
    25 1.485144 -0.208511 0.067511 0.044099 -0.208064 -0.737596
    26 0.975767 -0.198604 0.051823 0.125211 -0.269176 -1.206668
    27 0.120153 -0.050270 -0.054489 0.287569 3.110905 1.561085
    28 -4.907629 -8.512610 -6.103032 0.456406 -4.085026 0.805668
    29 -0.172595 -8.442606 0.025792 -0.621861 -1.363805 0.750355
    30 0.447953 -2.798986 -0.200443 -1.080608 -0.116016 0.286451
    31 -0.032909 -1.495829 0.016659 -0.937501 0.019763 -0.014176
    32 -0.027022 -1.096452 -0.028023 -0.513425 0.013471 -0.005429
    33 -0.249534 -2.846964 -0.174213 -0.688709 -0.073099 0.004763
    34 0.043235 -1.660503 0.080387 -1.014688 -0.016652 0.001691
    35 0.031729 -1.153017 0.058838 -0.444953 -0.003900 0.005867
    36 -0.963866 -2.785145 -0.085350 -0.359784 0.157230 -0.206201
    37 0.028479 -1.403067 -0.013261 -0.774906 -0.017929 -0.029782
    38 0.021413 -0.957781 0.020046 -0.175941 -0.002013 -0.007862
    39 1.164475 -2.543940 -0.170330 -1.269961 -0.216253 0.419838
    40 0.024032 -1.136855 -0.001725 -0.773654 0.004039 0.041288
    41 0.014898 -0.895708 -0.019848 -0.595607 -0.000911 0.029698
    42 -0.586770 -1.264477 0.200161 -0.073069 -0.460710 -2.781506
    43 1.557992 0.035243 0.016848 -0.014170 -0.005588 0.722307
    44 1.117947 0.048424 -0.005766 0.002681 -0.021758 -0.075216
    45 -0.037833 -0.131230 -0.106700 0.756922 0.202509 1.380917
    46 -6.776447 5.413291 -0.399594 1.578216 -0.025492 -0.771279
  time 19
    0 5.468880 -11.527692 -6.130305 -0.627863 -1.475571 -4.195916
    1 0.661211 -0.000004 -2.641094 0.000000 -3.141592 0.000000
    2 3.247482 -0.000005 -1.130647 0.000000 0.000000 -0.000001
    3 3.260927 1.355822 2.192472 2.208361 -1.542144 -1.139077
    4 3.261963 1.374206 1.040803 -2.040361 -1.570796 0.000000
    5 2.531871 -0.036995 -2.070253 0.000000 0.000000 -0.000001
    6 1.073001 -0.000003 4.918042 0.000000 -3.141592 0.000000
    7 2.916357 0.664625 10.775771 -3.048099 0.000000 1.570796
    8 0.923057 -2.001326 -3.726057 -0.062488 -0.333819 0.188710
    9 4.571678 -3.115954 -7.452334 1.100156 -1.883832 -1.301642
    10 7.651906 3.328825 -0.333406 1.566162 -3.122632 0.492190
    11 -0.028951 -8.393264 -0.108040 -0.383450 0.454154 -0.201589
    12 -0.488518 -2.755602 -0.228260 -0.926864 0.104123 -0.205670
    13 0.039887 -1.530573 0.014229 -1.473570 -0.012212 0.032731
    14 0.028786 -1.169484 -0.124675 -1.082413 -0.015161 0.023166
    15 0.250027 -2.820665 -0.238396 -0.656416 0.070401 -0.070751
    16 -0.049759 -1.594604 0.026258 -1.644847 -0.001630 -0.043494
    17 -0.034142 -1.156125 0.057437 -0.778245 0.008377 -0.019511
    18 0.957766 -2.746780 -0.090302 0.192366 -0.212660 0.232006
    19 -0.033420 -1.397129 -0.026882 -0.840549 0.006592 -0.041348
    20 -0.022360 -0.957436 -0.000748 -0.702856 0.007562 -0.034132
    21 -1.180681 -2.507217 -0.193859 -1.000921 0.270987 -0.298350
    22 -0.024967 -1.127840 0.017597 -0.956758 0.004674 -0.041010
    23 -0.020057 -0.906594 0.033528 -1.043762 0.004698 -0.042809
    24 0.603042 -1.205090 0.189285 0.170717 -0.910476 -0.421804
    25 1.485144 -0.208511 0.067511 0.044099 -0.208064 -0.737596
    26 0.975767 -0.198604 0.051823 0.125211 -0.269176 -1.206668
    27 0.120153 -0.050270 -0.054489 0.287569 3.110905 1.561085
    28 -4.888097 -8.543861 -6.063968 0.451643 -4.086545 0.797237
    29 -0.172595 -8.442606 0.025792 -0.638204 -1.362577 0.760665
    30 0.447953 -2.798986 -0.200443 -1.080608 -0.116016 0.286451
    31 -0.032909 -1.495829 0.016659 -0.937501 0.019763 -0.014176
    32 -0.027022 -1.096452 -0.028023 -0.513425 0.013471 -0.005429
    33 -0.249534 -2.846964 -0.174213 -0.688709 -0.073099 0.004763
    34 0.043235 -1.660503 0.080387 -1.014688 -0.016652 0.001691
    35 0.031729 -1.153017 0.058838 -0.444953 -0.003900 0.005867
    36 -0.963866 -2.785145 -0.085350 -0.359784 0.157230 -0.206201
    37 0.028479 -1.403067 -0.013261 -0.774906 -0.017929 -0.029782
    38 0.021413 -0.957781 0.020046 -0.175941 -0.002013 -0.007862
    39 1.164475 -2.543940 -0.170330 -1.269961 -0.216253 0.419838
    40 0.024032 -1.136855 -0.001725 -0.773654 0.004039 0.041288
    41 0.014898 -0.895708 -0.019848 -0.595607 -0.000911 0.029698
    42 -0.586770 -1.264477 0.200161 -0.073069 -0.460710 -2.781506
    43 1.557992 0.035243 0.016848 -0.014170 -0.005588 0.722307
    44 1.117947 0.048424 -0.005766 0.002681 -0.021758 -0.075216
    45 -0.037833 -0.131230 -0.106700 0.756922 0.202509 1.380917
    46 -6.706132 5.510951 -0.399594 1.578408 -0.025205 -0.785833
  time 20
    0 5.453254 -11.562849 -6.122492 -0.627678 -1.475422 -4.195245
    1 0.661211 -0.000004 -2.641094 0.000000 -3.141592 0.000000
    2 3.247482 -0.000005 -1.130647 0.000000 0.000000 -0.000001
    3 3.260927 1.355822 2.192472 2.208361 -1.542144 -1.139077
    4 3.261963 1.374206 1.040803 -2.040361 -1.570796 0.000000
    5 2.531871 -0.036995 -2.070253 0.000000 0.000000 -0.000001
    6 1.073001 -0.000003 4.918042 0.000000 -3.141592 0.000000
    7 2.916357 0.664625 10.775771 -3.048099 0.000000 1.570796
    8 0.923057 -2.001326 -3.726057 -0.062488 -0.333819 0.188710
    9 4.563865 -3.147205 -7.432802 1.098770 -1.882916 -1.300841
    10 7.636281 3.383514 -0.329500 1.566066 -3.122823 0.499394
    11 -0.028951 -8.393264 -0.108040 -0.381751 0.453936 -0.200260
    12 -0.488518 -2.755602 -0.228260 -0.926864 0.104123 -0.205670
    13 0.039887 -1.530573 0.014229 -1.473570 -0.012212 0.032731
    14 0.028786 -1.169484 -0.124675 -1.082413 -0.015161 0.023166
    15 0.250027 -2.820665 -0.238396 -0.656416 0.070401 -0.070751
    16 -0.049759 -1.594604 0.026258 -1.644847 -0.001630 -0.043494
    17 -0.034142 -1.156125 0.057437 -0.778245 0.008377 -0.019511
    18 0.957766 -2.746780 -0.090302 0.192366 -0.212660 0.232006
    19 -0.033420 -1.397129 -0.026882 -0.840549 0.006592 -0.041348
    20 -0.022360 -0.957436 -0.000748 -0.702856 0.007562 -0.034132
    21 -1.180681 -2.507217 -0.193859 -1.000921 0.270987 -0.298350
    22 -0.024967 -1.127840 0.017597 -0.956758 0.004674 -0.041010
    23 -0.020057 -0.906594 0.033528 -1.043762 0.004698 -0.042809
    24 0.603042 -1.205090 0.189285 0.170717 -0.910476 -0.421804
    25 1.485144 -0.208511 0.067511 0.044099 -0.208064 -0.737596
    26 0.975767 -0.198604 0.051823 0.125211 -0.269176 -1.206668
    27 0.120153 -0.050270 -0.054489 0.287569 3.110905 1.561085
    28 -4.876378 -8.563393 -6.036624 0.448501 -4.087535 0.791699
    29 -0.172595 -8.438699 0.025792 -0.648778 -1.361724 0.767246
    30 0.447953 -2.798986 -0.200443 -1.080608 -0.116016 0.286451
    31 -0.032909 -1.495829 0.016659 -0.937501 0.019763 -0.014176
    32 -0.027022 -1.096452 -0.028023 -0.513425 0.013471 -0.005429
    33 -0.249534 -2.846964 -0.174213 -0.688709 -0.073099 0.004763
    34 0.043235 -1.660503 0.080387 -1.014688 -0.016652 0.001691
    35 0.031729 -1.153017 0.058838 -0.444953 -0.003900 0.005867
    36 -0.963866 -2.785145 -0.085350 -0.359784 0.157230 -0.206201
    37 0.028479 -1.403067 -0.013261 -0.774906 -0.017929 -0.029782
    38 0.021413 -0.957781 0.020046 -0.175941 -0.002013 -0.007862
    39 1.164475 -2.543940 -0.170330 -1.269961 -0.216253 0.419838
    40 0.024032 -1.136855 -0.001725 -0.773654 0.004039 0.041288
    41 0.014898 -0.895708 -0.019848 -0.595607 -0.000911 0.029698
    42 -0.586770 -1.264477 0.200161 -0.073069 -0.460710 -2.781506
    43 1.557992 0.035243 0.016848 -0.014170 -0.005588 0.722307
    44 1.117947 0.048424 -0.005766 0.002681 -0.021758 -0.075216
    45 -0.037833 -0.131230 -0.106700 0.756922 0.202509 1.380917
    46 -6.659256 5.573452 -0.395688 1.578504 -0.025013 -0.795382
  time 21
    0 5.449348 -11.582381 -6.118586 -0.627492 -1.475332 -4.194767
    1 0.661211 -0.000004 -2.641094 0.000000 -3.141592 0.000000
    2 3.247482 -0.000005 -1.130647 0.000000 0.000000 -0.000001
    3 3.260927 1.355822 2.192472 2.208361 -1.542144 -1.139077
    4 3.261963 1.374206 1.040803 -2.040361 -1.570796 0.000000
    5 2.531871 -0.036995 -2.070253 0.000000 0.000000 -0.000001
    6 1.073001 -0.000003 4.918042 0.000000 -3.141592 0.000000
    7 2.916357 0.664625 10.775771 -3.048099 0.000000 1.570796
    8 0.923057 -2.001326 -3.726057 -0.062488 -0.333819 0.188710
    9 4.556052 -3.162830 -7.421083 1.098031 -1.882382 -1.300440
    10 7.624562 3.414765 -0.329500 1.566066 -3.122823 0.503284
    11 -0.028951 -8.393264 -0.108040 -0.380832 0.453827 -0.199493
    12 -0.488518 -2.755602 -0.228260 -0.926864 0.104123 -0.205670
    13 0.039887 -1.530573 0.014229 -1.473570 -0.012212 0.032731
    14 0.028786 -1.169484 -0.124675 -1.082413 -0.015161 0.023166
    15 0.250027 -2.820665 -0.238396 -0.656416 0.070401 -0.070751
    16 -0.049759 -1.594604 0.026258 -1.644847 -0.001630 -0.043494
    17 -0.034142 -1.156125 0.057437 -0.778245 0.008377 -0.019511
    18 0.957766 -2.746780 -0.090302 0.192366 -0.212660 0.232006
    19 -0.033420 -1.397129 -0.026882 -0.840549 0.006592 -0.041348
    20 -0.022360 -0.957436 -0.000748 -0.702856 0.007562 -0.034132
    21 -1.180681 -2.507217 -0.193859 -1.000921 0.270987 -0.298350
    22 -0.024967 -1.127840 0.017597 -0.956758 0.004674 -0.041010
    23 -0.020057 -0.906594 0.033528 -1.043762 0.004698 -0.042809
    24 0.603042 -1.205090 0.189285 0.170717 -0.910476 -0.421804
    25 1.485144 -0.208511 0.067511 0.044099 -0.208064 -0.737596
    26 0.975767 -0.198604 0.051823 0.125211 -0.269176 -1.206668
    27 0.120153 -0.050270 -0.054489 0.287569 3.110905 1.561085
    28 -4.872472 -8.575112 -6.020998 0.446783 -4.088063 0.788641
    29 -0.172595 -8.438699 0.021886 -0.654480 -1.361280 0.770787
    30 0.447953 -2.798986 -0.200443 -1.080608 -0.116016 0.286451
    31 -0.032909 -1.495829 0.016659 -0.937501 0.019763 -0.014176
    32 -0.027022 -1.096452 -0.028023 -0.513425 0.013471 -0.005429
    33 -0.249534 -2.846964 -0.174213 -0.688709 -0.073099 0.004763
    34 0.043235 -1.660503 0.080387 -1.014688 -0.016652 0.001691
    35 0.031729 -1.153017 0.058838 -0.444953 -0.003900 0.005867
    36 -0.963866 -2.785145 -0.085350 -0.359784 0.157230 -0.206201
    37 0.028479 -1.403067 -0.013261 -0.774906 -0.017929 -0.029782
    38 0.021413 -0.957781 0.020046 -0.175941 -0.002013 -0.007862
    39 1.164475 -2.543940 -0.170330 -1.269961 -0.216253 0.419838
    40 0.024032 -1.136855 -0.001725 -0.773654 0.004039 0.041288
    41 0.014898 -0.895708 -0.019848 -0.595607 -0.000911 0.029698
    42 -0.586770 -1.264477 0.200161 -0.073069 -0.460710 -2.781506
    43 1.557992 0.035243 0.016848 -0.014170 -0.005588 0.722307
    44 1.117947 0.048424 -0.005766 0.002681 -0.021758 -0.075216
    45 -0.037833 -0.131230 -0.106700 0.756922 0.202509 1.380917
    46 -6.635818 5.608610 -0.395688 1.578599 -0.024822 -0.800666
  time 22
    0 5.445442 -11.586287 -6.118586 -0.627492 -1.475302 -4.194671
    1 0.661211 -0.000004 -2.641094 0.000000 -3.141592 0.000000
    2 3.247482 -0.000005 -1.130647 0.000000 0.000000 -0.000001
    3 3.260927 1.355822 2.192472 2.208361 -1.542144 -1.139077
    4 3.261963 1.374206 1.040803 -2.040361 -1.570796 0.000000
    5 2.531871 -0.036995 -2.070253 0.000000 0.000000 -0.000001
    6 1.073001 -0.000003 4.918042 0.000000 -3.141592 0.000000
    7 2.916357 0.664625 10.775771 -3.048099 0.000000 1.570796
    8 0.923057 -2.001326 -3.726057 -0.062488 -0.333819 0.188710
    9 4.556052 -3.166736 -7.417177 1.097846 -1.882229 -1.300280
    10 7.620655 3.422578 -0.329500 1.566066 -3.122918 0.504508
    11 -0.028951 -8.393264 -0.108040 -0.380511 0.453790 -0.199288
    12 -0.488518 -2.755602 -0.228260 -0.926864 0.104123 -0.205670
    13 0.039887 -1.530573 0.014229 -1.473570 -0.012212 0.032731
    14 0.028786 -1.169484 -0.124675 -1.082413 -0.015161 0.023166
    15 0.250027 -2.820665 -0.238396 -0.656416 0.070401 -0.070751
    16 -0.049759 -1.594604 0.026258 -1.644847 -0.001630 -0.043494
    17 -0.034142 -1.156125 0.057437 -0.778268 0.008377 -0.019511
    18 0.957766 -2.746780 -0.090302 0.192366 -0.212660 0.232006
    19 -0.033420 -1.397129 -0.026882 -0.840549 0.006592 -0.041348
    20 -0.022360 -0.957436 -0.000748 -0.702856 0.007562 -0.034132
    21 -1.180681 -2.507217 -0.193859 -1.000921 0.270987 -0.298350
    22 -0.024967 -1.127840 0.017597 -0.956758 0.004674 -0.041010
    23 -0.020057 -0.906594 0.033528 -1.043762 0.004698 -0.042809
    24 0.603042 -1.205090 0.189285 0.170717 -0.910476 -0.421804
    25 1.485144 -0.208511 0.067511 0.044099 -0.208064 -0.737596
    26 0.975767 -0.198604 0.051823 0.125211 -0.269176 -1.206668
    27 0.120153 -0.050270 -0.054489 0.287569 3.110905 1.561085
    28 -4.868565 -8.579018 -6.017092 0.446268 -4.088229 0.787732
    29 -0.172595 -8.438699 0.021886 -0.656204 -1.361144 0.771884
    30 0.447953 -2.798986 -0.200443 -1.080608 -0.116016 0.286451
    31 -0.032909 -1.495829 0.016659 -0.937501 0.019763 -0.014176
    32 -0.027022 -1.096452 -0.028023 -0.513425 0.013471 -0.005429
    33 -0.249534 -2.846964 -0.174213 -0.688709 -0.073099 0.004763
    34 0.043235 -1.660503 0.080387 -1.014688 -0.016652 0.001691
    35 0.031729 -1.153017 0.058838 -0.444953 -0.003900 0.005867
    36 -0.963866 -2.785145 -0.085350 -0.359784 0.157230 -0.206201
    37 0.028479 -1.403067 -0.013261 -0.774906 -0.017929 -0.029782
    38 0.021413 -0.957781 0.020046 -0.175941 -0.002013 -0.007862
    39 1.164475 -2.543940 -0.170330 -1.269961 -0.216253 0.419838
    40 0.024032 -1.136855 -0.001725 -0.773654 0.004039 0.041288
    41 0.014898 -0.895708 -0.019848 -0.595607 -0.000911 0.029698
    42 -0.586770 -1.264477 0.200161 -0.073069 -0.460710 -2.781506
    43 1.557992 0.035243 0.016848 -0.014170 -0.005588 0.722307
    44 1.117947 0.048424 -0.005766 0.002681 -0.021758 -0.075216
    45 -0.037833 -0.131230 -0.106700 0.756922 0.202509 1.380917
    46 -6.628005 5.620329 -0.395688 1.578599 -0.024822 -0.802242
  time 23
    0 5.449348 -11.582381 -6.118586 -0.627492 -1.475332 -4.194767
    1 0.661211 -0.000004 -2.641094 0.000000 -3.141592 0.000000
    2 3.247482 -0.000005 -1.130647 0.000000 0.000000 -0.000001
    3 3.260927 1.355822 2.192472 2.208361 -1.542144 -1.139077
    4 3.261963 1.374206 1.040803 -2.040361 -1.570796 0.000000
    5 2.531871 -0.036995 -2.070253 0.000000 0.000000 -0.000001
    6 1.073001 -0.000003 4.918042 0.000000 -3.141592 0.000000
    7 2.916357 0.664625 10.775771 -3.048099 0.000000 1.570796
    8 0.923057 -2.001326 -3.726057 -0.062488 -0.333819 0.188710
    9 4.556052 -3.162830 -7.421083 1.098031 -1.882382 -1.300440
    10 7.624562 3.414765 -0.329500 1.566066 -3.122823 0.503500
    11 -0.028951 -8.393264 -0.108040 -0.380786 0.453827 -0.199493
    12 -0.488518 -2.755602 -0.228260 -0.926864 0.104123 -0.205670
    13 0.039887 -1.530573 0.014229 -1.473570 -0.012212 0.032731
    14 0.028786 -1.169484 -0.124675 -1.082413 -0.015161 0.023166
    15 0.250027 -2.820665 -0.238396 -0.656416 0.070401 -0.070751
    16 -0.049759 -1.594604 0.026258 -1.644847 -0.001630 -0.043494
    17 -0.034142 -1.156125 0.057437 -0.778245 0.008377 -0.019511
    18 0.957766 -2.746780 -0.090302 0.192366 -0.212660 0.232006
    19 -0.033420 -1.397129 -0.026882 -0.840549 0.006592 -0.041348
    20 -0.022360 -0.957436 -0.000748 -0.702856 0.007562 -0.034132
    21 -1.180681 -2.507217 -0.193859 -1.000921 0.270987 -0.298350
    22 -0.024967 -1.127840 0.017597 -0.956758 0.004674 -0.041010
    23 -0.020057 -0.906594 0.033528 -1.043762 0.004698 -0.042809
    24 0.603042 -1.205090 0.189285 0.170717 -0.910476 -0.421804
    25 1.485144 -0.208511 0.067511 0.044099 -0.208064 -0.737596
    26 0.975767 -0.198604 0.051823 0.125211 -0.269176 -1.206668
    27 0.120153 -0.050270 -0.054489 0.287569 3.110905 1.561085
    28 -4.872472 -8.575112 -6.020998 0.446685 -4.088096 0.788476
    29 -0.172595 -8.438699 0.021886 -0.654745 -1.361246 0.770975
    30 0.447953 -2.798986 -0.200443 -1.080608 -0.116016 0.286451
    31 -0.032909 -1.495829 0.016659 -0.937501 0.019763 -0.014176
    32 -0.027022 -1.096452 -0.028023 -0.513425 0.013471 -0.005429
    33 -0.249534 -2.846964 -0.174213 -0.688709 -0.073099 0.004763
    34 0.043235 -1.660503 0.080387 -1.014688 -0.016652 0.001691
    35 0.031729 -1.153017 0.058838 -0.444953 -0.003900 0.005867
    36 -0.963866 -2.785145 -0.085350 -0.359784 0.157230 -0.206201
    37 0.028479 -1.403067 -0.013261 -0.774906 -0.017929 -0.029782
    38 0.021413 -0.957781 0.020046 -0.175941 -0.002013 -0.007862
    39 1.164475 -2.543940 -0.170330 -1.269961 -0.216253 0.419838
    40 0.024032 -1.136855 -0.001725 -0.773654 0.004039 0.041288
    41 0.014898 -0.895708 -0.019848 -0.595607 -0.000911 0.029698
    42 -0.586770 -1.264477 0.200161 -0.073069 -0.460710 -2.781506
    43 1.557992 0.035243 0.016848 -0.014170 -0.005588 0.722307
    44 1.117947 0.048424 -0.005766 0.002681 -0.021758 -0.075216
    45 -0.037833 -0.131230 -0.106700 0.756922 0.202509 1.380917
    46 -6.631911 5.608610 -0.395688 1.578599 -0.024822 -0.800851
  time 24
    0 5.453254 -11.570662 -6.118586 -0.627585 -1.475392 -4.195054
    1 0.661211 -0.000004 -2.641094 0.000000 -3.141592 0.000000
    2 3.247482 -0.000005 -1.130647 0.000000 0.000000 -0.000001
    3 3.260927 1.355822 2.192472 2.208361 -1.542144 -1.139077
    4 3.261963 1.374206 1.040803 -2.040361 -1.570796 0.000000
    5 2.531871 -0.036995 -2.070253 0.000000 0.000000 -0.000001
    6 1.073001 -0.000003 4.918042 0.000000 -3.141592 0.000000
    7 2.916357 0.664625 10.775771 -3.048099 0.000000 1.570796
    8 0.923057 -2.001326 -3.726057 -0.062488 -0.333819 0.188710
    9 4.559958 -3.151111 -7.428896 1.098493 -1.882687 -1.300681
    10 7.632375 3.395233 -0.329500 1.566066 -3.122823 0.500835
    11 -0.028951 -8.393264 -0.108040 -0.381383 0.453899 -0.199953
    12 -0.488518 -2.755602 -0.228260 -0.926864 0.104123 -0.205670
    13 0.039887 -1.530573 0.014229 -1.473570 -0.012212 0.032731
    14 0.028786 -1.169484 -0.124675 -1.082413 -0.015161 0.023166
    15 0.250027 -2.820665 -0.238396 -0.656416 0.070401 -0.070751
    16 -0.049759 -1.594604 0.026258 -1.644847 -0.001630 -0.043494
    17 -0.034142 -1.156125 0.057437 -0.778245 0.008377 -0.019511
    18 0.957766 -2.746780 -0.090302 0.192366 -0.212660 0.232006
    19 -0.033420 -1.397129 -0.026882 -0.840549 0.006592 -0.041348
    20 -0.022360 -0.957436 -0.000748 -0.702856 0.007562 -0.034132
    21 -1.180681 -2.507217 -0.193859 -1.000921 0.270987 -0.298350
    22 -0.024967 -1.127840 0.017597 -0.956758 0.004674 -0.041010
    23 -0.020057 -0.906594 0.033528 -1.043762 0.004698 -0.042809
    24 0.603042 -1.205090 0.189285 0.170717 -0.910476 -0.421804
    25 1.485144 -0.208511 0.067511 0.044099 -0.208064 -0.737596
    26 0.975767 -0.198604 0.051823 0.125211 -0.269176 -1.206668
    27 0.120153 -0.050270 -0.054489 0.287569 3.110905 1.561085
    28 -4.876378 -8.567299 -6.032717 0.447863 -4.087733 0.790542
    29 -0.172595 -8.438699 0.025792 -0.650900 -1.361553 0.768562
    30 0.447953 -2.798986 -0.200443 -1.080608 -0.116016 0.286451
    31 -0.032909 -1.495829 0.016659 -0.937501 0.019763 -0.014176
    32 -0.027022 -1.096452 -0.028023 -0.513425 0.013471 -0.005429
    33 -0.249534 -2.846964 -0.174213 -0.688709 -0.073099 0.004763
    34 0.043235 -1.660503 0.080387 -1.014688 -0.016652 0.001691
    35 0.031729 -1.153017 0.058838 -0.444953 -0.003900 0.005867
    36 -0.963866 -2.785145 -0.085350 -0.359784 0.157230 -0.206201
    37 0.028479 -1.403067 -0.013261 -0.774906 -0.017929 -0.029782
    38 0.021413 -0.957781 0.020046 -0.175941 -0.002013 -0.007862
    39 1.164475 -2.543940 -0.170330 -1.269961 -0.216253 0.419838
    40 0.024032 -1.136855 -0.001725 -0.773654 0.004039 0.041288
    41 0.014898 -0.895708 -0.019848 -0.595607 -0.000911 0.029698
    42 -0.586770 -1.264477 0.200161 -0.073069 -0.460710 -2.781506
    43 1.557992 0.035243 0.016848 -0.014170 -0.005588 0.722307
    44 1.117947 0.048424 -0.005766 0.002681 -0.021758 -0.075216
    45 -0.037833 -0.131230 -0.106700 0.756922 0.202509 1.380917
    46 -6.651443 5.585172 -0.395688 1.578599 -0.024918 -0.797328
  time 25
    0 5.457161 -11.551130 -6.122492 -0.627678 -1.475481 -4.195437
    1 0.661211 -0.000004 -2.641094 0.000000 -3.141592 0.000000
    2 3.247482 -0.000005 -1.130647 0.000000 0.000000 -0.000001
    3 3.260927 1.355822 2.192472 2.208361 -1.542144 -1.139077
    4 3.261963 1.374206 1.040803 -2.040361 -1.570796 0.000000
    5 2.531871 -0.036995 -2.070253 0.000000 0.000000 -0.000001
    6 1.073001 -0.000003 4.918042 0.000000 -3.141592 0.000000
    7 2.916357 0.664625 10.775771 -3.048099 0.000000 1.570796
    8 0.923057 -2.001326 -3.726057 -0.062488 -0.333819 0.188710
    9 4.567771 -3.135485 -7.436709 1.099232 -1.883221 -1.301081
    10 7.640187 3.367889 -0.329500 1.566066 -3.122727 0.497089
    11 -0.028951 -8.393264 -0.108040 -0.382302 0.454009 -0.200669
    12 -0.488518 -2.755602 -0.228260 -0.926864 0.104123 -0.205670
    13 0.039887 -1.530573 0.014229 -1.473570 -0.012212 0.032731
    14 0.028786 -1.169484 -0.124675 -1.082413 -0.015161 0.023166
    15 0.250027 -2.820665 -0.238396 -0.656416 0.070401 -0.070751
    16 -0.049759 -1.594604 0.026258 -1.644847 -0.001630 -0.043494
    17 -0.034142 -1.156125 0.057437 -0.778268 0.008377 -0.019511
    18 0.957766 -2.746780 -0.090302 0.192366 -0.212660 0.232006
    19 -0.033420 -1.397129 -0.026882 -0.840549 0.006592 -0.041348
    20 -0.022360 -0.957436 -0.000748 -0.702856 0.007562 -0.034132
    21 -1.180681 -2.507217 -0.193859 -1.000921 0.270987 -0.298350
    22 -0.024967 -1.127840 0.017597 -0.956758 0.004674 -0.041010
    23 -0.020057 -0.906594 0.033528 -1.043762 0.004698 -0.042809
    24 0.603042 -1.205090 0.189285 0.170717 -0.910476 -0.421804
    25 1.485144 -0.208511 0.067511 0.044099 -0.208064 -0.737596
    26 0.975767 -0.198604 0.051823 0.125211 -0.269176 -1.206668
    27 0.120153 -0.050270 -0.054489 0.287569 3.110905 1.561085
    28 -4.880285 -8.559486 -6.044436 0.449483 -4.087205 0.793435
    29 -0.172595 -8.438699 0.025792 -0.645430 -1.361997 0.765178
    30 0.447953 -2.798986 -0.200443 -1.080608 -0.116016 0.286451
    31 -0.032909 -1.495829 0.016659 -0.937501 0.019763 -0.014176
    32 -0.027022 -1.096452 -0.028023 -0.513425 0.013471 -0.005429
    33 -0.249534 -2.846964 -0.174213 -0.688709 -0.073099 0.004763
    34 0.043235 -1.660503 0.080387 -1.014688 -0.016652 0.001691
    35 0.031729 -1.153017 0.058838 -0.444953 -0.003900 0.005867
    36 -0.963866 -2.785145 -0.085350 -0.359784 0.157230 -0.206201
    37 0.028479 -1.403067 -0.013261 -0.774906 -0.017929 -0.029782
    38 0.021413 -0.957781 0.020046 -0.175941 -0.002013 -0.007862
    39 1.164475 -2.543940 -0.170330 -1.269961 -0.216253 0.419838
    40 0.024032 -1.136855 -0.001725 -0.773654 0.004039 0.041288
    41 0.014898 -0.895708 -0.019848 -0.595607 -0.000911 0.029698
    42 -0.586770 -1.264477 0.200161 -0.073069 -0.460710 -2.781506
    43 1.557992 0.035243 0.016848 -0.014170 -0.005588 0.722307
    44 1.117947 0.048424 -0.005766 0.002681 -0.021758 -0.075216
    45 -0.037833 -0.131230 -0.106700 0.756922 0.202509 1.380917
    46 -6.674881 5.553921 -0.395688 1.578504 -0.025013 -0.792415
  time 26
    0 5.464974 -11.531598 -6.126399 -0.627863 -1.475571 -4.195916
    1 0.661211 -0.000004 -2.641094 0.000000 -3.141592 0.000000
    2 3.247482 -0.000005 -1.130647 0.000000 0.000000 -0.000001
    3 3.260927 1.355822 2.192472 2.208361 -1.542144 -1.139077
    4 3.261963 1.374206 1.040803 -2.040361 -1.570796 0.000000
    5 2.531871 -0.036995 -2.070253 0.000000 0.000000 -0.000001
    6 1.073001 -0.000003 4.918042 0.000000 -3.141592 0.000000
    7 2.916357 0.664625 10.775771 -3.048099 0.000000 1.570796
    8 0.923057 -2.001326 -3.726057 -0.062488 -0.333819 0.188710
    9 4.571678 -3.119860 -7.448428 1.099971 -1.883755 -1.301562
    10 7.651906 3.332731 -0.333406 1.566066 -3.122632 0.492839
    11 -0.028951 -8.393264 -0.108040 -0.383312 0.454118 -0.201487
    12 -0.488518 -2.755602 -0.228260 -0.926864 0.104123 -0.205670
    13 0.039887 -1.530573 0.014229 -1.473570 -0.012212 0.032731
    14 0.028786 -1.169484 -0.124675 -1.082413 -0.015161 0.023166
    15 0.250027 -2.820665 -0.238396 -0.656416 0.070401 -0.070751
    16 -0.049759 -1.594604 0.026258 -1.644847 -0.001630 -0.043494
    17 -0.034142 -1.156125 0.057437 -0.778245 0.008377 -0.019511
    18 0.957766 -2.746780 -0.090302 0.192366 -0.212660 0.232006
    19 -0.033420 -1.397129 -0.026882 -0.840549 0.006592 -0.041348
    20 -0.022360 -0.957436 -0.000748 -0.702856 0.007562 -0.034132
    21 -1.180681 -2.507217 -0.193859 -1.000921 0.270987 -0.298350
    22 -0.024967 -1.127840 0.017597 -0.956758 0.004674 -0.041010
    23 -0.020057 -0.906594 0.033528 -1.043762 0.004698 -0.042809
    24 0.603042 -1.205090 0.189285 0.170717 -0.910476 -0.421804
    25 1.485144 -0.208511 0.067511 0.044099 -0.208064 -0.737596
    26 0.975767 -0.198604 0.051823 0.125211 -0.269176 -1.206668
    27 0.120153 -0.050270 -0.054489 0.287569 3.110905 1.561085
    28 -4.888097 -8.543861 -6.060062 0.451349 -4.086611 0.796741
    29 -0.172595 -8.442606 0.025792 -0.639132 -1.362508 0.761229
    30 0.447953 -2.798986 -0.200443 -1.080608 -0.116016 0.286451
    31 -0.032909 -1.495829 0.016659 -0.937501 0.019763 -0.014176
    32 -0.027022 -1.096452 -0.028023 -0.513425 0.013471 -0.005429
    33 -0.249534 -2.846964 -0.174213 -0.688709 -0.073099 0.004763
    34 0.043235 -1.660503 0.080387 -1.014688 -0.016652 0.001691
    35 0.031729 -1.153017 0.058838 -0.444953 -0.003900 0.005867
    36 -0.963866 -2.785145 -0.085350 -0.359784 0.157230 -0.206201
    37 0.028479 -1.403067 -0.013261 -0.774906 -0.017929 -0.029782
    38 0.021413 -0.957781 0.020046 -0.175941 -0.002013 -0.007862
    39 1.164475 -2.543940 -0.170330 -1.269961 -0.216253 0.419838
    40 0.024032 -1.136855 -0.001725 -0.773654 0.004039 0.041288
    41 0.014898 -0.895708 -0.019848 -0.595607 -0.000911 0.029698
    42 -0.586770 -1.264477 0.200161 -0.073069 -0.460710 -2.781506
    43 1.557992 0.035243 0.016848 -0.014170 -0.005588 0.722307
    44 1.117947 0.048424 -0.005766 0.002681 -0.021758 -0.075216
    45 -0.037833 -0.131230 -0.106700 0.756922 0.202509 1.380917
    46 -6.702226 5.514857 -0.399594 1.578408 -0.025205 -0.786668
  time 27
    0 5.472786 -11.508160 -6.130305 -0.627955 -1.475660 -4.196299
    1 0.661211 -0.000004 -2.641094 0.000000 -3.141592 0.000000
    2 3.247482 -0.000005 -1.130647 0.000000 0.000000 -0.000001
    3 3.260927 1.355822 2.192472 2.208361 -1.542144 -1.139077
    4 3.261963 1.374206 1.040803 -2.040361 -1.570796 0.000000
    5 2.531871 -0.036995 -2.070253 0.000000 0.000000 -0.000001
    6 1.073001 -0.000003 4.918042 0.000000 -3.141592 0.000000
    7 2.916357 0.664625 10.775771 -3.048099 0.000000 1.570796
    8 0.923057 -2.001326 -3.726057 -0.062488 -0.333819 0.188710
    9 4.579490 -3.104234 -7.460147 1.100803 -1.884290 -1.302043
    10 7.663625 3.301481 -0.333406 1.566162 -3.122536 0.488517
    11 -0.028951 -8.393264 -0.108040 -0.384322 0.454227 -0.202305
    12 -0.488518 -2.755602 -0.228260 -0.926864 0.104123 -0.205670
    13 0.039887 -1.530573 0.014229 -1.473570 -0.012212 0.032731
    14 0.028786 -1.169484 -0.124675 -1.082413 -0.015161 0.023166
    15 0.250027 -2.820665 -0.238396 -0.656416 0.070401 -0.070751
    16 -0.049759 -1.594604 0.026258 -1.644847 -0.001630 -0.043494
    17 -0.034142 -1.156125 0.057437 -0.778245 0.008377 -0.019511
    18 0.957766 -2.746780 -0.090302 0.192366 -0.212660 0.232006
    19 -0.033420 -1.397129 -0.026882 -0.840549 0.006592 -0.041348
    20 -0.022360 -0.957436 -0.000748 -0.702856 0.007562 -0.034132
    21 -1.180681 -2.507217 -0.193859 -1.000921 0.270987 -0.298350
    22 -0.024967 -1.127840 0.017597 -0.956758 0.004674 -0.041010
    23 -0.020057 -0.906594 0.033528 -1.043762 0.004698 -0.042809
    24 0.603042 -1.205090 0.189285 0.170717 -0.910476 -0.421804
    25 1.485144 -0.208511 0.067511 0.044099 -0.208064 -0.737596
    26 0.975767 -0.198604 0.051823 0.125211 -0.269176 -1.206668
    27 0.120153 -0.050270 -0.054489 0.287569 3.110905 1.561085
    28 -4.895910 -8.532142 -6.075687 0.453214 -4.086050 0.800047
    29 -0.172595 -8.442606 0.025792 -0.632800 -1.362986 0.757281
    30 0.447953 -2.798986 -0.200443 -1.080608 -0.116016 0.286451
    31 -0.032909 -1.495829 0.016659 -0.937501 0.019763 -0.014176
    32 -0.027022 -1.096452 -0.028023 -0.513425 0.013471 -0.005429
    33 -0.249534 -2.846964 -0.174213 -0.688709 -0.073099 0.004763
    34 0.043235 -1.660503 0.080387 -1.014688 -0.016652 0.001691
    35 0.031729 -1.153017 0.058838 -0.444953 -0.003900 0.005867
    36 -0.963866 -2.785145 -0.085350 -0.359784 0.157230 -0.206201
    37 0.028479 -1.403067 -0.013261 -0.774906 -0.017929 -0.029782
    38 0.021413 -0.957781 0.020046 -0.175941 -0.002013 -0.007862
    39 1.164475 -2.543940 -0.170330 -1.269961 -0.216253 0.419838
    40 0.024032 -1.136855 -0.001725 -0.773654 0.004039 0.041288
    41 0.014898 -0.895708 -0.019848 -0.595607 -0.000911 0.029698
    42 -0.586770 -1.264477 0.200161 -0.073069 -0.460710 -2.781506
    43 1.557992 0.035243 0.016848 -0.014170 -0.005588 0.722307
    44 1.117947 0.048424 -0.005766 0.002681 -0.021758 -0.075216
    45 -0.037833 -0.131230 -0.106700 0.756922 0.202509 1.380917
    46 -6.729570 5.475793 -0.399594 1.578312 -0.025300 -0.781013
  time 28
    0 5.480599 -11.492534 -6.134211 -0.628141 -1.475750 -4.196682
    1 0.661211 -0.000004 -2.641094 0.000000 -3.141592 0.000000
    2 3.247482 -0.000005 -1.130647 0.000000 0.000000 -0.000001
    3 3.260927 1.355822 2.192472 2.208361 -1.542144 -1.139077
    4 3.261963 1.374206 1.040803 -2.040361 -1.570796 0.000000
    5 2.531871 -0.036995 -2.070253 0.000000 0.000000 -0.000001
    6 1.073001 -0.000003 4.918042 0.000000 -3.141592 0.000000
    7 2.916357 0.664625 10.775771 -3.048099 0.000000 1.570796
    8 0.923057 -2.001326 -3.726057 -0.062488 -0.333819 0.188710
    9 4.583397 -3.088609 -7.467960 1.101450 -1.884748 -1.302444
    10 7.671438 3.270230 -0.333406 1.566162 -3.122440 0.484771
    11 -0.028951 -8.393264 -0.108040 -0.385240 0.454336 -0.203021
    12 -0.488518 -2.755602 -0.228260 -0.926864 0.104123 -0.205670
    13 0.039887 -1.530573 0.014229 -1.473570 -0.012212 0.032731
    14 0.028786 -1.169484 -0.124675 -1.082413 -0.015161 0.023166
    15 0.250027 -2.820665 -0.238396 -0.656416 0.070401 -0.070751
    16 -0.049759 -1.594604 0.026258 -1.644847 -0.001630 -0.043494
    17 -0.034142 -1.156125 0.057437 -0.778245 0.008377 -0.019511
    18 0.957766 -2.746780 -0.090302 0.192366 -0.212660 0.232006
    19 -0.033420 -1.397129 -0.026882 -0.840549 0.006592 -0.041348
    20 -0.022360 -0.957436 -0.000748 -0.702856 0.007562 -0.034132
    21 -1.180681 -2.507217 -0.193859 -1.000921 0.270987 -0.298350
    22 -0.024967 -1.127840 0.017597 -0.956758 0.004674 -0.041010
    23 -0.020057 -0.906594 0.033528 -1.043762 0.004698 -0.042809
    24 0.603042 -1.205090 0.189285 0.170717 -0.910476 -0.421804
    25 1.485144 -0.208511 0.067511 0.044099 -0.208064 -0.737596
    26 0.975767 -0.198604 0.051823 0.125211 -0.269176 -1.206668
    27 0.120153 -0.050270 -0.054489 0.287569 3.110905 1.561085
    28 -4.899816 -8.520423 -6.091313 0.454835 -4.085521 0.802858
    29 -0.172595 -8.442606 0.025792 -0.627264 -1.363395 0.753802
    30 0.447953 -2.798986 -0.200443 -1.080608 -0.116016 0.286451
    31 -0.032909 -1.495829 0.016659 -0.937501 0.019763 -0.014176
    32 -0.027022 -1.096452 -0.028023 -0.513425 0.013471 -0.005429
    33 -0.249534 -2.846964 -0.174213 -0.688709 -0.073099 0.004763
    34 0.043235 -1.660503 0.080387 -1.014688 -0.016652 0.001691
    35 0.031729 -1.153017 0.058838 -0.444953 -0.003900 0.005867
    36 -0.963866 -2.785145 -0.085350 -0.359784 0.157230 -0.206201
    37 0.028479 -1.403067 -0.013261 -0.774906 -0.017929 -0.029782
    38 0.021413 -0.957781 0.020046 -0.175941 -0.002013 -0.007862
    39 1.164475 -2.543940 -0.170330 -1.269961 -0.216253 0.419838
    40 0.024032 -1.136855 -0.001725 -0.773654 0.004039 0.041288
    41 0.014898 -0.895708 -0.019848 -0.595607 -0.000911 0.029698
    42 -0.586770 -1.264477 0.200161 -0.073069 -0.460710 -2.781506
    43 1.557992 0.035243 0.016848 -0.014170 -0.005588 0.722307
    44 1.117947 0.048424 -0.005766 0.002681 -0.021758 -0.075216
    45 -0.037833 -0.131230 -0.106700 0.756922 0.202509 1.380917
    46 -6.753009 5.444542 -0.399594 1.578312 -0.025396 -0.776100
  time 29
    0 5.484505 -11.480815 -6.138118 -0.628233 -1.475809 -4.196874
    1 0.661211 -0.000004 -2.641094 0.000000 -3.141592 0.000000
    2 3.247482 -0.000005 -1.130647 0.000000 0.000000 -0.000001
    3 3.260927 1.355822 2.192472 2.208361 -1.542144 -1.139077
    4 3.261963 1.374206 1.040803 -2.040361 -1.570796 0.000000
    5 2.531871 -0.036995 -2.070253 0.000000 0.000000 -0.000001
    6 1.073001 -0.000003 4.918042 0.000000 -3.141592 0.000000
    7 2.916357 0.664625 10.775771 -3.048099 0.000000 1.570796
    8 0.923057 -2.001326 -3.726057 -0.062488 -0.333819 0.188710
    9 4.587303 -3.076890 -7.475772 1.102004 -1.885053 -1.302684
    10 7.679251 3.250698 -0.333406 1.566162 -3.122440 0.482105
    11 -0.028951 -8.393264 -0.108040 -0.385837 0.454409 -0.203532
    12 -0.488518 -2.755602 -0.228260 -0.926864 0.104123 -0.205670
    13 0.039887 -1.530573 0.014229 -1.473570 -0.012212 0.032731
    14 0.028786 -1.169484 -0.124675 -1.082413 -0.015161 0.023166
    15 0.250027 -2.820665 -0.238396 -0.656416 0.070401 -0.070751
    16 -0.049759 -1.594604 0.026258 -1.644847 -0.001630 -0.043494
    17 -0.034142 -1.156125 0.057437 -0.778245 0.008377 -0.019511
    18 0.957766 -2.746780 -0.090302 0.192366 -0.212660 0.232006
    19 -0.033420 -1.397129 -0.026882 -0.840549 0.006592 -0.041348
    20 -0.022360 -0.957436 -0.000748 -0.702856 0.007562 -0.034132
    21 -1.180681 -2.507217 -0.193859 -1.000921 0.270987 -0.298350
    22 -0.024967 -1.127840 0.017597 -0.956758 0.004674 -0.041010
    23 -0.020057 -0.906594 0.033528 -1.043762 0.004698 -0.042809
    24 0.603042 -1.205090 0.189285 0.170717 -0.910476 -0.421804
    25 1.485144 -0.208511 0.067511 0.044099 -0.208064 -0.737596
    26 0.975767 -0.198604 0.051823 0.125211 -0.269176 -1.206668
    27 0.120153 -0.050270 -0.054489 0.287569 3.110905 1.561085
    28 -4.903723 -8.512610 -6.099126 0.455964 -4.085158 0.804924
    29 -0.172595 -8.442606 0.025792 -0.623353 -1.363702 0.751295
    30 0.447953 -2.798986 -0.200443 -1.080608 -0.116016 0.286451
    31 -0.032909 -1.495829 0.016659 -0.937501 0.019763 -0.014176
    32 -0.027022 -1.096452 -0.028023 -0.513425 0.013471 -0.005429
    33 -0.249534 -2.846964 -0.174213 -0.688709 -0.073099 0.004763
    34 0.043235 -1.660503 0.080387 -1.014688 -0.016652 0.001691
    35 0.031729 -1.153017 0.058838 -0.444953 -0.003900 0.005867
    36 -0.963866 -2.785145 -0.085350 -0.359784 0.157230 -0.206201
    37 0.028479 -1.403067 -0.013261 -0.774906 -0.017929 -0.029782
    38 0.021413 -0.957781 0.020046 -0.175941 -0.002013 -0.007862
    39 1.164475 -2.543940 -0.170330 -1.269961 -0.216253 0.419838
    40 0.024032 -1.136855 -0.001725 -0.773654 0.004039 0.041288
    41 0.014898 -0.895708 -0.019848 -0.595607 -0.000911 0.029698
    42 -0.586770 -1.264477 0.200161 -0.073069 -0.460710 -2.781506
    43 1.557992 0.035243 0.016848 -0.014170 -0.005588 0.722307
    44 1.117947 0.048424 -0.005766 0.002681 -0.021758 -0.075216
    45 -0.037833 -0.131230 -0.106700 0.756922 0.202509 1.380917
    46 -6.768634 5.421104 -0.399594 1.578216 -0.025492 -0.772577
  time 30
    0 5.484505 -11.473002 -6.138118 -0.628326 -1.475809 -4.196970
    1 0.661211 -0.000004 -2.641094 0.000000 -3.141592 0.000000
    2 3.247482 -0.000005 -1.130647 0.000000 0.000000 -0.000001
    3 3.260927 1.355822 2.192472 2.208361 -1.542144 -1.139077
    4 3.261963 1.374206 1.040803 -2.040361 -1.570796 0.000000
    5 2.531871 -0.036995 -2.070253 0.000000 0.000000 -0.000001
    6 1.073001 -0.000003 4.918042 0.000000 -3.141592 0.000000
    7 2.916357 0.664625 10.775771 -3.048099 0.000000 1.570796
    8 0.923057 -2.001326 -3.726057 -0.062488 -0.333819 0.188710
    9 4.587303 -3.072984 -7.479679 1.102189 -1.885206 -1.302764
    10 7.683157 3.242885 -0.333406 1.566162 -3.122440 0.481097
    11 -0.028951 -8.393264 -0.108040 -0.386113 0.454446 -0.203685
    12 -0.488518 -2.755602 -0.228260 -0.926864 0.104123 -0.205670
    13 0.039887 -1.530573 0.014229 -1.473570 -0.012212 0.032731
    14 0.028786 -1.169484 -0.124675 -1.082413 -0.015161 0.023166
    15 0.250027 -2.820665 -0.238396 -0.656416 0.070401 -0.070751
    16 -0.049759 -1.594604 0.026258 -1.644847 -0.001630 -0.043494
    17 -0.034142 -1.156125 0.057437 -0.778245 0.008377 -0.019511
    18 0.957766 -2.746780 -0.090302 0.192366 -0.212660 0.232006
    19 -0.033420 -1.397129 -0.026882 -0.840549 0.006592 -0.041348
    20 -0.022360 -0.957436 -0.000748 -0.702856 0.007562 -0.034132
    21 -1.180681 -2.507217 -0.193859 -1.000921 0.270987 -0.298350
    22 -0.024967 -1.127840 0.017597 -0.956758 0.004674 -0.041010
    23 -0.020057 -0.906594 0.033528 -1.043762 0.004698 -0.042809
    24 0.603042 -1.205090 0.189285 0.170717 -0.910476 -0.421804
    25 1.485144 -0.208511 0.067511 0.044099 -0.208064 -0.737596
    26 0.975767 -0.198604 0.051823 0.125211 -0.269176 -1.206668
    27 0.120153 -0.050270 -0.054489 0.287569 3.110905 1.561085
    28 -4.907629 -8.512610 -6.103032 0.456406 -4.085026 0.805668
    29 -0.172595 -8.442606 0.025792 -0.621861 -1.363805 0.750355
    30 0.447953 -2.798986 -0.200443 -1.080608 -0.116016 0.286451
    31 -0.032909 -1.495829 0.016659 -0.937501 0.019763 -0.014176
    32 -0.027022 -1.096452 -0.028023 -0.513425 0.013471 -0.005429
    33 -0.249534 -2.846964 -0.174213 -0.688709 -0.073099 0.004763
    34 0.043235 -1.660503 0.080387 -1.014688 -0.016652 0.001691
    35 0.031729 -1.153017 0.058838 -0.444953 -0.003900 0.005867
    36 -0.963866 -2.785145 -0.085350 -0.359784 0.157230 -0.206201
    37 0.028479 -1.403067 -0.013261 -0.774906 -0.017929 -0.029782
    38 0.021413 -0.957781 0.020046 -0.175941 -0.002013 -0.007862
    39 1.164475 -2.543940 -0.170330 -1.269961 -0.216253 0.419838
    40 0.024032 -1.136855 -0.001725 -0.773654 0.004039 0.041288
    41 0.014898 -0.895708 -0.019848 -0.595607 -0.000911 0.029698
    42 -0.586770 -1.264477 0.200161 -0.073069 -0.460710 -2.781506
    43 1.557992 0.035243 0.016848 -0.014170 -0.005588 0.722307
    44 1.117947 0.048424 -0.005766 0.002681 -0.021758 -0.075216
    45 -0.037833 -0.131230 -0.106700 0.756922 0.202509 1.380917
    46 -6.776447 5.413291 -0.399594 1.578216 -0.025492 -0.771279
end
