version 1
nodes
  0 "root" -1
  1 "Bone01" 0
  2 "Bone_Lefthand" 1
  3 "MG36_root" 2
  4 "MG36_charging" 3
  5 "MG36_cocking handle" 4
  6 "MG36_magazine" 3
  7 "MG36_trigger" 3
  8 "Bone04" 0
  9 "Bone_Righthand" 8
  10 "MG36_magazine01" 9
  11 "Bone_L_Upper" 1
  12 "Bone13" 2
  13 "Bone14" 12
  14 "Bone15" 13
  15 "Bone17" 2
  16 "Bone18" 15
  17 "Bone19" 16
  18 "Bone21" 2
  19 "Bone22" 18
  20 "Bone23" 19
  21 "Bone09" 2
  22 "Bone10" 21
  23 "Bone11" 22
  24 "Bone05" 2
  25 "Bone06" 24
  26 "Bone07" 25
  27 "Bone_Se_Hand-L" 2
  28 "Bone39" 9
  29 "Bone40" 28
  30 "Bone41" 29
  31 "Bone35" 9
  32 "Bone36" 31
  33 "Bone37" 32
  34 "Bone31" 9
  35 "Bone32" 34
  36 "Bone33" 35
  37 "Bone43" 9
  38 "Bone44" 37
  39 "Bone45" 38
  40 "Bone27" 9
  41 "Bone28" 40
  42 "Bone29" 41
  43 "Bone_Se_Hand-R" 9
  44 "Bone_R_Upper" 8
end
skeleton
  time 0
    0 1.833241 0.014360 -42.530646 0.000000 0.000000 0.000000
    1 9.325729 -13.397517 36.123214 4.922451 0.530332 1.312751
    2 -0.071921 -8.498736 -0.104130 0.058079 -0.013438 1.391076
    3 1.279076 -2.919489 0.865077 -0.267836 -0.222057 -3.738209
    4 -3.112814 0.806304 0.000001 0.000000 0.000000 2.037040
    5 3.839096 -0.031378 0.000000 0.000000 0.000000 0.000537
    6 -1.613795 3.251794 0.000001 0.000000 0.000000 0.467615
    7 -0.521923 1.011393 0.000000 0.000002 0.000000 0.727008
    8 -11.860966 -2.293670 32.612993 -0.505071 -3.792197 0.265710
    9 0.093038 -8.528546 -0.056241 -0.502728 -0.077426 -0.044546
    10 17.991777 19.301662 29.975197 1.678699 -1.281876 -0.093751
    11 3.690848 8.387573 0.408804 1.570284 3.083251 1.296391
    12 -0.488518 -2.755602 -0.228260 -0.912721 0.017679 -0.333533
    13 0.039887 -1.479790 0.029854 -1.748715 0.000000 0.000001
    14 0.028786 -1.075731 -0.023109 0.002099 0.000000 0.000000
    15 0.250027 -2.820665 -0.238396 -0.542709 0.010094 -0.304331
    16 -0.049759 -1.680544 0.100479 -2.059934 0.000000 -0.000002
    17 -0.034142 -1.148312 0.084782 -0.502864 0.000000 0.000000
    18 0.957766 -2.746780 -0.090302 0.374842 0.111199 -0.173277
    19 -0.033420 -1.397129 -0.011257 -1.281348 0.000000 -0.000001
    20 -0.022360 -0.957436 0.018784 -0.621026 0.000000 0.000000
    21 -1.180681 -2.507217 -0.193859 -1.441117 0.170544 -0.457493
    22 -0.024967 -1.123934 0.017597 -0.703057 0.000000 0.000001
    23 -0.020057 -0.890968 0.010090 -0.715137 0.000000 0.000000
    24 0.583510 -1.197277 0.185379 0.245908 -0.934487 -0.500771
    25 1.535927 0.010246 0.005009 -0.126249 0.359646 -0.720244
    26 1.100771 0.004527 -0.010679 -0.007254 0.014511 -0.287578
    27 0.440475 -0.382311 0.109579 0.411039 3.331636 1.193769
    28 0.447953 -2.798986 -0.200443 -0.393402 -0.017478 0.389987
    29 -0.032909 -1.480204 0.004940 -0.594349 0.000000 0.000002
    30 -0.027022 -1.076920 -0.020210 -0.346317 0.000000 0.000000
    31 -0.249534 -2.846964 -0.174213 -0.244924 -0.013747 0.322748
    32 0.043235 -1.683941 0.096012 -1.142369 0.002823 -0.000167
    33 0.031729 -1.160830 0.058838 -0.344228 0.000642 0.008372
    34 -0.963866 -2.785145 -0.085350 -0.213529 0.158981 0.144215
    35 0.028479 -1.403067 0.006271 -0.402730 0.000000 0.000000
    36 0.021413 -0.957781 0.020046 -0.218684 0.000000 0.000000
    37 1.164475 -2.543940 -0.170330 -0.870257 -0.217740 0.364459
    38 0.024032 -1.129042 0.017807 -0.852712 0.000000 0.000001
    39 0.014898 -0.883989 -0.019848 -0.274312 0.000000 0.000000
    40 -0.575051 -1.244945 0.110315 -0.183018 -0.537330 -2.700180
    41 1.522835 0.058681 0.016848 0.141007 -0.200781 0.483861
    42 1.117947 0.048424 -0.005766 0.026243 -0.083347 0.074331
    43 -0.139399 -0.111698 0.014397 0.293476 -0.234405 1.519435
    44 -1.393470 8.839177 -0.239433 1.580804 -0.005023 -1.566847
  time 1
    0 1.833241 0.014360 -42.530646 0.000000 0.000000 0.000000
    1 9.302291 -13.381892 35.642731 4.890291 0.492353 1.319622
    2 -0.071921 -8.498736 -0.104130 0.074179 -0.008612 1.354410
    3 1.279076 -2.919489 0.865077 -0.267836 -0.222057 -3.738209
    4 -3.112814 0.806304 0.000001 0.000000 0.000000 2.037040
    5 3.839096 -0.031378 0.000000 0.000000 0.000000 0.000537
    6 -1.613795 3.251794 0.000001 0.000000 0.000000 0.467615
    7 -0.521923 1.011393 0.000000 0.000002 0.000000 0.727008
    8 -11.755494 -2.387423 32.636431 -0.510304 -3.810149 0.261809
    9 0.093038 -8.524639 -0.056241 -0.500099 -0.088488 -0.039584
    10 17.991777 19.301662 29.975197 1.678699 -1.281876 -0.093751
    11 3.436934 8.426637 0.350209 -1.569795 0.052887 -1.816104
    12 -0.488518 -2.755602 -0.228260 -0.889487 0.017679 -0.333533
    13 0.039887 -1.479790 0.029854 -1.616166 0.000000 0.000001
    14 0.028786 -1.075731 -0.023109 0.036930 0.000000 0.000000
    15 0.250027 -2.820665 -0.238396 -0.542709 0.010094 -0.304331
    16 -0.049759 -1.680544 0.100479 -2.059934 0.000000 -0.000002
    17 -0.034142 -1.148312 0.084782 -0.291048 0.000000 0.000000
    18 0.957766 -2.746780 -0.090302 0.374842 0.111199 -0.173277
    19 -0.033420 -1.397129 -0.011257 -1.281348 0.000000 -0.000001
    20 -0.022360 -0.957436 0.018784 -0.594735 0.000000 0.000000
    21 -1.180681 -2.507217 -0.193859 -1.384372 0.170544 -0.457493
    22 -0.024967 -1.123934 0.017597 -0.668585 0.000000 0.000001
    23 -0.020057 -0.890968 0.010090 -0.666951 0.000000 0.000000
    24 0.583510 -1.197277 0.185379 0.245908 -0.934487 -0.500771
    25 1.535927 0.010246 0.005009 -0.126249 0.359646 -0.720244
    26 1.100771 0.004527 -0.010679 -0.007254 0.014511 -0.287578
    27 0.487352 -0.327622 0.101766 0.418468 3.302979 1.170078
    28 0.447953 -2.798986 -0.200443 -0.411841 -0.019516 0.400432
    29 -0.032909 -1.480204 0.004940 -0.600727 0.000000 0.000002
    30 -0.027022 -1.076920 -0.020210 -0.346317 0.000000 0.000000
    31 -0.249534 -2.846964 -0.174213 -0.250580 -0.013030 0.323298
    32 0.043235 -1.683941 0.096012 -1.143401 0.002823 -0.000167
    33 0.031729 -1.160830 0.058838 -0.344228 0.000642 0.008372
    34 -0.963866 -2.785145 -0.085350 -0.222986 0.159781 0.150942
    35 0.028479 -1.403067 0.006271 -0.404437 0.000000 0.000000
    36 0.021413 -0.957781 0.020046 -0.222031 0.000000 0.000000
    37 1.164475 -2.543940 -0.170330 -0.886443 -0.215483 0.378948
    38 0.024032 -1.129042 0.017807 -0.848482 0.000000 0.000001
    39 0.014898 -0.883989 -0.019848 -0.274312 0.000000 0.000000
    40 -0.575051 -1.244945 0.110315 -0.168178 -0.531863 -2.697651
    41 1.522835 0.058681 0.016848 0.137855 -0.198780 0.498003
    42 1.117947 0.048424 -0.005766 0.025332 -0.083503 0.084720
    43 -0.139399 -0.111698 0.014397 0.293923 -0.240496 1.517541
    44 -1.393470 8.839177 -0.239433 1.580804 -0.005023 -1.566847
  time 2
    0 1.833241 0.014360 -42.530646 0.000000 0.000000 0.000000
    1 9.228070 -13.307671 34.490352 4.810720 0.399559 1.337181
    2 -0.071921 -8.498736 -0.104130 0.113446 0.002780 1.261463
    3 1.279076 -2.919489 0.865077 -0.267836 -0.222057 -3.738209
    4 -3.112814 0.806304 0.000001 0.000000 0.000000 2.037040
    5 3.839096 -0.031378 0.000000 0.000000 0.000000 0.000537
    6 -1.613795 3.251794 0.000001 0.000000 0.000000 0.467615
    7 -0.521923 1.011393 0.000000 0.000002 0.000000 0.727008
    8 -11.454704 -2.660869 32.706746 -0.525507 -3.861312 0.250378
    9 0.096944 -8.516827 -0.056241 -0.492552 -0.118411 -0.026022
    10 17.991777 19.301662 29.975197 1.678699 -1.281876 -0.093751
    11 2.831447 8.520390 0.209579 -1.567495 0.039537 -1.746986
    12 -0.488518 -2.755602 -0.228260 -0.838416 0.017679 -0.333533
    13 0.039887 -1.479790 0.029854 -1.324610 0.000000 0.000001
    14 0.028786 -1.075731 -0.023109 0.113580 0.000000 0.000000
    15 0.250027 -2.820665 -0.238396 -0.542709 0.010094 -0.304331
    16 -0.049759 -1.680544 0.100479 -2.059934 0.000000 -0.000002
    17 -0.034142 -1.148312 0.084782 -0.079233 0.000000 0.000000
    18 0.957766 -2.746780 -0.090302 0.374842 0.111199 -0.173277
    19 -0.033420 -1.397129 -0.011257 -1.281348 0.000000 -0.000001
    20 -0.022360 -0.957436 0.018784 -0.529030 0.000000 0.000000
    21 -1.180681 -2.507217 -0.193859 -1.242509 0.170544 -0.457493
    22 -0.024967 -1.123934 0.017597 -0.582415 0.000000 0.000001
    23 -0.020057 -0.890968 0.010090 -0.546435 0.000000 0.000000
    24 0.583510 -1.197277 0.185379 0.245908 -0.934487 -0.500771
    25 1.535927 0.010246 0.005009 -0.126249 0.359646 -0.720244
    26 1.100771 0.004527 -0.010679 -0.007254 0.014511 -0.287578
    27 0.596730 -0.198712 0.078328 0.436334 3.235084 1.112664
    28 0.447953 -2.798986 -0.200443 -0.462020 -0.025205 0.428791
    29 -0.032909 -1.480204 0.004940 -0.618100 0.000000 0.000002
    30 -0.027022 -1.076920 -0.020210 -0.346317 0.000000 0.000000
    31 -0.249534 -2.846964 -0.174213 -0.265943 -0.011075 0.324920
    32 0.043235 -1.683941 0.096012 -1.146174 0.002823 -0.000167
    33 0.031729 -1.160830 0.058838 -0.344228 0.000642 0.008372
    34 -0.963866 -2.785145 -0.085350 -0.248661 0.161910 0.169223
    35 0.028479 -1.403067 0.006271 -0.409106 0.000000 0.000000
    36 0.021413 -0.957781 0.020046 -0.231075 0.000000 0.000000
    37 1.164475 -2.543940 -0.170330 -0.930483 -0.209374 0.418278
    38 0.024032 -1.129042 0.017807 -0.836550 0.000000 0.000001
    39 0.014898 -0.883989 -0.019848 -0.274312 0.000000 0.000000
    40 -0.575051 -1.244945 0.110315 -0.127962 -0.516998 -2.690879
    41 1.522835 0.058681 0.016848 0.129298 -0.193387 0.536442
    42 1.117947 0.048424 -0.005766 0.022887 -0.083911 0.112942
    43 -0.139399 -0.111698 0.014397 0.295206 -0.256987 1.512376
    44 -1.393470 8.839177 -0.239433 1.580804 -0.005023 -1.566847
  time 3
    0 1.833241 0.014360 -42.530646 0.000000 0.000000 0.000000
    1 9.138223 -13.147510 33.115310 4.709268 0.283804 1.360752
    2 -0.071921 -8.498736 -0.104130 0.162361 0.015715 1.137815
    3 1.279076 -2.919489 0.865077 -0.267836 -0.222057 -3.738209
    4 -3.112814 0.806304 0.000001 0.000000 0.000000 2.037040
    5 3.839096 -0.031378 0.000000 0.000000 0.000000 0.000537
    6 -1.613795 3.251794 0.000001 0.000000 0.000000 0.467615
    7 -0.521923 1.011393 0.000000 0.000002 0.000000 0.727008
    8 -10.982033 -3.086663 32.816124 -0.549903 -3.941361 0.232142
    9 0.104757 -8.501201 -0.056241 -0.480574 -0.162406 -0.005561
    10 17.991777 19.301662 29.975197 1.678699 -1.281876 -0.093751
    11 2.112675 8.629768 0.041605 -1.567303 0.022896 -1.664586
    12 -0.488518 -2.755602 -0.228260 -0.787315 0.017679 -0.333533
    13 0.039887 -1.479790 0.029854 -1.033054 0.000000 0.000001
    14 0.028786 -1.075731 -0.023109 0.190230 0.000000 0.000000
    15 0.250027 -2.820665 -0.238396 -0.542709 0.010094 -0.304331
    16 -0.049759 -1.680544 0.100479 -2.059934 0.000000 -0.000002
    17 -0.034142 -1.148312 0.084782 -0.083455 0.000000 0.000000
    18 0.957766 -2.746780 -0.090302 0.374842 0.111199 -0.173277
    19 -0.033420 -1.397129 -0.011257 -1.281348 0.000000 -0.000001
    20 -0.022360 -0.957436 0.018784 -0.443584 0.000000 0.000000
    21 -1.180681 -2.507217 -0.193859 -1.058088 0.170544 -0.457493
    22 -0.024967 -1.123934 0.017597 -0.470385 0.000000 0.000001
    23 -0.020057 -0.890968 0.010090 -0.389774 0.000000 0.000000
    24 0.583510 -1.197277 0.185379 0.245908 -0.934487 -0.500771
    25 1.535927 0.010246 0.005009 -0.126249 0.359646 -0.720244
    26 1.100771 0.004527 -0.006773 -0.007254 0.014511 -0.287578
    27 0.725640 -0.046364 0.047077 0.457493 3.154733 1.042258
    28 0.447953 -2.798986 -0.200443 -0.536026 -0.033925 0.470543
    29 -0.032909 -1.480204 0.004940 -0.643684 0.000000 0.000002
    30 -0.027022 -1.076920 -0.020210 -0.346317 0.000000 0.000000
    31 -0.249534 -2.846964 -0.174213 -0.288568 -0.008234 0.327599
    32 0.043235 -1.683941 0.096012 -1.150301 0.002823 -0.000167
    33 0.031729 -1.160830 0.058838 -0.344228 0.000642 0.008372
    34 -0.963866 -2.785145 -0.085350 -0.286504 0.164933 0.196167
    35 0.028479 -1.403067 0.006271 -0.415983 0.000000 0.000000
    36 0.021413 -0.957781 0.020046 -0.244422 0.000000 0.000000
    37 1.164475 -2.543940 -0.170330 -0.995649 -0.200333 0.476284
    38 0.024032 -1.129042 0.017807 -0.817806 0.000000 0.000001
    39 0.014898 -0.883989 -0.019848 -0.274312 0.000000 0.000000
    40 -0.575051 -1.244945 0.110315 -0.068643 -0.495086 -2.681016
    41 1.522835 0.058681 0.016848 0.116654 -0.185453 0.593072
    42 1.117947 0.048424 -0.005766 0.019280 -0.084462 0.154544
    43 -0.139399 -0.111698 0.014397 0.297244 -0.281299 1.504681
    44 -1.393470 8.839177 -0.239433 1.580804 -0.005023 -1.566847
  time 4
    0 1.833241 0.014360 -42.530646 0.000000 0.000000 0.000000
    1 9.064002 -12.866251 31.962931 4.611379 0.177043 1.385563
    2 -0.071921 -8.498736 -0.104130 0.209667 0.025723 1.009042
    3 1.279076 -2.919489 0.865077 -0.267836 -0.222057 -3.738209
    4 -3.112814 0.806304 0.000001 0.000000 0.000000 2.037040
    5 3.839096 -0.031378 0.000000 0.000000 0.000000 0.000537
    6 -1.613795 3.251794 0.000001 0.000000 0.000000 0.467615
    7 -0.521923 1.011393 0.000000 0.000002 0.000000 0.727008
    8 -10.360921 -3.649180 32.960660 -0.582997 -4.046380 0.207374
    9 0.116476 -8.481669 -0.056241 -0.464750 -0.215682 0.019909
    10 17.991777 19.301662 29.975197 1.678699 -1.281876 -0.093751
    11 1.507188 8.723521 -0.095117 -1.569220 0.008700 -1.595643
    12 -0.488518 -2.755602 -0.228260 -0.764112 0.017679 -0.333533
    13 0.039887 -1.479790 0.029854 -0.900505 0.000000 0.000001
    14 0.028786 -1.075731 -0.023109 0.225077 0.000000 0.000000
    15 0.250027 -2.820665 -0.238396 -0.542709 0.010094 -0.304331
    16 -0.049759 -1.680544 0.100479 -2.059934 0.000000 -0.000002
    17 -0.034142 -1.148312 0.084782 -0.095445 0.000000 0.000000
    18 0.957766 -2.746780 -0.090302 0.374842 0.111199 -0.173277
    19 -0.033420 -1.397129 -0.011257 -1.281348 0.000000 -0.000001
    20 -0.022360 -0.957436 0.018784 -0.358138 0.000000 0.000000
    21 -1.180681 -2.507217 -0.193859 -0.873667 0.170544 -0.457493
    22 -0.024967 -1.123934 0.017597 -0.358335 0.000000 0.000001
    23 -0.020057 -0.890968 0.010090 -0.233114 0.000000 0.000000
    24 0.583510 -1.197277 0.185379 0.245908 -0.934487 -0.500771
    25 1.535927 0.010246 0.005009 -0.126249 0.359646 -0.720244
    26 1.100771 0.008433 -0.002866 -0.007254 0.014511 -0.287578
    27 0.831112 0.082547 0.015826 0.475077 3.088148 0.981787
    28 0.447953 -2.798986 -0.200443 -0.626198 -0.045057 0.521214
    29 -0.032909 -1.480204 0.004940 -0.674729 0.000000 0.000002
    30 -0.027022 -1.076920 -0.020210 -0.346317 0.000000 0.000000
    31 -0.249534 -2.846964 -0.174213 -0.316085 -0.004783 0.331290
    32 0.043235 -1.683941 0.096012 -1.155267 0.002823 -0.000167
    33 0.031729 -1.160830 0.058838 -0.344228 0.000642 0.008372
    34 -0.963866 -2.785145 -0.085350 -0.332513 0.168472 0.228941
    35 0.028479 -1.403067 0.006271 -0.424317 0.000000 0.000000
    36 0.021413 -0.957781 0.020046 -0.260617 0.000000 0.000000
    37 1.164475 -2.543940 -0.170330 -1.075119 -0.189304 0.546742
    38 0.024032 -1.129042 0.017807 -0.793273 0.000000 0.000001
    39 0.014898 -0.883989 -0.019848 -0.274312 0.000000 0.000000
    40 -0.575051 -1.244945 0.110315 0.003424 -0.468412 -2.669250
    41 1.522835 0.058681 0.016848 0.101278 -0.175841 0.661850
    42 1.117947 0.048424 -0.005766 0.014906 -0.085085 0.205055
    43 -0.139399 -0.111698 0.014397 0.300007 -0.310779 1.495190
    44 -1.393470 8.839177 -0.239433 1.580804 -0.005023 -1.566847
  time 5
    0 1.833241 0.014360 -42.530646 0.000000 0.000000 0.000000
    1 9.032751 -12.428738 31.482448 4.542501 0.111034 1.406844
    2 -0.071921 -8.498736 -0.104130 0.247221 0.030035 0.900808
    3 1.279076 -2.919489 0.865077 -0.267836 -0.222057 -3.738209
    4 -3.112814 0.806304 0.000001 0.000000 0.000000 2.037040
    5 3.839096 -0.031378 0.000000 0.000000 0.000000 0.000537
    6 -1.613795 3.251794 0.000001 0.000000 0.000000 0.467615
    7 -0.521923 1.011393 0.000000 0.000002 0.000000 0.727008
    8 -9.614804 -4.317169 33.136447 -0.624435 -4.172044 0.176165
    9 0.128195 -8.454325 -0.056241 -0.445712 -0.273451 0.048640
    10 17.991777 19.301662 29.975197 1.678699 -1.281876 -0.093751
    11 1.257180 8.762585 -0.153713 -1.570562 0.002683 -1.566807
    12 -0.488518 -2.755602 -0.228260 -0.765574 0.017679 -0.333533
    13 0.039887 -1.479790 0.029854 -0.908980 0.000000 0.000001
    14 0.028786 -1.075731 -0.023109 0.218135 0.000000 0.000000
    15 0.250027 -2.820665 -0.238396 -0.542709 0.010094 -0.304331
    16 -0.049759 -1.680544 0.100479 -2.059934 0.000000 -0.000002
    17 -0.034142 -1.148312 0.084782 -0.114157 0.000000 0.000000
    18 0.957766 -2.746780 -0.090302 0.374842 0.111199 -0.173277
    19 -0.033420 -1.397129 -0.011257 -1.281348 0.000000 -0.000001
    20 -0.022360 -0.957436 0.018784 -0.292434 0.000000 0.000000
    21 -1.180681 -2.507217 -0.193859 -0.731804 0.170544 -0.457493
    22 -0.024967 -1.123934 0.017597 -0.272165 0.000000 0.000001
    23 -0.020057 -0.890968 0.010090 -0.112598 0.000000 0.000000
    24 0.583510 -1.197277 0.185379 0.245908 -0.934487 -0.500771
    25 1.535927 0.010246 0.005009 -0.126249 0.359646 -0.720244
    26 1.104677 0.008433 -0.002866 -0.007254 0.014511 -0.287578
    27 0.877989 0.137236 -0.015425 0.482318 3.060334 0.955898
    28 0.447953 -2.798986 -0.200443 -0.724578 -0.057969 0.576329
    29 -0.032909 -1.480204 0.004940 -0.708559 0.000000 0.000002
    30 -0.027022 -1.076920 -0.020210 -0.346317 0.000000 0.000000
    31 -0.249534 -2.846964 -0.174213 -0.345996 -0.001057 0.335992
    32 0.043235 -1.683941 0.096012 -1.160619 0.002823 -0.000167
    33 0.031729 -1.160830 0.058838 -0.344228 0.000642 0.008372
    34 -0.963866 -2.785145 -0.085350 -0.382622 0.172146 0.264639
    35 0.028479 -1.403067 0.006271 -0.433403 0.000000 0.000000
    36 0.021413 -0.957781 0.020046 -0.278247 0.000000 0.000000
    37 1.164475 -2.543940 -0.170330 -1.162022 -0.177184 0.623463
    38 0.024032 -1.129042 0.017807 -0.763843 0.000000 0.000001
    39 0.014898 -0.883989 -0.019848 -0.274312 0.000000 0.000000
    40 -0.575051 -1.244945 0.110315 0.081886 -0.439348 -2.656734
    41 1.522835 0.058681 0.016848 0.084499 -0.165415 0.736735
    42 1.117947 0.048424 -0.005766 0.010148 -0.085684 0.260037
    43 -0.139399 -0.111698 0.014397 0.303412 -0.342849 1.484655
    44 -1.393470 8.839177 -0.239433 1.580804 -0.005023 -1.566847
  time 6
    0 1.833241 0.014360 -42.530646 0.000000 0.000000 0.000000
    1 9.075721 -11.870127 31.513699 4.495587 0.076116 1.425643
    2 -0.071921 -8.498736 -0.104130 0.283060 0.026534 0.815128
    3 1.279076 -2.919489 0.865077 -0.267836 -0.222057 -3.738209
    4 -3.112814 0.806304 0.000001 0.000000 0.000000 2.037040
    5 3.839096 -0.031378 0.000000 0.000000 0.000000 0.000537
    6 -1.613795 3.251794 0.000001 0.000000 0.000000 0.467615
    7 -0.521923 1.011393 0.000000 0.000002 0.000000 0.727008
    8 -8.778841 -5.078911 33.331765 -0.675207 -4.314272 0.137425
    9 0.147727 -8.430887 -0.056241 -0.423948 -0.330924 0.078410
    10 17.991777 19.301662 29.975197 1.678699 -1.281876 -0.093751
    11 1.257180 8.762585 -0.153713 -1.570562 0.002683 -1.566807
    12 -0.488518 -2.755602 -0.228260 -0.769804 0.017679 -0.333533
    13 0.039887 -1.479790 0.029854 -0.932957 0.000000 0.000001
    14 0.028786 -1.075731 -0.023109 0.198418 0.000000 0.000000
    15 0.250027 -2.820665 -0.238396 -0.542709 0.010094 -0.304331
    16 -0.049759 -1.680544 0.100479 -2.059934 0.000000 -0.000002
    17 -0.034142 -1.148312 0.084782 -0.138559 0.000000 0.000000
    18 0.957766 -2.746780 -0.090302 0.374842 0.111199 -0.173277
    19 -0.033420 -1.397129 -0.011257 -1.281348 0.000000 -0.000001
    20 -0.022360 -0.957436 0.018784 -0.266142 0.000000 0.000000
    21 -1.180681 -2.507217 -0.193859 -0.675059 0.170544 -0.457493
    22 -0.024967 -1.123934 0.017597 -0.237692 0.000000 0.000001
    23 -0.020057 -0.890968 0.010090 -0.064392 0.000000 0.000000
    24 0.583510 -1.197277 0.185379 0.245908 -0.934487 -0.500771
    25 1.535927 0.010246 0.005009 -0.126249 0.359646 -0.720244
    26 1.104677 0.008433 0.001040 -0.007254 0.014511 -0.287578
    27 0.819393 0.129423 -0.046676 0.476206 3.107721 0.945772
    28 0.447953 -2.798986 -0.200443 -0.823253 -0.072055 0.631368
    29 -0.032909 -1.480204 0.004940 -0.742353 0.000000 0.000002
    30 -0.027022 -1.076920 -0.020210 -0.346317 0.000000 0.000000
    31 -0.249534 -2.846964 -0.174213 -0.375960 0.002609 0.341662
    32 0.043235 -1.683941 0.096012 -1.166036 0.002823 -0.000167
    33 0.031729 -1.160830 0.058838 -0.344228 0.000642 0.008372
    34 -0.963866 -2.785145 -0.085350 -0.432796 0.175617 0.300372
    35 0.028479 -1.403067 0.006271 -0.442490 0.000000 0.000000
    36 0.021413 -0.957781 0.020046 -0.295898 0.000000 0.000000
    37 1.164475 -2.543940 -0.170330 -1.249350 -0.164917 0.700208
    38 0.024032 -1.129042 0.017807 -0.730584 0.000000 0.000001
    39 0.014898 -0.883989 -0.019848 -0.274312 0.000000 0.000000
    40 -0.575051 -1.244945 0.110315 0.160347 -0.410243 -2.644500
    41 1.522835 0.058681 0.016848 0.067685 -0.155024 0.811588
    42 1.117947 0.048424 -0.005766 0.005414 -0.086212 0.315002
    43 -0.139399 -0.111698 0.014397 0.307180 -0.374868 1.473869
    44 -1.393470 8.839177 -0.239433 1.580804 -0.005023 -1.566847
  time 7
    0 1.833241 0.014360 -42.530646 0.000000 0.000000 0.000000
    1 9.185100 -11.241202 31.603545 4.446768 0.041581 1.445874
    2 -0.071921 -8.498736 -0.104130 0.324760 0.016586 0.735159
    3 1.279076 -2.919489 0.865077 -0.267836 -0.222057 -3.738209
    4 -3.112814 0.806304 0.000001 0.000000 0.000000 2.037040
    5 3.839096 -0.031378 0.000000 0.000000 0.000000 0.000537
    6 -1.613795 3.251794 0.000001 0.000000 0.000000 0.467615
    7 -0.521923 1.011393 0.000000 0.000002 0.000000 0.727008
    8 -7.864751 -5.899249 33.546615 -0.740900 -4.468904 0.085258
    9 0.163352 -8.399636 -0.056241 -0.399846 -0.383565 0.106668
    10 17.991777 19.301662 29.975197 1.678699 -1.281876 -0.093751
    11 1.257180 8.762585 -0.153713 -1.570562 0.002683 -1.566807
    12 -0.488518 -2.755602 -0.228260 -0.776366 0.017679 -0.333533
    13 0.039887 -1.479790 0.029854 -0.970422 0.000000 0.000001
    14 0.028786 -1.075731 -0.023109 0.167635 0.000000 0.000000
    15 0.250027 -2.820665 -0.238396 -0.542709 0.010094 -0.304331
    16 -0.049759 -1.680544 0.100479 -2.059934 0.000000 -0.000002
    17 -0.034142 -1.148312 0.084782 -0.167622 0.000000 0.000000
    18 0.957766 -2.746780 -0.090302 0.374842 0.111199 -0.173277
    19 -0.033420 -1.397129 -0.011257 -1.281348 0.000000 -0.000001
    20 -0.022360 -0.957436 0.018784 -0.267929 0.000000 0.000000
    21 -1.180681 -2.507217 -0.193859 -0.682687 0.170544 -0.457493
    22 -0.024967 -1.123934 0.017597 -0.242333 0.000000 0.000001
    23 -0.020057 -0.890968 0.010090 -0.070882 0.000000 0.000000
    24 0.583510 -1.197277 0.185379 0.245908 -0.934487 -0.500771
    25 1.535927 0.010246 0.005009 -0.126249 0.359646 -0.720244
    26 1.104677 0.012340 0.001040 -0.007254 0.014511 -0.287578
    27 0.678764 0.113798 -0.077927 0.458715 3.211859 0.923704
    28 0.447953 -2.798986 -0.200443 -0.914140 -0.086773 0.681842
    29 -0.032909 -1.480204 0.004940 -0.773399 0.000000 0.000002
    30 -0.027022 -1.076920 -0.020210 -0.346317 0.000000 0.000000
    31 -0.249534 -2.846964 -0.174213 -0.403504 0.005938 0.348284
    32 0.043235 -1.683941 0.096012 -1.171002 0.002823 -0.000167
    33 0.031729 -1.160830 0.058838 -0.344228 0.000642 0.008372
    34 -0.963866 -2.785145 -0.085350 -0.478952 0.178640 0.333234
    35 0.028479 -1.403067 0.006271 -0.450823 0.000000 0.000000
    36 0.021413 -0.957781 0.020046 -0.312093 0.000000 0.000000
    37 1.164475 -2.543940 -0.170330 -1.329996 -0.153496 0.770715
    38 0.024032 -1.129042 0.017807 -0.694386 0.000000 0.000001
    39 0.014898 -0.883989 -0.019848 -0.274312 0.000000 0.000000
    40 -0.575051 -1.244945 0.110315 0.232415 -0.383445 -2.633514
    41 1.522835 0.058681 0.016848 0.052201 -0.145496 0.880430
    42 1.117947 0.048424 -0.005766 0.001075 -0.086643 0.365513
    43 -0.139399 -0.111698 0.014397 0.311032 -0.404259 1.463730
    44 -1.393470 8.839177 -0.239433 1.580804 -0.005023 -1.566847
  time 8
    0 1.833241 0.014360 -42.530646 0.000000 0.000000 0.000000
    1 9.349167 -10.561493 31.736362 4.396539 0.007525 1.467345
    2 -0.071921 -8.498736 -0.104130 0.365148 0.004264 0.658173
    3 1.279076 -2.919489 0.865077 -0.267836 -0.222057 -3.738209
    4 -3.112814 0.806304 0.000001 0.000000 0.000000 2.037040
    5 3.839096 -0.031378 0.000000 0.000000 0.000000 0.000537
    6 -1.613795 3.251794 0.000001 0.000000 0.000000 0.467615
    7 -0.521923 1.011393 0.000000 0.000002 0.000000 0.727008
    8 -6.899877 -6.770369 33.769279 -0.880134 -4.631450 -0.039035
    9 0.182884 -8.364478 -0.056241 -0.373699 -0.426754 0.130673
    10 17.991777 19.301662 29.975197 1.678699 -1.281876 -0.093751
    11 1.257180 8.762585 -0.153713 -1.570562 0.002683 -1.566807
    12 -0.488518 -2.755602 -0.228260 -0.784920 0.017679 -0.333533
    13 0.039887 -1.479790 0.029854 -1.019308 0.000000 0.000001
    14 0.028786 -1.075731 -0.023109 0.127494 0.000000 0.000000
    15 0.250027 -2.820665 -0.238396 -0.542709 0.010094 -0.304331
    16 -0.049759 -1.680544 0.100479 -2.059934 0.000000 -0.000002
    17 -0.034142 -1.148312 0.084782 -0.200301 0.000000 0.000000
    18 0.957766 -2.746780 -0.090302 0.374842 0.111199 -0.173277
    19 -0.033420 -1.397129 -0.011257 -1.281348 0.000000 -0.000001
    20 -0.022360 -0.957436 0.018784 -0.273127 0.000000 0.000000
    21 -1.180681 -2.507217 -0.193859 -0.704362 0.170544 -0.457493
    22 -0.024967 -1.123934 0.017597 -0.255503 0.000000 0.000001
    23 -0.020057 -0.890968 0.010090 -0.089293 0.000000 0.000000
    24 0.583510 -1.197277 0.185379 0.245908 -0.934487 -0.500771
    25 1.535927 0.010246 0.005009 -0.126249 0.359646 -0.720244
    26 1.104677 0.012340 0.004946 -0.007254 0.014511 -0.287578
    27 0.506884 0.086453 -0.109178 0.429658 3.316184 0.902114
    28 0.447953 -2.798986 -0.200443 -0.989157 -0.101595 0.723216
    29 -0.032909 -1.480204 0.004940 -0.798982 0.000000 0.000002
    30 -0.027022 -1.076920 -0.020210 -0.346317 0.000000 0.000000
    31 -0.249534 -2.846964 -0.174213 -0.426207 0.008610 0.355829
    32 0.043235 -1.683941 0.096012 -1.175064 0.002823 -0.000167
    33 0.031729 -1.160830 0.058838 -0.344228 0.000642 0.008372
    34 -0.963866 -2.785145 -0.085350 -0.517023 0.181013 0.360319
    35 0.028479 -1.403067 0.006271 -0.457701 0.000000 0.000000
    36 0.021413 -0.957781 0.020046 -0.325440 0.000000 0.000000
    37 1.164475 -2.543940 -0.170330 -1.396667 -0.143940 0.828772
    38 0.024032 -1.129042 0.017807 -0.656274 0.000000 0.000001
    39 0.014898 -0.883989 -0.019848 -0.274312 0.000000 0.000000
    40 -0.575051 -1.244945 0.110315 0.291734 -0.361325 -2.624619
    41 1.522835 0.058681 0.016848 0.039413 -0.137658 0.937123
    42 1.117947 0.048424 -0.005766 -0.002460 -0.086943 0.407115
    43 -0.139399 -0.111698 0.014397 0.314492 -0.428443 1.455173
    44 -1.393470 8.839177 -0.239433 1.580804 -0.005023 -1.566847
  time 9
    0 1.833241 0.014360 -42.530646 0.000000 0.000000 0.000000
    1 9.564017 -9.838815 31.912148 4.345315 -0.025766 1.489771
    2 -0.071921 -8.498736 -0.104130 0.396757 -0.006496 0.581144
    3 1.279076 -2.919489 0.865077 -0.267836 -0.222057 -3.738209
    4 -3.112814 0.806304 0.000001 0.000000 0.000000 2.037040
    5 3.839096 -0.031378 0.000000 0.000000 0.000000 0.000537
    6 -1.613795 3.251794 0.000001 0.000000 0.000000 0.467615
    7 -0.521923 1.011393 0.000000 0.000002 0.000000 0.727008
    8 -5.911566 -7.661021 33.999754 -0.690623 -4.799872 0.166639
    9 0.206322 -8.325415 -0.056241 -0.345508 -0.455957 0.147401
    10 17.991777 19.301662 29.975197 1.678699 -1.281876 -0.093751
    11 1.257180 8.762585 -0.153713 -1.570562 0.002683 -1.566807
    12 -0.488518 -2.755602 -0.228260 -0.795121 0.017679 -0.333533
    13 0.039887 -1.479790 0.029854 -1.077495 0.000000 0.000001
    14 0.028786 -1.075731 -0.023109 0.079688 0.000000 0.000000
    15 0.250027 -2.820665 -0.238396 -0.542709 0.010094 -0.304331
    16 -0.049759 -1.680544 0.100479 -2.059934 0.000000 -0.000002
    17 -0.034142 -1.148312 0.084782 -0.235563 0.000000 0.000000
    18 0.957766 -2.746780 -0.090302 0.374842 0.111199 -0.173277
    19 -0.033420 -1.397129 -0.011257 -1.281348 0.000000 -0.000001
    20 -0.022360 -0.957436 0.018784 -0.281395 0.000000 0.000000
    21 -1.180681 -2.507217 -0.193859 -0.738223 0.170544 -0.457493
    22 -0.024967 -1.123934 0.017597 -0.276053 0.000000 0.000001
    23 -0.020057 -0.890968 0.010090 -0.118050 0.000000 0.000000
    24 0.583510 -1.197277 0.185379 0.245908 -0.934487 -0.500771
    25 1.535927 0.010246 0.005009 -0.126537 0.356422 -0.724896
    26 1.104677 0.012340 0.004946 -0.007254 0.014511 -0.287578
    27 0.362348 0.047389 -0.120897 0.383956 3.364038 0.893994
    28 0.447953 -2.798986 -0.200443 -1.040136 -0.116081 0.750940
    29 -0.032909 -1.480204 0.004940 -0.816355 0.000000 0.000002
    30 -0.027022 -1.076920 -0.020210 -0.346317 0.000000 0.000000
    31 -0.249534 -2.846964 -0.174213 -0.441675 0.010275 0.364282
    32 0.043235 -1.683941 0.096012 -1.177837 0.002823 -0.000167
    33 0.031729 -1.160830 0.058838 -0.344228 0.000642 0.008372
    34 -0.963866 -2.785145 -0.085350 -0.542878 0.182572 0.378723
    35 0.028479 -1.403067 0.006271 -0.462369 0.000000 0.000000
    36 0.021413 -0.957781 0.020046 -0.334484 0.000000 0.000000
    37 1.164475 -2.543940 -0.170330 -1.442025 -0.137389 0.868151
    38 0.024032 -1.129042 0.017807 -0.617138 0.000000 0.000001
    39 0.014898 -0.883989 -0.019848 -0.274312 0.000000 0.000000
    40 -0.575051 -1.244945 0.110315 0.331990 -0.346314 -2.618689
    41 1.522835 0.058681 0.016848 0.030724 -0.132349 0.975562
    42 1.117947 0.048424 -0.005766 -0.004869 -0.087122 0.435338
    43 -0.139399 -0.111698 0.014397 0.317004 -0.444830 1.449265
    44 -1.393470 8.839177 -0.239433 1.580804 -0.005023 -1.566847
  time 10
    0 1.833241 0.014360 -42.530646 0.000000 0.000000 0.000000
    1 9.810119 -9.088792 32.107467 4.293677 -0.058388 1.512865
    2 -0.071921 -8.498736 -0.104130 0.411947 -0.012054 0.500840
    3 1.279076 -2.919489 0.865077 -0.267836 -0.222057 -3.738209
    4 -3.112814 0.806304 0.000001 0.000000 0.000000 2.037040
    5 3.839096 -0.031378 0.000000 0.000000 0.000000 0.000537
    6 -1.613795 3.251794 0.000001 0.000000 0.000000 0.467615
    7 -0.521923 1.011393 0.000000 0.000002 0.000000 0.727008
    8 -4.923255 -8.551674 34.230230 -0.828019 -4.966581 0.046246
    9 0.229761 -8.286351 -0.056241 -0.315271 -0.466722 0.153639
    10 17.991777 19.301662 29.975197 1.678699 -1.281876 -0.093751
    11 1.257180 8.762585 -0.153713 -1.570562 0.002683 -1.566807
    12 -0.488518 -2.755602 -0.228260 -0.806567 0.017679 -0.333533
    13 0.039887 -1.479790 0.029854 -1.142917 0.000000 0.000001
    14 0.028786 -1.075731 -0.023109 0.025925 0.000000 0.000000
    15 0.250027 -2.820665 -0.238396 -0.542709 0.010094 -0.304331
    16 -0.049759 -1.680544 0.100479 -2.059934 0.000000 -0.000002
    17 -0.034142 -1.148312 0.084782 -0.272379 0.000000 0.000000
    18 0.957766 -2.746780 -0.090302 0.374842 0.111199 -0.173277
    19 -0.033420 -1.397129 -0.011257 -1.281348 0.000000 -0.000001
    20 -0.022360 -0.957436 0.018784 -0.292434 0.000000 0.000000
    21 -1.180681 -2.507217 -0.193859 -0.782316 0.170544 -0.457493
    22 -0.024967 -1.123934 0.017597 -0.302853 0.000000 0.000001
    23 -0.020057 -0.890968 0.010090 -0.155532 0.000000 0.000000
    24 0.583510 -1.197277 0.185379 0.245908 -0.934487 -0.500771
    25 1.535927 0.010246 0.005009 -0.127376 0.347314 -0.738163
    26 1.104677 0.012340 0.004946 -0.007254 0.014511 -0.287578
    27 0.256876 -0.042457 -0.093553 0.282961 3.259432 1.139412
    28 0.447953 -2.798986 -0.200443 -1.058827 -0.129741 0.760418
    29 -0.032909 -1.480204 0.004940 -0.822733 0.000000 0.000002
    30 -0.027022 -1.076920 -0.020210 -0.346317 0.000000 0.000000
    31 -0.249534 -2.846964 -0.174213 -0.447463 0.010657 0.373613
    32 0.043235 -1.683941 0.096012 -1.178869 0.002823 -0.000167
    33 0.031729 -1.160830 0.058838 -0.344228 0.000642 0.008372
    34 -0.963866 -2.785145 -0.085350 -0.552400 0.183128 0.385485
    35 0.028479 -1.403067 0.006271 -0.464076 0.000000 0.000000
    36 0.021413 -0.957781 0.020046 -0.337831 0.000000 0.000000
    37 1.164475 -2.543940 -0.170330 -1.458728 -0.134961 0.882665
    38 0.024032 -1.129042 0.017807 -0.578046 0.000000 0.000001
    39 0.014898 -0.883989 -0.019848 -0.274312 0.000000 0.000000
    40 -0.575051 -1.244945 0.110315 0.346830 -0.340784 -2.616535
    41 1.522835 0.058681 0.016848 0.027512 -0.130396 0.989767
    42 1.117947 0.048424 -0.005766 -0.005744 -0.087182 0.445742
    43 -0.139399 -0.111698 0.014397 0.317953 -0.450870 1.447072
    44 -1.393470 8.839177 -0.239433 1.580804 -0.005023 -1.566847
  time 11
    0 1.833241 0.014360 -42.530646 0.000000 0.000000 0.000000
    1 10.079658 -8.319237 32.322317 4.241956 -0.089957 1.536436
    2 -0.071921 -8.498736 -0.104130 0.402998 -0.009028 0.413732
    3 1.279076 -2.919489 0.865077 -0.267836 -0.222057 -3.738209
    4 -3.112814 0.806304 0.000001 0.000000 0.000000 2.037040
    5 3.839096 -0.031378 0.000000 0.000000 0.000000 0.000537
    6 -1.613795 3.251794 0.000001 0.000000 0.000000 0.467615
    7 -0.521923 1.011393 0.000000 0.000002 0.000000 0.727008
    8 -3.958381 -9.422794 34.456800 -0.905308 -5.129454 -0.013269
    9 0.249292 -8.247287 -0.056241 -0.283087 -0.463798 0.151323
    10 17.991777 19.301662 29.975197 1.678699 -1.281876 -0.093751
    11 1.257180 8.762585 -0.153713 -1.570562 0.002683 -1.566807
    12 -0.488518 -2.755602 -0.228260 -0.818946 0.017679 -0.333533
    13 0.039887 -1.479790 0.029854 -1.213506 0.000000 0.000001
    14 0.028786 -1.075731 -0.023109 -0.032070 0.000000 0.000000
    15 0.250027 -2.820665 -0.238396 -0.542709 0.010094 -0.304331
    16 -0.049759 -1.680544 0.100479 -2.059934 0.000000 -0.000002
    17 -0.034142 -1.148312 0.084782 -0.309718 0.000000 0.000000
    18 0.957766 -2.746780 -0.090302 0.374842 0.111199 -0.173277
    19 -0.033420 -1.397129 -0.011257 -1.281348 0.000000 -0.000001
    20 -0.022360 -0.957436 0.018784 -0.305923 0.000000 0.000000
    21 -1.180681 -2.507217 -0.193859 -0.834875 0.170544 -0.457493
    22 -0.024967 -1.123934 0.017597 -0.334775 0.000000 0.000001
    23 -0.020057 -0.890968 0.010090 -0.200164 0.000000 0.000000
    24 0.583510 -1.197277 0.185379 0.245908 -0.934487 -0.500771
    25 1.535927 0.010246 0.005009 -0.128694 0.333088 -0.758845
    26 1.104677 0.008433 0.001040 -0.007254 0.014511 -0.287578
    27 0.190468 -0.108866 -0.066208 0.201808 3.171402 1.420273
    28 0.447953 -2.798986 -0.200443 -1.038579 -0.146498 0.756866
    29 -0.032909 -1.480204 0.004940 -0.801590 0.000000 0.000002
    30 -0.027022 -1.076920 -0.020210 -0.346317 0.000000 0.000000
    31 -0.249534 -2.846964 -0.174213 -0.437098 -0.011594 0.385652
    32 0.043235 -1.683941 0.096012 -1.147270 0.002823 -0.000167
    33 0.031729 -1.160830 0.058838 -0.344228 0.000642 0.008372
    34 -0.963866 -2.785145 -0.085350 -0.528325 0.165381 0.375623
    35 0.028479 -1.403067 0.006271 -0.459910 0.000000 0.000000
    36 0.021413 -0.957781 0.020046 -0.328850 0.000000 0.000000
    37 1.164475 -2.543940 -0.170330 -1.423769 -0.146958 0.881615
    38 0.024032 -1.129042 0.017807 -0.539934 0.000000 0.000001
    39 0.014898 -0.883989 -0.019848 -0.274312 0.000000 0.000000
    40 -0.575051 -1.244945 0.110315 0.343733 -0.346252 -2.639662
    41 1.522835 0.058681 0.016848 0.031995 -0.132457 0.969646
    42 1.117947 0.048424 -0.005766 -0.005516 -0.087170 0.443054
    43 -0.139399 -0.111698 0.014397 0.308548 -0.385550 1.470214
    44 -1.393470 8.839177 -0.239433 1.580804 -0.005023 -1.566847
  time 12
    0 1.833241 0.014360 -42.530646 0.000000 0.000000 0.000000
    1 10.353104 -7.545776 32.541074 4.190733 -0.120570 1.560102
    2 -0.071921 -8.498736 -0.104130 0.377631 0.017733 0.318853
    3 1.279076 -2.919489 0.865077 -0.267836 -0.222057 -3.738209
    4 -3.112814 0.806304 0.000001 0.000000 0.000000 2.037040
    5 3.839096 -0.031378 0.000000 0.000000 0.000000 0.000537
    6 -1.613795 3.251794 0.000001 0.000000 0.000000 0.467615
    7 -0.521923 1.011393 0.000000 0.000002 0.000000 0.727008
    8 -3.044291 -10.247038 34.671650 -0.974395 -5.284085 -0.064076
    9 0.276637 -8.204317 -0.056241 -0.248760 -0.456169 0.145227
    10 17.991777 19.301662 29.975197 1.678699 -1.281876 -0.093751
    11 1.257180 8.762585 -0.153713 -1.570562 0.002683 -1.566807
    12 -0.488518 -2.755602 -0.228260 -0.831854 0.017679 -0.333533
    13 0.039887 -1.479790 0.029854 -1.287248 0.000000 0.000001
    14 0.028786 -1.075731 -0.023109 -0.092652 0.000000 0.000000
    15 0.250027 -2.820665 -0.238396 -0.542709 0.010094 -0.304331
    16 -0.049759 -1.680544 0.100479 -2.059934 0.000000 -0.000002
    17 -0.034142 -1.148312 0.084782 -0.346534 0.000000 0.000000
    18 0.957766 -2.746780 -0.090302 0.374842 0.111199 -0.173277
    19 -0.033420 -1.397129 -0.011257 -1.281348 0.000000 -0.000001
    20 -0.022360 -0.957436 0.018784 -0.321587 0.000000 0.000000
    21 -1.180681 -2.507217 -0.193859 -0.893946 0.170544 -0.457493
    22 -0.024967 -1.123934 0.017597 -0.370689 0.000000 0.000001
    23 -0.020057 -0.890968 0.010090 -0.250367 0.000000 0.000000
    24 0.583510 -1.197277 0.185379 0.245908 -0.934487 -0.500771
    25 1.535927 0.010246 0.005009 -0.130408 0.314536 -0.785814
    26 1.104677 0.008433 0.001040 -0.007254 0.014511 -0.287578
    27 0.155310 -0.120585 -0.070114 0.205475 3.190975 1.475298
    28 0.447953 -2.798986 -0.200443 -0.985495 -0.168865 0.748899
    29 -0.032909 -1.480204 0.004940 -0.745842 0.000000 0.000002
    30 -0.027022 -1.076920 -0.020210 -0.346317 0.000000 0.000000
    31 -0.249534 -2.846964 -0.174213 -0.409449 -0.069642 0.401218
    32 0.043235 -1.683941 0.096012 -1.063888 0.002823 -0.000167
    33 0.031729 -1.160830 0.058838 -0.344228 0.000642 0.008372
    34 -0.963866 -2.785145 -0.085350 -0.463926 0.118552 0.349665
    35 0.028479 -1.403067 0.006271 -0.448815 0.000000 0.000000
    36 0.021413 -0.957781 0.020046 -0.305191 0.000000 0.000000
    37 1.164475 -2.543940 -0.170330 -1.331501 -0.178558 0.878688
    38 0.024032 -1.129042 0.017807 -0.503737 0.000000 0.000001
    39 0.014898 -0.883989 -0.019848 -0.274312 0.000000 0.000000
    40 -0.575051 -1.244945 0.110315 0.335609 -0.359745 -2.701116
    41 1.522835 0.058681 0.016848 0.044135 -0.137874 0.914914
    42 1.117947 0.048424 -0.005766 -0.004869 -0.087122 0.435338
    43 -0.139399 -0.111698 0.014397 0.293978 -0.241291 1.517289
    44 -1.393470 8.839177 -0.239433 1.580804 -0.005023 -1.566847
  time 13
    0 1.833241 0.014360 -42.530646 0.000000 0.000000 0.000000
    1 10.618737 -6.776222 32.755924 0.998875 -2.991754 -1.558028
    2 -0.071921 -8.498736 -0.104130 0.349344 0.075051 0.217045
    3 1.279076 -2.919489 0.865077 -0.267836 -0.222057 -3.738209
    4 -3.112814 0.806304 0.000001 0.000000 0.000000 2.037040
    5 3.839096 -0.031378 0.000000 0.000000 0.000000 0.000537
    6 -1.613795 3.251794 0.000001 0.000000 0.000000 0.467615
    7 -0.521923 1.011393 0.000000 0.000002 0.000000 0.727008
    8 -2.200515 -11.004874 34.866968 -1.040371 -5.426314 -0.111525
    9 0.300075 -8.165254 -0.056241 -0.212096 -0.445361 0.136722
    10 17.991777 19.301662 29.975197 1.678699 -1.281876 -0.093751
    11 1.257180 8.762585 -0.153713 -1.570562 0.002683 -1.566807
    12 -0.488518 -2.755602 -0.228260 -0.844948 0.017679 -0.333533
    13 0.039887 -1.479790 0.029854 -1.361972 0.000000 0.000001
    14 0.028786 -1.075731 -0.023109 -0.154064 0.000000 0.000000
    15 0.250027 -2.820665 -0.238396 -0.542709 0.010094 -0.304331
    16 -0.049759 -1.680544 0.100479 -2.059934 0.000000 -0.000002
    17 -0.034142 -1.148312 0.084782 -0.381796 0.000000 0.000000
    18 0.957766 -2.746780 -0.090302 0.374842 0.111199 -0.173277
    19 -0.033420 -1.397129 -0.011257 -1.281348 0.000000 -0.000001
    20 -0.022360 -0.957436 0.018784 -0.339107 0.000000 0.000000
    21 -1.180681 -2.507217 -0.193859 -0.957761 0.170544 -0.457493
    22 -0.024967 -1.123934 0.017597 -0.409426 0.000000 0.000001
    23 -0.020057 -0.890968 0.010090 -0.304544 0.000000 0.000000
    24 0.583510 -1.197277 0.185379 0.245908 -0.934487 -0.500771
    25 1.535927 0.010246 0.005009 -0.132469 0.292460 -0.817982
    26 1.104677 0.008433 0.001040 -0.007254 0.014511 -0.287578
    27 0.120153 -0.132304 -0.074021 0.208390 3.215979 1.525930
    28 0.447953 -2.798986 -0.200443 -0.910394 -0.194329 0.736927
    29 -0.032909 -1.480204 0.004940 -0.667047 0.000000 0.000002
    30 -0.027022 -1.076920 -0.020210 -0.346317 0.000000 0.000000
    31 -0.249534 -2.846964 -0.174213 -0.370067 -0.151545 0.418734
    32 0.043235 -1.683941 0.096012 -0.946005 0.002823 -0.000167
    33 0.031729 -1.160830 0.058838 -0.344228 0.000642 0.008372
    34 -0.963866 -2.785145 -0.085350 -0.370960 0.052185 0.313192
    35 0.028479 -1.403067 0.006271 -0.433152 0.000000 0.000000
    36 0.021413 -0.957781 0.020046 -0.271740 0.000000 0.000000
    37 1.164475 -2.543940 -0.170330 -1.200934 -0.223223 0.874129
    38 0.024032 -1.129042 0.017807 -0.470478 0.000000 0.000001
    39 0.014898 -0.883989 -0.019848 -0.274312 0.000000 0.000000
    40 -0.575051 -1.244945 0.110315 0.324268 -0.376480 -2.789067
    41 1.522835 0.058681 0.016848 0.061968 -0.145532 0.834082
    42 1.117947 0.048424 -0.005766 -0.003826 -0.087038 0.423183
    43 -0.139399 -0.111698 0.014397 0.286610 -0.096546 1.561105
    44 -1.393470 8.839177 -0.239433 1.580804 -0.005023 -1.566847
  time 14
    0 1.833241 0.014360 -42.530646 0.000000 0.000000 0.000000
    1 10.868745 -6.026199 32.955149 0.949972 -2.963915 -1.534838
    2 -0.071921 -8.498736 -0.104130 0.318879 0.153671 0.107508
    3 1.279076 -2.919489 0.865077 -0.267836 -0.222057 -3.738209
    4 -3.112814 0.806304 0.000001 0.000000 0.000000 2.037040
    5 3.839096 -0.031378 0.000000 0.000000 0.000000 0.000537
    6 -1.613795 3.251794 0.000001 0.000000 0.000000 0.467615
    7 -0.521923 1.011393 0.000000 0.000002 0.000000 0.727008
    8 -1.458305 -11.676769 35.038849 -1.104154 -5.551896 -0.156615
    9 0.323513 -8.122283 -0.056241 -0.172755 -0.432942 0.126987
    10 17.991777 19.301662 29.975197 1.678699 -1.281876 -0.093751
    11 1.257180 8.762585 -0.153713 -1.570562 0.002683 -1.566807
    12 -0.488518 -2.755602 -0.228260 -0.857856 0.017679 -0.333533
    13 0.039887 -1.479790 0.029854 -1.435713 0.000000 0.000001
    14 0.028786 -1.075731 -0.023109 -0.214630 0.000000 0.000000
    15 0.250027 -2.820665 -0.238396 -0.542709 0.010094 -0.304331
    16 -0.049759 -1.680544 0.100479 -2.059934 0.000000 -0.000002
    17 -0.034142 -1.148312 0.084782 -0.414475 0.000000 0.000000
    18 0.957766 -2.746780 -0.090302 0.374842 0.111199 -0.173277
    19 -0.033420 -1.397129 -0.011257 -1.281348 0.000000 -0.000001
    20 -0.022360 -0.957436 0.018784 -0.358138 0.000000 0.000000
    21 -1.180681 -2.507217 -0.193859 -1.024320 0.170544 -0.457493
    22 -0.024967 -1.123934 0.017597 -0.449877 0.000000 0.000001
    23 -0.020057 -0.890968 0.010090 -0.361098 0.000000 0.000000
    24 0.583510 -1.197277 0.185379 0.245908 -0.934487 -0.500771
    25 1.535927 0.010246 0.005009 -0.134783 0.267652 -0.854184
    26 1.104677 0.008433 -0.002866 -0.007254 0.014511 -0.287578
    27 0.084996 -0.140116 -0.077927 3.352307 6.179503 -1.569171
    28 0.447953 -2.798986 -0.200443 -0.824179 -0.220373 0.721402
    29 -0.032909 -1.480204 0.004940 -0.576694 0.000000 0.000002
    30 -0.027022 -1.076920 -0.020210 -0.346317 0.000000 0.000000
    31 -0.249534 -2.846964 -0.174213 -0.324582 -0.245345 0.436577
    32 0.043235 -1.683941 0.096012 -0.810904 0.002823 -0.000167
    33 0.031729 -1.160830 0.058838 -0.344228 0.000642 0.008372
    34 -0.963866 -2.785145 -0.085350 -0.261351 -0.024092 0.271560
    35 0.028479 -1.403067 0.006271 -0.415230 0.000000 0.000000
    36 0.021413 -0.957781 0.020046 -0.233403 0.000000 0.000000
    37 1.164475 -2.543940 -0.170330 -1.050981 -0.274378 0.868237
    38 0.024032 -1.129042 0.017807 -0.441048 0.000000 0.000001
    39 0.014898 -0.883989 -0.019848 -0.274312 0.000000 0.000000
    40 -0.575051 -1.244945 0.110315 0.310917 -0.392114 -2.891219
    41 1.522835 0.058681 0.016848 0.083552 -0.154305 0.735596
    42 1.117947 0.048424 -0.005766 -0.002460 -0.086943 0.407115
    43 -0.139399 -0.111698 0.014397 0.285382 -0.030687 1.580508
    44 -1.393470 8.839177 -0.239433 1.580804 -0.005023 -1.566847
  time 15
    0 1.833241 0.014360 -42.530646 0.000000 0.000000 0.000000
    1 11.087501 -5.303520 33.127029 0.902810 -2.937703 -1.512317
    2 -0.071921 -8.498736 -0.104130 0.286636 0.244395 -0.009420
    3 1.279076 -2.919489 0.865077 -0.267836 -0.222057 -3.738209
    4 -3.112814 0.806304 0.000001 0.000000 0.000000 2.037040
    5 3.839096 -0.031378 0.000000 0.000000 0.000000 0.000537
    6 -1.613795 3.251794 0.000001 0.000000 0.000000 0.467615
    7 -0.521923 1.011393 0.000000 0.000002 0.000000 0.727008
    8 -0.837192 -12.235380 35.183384 -1.165462 -5.656752 -0.199347
    9 0.346952 -8.083220 -0.056241 -0.130492 -0.420481 0.117395
    10 17.991777 19.301662 29.975197 1.678699 -1.281876 -0.093751
    11 1.257180 8.762585 -0.153713 -1.570562 0.002683 -1.566807
    12 -0.488518 -2.755602 -0.228260 -0.870235 0.017679 -0.333533
    13 0.039887 -1.479790 0.029854 -1.506303 0.000000 0.000001
    14 0.028786 -1.075731 -0.023109 -0.272656 0.000000 0.000000
    15 0.250027 -2.820665 -0.238396 -0.542709 0.010094 -0.304331
    16 -0.049759 -1.680544 0.100479 -2.059934 0.000000 -0.000002
    17 -0.034142 -1.148312 0.084782 -0.443538 0.000000 0.000000
    18 0.957766 -2.746780 -0.090302 0.374842 0.111199 -0.173277
    19 -0.033420 -1.397129 -0.011257 -1.281348 0.000000 -0.000001
    20 -0.022360 -0.957436 0.018784 -0.378429 0.000000 0.000000
    21 -1.180681 -2.507217 -0.193859 -1.091809 0.170544 -0.457493
    22 -0.024967 -1.123934 0.017597 -0.490893 0.000000 0.000001
    23 -0.020057 -0.890968 0.010090 -0.418450 0.000000 0.000000
    24 0.583510 -1.197277 0.185379 0.245908 -0.934487 -0.500771
    25 1.535927 0.010246 0.005009 -0.137299 0.240891 -0.893257
    26 1.104677 0.008433 -0.002866 -0.007254 0.014511 -0.287578
    27 0.045932 -0.147929 -0.085740 3.354282 6.147101 -1.526946
    28 0.447953 -2.798986 -0.200443 -0.737755 -0.244482 0.702794
    29 -0.032909 -1.480204 0.004940 -0.486341 0.000000 0.000002
    30 -0.027022 -1.076920 -0.020210 -0.346317 0.000000 0.000000
    31 -0.249534 -2.846964 -0.174213 -0.278702 -0.339083 0.453095
    32 0.043235 -1.683941 0.096012 -0.675739 0.002823 -0.000167
    33 0.031729 -1.160830 0.058838 -0.344228 0.000642 0.008372
    34 -0.963866 -2.785145 -0.085350 -0.147186 -0.100586 0.229840
    35 0.028479 -1.403067 0.006271 -0.397258 0.000000 0.000000
    36 0.021413 -0.957781 0.020046 -0.195046 0.000000 0.000000
    37 1.164475 -2.543940 -0.170330 -0.900793 -0.325459 0.861283
    38 0.024032 -1.129042 0.017807 -0.416515 0.000000 0.000001
    39 0.014898 -0.883989 -0.019848 -0.274312 0.000000 0.000000
    40 -0.575051 -1.244945 0.110315 0.295634 -0.403756 -2.994620
    41 1.522835 0.058681 0.016848 0.106958 -0.163066 0.627935
    42 1.117947 0.048424 -0.005766 -0.000806 -0.086799 0.387706
    43 -0.139399 -0.111698 0.014397 0.285382 -0.030687 1.580508
    44 -1.393470 8.839177 -0.239433 1.580804 -0.005023 -1.566847
  time 16
    0 1.833241 0.014360 -42.530646 0.000000 0.000000 0.000000
    1 11.263288 -4.627718 33.263752 0.857969 -2.913213 -1.490655
    2 -0.071921 -8.498736 -0.104130 0.252785 0.338264 -0.132397
    3 1.279076 -2.919489 0.865077 -0.267836 -0.222057 -3.738209
    4 -3.112814 0.806304 0.000001 0.000000 0.000000 2.037040
    5 3.839096 -0.031378 0.000000 0.000000 0.000000 0.000537
    6 -1.613795 3.251794 0.000001 0.000000 0.000000 0.467615
    7 -0.521923 1.011393 0.000000 0.000002 0.000000 0.727008
    8 -0.364522 -12.665080 35.296669 -1.223801 -5.736719 -0.239357
    9 0.366483 -8.044156 -0.056241 -0.084917 -0.409631 0.109031
    10 17.991777 19.301662 29.975197 1.678699 -1.281876 -0.093751
    11 1.257180 8.762585 -0.153713 -1.570562 0.002683 -1.566807
    12 -0.488518 -2.755602 -0.228260 -0.881711 0.017679 -0.333533
    13 0.039887 -1.479790 0.029854 -1.571725 0.000000 0.000001
    14 0.028786 -1.075731 -0.023109 -0.326403 0.000000 0.000000
    15 0.250027 -2.820665 -0.238396 -0.542709 0.010094 -0.304331
    16 -0.049759 -1.680544 0.100479 -2.059934 0.000000 -0.000002
    17 -0.034142 -1.148312 0.084782 -0.467940 0.000000 0.000000
    18 0.957766 -2.746780 -0.090302 0.374842 0.111199 -0.173277
    19 -0.033420 -1.397129 -0.011257 -1.281348 0.000000 -0.000001
    20 -0.022360 -0.957436 0.018784 -0.399636 0.000000 0.000000
    21 -1.180681 -2.507217 -0.193859 -1.158415 0.170544 -0.457493
    22 -0.024967 -1.123934 0.017597 -0.531323 0.000000 0.000001
    23 -0.020057 -0.890968 0.010090 -0.475004 0.000000 0.000000
    24 0.583510 -1.197277 0.185379 0.245908 -0.934487 -0.500771
    25 1.535927 0.010246 0.005009 -0.139936 0.212966 -0.934075
    26 1.100771 0.008433 -0.002866 -0.007254 0.014511 -0.287578
    27 0.010775 -0.155742 -0.097459 3.356068 6.112731 -1.488925
    28 0.447953 -2.798986 -0.200443 -0.662064 -0.264127 0.681585
    29 -0.032909 -1.480204 0.004940 -0.407512 0.000000 0.000002
    30 -0.027022 -1.076920 -0.020210 -0.346317 0.000000 0.000000
    31 -0.249534 -2.846964 -0.174213 -0.238373 -0.420818 0.466682
    32 0.043235 -1.683941 0.096012 -0.557856 0.002823 -0.000167
    33 0.031729 -1.160830 0.058838 -0.344228 0.000642 0.008372
    34 -0.963866 -2.785145 -0.085350 -0.040664 -0.167454 0.192628
    35 0.028479 -1.403067 0.006271 -0.381646 0.000000 0.000000
    36 0.021413 -0.957781 0.020046 -0.161595 0.000000 0.000000
    37 1.164475 -2.543940 -0.170330 -0.769520 -0.369915 0.853612
    38 0.024032 -1.129042 0.017807 -0.397771 0.000000 0.000001
    39 0.014898 -0.883989 -0.019848 -0.274312 0.000000 0.000000
    40 -0.575051 -1.244945 0.110315 0.277698 -0.410534 -3.085537
    41 1.522835 0.058681 0.016848 0.130280 -0.170676 0.519547
    42 1.117947 0.048424 -0.005766 0.001075 -0.086643 0.365513
    43 -0.139399 -0.111698 0.014397 0.285382 -0.030687 1.580508
    44 -1.393470 8.839177 -0.239433 1.580804 -0.005023 -1.566847
  time 17
    0 1.833241 0.014360 -42.530646 0.000000 0.000000 0.000000
    1 11.380479 -3.998793 33.353599 0.815945 -2.890636 -1.470138
    2 -0.071921 -8.498736 -0.104130 0.217707 0.426773 -0.258565
    3 1.279076 -2.919489 0.865077 -0.267836 -0.222057 -3.738209
    4 -3.112814 0.806304 0.000001 0.000000 0.000000 2.037040
    5 3.839096 -0.031378 0.000000 0.000000 0.000000 0.000537
    6 -1.613795 3.251794 0.000001 0.000000 0.000000 0.467615
    7 -0.521923 1.011393 0.000000 0.000002 0.000000 0.727008
    8 -0.059825 -12.934620 35.366984 -1.278321 -5.787638 -0.276191
    9 0.389922 -8.005092 -0.056241 -0.035789 -0.401917 0.103171
    10 17.991777 19.301662 29.975197 1.678699 -1.281876 -0.093751
    11 1.257180 8.762585 -0.153713 -1.570562 0.002683 -1.566807
    12 -0.488518 -2.755602 -0.228260 -0.891882 0.017679 -0.333533
    13 0.039887 -1.479790 0.029854 -1.629912 0.000000 0.000001
    14 0.028786 -1.075731 -0.023109 -0.374209 0.000000 0.000000
    15 0.250027 -2.820665 -0.238396 -0.542709 0.010094 -0.304331
    16 -0.049759 -1.680544 0.100479 -2.059934 0.000000 -0.000002
    17 -0.034142 -1.148312 0.084782 -0.486652 0.000000 0.000000
    18 0.957766 -2.746780 -0.090302 0.374842 0.111199 -0.173277
    19 -0.033420 -1.397129 -0.011257 -1.281348 0.000000 -0.000001
    20 -0.022360 -0.957436 0.018784 -0.421461 0.000000 0.000000
    21 -1.180681 -2.507217 -0.193859 -1.222184 0.170544 -0.457493
    22 -0.024967 -1.123934 0.017597 -0.570081 0.000000 0.000001
    23 -0.020057 -0.890968 0.010090 -0.529181 0.000000 0.000000
    24 0.583510 -1.197277 0.185379 0.245908 -0.934487 -0.500771
    25 1.535927 0.010246 0.005009 -0.142632 0.184671 -0.975511
    26 1.100771 0.004527 -0.006773 -0.007254 0.014511 -0.287578
    27 -0.024383 -0.163555 -0.109178 3.357761 6.077426 -1.455011
    28 0.447953 -2.798986 -0.200443 -0.608096 -0.276782 0.658291
    29 -0.032909 -1.480204 0.004940 -0.351763 0.000000 0.000002
    30 -0.027022 -1.076920 -0.020210 -0.346317 0.000000 0.000000
    31 -0.249534 -2.846964 -0.174213 -0.209620 -0.478622 0.475864
    32 0.043235 -1.683941 0.096012 -0.474474 0.002823 -0.000167
    33 0.031729 -1.160830 0.058838 -0.344228 0.000642 0.008372
    34 -0.963866 -2.785145 -0.085350 0.045980 -0.214771 0.164221
    35 0.028479 -1.403067 0.006271 -0.370551 0.000000 0.000000
    36 0.021413 -0.957781 0.020046 -0.137936 0.000000 0.000000
    37 1.164475 -2.543940 -0.170330 -0.676406 -0.401172 0.845657
    38 0.024032 -1.129042 0.017807 -0.385794 0.000000 0.000001
    39 0.014898 -0.883989 -0.019848 -0.274312 0.000000 0.000000
    40 -0.575051 -1.244945 0.110315 0.256223 -0.413403 -3.150111
    41 1.522835 0.058681 0.016848 0.151649 -0.175973 0.418910
    42 1.117947 0.048424 -0.005766 0.003173 -0.086439 0.341093
    43 -0.135493 -0.111698 0.014397 0.291076 -0.030174 1.575462
    44 -1.393470 8.839177 -0.239433 1.580804 -0.005023 -1.566847
  time 18
    0 1.833241 0.014360 -42.530646 0.000000 0.000000 0.000000
    1 11.427356 -3.436276 33.384850 0.777072 -2.870068 -1.451148
    2 -0.071921 -8.498736 -0.104130 0.182523 0.501872 -0.383516
    3 1.279076 -2.919489 0.865077 -0.267836 -0.222057 -3.738209
    4 -3.112814 0.806304 0.000001 0.000000 0.000000 2.037040
    5 3.839096 -0.031378 0.000000 0.000000 0.000000 0.000537
    6 -1.613795 3.251794 0.000001 0.000000 0.000000 0.467615
    7 -0.521923 1.011393 0.000000 0.000002 0.000000 0.727008
    8 0.045647 -13.032279 35.390422 -1.328315 -5.805345 -0.309215
    9 0.409454 -7.969935 -0.056241 0.017235 -0.398993 0.100997
    10 17.991777 19.301662 29.975197 1.678699 -1.281876 -0.093751
    11 1.257180 8.762585 -0.153713 -1.570562 0.002683 -1.566807
    12 -0.488518 -2.755602 -0.228260 -0.900466 0.017679 -0.333533
    13 0.039887 -1.479790 0.029854 -1.678746 0.000000 0.000001
    14 0.028786 -1.075731 -0.023109 -0.414351 0.000000 0.000000
    15 0.250027 -2.820665 -0.238396 -0.542709 0.010094 -0.304331
    16 -0.049759 -1.680544 0.100479 -2.059934 0.000000 -0.000002
    17 -0.034142 -1.148312 0.084782 -0.498627 0.000000 0.000000
    18 0.957766 -2.746780 -0.090302 0.374842 0.111199 -0.173277
    19 -0.033420 -1.397129 -0.011257 -1.281348 0.000000 -0.000001
    20 -0.022360 -0.957436 0.018784 -0.443584 0.000000 0.000000
    21 -1.180681 -2.507217 -0.193859 -1.281254 0.170544 -0.457493
    22 -0.024967 -1.123934 0.017597 -0.605975 0.000000 0.000001
    23 -0.020057 -0.890968 0.010090 -0.579384 0.000000 0.000000
    24 0.583510 -1.197277 0.185379 0.245908 -0.934487 -0.500771
    25 1.535927 0.010246 0.005009 -0.145293 0.156783 -1.016366
    26 1.100771 0.004527 -0.006773 -0.007254 0.014511 -0.287578
    27 -0.059540 -0.171367 -0.116991 3.359454 6.042307 -1.425301
    28 0.447953 -2.798986 -0.200443 -0.586837 -0.279955 0.633424
    29 -0.032909 -1.480204 0.004940 -0.330620 0.000000 0.000002
    30 -0.027022 -1.076920 -0.020210 -0.346317 0.000000 0.000000
    31 -0.249534 -2.846964 -0.174213 -0.198676 -0.500537 0.479227
    32 0.043235 -1.683941 0.096012 -0.442875 0.002823 -0.000167
    33 0.031729 -1.160830 0.058838 -0.344228 0.000642 0.008372
    34 -0.963866 -2.785145 -0.085350 0.100581 -0.232559 0.148723
    35 0.028479 -1.403067 0.006271 -0.366334 0.000000 0.000000
    36 0.021413 -0.957781 0.020046 -0.128976 0.000000 0.000000
    37 1.164475 -2.543940 -0.170330 -0.640882 -0.412691 0.837900
    38 0.024032 -1.129042 0.017807 -0.381609 0.000000 0.000001
    39 0.014898 -0.883989 -0.019848 -0.274312 0.000000 0.000000
    40 -0.575051 -1.244945 0.110315 0.230605 -0.414068 -3.174643
    41 1.522835 0.058681 0.016848 0.169182 -0.177783 0.334408
    42 1.117947 0.048424 -0.005766 0.005414 -0.086212 0.315002
    43 -0.115961 -0.115604 0.006584 0.306343 -0.028789 1.561920
    44 -1.393470 8.839177 -0.239433 1.580804 -0.005023 -1.566847
  time 19
    0 1.833241 0.014360 -42.530646 0.000000 0.000000 0.000000
    1 11.435168 -2.967512 33.263752 0.741845 -2.851796 -1.433780
    2 -0.071921 -8.498736 -0.104130 0.149434 0.556045 -0.501032
    3 1.279076 -2.919489 0.865077 -0.267836 -0.222057 -3.738209
    4 -3.112814 0.806304 0.000001 0.000000 0.000000 2.037040
    5 3.839096 -0.031378 0.000000 0.000000 0.000000 0.000537
    6 -1.613795 3.251794 0.000001 0.000000 0.000000 0.467615
    7 -0.521923 1.011393 0.000000 0.000002 0.000000 0.727008
    8 -0.548121 -13.004935 34.913845 -1.380855 -5.778906 -0.337975
    9 0.428985 -7.938684 -0.056241 0.073861 -0.472190 0.191867
    10 17.991777 19.301662 29.975197 1.678699 -1.281876 -0.093751
    11 1.257180 8.762585 -0.153713 -1.570562 0.002683 -1.566807
    12 -0.488518 -2.755602 -0.228260 -0.907029 0.017679 -0.333533
    13 0.039887 -1.479790 0.029854 -1.716211 0.000000 0.000001
    14 0.028786 -1.075731 -0.023109 -0.445134 0.000000 0.000000
    15 0.250027 -2.820665 -0.238396 -0.542709 0.010094 -0.304331
    16 -0.049759 -1.680544 0.100479 -2.059934 0.000000 -0.000002
    17 -0.034142 -1.148312 0.084782 -0.502864 0.000000 0.000000
    18 0.957766 -2.746780 -0.090302 0.374842 0.111199 -0.173277
    19 -0.033420 -1.397129 -0.011257 -1.281348 0.000000 -0.000001
    20 -0.022360 -0.957436 0.018784 -0.465707 0.000000 0.000000
    21 -1.180681 -2.507217 -0.193859 -1.333813 0.170544 -0.457493
    22 -0.024967 -1.123934 0.017597 -0.637896 0.000000 0.000001
    23 -0.020057 -0.890968 0.010090 -0.624016 0.000000 0.000000
    24 0.583510 -1.197277 0.185379 0.245908 -0.934487 -0.500771
    25 1.535927 0.010246 0.005009 -0.147846 0.130081 -1.055548
    26 1.100771 0.004527 -0.006773 -0.007254 0.014511 -0.287578
    27 -0.090791 -0.175274 -0.128710 3.361146 6.008406 -1.399603
    28 0.447953 -2.798986 -0.200443 -0.623925 -0.263689 0.601150
    29 -0.032909 -1.480204 0.004940 -0.345209 0.000000 0.000002
    30 -0.027022 -1.076920 -0.020210 -0.346317 0.000000 0.000000
    31 -0.249534 -2.846964 -0.174213 -0.233349 -0.473597 0.470640
    32 0.043235 -1.683941 0.096012 -0.481632 0.002823 -0.000167
    33 0.031729 -1.160830 0.058838 -0.344228 0.000642 0.008372
    34 -0.963866 -2.785145 -0.085350 0.130355 -0.210663 0.142929
    35 0.028479 -1.403067 0.006271 -0.433755 0.000000 0.000000
    36 0.021413 -0.957781 0.020046 -0.159350 0.000000 0.000000
    37 1.164475 -2.543940 -0.170330 -0.652880 -0.401663 0.805895
    38 0.024032 -1.129042 0.017807 -0.407699 0.000000 0.000001
    39 0.014898 -0.883989 -0.019848 -0.274312 0.000000 0.000000
    40 -0.575051 -1.244945 0.110315 0.199236 -0.403445 -3.165717
    41 1.522835 0.058681 0.016848 0.182281 -0.170221 0.261612
    42 1.117947 0.048424 -0.005766 0.007763 -0.085960 0.287798
    43 -0.088616 -0.119511 -0.005135 0.328336 -0.026789 1.542301
    44 -1.393470 8.839177 -0.239433 1.580804 -0.005023 -1.566847
  time 20
    0 1.833241 0.014360 -42.530646 0.000000 0.000000 0.000000
    1 11.439075 -2.604219 32.943430 0.710846 -2.835916 -1.418320
    2 -0.071921 -8.498736 -0.104130 0.109998 0.589807 -0.615399
    3 1.279076 -2.919489 0.865077 -0.267836 -0.222057 -3.738209
    4 -3.112814 0.806304 0.000001 0.000000 0.000000 2.037040
    5 3.839096 -0.031378 0.000000 0.000000 0.000000 0.000537
    6 -1.613795 3.251794 0.000001 0.000000 0.000000 0.467615
    7 -0.521923 1.011393 0.000000 0.000002 0.000000 0.727008
    8 -1.665343 -12.946339 33.843500 -1.434031 -5.725785 -0.358932
    9 0.444611 -7.911340 -0.056241 0.127664 -0.618202 0.375639
    10 17.991777 19.301662 29.975197 1.678699 -1.281876 -0.093751
    11 1.257180 8.762585 -0.153713 -1.570562 0.002683 -1.566807
    12 -0.488518 -2.755602 -0.228260 -0.911228 0.017679 -0.333533
    13 0.039887 -1.479790 0.029854 -1.740240 0.000000 0.000001
    14 0.028786 -1.075731 -0.023109 -0.464850 0.000000 0.000000
    15 0.250027 -2.820665 -0.238396 -0.542709 0.010094 -0.304331
    16 -0.049759 -1.680544 0.100479 -2.059934 0.000000 -0.000002
    17 -0.034142 -1.148312 0.084782 -0.502850 0.000000 0.000000
    18 0.957766 -2.746780 -0.090302 0.374842 0.111199 -0.173277
    19 -0.033420 -1.397129 -0.011257 -1.281348 0.000000 -0.000001
    20 -0.022360 -0.957436 0.018784 -0.487533 0.000000 0.000000
    21 -1.180681 -2.507217 -0.193859 -1.377953 0.170544 -0.457493
    22 -0.024967 -1.123934 0.017597 -0.664697 0.000000 0.000001
    23 -0.020057 -0.890968 0.010090 -0.661499 0.000000 0.000000
    24 0.583510 -1.197277 0.185379 0.245908 -0.934487 -0.500771
    25 1.535927 0.010246 0.005009 -0.150231 0.105357 -1.091859
    26 1.100771 0.004527 -0.010679 -0.007254 0.014511 -0.287578
    27 -0.118136 -0.179180 -0.140429 3.362839 5.976847 -1.378014
    28 0.447953 -2.798986 -0.200443 -0.721674 -0.225584 0.558960
    29 -0.032909 -1.480204 0.004940 -0.382915 0.000000 0.000002
    30 -0.027022 -1.076920 -0.020210 -0.346317 0.000000 0.000000
    31 -0.249534 -2.846964 -0.174213 -0.322635 -0.404080 0.448422
    32 0.043235 -1.683941 0.096012 -0.581523 0.002823 -0.000167
    33 0.031729 -1.160830 0.058838 -0.344228 0.000642 0.008372
    34 -0.963866 -2.785145 -0.085350 0.151718 -0.154642 0.140200
    35 0.028479 -1.403067 0.006271 -0.607502 0.000000 0.000000
    36 0.021413 -0.957781 0.020046 -0.237686 0.000000 0.000000
    37 1.164475 -2.543940 -0.170330 -0.684640 -0.373951 0.735635
    38 0.024032 -1.129042 0.017807 -0.475019 0.000000 0.000001
    39 0.014898 -0.883989 -0.019848 -0.274312 0.000000 0.000000
    40 -0.575051 -1.244945 0.110315 0.161996 -0.373861 -3.141466
    41 1.522835 0.058681 0.016848 0.190874 -0.156546 0.203463
    42 1.117947 0.048424 -0.005766 0.010148 -0.085684 0.260037
    43 -0.057365 -0.127323 -0.016854 0.354292 -0.024391 1.519063
    44 -1.393470 8.839177 -0.239433 1.580804 -0.005023 -1.566847
  time 21
    0 1.833241 0.014360 -42.530646 0.000000 0.000000 0.000000
    1 11.439075 -2.330773 32.509823 0.684405 -2.822523 -1.405151
    2 -0.071921 -8.498736 -0.104130 0.059920 0.610990 -0.729135
    3 1.279076 -2.919489 0.865077 -0.267836 -0.222057 -3.738209
    4 -3.112814 0.806304 0.000001 0.000000 0.000000 2.037040
    5 3.839096 -0.031378 0.000000 0.000000 0.000000 0.000537
    6 -1.613795 3.251794 0.000001 0.000000 0.000000 0.467615
    7 -0.521923 1.011393 0.000000 0.000002 0.000000 0.727008
    8 -2.317706 -12.887743 32.722372 -1.473489 -5.684903 -0.366916
    9 0.456330 -7.887901 -0.056241 0.178935 -0.740522 0.494955
    10 17.991777 19.301662 29.975197 1.678699 -1.281876 -0.093751
    11 1.257180 8.762585 -0.153713 -1.570562 0.002683 -1.566807
    12 -0.488518 -2.755602 -0.228260 -0.912721 0.017679 -0.333533
    13 0.039887 -1.479790 0.029854 -1.748663 0.000000 0.000001
    14 0.028786 -1.075731 -0.023109 -0.471807 0.000000 0.000000
    15 0.250027 -2.820665 -0.238396 -0.542709 0.010094 -0.304331
    16 -0.049759 -1.680544 0.100479 -2.059934 0.000000 -0.000002
    17 -0.034142 -1.148312 0.084782 -0.502864 0.000000 0.000000
    18 0.957766 -2.746780 -0.090302 0.374842 0.111199 -0.173277
    19 -0.033420 -1.397129 -0.011257 -1.281348 0.000000 -0.000001
    20 -0.022360 -0.957436 0.018784 -0.508740 0.000000 0.000000
    21 -1.180681 -2.507217 -0.193859 -1.411768 0.170544 -0.457493
    22 -0.024967 -1.123934 0.017597 -0.685267 0.000000 0.000001
    23 -0.020057 -0.890968 0.010090 -0.690235 0.000000 0.000000
    24 0.583510 -1.197277 0.185379 0.245908 -0.934487 -0.500771
    25 1.535927 0.010246 0.005009 -0.152364 0.083377 -1.124135
    26 1.100771 0.004527 -0.010679 -0.007254 0.014511 -0.287578
    27 -0.141574 -0.183087 -0.148242 3.364626 5.948658 -1.360436
    28 0.447953 -2.798986 -0.200443 -0.855836 -0.174451 0.512371
    29 -0.032909 -1.480204 0.004940 -0.434399 0.000000 0.000002
    30 -0.027022 -1.076920 -0.020210 -0.346317 0.000000 0.000000
    31 -0.249534 -2.846964 -0.174213 -0.444359 -0.309013 0.417885
    32 0.043235 -1.683941 0.096012 -0.718172 0.002823 -0.000167
    33 0.031729 -1.160830 0.058838 -0.344228 0.000642 0.008372
    34 -0.963866 -2.785145 -0.085350 0.166222 -0.078175 0.139636
    35 0.028479 -1.403067 0.006271 -0.845105 0.000000 0.000000
    36 0.021413 -0.957781 0.020046 -0.344816 0.000000 0.000000
    37 1.164475 -2.543940 -0.170330 -0.728821 -0.336045 0.643165
    38 0.024032 -1.129042 0.017807 -0.567005 0.000000 0.000001
    39 0.014898 -0.883989 -0.019848 -0.274312 0.000000 0.000000
    40 -0.575051 -1.244945 0.110315 0.120935 -0.328747 -3.106042
    41 1.522835 0.058681 0.016848 0.193954 -0.149212 0.179704
    42 1.117947 0.048424 -0.005766 0.012545 -0.085397 0.232260
    43 -0.022208 -0.131230 -0.028573 0.381421 -0.021865 1.494614
    44 -1.393470 8.839177 -0.239433 1.580804 -0.005023 -1.566847
  time 22
    0 1.833241 0.014360 -42.530646 0.000000 0.000000 0.000000
    1 11.439075 -2.135455 32.037152 0.663021 -2.811904 -1.394368
    2 -0.071921 -8.498736 -0.104130 0.007895 0.623945 -0.833086
    3 1.279076 -2.919489 0.865077 -0.267836 -0.222057 -3.738209
    4 -3.112814 0.806304 0.000001 0.000000 0.000000 2.037040
    5 3.839096 -0.031378 0.000000 0.000000 0.000000 0.000537
    6 -1.613795 3.251794 0.000001 0.000000 0.000000 0.467615
    7 -0.521923 1.011393 0.000000 0.000002 0.000000 0.727008
    8 -2.388021 -12.821335 31.534835 -1.497178 -5.667604 -0.366644
    9 0.468049 -7.868369 -0.056241 0.249828 -0.827240 0.473266
    10 17.991777 19.301662 29.975197 1.678699 -1.281876 -0.093751
    11 1.257180 8.762585 -0.153713 -1.570562 0.002683 -1.566807
    12 -0.488518 -2.755602 -0.228260 -0.912721 0.017679 -0.333533
    13 0.039887 -1.479790 0.029854 -1.748663 0.000000 0.000001
    14 0.028786 -1.075731 -0.023109 -0.455554 0.000000 0.000000
    15 0.250027 -2.820665 -0.238396 -0.542709 0.010094 -0.304331
    16 -0.049759 -1.680544 0.100479 -2.059934 0.000000 -0.000002
    17 -0.034142 -1.148312 0.084782 -0.502864 0.000000 0.000000
    18 0.957766 -2.746780 -0.090302 0.374842 0.111199 -0.173277
    19 -0.033420 -1.397129 -0.011257 -1.281348 0.000000 -0.000001
    20 -0.022360 -0.957436 0.018784 -0.529030 0.000000 0.000000
    21 -1.180681 -2.507217 -0.193859 -1.433443 0.170544 -0.457493
    22 -0.024967 -1.123934 0.017597 -0.698416 0.000000 0.000001
    23 -0.020057 -0.890968 0.010090 -0.708647 0.000000 0.000000
    24 0.583510 -1.197277 0.185379 0.245908 -0.934487 -0.500771
    25 1.535927 0.010246 0.005009 -0.154150 0.064933 -1.151287
    26 1.100771 0.004527 -0.010679 -0.007254 0.014511 -0.287578
    27 -0.165012 -0.186993 -0.156055 3.366224 5.924871 -1.346966
    28 0.447953 -2.798986 -0.200443 -1.002207 -0.119151 0.466809
    29 -0.032909 -1.480204 0.004940 -0.490535 0.000000 0.000002
    30 -0.027022 -1.076920 -0.020210 -0.346317 0.000000 0.000000
    31 -0.249534 -2.846964 -0.174213 -0.576578 -0.205394 0.384521
    32 0.043235 -1.683941 0.096012 -0.867073 0.002823 -0.000167
    33 0.031729 -1.160830 0.058838 -0.344228 0.000642 0.008372
    34 -0.963866 -2.785145 -0.085350 0.175352 0.005085 0.140481
    35 0.028479 -1.403067 0.006271 -1.103993 0.000000 0.000000
    36 0.021413 -0.957781 0.020046 -0.461531 0.000000 0.000000
    37 1.164475 -2.543940 -0.170330 -0.777754 -0.294606 0.544334
    38 0.024032 -1.129042 0.017807 -0.667272 0.000000 0.000001
    39 0.014898 -0.883989 -0.019848 -0.274312 0.000000 0.000000
    40 -0.575051 -1.244945 0.110315 0.077944 -0.271534 -3.063658
    41 1.522835 0.058681 0.016848 0.192145 -0.150973 0.190112
    42 1.117947 0.048424 -0.005766 0.014906 -0.085085 0.205055
    43 0.009043 -0.139043 -0.044199 0.407071 -0.019467 1.471376
    44 -1.393470 8.839177 -0.239433 1.580804 -0.005023 -1.566847
  time 23
    0 1.833241 0.014360 -42.530646 0.000000 0.000000 0.000000
    1 11.442981 -2.014357 31.603545 0.647190 -2.804060 -1.386447
    2 -0.071921 -8.498736 -0.104130 -0.038565 0.633577 -0.918850
    3 1.279076 -2.919489 0.865077 -0.267836 -0.222057 -3.738209
    4 -3.112814 0.806304 0.000001 0.000000 0.000000 2.037040
    5 3.839096 -0.031378 0.000000 0.000000 0.000000 0.000537
    6 -1.613795 3.251794 0.000001 0.000000 0.000000 0.467615
    7 -0.521923 1.011393 0.000000 0.000002 0.000000 0.727008
    8 -2.430991 -12.747114 30.183232 -1.513018 -5.657812 -0.366372
    9 0.479768 -7.852744 -0.056241 0.335328 -0.908236 0.391611
    10 17.991777 19.301662 29.975197 1.678699 -1.281876 -0.093751
    11 1.257180 8.762585 -0.153713 -1.570562 0.002683 -1.566807
    12 -0.488518 -2.755602 -0.228260 -0.912721 0.017679 -0.333533
    13 0.039887 -1.479790 0.029854 -1.748663 0.000000 0.000001
    14 0.028786 -1.075731 -0.023109 -0.411996 0.000000 0.000000
    15 0.250027 -2.820665 -0.238396 -0.542709 0.010094 -0.304331
    16 -0.049759 -1.680544 0.100479 -2.059934 0.000000 -0.000002
    17 -0.034142 -1.148312 0.084782 -0.502864 0.000000 0.000000
    18 0.957766 -2.746780 -0.090302 0.374842 0.111199 -0.173277
    19 -0.033420 -1.397129 -0.011257 -1.281348 0.000000 -0.000001
    20 -0.022360 -0.957436 0.018784 -0.548085 0.000000 0.000000
    21 -1.180681 -2.507217 -0.193859 -1.441117 0.170544 -0.457493
    22 -0.024967 -1.123934 0.017597 -0.703057 0.000000 0.000001
    23 -0.020057 -0.890968 0.010090 -0.715137 0.000000 0.000000
    24 0.583510 -1.197277 0.185379 0.245908 -0.934487 -0.500771
    25 1.535927 0.010246 0.005009 -0.155528 0.050779 -1.172077
    26 1.100771 0.004527 -0.010679 -0.007254 0.014511 -0.287578
    27 -0.176731 -0.186993 -0.163867 3.367541 5.906516 -1.337413
    28 0.447953 -2.798986 -0.200443 -1.136580 -0.068611 0.427673
    29 -0.032909 -1.480204 0.004940 -0.542054 0.000000 0.000002
    30 -0.027022 -1.076920 -0.020210 -0.346317 0.000000 0.000000
    31 -0.249534 -2.846964 -0.174213 -0.697591 -0.110296 0.353850
    32 0.043235 -1.683941 0.096012 -1.003722 0.002823 -0.000167
    33 0.031729 -1.160830 0.058838 -0.344228 0.000642 0.008372
    34 -0.963866 -2.785145 -0.085350 0.180431 0.081470 0.142014
    35 0.028479 -1.403067 0.006271 -1.341546 0.000000 0.000000
    36 0.021413 -0.957781 0.020046 -0.568661 0.000000 0.000000
    37 1.164475 -2.543940 -0.170330 -0.823347 -0.256480 0.454680
    38 0.024032 -1.129042 0.017807 -0.759302 0.000000 0.000001
    39 0.014898 -0.883989 -0.019848 -0.274312 0.000000 0.000000
    40 -0.575051 -1.244945 0.110315 0.034752 -0.205734 -3.018153
    41 1.522835 0.058681 0.016848 0.187291 -0.155683 0.218079
    42 1.117947 0.048424 -0.005766 0.017159 -0.084773 0.178964
    43 0.036388 -0.142949 -0.052011 0.428562 -0.017441 1.451770
    44 -1.393470 8.839177 -0.239433 1.580804 -0.005023 -1.566847
  time 24
    0 1.833241 0.014360 -42.530646 0.000000 0.000000 0.000000
    1 11.446887 -1.947949 31.287129 0.637326 -2.799277 -1.381389
    2 -0.071921 -8.498736 -0.104130 -0.073072 0.644910 -0.979036
    3 1.279076 -2.919489 0.865077 -0.267836 -0.222057 -3.738209
    4 -3.112814 0.806304 0.000001 0.000000 0.000000 2.037040
    5 3.839096 -0.031378 0.000000 0.000000 0.000000 0.000537
    6 -1.613795 3.251794 0.000001 0.000000 0.000000 0.467615
    7 -0.521923 1.011393 0.000000 0.000002 0.000000 0.727008
    8 -2.450523 -12.688519 29.073823 -1.521857 -5.653488 -0.365737
    9 0.483675 -7.841025 -0.052335 0.412259 -0.966683 0.297102
    10 17.991777 19.301662 29.975197 1.678699 -1.281876 -0.093751
    11 1.257180 8.762585 -0.153713 -1.570562 0.002683 -1.566807
    12 -0.488518 -2.755602 -0.228260 -0.912721 0.017679 -0.333533
    13 0.039887 -1.479790 0.029854 -1.748663 0.000000 0.000001
    14 0.028786 -1.075731 -0.023109 -0.348937 0.000000 0.000000
    15 0.250027 -2.820665 -0.238396 -0.542709 0.010094 -0.304331
    16 -0.049759 -1.680544 0.100479 -2.059934 0.000000 -0.000002
    17 -0.034142 -1.148312 0.084782 -0.502850 0.000000 0.000000
    18 0.957766 -2.746780 -0.090302 0.374842 0.111199 -0.173277
    19 -0.033420 -1.397129 -0.011257 -1.281348 0.000000 -0.000001
    20 -0.022360 -0.957436 0.018784 -0.565581 0.000000 0.000000
    21 -1.180681 -2.507217 -0.193859 -1.441117 0.170544 -0.457493
    22 -0.024967 -1.123934 0.017597 -0.703057 0.000000 0.000001
    23 -0.020057 -0.890968 0.010090 -0.715137 0.000000 0.000000
    24 0.583510 -1.197277 0.185379 0.245908 -0.934487 -0.500771
    25 1.535927 0.010246 0.005009 -0.156403 0.041731 -1.185417
    26 1.100771 0.004527 -0.010679 -0.007254 0.014511 -0.287578
    27 -0.188450 -0.186993 -0.167774 3.368481 5.894810 -1.331681
    28 0.447953 -2.798986 -0.200443 -1.234834 -0.031745 0.400296
    29 -0.032909 -1.480204 0.004940 -0.579725 0.000000 0.000002
    30 -0.027022 -1.076920 -0.020210 -0.346317 0.000000 0.000000
    31 -0.249534 -2.846964 -0.174213 -0.785904 -0.040717 0.331439
    32 0.043235 -1.683941 0.096012 -1.103677 0.002823 -0.000167
    33 0.031729 -1.160830 0.058838 -0.344228 0.000642 0.008372
    34 -0.963866 -2.785145 -0.085350 0.182669 0.137329 0.143528
    35 0.028479 -1.403067 0.006271 -1.515343 0.000000 0.000000
    36 0.021413 -0.957781 0.020046 -0.646997 0.000000 0.000000
    37 1.164475 -2.543940 -0.170330 -0.857083 -0.228560 0.389583
    38 0.024032 -1.129042 0.017807 -0.826621 0.000000 0.000001
    39 0.014898 -0.883989 -0.019848 -0.274312 0.000000 0.000000
    40 -0.575051 -1.244945 0.110315 -0.007193 -0.135174 -2.972866
    41 1.522835 0.058681 0.016848 0.180268 -0.162514 0.258574
    42 1.117947 0.048424 -0.005766 0.019280 -0.084462 0.154544
    43 0.055919 -0.146855 -0.059824 0.443354 -0.016043 1.438239
    44 -1.393470 8.839177 -0.239433 1.580804 -0.005023 -1.566847
  time 25
    0 1.833241 0.014360 -42.530646 0.000000 0.000000 0.000000
    1 11.450794 -1.928417 31.162126 0.634011 -2.797650 -1.379672
    2 -0.071921 -8.498736 -0.104130 -0.089553 0.662790 -1.006547
    3 1.279076 -2.919489 0.865077 -0.267836 -0.222057 -3.738209
    4 -3.112814 0.806304 0.000001 0.000000 0.000000 2.037040
    5 3.839096 -0.031378 0.000000 0.000000 0.000000 0.000537
    6 -1.613795 3.251794 0.000001 0.000000 0.000000 0.467615
    7 -0.521923 1.011393 0.000000 0.000002 0.000000 0.727008
    8 -2.458336 -12.661174 28.612871 -1.524615 -5.652508 -0.364648
    9 0.483675 -7.841025 -0.052335 0.447656 -0.989020 0.248100
    10 17.991777 19.301662 29.975197 1.678699 -1.281876 -0.093751
    11 1.257180 8.762585 -0.153713 -1.570562 0.002683 -1.566807
    12 -0.488518 -2.755602 -0.228260 -0.912721 0.017679 -0.333533
    13 0.039887 -1.479790 0.029854 -1.748663 0.000000 0.000001
    14 0.028786 -1.075731 -0.023109 -0.274180 0.000000 0.000000
    15 0.250027 -2.820665 -0.238396 -0.542709 0.010094 -0.304331
    16 -0.049759 -1.680544 0.100479 -2.059934 0.000000 -0.000002
    17 -0.034142 -1.148312 0.084782 -0.502850 0.000000 0.000000
    18 0.957766 -2.746780 -0.090302 0.374842 0.111199 -0.173277
    19 -0.033420 -1.397129 -0.011257 -1.281348 0.000000 -0.000001
    20 -0.022360 -0.957436 0.018784 -0.581246 0.000000 0.000000
    21 -1.180681 -2.507217 -0.193859 -1.441117 0.170544 -0.457493
    22 -0.024967 -1.123934 0.017597 -0.703057 0.000000 0.000001
    23 -0.020057 -0.890968 0.010090 -0.715137 0.000000 0.000000
    24 0.583510 -1.197277 0.185379 0.245908 -0.934487 -0.500771
    25 1.535927 0.010246 0.005009 -0.156714 0.038531 -1.190106
    26 1.100771 0.004527 -0.010679 -0.007254 0.014511 -0.287578
    27 -0.192357 -0.186993 -0.167774 3.368763 5.890596 -1.329771
    28 0.447953 -2.798986 -0.200443 -1.272932 -0.017478 0.389987
    29 -0.032909 -1.480204 0.004940 -0.594349 0.000000 0.000002
    30 -0.027022 -1.076920 -0.020210 -0.346317 0.000000 0.000000
    31 -0.249534 -2.846964 -0.174213 -0.820104 -0.013747 0.322748
    32 0.043235 -1.683941 0.096012 -1.142369 0.002823 -0.000167
    33 0.031729 -1.160830 0.058838 -0.344228 0.000642 0.008372
    34 -0.963866 -2.785145 -0.085350 0.183175 0.158981 0.144215
    35 0.028479 -1.403067 0.006271 -1.582713 0.000000 0.000000
    36 0.021413 -0.957781 0.020046 -0.677392 0.000000 0.000000
    37 1.164475 -2.543940 -0.170330 -0.870257 -0.217740 0.364459
    38 0.024032 -1.129042 0.017807 -0.852712 0.000000 0.000001
    39 0.014898 -0.883989 -0.019848 -0.274312 0.000000 0.000000
    40 -0.575051 -1.244945 0.110315 -0.046726 -0.063782 -2.930482
    41 1.522835 0.058681 0.016848 0.171927 -0.170628 0.306568
    42 1.117947 0.048424 -0.005766 0.021197 -0.084174 0.132351
    43 0.063732 -0.150762 -0.063730 0.448852 -0.015517 1.433193
    44 -1.393470 8.839177 -0.239433 1.580804 -0.005023 -1.566847
  time 26
    0 1.833241 0.014360 -42.530646 0.000000 0.000000 0.000000
    1 11.485951 -1.928417 31.189470 0.634011 -2.797650 -1.379672
    2 -0.071921 -8.498736 -0.104130 -0.084708 0.687335 -0.998440
    3 1.279076 -2.919489 0.865077 -0.267836 -0.222057 -3.738209
    4 -3.112814 0.806304 0.000001 0.000000 0.000000 2.037040
    5 3.839096 -0.031378 0.000000 0.000000 0.000000 0.000537
    6 -1.613795 3.251794 0.000001 0.000000 0.000000 0.467615
    7 -0.521923 1.011393 0.000000 0.000002 0.000000 0.727008
    8 -2.388021 -12.661174 28.636309 -1.521574 -5.659363 -0.362017
    9 0.444611 -7.903527 -0.048429 0.432319 -0.982153 0.242098
    10 17.991777 19.301662 29.975197 1.678699 -1.281876 -0.093751
    11 1.257180 8.762585 -0.153713 -1.570562 0.002683 -1.566807
    12 -0.488518 -2.755602 -0.228260 -0.912721 0.017679 -0.333533
    13 0.039887 -1.479790 0.029854 -1.748663 0.000000 0.000001
    14 0.028786 -1.075731 -0.023109 -0.195513 0.000000 0.000000
    15 0.250027 -2.820665 -0.238396 -0.542709 0.010094 -0.304331
    16 -0.049759 -1.680544 0.100479 -2.059934 0.000000 -0.000002
    17 -0.034142 -1.148312 0.084782 -0.502850 0.000000 0.000000
    18 0.957766 -2.746780 -0.090302 0.374842 0.111199 -0.173277
    19 -0.033420 -1.397129 -0.011257 -1.281348 0.000000 -0.000001
    20 -0.022360 -0.957436 0.018784 -0.594735 0.000000 0.000000
    21 -1.180681 -2.507217 -0.193859 -1.441117 0.170544 -0.457493
    22 -0.024967 -1.123934 0.017597 -0.703057 0.000000 0.000001
    23 -0.020057 -0.890968 0.010090 -0.715137 0.000000 0.000000
    24 0.583510 -1.197277 0.185379 0.245908 -0.934487 -0.500771
    25 1.535927 0.010246 0.005009 -0.156714 0.038531 -1.190106
    26 1.100771 0.004527 -0.010679 -0.007254 0.014511 -0.287578
    27 -0.192357 -0.186993 -0.167774 3.368763 5.890596 -1.329771
    28 0.447953 -2.798986 -0.200443 -1.272932 -0.017478 0.389987
    29 -0.032909 -1.480204 0.004940 -0.594349 0.000000 0.000002
    30 -0.027022 -1.076920 -0.020210 -0.346317 0.000000 0.000000
    31 -0.249534 -2.846964 -0.174213 -0.820104 -0.013747 0.322748
    32 0.043235 -1.683941 0.096012 -1.142369 0.002823 -0.000167
    33 0.031729 -1.160830 0.058838 -0.344228 0.000642 0.008372
    34 -0.963866 -2.785145 -0.085350 0.183175 0.158981 0.144215
    35 0.028479 -1.403067 0.006271 -1.582713 0.000000 0.000000
    36 0.021413 -0.957781 0.020046 -0.677392 0.000000 0.000000
    37 1.164475 -2.543940 -0.170330 -0.870257 -0.217740 0.364459
    38 0.024032 -1.129042 0.017807 -0.852712 0.000000 0.000001
    39 0.014898 -0.883989 -0.019848 -0.274312 0.000000 0.000000
    40 -0.575051 -1.244945 0.110315 -0.082518 0.004262 -2.893123
    41 1.522835 0.058681 0.016848 0.163142 -0.179185 0.357029
    42 1.117947 0.048424 -0.005766 0.022887 -0.083911 0.112942
    43 0.063732 -0.150762 -0.063730 0.448852 -0.015517 1.433193
    44 -1.393470 8.839177 -0.239433 1.580804 -0.005023 -1.566847
  time 27
    0 1.833241 0.014360 -42.530646 0.000000 0.000000 0.000000
    1 11.556266 -1.928417 31.248066 0.634011 -2.797650 -1.379672
    2 -0.071921 -8.498736 -0.104130 -0.064884 0.712908 -0.965848
    3 1.279076 -2.919489 0.865077 -0.267836 -0.222057 -3.738209
    4 -3.112814 0.806304 0.000001 0.000000 0.000000 2.037040
    5 3.839096 -0.031378 0.000000 0.000000 0.000000 0.000537
    6 -1.613795 3.251794 0.000001 0.000000 0.000000 0.467615
    7 -0.521923 1.011393 0.000000 0.000002 0.000000 0.727008
    8 -2.227860 -12.661174 28.687092 -1.514220 -5.675520 -0.357753
    9 0.346952 -8.055875 -0.036710 0.393026 -0.965200 0.235152
    10 17.991777 19.301662 29.975197 1.678699 -1.281876 -0.093751
    11 1.257180 8.762585 -0.153713 -1.570562 0.002683 -1.566807
    12 -0.488518 -2.755602 -0.228260 -0.912721 0.017679 -0.333533
    13 0.039887 -1.479790 0.029854 -1.748663 0.000000 0.000001
    14 0.028786 -1.075731 -0.023109 -0.120757 0.000000 0.000000
    15 0.250027 -2.820665 -0.238396 -0.542709 0.010094 -0.304331
    16 -0.049759 -1.680544 0.100479 -2.059934 0.000000 -0.000002
    17 -0.034142 -1.148312 0.084782 -0.502850 0.000000 0.000000
    18 0.957766 -2.746780 -0.090302 0.374842 0.111199 -0.173277
    19 -0.033420 -1.397129 -0.011257 -1.281348 0.000000 -0.000001
    20 -0.022360 -0.957436 0.018784 -0.605774 0.000000 0.000000
    21 -1.180681 -2.507217 -0.193859 -1.441117 0.170544 -0.457493
    22 -0.024967 -1.123934 0.017597 -0.703057 0.000000 0.000001
    23 -0.020057 -0.890968 0.010090 -0.715137 0.000000 0.000000
    24 0.583510 -1.197277 0.185379 0.245908 -0.934487 -0.500771
    25 1.535927 0.010246 0.005009 -0.156714 0.038531 -1.190106
    26 1.100771 0.004527 -0.010679 -0.007254 0.014511 -0.287578
    27 -0.192357 -0.186993 -0.167774 3.368763 5.890596 -1.329771
    28 0.447953 -2.798986 -0.200443 -1.272932 -0.017478 0.389987
    29 -0.032909 -1.480204 0.004940 -0.594349 0.000000 0.000002
    30 -0.027022 -1.076920 -0.020210 -0.346317 0.000000 0.000000
    31 -0.249534 -2.846964 -0.174213 -0.820104 -0.013747 0.322748
    32 0.043235 -1.683941 0.096012 -1.142369 0.002823 -0.000167
    33 0.031729 -1.160830 0.058838 -0.344228 0.000642 0.008372
    34 -0.963866 -2.785145 -0.085350 0.183175 0.158981 0.144215
    35 0.028479 -1.403067 0.006271 -1.582713 0.000000 0.000000
    36 0.021413 -0.957781 0.020046 -0.677392 0.000000 0.000000
    37 1.164475 -2.543940 -0.170330 -0.870257 -0.217740 0.364459
    38 0.024032 -1.129042 0.017807 -0.852712 0.000000 0.000001
    39 0.014898 -0.883989 -0.019848 -0.274312 0.000000 0.000000
    40 -0.575051 -1.244945 0.110315 -0.113283 0.064698 -2.862381
    41 1.522835 0.058681 0.016848 0.154777 -0.187335 0.405022
    42 1.117947 0.048424 -0.005766 0.024277 -0.083683 0.096890
    43 0.063732 -0.150762 -0.063730 0.448852 -0.015517 1.433193
    44 -1.393470 8.839177 -0.239433 1.580804 -0.005023 -1.566847
  time 28
    0 1.833241 0.014360 -42.530646 0.000000 0.000000 0.000000
    1 11.634393 -1.928417 31.318380 0.634011 -2.797650 -1.379672
    2 -0.071921 -8.498736 -0.104130 -0.038650 0.735614 -0.923386
    3 1.279076 -2.919489 0.865077 -0.267836 -0.222057 -3.738209
    4 -3.112814 0.806304 0.000001 0.000000 0.000000 2.037040
    5 3.839096 -0.031378 0.000000 0.000000 0.000000 0.000537
    6 -1.613795 3.251794 0.000001 0.000000 0.000000 0.467615
    7 -0.521923 1.011393 0.000000 0.000002 0.000000 0.727008
    8 -2.036448 -12.661174 28.749594 -1.505522 -5.694859 -0.353217
    9 0.233667 -8.235568 -0.024990 0.345163 -0.944855 0.228820
    10 17.991777 19.301662 29.975197 1.678699 -1.281876 -0.093751
    11 1.257180 8.762585 -0.153713 -1.570562 0.002683 -1.566807
    12 -0.488518 -2.755602 -0.228260 -0.912721 0.017679 -0.333533
    13 0.039887 -1.479790 0.029854 -1.748663 0.000000 0.000001
    14 0.028786 -1.075731 -0.023109 -0.057697 0.000000 0.000000
    15 0.250027 -2.820665 -0.238396 -0.542709 0.010094 -0.304331
    16 -0.049759 -1.680544 0.100479 -2.059934 0.000000 -0.000002
    17 -0.034142 -1.148312 0.084782 -0.502850 0.000000 0.000000
    18 0.957766 -2.746780 -0.090302 0.374842 0.111199 -0.173277
    19 -0.033420 -1.397129 -0.011257 -1.281348 0.000000 -0.000001
    20 -0.022360 -0.957436 0.018784 -0.614041 0.000000 0.000000
    21 -1.180681 -2.507217 -0.193859 -1.441117 0.170544 -0.457493
    22 -0.024967 -1.123934 0.017597 -0.703057 0.000000 0.000001
    23 -0.020057 -0.890968 0.010090 -0.715137 0.000000 0.000000
    24 0.583510 -1.197277 0.185379 0.245908 -0.934487 -0.500771
    25 1.535927 0.010246 0.005009 -0.156714 0.038531 -1.190106
    26 1.100771 0.004527 -0.010679 -0.007254 0.014511 -0.287578
    27 -0.192357 -0.186993 -0.167774 3.368763 5.890596 -1.329771
    28 0.447953 -2.798986 -0.200443 -1.272932 -0.017478 0.389987
    29 -0.032909 -1.480204 0.004940 -0.594349 0.000000 0.000002
    30 -0.027022 -1.076920 -0.020210 -0.346317 0.000000 0.000000
    31 -0.249534 -2.846964 -0.174213 -0.820104 -0.013747 0.322748
    32 0.043235 -1.683941 0.096012 -1.142369 0.002823 -0.000167
    33 0.031729 -1.160830 0.058838 -0.344228 0.000642 0.008372
    34 -0.963866 -2.785145 -0.085350 0.183175 0.158981 0.144215
    35 0.028479 -1.403067 0.006271 -1.582713 0.000000 0.000000
    36 0.021413 -0.957781 0.020046 -0.677392 0.000000 0.000000
    37 1.164475 -2.543940 -0.170330 -0.870257 -0.217740 0.364459
    38 0.024032 -1.129042 0.017807 -0.852712 0.000000 0.000001
    39 0.014898 -0.883989 -0.019848 -0.274312 0.000000 0.000000
    40 -0.575051 -1.244945 0.110315 -0.137453 0.113159 -2.839316
    41 1.522835 0.058681 0.016848 0.147718 -0.194226 0.445485
    42 1.117947 0.048424 -0.005766 0.025332 -0.083503 0.084720
    43 0.063732 -0.150762 -0.063730 0.448852 -0.015517 1.433193
    44 -1.393470 8.839177 -0.239433 1.580804 -0.005023 -1.566847
  time 29
    0 1.833241 0.014360 -42.530646 0.000000 0.000000 0.000000
    1 11.700801 -1.928417 31.376976 0.634011 -2.797650 -1.379672
    2 -0.071921 -8.498736 -0.104130 -0.015420 0.751714 -0.886174
    3 1.279076 -2.919489 0.865077 -0.267836 -0.222057 -3.738209
    4 -3.112814 0.806304 0.000001 0.000000 0.000000 2.037040
    5 3.839096 -0.031378 0.000000 0.000000 0.000000 0.000537
    6 -1.613795 3.251794 0.000001 0.000000 0.000000 0.467615
    7 -0.521923 1.011393 0.000000 0.000002 0.000000 0.727008
    8 -1.876287 -12.661174 28.800377 -1.498239 -5.711097 -0.349497
    9 0.136008 -8.387917 -0.013271 0.304653 -0.927732 0.224331
    10 17.991777 19.301662 29.975197 1.678699 -1.281876 -0.093751
    11 1.257180 8.762585 -0.153713 -1.570562 0.002683 -1.566807
    12 -0.488518 -2.755602 -0.228260 -0.912721 0.017679 -0.333533
    13 0.039887 -1.479790 0.029854 -1.748663 0.000000 0.000001
    14 0.028786 -1.075731 -0.023109 -0.014139 0.000000 0.000000
    15 0.250027 -2.820665 -0.238396 -0.542709 0.010094 -0.304331
    16 -0.049759 -1.680544 0.100479 -2.059934 0.000000 -0.000002
    17 -0.034142 -1.148312 0.084782 -0.502850 0.000000 0.000000
    18 0.957766 -2.746780 -0.090302 0.374842 0.111199 -0.173277
    19 -0.033420 -1.397129 -0.011257 -1.281348 0.000000 -0.000001
    20 -0.022360 -0.957436 0.018784 -0.619240 0.000000 0.000000
    21 -1.180681 -2.507217 -0.193859 -1.441117 0.170544 -0.457493
    22 -0.024967 -1.123934 0.017597 -0.703057 0.000000 0.000001
    23 -0.020057 -0.890968 0.010090 -0.715137 0.000000 0.000000
    24 0.583510 -1.197277 0.185379 0.245908 -0.934487 -0.500771
    25 1.535927 0.010246 0.005009 -0.156714 0.038531 -1.190106
    26 1.100771 0.004527 -0.010679 -0.007254 0.014511 -0.287578
    27 -0.192357 -0.186993 -0.167774 3.368763 5.890596 -1.329771
    28 0.447953 -2.798986 -0.200443 -1.272932 -0.017478 0.389987
    29 -0.032909 -1.480204 0.004940 -0.594349 0.000000 0.000002
    30 -0.027022 -1.076920 -0.020210 -0.346317 0.000000 0.000000
    31 -0.249534 -2.846964 -0.174213 -0.820104 -0.013747 0.322748
    32 0.043235 -1.683941 0.096012 -1.142369 0.002823 -0.000167
    33 0.031729 -1.160830 0.058838 -0.344228 0.000642 0.008372
    34 -0.963866 -2.785145 -0.085350 0.183175 0.158981 0.144215
    35 0.028479 -1.403067 0.006271 -1.582713 0.000000 0.000000
    36 0.021413 -0.957781 0.020046 -0.677392 0.000000 0.000000
    37 1.164475 -2.543940 -0.170330 -0.870257 -0.217740 0.364459
    38 0.024032 -1.129042 0.017807 -0.852712 0.000000 0.000001
    39 0.014898 -0.883989 -0.019848 -0.274312 0.000000 0.000000
    40 -0.575051 -1.244945 0.110315 -0.153258 0.145341 -2.824803
    41 1.522835 0.058681 0.016848 0.142828 -0.198996 0.473421
    42 1.117947 0.048424 -0.005766 0.026003 -0.083383 0.077020
    43 0.063732 -0.150762 -0.063730 0.448852 -0.015517 1.433193
    44 -1.393470 8.839177 -0.239433 1.580804 -0.005023 -1.566847
  time 30
    0 1.833241 0.014360 -42.530646 0.000000 0.000000 0.000000
    1 11.728146 -1.928417 31.404320 0.634011 -2.797650 -1.379672
    2 -0.071921 -8.498736 -0.104130 -0.005349 0.757825 -0.870214
    3 1.279076 -2.919489 0.865077 -0.267836 -0.222057 -3.738209
    4 -3.112814 0.806304 0.000001 0.000000 0.000000 2.037040
    5 3.839096 -0.031378 0.000000 0.000000 0.000000 0.000537
    6 -1.613795 3.251794 0.000001 0.000000 0.000000 0.467615
    7 -0.521923 1.011393 0.000000 0.000002 0.000000 0.727008
    8 -1.809878 -12.661174 28.823815 -1.495198 -5.717870 -0.348045
    9 0.096944 -8.450418 -0.009365 0.287563 -0.920569 0.222630
    10 17.991777 19.301662 29.975197 1.678699 -1.281876 -0.093751
    11 1.257180 8.762585 -0.153713 -1.570562 0.002683 -1.566807
    12 -0.488518 -2.755602 -0.228260 -0.912721 0.017679 -0.333533
    13 0.039887 -1.479790 0.029854 -1.748663 0.000000 0.000001
    14 0.028786 -1.075731 -0.023109 0.002099 0.000000 0.000000
    15 0.250027 -2.820665 -0.238396 -0.542709 0.010094 -0.304331
    16 -0.049759 -1.680544 0.100479 -2.059934 0.000000 -0.000002
    17 -0.034142 -1.148312 0.084782 -0.502850 0.000000 0.000000
    18 0.957766 -2.746780 -0.090302 0.374842 0.111199 -0.173277
    19 -0.033420 -1.397129 -0.011257 -1.281348 0.000000 -0.000001
    20 -0.022360 -0.957436 0.018784 -0.621026 0.000000 0.000000
    21 -1.180681 -2.507217 -0.193859 -1.441117 0.170544 -0.457493
    22 -0.024967 -1.123934 0.017597 -0.703057 0.000000 0.000001
    23 -0.020057 -0.890968 0.010090 -0.715137 0.000000 0.000000
    24 0.583510 -1.197277 0.185379 0.245908 -0.934487 -0.500771
    25 1.535927 0.010246 0.005009 -0.156714 0.038531 -1.190106
    26 1.100771 0.004527 -0.010679 -0.007254 0.014511 -0.287578
    27 -0.192357 -0.186993 -0.167774 3.368763 5.890596 -1.329771
    28 0.447953 -2.798986 -0.200443 -1.272932 -0.017478 0.389987
    29 -0.032909 -1.480204 0.004940 -0.594349 0.000000 0.000002
    30 -0.027022 -1.076920 -0.020210 -0.346317 0.000000 0.000000
    31 -0.249534 -2.846964 -0.174213 -0.820104 -0.013747 0.322748
    32 0.043235 -1.683941 0.096012 -1.142369 0.002823 -0.000167
    33 0.031729 -1.160830 0.058838 -0.344228 0.000642 0.008372
    34 -0.963866 -2.785145 -0.085350 0.183175 0.158981 0.144215
    35 0.028479 -1.403067 0.006271 -1.582713 0.000000 0.000000
    36 0.021413 -0.957781 0.020046 -0.677392 0.000000 0.000000
    37 1.164475 -2.543940 -0.170330 -0.870257 -0.217740 0.364459
    38 0.024032 -1.129042 0.017807 -0.852712 0.000000 0.000001
    39 0.014898 -0.883989 -0.019848 -0.274312 0.000000 0.000000
    40 -0.575051 -1.244945 0.110315 -0.158969 0.157025 -2.819685
    41 1.522835 0.058681 0.016848 0.141007 -0.200781 0.483861
    42 1.117947 0.048424 -0.005766 0.026243 -0.083347 0.074331
    43 0.063732 -0.150762 -0.063730 0.448852 -0.015517 1.433193
    44 -1.393470 8.839177 -0.239433 1.580804 -0.005023 -1.566847
end
