version 1
nodes
  0 "falconex_root" -1
  1 "triger" 0
  2 "handle" 0
  3 "bullet" 0
  4 "reload" 0
  5 "root" -1
  6 "Bone01" 5
  7 "Bone_L_Upper" 6
  8 "Bone_Lefthand" 6
  9 "Bone13" 8
  10 "Bone14" 9
  11 "Bone15" 10
  12 "Bone17" 8
  13 "Bone18" 12
  14 "Bone19" 13
  15 "Bone21" 8
  16 "Bone22" 15
  17 "Bone23" 16
  18 "Bone09" 8
  19 "Bone10" 18
  20 "Bone11" 19
  21 "Bone05" 8
  22 "Bone06" 21
  23 "Bone07" 22
  24 "Bone_Se_Hand-L" 8
  25 "Bone04" 5
  26 "Bone_Righthand" 25
  27 "Bone39" 26
  28 "Bone40" 27
  29 "Bone41" 28
  30 "Bone35" 26
  31 "Bone36" 30
  32 "Bone37" 31
  33 "Bone31" 26
  34 "Bone32" 33
  35 "Bone33" 34
  36 "Bone43" 26
  37 "Bone44" 36
  38 "Bone45" 37
  39 "Bone27" 26
  40 "Bone28" 39
  41 "Bone29" 40
  42 "Bone_Se_Hand-R" 26
  43 "Bone_R_Upper" 25
end
skeleton
  time 0
    0 9.789361 -7.121311 6.855678 -0.141169 0.003083 -4.637308
    1 0.181052 0.000000 0.086367 0.000000 3.141592 0.000000
    2 2.883403 -0.000760 -4.121950 0.000000 0.000000 2.617994
    3 2.826668 -0.008370 -6.676362 0.000000 -1.570451 0.000000
    4 3.481615 -0.582735 -7.540093 0.000000 0.000000 0.523599
    5 1.536357 -3.587312 -3.077600 0.000000 -0.091011 0.000000
    6 9.134317 -2.080766 -1.866226 1.324042 -2.717398 -0.407779
    7 6.890164 4.961687 -0.294342 1.565104 -3.127233 0.713979
    8 0.014019 -8.533894 -0.068977 0.075385 0.677850 0.980849
    9 -0.488518 -2.755602 -0.228260 -0.972833 0.169296 -0.373837
    10 0.039887 -1.530573 0.014229 -1.448232 -0.012440 0.032096
    11 0.028786 -1.134327 -0.112955 -0.812973 -0.013926 0.016071
    12 0.250027 -2.820665 -0.238396 -0.695721 0.172809 -0.307015
    13 -0.049759 -1.598510 0.037977 -1.504726 0.001318 -0.040630
    14 -0.034142 -1.167844 0.049625 -1.093653 0.007263 -0.028679
    15 0.957766 -2.746780 -0.090302 0.506403 0.204751 0.034608
    16 -0.033420 -1.397129 -0.030789 -1.093239 0.001690 -0.053093
    17 -0.022360 -0.957436 0.007065 -0.545656 0.008006 -0.026210
    18 -1.180681 -2.507217 -0.193859 -0.878419 0.301607 -0.301154
    19 -0.024967 -1.123934 0.017597 -0.823698 0.006400 -0.035198
    20 -0.020057 -0.906594 0.033528 -1.043768 0.004698 -0.042809
    21 0.634293 -1.185558 0.181473 0.948059 -0.983674 -0.752916
    22 1.469519 -0.228043 0.071417 0.057235 -0.225142 -0.816478
    23 0.964048 -0.202511 0.051823 0.138994 -0.276703 -1.264916
    24 0.120153 -0.050270 -0.054489 0.287569 3.110905 1.561085
    25 -5.110760 -2.684307 -10.071903 -1.232946 -3.349575 -1.433826
    26 -0.094468 -8.415261 0.072669 -0.206592 -0.849201 0.369495
    27 0.447953 -2.798986 -0.200443 -0.534985 -0.124477 0.299406
    28 -0.032909 -1.488017 0.008846 -0.476901 0.011014 -0.004540
    29 -0.027022 -1.088639 -0.028023 -0.378423 0.010235 -0.003344
    30 -0.249534 -2.846964 -0.174213 -0.264976 -0.104738 0.142250
    31 0.043235 -1.672222 0.092106 -0.459834 -0.006417 -0.001857
    32 0.031729 -1.160830 0.058838 -0.195226 -0.000976 0.007198
    33 -0.963866 -2.785145 -0.085350 0.272726 0.040057 -0.119613
    34 0.028479 -1.403067 -0.005448 -0.487973 -0.008713 -0.020709
    35 0.021413 -0.957781 0.020046 -0.151749 -0.001666 -0.006831
    36 1.164475 -2.543940 -0.170330 -0.551978 -0.239335 0.387395
    37 0.024032 -1.132948 0.006088 -0.539266 -0.000563 0.028968
    38 0.014898 -0.887895 -0.019848 -0.376676 -0.002469 0.017509
    39 -0.586770 -1.264477 0.200161 0.487849 -0.208329 -3.457596
    40 1.534554 0.046962 0.016848 -0.004594 0.000524 0.320136
    41 1.117947 0.048424 -0.005766 0.001878 -0.022813 -0.034169
    42 -0.123774 -0.037477 0.151120 0.678641 -0.004622 1.412484
    43 -0.147338 8.952462 -0.169118 1.208772 -0.058585 -1.716574
  time 1
    0 9.441694 -8.027589 6.082217 -0.127082 -0.059503 -4.642294
    1 0.181052 0.000000 0.086367 0.000000 3.141592 0.000000
    2 2.883403 -0.000760 -4.121950 0.000000 0.000000 2.617994
    3 2.826668 -0.008370 -6.676362 0.000000 -1.570451 0.000000
    4 3.481615 -0.582735 -7.540093 0.000000 0.000000 0.523599
    5 1.536357 -3.587312 -3.077600 0.000000 -0.091011 0.000000
    6 9.017126 -2.252646 -2.612343 1.255964 -2.718393 -0.435162
    7 7.358929 4.078848 -0.317781 1.565583 -3.124652 0.591165
    8 0.010113 -8.537800 -0.068977 0.075649 0.639236 0.930084
    9 -0.488518 -2.755602 -0.228260 -0.972833 0.169296 -0.373837
    10 0.039887 -1.530573 0.014229 -1.451575 -0.012416 0.032180
    11 0.028786 -1.134327 -0.112955 -0.815484 -0.013950 0.016131
    12 0.250027 -2.820665 -0.238396 -0.695721 0.172809 -0.307015
    13 -0.049759 -1.598510 0.034071 -1.509060 0.001234 -0.040726
    14 -0.034142 -1.167844 0.049625 -1.096737 0.007239 -0.028763
    15 0.957766 -2.746780 -0.090302 0.506403 0.204751 0.034608
    16 -0.033420 -1.397129 -0.030789 -1.093239 0.001690 -0.053093
    17 -0.022360 -0.957436 0.007065 -0.545656 0.008006 -0.026210
    18 -1.180681 -2.507217 -0.193859 -0.878419 0.301607 -0.301154
    19 -0.024967 -1.123934 0.017597 -0.823698 0.006400 -0.035198
    20 -0.020057 -0.906594 0.033528 -1.046223 0.004650 -0.042917
    21 0.634293 -1.185558 0.181473 0.948059 -0.983674 -0.752916
    22 1.469519 -0.228043 0.071417 0.057235 -0.225142 -0.816478
    23 0.964048 -0.202511 0.051823 0.138994 -0.276703 -1.264916
    24 0.120153 -0.050270 -0.054489 0.287569 3.110905 1.561085
    25 -4.899816 -3.102289 -10.036746 -1.251870 -3.412440 -1.411159
    26 -0.094468 -8.415261 0.072669 -0.206334 -0.848888 0.369984
    27 0.447953 -2.798986 -0.200443 -0.534985 -0.124477 0.299406
    28 -0.032909 -1.488017 0.008846 -0.476901 0.011014 -0.004540
    29 -0.027022 -1.088639 -0.028023 -0.378423 0.010235 -0.003344
    30 -0.249534 -2.846964 -0.174213 -0.264976 -0.104738 0.142250
    31 0.043235 -1.672222 0.092106 -0.459834 -0.006417 -0.001857
    32 0.031729 -1.160830 0.058838 -0.195226 -0.000976 0.007198
    33 -0.963866 -2.785145 -0.085350 0.272726 0.040057 -0.119613
    34 0.028479 -1.403067 -0.005448 -0.487973 -0.008713 -0.020709
    35 0.021413 -0.957781 0.020046 -0.151749 -0.001666 -0.006831
    36 1.164475 -2.543940 -0.170330 -0.551978 -0.239335 0.387395
    37 0.024032 -1.132948 0.006088 -0.539266 -0.000563 0.028968
    38 0.014898 -0.887895 -0.019848 -0.376676 -0.002469 0.017509
    39 -0.586770 -1.264477 0.200161 0.487849 -0.208329 -3.457596
    40 1.534554 0.046962 0.016848 -0.004594 0.000524 0.320136
    41 1.117947 0.048424 -0.005766 0.001878 -0.022813 -0.034169
    42 -0.123774 -0.037477 0.151120 0.678411 0.001270 1.411669
    43 -0.131713 8.952462 -0.173025 1.208855 -0.059254 -1.718375
  time 2
    0 9.090121 -8.976836 5.289224 -0.110662 -0.118727 -4.649388
    1 0.181052 0.000000 0.086367 0.000000 3.141592 0.000000
    2 2.883403 -0.000760 -4.121950 0.000000 0.000000 2.617994
    3 2.826668 -0.008370 -6.676362 0.000000 -1.570451 0.000000
    4 3.481615 -0.582735 -7.540093 0.000000 0.000000 0.523599
    5 1.536357 -3.587312 -3.077600 0.000000 -0.091011 0.000000
    6 8.841339 -2.393275 -3.245174 1.179671 -2.700227 -0.463269
    7 7.608936 3.457735 -0.329500 1.565967 -3.122931 0.508946
    8 0.002300 -8.545613 -0.072883 0.086722 0.589956 0.901429
    9 -0.488518 -2.755602 -0.228260 -0.972800 0.169296 -0.373837
    10 0.039887 -1.530573 0.014229 -1.460134 -0.012332 0.032395
    11 0.028786 -1.134327 -0.112955 -0.821951 -0.013998 0.016299
    12 0.250027 -2.820665 -0.238396 -0.695721 0.172809 -0.307015
    13 -0.049759 -1.598510 0.034071 -1.520212 0.001007 -0.040965
    14 -0.034142 -1.167844 0.049625 -1.104620 0.007179 -0.028991
    15 0.957766 -2.746780 -0.090302 0.506403 0.204751 0.034608
    16 -0.033420 -1.397129 -0.030789 -1.093239 0.001690 -0.053093
    17 -0.022360 -0.957436 0.007065 -0.545656 0.008006 -0.026210
    18 -1.180681 -2.507217 -0.193859 -0.878419 0.301607 -0.301154
    19 -0.024967 -1.123934 0.017597 -0.823698 0.006400 -0.035198
    20 -0.020057 -0.906594 0.033528 -1.052487 0.004542 -0.043180
    21 0.634293 -1.185558 0.181473 0.948059 -0.983674 -0.752916
    22 1.469519 -0.228043 0.071417 0.057235 -0.225142 -0.816478
    23 0.964048 -0.202511 0.051823 0.138994 -0.276703 -1.264916
    24 0.120153 -0.050270 -0.054489 0.287569 3.110905 1.561085
    25 -4.677153 -3.516364 -9.970338 -1.269223 -3.474229 -1.389937
    26 -0.094468 -8.415261 0.072669 -0.205592 -0.848040 0.371297
    27 0.447953 -2.798986 -0.200443 -0.534985 -0.124477 0.299406
    28 -0.032909 -1.488017 0.008846 -0.476901 0.011014 -0.004540
    29 -0.027022 -1.088639 -0.028023 -0.378423 0.010235 -0.003344
    30 -0.249534 -2.846964 -0.174213 -0.264976 -0.104738 0.142250
    31 0.043235 -1.672222 0.092106 -0.459834 -0.006417 -0.001857
    32 0.031729 -1.160830 0.058838 -0.195226 -0.000976 0.007198
    33 -0.963866 -2.785145 -0.085350 0.272726 0.040057 -0.119613
    34 0.028479 -1.403067 -0.005448 -0.487973 -0.008713 -0.020709
    35 0.021413 -0.957781 0.020046 -0.151749 -0.001666 -0.006831
    36 1.164475 -2.543940 -0.170330 -0.551978 -0.239335 0.387395
    37 0.024032 -1.132948 0.006088 -0.539266 -0.000563 0.028968
    38 0.014898 -0.887895 -0.019848 -0.376676 -0.002469 0.017509
    39 -0.586770 -1.264477 0.200161 0.487849 -0.208329 -3.457596
    40 1.534554 0.046962 0.016848 -0.004594 0.000524 0.320136
    41 1.117947 0.048424 -0.005766 0.001878 -0.022813 -0.034169
    42 -0.123774 -0.037477 0.151120 0.678163 0.007249 1.409332
    43 -0.092649 8.956368 -0.188650 1.209103 -0.061048 -1.723308
  time 3
    0 8.734642 -9.953429 4.480605 -0.092563 -0.175982 -4.658208
    1 0.181052 0.000000 0.086367 0.000000 3.141592 0.000000
    2 2.883403 -0.000760 -4.121950 0.000000 0.000000 2.617994
    3 2.826668 -0.008370 -6.676362 0.000000 -1.570451 0.000000
    4 3.481615 -0.582735 -7.540093 0.000000 0.000000 0.523599
    5 1.536357 -3.587312 -3.077600 0.000000 -0.091011 0.000000
    6 8.630395 -2.518279 -3.760815 1.096474 -2.666797 -0.487902
    7 7.722221 3.110068 -0.337312 1.566350 -3.122071 0.463807
    8 -0.005513 -8.557332 -0.076789 0.105958 0.534161 0.889519
    9 -0.488518 -2.755602 -0.228260 -0.972833 0.169296 -0.373837
    10 0.039887 -1.530573 0.014229 -1.471634 -0.012236 0.032683
    11 0.028786 -1.138233 -0.112955 -0.830656 -0.014070 0.016527
    12 0.250027 -2.820665 -0.238396 -0.695721 0.172809 -0.307015
    13 -0.049759 -1.598510 0.034071 -1.535210 0.000707 -0.041289
    14 -0.034142 -1.167844 0.049625 -1.115244 0.007083 -0.029290
    15 0.957766 -2.746780 -0.090302 0.506403 0.204751 0.034608
    16 -0.033420 -1.397129 -0.030789 -1.093239 0.001690 -0.053093
    17 -0.022360 -0.957436 0.007065 -0.545656 0.008006 -0.026210
    18 -1.180681 -2.507217 -0.193859 -0.878419 0.301607 -0.301154
    19 -0.024967 -1.123934 0.017597 -0.823698 0.006400 -0.035198
    20 -0.020057 -0.906594 0.033528 -1.060954 0.004398 -0.043540
    21 0.634293 -1.185558 0.181473 0.948059 -0.983674 -0.752916
    22 1.469519 -0.228043 0.071417 0.057235 -0.225142 -0.816478
    23 0.964048 -0.202511 0.051823 0.138994 -0.276703 -1.264916
    24 0.120153 -0.050270 -0.054489 0.287569 3.110905 1.561085
    25 -4.442771 -3.926533 -9.868772 -1.285245 -3.535211 -1.369708
    26 -0.094468 -8.415261 0.072669 -0.204495 -0.846790 0.373221
    27 0.447953 -2.798986 -0.200443 -0.534985 -0.124477 0.299406
    28 -0.032909 -1.488017 0.008846 -0.476901 0.011014 -0.004540
    29 -0.027022 -1.088639 -0.028023 -0.378423 0.010235 -0.003344
    30 -0.249534 -2.846964 -0.174213 -0.264976 -0.104738 0.142250
    31 0.043235 -1.672222 0.092106 -0.459834 -0.006417 -0.001857
    32 0.031729 -1.160830 0.058838 -0.195226 -0.000976 0.007198
    33 -0.963866 -2.785145 -0.085350 0.272726 0.040057 -0.119613
    34 0.028479 -1.403067 -0.005448 -0.487973 -0.008713 -0.020709
    35 0.021413 -0.957781 0.020046 -0.151749 -0.001666 -0.006831
    36 1.164475 -2.543940 -0.170330 -0.551978 -0.239335 0.387395
    37 0.024032 -1.132948 0.006088 -0.539266 -0.000563 0.028968
    38 0.014898 -0.887895 -0.019848 -0.376676 -0.002469 0.017509
    39 -0.586770 -1.264477 0.200161 0.487849 -0.208329 -3.457596
    40 1.534554 0.046962 0.016848 -0.004594 0.000524 0.320136
    41 1.117947 0.048424 -0.005766 0.001878 -0.022813 -0.034169
    42 -0.123774 -0.037477 0.151120 0.677916 0.013272 1.405653
    43 -0.034054 8.952462 -0.212088 1.209454 -0.063673 -1.730669
  time 4
    0 8.383068 -10.941740 3.668081 -0.073437 -0.232612 -4.668466
    1 0.181052 0.000000 0.086367 0.000000 3.141592 0.000000
    2 2.883403 -0.000760 -4.121950 0.000000 0.000000 2.617994
    3 2.826668 -0.008370 -6.676362 0.000000 -1.570451 0.000000
    4 3.481615 -0.582735 -7.540093 0.000000 0.000000 0.523599
    5 1.536357 -3.587312 -3.077600 0.000000 -0.091011 0.000000
    6 8.403826 -2.651096 -4.163171 1.007509 -2.622418 -0.504820
    7 7.749566 3.024128 -0.337312 1.566350 -3.121880 0.452962
    8 -0.009419 -8.569051 -0.084602 0.130418 0.476534 0.889460
    9 -0.488518 -2.755602 -0.228260 -0.972800 0.169296 -0.373837
    10 0.039887 -1.530573 0.014229 -1.483848 -0.012116 0.032995
    11 0.028786 -1.138233 -0.112955 -0.839907 -0.014130 0.016754
    12 0.250027 -2.820665 -0.238396 -0.695721 0.172809 -0.307015
    13 -0.049759 -1.598510 0.034071 -1.551183 0.000384 -0.041624
    14 -0.034142 -1.171750 0.049625 -1.126553 0.006975 -0.029614
    15 0.957766 -2.746780 -0.090302 0.506403 0.204751 0.034608
    16 -0.033420 -1.397129 -0.030789 -1.093239 0.001690 -0.053093
    17 -0.022360 -0.957436 0.007065 -0.545656 0.008006 -0.026210
    18 -1.180681 -2.507217 -0.193859 -0.878390 0.301607 -0.301154
    19 -0.024967 -1.123934 0.017597 -0.823698 0.006400 -0.035198
    20 -0.020057 -0.906594 0.033528 -1.069956 0.004243 -0.043912
    21 0.634293 -1.185558 0.181473 0.948059 -0.983674 -0.752916
    22 1.469519 -0.228043 0.071417 0.057235 -0.225142 -0.816478
    23 0.964048 -0.202511 0.051823 0.138994 -0.276703 -1.264916
    24 0.120153 -0.050270 -0.054489 0.287569 3.110905 1.561085
    25 -4.196670 -4.321076 -9.732049 -1.300178 -3.595655 -1.350292
    26 -0.094468 -8.415261 0.072669 -0.203172 -0.845294 0.375558
    27 0.447953 -2.798986 -0.200443 -0.534985 -0.124477 0.299406
    28 -0.032909 -1.488017 0.008846 -0.476901 0.011014 -0.004540
    29 -0.027022 -1.088639 -0.028023 -0.378423 0.010235 -0.003344
    30 -0.249534 -2.846964 -0.174213 -0.264976 -0.104738 0.142250
    31 0.043235 -1.672222 0.092106 -0.459834 -0.006417 -0.001857
    32 0.031729 -1.160830 0.058838 -0.195226 -0.000976 0.007198
    33 -0.963866 -2.785145 -0.085350 0.272726 0.040057 -0.119613
    34 0.028479 -1.403067 -0.005448 -0.487973 -0.008713 -0.020709
    35 0.021413 -0.957781 0.020046 -0.151749 -0.001666 -0.006831
    36 1.164475 -2.543940 -0.170330 -0.551978 -0.239335 0.387395
    37 0.024032 -1.132948 0.006088 -0.539266 -0.000563 0.028968
    38 0.014898 -0.887895 -0.019848 -0.376676 -0.002469 0.017509
    39 -0.586770 -1.264477 0.200161 0.487849 -0.208329 -3.457596
    40 1.534554 0.046962 0.016848 -0.004594 0.000524 0.320136
    41 1.117947 0.048424 -0.005766 0.001878 -0.022813 -0.034169
    42 -0.123774 -0.037477 0.151120 0.677653 0.019280 1.400811
    43 0.040167 8.952462 -0.235527 1.209930 -0.066860 -1.739597
  time 5
    0 8.031495 -11.926145 2.851650 -0.053938 -0.289963 -4.679587
    1 0.181052 0.000000 0.086367 0.000000 3.141592 0.000000
    2 2.883403 -0.000760 -4.121950 0.000000 0.000000 2.617994
    3 2.826668 -0.008370 -6.676362 0.000000 -1.570451 0.000000
    4 3.481615 -0.582735 -7.540093 0.000000 0.000000 0.523599
    5 1.536357 -3.587312 -3.077600 0.000000 -0.091011 0.000000
    6 8.173350 -2.807350 -4.467868 0.913650 -2.571568 -0.510320
    7 7.702689 3.180383 -0.333406 1.566254 -3.122262 0.472967
    8 -0.013325 -8.580770 -0.088509 0.157336 0.421787 0.896948
    9 -0.488518 -2.755602 -0.228260 -0.972800 0.169296 -0.373837
    10 0.039887 -1.530573 0.014229 -1.494636 -0.012009 0.033258
    11 0.028786 -1.138233 -0.112955 -0.848066 -0.014190 0.016970
    12 0.250027 -2.820665 -0.238396 -0.695721 0.172809 -0.307015
    13 -0.049759 -1.598510 0.030164 -1.565207 0.000084 -0.041912
    14 -0.034142 -1.171750 0.045718 -1.136492 0.006891 -0.029890
    15 0.957766 -2.746780 -0.090302 0.506403 0.204751 0.034608
    16 -0.033420 -1.397129 -0.030789 -1.093239 0.001690 -0.053093
    17 -0.022360 -0.957436 0.007065 -0.545656 0.008006 -0.026210
    18 -1.180681 -2.507217 -0.193859 -0.878390 0.301607 -0.301154
    19 -0.024967 -1.123934 0.017597 -0.823698 0.006400 -0.035198
    20 -0.020057 -0.906594 0.033528 -1.077888 0.004087 -0.044247
    21 0.634293 -1.185558 0.181473 0.948059 -0.983674 -0.752916
    22 1.469519 -0.228043 0.071417 0.057235 -0.225142 -0.816478
    23 0.964048 -0.202511 0.051823 0.138994 -0.276703 -1.264916
    24 0.120153 -0.050270 -0.054489 0.287569 3.110905 1.561085
    25 -3.946662 -4.703900 -9.564075 -1.314205 -3.655919 -1.331328
    26 -0.094468 -8.415261 0.072669 -0.201720 -0.843642 0.378093
    27 0.447953 -2.798986 -0.200443 -0.534985 -0.124477 0.299406
    28 -0.032909 -1.488017 0.008846 -0.476901 0.011014 -0.004540
    29 -0.027022 -1.088639 -0.028023 -0.378423 0.010235 -0.003344
    30 -0.249534 -2.846964 -0.174213 -0.264976 -0.104738 0.142250
    31 0.043235 -1.672222 0.092106 -0.459834 -0.006417 -0.001857
    32 0.031729 -1.160830 0.058838 -0.195226 -0.000976 0.007198
    33 -0.963866 -2.785145 -0.085350 0.272726 0.040057 -0.119613
    34 0.028479 -1.403067 -0.005448 -0.487973 -0.008713 -0.020709
    35 0.021413 -0.957781 0.020046 -0.151749 -0.001666 -0.006831
    36 1.164475 -2.543940 -0.170330 -0.551978 -0.239335 0.387407
    37 0.024032 -1.132948 0.006088 -0.539266 -0.000563 0.028968
    38 0.014898 -0.887895 -0.019848 -0.376676 -0.002469 0.017509
    39 -0.586770 -1.264477 0.200161 0.487849 -0.208329 -3.457596
    40 1.534554 0.046962 0.016848 -0.004594 0.000524 0.320136
    41 1.117947 0.048424 -0.005766 0.001878 -0.022813 -0.034169
    42 -0.123774 -0.037477 0.151120 0.677389 0.025245 1.394999
    43 0.118295 8.952462 -0.262871 1.210467 -0.070341 -1.749229
  time 6
    0 7.683828 -12.883206 2.043031 -0.034906 -0.349475 -4.691188
    1 0.181052 0.000000 0.086367 0.000000 3.141592 0.000000
    2 2.883403 -0.000760 -4.121950 0.000000 0.000000 2.617994
    3 2.826668 -0.008370 -6.676362 0.000000 -1.570451 0.000000
    4 3.481615 -0.582735 -7.540093 0.000000 0.000000 0.523599
    5 1.536357 -3.587312 -3.077600 0.000000 -0.091011 0.000000
    6 7.935061 -2.990950 -4.686625 0.815596 -2.518811 -0.501765
    7 7.581592 3.535863 -0.329500 1.565967 -3.123218 0.519205
    8 -0.017232 -8.592489 -0.092415 0.184205 0.373989 0.908268
    9 -0.488518 -2.755602 -0.228260 -0.972833 0.169296 -0.373837
    10 0.039887 -1.530573 0.014229 -1.501679 -0.011949 0.033438
    11 0.028786 -1.138233 -0.112955 -0.853387 -0.014238 0.017114
    12 0.250027 -2.820665 -0.238396 -0.695721 0.172809 -0.307015
    13 -0.049759 -1.594604 0.030164 -1.574411 -0.000096 -0.042104
    14 -0.034142 -1.171750 0.045718 -1.143038 0.006831 -0.030069
    15 0.957766 -2.746780 -0.090302 0.506403 0.204751 0.034608
    16 -0.033420 -1.397129 -0.030789 -1.093239 0.001690 -0.053093
    17 -0.022360 -0.957436 0.007065 -0.545656 0.008006 -0.026210
    18 -1.180681 -2.507217 -0.193859 -0.878419 0.301607 -0.301154
    19 -0.024967 -1.123934 0.017597 -0.823698 0.006400 -0.035198
    20 -0.020057 -0.906594 0.033528 -1.083050 0.003991 -0.044463
    21 0.634293 -1.185558 0.181473 0.948059 -0.983674 -0.752916
    22 1.469519 -0.228043 0.071417 0.057235 -0.225142 -0.816478
    23 0.964048 -0.202511 0.051823 0.138994 -0.276703 -1.264916
    24 0.120153 -0.050270 -0.054489 0.287569 3.110905 1.561085
    25 -3.688842 -5.067192 -9.364850 -1.327325 -3.716542 -1.312725
    26 -0.094468 -8.415261 0.072669 -0.200301 -0.842012 0.380644
    27 0.447953 -2.798986 -0.200443 -0.534985 -0.124477 0.299406
    28 -0.032909 -1.488017 0.008846 -0.476901 0.011014 -0.004540
    29 -0.027022 -1.088639 -0.028023 -0.378423 0.010235 -0.003344
    30 -0.249534 -2.846964 -0.174213 -0.264976 -0.104738 0.142250
    31 0.043235 -1.672222 0.092106 -0.459834 -0.006417 -0.001857
    32 0.031729 -1.160830 0.058838 -0.195226 -0.000976 0.007198
    33 -0.963866 -2.785145 -0.085350 0.272726 0.040057 -0.119613
    34 0.028479 -1.403067 -0.005448 -0.487973 -0.008713 -0.020709
    35 0.021413 -0.957781 0.020046 -0.151749 -0.001666 -0.006831
    36 1.164475 -2.543940 -0.170330 -0.551978 -0.239335 0.387395
    37 0.024032 -1.132948 0.006088 -0.539266 -0.000563 0.028968
    38 0.014898 -0.887895 -0.019848 -0.376676 -0.002469 0.017509
    39 -0.586770 -1.264477 0.200161 0.487849 -0.208329 -3.457596
    40 1.534554 0.046962 0.016848 -0.004594 0.000524 0.320136
    41 1.117947 0.048424 -0.005766 0.001878 -0.022813 -0.034169
    42 -0.123774 -0.037477 0.151120 0.677125 0.031123 1.388371
    43 0.200329 8.948555 -0.290216 1.211026 -0.073796 -1.758939
  time 7
    0 7.351787 -13.805109 1.238319 -0.016900 -0.412590 -4.702692
    1 0.181052 0.000000 0.086367 0.000000 3.141592 0.000000
    2 2.883403 -0.000760 -4.121950 0.000000 0.000000 2.617994
    3 2.826668 -0.008370 -6.676362 0.000000 -1.570451 0.000000
    4 3.481615 -0.582735 -7.540093 0.000000 0.000000 0.523599
    5 1.536357 -3.587312 -3.077600 0.000000 -0.091011 0.000000
    6 7.681147 -3.197987 -4.842879 0.714047 -2.468044 -0.478087
    7 7.378461 4.039784 -0.317781 1.565583 -3.124556 0.585742
    8 -0.017232 -8.600302 -0.096321 0.208725 0.336256 0.920208
    9 -0.488518 -2.755602 -0.228260 -0.972833 0.169296 -0.373837
    10 0.039887 -1.530573 0.014229 -1.502793 -0.011937 0.033462
    11 0.028786 -1.138233 -0.112955 -0.854233 -0.014238 0.017126
    12 0.250027 -2.820665 -0.238396 -0.695721 0.172809 -0.307015
    13 -0.049759 -1.594604 0.030164 -1.575823 -0.000120 -0.042140
    14 -0.034142 -1.171750 0.045718 -1.144066 0.006819 -0.030093
    15 0.957766 -2.746780 -0.090302 0.506403 0.204751 0.034608
    16 -0.033420 -1.397129 -0.030789 -1.093239 0.001690 -0.053093
    17 -0.022360 -0.957436 0.007065 -0.545656 0.008006 -0.026210
    18 -1.180681 -2.507217 -0.193859 -0.878419 0.301607 -0.301154
    19 -0.024967 -1.123934 0.017597 -0.823698 0.006400 -0.035198
    20 -0.020057 -0.906594 0.033528 -1.083869 0.003979 -0.044499
    21 0.634293 -1.185558 0.181473 0.948059 -0.983674 -0.752916
    22 1.469519 -0.228043 0.071417 0.057235 -0.225142 -0.816478
    23 0.964048 -0.202511 0.051823 0.138994 -0.276703 -1.264916
    24 0.120153 -0.050270 -0.054489 0.287569 3.110905 1.561085
    25 -3.427115 -5.403140 -9.138281 -1.339720 -3.777614 -1.294212
    26 -0.094468 -8.415261 0.072669 -0.198946 -0.840494 0.382965
    27 0.447953 -2.798986 -0.200443 -0.534985 -0.124477 0.299406
    28 -0.032909 -1.488017 0.008846 -0.476901 0.011014 -0.004540
    29 -0.027022 -1.088639 -0.028023 -0.378423 0.010235 -0.003344
    30 -0.249534 -2.846964 -0.174213 -0.264976 -0.104738 0.142250
    31 0.043235 -1.672222 0.092106 -0.459834 -0.006417 -0.001857
    32 0.031729 -1.160830 0.058838 -0.195226 -0.000976 0.007198
    33 -0.963866 -2.785145 -0.085350 0.272726 0.040057 -0.119613
    34 0.028479 -1.403067 -0.005448 -0.487973 -0.008713 -0.020709
    35 0.021413 -0.957781 0.020046 -0.151749 -0.001666 -0.006831
    36 1.164475 -2.543940 -0.170330 -0.551978 -0.239335 0.387395
    37 0.024032 -1.132948 0.006088 -0.539266 -0.000563 0.028968
    38 0.014898 -0.887895 -0.019848 -0.376676 -0.002469 0.017509
    39 -0.586770 -1.264477 0.200161 0.487849 -0.208329 -3.457596
    40 1.534554 0.046962 0.016848 -0.004594 0.000524 0.320136
    41 1.117947 0.048424 -0.005766 0.001878 -0.022813 -0.034169
    42 -0.123774 -0.037477 0.151120 0.676862 0.036855 1.381132
    43 0.270643 8.944649 -0.317560 1.211584 -0.076983 -1.767866
  time 8
    0 7.027558 -14.672323 0.445326 -0.000667 -0.480748 1.569536
    1 0.181052 0.000000 0.086367 0.000000 3.141592 0.000000
    2 2.883403 -0.000760 -4.121950 0.000000 0.000000 2.617994
    3 2.826668 -0.008370 -6.676362 0.000000 -1.570451 0.000000
    4 3.481615 -0.582735 -7.540093 0.000000 0.000000 0.523599
    5 1.536357 -3.587312 -3.077600 0.000000 -0.091011 0.000000
    6 7.419421 -3.412838 -4.952258 0.610138 -2.422669 -0.440394
    7 7.089389 4.621833 -0.302155 1.565296 -3.126277 0.665542
    8 -0.017232 -8.608115 -0.100228 0.228608 0.310533 0.929494
    9 -0.488518 -2.755602 -0.228260 -0.972833 0.169296 -0.373837
    10 0.039887 -1.530573 0.014229 -1.495750 -0.011997 0.033282
    11 0.028786 -1.138233 -0.112955 -0.848912 -0.014202 0.016994
    12 0.250027 -2.820665 -0.238396 -0.695721 0.172809 -0.307015
    13 -0.049759 -1.598510 0.030164 -1.566668 0.000060 -0.041948
    14 -0.034142 -1.171750 0.045718 -1.137520 0.006879 -0.029914
    15 0.957766 -2.746780 -0.090302 0.506403 0.204751 0.034608
    16 -0.033420 -1.397129 -0.030789 -1.093239 0.001690 -0.053093
    17 -0.022360 -0.957436 0.007065 -0.545656 0.008006 -0.026210
    18 -1.180681 -2.507217 -0.193859 -0.878419 0.301607 -0.301154
    19 -0.024967 -1.123934 0.017597 -0.823698 0.006400 -0.035198
    20 -0.020057 -0.906594 0.033528 -1.078707 0.004075 -0.044283
    21 0.634293 -1.185558 0.181473 0.948059 -0.983674 -0.752916
    22 1.469519 -0.228043 0.071417 0.057235 -0.225142 -0.816478
    23 0.964048 -0.202511 0.051823 0.138994 -0.276703 -1.264916
    24 0.120153 -0.050270 -0.054489 0.287569 3.110905 1.561085
    25 -3.165388 -5.719556 -8.884367 -1.351328 -3.839761 -1.275519
    26 -0.094468 -8.415261 0.072669 -0.197849 -0.839266 0.384890
    27 0.447953 -2.798986 -0.200443 -0.534985 -0.124477 0.299406
    28 -0.032909 -1.488017 0.008846 -0.476901 0.011014 -0.004540
    29 -0.027022 -1.088639 -0.028023 -0.378423 0.010235 -0.003344
    30 -0.249534 -2.846964 -0.174213 -0.264976 -0.104738 0.142250
    31 0.043235 -1.672222 0.092106 -0.459834 -0.006417 -0.001857
    32 0.031729 -1.160830 0.058838 -0.195226 -0.000976 0.007198
    33 -0.963866 -2.785145 -0.085350 0.272726 0.040057 -0.119613
    34 0.028479 -1.403067 -0.005448 -0.487973 -0.008713 -0.020709
    35 0.021413 -0.957781 0.020046 -0.151749 -0.001666 -0.006831
    36 1.164475 -2.543940 -0.170330 -0.551978 -0.239335 0.387395
    37 0.024032 -1.132948 0.006088 -0.539266 -0.000563 0.028968
    38 0.014898 -0.887895 -0.019848 -0.376676 -0.002469 0.017509
    39 -0.586770 -1.264477 0.200161 0.487849 -0.208329 -3.457596
    40 1.534554 0.046962 0.016848 -0.004594 0.000524 0.320136
    41 1.117947 0.048424 -0.005766 0.001878 -0.022813 -0.034169
    42 -0.123774 -0.037477 0.151120 0.676614 0.042384 1.373438
    43 0.333145 8.940743 -0.340999 1.212060 -0.079581 -1.775149
  time 9
    0 6.722861 -15.465316 -0.328135 0.012768 -0.555534 1.559949
    1 0.181052 0.000000 0.086367 0.000000 3.141592 0.000000
    2 2.883403 -0.000760 -4.121950 0.000000 0.000000 2.617994
    3 2.826668 -0.008370 -6.676362 0.000000 -1.570451 0.000000
    4 3.481615 -0.582735 -7.540093 0.000000 0.000000 0.523599
    5 1.536357 -3.587312 -3.077600 0.000000 -0.091011 0.000000
    6 7.153788 -3.619875 -5.042104 0.506666 -2.384677 -0.392083
    7 6.733910 5.211695 -0.290436 1.565104 -3.128094 0.749959
    8 -0.017232 -8.612021 -0.104134 0.241431 0.297671 0.932265
    9 -0.488518 -2.755602 -0.228260 -0.972800 0.169296 -0.373837
    10 0.039887 -1.530573 0.014229 -1.478321 -0.012164 0.032851
    11 0.028786 -1.138233 -0.112955 -0.835704 -0.014106 0.016647
    12 0.250027 -2.820665 -0.238396 -0.695721 0.172809 -0.307015
    13 -0.049759 -1.598510 0.034071 -1.543927 0.000527 -0.041469
    14 -0.034142 -1.171750 0.049625 -1.121413 0.007023 -0.029458
    15 0.957766 -2.746780 -0.090302 0.506403 0.204751 0.034608
    16 -0.033420 -1.397129 -0.030789 -1.093239 0.001690 -0.053093
    17 -0.022360 -0.957436 0.007065 -0.545656 0.008006 -0.026210
    18 -1.180681 -2.507217 -0.193859 -0.878419 0.301607 -0.301154
    19 -0.024967 -1.123934 0.017597 -0.823698 0.006400 -0.035198
    20 -0.020057 -0.906594 0.033528 -1.065864 0.004314 -0.043744
    21 0.634293 -1.185558 0.181473 0.948059 -0.983674 -0.752916
    22 1.469519 -0.228043 0.071417 0.057235 -0.225142 -0.816478
    23 0.964048 -0.202511 0.051823 0.138994 -0.276703 -1.264916
    24 0.120153 -0.050270 -0.054489 0.287569 3.110905 1.561085
    25 -2.907568 -6.008627 -8.607015 -1.362271 -3.903164 -1.256374
    26 -0.094468 -8.415261 0.072669 -0.197107 -0.838418 0.386203
    27 0.447953 -2.798986 -0.200443 -0.534985 -0.124477 0.299406
    28 -0.032909 -1.488017 0.008846 -0.476901 0.011014 -0.004540
    29 -0.027022 -1.088639 -0.028023 -0.378423 0.010235 -0.003344
    30 -0.249534 -2.846964 -0.174213 -0.264976 -0.104738 0.142250
    31 0.043235 -1.672222 0.092106 -0.459834 -0.006417 -0.001857
    32 0.031729 -1.160830 0.058838 -0.195226 -0.000976 0.007198
    33 -0.963866 -2.785145 -0.085350 0.272726 0.040057 -0.119613
    34 0.028479 -1.403067 -0.005448 -0.487973 -0.008713 -0.020709
    35 0.021413 -0.957781 0.020046 -0.151749 -0.001666 -0.006831
    36 1.164475 -2.543940 -0.170330 -0.551978 -0.239335 0.387407
    37 0.024032 -1.132948 0.006088 -0.539266 -0.000563 0.028968
    38 0.014898 -0.887895 -0.019848 -0.376676 -0.002469 0.017509
    39 -0.586770 -1.264477 0.200161 0.487849 -0.208329 -3.457596
    40 1.534554 0.046962 0.016848 -0.004594 0.000524 0.320136
    41 1.117947 0.048424 -0.005766 0.001878 -0.022813 -0.034169
    42 -0.123774 -0.037477 0.151120 0.676367 0.047681 1.365480
    43 0.372209 8.940743 -0.352718 1.212411 -0.081348 -1.780161
  time 10
    0 6.437696 -16.176275 -1.085971 0.022564 -0.638342 1.552663
    1 0.181052 0.000000 0.086367 0.000000 3.141592 0.000000
    2 2.883403 -0.000760 -4.121950 0.000000 0.000000 2.617994
    3 2.826668 -0.008370 -6.676362 0.000000 -1.570451 0.000000
    4 3.481615 -0.582735 -7.540093 0.000000 0.000000 0.523599
    5 1.536357 -3.587312 -3.077600 0.000000 -0.091011 0.000000
    6 6.899874 -3.787849 -5.128044 0.408175 -2.355064 -0.339381
    7 6.362805 5.731242 -0.274810 1.565008 -3.129719 0.828293
    8 -0.017232 -8.612021 -0.104134 0.244571 0.297643 0.923716
    9 -0.488518 -2.755602 -0.228260 -0.972800 0.169296 -0.373837
    10 0.039887 -1.530573 0.014229 -1.448232 -0.012440 0.032096
    11 0.028786 -1.134327 -0.112955 -0.812973 -0.013926 0.016071
    12 0.250027 -2.820665 -0.238396 -0.695721 0.172809 -0.307015
    13 -0.049759 -1.598510 0.037977 -1.504726 0.001318 -0.040630
    14 -0.034142 -1.167844 0.049625 -1.093653 0.007263 -0.028679
    15 0.957766 -2.746780 -0.090302 0.506403 0.204751 0.034608
    16 -0.033420 -1.397129 -0.030789 -1.093239 0.001690 -0.053093
    17 -0.022360 -0.957436 0.007065 -0.545656 0.008006 -0.026210
    18 -1.180681 -2.507217 -0.193859 -0.878419 0.301607 -0.301154
    19 -0.024967 -1.123934 0.017597 -0.823698 0.006400 -0.035198
    20 -0.020057 -0.906594 0.033528 -1.043768 0.004698 -0.042809
    21 0.634293 -1.185558 0.181473 0.948059 -0.983674 -0.752916
    22 1.469519 -0.228043 0.071417 0.057235 -0.225142 -0.816478
    23 0.964048 -0.202511 0.051823 0.138994 -0.276703 -1.264916
    24 0.120153 -0.050270 -0.054489 0.287569 3.110905 1.561085
    25 -2.653654 -6.266448 -8.310131 -1.372308 -3.968361 -1.236506
    26 -0.094468 -8.415261 0.072669 -0.196817 -0.838105 0.386676
    27 0.447953 -2.798986 -0.200443 -0.534985 -0.124477 0.299406
    28 -0.032909 -1.488017 0.008846 -0.476901 0.011014 -0.004540
    29 -0.027022 -1.088639 -0.028023 -0.378423 0.010235 -0.003344
    30 -0.249534 -2.846964 -0.174213 -0.264976 -0.104738 0.142250
    31 0.043235 -1.672222 0.092106 -0.459834 -0.006417 -0.001857
    32 0.031729 -1.160830 0.058838 -0.195226 -0.000976 0.007198
    33 -0.963866 -2.785145 -0.085350 0.272726 0.040057 -0.119613
    34 0.028479 -1.403067 -0.005448 -0.487973 -0.008713 -0.020709
    35 0.021413 -0.957781 0.020046 -0.151749 -0.001666 -0.006831
    36 1.164475 -2.543940 -0.170330 -0.551978 -0.239335 0.387395
    37 0.024032 -1.132948 0.006088 -0.539266 -0.000563 0.028968
    38 0.014898 -0.887895 -0.019848 -0.376676 -0.002469 0.017509
    39 -0.586770 -1.264477 0.200161 0.487849 -0.208329 -3.457596
    40 1.534554 0.046962 0.016848 -0.004594 0.000524 0.320136
    41 1.117947 0.048424 -0.005766 0.001878 -0.022813 -0.034169
    42 -0.123774 -0.037477 0.151120 0.676120 0.052703 1.357427
    43 0.387834 8.940743 -0.360530 1.212535 -0.082018 -1.781962
  time 11
    0 6.187689 -16.660665 -1.804743 0.014727 -0.745983 1.558127
    1 0.181052 0.000000 0.086367 0.000000 3.141592 0.000000
    2 2.883403 -0.000760 -4.121950 0.000000 0.000000 2.617994
    3 2.826668 -0.008370 -6.676362 0.000000 -1.570451 0.000000
    4 3.481615 -0.582735 -7.540093 0.000000 0.000000 0.523599
    5 1.536357 -3.587312 -3.077600 0.000000 -0.091011 0.000000
    6 6.782683 -3.756598 -5.335082 0.346913 -2.339634 -0.315436
    7 6.331554 5.766400 -0.274810 1.565008 -3.129910 0.834302
    8 -0.025045 -8.600302 -0.100228 0.214969 0.320249 0.863075
    9 -0.488518 -2.755602 -0.228260 -0.972800 0.169296 -0.373837
    10 0.039887 -1.526666 0.010322 -1.368261 -0.013051 0.030034
    11 0.028786 -1.126514 -0.105143 -0.752448 -0.013387 0.014537
    12 0.250027 -2.820665 -0.238396 -0.695721 0.172809 -0.307015
    13 -0.049759 -1.598510 0.045790 -1.400417 0.003236 -0.038233
    14 -0.034142 -1.167844 0.049625 -1.019729 0.007778 -0.026570
    15 0.957766 -2.746780 -0.090302 0.506403 0.204751 0.034608
    16 -0.033420 -1.397129 -0.030789 -1.093239 0.001690 -0.053093
    17 -0.022360 -0.957436 0.007065 -0.545656 0.008006 -0.026210
    18 -1.180681 -2.507217 -0.193859 -0.878390 0.301607 -0.301154
    19 -0.024967 -1.123934 0.017597 -0.823698 0.006400 -0.035198
    20 -0.020057 -0.906594 0.029622 -0.984939 0.005621 -0.040292
    21 0.634293 -1.185558 0.181473 0.948059 -0.983674 -0.752916
    22 1.469519 -0.228043 0.071417 0.057235 -0.225142 -0.816478
    23 0.964048 -0.202511 0.051823 0.138994 -0.276703 -1.264916
    24 0.120153 -0.050270 -0.054489 0.287569 3.110905 1.561085
    25 -2.407553 -6.493017 -7.997621 -1.381377 -4.035621 -1.215465
    26 -0.094468 -8.415261 0.072669 -0.197139 -0.838463 0.386127
    27 0.447953 -2.798986 -0.200443 -0.534985 -0.124477 0.299406
    28 -0.032909 -1.488017 0.008846 -0.476901 0.011014 -0.004540
    29 -0.027022 -1.088639 -0.028023 -0.378423 0.010235 -0.003344
    30 -0.249534 -2.846964 -0.174213 -0.264976 -0.104738 0.142250
    31 0.043235 -1.672222 0.092106 -0.459834 -0.006417 -0.001857
    32 0.031729 -1.160830 0.058838 -0.195226 -0.000976 0.007198
    33 -0.963866 -2.785145 -0.085350 0.272726 0.040057 -0.119613
    34 0.028479 -1.403067 -0.005448 -0.487973 -0.008713 -0.020709
    35 0.021413 -0.957781 0.020046 -0.151749 -0.001666 -0.006831
    36 1.164475 -2.543940 -0.170330 -0.551978 -0.239335 0.387395
    37 0.024032 -1.132948 0.006088 -0.539266 -0.000563 0.028968
    38 0.014898 -0.887895 -0.019848 -0.376676 -0.002469 0.017509
    39 -0.586770 -1.264477 0.200161 0.487849 -0.208329 -3.457596
    40 1.534554 0.046962 0.016848 -0.004594 0.000524 0.320136
    41 1.117947 0.048424 -0.005766 0.001878 -0.022813 -0.034169
    42 -0.123774 -0.037477 0.151120 0.675906 0.057390 1.349469
    43 0.372209 8.940743 -0.352718 1.212390 -0.081268 -1.779848
  time 12
    0 5.992370 -16.867702 -2.476638 -0.022311 -0.883116 -4.695406
    1 0.181052 0.000000 0.086367 0.000000 3.141592 0.000000
    2 2.883403 -0.000760 -4.121950 0.000000 0.000000 2.617994
    3 2.826668 -0.008370 -6.676362 0.000000 -1.570451 0.000000
    4 3.481615 -0.582735 -7.540093 0.000000 0.000000 0.523599
    5 1.536357 -3.587312 -3.077600 0.000000 -0.091011 0.000000
    6 6.856904 -3.451901 -5.694468 0.337213 -2.335321 -0.336250
    7 6.765161 5.164819 -0.290436 1.565104 -3.127902 0.742997
    8 -0.036764 -8.572957 -0.096321 0.141276 0.361449 0.732595
    9 -0.488518 -2.755602 -0.228260 -0.972800 0.169296 -0.373837
    10 0.039887 -1.518854 0.010322 -1.230520 -0.013698 0.026403
    11 0.028786 -1.118701 -0.097330 -0.648262 -0.012248 0.011985
    12 0.250027 -2.820665 -0.238396 -0.695721 0.172809 -0.307015
    13 -0.049759 -1.602417 0.057509 -1.220823 0.005932 -0.033691
    14 -0.034142 -1.160031 0.053531 -0.892480 0.008305 -0.022867
    15 0.957766 -2.746780 -0.090302 0.506403 0.204751 0.034608
    16 -0.033420 -1.397129 -0.030789 -1.093239 0.001690 -0.053093
    17 -0.022360 -0.957436 0.007065 -0.545656 0.008006 -0.026210
    18 -1.180681 -2.507217 -0.193859 -0.878419 0.301607 -0.301154
    19 -0.024967 -1.123934 0.017597 -0.823698 0.006400 -0.035198
    20 -0.020057 -0.906594 0.029622 -0.883617 0.006867 -0.035846
    21 0.634293 -1.185558 0.181473 0.948059 -0.983674 -0.752916
    22 1.469519 -0.228043 0.071417 0.057235 -0.225142 -0.816478
    23 0.964048 -0.202511 0.051823 0.138994 -0.276703 -1.264916
    24 0.120153 -0.050270 -0.054489 0.287569 3.110905 1.561085
    25 -2.169264 -6.692242 -7.677299 -1.388995 -4.105301 -1.192708
    26 -0.094468 -8.415261 0.072669 -0.198172 -0.839623 0.384340
    27 0.447953 -2.798986 -0.200443 -0.534985 -0.124477 0.299406
    28 -0.032909 -1.488017 0.008846 -0.476901 0.011014 -0.004540
    29 -0.027022 -1.088639 -0.028023 -0.378423 0.010235 -0.003344
    30 -0.249534 -2.846964 -0.174213 -0.264976 -0.104738 0.142250
    31 0.043235 -1.672222 0.092106 -0.459834 -0.006417 -0.001857
    32 0.031729 -1.160830 0.058838 -0.195226 -0.000976 0.007198
    33 -0.963866 -2.785145 -0.085350 0.272726 0.040057 -0.119613
    34 0.028479 -1.403067 -0.005448 -0.487973 -0.008713 -0.020709
    35 0.021413 -0.957781 0.020046 -0.151749 -0.001666 -0.006831
    36 1.164475 -2.543940 -0.170330 -0.551978 -0.239335 0.387407
    37 0.024032 -1.132948 0.006088 -0.539266 -0.000563 0.028968
    38 0.014898 -0.887895 -0.019848 -0.376676 -0.002469 0.017509
    39 -0.586770 -1.264477 0.200161 0.487849 -0.208329 -3.457596
    40 1.534554 0.046962 0.016848 -0.004594 0.000524 0.320136
    41 1.117947 0.048424 -0.005766 0.001878 -0.022813 -0.034169
    42 -0.123774 -0.037477 0.151120 0.675692 0.061701 1.341775
    43 0.313613 8.944649 -0.333186 1.211936 -0.078831 -1.773035
  time 13
    0 5.836116 -16.887234 -3.144627 -0.090977 -1.032593 -4.635775
    1 0.181052 0.000000 0.086367 0.000000 3.141592 0.000000
    2 2.883403 -0.000760 -4.121950 0.000000 0.000000 2.617994
    3 2.826668 -0.008370 -6.676362 0.000000 -1.570451 0.000000
    4 3.481615 -0.582735 -7.540093 0.000000 0.000000 0.523599
    5 1.536357 -3.587312 -3.077600 0.000000 -0.091011 0.000000
    6 6.993626 -3.002669 -6.073386 0.350933 -2.334657 -0.373752
    7 7.280801 4.246822 -0.313874 1.565487 -3.125130 0.614101
    8 -0.048483 -8.537800 -0.092415 0.040330 0.403110 0.566326
    9 -0.488518 -2.755602 -0.228260 -0.972833 0.169296 -0.373837
    10 0.039887 -1.514947 0.010322 -1.077132 -0.013830 0.022292
    11 0.028786 -1.106982 -0.085611 -0.532205 -0.010678 0.009300
    12 0.250027 -2.820665 -0.238396 -0.695721 0.172809 -0.307015
    13 -0.049759 -1.610229 0.069228 -1.020728 0.007922 -0.028166
    14 -0.034142 -1.156125 0.057437 -0.750767 0.008341 -0.018696
    15 0.957766 -2.746780 -0.090302 0.506403 0.204751 0.034608
    16 -0.033420 -1.397129 -0.030789 -1.093239 0.001690 -0.053093
    17 -0.022360 -0.957436 0.007065 -0.545656 0.008006 -0.026210
    18 -1.180681 -2.507217 -0.193859 -0.878419 0.301607 -0.301154
    19 -0.024967 -1.123934 0.017597 -0.823698 0.006400 -0.035198
    20 -0.020057 -0.902687 0.025715 -0.770806 0.007718 -0.030764
    21 0.634293 -1.185558 0.181473 0.948059 -0.983674 -0.752916
    22 1.469519 -0.228043 0.071417 0.057235 -0.225142 -0.816478
    23 0.964048 -0.202511 0.051823 0.138994 -0.276703 -1.264916
    24 0.120153 -0.050270 -0.054489 0.287569 3.110905 1.561085
    25 -1.942695 -6.856309 -7.349164 -1.394618 -4.177941 -1.167422
    26 -0.094468 -8.415261 0.072669 -0.200011 -0.841700 0.381117
    27 0.447953 -2.798986 -0.200443 -0.534985 -0.124477 0.299406
    28 -0.032909 -1.488017 0.008846 -0.476901 0.011014 -0.004540
    29 -0.027022 -1.088639 -0.028023 -0.378423 0.010235 -0.003344
    30 -0.249534 -2.846964 -0.174213 -0.264976 -0.104738 0.142250
    31 0.043235 -1.672222 0.092106 -0.459834 -0.006417 -0.001857
    32 0.031729 -1.160830 0.058838 -0.195226 -0.000976 0.007198
    33 -0.963866 -2.785145 -0.085350 0.272726 0.040057 -0.119613
    34 0.028479 -1.403067 -0.005448 -0.487973 -0.008713 -0.020709
    35 0.021413 -0.957781 0.020046 -0.151749 -0.001666 -0.006831
    36 1.164475 -2.543940 -0.170330 -0.551978 -0.239335 0.387395
    37 0.024032 -1.132948 0.006088 -0.539266 -0.000563 0.028968
    38 0.014898 -0.887895 -0.019848 -0.376676 -0.002469 0.017509
    39 -0.586770 -1.264477 0.200161 0.487849 -0.208329 -3.457596
    40 1.534554 0.046962 0.016848 -0.004594 0.000524 0.320136
    41 1.117947 0.048424 -0.005766 0.001878 -0.022813 -0.034169
    42 -0.123774 -0.037477 0.151120 0.675510 0.065590 1.334524
    43 0.215954 8.948555 -0.298029 1.211150 -0.074439 -1.760740
  time 14
    0 5.722831 -16.828639 -3.820429 -0.198079 -1.177122 -4.536261
    1 0.181052 0.000000 0.086367 0.000000 3.141592 0.000000
    2 2.883403 -0.000760 -4.121950 0.000000 0.000000 2.617994
    3 2.826668 -0.008370 -6.676362 0.000000 -1.570451 0.000000
    4 3.481615 -0.582735 -7.540093 0.000000 0.000000 0.523599
    5 1.536357 -3.587312 -3.077600 0.000000 -0.091011 0.000000
    6 7.106911 -2.533905 -6.393708 0.364392 -2.332832 -0.406099
    7 7.651906 3.340544 -0.333406 1.566063 -3.122644 0.493485
    8 -0.052389 -8.502643 -0.092415 -0.065722 0.434300 0.398112
    9 -0.488518 -2.755602 -0.228260 -0.972833 0.169296 -0.373837
    10 0.039887 -1.507135 0.010322 -0.950134 -0.013459 0.018901
    11 0.028786 -1.099169 -0.077798 -0.436123 -0.009156 0.007227
    12 0.250027 -2.820665 -0.238396 -0.695721 0.172809 -0.307015
    13 -0.049759 -1.618042 0.080947 -0.855061 0.008713 -0.023360
    14 -0.034142 -1.152218 0.061344 -0.633388 0.007910 -0.015268
    15 0.957766 -2.746780 -0.090302 0.506403 0.204751 0.034608
    16 -0.033420 -1.397129 -0.030789 -1.093239 0.001690 -0.053093
    17 -0.022360 -0.957436 0.007065 -0.545656 0.008006 -0.026210
    18 -1.180681 -2.507217 -0.193859 -0.878419 0.301607 -0.301154
    19 -0.024967 -1.123934 0.017597 -0.823698 0.006400 -0.035198
    20 -0.020057 -0.902687 0.021809 -0.677353 0.007982 -0.026510
    21 0.634293 -1.185558 0.181473 0.948059 -0.983674 -0.752916
    22 1.469519 -0.228043 0.071417 0.057235 -0.225142 -0.816478
    23 0.964048 -0.202511 0.051823 0.138994 -0.276703 -1.264916
    24 0.120153 -0.050270 -0.054489 0.287569 3.110905 1.561085
    25 -1.731751 -6.993032 -7.021029 -1.396855 -4.253720 -1.138072
    26 -0.094468 -8.415261 0.072669 -0.202785 -0.844848 0.376245
    27 0.447953 -2.798986 -0.200443 -0.534985 -0.124477 0.299406
    28 -0.032909 -1.488017 0.008846 -0.476901 0.011014 -0.004540
    29 -0.027022 -1.088639 -0.028023 -0.378423 0.010235 -0.003344
    30 -0.249534 -2.846964 -0.174213 -0.264976 -0.104738 0.142250
    31 0.043235 -1.672222 0.092106 -0.459834 -0.006417 -0.001857
    32 0.031729 -1.160830 0.058838 -0.195226 -0.000976 0.007198
    33 -0.963866 -2.785145 -0.085350 0.272726 0.040057 -0.119613
    34 0.028479 -1.403067 -0.005448 -0.487973 -0.008713 -0.020709
    35 0.021413 -0.957781 0.020046 -0.151749 -0.001666 -0.006831
    36 1.164475 -2.543940 -0.170330 -0.551978 -0.239335 0.387407
    37 0.024032 -1.132948 0.006088 -0.539266 -0.000563 0.028968
    38 0.014898 -0.887895 -0.019848 -0.376676 -0.002469 0.017509
    39 -0.586770 -1.264477 0.200161 0.487849 -0.208329 -3.457596
    40 1.534554 0.046962 0.016848 -0.004594 0.000524 0.320136
    41 1.117947 0.048424 -0.005766 0.001878 -0.022813 -0.034169
    42 -0.123774 -0.037477 0.151120 0.675345 0.069001 1.327909
    43 0.063606 8.952462 -0.239433 1.210054 -0.067797 -1.742181
  time 15
    0 5.636891 -16.789575 -4.500137 -0.346699 -1.301046 -4.391017
    1 0.181052 0.000000 0.086367 0.000000 3.141592 0.000000
    2 2.883403 -0.000760 -4.121950 0.000000 0.000000 2.617994
    3 2.826668 -0.008370 -6.676362 0.000000 -1.570451 0.000000
    4 3.481615 -0.582735 -7.540093 0.000000 0.000000 0.523599
    5 1.536357 -3.587312 -3.077600 0.000000 -0.091011 0.000000
    6 7.157694 -2.158893 -6.628090 0.361333 -2.325699 -0.421337
    7 7.839412 2.692087 -0.345125 1.566734 -3.121019 0.410534
    8 -0.052389 -8.475298 -0.096321 -0.150309 0.454138 0.259584
    9 -0.488518 -2.755602 -0.228260 -0.972833 0.169296 -0.373837
    10 0.039887 -1.507135 0.010322 -0.891516 -0.013147 0.017367
    11 0.028786 -1.095263 -0.069985 -0.391779 -0.008377 0.006316
    12 0.250027 -2.820665 -0.238396 -0.695721 0.172809 -0.307015
    13 -0.049759 -1.625855 0.084854 -0.778607 0.008809 -0.021107
    14 -0.034142 -1.152218 0.065250 -0.579239 0.007586 -0.013710
    15 0.957766 -2.746780 -0.090302 0.506403 0.204751 0.034608
    16 -0.033420 -1.397129 -0.030789 -1.093239 0.001690 -0.053093
    17 -0.022360 -0.957436 0.007065 -0.545656 0.008006 -0.026210
    18 -1.180681 -2.507217 -0.193859 -0.878419 0.301607 -0.301154
    19 -0.024967 -1.123934 0.017597 -0.823698 0.006400 -0.035198
    20 -0.020057 -0.902687 0.021809 -0.634262 0.007970 -0.024544
    21 0.634293 -1.185558 0.181473 0.948059 -0.983674 -0.752916
    22 1.469519 -0.228043 0.071417 0.057235 -0.225142 -0.816478
    23 0.964048 -0.202511 0.051823 0.138994 -0.276703 -1.264916
    24 0.120153 -0.050270 -0.054489 0.287569 3.110905 1.561085
    25 -1.532526 -7.102411 -6.692894 -1.393227 -4.333086 -1.101950
    26 -0.094468 -8.415261 0.072669 -0.206592 -0.849201 0.369495
    27 0.447953 -2.798986 -0.200443 -0.534985 -0.124477 0.299406
    28 -0.032909 -1.488017 0.008846 -0.476901 0.011014 -0.004540
    29 -0.027022 -1.088639 -0.028023 -0.378423 0.010235 -0.003344
    30 -0.249534 -2.846964 -0.174213 -0.264976 -0.104738 0.142250
    31 0.043235 -1.672222 0.092106 -0.459834 -0.006417 -0.001857
    32 0.031729 -1.160830 0.058838 -0.195226 -0.000976 0.007198
    33 -0.963866 -2.785145 -0.085350 0.272726 0.040057 -0.119613
    34 0.028479 -1.403067 -0.005448 -0.487973 -0.008713 -0.020709
    35 0.021413 -0.957781 0.020046 -0.151749 -0.001666 -0.006831
    36 1.164475 -2.543940 -0.170330 -0.551978 -0.239335 0.387407
    37 0.024032 -1.132948 0.006088 -0.539266 -0.000563 0.028968
    38 0.014898 -0.887895 -0.019848 -0.376676 -0.002469 0.017509
    39 -0.586770 -1.264477 0.200161 0.487849 -0.208329 -3.457596
    40 1.534554 0.046962 0.016848 -0.004594 0.000524 0.320136
    41 1.117947 0.048424 -0.005766 0.001878 -0.022813 -0.034169
    42 -0.123774 -0.037477 0.151120 0.675197 0.071903 1.322084
    43 -0.147338 8.952462 -0.169118 1.208772 -0.058585 -1.716574
  time 16
    0 5.609546 -16.750511 -5.148595 -0.545790 -1.404075 -4.189114
    1 0.181052 0.000000 0.086367 0.000000 3.141592 0.000000
    2 2.883403 -0.000760 -4.121950 0.000000 0.000000 2.617994
    3 2.826668 -0.008370 -6.676362 0.000000 -1.570451 0.000000
    4 3.481615 -0.582735 -7.540093 0.000000 0.000000 0.523599
    5 1.536357 -3.587312 -3.077600 0.000000 -0.091011 0.000000
    6 7.173319 -1.842477 -6.819502 0.343418 -2.314666 -0.422101
    7 7.940978 2.231135 -0.352938 1.567213 -3.119872 0.352717
    8 -0.048483 -8.455766 -0.096321 -0.205150 0.474549 0.154664
    9 -0.488518 -2.755602 -0.228260 -0.972800 0.169296 -0.373837
    10 0.039887 -1.507135 0.010322 -0.937162 -0.013399 0.018565
    11 0.028786 -1.095263 -0.073892 -0.426326 -0.008988 0.007023
    12 0.250027 -2.820665 -0.238396 -0.695721 0.172809 -0.307015
    13 -0.049759 -1.621948 0.080947 -0.838164 0.008749 -0.022869
    14 -0.034142 -1.152218 0.061344 -0.621427 0.007850 -0.014921
    15 0.957766 -2.746780 -0.090302 0.506403 0.204751 0.034608
    16 -0.033420 -1.397129 -0.030789 -1.093239 0.001690 -0.053093
    17 -0.022360 -0.957436 0.007065 -0.545656 0.008006 -0.026210
    18 -1.180681 -2.507217 -0.193859 -0.878419 0.301607 -0.301154
    19 -0.024967 -1.123934 0.017597 -0.823698 0.006400 -0.035198
    20 -0.020057 -0.902687 0.021809 -0.667816 0.007994 -0.026078
    21 0.634293 -1.185558 0.181473 0.948059 -0.983674 -0.752916
    22 1.469519 -0.228043 0.071417 0.057235 -0.225142 -0.816478
    23 0.964048 -0.202511 0.051823 0.138994 -0.276703 -1.264916
    24 0.120153 -0.050270 -0.054489 0.287569 3.110905 1.561085
    25 -1.415335 -7.168819 -6.462418 -1.341896 -4.449310 -1.004509
    26 -0.094468 -8.415261 0.072669 -0.222625 -0.868825 0.348175
    27 0.447953 -2.798986 -0.200443 -0.513362 -0.124945 0.299813
    28 -0.032909 -1.488017 0.008846 -0.475580 0.010990 -0.004528
    29 -0.027022 -1.088639 -0.028023 -0.375228 0.010163 -0.003296
    30 -0.249534 -2.846964 -0.174213 -0.244319 -0.104355 0.142262
    31 0.043235 -1.672222 0.092106 -0.449257 -0.006201 -0.001869
    32 0.031729 -1.160830 0.058838 -0.189395 -0.000904 0.007245
    33 -0.963866 -2.785145 -0.085350 0.298276 0.039901 -0.118482
    34 0.028479 -1.403067 -0.005448 -0.480686 -0.008509 -0.020446
    35 0.021413 -0.957781 0.020046 -0.147640 -0.001606 -0.006651
    36 1.164475 -2.543940 -0.170330 -0.531776 -0.239623 0.386293
    37 0.024032 -1.132948 0.006088 -0.539266 -0.000563 0.028968
    38 0.014898 -0.887895 -0.019848 -0.376676 -0.002469 0.017509
    39 -0.586770 -1.264477 0.200161 0.498529 -0.199713 -3.469299
    40 1.534554 0.046962 0.016848 -0.004678 0.000452 0.324005
    41 1.117947 0.048424 -0.005766 0.001962 -0.022705 -0.038319
    42 -0.123774 -0.037477 0.151120 0.675082 0.074240 1.317254
    43 -0.889548 8.909492 0.100421 1.206125 -0.025912 -1.626362
  time 17
    0 5.648610 -16.641133 -5.754082 -1.012919 -1.488901 -3.715226
    1 0.181052 0.000000 0.086367 0.000000 3.141592 0.000000
    2 2.883403 -0.000760 -4.121950 0.000000 0.000000 2.617994
    3 2.826668 -0.008370 -6.676362 0.000000 -1.570451 0.000000
    4 3.481615 -0.582735 -7.540093 0.000000 0.000000 0.523599
    5 1.536357 -3.587312 -3.077600 0.000000 -0.091011 0.000000
    6 7.200664 -1.498717 -6.987476 0.321832 -2.303550 -0.416830
    7 8.015199 1.766277 -0.360751 1.567788 -3.118725 0.294974
    8 -0.040670 -8.440141 -0.096321 -0.246329 0.500259 0.064572
    9 -0.488518 -2.755602 -0.228260 -0.972833 0.169296 -0.373837
    10 0.039887 -1.514947 0.010322 -1.062244 -0.013806 0.021885
    11 0.028786 -1.103076 -0.085611 -0.520935 -0.010510 0.009048
    12 0.250027 -2.820665 -0.238396 -0.695721 0.172809 -0.307015
    13 -0.049759 -1.614136 0.073134 -1.001298 0.008066 -0.027603
    14 -0.034142 -1.156125 0.057437 -0.736990 0.008305 -0.018288
    15 0.957766 -2.746780 -0.090302 0.506403 0.204751 0.034608
    16 -0.033420 -1.397129 -0.030789 -1.093239 0.001690 -0.053093
    17 -0.022360 -0.957436 0.007065 -0.545656 0.008006 -0.026210
    18 -1.180681 -2.507217 -0.193859 -0.878419 0.301607 -0.301154
    19 -0.024967 -1.123934 0.017597 -0.823698 0.006400 -0.035198
    20 -0.020057 -0.902687 0.025715 -0.759853 0.007766 -0.030273
    21 0.634293 -1.185558 0.181473 0.948059 -0.983674 -0.752916
    22 1.469519 -0.228043 0.071417 0.057235 -0.225142 -0.816478
    23 0.964048 -0.202511 0.051823 0.138994 -0.276703 -1.264916
    24 0.120153 -0.050270 -0.054489 0.287569 3.110905 1.561085
    25 -1.399710 -7.176632 -6.364759 -1.013353 -4.598357 -0.613031
    26 -0.098374 -8.415261 0.072669 -0.251112 -0.905013 0.308008
    27 0.447953 -2.798986 -0.200443 -0.477323 -0.125748 0.300461
    28 -0.032909 -1.488017 0.008846 -0.473440 0.010930 -0.004492
    29 -0.027022 -1.088639 -0.028023 -0.369973 0.010031 -0.003224
    30 -0.249534 -2.846964 -0.174213 -0.209905 -0.103720 0.142298
    31 0.043235 -1.672222 0.096012 -0.431664 -0.005854 -0.001893
    32 0.031729 -1.160830 0.058838 -0.179629 -0.000796 0.007305
    33 -0.963866 -2.785145 -0.085350 0.340858 0.039566 -0.116574
    34 0.028479 -1.403067 -0.005448 -0.468541 -0.008185 -0.020002
    35 0.021413 -0.957781 0.020046 -0.140843 -0.001510 -0.006352
    36 1.164475 -2.543940 -0.170330 -0.498158 -0.240054 0.384423
    37 0.024032 -1.132948 0.006088 -0.539266 -0.000563 0.028968
    38 0.014898 -0.887895 -0.019848 -0.376676 -0.002469 0.017509
    39 -0.586770 -1.264477 0.200161 0.516034 -0.185087 -3.488550
    40 1.534554 0.046962 0.016848 -0.004810 0.000320 0.330502
    41 1.117947 0.048424 -0.005766 0.002094 -0.022525 -0.045245
    42 -0.123774 -0.037477 0.151120 0.674999 0.075967 1.313575
    43 -2.237246 8.632140 0.588717 1.209041 0.034773 -1.459172
  time 18
    0 5.707205 -16.488784 -6.316599 0.822663 -1.638426 0.740448
    1 0.181052 0.000000 0.086367 0.000000 3.141592 0.000000
    2 2.883403 -0.000760 -4.121950 0.000000 0.000000 2.617994
    3 2.826668 -0.008370 -6.676362 0.000000 -1.570451 0.000000
    4 3.481615 -0.582735 -7.540093 0.000000 0.000000 0.523599
    5 1.536357 -3.587312 -3.077600 0.000000 -0.091011 0.000000
    6 7.224102 -1.158863 -7.128105 0.298236 -2.292186 -0.407207
    7 8.058169 1.336577 -0.368563 1.568459 -3.117769 0.241847
    8 -0.028951 -8.424515 -0.096321 -0.281696 0.525311 -0.014641
    9 -0.488518 -2.755602 -0.228260 -0.972833 0.169296 -0.373837
    10 0.039887 -1.518854 0.010322 -1.217771 -0.013734 0.026056
    11 0.028786 -1.114795 -0.097330 -0.638574 -0.012128 0.011757
    12 0.250027 -2.820665 -0.238396 -0.695721 0.172809 -0.307015
    13 -0.049759 -1.602417 0.057509 -1.204120 0.006136 -0.033247
    14 -0.034142 -1.160031 0.053531 -0.880690 0.008329 -0.022519
    15 0.957766 -2.746780 -0.090302 0.506403 0.204751 0.034608
    16 -0.033420 -1.397129 -0.030789 -1.093239 0.001690 -0.053093
    17 -0.022360 -0.957436 0.007065 -0.545656 0.008006 -0.026210
    18 -1.180681 -2.507217 -0.193859 -0.878419 0.301607 -0.301154
    19 -0.024967 -1.123934 0.017597 -0.823698 0.006400 -0.035198
    20 -0.020057 -0.906594 0.025715 -0.874237 0.006963 -0.035426
    21 0.634293 -1.185558 0.181473 0.948059 -0.983674 -0.752916
    22 1.469519 -0.228043 0.071417 0.057235 -0.225142 -0.816478
    23 0.964048 -0.202511 0.051823 0.138994 -0.276703 -1.264916
    24 0.120153 -0.050270 -0.054489 0.287569 3.110905 1.561085
    25 -1.411429 -7.137568 -6.337414 0.768117 -4.625530 1.232019
    26 -0.102281 -8.415261 0.072669 -0.275888 -0.938322 0.261061
    27 0.447953 -2.798986 -0.200443 -0.470063 -0.125915 0.300592
    28 -0.032909 -1.488017 0.008846 -0.473031 0.010930 -0.004480
    29 -0.027022 -1.088639 -0.028023 -0.368942 0.010007 -0.003212
    30 -0.249534 -2.846964 -0.174213 -0.203004 -0.103588 0.142310
    31 0.043235 -1.672222 0.096012 -0.428156 -0.005794 -0.001893
    32 0.031729 -1.160830 0.058838 -0.177685 -0.000784 0.007317
    33 -0.963866 -2.785145 -0.085350 0.349375 0.039494 -0.116207
    34 0.028479 -1.403067 -0.005448 -0.466112 -0.008126 -0.019906
    35 0.021413 -0.957781 0.020046 -0.139499 -0.001486 -0.006304
    36 1.164475 -2.543940 -0.170330 -0.491424 -0.240138 0.384040
    37 0.024032 -1.132948 0.006088 -0.539266 -0.000563 0.028968
    38 0.014898 -0.887895 -0.019848 -0.376676 -0.002469 0.017509
    39 -0.586770 -1.264477 0.200161 0.519515 -0.182120 -3.492375
    40 1.534554 0.046962 0.016848 -0.004834 0.000296 0.331816
    41 1.117947 0.048424 -0.005766 0.002118 -0.022489 -0.046618
    42 -0.123774 -0.037477 0.151120 0.674950 0.077041 1.311238
    43 -3.596662 8.061810 1.080920 1.223246 0.097869 -1.280314
  time 19
    0 5.746269 -16.336436 -6.836146 0.271102 -1.703366 1.299086
    1 0.181052 0.000000 0.086367 0.000000 3.141592 0.000000
    2 2.883403 -0.000760 -4.121950 0.000000 0.000000 2.617994
    3 2.826668 -0.008370 -6.676362 0.000000 -1.570451 0.000000
    4 3.481615 -0.582735 -7.540093 0.000000 0.000000 0.523599
    5 1.536357 -3.587312 -3.077600 0.000000 -0.091011 0.000000
    6 7.231915 -0.854166 -7.237484 0.275252 -2.280407 -0.396322
    7 8.077701 0.977191 -0.372470 1.568939 -3.117004 0.197587
    8 -0.021138 -8.412796 -0.096321 -0.317590 0.542060 -0.087546
    9 -0.488518 -2.755602 -0.228260 -0.972833 0.169296 -0.373837
    10 0.039887 -1.526666 0.010322 -1.354710 -0.013135 0.029675
    11 0.028786 -1.126514 -0.105143 -0.742188 -0.013291 0.014274
    12 0.250027 -2.820665 -0.238396 -0.695721 0.172809 -0.307015
    13 -0.049759 -1.598510 0.045790 -1.382740 0.003535 -0.037813
    14 -0.034142 -1.163937 0.049625 -1.007220 0.007862 -0.026210
    15 0.957766 -2.746780 -0.090302 0.506403 0.204751 0.034608
    16 -0.033420 -1.397129 -0.030789 -1.093239 0.001690 -0.053093
    17 -0.022360 -0.957436 0.007065 -0.545656 0.008006 -0.026210
    18 -1.180681 -2.507217 -0.193859 -0.878419 0.301607 -0.301154
    19 -0.024967 -1.123934 0.017597 -0.823698 0.006400 -0.035198
    20 -0.020057 -0.906594 0.029622 -0.974961 0.005765 -0.039861
    21 0.634293 -1.185558 0.181473 0.948059 -0.983674 -0.752916
    22 1.469519 -0.228043 0.071417 0.057235 -0.225142 -0.816478
    23 0.964048 -0.202511 0.051823 0.138994 -0.276703 -1.264916
    24 0.120153 -0.050270 -0.054489 0.287569 3.110905 1.561085
    25 -1.364552 -7.086785 -6.310070 -1.849039 -4.892864 -1.341171
    26 -0.098374 -8.415261 0.072669 -0.282566 -0.948168 0.219612
    27 0.447953 -2.798986 -0.200443 -0.534985 -0.124477 0.299406
    28 -0.032909 -1.488017 0.008846 -0.476901 0.011014 -0.004540
    29 -0.027022 -1.088639 -0.028023 -0.378423 0.010235 -0.003344
    30 -0.249534 -2.846964 -0.174213 -0.264976 -0.104738 0.142250
    31 0.043235 -1.672222 0.092106 -0.459834 -0.006417 -0.001857
    32 0.031729 -1.160830 0.058838 -0.195226 -0.000976 0.007198
    33 -0.963866 -2.785145 -0.085350 0.272726 0.040057 -0.119613
    34 0.028479 -1.403067 -0.005448 -0.487973 -0.008713 -0.020709
    35 0.021413 -0.957781 0.020046 -0.151749 -0.001666 -0.006831
    36 1.164475 -2.543940 -0.170330 -0.551978 -0.239335 0.387407
    37 0.024032 -1.132948 0.006088 -0.539266 -0.000563 0.028968
    38 0.014898 -0.887895 -0.019848 -0.376676 -0.002469 0.017509
    39 -0.586770 -1.264477 0.200161 0.487849 -0.208329 -3.457596
    40 1.534554 0.046962 0.016848 -0.004594 0.000524 0.320136
    41 1.117947 0.048424 -0.005766 0.001878 -0.022813 -0.034169
    42 -0.123774 -0.037477 0.151120 0.674934 0.077403 1.310423
    43 -4.463876 7.514918 1.393429 1.239499 0.139218 -1.156351
  time 20
    0 5.726737 -16.172369 -6.902554 0.318309 -1.716671 1.254985
    1 0.181052 0.000000 0.086367 0.000000 3.141592 0.000000
    2 2.883403 -0.000760 -4.121950 0.000000 0.000000 2.617994
    3 2.826668 -0.008370 -6.676362 0.000000 -1.570451 0.000000
    4 3.481615 -0.582735 -7.540093 0.000000 0.000000 0.523599
    5 1.536357 -3.587312 -3.077600 0.000000 -0.091011 0.000000
    6 7.251447 -0.682286 -7.268735 0.280408 -2.280573 -0.404724
    7 8.081607 0.684213 -0.376376 1.569418 -3.116335 0.161901
    8 -0.021138 -8.412796 -0.100228 -0.324241 0.532064 -0.106119
    9 -0.488518 -2.755602 -0.228260 -0.972833 0.169296 -0.373837
    10 0.039887 -1.530573 0.014229 -1.448232 -0.012440 0.032096
    11 0.028786 -1.134327 -0.112955 -0.812973 -0.013926 0.016071
    12 0.250027 -2.820665 -0.238396 -0.695721 0.172809 -0.307015
    13 -0.049759 -1.598510 0.037977 -1.504726 0.001318 -0.040630
    14 -0.034142 -1.167844 0.049625 -1.093653 0.007263 -0.028679
    15 0.957766 -2.746780 -0.090302 0.506403 0.204751 0.034608
    16 -0.033420 -1.397129 -0.030789 -1.093239 0.001690 -0.053093
    17 -0.022360 -0.957436 0.007065 -0.545656 0.008006 -0.026210
    18 -1.180681 -2.507217 -0.193859 -0.878419 0.301607 -0.301154
    19 -0.024967 -1.123934 0.017597 -0.823698 0.006400 -0.035198
    20 -0.020057 -0.906594 0.033528 -1.043768 0.004698 -0.042809
    21 0.634293 -1.185558 0.181473 0.948059 -0.983674 -0.752916
    22 1.469519 -0.228043 0.071417 0.057235 -0.225142 -0.816478
    23 0.964048 -0.202511 0.051823 0.138994 -0.276703 -1.264916
    24 0.120153 -0.050270 -0.054489 0.287569 3.110905 1.561085
    25 -1.302050 -6.950062 -6.548358 -1.548309 -4.883268 -1.035936
    26 -0.090562 -8.419168 0.072669 -0.267565 -0.945020 0.119883
    27 0.447953 -2.798986 -0.200443 -0.715180 -0.120918 0.295667
    28 -0.032909 -1.488017 0.008846 -0.487600 0.011266 -0.004720
    29 -0.027022 -1.092546 -0.028023 -0.404804 0.010894 -0.003715
    30 -0.249534 -2.846964 -0.174213 -0.437137 -0.107938 0.142454
    31 0.043235 -1.668316 0.092106 -0.547797 -0.008143 -0.001689
    32 0.031729 -1.156924 0.058838 -0.244008 -0.001515 0.006886
    33 -0.963866 -2.785145 -0.085350 0.059773 0.040237 -0.129224
    34 0.028479 -1.403067 -0.009354 -0.548645 -0.010439 -0.022843
    35 0.021413 -0.953875 0.020046 -0.185811 -0.002169 -0.008281
    36 1.164475 -2.543940 -0.170330 -0.720072 -0.236088 0.396396
    37 0.024032 -1.132948 0.006088 -0.539266 -0.000563 0.028968
    38 0.014898 -0.887895 -0.019848 -0.376676 -0.002469 0.017509
    39 -0.586770 -1.264477 0.200161 0.380020 -0.275717 -3.357827
    40 1.534554 0.046962 0.016848 -0.003887 0.001243 0.284740
    41 1.117947 0.048424 -0.005766 0.001447 -0.023328 -0.013357
    42 -0.123774 -0.037477 0.151120 0.675510 0.064589 1.326375
    43 -4.674820 7.354757 1.467650 1.244544 0.149502 -1.124244
  time 21
    0 5.769707 -16.086428 -6.547075 0.013701 -1.683528 1.553622
    1 0.181052 0.000000 0.086367 0.000000 3.141592 0.000000
    2 2.883403 -0.000760 -4.121950 0.000000 0.000000 2.617994
    3 2.826668 -0.008370 -6.676362 0.000000 -1.570451 0.000000
    4 3.481615 -0.582735 -7.540093 0.000000 0.000000 0.523599
    5 1.536357 -3.587312 -3.077600 0.000000 -0.091011 0.000000
    6 7.274885 -0.670566 -7.241390 0.303218 -2.290112 -0.422024
    7 8.077701 0.555303 -0.380282 1.569610 -3.116144 0.145853
    8 -0.013325 -8.416703 -0.092415 -0.309896 0.577164 -0.089963
    9 -0.488518 -2.755602 -0.228260 -0.972800 0.169296 -0.373837
    10 0.039887 -1.530573 0.014229 -1.462585 -0.012308 0.032455
    11 0.028786 -1.138233 -0.112955 -0.823807 -0.014010 0.016347
    12 0.250027 -2.820665 -0.238396 -0.695721 0.172809 -0.307015
    13 -0.049759 -1.598510 0.034071 -1.523426 0.000947 -0.041037
    14 -0.034142 -1.167844 0.049625 -1.106882 0.007155 -0.029051
    15 0.957766 -2.746780 -0.090302 0.506403 0.204751 0.034608
    16 -0.033420 -1.397129 -0.030789 -1.093239 0.001690 -0.053093
    17 -0.022360 -0.957436 0.007065 -0.545656 0.008006 -0.026210
    18 -1.180681 -2.507217 -0.193859 -0.878419 0.301607 -0.301154
    19 -0.024967 -1.123934 0.017597 -0.823698 0.006400 -0.035198
    20 -0.020057 -0.906594 0.033528 -1.054313 0.004518 -0.043264
    21 0.634293 -1.185558 0.181473 0.948059 -0.983674 -0.752916
    22 1.469519 -0.228043 0.071417 0.057235 -0.225142 -0.816478
    23 0.964048 -0.202511 0.051823 0.138994 -0.276703 -1.264916
    24 0.120153 -0.050270 -0.054489 0.287569 3.110905 1.561085
    25 -1.102826 -6.899279 -6.497575 -1.193224 -4.923982 -0.683018
    26 -0.074936 -8.423074 0.072669 -0.240175 -0.876326 0.117745
    27 0.447953 -2.798986 -0.200443 -0.977029 -0.117059 0.289243
    28 -0.032909 -1.488017 0.008846 -0.503216 0.011625 -0.004984
    29 -0.027022 -1.092546 -0.028023 -0.443087 0.011817 -0.004290
    30 -0.249534 -2.846964 -0.174213 -0.687431 -0.112421 0.143724
    31 0.043235 -1.664409 0.088199 -0.675695 -0.010624 -0.001162
    32 0.031729 -1.156924 0.058838 -0.314912 -0.002330 0.006478
    33 -0.963866 -2.785145 -0.085350 -0.249635 0.036893 -0.142751
    34 0.028479 -1.403067 -0.009354 -0.636862 -0.013171 -0.025743
    35 0.021413 -0.953875 0.020046 -0.235271 -0.002984 -0.010367
    36 1.164475 -2.543940 -0.170330 -0.964025 -0.228873 0.408165
    37 0.024032 -1.132948 0.006088 -0.539266 -0.000563 0.028968
    38 0.014898 -0.887895 -0.019848 -0.376676 -0.002469 0.017509
    39 -0.586770 -1.264477 0.200161 0.205072 -0.353129 -3.197204
    40 1.530648 0.046962 0.016848 -0.002892 0.002334 0.232660
    41 1.117947 0.048424 -0.005766 0.000884 -0.023988 0.013999
    42 -0.123774 -0.037477 0.151120 0.676779 0.036391 1.361454
    43 -4.706071 7.331319 1.479369 1.245289 0.150975 -1.119546
  time 22
    0 5.812677 -16.023926 -6.125187 2.694164 -1.484722 -1.132572
    1 0.181052 0.000000 0.086367 0.000000 3.141592 0.000000
    2 2.883403 -0.000760 -4.121950 0.000000 0.000000 2.617994
    3 2.826668 -0.008370 -6.676362 0.000000 -1.570451 0.000000
    4 3.481615 -0.582735 -7.540093 0.000000 0.000000 0.523599
    5 1.536357 -3.587312 -3.077600 0.000000 -0.091011 0.000000
    6 7.298323 -0.705724 -7.198420 0.330396 -2.302555 -0.442036
    7 8.077701 0.469363 -0.380282 1.569801 -3.115952 0.135594
    8 -0.005513 -8.420609 -0.088509 -0.289965 0.617176 -0.067381
    9 -0.488518 -2.755602 -0.228260 -0.972800 0.169296 -0.373837
    10 0.039887 -1.530573 0.014229 -1.459465 -0.012344 0.032371
    11 0.028786 -1.134327 -0.112955 -0.821460 -0.013998 0.016287
    12 0.250027 -2.820665 -0.238396 -0.695721 0.172809 -0.307015
    13 -0.049759 -1.598510 0.034071 -1.519335 0.001031 -0.040941
    14 -0.034142 -1.167844 0.049625 -1.104003 0.007179 -0.028979
    15 0.957766 -2.746780 -0.090302 0.506403 0.204751 0.034608
    16 -0.033420 -1.397129 -0.030789 -1.093239 0.001690 -0.053093
    17 -0.022360 -0.957436 0.007065 -0.545656 0.008006 -0.026210
    18 -1.180681 -2.507217 -0.193859 -0.878419 0.301607 -0.301154
    19 -0.024967 -1.123934 0.017597 -0.823698 0.006400 -0.035198
    20 -0.020057 -0.906594 0.033528 -1.052015 0.004554 -0.043157
    21 0.634293 -1.185558 0.181473 0.948059 -0.983674 -0.752916
    22 1.469519 -0.228043 0.071417 0.057235 -0.225142 -0.816478
    23 0.964048 -0.202511 0.051823 0.138994 -0.276703 -1.264916
    24 0.120153 -0.050270 -0.054489 0.287569 3.110905 1.561085
    25 -0.880162 -6.871935 -6.372571 -0.966194 -4.985143 -0.459059
    26 -0.063217 -8.423074 0.072669 -0.204076 -0.808279 0.134575
    27 0.447953 -2.798986 -0.200443 -1.248347 -0.114938 0.281753
    28 -0.032909 -1.488017 0.008846 -0.519378 0.011997 -0.005247
    29 -0.027022 -1.096452 -0.028023 -0.482814 0.012764 -0.004914
    30 -0.249534 -2.846964 -0.174213 -0.947030 -0.116579 0.146181
    31 0.043235 -1.664409 0.088199 -0.808342 -0.013093 -0.000287
    32 0.031729 -1.156924 0.058838 -0.388362 -0.003205 0.006107
    33 -0.963866 -2.785145 -0.085350 -0.570294 0.029259 -0.154991
    34 0.028479 -1.403067 -0.013261 -0.728284 -0.016263 -0.028499
    35 0.021413 -0.953875 0.020046 -0.286574 -0.003943 -0.012476
    36 1.164475 -2.543940 -0.170330 -1.216293 -0.218710 0.418076
    37 0.024032 -1.132948 0.006088 -0.539266 -0.000563 0.028968
    38 0.014898 -0.887895 -0.019848 -0.376676 -0.002469 0.017509
    39 -0.586770 -1.264477 0.200161 0.027190 -0.404484 -3.011728
    40 1.530648 0.050868 0.016848 -0.001982 0.003424 0.182851
    41 1.117947 0.048424 -0.005766 -0.000159 -0.025114 0.061528
    42 -0.123774 -0.037477 0.151120 0.678065 0.008192 1.396533
    43 -4.674820 7.354757 1.467650 1.244523 0.149475 -1.124323
  time 23
    0 5.816584 -15.957518 -5.691580 2.278627 -1.516663 -0.717549
    1 0.181052 0.000000 0.086367 0.000000 3.141592 0.000000
    2 2.883403 -0.000760 -4.121950 0.000000 0.000000 2.617994
    3 2.826668 -0.008370 -6.676362 0.000000 -1.570451 0.000000
    4 3.481615 -0.582735 -7.540093 0.000000 0.000000 0.523599
    5 1.536357 -3.587312 -3.077600 0.000000 -0.091011 0.000000
    6 7.329574 -0.764319 -7.139825 0.363605 -2.318979 -0.466363
    7 8.073794 0.387329 -0.380282 1.569897 -3.115761 0.125628
    8 -0.005513 -8.424515 -0.088509 -0.272372 0.623117 -0.048278
    9 -0.488518 -2.755602 -0.228260 -0.972833 0.169296 -0.373837
    10 0.039887 -1.530573 0.014229 -1.456879 -0.012368 0.032311
    11 0.028786 -1.134327 -0.112955 -0.819495 -0.013974 0.016239
    12 0.250027 -2.820665 -0.238396 -0.695721 0.172809 -0.307015
    13 -0.049759 -1.598510 0.034071 -1.515975 0.001091 -0.040869
    14 -0.034142 -1.167844 0.049625 -1.101604 0.007203 -0.028907
    15 0.957766 -2.746780 -0.090302 0.506403 0.204751 0.034608
    16 -0.033420 -1.397129 -0.030789 -1.093239 0.001690 -0.053093
    17 -0.022360 -0.957436 0.007065 -0.545656 0.008006 -0.026210
    18 -1.180681 -2.507217 -0.193859 -0.878419 0.301607 -0.301154
    19 -0.024967 -1.123934 0.017597 -0.823698 0.006400 -0.035198
    20 -0.020057 -0.906594 0.033528 -1.050095 0.004590 -0.043085
    21 0.634293 -1.185558 0.181473 0.948059 -0.983674 -0.752916
    22 1.469519 -0.228043 0.071417 0.057235 -0.225142 -0.816478
    23 0.964048 -0.202511 0.051823 0.138994 -0.276703 -1.264916
    24 0.120153 -0.050270 -0.054489 0.287569 3.110905 1.561085
    25 -0.696563 -6.871935 -6.188972 -0.860328 -5.041013 -0.353942
    26 -0.055404 -8.423074 0.068762 -0.188236 -0.770885 0.126573
    27 0.447953 -2.798986 -0.200443 -1.457268 -0.114722 0.275748
    28 -0.032909 -1.488017 0.008846 -0.531807 0.012284 -0.005463
    29 -0.027022 -1.096452 -0.028023 -0.513420 0.013471 -0.005429
    30 -0.249534 -2.846964 -0.174213 -1.147016 -0.119276 0.148758
    31 0.043235 -1.660503 0.084293 -0.910391 -0.014902 0.000600
    32 0.031729 -1.153017 0.058838 -0.444965 -0.003900 0.005867
    33 -0.963866 -2.785145 -0.085350 -0.817040 0.020966 -0.162411
    34 0.028479 -1.403067 -0.017167 -0.798724 -0.018804 -0.030417
    35 0.021413 -0.953875 0.020046 -0.326050 -0.004758 -0.014070
    36 1.164475 -2.543940 -0.170330 -1.410047 -0.209422 0.423745
    37 0.024032 -1.132948 0.006088 -0.539266 -0.000563 0.028968
    38 0.014898 -0.887895 -0.019848 -0.376676 -0.002469 0.017509
    39 -0.586770 -1.264477 0.200161 -0.072108 -0.429191 -2.857929
    40 1.526741 0.050868 0.016848 -0.001490 0.004071 0.154201
    41 1.117947 0.048424 -0.005766 -0.002041 -0.026900 0.142860
    42 -0.123774 -0.037477 0.151120 0.678641 -0.004622 1.412484
    43 -4.584974 7.425071 1.436399 1.242373 0.145217 -1.137714
  time 24
    0 5.804865 -15.898923 -5.265786 1.303693 -1.536693 0.258795
    1 0.181052 0.000000 0.086367 0.000000 3.141592 0.000000
    2 2.883403 -0.000760 -4.121950 0.000000 0.000000 2.617994
    3 2.826668 -0.008370 -6.676362 0.000000 -1.570451 0.000000
    4 3.481615 -0.582735 -7.540093 0.000000 0.000000 0.523599
    5 1.536357 -3.587312 -3.077600 0.000000 -0.091011 0.000000
    6 7.356919 -0.846353 -7.073416 0.396727 -2.336731 -0.489621
    7 8.069888 0.332640 -0.384189 1.569993 -3.115666 0.118813
    8 -0.005513 -8.428422 -0.088509 -0.256636 0.616980 -0.030413
    9 -0.488518 -2.755602 -0.228260 -0.972800 0.169296 -0.373837
    10 0.039887 -1.530573 0.014229 -1.451753 -0.012404 0.032180
    11 0.028786 -1.134327 -0.112955 -0.815620 -0.013950 0.016131
    12 0.250027 -2.820665 -0.238396 -0.695721 0.172809 -0.307015
    13 -0.049759 -1.598510 0.034071 -1.509303 0.001222 -0.040726
    14 -0.034142 -1.167844 0.049625 -1.096909 0.007239 -0.028775
    15 0.957766 -2.746780 -0.090302 0.506403 0.204751 0.034608
    16 -0.033420 -1.397129 -0.030789 -1.093239 0.001690 -0.053093
    17 -0.022360 -0.957436 0.007065 -0.545656 0.008006 -0.026210
    18 -1.180681 -2.507217 -0.193859 -0.878419 0.301607 -0.301154
    19 -0.024967 -1.123934 0.017597 -0.823698 0.006400 -0.035198
    20 -0.020057 -0.906594 0.033528 -1.046349 0.004650 -0.042929
    21 0.634293 -1.185558 0.181473 0.948059 -0.983674 -0.752916
    22 1.469519 -0.228043 0.071417 0.057235 -0.225142 -0.816478
    23 0.964048 -0.202511 0.051823 0.138994 -0.276703 -1.264916
    24 0.120153 -0.050270 -0.054489 0.287569 3.110905 1.561085
    25 -0.559840 -6.973500 -5.794429 -0.862444 -5.057694 -0.352678
    26 -0.047592 -8.423074 0.068762 -0.202398 -0.754855 0.106535
    27 0.447953 -2.798986 -0.200443 -1.495674 -0.114818 0.274646
    28 -0.032909 -1.488017 0.008846 -0.534129 0.012332 -0.005511
    29 -0.027022 -1.096452 -0.028023 -0.519036 0.013603 -0.005525
    30 -0.249534 -2.846964 -0.174213 -1.183789 -0.119707 0.149297
    31 0.043235 -1.660503 0.084293 -0.929171 -0.015226 0.000780
    32 0.031729 -1.153017 0.058838 -0.455332 -0.004032 0.005831
    33 -0.963866 -2.785145 -0.085350 -0.862396 0.019252 -0.163542
    34 0.028479 -1.403067 -0.017167 -0.811643 -0.019295 -0.030752
    35 0.021413 -0.953875 0.020046 -0.333347 -0.004914 -0.014358
    36 1.164475 -2.543940 -0.170330 -1.445656 -0.207612 0.424584
    37 0.024032 -1.132948 0.006088 -0.539266 -0.000563 0.028968
    38 0.014898 -0.887895 -0.019848 -0.376676 -0.002469 0.017509
    39 -0.586770 -1.264477 0.200161 0.141536 -0.473260 -2.814919
    40 1.530648 0.050868 0.016848 -0.002269 0.003065 0.198969
    41 1.117947 0.048424 -0.005766 -0.008572 -0.031322 0.388582
    42 -0.123774 -0.037477 0.151120 0.678641 -0.004622 1.412484
    43 -4.194337 7.702424 1.295770 1.233730 0.126230 -1.196132
  time 25
    0 5.797052 -15.867672 -5.031404 0.603326 -1.528095 0.960855
    1 0.181052 0.000000 0.086367 0.000000 3.141592 0.000000
    2 2.883403 -0.000760 -4.121950 0.000000 0.000000 2.617994
    3 2.826668 -0.008370 -6.676362 0.000000 -1.570451 0.000000
    4 3.481615 -0.582735 -7.540093 0.000000 0.000000 0.523599
    5 1.536357 -3.587312 -3.077600 0.000000 -0.091011 0.000000
    6 7.372544 -0.897136 -7.030446 0.414293 -2.346851 -0.501421
    7 8.069888 0.317014 -0.384189 1.569993 -3.115666 0.116908
    8 -0.009419 -8.428422 -0.088509 -0.247516 0.609053 -0.019476
    9 -0.488518 -2.755602 -0.228260 -0.972800 0.169296 -0.373837
    10 0.039887 -1.530573 0.014229 -1.448232 -0.012440 0.032096
    11 0.028786 -1.134327 -0.112955 -0.812973 -0.013926 0.016071
    12 0.250027 -2.820665 -0.238396 -0.695721 0.172809 -0.307015
    13 -0.049759 -1.598510 0.037977 -1.504726 0.001318 -0.040630
    14 -0.034142 -1.167844 0.049625 -1.093653 0.007263 -0.028679
    15 0.957766 -2.746780 -0.090302 0.506403 0.204751 0.034608
    16 -0.033420 -1.397129 -0.030789 -1.093239 0.001690 -0.053093
    17 -0.022360 -0.957436 0.007065 -0.545656 0.008006 -0.026210
    18 -1.180681 -2.507217 -0.193859 -0.878419 0.301607 -0.301154
    19 -0.024967 -1.123934 0.017597 -0.823698 0.006400 -0.035198
    20 -0.020057 -0.906594 0.033528 -1.043768 0.004698 -0.042809
    21 0.634293 -1.185558 0.181473 0.948059 -0.983674 -0.752916
    22 1.469519 -0.228043 0.071417 0.057235 -0.225142 -0.816478
    23 0.964048 -0.202511 0.051823 0.138994 -0.276703 -1.264916
    24 0.120153 -0.050270 -0.054489 0.287569 3.110905 1.561085
    25 -0.602810 -6.977407 -5.798335 -0.953195 -5.076257 -0.436934
    26 -0.047592 -8.423074 0.068762 -0.206205 -0.755257 0.119440
    27 0.447953 -2.798986 -0.200443 -1.457268 -0.114722 0.275748
    28 -0.032909 -1.488017 0.008846 -0.531807 0.012284 -0.005463
    29 -0.027022 -1.096452 -0.028023 -0.513420 0.013471 -0.005429
    30 -0.249534 -2.846964 -0.174213 -1.147016 -0.119276 0.148758
    31 0.043235 -1.660503 0.084293 -0.910391 -0.014902 0.000600
    32 0.031729 -1.153017 0.058838 -0.444965 -0.003900 0.005867
    33 -0.963866 -2.785145 -0.085350 -0.817040 0.020966 -0.162411
    34 0.028479 -1.403067 -0.017167 -0.798724 -0.018804 -0.030417
    35 0.021413 -0.953875 0.020046 -0.326050 -0.004758 -0.014070
    36 1.164475 -2.543940 -0.170330 -1.410047 -0.209422 0.423745
    37 0.024032 -1.132948 0.006088 -0.539266 -0.000563 0.028968
    38 0.014898 -0.887895 -0.019848 -0.376676 -0.002469 0.017509
    39 -0.586770 -1.264477 0.200161 0.376540 -0.503350 -2.840808
    40 1.530648 0.046962 0.016848 -0.003204 0.001974 0.249629
    41 1.114041 0.048424 -0.005766 -0.014373 -0.033611 0.582944
    42 -0.123774 -0.037477 0.151120 0.678641 -0.004622 1.412484
    43 -4.459970 7.518824 1.393429 1.239416 0.139031 -1.156978
  time 26
    0 5.797052 -15.871578 -5.031404 0.435768 -1.527903 1.130449
    1 0.181052 0.000000 0.086367 0.000000 3.141592 0.000000
    2 2.883403 -0.000760 -4.121950 0.000000 0.000000 2.617994
    3 2.826668 -0.008370 -6.676362 0.000000 -1.570451 0.000000
    4 3.481615 -0.582735 -7.540093 0.000000 0.000000 0.523599
    5 1.536357 -3.587312 -3.077600 0.000000 -0.091011 0.000000
    6 7.372544 -0.901042 -7.030446 0.413768 -2.346685 -0.500619
    7 8.069888 0.332640 -0.384189 1.569993 -3.115666 0.118593
    8 -0.009419 -8.432328 -0.088509 -0.245095 0.602063 -0.016233
    9 -0.488518 -2.755602 -0.228260 -0.972833 0.169296 -0.373837
    10 0.039887 -1.530573 0.014229 -1.447340 -0.012452 0.032072
    11 0.028786 -1.134327 -0.112955 -0.812291 -0.013914 0.016047
    12 0.250027 -2.820665 -0.238396 -0.695721 0.172809 -0.307015
    13 -0.049759 -1.598510 0.037977 -1.503508 0.001342 -0.040594
    14 -0.034142 -1.167844 0.049625 -1.092796 0.007275 -0.028655
    15 0.957766 -2.746780 -0.090302 0.506403 0.204751 0.034608
    16 -0.033420 -1.397129 -0.030789 -1.093239 0.001690 -0.053093
    17 -0.022360 -0.957436 0.007065 -0.545656 0.008006 -0.026210
    18 -1.180681 -2.507217 -0.193859 -0.878419 0.301607 -0.301154
    19 -0.024967 -1.123934 0.017597 -0.823698 0.006400 -0.035198
    20 -0.020057 -0.906594 0.033528 -1.043107 0.004710 -0.042785
    21 0.634293 -1.185558 0.181473 0.948059 -0.983674 -0.752916
    22 1.469519 -0.228043 0.071417 0.057235 -0.225142 -0.816478
    23 0.964048 -0.202511 0.051823 0.138994 -0.276703 -1.264916
    24 0.120153 -0.050270 -0.054489 0.287569 3.110905 1.561085
    25 -0.594998 -6.981313 -5.778803 -0.948600 -5.074284 -0.432599
    26 -0.047592 -8.423074 0.068762 -0.211270 -0.759097 0.114889
    27 0.447953 -2.798986 -0.200443 -1.457268 -0.114722 0.275748
    28 -0.032909 -1.488017 0.008846 -0.531807 0.012284 -0.005463
    29 -0.027022 -1.096452 -0.028023 -0.513420 0.013471 -0.005429
    30 -0.249534 -2.846964 -0.174213 -1.147016 -0.119276 0.148758
    31 0.043235 -1.660503 0.084293 -0.910391 -0.014902 0.000600
    32 0.031729 -1.153017 0.058838 -0.444965 -0.003900 0.005867
    33 -0.963866 -2.785145 -0.085350 -0.817040 0.020966 -0.162411
    34 0.028479 -1.403067 -0.017167 -0.798724 -0.018804 -0.030417
    35 0.021413 -0.953875 0.020046 -0.326050 -0.004758 -0.014070
    36 1.164475 -2.543940 -0.170330 -1.410047 -0.209422 0.423745
    37 0.024032 -1.132948 0.006088 -0.539266 -0.000563 0.028968
    38 0.014898 -0.887895 -0.019848 -0.376676 -0.002469 0.017509
    39 -0.586770 -1.264477 0.200161 0.376540 -0.503350 -2.840808
    40 1.530648 0.046962 0.016848 -0.003204 0.001974 0.249629
    41 1.114041 0.048424 -0.005766 -0.014373 -0.033611 0.582944
    42 -0.123774 -0.037477 0.151120 0.678641 -0.004622 1.412484
    43 -4.417000 7.550075 1.377804 1.238444 0.136942 -1.163399
  time 27
    0 5.800958 -15.898923 -5.144688 0.320455 -1.536501 1.248466
    1 0.181052 0.000000 0.086367 0.000000 3.141592 0.000000
    2 2.883403 -0.000760 -4.121950 0.000000 0.000000 2.617994
    3 2.826668 -0.008370 -6.676362 0.000000 -1.570451 0.000000
    4 3.481615 -0.582735 -7.540093 0.000000 0.000000 0.523599
    5 1.536357 -3.587312 -3.077600 0.000000 -0.091011 0.000000
    6 7.364732 -0.889323 -7.046072 0.404942 -2.341791 -0.494012
    7 8.069888 0.359985 -0.384189 1.569897 -3.115666 0.122184
    8 -0.013325 -8.428422 -0.088509 -0.245922 0.593171 -0.016616
    9 -0.488518 -2.755602 -0.228260 -0.972800 0.169296 -0.373837
    10 0.039887 -1.530573 0.014229 -1.447206 -0.012452 0.032060
    11 0.028786 -1.134327 -0.109049 -0.812209 -0.013914 0.016047
    12 0.250027 -2.820665 -0.238396 -0.695721 0.172809 -0.307015
    13 -0.049759 -1.598510 0.037977 -1.503362 0.001342 -0.040594
    14 -0.034142 -1.167844 0.049625 -1.092693 0.007275 -0.028655
    15 0.957766 -2.746780 -0.090302 0.506403 0.204751 0.034608
    16 -0.033420 -1.397129 -0.030789 -1.093239 0.001690 -0.053093
    17 -0.022360 -0.957436 0.007065 -0.545656 0.008006 -0.026210
    18 -1.180681 -2.507217 -0.193859 -0.878419 0.301607 -0.301154
    19 -0.024967 -1.123934 0.017597 -0.823698 0.006400 -0.035198
    20 -0.020057 -0.906594 0.033528 -1.043013 0.004710 -0.042785
    21 0.634293 -1.185558 0.181473 0.948059 -0.983674 -0.752916
    22 1.469519 -0.228043 0.071417 0.057235 -0.225142 -0.816478
    23 0.964048 -0.202511 0.051823 0.138994 -0.276703 -1.264916
    24 0.120153 -0.050270 -0.054489 0.287569 3.110905 1.561085
    25 -0.598904 -6.973500 -5.817867 -0.927258 -5.065496 -0.413364
    26 -0.051498 -8.423074 0.068762 -0.215786 -0.768273 0.109131
    27 0.447953 -2.798986 -0.200443 -1.457268 -0.114722 0.275748
    28 -0.032909 -1.488017 0.008846 -0.531807 0.012284 -0.005463
    29 -0.027022 -1.096452 -0.028023 -0.513420 0.013471 -0.005429
    30 -0.249534 -2.846964 -0.174213 -1.147016 -0.119276 0.148758
    31 0.043235 -1.660503 0.084293 -0.910391 -0.014902 0.000600
    32 0.031729 -1.153017 0.058838 -0.444965 -0.003900 0.005867
    33 -0.963866 -2.785145 -0.085350 -0.817040 0.020966 -0.162411
    34 0.028479 -1.403067 -0.017167 -0.798724 -0.018804 -0.030417
    35 0.021413 -0.953875 0.020046 -0.326050 -0.004758 -0.014070
    36 1.164475 -2.543940 -0.170330 -1.410047 -0.209422 0.423745
    37 0.024032 -1.132948 0.006088 -0.539266 -0.000563 0.028968
    38 0.014898 -0.887895 -0.019848 -0.376676 -0.002469 0.017509
    39 -0.586770 -1.264477 0.200161 0.376540 -0.503350 -2.840808
    40 1.530648 0.046962 0.016848 -0.003204 0.001974 0.249629
    41 1.114041 0.048424 -0.005766 -0.014373 -0.033611 0.582944
    42 -0.123774 -0.037477 0.151120 0.678641 -0.004622 1.412484
    43 -4.377936 7.577420 1.362178 1.237596 0.135094 -1.169115
  time 28
    0 5.800958 -15.930174 -5.304849 0.173795 -1.548941 1.397736
    1 0.181052 0.000000 0.086367 0.000000 3.141592 0.000000
    2 2.883403 -0.000760 -4.121950 0.000000 0.000000 2.617994
    3 2.826668 -0.008370 -6.676362 0.000000 -1.570451 0.000000
    4 3.481615 -0.582735 -7.540093 0.000000 0.000000 0.523599
    5 1.536357 -3.587312 -3.077600 0.000000 -0.091011 0.000000
    6 7.356919 -0.869791 -7.069510 0.392532 -2.335072 -0.484809
    7 8.073794 0.399048 -0.380282 1.569897 -3.115761 0.126654
    8 -0.013325 -8.428422 -0.088509 -0.248295 0.584378 -0.018886
    9 -0.488518 -2.755602 -0.228260 -0.972833 0.169296 -0.373837
    10 0.039887 -1.530573 0.014229 -1.447563 -0.012440 0.032072
    11 0.028786 -1.134327 -0.112955 -0.812455 -0.013926 0.016059
    12 0.250027 -2.820665 -0.238396 -0.695721 0.172809 -0.307015
    13 -0.049759 -1.598510 0.037977 -1.503849 0.001330 -0.040606
    14 -0.034142 -1.167844 0.049625 -1.093036 0.007263 -0.028667
    15 0.957766 -2.746780 -0.090302 0.506403 0.204751 0.034608
    16 -0.033420 -1.397129 -0.030789 -1.093239 0.001690 -0.053093
    17 -0.022360 -0.957436 0.007065 -0.545656 0.008006 -0.026210
    18 -1.180681 -2.507217 -0.193859 -0.878419 0.301607 -0.301154
    19 -0.024967 -1.123934 0.017597 -0.823698 0.006400 -0.035198
    20 -0.020057 -0.906594 0.033528 -1.043265 0.004710 -0.042797
    21 0.634293 -1.185558 0.181473 0.948059 -0.983674 -0.752916
    22 1.469519 -0.228043 0.071417 0.057235 -0.225142 -0.816478
    23 0.964048 -0.202511 0.051823 0.138994 -0.276703 -1.264916
    24 0.120153 -0.050270 -0.054489 0.287569 3.110905 1.561085
    25 -0.610623 -6.961781 -5.880369 -0.897330 -5.054017 -0.386362
    26 -0.051498 -8.423074 0.068762 -0.219722 -0.779234 0.103374
    27 0.447953 -2.798986 -0.200443 -1.457268 -0.114722 0.275748
    28 -0.032909 -1.488017 0.008846 -0.531807 0.012284 -0.005463
    29 -0.027022 -1.096452 -0.028023 -0.513420 0.013471 -0.005429
    30 -0.249534 -2.846964 -0.174213 -1.147016 -0.119276 0.148758
    31 0.043235 -1.660503 0.084293 -0.910391 -0.014902 0.000600
    32 0.031729 -1.153017 0.058838 -0.444965 -0.003900 0.005867
    33 -0.963866 -2.785145 -0.085350 -0.817040 0.020966 -0.162411
    34 0.028479 -1.403067 -0.017167 -0.798724 -0.018804 -0.030417
    35 0.021413 -0.953875 0.020046 -0.326050 -0.004758 -0.014070
    36 1.164475 -2.543940 -0.170330 -1.410047 -0.209422 0.423745
    37 0.024032 -1.132948 0.006088 -0.539266 -0.000563 0.028968
    38 0.014898 -0.887895 -0.019848 -0.376676 -0.002469 0.017509
    39 -0.586770 -1.264477 0.200161 0.376540 -0.503350 -2.840808
    40 1.530648 0.046962 0.016848 -0.003204 0.001974 0.249629
    41 1.114041 0.048424 -0.005766 -0.014373 -0.033611 0.582944
    42 -0.123774 -0.037477 0.151120 0.678641 -0.004622 1.412484
    43 -4.342779 7.600858 1.350459 1.236811 0.133327 -1.174440
  time 29
    0 5.804865 -15.957518 -5.445479 -0.136971 -1.559652 -4.572596
    1 0.181052 0.000000 0.086367 0.000000 3.141592 0.000000
    2 2.883403 -0.000760 -4.121950 0.000000 0.000000 2.617994
    3 2.826668 -0.008370 -6.676362 0.000000 -1.570451 0.000000
    4 3.481615 -0.582735 -7.540093 0.000000 0.000000 0.523599
    5 1.536357 -3.587312 -3.077600 0.000000 -0.091011 0.000000
    6 7.345200 -0.850259 -7.089042 0.381258 -2.329100 -0.476521
    7 8.073794 0.430299 -0.380282 1.569801 -3.115857 0.130537
    8 -0.017232 -8.428422 -0.088509 -0.250716 0.577653 -0.021422
    9 -0.488518 -2.755602 -0.228260 -0.972833 0.169296 -0.373837
    10 0.039887 -1.530573 0.014229 -1.448009 -0.012440 0.032084
    11 0.028786 -1.134327 -0.112955 -0.812782 -0.013926 0.016059
    12 0.250027 -2.820665 -0.238396 -0.695721 0.172809 -0.307015
    13 -0.049759 -1.598510 0.037977 -1.504434 0.001318 -0.040618
    14 -0.034142 -1.167844 0.049625 -1.093447 0.007263 -0.028679
    15 0.957766 -2.746780 -0.090302 0.506403 0.204751 0.034608
    16 -0.033420 -1.397129 -0.030789 -1.093239 0.001690 -0.053093
    17 -0.022360 -0.957436 0.007065 -0.545656 0.008006 -0.026210
    18 -1.180681 -2.507217 -0.193859 -0.878390 0.301607 -0.301154
    19 -0.024967 -1.123934 0.017597 -0.823698 0.006400 -0.035198
    20 -0.020057 -0.906594 0.033528 -1.043579 0.004698 -0.042809
    21 0.634293 -1.185558 0.181473 0.948059 -0.983674 -0.752916
    22 1.469519 -0.228043 0.071417 0.057235 -0.225142 -0.816478
    23 0.964048 -0.202511 0.051823 0.138994 -0.276703 -1.264916
    24 0.120153 -0.050270 -0.054489 0.287569 3.110905 1.561085
    25 -0.618436 -6.946156 -5.938964 -0.869155 -5.044152 -0.360715
    26 -0.055404 -8.423074 0.068762 -0.222625 -0.788410 0.098914
    27 0.447953 -2.798986 -0.200443 -1.457268 -0.114722 0.275748
    28 -0.032909 -1.488017 0.008846 -0.531807 0.012284 -0.005463
    29 -0.027022 -1.096452 -0.028023 -0.513420 0.013471 -0.005429
    30 -0.249534 -2.846964 -0.174213 -1.147016 -0.119276 0.148758
    31 0.043235 -1.660503 0.084293 -0.910391 -0.014902 0.000600
    32 0.031729 -1.153017 0.058838 -0.444965 -0.003900 0.005867
    33 -0.963866 -2.785145 -0.085350 -0.817040 0.020966 -0.162411
    34 0.028479 -1.403067 -0.017167 -0.798724 -0.018804 -0.030417
    35 0.021413 -0.953875 0.020046 -0.326050 -0.004758 -0.014070
    36 1.164475 -2.543940 -0.170330 -1.410047 -0.209422 0.423745
    37 0.024032 -1.132948 0.006088 -0.539266 -0.000563 0.028968
    38 0.014898 -0.887895 -0.019848 -0.376676 -0.002469 0.017509
    39 -0.586770 -1.264477 0.200161 0.376540 -0.503350 -2.840808
    40 1.530648 0.046962 0.016848 -0.003204 0.001974 0.249629
    41 1.114041 0.048424 -0.005766 -0.014373 -0.033611 0.582944
    42 -0.123774 -0.037477 0.151120 0.678641 -0.004622 1.412484
    43 -4.311528 7.624296 1.338740 1.236149 0.131854 -1.178982
  time 30
    0 5.804865 -15.969237 -5.507981 -0.514816 -1.563447 -4.193812
    1 0.181052 0.000000 0.086367 0.000000 3.141592 0.000000
    2 2.883403 -0.000760 -4.121950 0.000000 0.000000 2.617994
    3 2.826668 -0.008370 -6.676362 0.000000 -1.570451 0.000000
    4 3.481615 -0.582735 -7.540093 0.000000 0.000000 0.523599
    5 1.536357 -3.587312 -3.077600 0.000000 -0.091011 0.000000
    6 7.341293 -0.842447 -7.100761 0.376365 -2.326528 -0.472893
    7 8.073794 0.442018 -0.380282 1.569801 -3.115857 0.132296
    8 -0.017232 -8.428422 -0.088509 -0.251806 0.574983 -0.022601
    9 -0.488518 -2.755602 -0.228260 -0.972800 0.169296 -0.373837
    10 0.039887 -1.530573 0.014229 -1.448232 -0.012440 0.032096
    11 0.028786 -1.134327 -0.112955 -0.812973 -0.013926 0.016071
    12 0.250027 -2.820665 -0.238396 -0.695721 0.172809 -0.307015
    13 -0.049759 -1.598510 0.037977 -1.504726 0.001318 -0.040630
    14 -0.034142 -1.167844 0.049625 -1.093653 0.007263 -0.028679
    15 0.957766 -2.746780 -0.090302 0.506403 0.204751 0.034608
    16 -0.033420 -1.397129 -0.030789 -1.093239 0.001690 -0.053093
    17 -0.022360 -0.957436 0.007065 -0.545656 0.008006 -0.026210
    18 -1.180681 -2.507217 -0.193859 -0.878419 0.301607 -0.301154
    19 -0.024967 -1.123934 0.017597 -0.823698 0.006400 -0.035198
    20 -0.020057 -0.906594 0.033528 -1.043768 0.004698 -0.042809
    21 0.634293 -1.185558 0.181473 0.948059 -0.983674 -0.752916
    22 1.469519 -0.228043 0.071417 0.057235 -0.225142 -0.816478
    23 0.964048 -0.202511 0.051823 0.138994 -0.276703 -1.264916
    24 0.120153 -0.050270 -0.054489 0.287569 3.110905 1.561085
    25 -0.622342 -6.942250 -5.962403 -0.856458 -5.039937 -0.349156
    26 -0.055404 -8.423074 0.068762 -0.223787 -0.792250 0.097097
    27 0.447953 -2.798986 -0.200443 -1.457268 -0.114722 0.275748
    28 -0.032909 -1.488017 0.008846 -0.531807 0.012284 -0.005463
    29 -0.027022 -1.096452 -0.028023 -0.513420 0.013471 -0.005429
    30 -0.249534 -2.846964 -0.174213 -1.147016 -0.119276 0.148758
    31 0.043235 -1.660503 0.084293 -0.910391 -0.014902 0.000600
    32 0.031729 -1.153017 0.058838 -0.444965 -0.003900 0.005867
    33 -0.963866 -2.785145 -0.085350 -0.817040 0.020966 -0.162411
    34 0.028479 -1.403067 -0.017167 -0.798724 -0.018804 -0.030417
    35 0.021413 -0.953875 0.020046 -0.326050 -0.004758 -0.014070
    36 1.164475 -2.543940 -0.170330 -1.410047 -0.209422 0.423745
    37 0.024032 -1.132948 0.006088 -0.539266 -0.000563 0.028968
    38 0.014898 -0.887895 -0.019848 -0.376676 -0.002469 0.017509
    39 -0.586770 -1.264477 0.200161 0.376540 -0.503350 -2.840808
    40 1.530648 0.046962 0.016848 -0.003204 0.001974 0.249629
    41 1.114041 0.048424 -0.005766 -0.014373 -0.033611 0.582944
    42 -0.123774 -0.037477 0.151120 0.678641 -0.004622 1.412484
    43 -4.295902 7.632109 1.334834 1.235880 0.131211 -1.181018
end
