version 1
nodes
  0 "Bone_Root" -1
  1 "Bone01" 0
  2 "Bone_Lefthand" 1
  3 "bone_CSOKATAN_L" 2
  4 "Bone04" 0
  5 "Bone_Righthand" 4
  6 "bone_CSOKATANA_R" 5
  7 "p_blade02" 0
  8 "p_blade01" 0
  9 "Bone13" 2
  10 "Bone14" 9
  11 "Bone15" 10
  12 "Bone17" 2
  13 "Bone18" 12
  14 "Bone19" 13
  15 "Bone21" 2
  16 "Bone22" 15
  17 "Bone23" 16
  18 "Bone09" 2
  19 "Bone10" 18
  20 "Bone11" 19
  21 "Bone05" 2
  22 "Bone06" 21
  23 "Bone07" 22
  24 "Bone_Se_Hand-L" 2
  25 "Bone_L_Upper" 1
  26 "Bone39" 5
  27 "Bone40" 26
  28 "Bone41" 27
  29 "Bone35" 5
  30 "Bone36" 29
  31 "Bone37" 30
  32 "Bone31" 5
  33 "Bone32" 32
  34 "Bone33" 33
  35 "Bone43" 5
  36 "Bone44" 35
  37 "Bone45" 36
  38 "Bone27" 5
  39 "Bone28" 38
  40 "Bone29" 39
  41 "Bone_Se_Hand-R" 5
  42 "Bone_R_Upper" 4
end
skeleton
  time 0
    0 0.000000 0.000000 0.000000 0.000000 0.000000 0.000000
    1 19.124061 -12.018196 -10.020002 3.242673 -0.260021 -1.457757
    2 -0.071920 -8.498731 -0.104139 -0.091383 0.060704 -0.986750
    3 -5.102076 -1.764963 0.322289 -1.446615 -0.040519 -0.172534
    4 -15.174928 -17.132611 -3.839679 -1.358330 0.044753 -2.307657
    5 0.096946 -8.450418 -0.009361 0.269453 0.065325 0.222383
    6 4.892712 -0.604068 1.165447 -0.294468 -3.136914 0.375296
    7 -24.896226 -25.388874 -146.277262 0.060050 0.180093 3.157834
    8 49.932079 -5.145007 -11.457687 0.910134 -0.136849 -3.013538
    9 -0.488517 -2.755600 -0.228261 -0.554275 -0.077695 -0.184816
    10 0.039887 -1.479790 0.029853 -1.688303 0.000000 0.000000
    11 0.028785 -1.075733 -0.023111 -1.188986 0.000000 0.000000
    12 0.250028 -2.820663 -0.238396 -0.624469 -0.087856 -0.177210
    13 -0.049759 -1.680546 0.100480 -1.822879 0.000000 -0.000002
    14 -0.034141 -1.148310 0.084779 -1.231236 0.000000 0.000000
    15 0.957766 -2.746775 -0.090300 -0.196405 -0.161174 -0.073421
    16 -0.033419 -1.397129 -0.011255 -1.507262 0.000000 -0.000001
    17 -0.022360 -0.957434 0.018783 -1.181193 0.000000 0.000000
    18 -1.180680 -2.507215 -0.193861 -0.264231 0.107072 -0.142275
    19 -0.024966 -1.123932 0.017594 -1.379609 0.000000 0.000001
    20 -0.020058 -0.890965 0.010091 -1.219224 0.303570 -0.062931
    21 0.583510 -1.197275 0.185377 0.966054 -0.980733 -0.837984
    22 1.535926 0.010246 0.005008 -0.492690 -0.171425 -0.747663
    23 1.100770 0.004526 -0.010676 0.158936 0.009058 -0.802012
    24 0.002961 -0.089330 -0.105271 -2.832690 -0.003247 -1.473441
    25 -0.793665 8.344597 -0.708422 -1.570562 0.002683 -1.365282
    26 0.447952 -2.798983 -0.200442 -1.267633 -0.030015 0.262098
    27 -0.032909 -1.480204 0.004936 -1.189828 0.000000 0.000002
    28 -0.027022 -1.076920 -0.020212 -1.132357 0.000000 0.000000
    29 -0.249534 -2.846960 -0.174215 -1.094511 -0.012757 0.297798
    30 0.043235 -1.683941 0.096014 -1.463724 0.002823 -0.000167
    31 0.031729 -1.160830 0.058836 -1.087348 0.000642 0.008372
    32 -0.963867 -2.785143 -0.085346 -0.955154 0.061462 0.020715
    33 0.028479 -1.403067 0.006271 -1.279909 0.000000 0.000000
    34 0.021414 -0.957779 0.020047 -0.964041 0.000000 0.000000
    35 1.164475 -2.543938 -0.170328 -1.177771 -0.015164 0.298745
    36 0.024033 -1.129042 0.017806 -0.716164 0.000000 0.000001
    37 0.014896 -0.883989 -0.019845 -1.010357 0.000000 0.000000
    38 -0.586770 -1.264477 0.200164 -0.148053 -0.938107 -2.541444
    39 1.522835 0.058681 0.016850 0.193191 -0.230743 0.579813
    40 1.117948 0.048424 -0.005764 -0.022882 -0.010553 1.194827
    41 0.094983 -0.111698 0.014397 -0.119192 0.402614 1.611548
    42 -2.182557 8.604795 -2.891859 1.521083 -0.321268 -1.483266
  time 1
    0 0.000000 0.000000 0.000000 0.000000 0.000000 0.000000
    1 19.706110 -12.018196 -11.086441 3.199157 -0.275027 -1.363502
    2 -0.071920 -8.498731 -0.104139 -0.089127 0.061857 -0.962780
    3 -5.102076 -1.764963 0.322289 -1.446615 -0.040519 -0.172534
    4 -12.042020 -17.249802 -3.722488 -1.109759 0.142540 -1.762780
    5 0.096946 -8.450418 -0.009361 0.252147 0.025799 0.305782
    6 4.892712 -0.604068 1.165447 -0.294468 -3.136914 0.375296
    7 -24.896226 -25.388874 -146.277262 0.060050 0.180093 3.157834
    8 54.338464 -2.982667 -12.301463 0.982164 -0.168673 -2.993769
    9 -0.488517 -2.755600 -0.228261 -0.554275 -0.077695 -0.184816
    10 0.039887 -1.479790 0.029853 -1.688303 0.000000 0.000000
    11 0.028785 -1.075733 -0.023111 -1.188986 0.000000 0.000000
    12 0.250028 -2.820663 -0.238396 -0.624469 -0.087856 -0.177210
    13 -0.049759 -1.680546 0.100480 -1.822879 0.000000 -0.000002
    14 -0.034141 -1.148310 0.084779 -1.231236 0.000000 0.000000
    15 0.957766 -2.746775 -0.090300 -0.196405 -0.161174 -0.073421
    16 -0.033419 -1.397129 -0.011255 -1.507262 0.000000 -0.000001
    17 -0.022360 -0.957434 0.018783 -1.181193 0.000000 0.000000
    18 -1.180680 -2.507215 -0.193861 -0.264231 0.107072 -0.142275
    19 -0.024966 -1.123932 0.017594 -1.379609 0.000000 0.000001
    20 -0.020058 -0.890965 0.010091 -1.219224 0.303570 -0.062931
    21 0.583510 -1.197275 0.185377 0.966054 -0.980733 -0.837984
    22 1.535926 0.010246 0.005008 -0.492690 -0.171425 -0.747663
    23 1.100770 0.004526 -0.010676 0.158936 0.009058 -0.802012
    24 0.002961 -0.089330 -0.105271 -2.832690 -0.003247 -1.473441
    25 -2.528093 8.082871 -1.224063 -1.570562 0.002683 -1.189262
    26 0.447952 -2.798983 -0.200442 -1.267633 -0.030015 0.262098
    27 -0.032909 -1.480204 0.004936 -1.189828 0.000000 0.000002
    28 -0.027022 -1.076920 -0.020212 -1.132357 0.000000 0.000000
    29 -0.249534 -2.846960 -0.174215 -1.094511 -0.012757 0.297798
    30 0.043235 -1.683941 0.096014 -1.463724 0.002823 -0.000167
    31 0.031729 -1.160830 0.058836 -1.087348 0.000642 0.008372
    32 -0.963867 -2.785143 -0.085346 -0.955154 0.061462 0.020715
    33 0.028479 -1.403067 0.006271 -1.279909 0.000000 0.000000
    34 0.021414 -0.957779 0.020047 -0.964041 0.000000 0.000000
    35 1.164475 -2.543938 -0.170328 -1.177771 -0.015164 0.298745
    36 0.024033 -1.129042 0.017806 -0.716164 0.000000 0.000001
    37 0.014896 -0.883989 -0.019845 -1.010357 0.000000 0.000000
    38 -0.586770 -1.264477 0.200164 -0.148053 -0.938107 -2.541444
    39 1.522835 0.058681 0.016850 0.193191 -0.230743 0.579813
    40 1.117948 0.048424 -0.005764 -0.022882 -0.010553 1.194827
    41 0.094983 -0.111698 0.014397 -0.119192 0.402614 1.611548
    42 -2.444283 8.339162 -3.977829 1.527189 -0.446865 -1.454449
  time 2
    0 0.000000 0.000000 0.000000 0.000000 0.000000 0.000000
    1 19.862365 -12.018196 -11.531767 3.152879 -0.280683 -1.332452
    2 -0.071920 -8.498731 -0.104139 -0.085591 0.063645 -0.925066
    3 -5.102076 -1.764963 0.322289 -1.446615 -0.040519 -0.172534
    4 -5.756672 -17.218551 -6.890553 -0.652974 0.299293 -0.601109
    5 0.096946 -8.450418 -0.009361 0.301051 0.033814 0.361313
    6 4.892712 -0.604068 1.165447 -0.294468 -3.136914 0.375296
    7 -24.896226 -25.388874 -146.277262 0.060050 0.180093 3.157834
    8 -24.867078 -26.185746 0.780968 1.010061 -0.181033 -2.986119
    9 -0.488517 -2.755600 -0.228261 -0.554275 -0.077695 -0.184816
    10 0.039887 -1.479790 0.029853 -1.688303 0.000000 0.000000
    11 0.028785 -1.075733 -0.023111 -1.188986 0.000000 0.000000
    12 0.250028 -2.820663 -0.238396 -0.624469 -0.087856 -0.177210
    13 -0.049759 -1.680546 0.100480 -1.822879 0.000000 -0.000002
    14 -0.034141 -1.148310 0.084779 -1.231236 0.000000 0.000000
    15 0.957766 -2.746775 -0.090300 -0.196405 -0.161174 -0.073421
    16 -0.033419 -1.397129 -0.011255 -1.507262 0.000000 -0.000001
    17 -0.022360 -0.957434 0.018783 -1.181193 0.000000 0.000000
    18 -1.180680 -2.507215 -0.193861 -0.264231 0.107072 -0.142275
    19 -0.024966 -1.123932 0.017594 -1.379609 0.000000 0.000001
    20 -0.020058 -0.890965 0.010091 -1.219224 0.303570 -0.062931
    21 0.583510 -1.197275 0.185377 0.966054 -0.980733 -0.837984
    22 1.535926 0.010246 0.005008 -0.492690 -0.171425 -0.747663
    23 1.100770 0.004526 -0.010676 0.158936 0.009058 -0.802012
    24 0.002961 -0.089330 -0.105271 -2.832690 -0.003247 -1.473441
    25 -4.117985 7.821144 -1.739704 -1.570562 0.002683 -1.028880
    26 0.447952 -2.798983 -0.200442 -1.267633 -0.030015 0.262098
    27 -0.032909 -1.480204 0.004936 -1.189828 0.000000 0.000002
    28 -0.027022 -1.076920 -0.020212 -1.132357 0.000000 0.000000
    29 -0.249534 -2.846960 -0.174215 -1.094511 -0.012757 0.297798
    30 0.043235 -1.683941 0.096014 -1.463724 0.002823 -0.000167
    31 0.031729 -1.160830 0.058836 -1.087348 0.000642 0.008372
    32 -0.963867 -2.785143 -0.085346 -0.955154 0.061462 0.020715
    33 0.028479 -1.403067 0.006271 -1.279909 0.000000 0.000000
    34 0.021414 -0.957779 0.020047 -0.964041 0.000000 0.000000
    35 1.164475 -2.543938 -0.170328 -1.177771 -0.015164 0.298745
    36 0.024033 -1.129042 0.017806 -0.716164 0.000000 0.000001
    37 0.014896 -0.883989 -0.019845 -1.010357 0.000000 0.000000
    38 -0.586770 -1.264477 0.200164 -0.148053 -0.938107 -2.541444
    39 1.522835 0.058681 0.016850 0.193191 -0.230743 0.579813
    40 1.117948 0.048424 -0.005764 -0.022882 -0.010553 1.194827
    41 0.094983 -0.111698 0.014397 -0.119192 0.402614 1.611548
    42 -2.631789 8.108686 -4.216118 1.533962 -0.484899 -1.425535
  time 3
    0 0.000000 0.000000 0.000000 0.000000 0.000000 0.000000
    1 19.710017 -11.947881 -11.477078 3.100412 -0.261152 -1.391126
    2 -0.071920 -8.498731 -0.104139 -0.080944 0.065998 -0.875431
    3 -5.102076 -1.764963 0.322289 -1.446615 -0.040519 -0.172534
    4 3.392045 -17.163862 -12.777451 -0.078643 0.492513 0.955588
    5 0.096946 -8.450418 -0.009361 0.408632 0.054065 0.403305
    6 4.892712 -0.604068 1.165447 -0.294468 -3.136914 0.375296
    7 -24.896226 -25.388874 -146.277262 0.060050 0.180093 3.157834
    8 -18.999712 -24.463643 -0.187812 1.010061 -0.181033 -2.986119
    9 -0.488517 -2.755600 -0.228261 -0.554275 -0.077695 -0.184816
    10 0.039887 -1.479790 0.029853 -1.688303 0.000000 0.000000
    11 0.028785 -1.075733 -0.023111 -1.188986 0.000000 0.000000
    12 0.250028 -2.820663 -0.238396 -0.624469 -0.087856 -0.177210
    13 -0.049759 -1.680546 0.100480 -1.822879 0.000000 -0.000002
    14 -0.034141 -1.148310 0.084779 -1.231236 0.000000 0.000000
    15 0.957766 -2.746775 -0.090300 -0.196405 -0.161174 -0.073421
    16 -0.033419 -1.397129 -0.011255 -1.507262 0.000000 -0.000001
    17 -0.022360 -0.957434 0.018783 -1.181193 0.000000 0.000000
    18 -1.180680 -2.507215 -0.193861 -0.264231 0.107072 -0.142275
    19 -0.024966 -1.123932 0.017594 -1.379609 0.000000 0.000001
    20 -0.020058 -0.890965 0.010091 -1.219224 0.303570 -0.062931
    21 0.583510 -1.197275 0.185377 0.966054 -0.980733 -0.837984
    22 1.535926 0.010246 0.005008 -0.492690 -0.171425 -0.747663
    23 1.100770 0.004526 -0.010676 0.158936 0.009058 -0.802012
    24 0.002961 -0.089330 -0.105271 -2.832690 -0.003247 -1.473441
    25 -5.278177 7.618013 -2.134247 -1.570562 0.002683 -0.912154
    26 0.447952 -2.798983 -0.200442 -1.267633 -0.030015 0.262098
    27 -0.032909 -1.480204 0.004936 -1.189828 0.000000 0.000002
    28 -0.027022 -1.076920 -0.020212 -1.132357 0.000000 0.000000
    29 -0.249534 -2.846960 -0.174215 -1.094511 -0.012757 0.297798
    30 0.043235 -1.683941 0.096014 -1.463724 0.002823 -0.000167
    31 0.031729 -1.160830 0.058836 -1.087348 0.000642 0.008372
    32 -0.963867 -2.785143 -0.085346 -0.955154 0.061462 0.020715
    33 0.028479 -1.403067 0.006271 -1.279909 0.000000 0.000000
    34 0.021414 -0.957779 0.020047 -0.964041 0.000000 0.000000
    35 1.164475 -2.543938 -0.170328 -1.177771 -0.015164 0.298745
    36 0.024033 -1.129042 0.017806 -0.716164 0.000000 0.000001
    37 0.014896 -0.883989 -0.019845 -1.010357 0.000000 0.000000
    38 -0.586770 -1.264477 0.200164 -0.148053 -0.938107 -2.541444
    39 1.522835 0.058681 0.016850 0.193191 -0.230743 0.579813
    40 1.117948 0.048424 -0.005764 -0.022882 -0.010553 1.194827
    41 0.094983 -0.111698 0.014397 -0.119192 0.402614 1.611548
    42 -2.831014 7.850866 -4.427062 1.541404 -0.518238 -1.392601
  time 4
    0 0.000000 0.000000 0.000000 0.000000 0.000000 0.000000
    1 19.288129 -11.748656 -11.324729 3.040042 -0.206633 -1.552068
    2 -0.071920 -8.498731 -0.104139 -0.075354 0.068826 -0.815729
    3 -5.102076 -1.764963 0.322289 -1.446615 -0.040519 -0.172534
    4 11.150094 -17.132611 -15.949423 0.203758 0.592087 1.735112
    5 0.096946 -8.450418 -0.009361 0.516176 0.081119 0.429884
    6 4.892712 -0.604068 1.165447 -0.294468 -3.136914 0.375296
    7 -24.896226 -25.388874 -146.277262 0.060050 0.180093 3.157834
    8 -4.331295 -20.171332 -2.609761 1.010061 -0.181033 -2.986119
    9 -0.488517 -2.755600 -0.228261 -0.554275 -0.077695 -0.184816
    10 0.039887 -1.479790 0.029853 -1.688303 0.000000 0.000000
    11 0.028785 -1.075733 -0.023111 -1.188986 0.000000 0.000000
    12 0.250028 -2.820663 -0.238396 -0.624469 -0.087856 -0.177210
    13 -0.049759 -1.680546 0.100480 -1.822879 0.000000 -0.000002
    14 -0.034141 -1.148310 0.084779 -1.231236 0.000000 0.000000
    15 0.957766 -2.746775 -0.090300 -0.196405 -0.161174 -0.073421
    16 -0.033419 -1.397129 -0.011255 -1.507262 0.000000 -0.000001
    17 -0.022360 -0.957434 0.018783 -1.181193 0.000000 0.000000
    18 -1.180680 -2.507215 -0.193861 -0.264231 0.107072 -0.142275
    19 -0.024966 -1.123932 0.017594 -1.379609 0.000000 0.000001
    20 -0.020058 -0.890965 0.010091 -1.219224 0.303570 -0.062931
    21 0.583510 -1.197275 0.185377 0.966054 -0.980733 -0.837984
    22 1.535926 0.010246 0.005008 -0.492690 -0.171425 -0.747663
    23 1.100770 0.004526 -0.010676 0.158936 0.009058 -0.802012
    24 0.002961 -0.089330 -0.105271 -2.832690 -0.003247 -1.473441
    25 -5.723503 7.539885 -2.294408 -1.570562 0.002683 -0.867009
    26 0.447952 -2.798983 -0.200442 -1.267633 -0.030015 0.262098
    27 -0.032909 -1.480204 0.004936 -1.189828 0.000000 0.000002
    28 -0.027022 -1.076920 -0.020212 -1.132357 0.000000 0.000000
    29 -0.249534 -2.846960 -0.174215 -1.094511 -0.012757 0.297798
    30 0.043235 -1.683941 0.096014 -1.463724 0.002823 -0.000167
    31 0.031729 -1.160830 0.058836 -1.087348 0.000642 0.008372
    32 -0.963867 -2.785143 -0.085346 -0.955154 0.061462 0.020715
    33 0.028479 -1.403067 0.006271 -1.279909 0.000000 0.000000
    34 0.021414 -0.957779 0.020047 -0.964041 0.000000 0.000000
    35 1.164475 -2.543938 -0.170328 -1.177771 -0.015164 0.298745
    36 0.024033 -1.129042 0.017806 -0.716164 0.000000 0.000001
    37 0.014896 -0.883989 -0.019845 -1.010357 0.000000 0.000000
    38 -0.586770 -1.264477 0.200164 -0.148053 -0.938107 -2.541444
    39 1.522835 0.058681 0.016850 0.193191 -0.230743 0.579813
    40 1.117948 0.048424 -0.005764 -0.022882 -0.010553 1.194827
    41 0.094983 -0.111698 0.014397 -0.119192 0.402614 1.611548
    42 -3.038051 7.577420 -4.614568 1.549131 -0.546979 -1.356986
  time 5
    0 0.000000 0.000000 0.000000 0.000000 0.000000 0.000000
    1 18.655297 -11.455679 -11.098160 -0.167011 -3.018276 1.349073
    2 -0.071920 -8.498731 -0.104139 -0.068972 0.072061 -0.747780
    3 -5.102076 -1.764963 0.322289 -1.446615 -0.040519 -0.172534
    4 16.865112 -17.132611 -15.949423 0.201182 0.599641 1.732668
    5 0.096946 -8.450418 -0.009361 0.565080 0.109502 0.439173
    6 4.892712 -0.604068 1.165447 -0.294468 -3.136914 0.375296
    7 -24.896226 -25.388874 -146.277262 0.060050 0.180093 3.157834
    8 14.735693 -14.584206 -5.758294 1.010061 -0.181033 -2.986119
    9 -0.488517 -2.755600 -0.228261 -0.554275 -0.077695 -0.184816
    10 0.039887 -1.479790 0.029853 -1.688303 0.000000 0.000000
    11 0.028785 -1.075733 -0.023111 -1.188986 0.000000 0.000000
    12 0.250028 -2.820663 -0.238396 -0.624469 -0.087856 -0.177210
    13 -0.049759 -1.680546 0.100480 -1.822879 0.000000 -0.000002
    14 -0.034141 -1.148310 0.084779 -1.231236 0.000000 0.000000
    15 0.957766 -2.746775 -0.090300 -0.196405 -0.161174 -0.073421
    16 -0.033419 -1.397129 -0.011255 -1.507262 0.000000 -0.000001
    17 -0.022360 -0.957434 0.018783 -1.181193 0.000000 0.000000
    18 -1.180680 -2.507215 -0.193861 -0.264231 0.107072 -0.142275
    19 -0.024966 -1.123932 0.017594 -1.379609 0.000000 0.000001
    20 -0.020058 -0.890965 0.010091 -1.219224 0.303570 -0.062931
    21 0.583510 -1.197275 0.185377 0.966054 -0.980733 -0.837984
    22 1.535926 0.010246 0.005008 -0.492690 -0.171425 -0.747663
    23 1.100770 0.004526 -0.010676 0.158936 0.009058 -0.802012
    24 0.002961 -0.089330 -0.105271 -2.832690 -0.003247 -1.473441
    25 -5.625844 7.559417 -2.228000 -1.570562 0.002683 -0.872780
    26 0.447952 -2.798983 -0.200442 -1.267633 -0.030015 0.262098
    27 -0.032909 -1.480204 0.004936 -1.189828 0.000000 0.000002
    28 -0.027022 -1.076920 -0.020212 -1.132357 0.000000 0.000000
    29 -0.249534 -2.846960 -0.174215 -1.094511 -0.012757 0.297798
    30 0.043235 -1.683941 0.096014 -1.463724 0.002823 -0.000167
    31 0.031729 -1.160830 0.058836 -1.087348 0.000642 0.008372
    32 -0.963867 -2.785143 -0.085346 -0.955154 0.061462 0.020715
    33 0.028479 -1.403067 0.006271 -1.279909 0.000000 0.000000
    34 0.021414 -0.957779 0.020047 -0.964041 0.000000 0.000000
    35 1.164475 -2.543938 -0.170328 -1.177771 -0.015164 0.298745
    36 0.024033 -1.129042 0.017806 -0.716164 0.000000 0.000001
    37 0.014896 -0.883989 -0.019845 -1.010357 0.000000 0.000000
    38 -0.586770 -1.264477 0.200164 -0.148053 -0.938107 -2.541444
    39 1.522835 0.058681 0.016850 0.193191 -0.230743 0.579813
    40 1.117948 0.048424 -0.005764 -0.022882 -0.010553 1.194827
    41 0.094983 -0.111698 0.014397 -0.119192 0.402614 1.611548
    42 -3.245089 7.296161 -4.774729 1.557049 -0.571600 -1.319935
  time 6
    0 0.000000 0.000000 0.000000 0.000000 0.000000 0.000000
    1 17.877930 -11.092386 -10.816901 -0.235094 -3.124148 1.051832
    2 -0.071920 -8.498731 -0.104139 -0.062001 0.075590 -0.673440
    3 -5.102076 -1.764963 0.322289 -1.446615 -0.040519 -0.172534
    4 22.099647 -17.132611 -15.949423 0.191994 0.604270 1.720070
    5 0.096946 -8.450418 -0.009361 0.465031 0.138237 0.436770
    6 4.892712 -0.604068 1.165447 -0.294468 -3.136914 0.375296
    7 -24.896226 -25.388874 -146.277262 0.060050 0.180093 3.157834
    8 33.802681 -8.997081 -8.910734 1.010061 -0.181033 -2.986119
    9 -0.488517 -2.755600 -0.228261 -0.554275 -0.077695 -0.184816
    10 0.039887 -1.479790 0.029853 -1.688303 0.000000 0.000000
    11 0.028785 -1.075733 -0.023111 -1.188986 0.000000 0.000000
    12 0.250028 -2.820663 -0.238396 -0.624469 -0.087856 -0.177210
    13 -0.049759 -1.680546 0.100480 -1.822879 0.000000 -0.000002
    14 -0.034141 -1.148310 0.084779 -1.231236 0.000000 0.000000
    15 0.957766 -2.746775 -0.090300 -0.196405 -0.161174 -0.073421
    16 -0.033419 -1.397129 -0.011255 -1.507262 0.000000 -0.000001
    17 -0.022360 -0.957434 0.018783 -1.181193 0.000000 0.000000
    18 -1.180680 -2.507215 -0.193861 -0.264231 0.107072 -0.142275
    19 -0.024966 -1.123932 0.017594 -1.379609 0.000000 0.000001
    20 -0.020058 -0.890965 0.010091 -1.219224 0.303570 -0.062931
    21 0.583510 -1.197275 0.185377 0.966054 -0.980733 -0.837984
    22 1.535926 0.010246 0.005008 -0.492690 -0.171425 -0.747663
    23 1.100770 0.004526 -0.010676 0.158936 0.009058 -0.802012
    24 0.002961 -0.089330 -0.105271 -2.832690 -0.003247 -1.473441
    25 -5.352398 7.614106 -2.052213 -1.570562 0.002683 -0.889070
    26 0.447952 -2.798983 -0.200442 -1.267633 -0.030015 0.262098
    27 -0.032909 -1.480204 0.004936 -1.189828 0.000000 0.000002
    28 -0.027022 -1.076920 -0.020212 -1.132357 0.000000 0.000000
    29 -0.249534 -2.846960 -0.174215 -1.094511 -0.012757 0.297798
    30 0.043235 -1.683941 0.096014 -1.463724 0.002823 -0.000167
    31 0.031729 -1.160830 0.058836 -1.087348 0.000642 0.008372
    32 -0.963867 -2.785143 -0.085346 -0.955154 0.061462 0.020715
    33 0.028479 -1.403067 0.006271 -1.279909 0.000000 0.000000
    34 0.021414 -0.957779 0.020047 -0.964041 0.000000 0.000000
    35 1.164475 -2.543938 -0.170328 -1.177771 -0.015164 0.298745
    36 0.024033 -1.129042 0.017806 -0.716164 0.000000 0.000001
    37 0.014896 -0.883989 -0.019845 -1.010357 0.000000 0.000000
    38 -0.586770 -1.264477 0.200164 -0.148053 -0.938107 -2.541444
    39 1.522835 0.058681 0.016850 0.193191 -0.230743 0.579813
    40 1.117948 0.048424 -0.005764 -0.022882 -0.010553 1.194827
    41 0.094983 -0.111698 0.014397 -0.119192 0.402614 1.611548
    42 -3.448220 7.014903 -4.911452 1.564872 -0.592198 -1.282596
  time 7
    0 0.000000 0.000000 0.000000 0.000000 0.000000 0.000000
    1 17.006809 -10.686124 -10.504392 -0.302892 -3.246459 0.720502
    2 -0.071920 -8.498731 -0.104139 -0.054609 0.079346 -0.594497
    3 -5.102076 -1.764963 0.322289 -1.446615 -0.040519 -0.172534
    4 25.931795 -17.132611 -15.949423 0.173963 0.606626 1.688953
    5 0.096946 -8.450418 -0.009361 0.214964 0.169435 0.430118
    6 4.892712 -0.604068 1.165447 -0.294468 -3.136914 0.375296
    7 -24.896226 -25.388874 -146.277262 0.060050 0.180093 3.157834
    8 48.471097 -4.698296 -11.332683 1.010061 -0.181033 -2.986119
    9 -0.488517 -2.755600 -0.228261 -0.554275 -0.077695 -0.184816
    10 0.039887 -1.479790 0.029853 -1.688303 0.000000 0.000000
    11 0.028785 -1.075733 -0.023111 -1.188986 0.000000 0.000000
    12 0.250028 -2.820663 -0.238396 -0.624469 -0.087856 -0.177210
    13 -0.049759 -1.680546 0.100480 -1.822879 0.000000 -0.000002
    14 -0.034141 -1.148310 0.084779 -1.231236 0.000000 0.000000
    15 0.957766 -2.746775 -0.090300 -0.196405 -0.161174 -0.073421
    16 -0.033419 -1.397129 -0.011255 -1.507262 0.000000 -0.000001
    17 -0.022360 -0.957434 0.018783 -1.181193 0.000000 0.000000
    18 -1.180680 -2.507215 -0.193861 -0.264231 0.107072 -0.142275
    19 -0.024966 -1.123932 0.017594 -1.379609 0.000000 0.000001
    20 -0.020058 -0.890965 0.010091 -1.219224 0.303570 -0.062931
    21 0.583510 -1.197275 0.185377 0.966054 -0.980733 -0.837984
    22 1.535926 0.010246 0.005008 -0.492690 -0.171425 -0.747663
    23 1.100770 0.004526 -0.010676 0.158936 0.009058 -0.802012
    24 0.002961 -0.089330 -0.105271 -2.832690 -0.003247 -1.473441
    25 -4.942229 7.696140 -1.798299 -1.570562 0.002683 -0.914761
    26 0.447952 -2.798983 -0.200442 -1.267633 -0.030015 0.262098
    27 -0.032909 -1.480204 0.004936 -1.189828 0.000000 0.000002
    28 -0.027022 -1.076920 -0.020212 -1.132357 0.000000 0.000000
    29 -0.249534 -2.846960 -0.174215 -1.094511 -0.012757 0.297798
    30 0.043235 -1.683941 0.096014 -1.463724 0.002823 -0.000167
    31 0.031729 -1.160830 0.058836 -1.087348 0.000642 0.008372
    32 -0.963867 -2.785143 -0.085346 -0.955154 0.061462 0.020715
    33 0.028479 -1.403067 0.006271 -1.279909 0.000000 0.000000
    34 0.021414 -0.957779 0.020047 -0.964041 0.000000 0.000000
    35 1.164475 -2.543938 -0.170328 -1.177771 -0.015164 0.298745
    36 0.024033 -1.129042 0.017806 -0.716164 0.000000 0.000001
    37 0.014896 -0.883989 -0.019845 -1.010357 0.000000 0.000000
    38 -0.586770 -1.264477 0.200164 -0.148053 -0.938107 -2.541444
    39 1.522835 0.058681 0.016850 0.193191 -0.230743 0.579813
    40 1.117948 0.048424 -0.005764 -0.022882 -0.010553 1.194827
    41 0.094983 -0.111698 0.014397 -0.119192 0.402614 1.611548
    42 -3.639632 6.745363 -5.028643 1.572409 -0.609251 -1.246215
  time 8
    0 0.000000 0.000000 0.000000 0.000000 0.000000 0.000000
    1 16.108344 -10.264236 -10.180163 -0.367737 -3.379025 0.377846
    2 -0.071920 -8.498731 -0.104139 -0.046948 0.083215 -0.512806
    3 -5.102076 -1.764963 0.322289 -1.446615 -0.040519 -0.172534
    4 27.412309 -17.132611 -15.949423 0.144942 0.607194 1.630950
    5 0.096946 -8.450418 -0.009361 -0.110168 0.202041 0.419921
    6 4.892712 -0.604068 1.165447 -0.294468 -3.136914 0.375296
    7 -24.896226 -25.388874 -146.277262 0.060050 0.180093 3.157834
    8 54.338464 -2.982667 -12.301463 1.010061 -0.181033 -2.986119
    9 -0.488517 -2.755600 -0.228261 -0.554275 -0.077695 -0.184816
    10 0.039887 -1.479790 0.029853 -1.688303 0.000000 0.000000
    11 0.028785 -1.075733 -0.023111 -1.188986 0.000000 0.000000
    12 0.250028 -2.820663 -0.238396 -0.624469 -0.087856 -0.177210
    13 -0.049759 -1.680546 0.100480 -1.822879 0.000000 -0.000002
    14 -0.034141 -1.148310 0.084779 -1.231236 0.000000 0.000000
    15 0.957766 -2.746775 -0.090300 -0.196405 -0.161174 -0.073421
    16 -0.033419 -1.397129 -0.011255 -1.507262 0.000000 -0.000001
    17 -0.022360 -0.957434 0.018783 -1.181193 0.000000 0.000000
    18 -1.180680 -2.507215 -0.193861 -0.264231 0.107072 -0.142275
    19 -0.024966 -1.123932 0.017594 -1.379609 0.000000 0.000001
    20 -0.020058 -0.890965 0.010091 -1.219224 0.303570 -0.062931
    21 0.583510 -1.197275 0.185377 0.966054 -0.980733 -0.837984
    22 1.535926 0.010246 0.005008 -0.492690 -0.171425 -0.747663
    23 1.100770 0.004526 -0.010676 0.158936 0.009058 -0.802012
    24 0.002961 -0.089330 -0.105271 -2.832690 -0.003247 -1.473441
    25 -4.430495 7.793799 -1.493603 -1.570562 0.002683 -0.948736
    26 0.447952 -2.798983 -0.200442 -1.267633 -0.030015 0.262098
    27 -0.032909 -1.480204 0.004936 -1.189828 0.000000 0.000002
    28 -0.027022 -1.076920 -0.020212 -1.132357 0.000000 0.000000
    29 -0.249534 -2.846960 -0.174215 -1.094511 -0.012757 0.297798
    30 0.043235 -1.683941 0.096014 -1.463724 0.002823 -0.000167
    31 0.031729 -1.160830 0.058836 -1.087348 0.000642 0.008372
    32 -0.963867 -2.785143 -0.085346 -0.955154 0.061462 0.020715
    33 0.028479 -1.403067 0.006271 -1.279909 0.000000 0.000000
    34 0.021414 -0.957779 0.020047 -0.964041 0.000000 0.000000
    35 1.164475 -2.543938 -0.170328 -1.177771 -0.015164 0.298745
    36 0.024033 -1.129042 0.017806 -0.716164 0.000000 0.000001
    37 0.014896 -0.883989 -0.019845 -1.010357 0.000000 0.000000
    38 -0.586770 -1.264477 0.200164 -0.148053 -0.938107 -2.541444
    39 1.522835 0.058681 0.016850 0.193191 -0.230743 0.579813
    40 1.117948 0.048424 -0.005764 -0.022882 -0.010553 1.194827
    41 0.094983 -0.111698 0.014397 -0.119192 0.402614 1.611548
    42 -3.819325 6.491449 -5.122396 1.579373 -0.622855 -1.212036
  time 9
    0 0.000000 0.000000 0.000000 0.000000 0.000000 0.000000
    1 15.237224 -9.857974 -9.867654 -0.426870 -3.515588 0.046571
    2 -0.071920 -8.498731 -0.104139 -0.039203 0.087151 -0.430187
    3 -5.102076 -1.764963 0.322289 -1.446615 -0.040519 -0.172534
    4 27.115425 -17.027139 -15.890828 0.117123 0.531173 1.522275
    5 0.096946 -8.450418 -0.009361 -0.435336 0.234959 0.406910
    6 4.892712 -0.604068 1.165447 -0.294468 -3.136914 0.375296
    7 -24.896226 -25.388874 -146.277262 0.060050 0.180093 3.157834
    8 54.338464 -2.982667 -12.301463 1.010061 -0.181033 -2.986119
    9 -0.488517 -2.755600 -0.228261 -0.554275 -0.077695 -0.184816
    10 0.039887 -1.479790 0.029853 -1.688303 0.000000 0.000000
    11 0.028785 -1.075733 -0.023111 -1.188986 0.000000 0.000000
    12 0.250028 -2.820663 -0.238396 -0.624469 -0.087856 -0.177210
    13 -0.049759 -1.680546 0.100480 -1.822879 0.000000 -0.000002
    14 -0.034141 -1.148310 0.084779 -1.231236 0.000000 0.000000
    15 0.957766 -2.746775 -0.090300 -0.196405 -0.161174 -0.073421
    16 -0.033419 -1.397129 -0.011255 -1.507262 0.000000 -0.000001
    17 -0.022360 -0.957434 0.018783 -1.181193 0.000000 0.000000
    18 -1.180680 -2.507215 -0.193861 -0.264231 0.107072 -0.142275
    19 -0.024966 -1.123932 0.017594 -1.379609 0.000000 0.000001
    20 -0.020058 -0.890965 0.010091 -1.219224 0.303570 -0.062931
    21 0.583510 -1.197275 0.185377 0.966054 -0.980733 -0.837984
    22 1.535926 0.010246 0.005008 -0.492690 -0.171425 -0.747663
    23 1.100770 0.004526 -0.010676 0.158936 0.009058 -0.802012
    24 0.002961 -0.089330 -0.105271 -2.832690 -0.003247 -1.473441
    25 -3.860165 7.903178 -1.169374 -1.570562 0.002683 -0.989785
    26 0.447952 -2.798983 -0.200442 -1.267633 -0.030015 0.262098
    27 -0.032909 -1.480204 0.004936 -1.189828 0.000000 0.000002
    28 -0.027022 -1.076920 -0.020212 -1.132357 0.000000 0.000000
    29 -0.249534 -2.846960 -0.174215 -1.094511 -0.012757 0.297798
    30 0.043235 -1.683941 0.096014 -1.463724 0.002823 -0.000167
    31 0.031729 -1.160830 0.058836 -1.087348 0.000642 0.008372
    32 -0.963867 -2.785143 -0.085346 -0.955154 0.061462 0.020715
    33 0.028479 -1.403067 0.006271 -1.279909 0.000000 0.000000
    34 0.021414 -0.957779 0.020047 -0.964041 0.000000 0.000000
    35 1.164475 -2.543938 -0.170328 -1.177771 -0.015164 0.298745
    36 0.024033 -1.129042 0.017806 -0.716164 0.000000 0.000001
    37 0.014896 -0.883989 -0.019845 -1.010357 0.000000 0.000000
    38 -0.586770 -1.264477 0.200164 -0.148053 -0.938107 -2.541444
    39 1.522835 0.058681 0.016850 0.193191 -0.230743 0.579813
    40 1.117948 0.048424 -0.005764 -0.022882 -0.010553 1.194827
    41 0.094983 -0.111698 0.014397 -0.119192 0.402614 1.611548
    42 -3.979486 6.264880 -5.200523 1.585574 -0.633297 -1.181304
  time 10
    0 0.000000 0.000000 0.000000 0.000000 0.000000 0.000000
    1 14.459857 -9.494681 -9.590301 -0.477623 -3.650040 -0.250615
    2 -0.071920 -8.498731 -0.104139 -0.031558 0.091020 -0.348496
    3 -5.102076 -1.764963 0.322289 -1.446615 -0.040519 -0.172534
    4 26.259930 -16.730255 -15.726760 0.096344 0.341121 1.355127
    5 0.096946 -8.450418 -0.009361 -0.685440 0.267095 0.391847
    6 4.892712 -0.604068 1.165447 -0.294468 -3.136914 0.375296
    7 -24.896226 -25.388874 -146.277262 0.060050 0.180093 3.157834
    8 54.338464 -2.982667 -12.301463 1.010061 -0.181033 -2.986119
    9 -0.488517 -2.755600 -0.228261 -0.554275 -0.077695 -0.184816
    10 0.039887 -1.479790 0.029853 -1.688303 0.000000 0.000000
    11 0.028785 -1.075733 -0.023111 -1.188986 0.000000 0.000000
    12 0.250028 -2.820663 -0.238396 -0.624469 -0.087856 -0.177210
    13 -0.049759 -1.680546 0.100480 -1.822879 0.000000 -0.000002
    14 -0.034141 -1.148310 0.084779 -1.231236 0.000000 0.000000
    15 0.957766 -2.746775 -0.090300 -0.196405 -0.161174 -0.073421
    16 -0.033419 -1.397129 -0.011255 -1.507262 0.000000 -0.000001
    17 -0.022360 -0.957434 0.018783 -1.181193 0.000000 0.000000
    18 -1.180680 -2.507215 -0.193861 -0.264231 0.107072 -0.142275
    19 -0.024966 -1.123932 0.017594 -1.379609 0.000000 0.000001
    20 -0.020058 -0.890965 0.010091 -1.219224 0.303570 -0.062931
    21 0.583510 -1.197275 0.185377 0.966054 -0.980733 -0.837984
    22 1.535926 0.010246 0.005008 -0.492690 -0.171425 -0.747663
    23 1.100770 0.004526 -0.010676 0.158936 0.009058 -0.802012
    24 0.002961 -0.089330 -0.105271 -2.832690 -0.003247 -1.473441
    25 -3.266397 8.016462 -0.856864 -1.570562 0.002683 -1.036699
    26 0.447952 -2.798983 -0.200442 -1.267633 -0.030015 0.262098
    27 -0.032909 -1.480204 0.004936 -1.189828 0.000000 0.000002
    28 -0.027022 -1.076920 -0.020212 -1.132357 0.000000 0.000000
    29 -0.249534 -2.846960 -0.174215 -1.094511 -0.012757 0.297798
    30 0.043235 -1.683941 0.096014 -1.463724 0.002823 -0.000167
    31 0.031729 -1.160830 0.058836 -1.087348 0.000642 0.008372
    32 -0.963867 -2.785143 -0.085346 -0.955154 0.061462 0.020715
    33 0.028479 -1.403067 0.006271 -1.279909 0.000000 0.000000
    34 0.021414 -0.957779 0.020047 -0.964041 0.000000 0.000000
    35 1.164475 -2.543938 -0.170328 -1.177771 -0.015164 0.298745
    36 0.024033 -1.129042 0.017806 -0.716164 0.000000 0.000001
    37 0.014896 -0.883989 -0.019845 -1.010357 0.000000 0.000000
    38 -0.586770 -1.264477 0.200164 -0.148053 -0.938107 -2.541444
    39 1.522835 0.058681 0.016850 0.193191 -0.230743 0.579813
    40 1.117948 0.048424 -0.005764 -0.022882 -0.010553 1.194827
    41 0.094983 -0.111698 0.014397 -0.119192 0.402614 1.611548
    42 -4.108397 6.073468 -5.255212 1.590726 -0.640961 -1.155358
  time 11
    0 0.000000 0.000000 0.000000 0.000000 0.000000 0.000000
    1 13.827025 -9.197797 -9.363732 -0.517235 -3.776197 -0.491060
    2 -0.071920 -8.498731 -0.104139 -0.024150 0.094776 -0.269553
    3 -5.102076 -1.764963 0.322289 -1.446615 -0.040519 -0.172534
    4 24.923952 -16.265397 -15.468940 0.070929 0.094053 1.145769
    5 0.096946 -8.450418 -0.009361 -0.785452 0.297355 0.375496
    6 4.123157 -1.975204 1.485769 -0.205909 -3.251579 0.173687
    7 -24.896226 -25.388874 -146.277262 0.060050 0.180093 3.157834
    8 54.338464 -2.982667 -12.301463 1.010061 -0.181033 -2.986119
    9 -0.488517 -2.755600 -0.228261 -0.554275 -0.077695 -0.184816
    10 0.039887 -1.479790 0.029853 -1.688303 0.000000 0.000000
    11 0.028785 -1.075733 -0.023111 -1.188986 0.000000 0.000000
    12 0.250028 -2.820663 -0.238396 -0.624469 -0.087856 -0.177210
    13 -0.049759 -1.680546 0.100480 -1.822879 0.000000 -0.000002
    14 -0.034141 -1.148310 0.084779 -1.231236 0.000000 0.000000
    15 0.957766 -2.746775 -0.090300 -0.196405 -0.161174 -0.073421
    16 -0.033419 -1.397129 -0.011255 -1.507262 0.000000 -0.000001
    17 -0.022360 -0.957434 0.018783 -1.181193 0.000000 0.000000
    18 -1.180680 -2.507215 -0.193861 -0.264231 0.107072 -0.142275
    19 -0.024966 -1.123932 0.017594 -1.379609 0.000000 0.000001
    20 -0.020058 -0.890965 0.010091 -1.219224 0.303570 -0.062931
    21 0.583510 -1.197275 0.185377 0.966054 -0.980733 -0.837984
    22 1.535926 0.010246 0.005008 -0.492690 -0.171425 -0.747663
    23 1.100770 0.004526 -0.010676 0.158936 0.009058 -0.802012
    24 0.002961 -0.089330 -0.105271 -2.832690 -0.003247 -1.473441
    25 -2.680441 8.121934 -0.587325 -1.570562 0.002683 -1.088360
    26 0.447952 -2.798983 -0.200442 -1.017203 -0.032100 0.289303
    27 -0.032909 -1.480204 0.004936 -1.099074 0.000000 0.000002
    28 -0.027022 -1.076920 -0.020212 -0.965017 0.000000 0.000000
    29 -0.249534 -2.846960 -0.174215 -0.868938 -0.012757 0.297798
    30 0.043235 -1.683941 0.096014 -1.254792 0.002823 -0.000167
    31 0.031729 -1.160830 0.058836 -0.973149 0.000642 0.008372
    32 -0.963867 -2.785143 -0.085346 -0.787565 0.061462 0.020715
    33 0.028479 -1.403067 0.006271 -1.170981 0.000000 0.000000
    34 0.021414 -0.957779 0.020047 -0.882977 0.000000 0.000000
    35 1.164475 -2.543938 -0.170328 -0.947917 -0.015164 0.298745
    36 0.024033 -1.129042 0.017806 -0.670824 0.000000 0.000001
    37 0.014896 -0.883989 -0.019845 -0.874009 0.000000 0.000000
    38 -0.586770 -1.264477 0.200164 -0.144997 -0.856914 -2.548487
    39 1.522835 0.058681 0.016850 0.194422 -0.229400 0.573756
    40 1.117948 0.048424 -0.005764 -0.022594 -0.010840 1.178561
    41 0.094983 -0.111698 0.014397 -0.119192 0.402614 1.611548
    42 -4.209962 5.925026 -5.294276 1.594828 -0.646135 -1.135253
  time 12
    0 0.000000 0.000000 0.000000 0.000000 0.000000 0.000000
    1 13.405137 -9.002479 -9.211384 -0.543040 -3.887800 -0.652001
    2 -0.071920 -8.498731 -0.104139 -0.017179 0.098305 -0.195213
    3 -5.102076 -1.764963 0.322289 -1.446615 -0.040519 -0.172534
    4 23.169992 -15.652097 -15.129086 0.029458 -0.153016 0.910370
    5 0.096946 -8.450418 -0.009361 -0.731956 0.329608 0.361401
    6 2.877026 -4.361995 1.809998 -0.076658 -3.366340 -0.235829
    7 -24.896226 -25.388874 -146.277262 0.060050 0.180093 3.157834
    8 54.338464 -2.982667 -12.301463 1.010061 -0.181033 -2.986119
    9 -0.488517 -2.755600 -0.228261 -0.554275 -0.077695 -0.184816
    10 0.039887 -1.479790 0.029853 -1.688303 0.000000 0.000000
    11 0.028785 -1.075733 -0.023111 -1.188986 0.000000 0.000000
    12 0.250028 -2.820663 -0.238396 -0.624469 -0.087856 -0.177210
    13 -0.049759 -1.680546 0.100480 -1.822879 0.000000 -0.000002
    14 -0.034141 -1.148310 0.084779 -1.231236 0.000000 0.000000
    15 0.957766 -2.746775 -0.090300 -0.196405 -0.161174 -0.073421
    16 -0.033419 -1.397129 -0.011255 -1.507262 0.000000 -0.000001
    17 -0.022360 -0.957434 0.018783 -1.181193 0.000000 0.000000
    18 -1.180680 -2.507215 -0.193861 -0.264231 0.107072 -0.142275
    19 -0.024966 -1.123932 0.017594 -1.379609 0.000000 0.000001
    20 -0.020058 -0.890965 0.010091 -1.219224 0.303570 -0.062931
    21 0.583510 -1.197275 0.185377 0.966054 -0.980733 -0.837984
    22 1.535926 0.010246 0.005008 -0.492690 -0.171425 -0.747663
    23 1.100770 0.004526 -0.010676 0.158936 0.009058 -0.802012
    24 0.002961 -0.089330 -0.105271 -2.832690 -0.003247 -1.473441
    25 -2.149175 8.211781 -0.388100 -1.570562 0.002683 -1.143559
    26 0.447952 -2.798983 -0.200442 -0.466257 -0.036702 0.349154
    27 -0.032909 -1.480204 0.004936 -0.882671 0.000000 0.000002
    28 -0.027022 -1.076920 -0.020212 -0.596879 0.000000 0.000000
    29 -0.249534 -2.846960 -0.174215 -0.372635 -0.012757 0.297798
    30 0.043235 -1.683941 0.096014 -0.795085 0.002823 -0.000167
    31 0.031729 -1.160830 0.058836 -0.721872 0.000642 0.008372
    32 -0.963867 -2.785143 -0.085346 -0.418953 0.061462 0.020715
    33 0.028479 -1.403067 0.006271 -0.911320 0.000000 0.000000
    34 0.021414 -0.957779 0.020047 -0.689488 0.000000 0.000000
    35 1.164475 -2.543938 -0.170328 -0.442265 -0.015164 0.298745
    36 0.024033 -1.129042 0.017806 -0.562594 0.000000 0.000001
    37 0.014896 -0.883989 -0.019845 -0.574043 0.000000 0.000000
    38 -0.586770 -1.264477 0.200164 -0.136488 -0.663287 -2.566788
    39 1.522835 0.058681 0.016850 0.197788 -0.225745 0.557087
    40 1.117948 0.048424 -0.005764 -0.021827 -0.011619 1.133975
    41 0.094983 -0.111698 0.014397 -0.119192 0.402614 1.611548
    42 -4.276371 5.831273 -5.317714 1.597404 -0.649009 -1.122232
  time 13
    0 0.000000 0.000000 0.000000 0.000000 0.000000 0.000000
    1 13.252789 -8.932164 -9.156694 -0.552276 -3.978741 -0.710676
    2 -0.071920 -8.498731 -0.104139 -0.010814 0.101540 -0.127264
    3 -5.102076 -1.764963 0.322289 -1.446615 -0.040519 -0.172534
    4 21.072272 -14.921606 -14.722823 -0.039661 -0.343068 0.664912
    5 0.096946 -8.450418 -0.009361 -0.591711 0.362878 0.345987
    6 2.052782 -6.713629 0.169323 -0.002355 -3.107577 -0.865907
    7 -24.896226 -25.388874 -146.277262 0.060050 0.180093 3.157834
    8 54.338464 -2.982667 -12.301463 1.010061 -0.181033 -2.986119
    9 -0.488517 -2.755600 -0.228261 -0.554275 -0.077695 -0.184816
    10 0.039887 -1.479790 0.029853 -1.688303 0.000000 0.000000
    11 0.028785 -1.075733 -0.023111 -1.188986 0.000000 0.000000
    12 0.250028 -2.820663 -0.238396 -0.624469 -0.087856 -0.177210
    13 -0.049759 -1.680546 0.100480 -1.822879 0.000000 -0.000002
    14 -0.034141 -1.148310 0.084779 -1.231236 0.000000 0.000000
    15 0.957766 -2.746775 -0.090300 -0.196405 -0.161174 -0.073421
    16 -0.033419 -1.397129 -0.011255 -1.507262 0.000000 -0.000001
    17 -0.022360 -0.957434 0.018783 -1.181193 0.000000 0.000000
    18 -1.180680 -2.507215 -0.193861 -0.264231 0.107072 -0.142275
    19 -0.024966 -1.123932 0.017594 -1.379609 0.000000 0.000001
    20 -0.020058 -0.890965 0.010091 -1.219224 0.303570 -0.062931
    21 0.583510 -1.197275 0.185377 0.966054 -0.980733 -0.837984
    22 1.535926 0.010246 0.005008 -0.492690 -0.171425 -0.747663
    23 1.100770 0.004526 -0.010676 0.158936 0.009058 -0.802012
    24 0.002961 -0.089330 -0.105271 -2.832690 -0.003247 -1.473441
    25 -1.707755 8.282096 -0.294347 -1.570562 0.002683 -1.201084
    26 0.447952 -2.798983 -0.200442 0.084688 -0.041292 0.409017
    27 -0.032909 -1.480204 0.004936 -0.624340 0.000000 0.000002
    28 -0.027022 -1.076920 -0.020212 -0.228740 0.000000 0.000000
    29 -0.249534 -2.846960 -0.174215 0.123565 -0.012757 0.297798
    30 0.043235 -1.683941 0.096014 -0.335378 0.002823 -0.000167
    31 0.031729 -1.160830 0.058836 -0.470634 0.000642 0.008372
    32 -0.963867 -2.785143 -0.085346 -0.050308 0.061462 0.020715
    33 0.028479 -1.403067 0.006271 -0.601316 0.000000 0.000000
    34 0.021414 -0.957779 0.020047 -0.457987 0.000000 0.000000
    35 1.164475 -2.543938 -0.170328 0.063340 -0.015164 0.298745
    36 0.024033 -1.129042 0.017806 -0.433445 0.000000 0.000001
    37 0.014896 -0.883989 -0.019845 -0.274078 0.000000 0.000000
    38 -0.586770 -1.264477 0.200164 -0.123545 -0.432168 -2.592173
    39 1.522835 0.058681 0.016850 0.202820 -0.220268 0.532216
    40 1.117948 0.048424 -0.005764 -0.020665 -0.012782 1.067363
    41 0.094983 -0.111698 0.014397 -0.119192 0.402614 1.611548
    42 -4.299809 5.796116 -5.325527 1.598262 -0.649871 -1.117637
  time 14
    0 0.000000 0.000000 0.000000 0.000000 0.000000 0.000000
    1 13.252789 -8.932164 -9.156694 -0.426394 -4.049398 -0.575978
    2 -0.071920 -8.498731 -0.104139 -0.005224 0.104368 -0.067562
    3 -5.102076 -1.764963 0.322289 -1.446615 -0.040519 -0.172534
    4 18.693293 -14.093456 -14.261872 -0.148019 -0.419008 0.425753
    5 0.096946 -8.450418 -0.009361 -0.395067 0.388916 0.319291
    6 1.474639 -7.748817 -0.443977 0.031256 -2.848717 -1.288021
    7 -24.896226 -25.388874 -146.277262 0.060050 0.180093 3.157834
    8 54.338464 -2.982667 -12.301463 1.010061 -0.181033 -2.986119
    9 -0.488517 -2.755600 -0.228261 -0.554275 -0.077695 -0.184816
    10 0.039887 -1.479790 0.029853 -1.688303 0.000000 0.000000
    11 0.028785 -1.075733 -0.023111 -1.188986 0.000000 0.000000
    12 0.250028 -2.820663 -0.238396 -0.624469 -0.087856 -0.177210
    13 -0.049759 -1.680546 0.100480 -1.822879 0.000000 -0.000002
    14 -0.034141 -1.148310 0.084779 -1.231236 0.000000 0.000000
    15 0.957766 -2.746775 -0.090300 -0.196405 -0.161174 -0.073421
    16 -0.033419 -1.397129 -0.011255 -1.507262 0.000000 -0.000001
    17 -0.022360 -0.957434 0.018783 -1.181193 0.000000 0.000000
    18 -1.180680 -2.507215 -0.193861 -0.264231 0.107072 -0.142275
    19 -0.024966 -1.123932 0.017594 -1.379609 0.000000 0.000001
    20 -0.020058 -0.890965 0.010091 -1.219224 0.303570 -0.062931
    21 0.583510 -1.197275 0.185377 0.966054 -0.980733 -0.837984
    22 1.535926 0.010246 0.005008 -0.492690 -0.171425 -0.747663
    23 1.100770 0.004526 -0.010676 0.158936 0.009058 -0.802012
    24 0.002961 -0.089330 -0.105271 -2.832690 -0.003247 -1.473441
    25 -1.301493 8.332878 -0.263096 -1.570562 0.002683 -1.259726
    26 0.447952 -2.798983 -0.200442 0.335067 -0.043390 0.436222
    27 -0.032909 -1.480204 0.004936 -0.407937 0.000000 0.000002
    28 -0.027022 -1.076920 -0.020212 -0.061401 0.000000 0.000000
    29 -0.249534 -2.846960 -0.174215 0.349138 -0.012757 0.297798
    30 0.043235 -1.683941 0.096014 -0.126446 0.002823 -0.000167
    31 0.031729 -1.160830 0.058836 -0.356397 0.000642 0.008372
    32 -0.963867 -2.785143 -0.085346 0.117217 0.061462 0.020715
    33 0.028479 -1.403067 0.006271 -0.341580 0.000000 0.000000
    34 0.021414 -0.957779 0.020047 -0.262890 0.000000 0.000000
    35 1.164475 -2.543938 -0.170328 0.293148 -0.015164 0.298745
    36 0.024033 -1.129042 0.017806 -0.325215 0.000000 0.000001
    37 0.014896 -0.883989 -0.019845 -0.137730 0.000000 0.000000
    38 -0.586770 -1.264477 0.200164 -0.107186 -0.238560 -2.620387
    39 1.522835 0.058681 0.016850 0.209010 -0.213509 0.501436
    40 1.117948 0.048424 -0.005764 -0.019239 -0.014232 0.985016
    41 0.094983 -0.111698 0.014397 -0.119192 0.402614 1.611548
    42 -4.299809 5.796116 -5.325527 1.598262 -0.649871 -1.117637
  time 15
    0 0.000000 0.000000 0.000000 0.000000 0.000000 0.000000
    1 13.264508 -8.932164 -9.156694 -0.111878 -4.104822 -0.239179
    2 -0.071920 -8.498731 -0.104139 -0.000577 0.106721 -0.017927
    3 -5.102076 -1.764963 0.322289 -1.446615 -0.040519 -0.172534
    4 16.111183 -13.194991 -13.761856 -0.293212 -0.404226 0.179543
    5 0.096946 -8.450418 -0.009361 -0.172409 0.399393 0.271291
    6 1.666051 -7.354274 -0.354131 0.013223 -2.864728 -1.195891
    7 -24.896226 -25.388874 -146.277262 0.060050 0.180093 3.157834
    8 54.338464 -2.982667 -12.301463 1.010061 -0.181033 -2.986119
    9 -0.488517 -2.755600 -0.228261 -0.554275 -0.077695 -0.184816
    10 0.039887 -1.479790 0.029853 -1.688303 0.000000 0.000000
    11 0.028785 -1.075733 -0.023111 -1.188986 0.000000 0.000000
    12 0.250028 -2.820663 -0.238396 -0.624469 -0.087856 -0.177210
    13 -0.049759 -1.680546 0.100480 -1.822879 0.000000 -0.000002
    14 -0.034141 -1.148310 0.084779 -1.231236 0.000000 0.000000
    15 0.957766 -2.746775 -0.090300 -0.196405 -0.161174 -0.073421
    16 -0.033419 -1.397129 -0.011255 -1.507262 0.000000 -0.000001
    17 -0.022360 -0.957434 0.018783 -1.181193 0.000000 0.000000
    18 -1.180680 -2.507215 -0.193861 -0.264231 0.107072 -0.142275
    19 -0.024966 -1.123932 0.017594 -1.379609 0.000000 0.000001
    20 -0.020058 -0.890965 0.010091 -1.219224 0.303570 -0.062931
    21 0.583510 -1.197275 0.185377 0.966054 -0.980733 -0.837984
    22 1.535926 0.010246 0.005008 -0.492690 -0.171425 -0.747663
    23 1.100770 0.004526 -0.010676 0.158936 0.009058 -0.802012
    24 0.002961 -0.089330 -0.105271 -2.832690 -0.003247 -1.473441
    25 -0.867886 8.383661 -0.235752 -1.570562 0.002683 -1.318462
    26 0.447952 -2.798983 -0.200442 0.041360 -0.030015 0.262098
    27 -0.032909 -1.480204 0.004936 -0.317183 0.000000 0.000002
    28 -0.027022 -1.076920 -0.020212 -0.521502 0.000000 0.000000
    29 -0.249534 -2.846960 -0.174215 0.127169 -0.012757 0.297798
    30 0.043235 -1.683941 0.096014 -0.591038 0.002823 -0.000167
    31 0.031729 -1.160830 0.058836 -0.563765 0.000642 0.008372
    32 -0.963867 -2.785143 -0.085346 -0.169753 0.061462 0.020715
    33 0.028479 -1.403067 0.006271 -0.232726 0.000000 0.000000
    34 0.021414 -0.957779 0.020047 -0.178612 0.000000 0.000000
    35 1.164475 -2.543938 -0.170328 -0.217854 -0.015164 0.298745
    36 0.024033 -1.129042 0.017806 -0.279831 0.000000 0.000001
    37 0.014896 -0.883989 -0.019845 -0.148817 0.000000 0.000000
    38 -0.586770 -1.264477 0.200164 -0.088442 -0.157368 -2.647257
    39 1.522835 0.058681 0.016850 0.215960 -0.205971 0.467157
    40 1.117948 0.048424 -0.005764 -0.017633 -0.015838 0.893230
    41 0.094983 -0.111698 0.014397 -0.119192 0.402614 1.611548
    42 -4.299809 5.796116 -5.325527 1.598262 -0.649871 -1.117637
  time 16
    0 0.000000 0.000000 0.000000 0.000000 0.000000 0.000000
    1 13.280133 -8.932164 -9.156694 0.296907 -4.146146 0.198562
    2 -0.071920 -8.498731 -0.104139 0.002959 0.108531 0.019787
    3 -5.102076 -1.764963 0.322289 -1.446615 -0.040519 -0.172534
    4 13.388443 -12.245743 -13.234497 -0.462274 -0.362398 -0.093742
    5 0.096946 -8.450418 -0.009361 0.254058 -0.168113 -0.146877
    6 2.154347 -6.334712 -0.123655 -0.033323 -2.905858 -0.958266
    7 -24.896226 -25.388874 -146.277262 0.060050 0.180093 3.157834
    8 54.338464 -2.982667 -12.301463 1.010061 -0.181033 -2.986119
    9 -0.488517 -2.755600 -0.228261 -0.554275 -0.077695 -0.184816
    10 0.039887 -1.479790 0.029853 -1.688303 0.000000 0.000000
    11 0.028785 -1.075733 -0.023111 -1.188986 0.000000 0.000000
    12 0.250028 -2.820663 -0.238396 -0.624469 -0.087856 -0.177210
    13 -0.049759 -1.680546 0.100480 -1.822879 0.000000 -0.000002
    14 -0.034141 -1.148310 0.084779 -1.231236 0.000000 0.000000
    15 0.957766 -2.746775 -0.090300 -0.196405 -0.161174 -0.073421
    16 -0.033419 -1.397129 -0.011255 -1.507262 0.000000 -0.000001
    17 -0.022360 -0.957434 0.018783 -1.181193 0.000000 0.000000
    18 -1.180680 -2.507215 -0.193861 -0.264231 0.107072 -0.142275
    19 -0.024966 -1.123932 0.017594 -1.379609 0.000000 0.000001
    20 -0.020058 -0.890965 0.010091 -1.219224 0.303570 -0.062931
    21 0.583510 -1.197275 0.185377 0.966054 -0.980733 -0.837984
    22 1.535926 0.010246 0.005008 -0.492690 -0.171425 -0.747663
    23 1.100770 0.004526 -0.010676 0.158936 0.009058 -0.802012
    24 0.002961 -0.089330 -0.105271 -2.832690 -0.003247 -1.473441
    25 -0.418653 8.430538 -0.216220 -1.570562 0.002683 -1.375987
    26 0.447952 -2.798983 -0.200442 -0.069851 -0.030015 0.262098
    27 -0.032909 -1.480204 0.004936 -0.329897 0.000000 0.000002
    28 -0.027022 -1.076920 -0.020212 -0.591969 0.000000 0.000000
    29 -0.249534 -2.846960 -0.174215 0.104514 -0.012757 0.297798
    30 0.043235 -1.683941 0.096014 -0.580206 0.002823 -0.000167
    31 0.031729 -1.160830 0.058836 -0.613402 0.000642 0.008372
    32 -0.963867 -2.785143 -0.085346 -0.149615 0.061462 0.020715
    33 0.028479 -1.403067 0.006271 -0.232874 0.000000 0.000000
    34 0.021414 -0.957779 0.020047 -0.175122 0.000000 0.000000
    35 1.164475 -2.543938 -0.170328 -0.316403 -0.015164 0.298745
    36 0.024033 -1.129042 0.017806 -0.286220 0.000000 0.000001
    37 0.014896 -0.883989 -0.019845 -0.180111 0.000000 0.000000
    38 -0.586770 -1.264477 0.200164 -0.063250 -0.214933 -2.676815
    39 1.522835 0.058681 0.016850 0.223127 -0.198169 0.431672
    40 1.117948 0.048424 -0.005764 -0.015991 -0.017504 0.798296
    41 0.094983 -0.111698 0.014397 -0.119192 0.402614 1.611548
    42 -4.299809 5.796116 -5.325527 1.598262 -0.649871 -1.117637
  time 17
    0 0.000000 0.000000 0.000000 0.000000 0.000000 0.000000
    1 13.303571 -8.932164 -9.156694 0.705787 -4.174423 0.636357
    2 -0.071920 -8.498731 -0.104139 0.005215 0.109662 0.043757
    3 -5.102076 -1.764963 0.322289 -1.446615 -0.040519 -0.172534
    4 10.599296 -11.276964 -12.691511 -0.650569 -0.297342 -0.388084
    5 0.096946 -8.450418 -0.009361 0.567726 -0.735658 -0.534070
    6 2.822336 -4.936231 0.192761 -0.096957 -2.962232 -0.633379
    7 -24.896226 -25.388874 -146.277262 0.060050 0.180093 3.157834
    8 54.338464 -2.982667 -12.301463 1.010061 -0.181033 -2.986119
    9 -0.488517 -2.755600 -0.228261 -0.554275 -0.077695 -0.184816
    10 0.039887 -1.479790 0.029853 -1.688303 0.000000 0.000000
    11 0.028785 -1.075733 -0.023111 -1.188986 0.000000 0.000000
    12 0.250028 -2.820663 -0.238396 -0.624469 -0.087856 -0.177210
    13 -0.049759 -1.680546 0.100480 -1.822879 0.000000 -0.000002
    14 -0.034141 -1.148310 0.084779 -1.231236 0.000000 0.000000
    15 0.957766 -2.746775 -0.090300 -0.196405 -0.161174 -0.073421
    16 -0.033419 -1.397129 -0.011255 -1.507262 0.000000 -0.000001
    17 -0.022360 -0.957434 0.018783 -1.181193 0.000000 0.000000
    18 -1.180680 -2.507215 -0.193861 -0.264231 0.107072 -0.142275
    19 -0.024966 -1.123932 0.017594 -1.379609 0.000000 0.000001
    20 -0.020058 -0.890965 0.010091 -1.219224 0.303570 -0.062931
    21 0.583510 -1.197275 0.185377 0.966054 -0.980733 -0.837984
    22 1.535926 0.010246 0.005008 -0.492690 -0.171425 -0.747663
    23 1.100770 0.004526 -0.010676 0.158936 0.009058 -0.802012
    24 0.002961 -0.089330 -0.105271 -2.832690 -0.003247 -1.473441
    25 0.034485 8.473508 -0.196688 -1.570562 0.002683 -1.431185
    26 0.447952 -2.798983 -0.200442 -0.188180 -0.030015 0.262098
    27 -0.032909 -1.480204 0.004936 -0.365535 0.000000 0.000002
    28 -0.027022 -1.076920 -0.020212 -0.660250 0.000000 0.000000
    29 -0.249534 -2.846960 -0.174215 0.094628 -0.012757 0.297798
    30 0.043235 -1.683941 0.096014 -0.553089 0.002823 -0.000167
    31 0.031729 -1.160830 0.058836 -0.664358 0.000642 0.008372
    32 -0.963867 -2.785143 -0.085346 -0.099319 0.061462 0.020715
    33 0.028479 -1.403067 0.006271 -0.233691 0.000000 0.000000
    34 0.021414 -0.957779 0.020047 -0.172517 0.000000 0.000000
    35 1.164475 -2.543938 -0.170328 -0.415093 -0.015164 0.298745
    36 0.024033 -1.129042 0.017806 -0.304032 0.000000 0.000001
    37 0.014896 -0.883989 -0.019845 -0.228485 0.000000 0.000000
    38 -0.586770 -1.264477 0.200164 -0.030532 -0.358865 -2.712510
    39 1.522835 0.058681 0.016850 0.230041 -0.190630 0.397394
    40 1.117948 0.048424 -0.005764 -0.014397 -0.019122 0.706510
    41 0.094983 -0.111698 0.014397 -0.119192 0.402614 1.611548
    42 -4.299809 5.796116 -5.325527 1.598262 -0.649871 -1.117637
  time 18
    0 0.000000 0.000000 0.000000 0.000000 0.000000 0.000000
    1 13.330916 -8.932164 -9.156694 1.020303 -4.190636 0.973157
    2 -0.071920 -8.498731 -0.104139 0.005990 0.110047 0.052131
    3 -5.102076 -1.764963 0.322289 -1.446615 -0.040519 -0.172534
    4 7.806242 -10.304278 -12.152432 -0.853547 -0.213036 -0.697844
    5 0.096946 -8.450418 -0.009361 0.525546 -0.699808 -0.513440
    6 3.548921 -3.416654 0.532615 -0.166256 -3.023495 -0.279346
    7 -24.896226 -25.388874 -146.277262 0.060050 0.180093 3.157834
    8 54.338464 -2.982667 -12.301463 1.010061 -0.181033 -2.986119
    9 -0.488517 -2.755600 -0.228261 -0.554275 -0.077695 -0.184816
    10 0.039887 -1.479790 0.029853 -1.688303 0.000000 0.000000
    11 0.028785 -1.075733 -0.023111 -1.188986 0.000000 0.000000
    12 0.250028 -2.820663 -0.238396 -0.624469 -0.087856 -0.177210
    13 -0.049759 -1.680546 0.100480 -1.822879 0.000000 -0.000002
    14 -0.034141 -1.148310 0.084779 -1.231236 0.000000 0.000000
    15 0.957766 -2.746775 -0.090300 -0.196405 -0.161174 -0.073421
    16 -0.033419 -1.397129 -0.011255 -1.507262 0.000000 -0.000001
    17 -0.022360 -0.957434 0.018783 -1.181193 0.000000 0.000000
    18 -1.180680 -2.507215 -0.193861 -0.264231 0.107072 -0.142275
    19 -0.024966 -1.123932 0.017594 -1.379609 0.000000 0.000001
    20 -0.020058 -0.890965 0.010091 -1.219224 0.303570 -0.062931
    21 0.583510 -1.197275 0.185377 0.966054 -0.980733 -0.837984
    22 1.535926 0.010246 0.005008 -0.492690 -0.171425 -0.747663
    23 1.100770 0.004526 -0.010676 0.158936 0.009058 -0.802012
    24 0.002961 -0.089330 -0.105271 -2.832690 -0.003247 -1.473441
    25 0.471999 8.508665 -0.181063 -1.570562 0.002683 -1.482846
    26 0.447952 -2.798983 -0.200442 -0.311099 -0.030015 0.262098
    27 -0.032909 -1.480204 0.004936 -0.420177 0.000000 0.000002
    28 -0.027022 -1.076920 -0.020212 -0.725849 0.000000 0.000000
    29 -0.249534 -2.846960 -0.174215 0.090097 -0.012757 0.297798
    30 0.043235 -1.683941 0.096014 -0.517760 0.002823 -0.000167
    31 0.031729 -1.160830 0.058836 -0.715842 0.000642 0.008372
    32 -0.963867 -2.785143 -0.085346 -0.033960 0.061462 0.020715
    33 0.028479 -1.403067 0.006271 -0.235399 0.000000 0.000000
    34 0.021414 -0.957779 0.020047 -0.170744 0.000000 0.000000
    35 1.164475 -2.543938 -0.170328 -0.512798 -0.015164 0.298745
    36 0.024033 -1.129042 0.017806 -0.331385 0.000000 0.000001
    37 0.014896 -0.883989 -0.019845 -0.290773 0.000000 0.000000
    38 -0.586770 -1.264477 0.200164 0.004331 -0.546009 -2.749224
    39 1.522835 0.058681 0.016850 0.236231 -0.183859 0.366613
    40 1.117948 0.048424 -0.005764 -0.012959 -0.020560 0.624163
    41 0.094983 -0.111698 0.014397 -0.119192 0.402614 1.611548
    42 -4.299809 5.796116 -5.325527 1.598262 -0.649871 -1.117637
  time 19
    0 0.000000 0.000000 0.000000 0.000000 0.000000 0.000000
    1 13.358261 -8.932164 -9.156694 1.146186 -4.195839 1.107855
    2 -0.071920 -8.498731 -0.104139 -0.006470 0.105681 -0.071109
    3 -5.102076 -1.764963 0.322289 -1.446615 -0.040519 -0.172534
    4 5.083503 -9.355030 -11.625072 -1.066571 -0.113300 -1.016817
    5 0.096946 -8.450418 -0.009361 0.416752 -0.603438 -0.458026
    6 4.216910 -2.018174 0.849031 -0.229890 -3.079869 0.045541
    7 -24.896226 -25.388874 -146.277262 0.060050 0.180093 3.157834
    8 54.338464 -2.982667 -12.301463 1.010061 -0.181033 -2.986119
    9 -0.488517 -2.755600 -0.228261 -0.554275 -0.077695 -0.184816
    10 0.039887 -1.479790 0.029853 -1.688303 0.000000 0.000000
    11 0.028785 -1.075733 -0.023111 -1.188986 0.000000 0.000000
    12 0.250028 -2.820663 -0.238396 -0.624469 -0.087856 -0.177210
    13 -0.049759 -1.680546 0.100480 -1.822879 0.000000 -0.000002
    14 -0.034141 -1.148310 0.084779 -1.231236 0.000000 0.000000
    15 0.957766 -2.746775 -0.090300 -0.196405 -0.161174 -0.073421
    16 -0.033419 -1.397129 -0.011255 -1.507262 0.000000 -0.000001
    17 -0.022360 -0.957434 0.018783 -1.181193 0.000000 0.000000
    18 -1.180680 -2.507215 -0.193861 -0.264231 0.107072 -0.142275
    19 -0.024966 -1.123932 0.017594 -1.379609 0.000000 0.000001
    20 -0.020058 -0.890965 0.010091 -1.219224 0.303570 -0.062931
    21 0.583510 -1.197275 0.185377 0.966054 -0.980733 -0.837984
    22 1.535926 0.010246 0.005008 -0.492690 -0.171425 -0.747663
    23 1.100770 0.004526 -0.010676 0.158936 0.009058 -0.802012
    24 0.002961 -0.089330 -0.105271 -2.832690 -0.003247 -1.473441
    25 0.878261 8.543822 -0.173250 -1.570562 0.002683 -1.529760
    26 0.447952 -2.798983 -0.200442 -0.436237 -0.030015 0.262098
    27 -0.032909 -1.480204 0.004936 -0.490170 0.000000 0.000002
    28 -0.027022 -1.076920 -0.020212 -0.788313 0.000000 0.000000
    29 -0.249534 -2.846960 -0.174215 0.083712 -0.012757 0.297798
    30 0.043235 -1.683941 0.096014 -0.482501 0.002823 -0.000167
    31 0.031729 -1.160830 0.058836 -0.767024 0.000642 0.008372
    32 -0.963867 -2.785143 -0.085346 0.031399 0.061462 0.020715
    33 0.028479 -1.403067 0.006271 -0.238295 0.000000 0.000000
    34 0.021414 -0.957779 0.020047 -0.169581 0.000000 0.000000
    35 1.164475 -2.543938 -0.170328 -0.608250 -0.015164 0.298745
    36 0.024033 -1.129042 0.017806 -0.366353 0.000000 0.000001
    37 0.014896 -0.883989 -0.019845 -0.363934 0.000000 0.000000
    38 -0.586770 -1.264477 0.200164 0.035922 -0.733310 -2.781794
    39 1.522835 0.058681 0.016850 0.241263 -0.178394 0.341742
    40 1.117948 0.048424 -0.005764 -0.011808 -0.021722 0.557550
    41 0.094983 -0.111698 0.014397 -0.119192 0.402614 1.611548
    42 -4.299809 5.796116 -5.325527 1.598262 -0.649871 -1.117637
  time 20
    0 0.000000 0.000000 0.000000 0.000000 0.000000 0.000000
    1 13.389511 -8.932164 -9.156694 1.052488 -4.033788 1.100064
    2 -0.071920 -8.498731 -0.104139 -0.033882 0.096020 -0.342232
    3 -5.102076 -1.764963 0.322289 -1.446615 -0.040519 -0.172534
    4 2.501392 -8.456565 -11.125057 -1.285175 -0.001867 -1.339269
    5 0.096946 -8.450418 -0.009361 0.267983 -0.463399 -0.377440
    6 4.705206 -0.998611 1.079507 -0.276435 -3.120999 0.283166
    7 -24.896226 -25.388874 -146.277262 0.060050 0.180093 3.157834
    8 54.338464 -2.982667 -12.301463 1.010061 -0.181033 -2.986119
    9 -0.488517 -2.755600 -0.228261 -0.554275 -0.077695 -0.184816
    10 0.039887 -1.479790 0.029853 -1.688303 0.000000 0.000000
    11 0.028785 -1.075733 -0.023111 -1.188986 0.000000 0.000000
    12 0.250028 -2.820663 -0.238396 -0.624469 -0.087856 -0.177210
    13 -0.049759 -1.680546 0.100480 -1.822879 0.000000 -0.000002
    14 -0.034141 -1.148310 0.084779 -1.231236 0.000000 0.000000
    15 0.957766 -2.746775 -0.090300 -0.196405 -0.161174 -0.073421
    16 -0.033419 -1.397129 -0.011255 -1.507262 0.000000 -0.000001
    17 -0.022360 -0.957434 0.018783 -1.181193 0.000000 0.000000
    18 -1.180680 -2.507215 -0.193861 -0.264231 0.107072 -0.142275
    19 -0.024966 -1.123932 0.017594 -1.379609 0.000000 0.000001
    20 -0.020058 -0.890965 0.010091 -1.219224 0.303570 -0.062931
    21 0.583510 -1.197275 0.185377 0.966054 -0.980733 -0.837984
    22 1.535926 0.010246 0.005008 -0.492690 -0.171425 -0.747663
    23 1.100770 0.004526 -0.010676 0.158936 0.009058 -0.802012
    24 0.002961 -0.089330 -0.105271 -2.832690 -0.003247 -1.473441
    25 1.245460 8.571167 -0.161531 -1.570562 0.002683 -1.570717
    26 0.447952 -2.798983 -0.200442 -0.561065 -0.030015 0.262098
    27 -0.032909 -1.480204 0.004936 -0.571592 0.000000 0.000002
    28 -0.027022 -1.076920 -0.020212 -0.847104 0.000000 0.000000
    29 -0.249534 -2.846960 -0.174215 0.068008 -0.012757 0.297798
    30 0.043235 -1.683941 0.096014 -0.455314 0.002823 -0.000167
    31 0.031729 -1.160830 0.058836 -0.817114 0.000642 0.008372
    32 -0.963867 -2.785143 -0.085346 0.081695 0.061462 0.020715
    33 0.028479 -1.403067 0.006271 -0.242676 0.000000 0.000000
    34 0.021414 -0.957779 0.020047 -0.169026 0.000000 0.000000
    35 1.164475 -2.543938 -0.170328 -0.700323 -0.015164 0.298745
    36 0.024033 -1.129042 0.017806 -0.407054 0.000000 0.000001
    37 0.014896 -0.883989 -0.019845 -0.444887 0.000000 0.000000
    38 -0.586770 -1.264477 0.200164 0.058837 -0.877593 -2.805100
    39 1.522835 0.058681 0.016850 0.244629 -0.174727 0.325073
    40 1.117948 0.048424 -0.005764 -0.011029 -0.022513 0.512965
    41 0.094983 -0.111698 0.014397 -0.119192 0.402614 1.611548
    42 -4.299809 5.796116 -5.325527 1.598262 -0.649871 -1.117637
  time 21
    0 0.000000 0.000000 0.000000 0.000000 0.000000 0.000000
    1 13.424669 -8.932164 -9.156694 0.810912 -3.615956 1.077302
    2 -0.071920 -8.498731 -0.104139 -0.061294 0.086359 -0.613354
    3 -5.102076 -1.764963 0.322289 -1.446615 -0.040519 -0.172534
    4 0.126320 -7.628415 -10.664106 -1.504639 0.117200 -1.659088
    5 0.096946 -8.450418 -0.009361 0.105840 -0.296423 -0.281411
    6 4.892712 -0.604068 1.165447 -0.294468 -3.136914 0.375296
    7 -24.896226 -25.388874 -146.277262 0.060050 0.180093 3.157834
    8 54.338464 -2.982667 -12.301463 1.010061 -0.181033 -2.986119
    9 -0.488517 -2.755600 -0.228261 -0.554275 -0.077695 -0.184816
    10 0.039887 -1.479790 0.029853 -1.688303 0.000000 0.000000
    11 0.028785 -1.075733 -0.023111 -1.188986 0.000000 0.000000
    12 0.250028 -2.820663 -0.238396 -0.624469 -0.087856 -0.177210
    13 -0.049759 -1.680546 0.100480 -1.822879 0.000000 -0.000002
    14 -0.034141 -1.148310 0.084779 -1.231236 0.000000 0.000000
    15 0.957766 -2.746775 -0.090300 -0.196405 -0.161174 -0.073421
    16 -0.033419 -1.397129 -0.011255 -1.507262 0.000000 -0.000001
    17 -0.022360 -0.957434 0.018783 -1.181193 0.000000 0.000000
    18 -1.180680 -2.507215 -0.193861 -0.264231 0.107072 -0.142275
    19 -0.024966 -1.123932 0.017594 -1.379609 0.000000 0.000001
    20 -0.020058 -0.890965 0.010091 -1.219224 0.303570 -0.062931
    21 0.583510 -1.197275 0.185377 0.966054 -0.980733 -0.837984
    22 1.535926 0.010246 0.005008 -0.492690 -0.171425 -0.747663
    23 1.100770 0.004526 -0.010676 0.158936 0.009058 -0.802012
    24 0.002961 -0.089330 -0.105271 -2.832690 -0.003247 -1.473441
    25 1.554063 8.594605 -0.157624 -1.570562 0.002683 -1.604692
    26 0.447952 -2.798983 -0.200442 -0.683211 -0.030015 0.262098
    27 -0.032909 -1.480204 0.004936 -0.660655 0.000000 0.000002
    28 -0.027022 -1.076920 -0.020212 -0.901770 0.000000 0.000000
    29 -0.249534 -2.846960 -0.174215 0.035724 -0.012757 0.297798
    30 0.043235 -1.683941 0.096014 -0.444481 0.002823 -0.000167
    31 0.031729 -1.160830 0.058836 -0.865319 0.000642 0.008372
    32 -0.963867 -2.785143 -0.085346 0.101800 0.061462 0.020715
    33 0.028479 -1.403067 0.006271 -0.248764 0.000000 0.000000
    34 0.021414 -0.957779 0.020047 -0.168860 0.000000 0.000000
    35 1.164475 -2.543938 -0.170328 -0.787798 -0.015164 0.298745
    36 0.024033 -1.129042 0.017806 -0.451607 0.000000 0.000001
    37 0.014896 -0.883989 -0.019845 -0.530463 0.000000 0.000000
    38 -0.586770 -1.264477 0.200164 0.067681 -0.935744 -2.814024
    39 1.522835 0.058681 0.016850 0.245860 -0.173397 0.319017
    40 1.117948 0.048424 -0.005764 -0.010742 -0.022789 0.496699
    41 0.094983 -0.111698 0.014397 -0.119192 0.402614 1.611548
    42 -4.299809 5.796116 -5.325527 1.598262 -0.649871 -1.117637
  time 22
    0 0.000000 0.000000 0.000000 0.000000 0.000000 0.000000
    1 13.455920 -8.932164 -9.156694 0.480589 -3.044669 1.040616
    2 -0.071920 -8.498731 -0.104139 -0.073754 0.081970 -0.736594
    3 -5.102076 -1.764963 0.322289 -1.446615 -0.040519 -0.172534
    4 -1.975307 -6.897924 -10.257843 1.421023 2.901468 1.171057
    5 0.096946 -8.450418 -0.009361 -0.042929 -0.119439 -0.179580
    6 4.892712 -0.604068 1.165447 -0.294468 -3.136914 0.375296
    7 -24.896226 -25.388874 -146.277262 0.060050 0.180093 3.157834
    8 54.338464 -2.982667 -12.301463 1.010061 -0.181033 -2.986119
    9 -0.488517 -2.755600 -0.228261 -0.554275 -0.077695 -0.184816
    10 0.039887 -1.479790 0.029853 -1.688303 0.000000 0.000000
    11 0.028785 -1.075733 -0.023111 -1.188986 0.000000 0.000000
    12 0.250028 -2.820663 -0.238396 -0.624469 -0.087856 -0.177210
    13 -0.049759 -1.680546 0.100480 -1.822879 0.000000 -0.000002
    14 -0.034141 -1.148310 0.084779 -1.231236 0.000000 0.000000
    15 0.957766 -2.746775 -0.090300 -0.196405 -0.161174 -0.073421
    16 -0.033419 -1.397129 -0.011255 -1.507262 0.000000 -0.000001
    17 -0.022360 -0.957434 0.018783 -1.181193 0.000000 0.000000
    18 -1.180680 -2.507215 -0.193861 -0.264231 0.107072 -0.142275
    19 -0.024966 -1.123932 0.017594 -1.379609 0.000000 0.000001
    20 -0.020058 -0.890965 0.010091 -1.219224 0.303570 -0.062931
    21 0.583510 -1.197275 0.185377 0.966054 -0.980733 -0.837984
    22 1.535926 0.010246 0.005008 -0.492690 -0.171425 -0.747663
    23 1.100770 0.004526 -0.010676 0.158936 0.009058 -0.802012
    24 0.002961 -0.089330 -0.105271 -2.832690 -0.003247 -1.473441
    25 1.792352 8.610231 -0.153718 -1.570562 0.002683 -1.630383
    26 0.447952 -2.798983 -0.200442 -0.800147 -0.030015 0.262098
    27 -0.032909 -1.480204 0.004936 -0.753505 0.000000 0.000002
    28 -0.027022 -1.076920 -0.020212 -0.951856 0.000000 0.000000
    29 -0.249534 -2.846960 -0.174215 -0.045783 -0.012757 0.297798
    30 0.043235 -1.683941 0.096014 -0.488236 0.002823 -0.000167
    31 0.031729 -1.160830 0.058836 -0.910848 0.000642 0.008372
    32 -0.963867 -2.785143 -0.085346 0.056386 0.061462 0.020715
    33 0.028479 -1.403067 0.006271 -0.298514 0.000000 0.000000
    34 0.021414 -0.957779 0.020047 -0.203048 0.000000 0.000000
    35 1.164475 -2.543938 -0.170328 -0.869406 -0.015164 0.298745
    36 0.024033 -1.129042 0.017806 -0.497997 0.000000 0.000001
    37 0.014896 -0.883989 -0.019845 -0.617623 0.000000 0.000000
    38 -0.586770 -1.264477 0.200164 0.058417 -0.936388 -2.802300
    39 1.522835 0.058681 0.016850 0.243580 -0.175853 0.330217
    40 1.117948 0.048424 -0.005764 -0.011269 -0.022274 0.526704
    41 0.094983 -0.111698 0.014397 -0.119192 0.402614 1.611548
    42 -4.299809 5.796116 -5.325527 1.598262 -0.649871 -1.117637
  time 23
    0 0.000000 0.000000 0.000000 0.000000 0.000000 0.000000
    1 13.487171 -8.932164 -9.156694 0.120843 -2.422180 0.990947
    2 -0.071920 -8.498731 -0.104139 -0.067844 0.084052 -0.678170
    3 -5.102076 -1.764963 0.322289 -1.446615 -0.040519 -0.172534
    4 -3.725360 -6.288530 -9.917989 1.213495 2.778503 0.874176
    5 0.096946 -8.450418 -0.009361 -0.151760 0.050859 -0.081675
    6 4.892712 -0.604068 1.165447 -0.294468 -3.136914 0.375296
    7 -24.896226 -25.388874 -146.277262 0.060050 0.180093 3.157834
    8 54.338464 -2.982667 -12.301463 1.010061 -0.181033 -2.986119
    9 -0.488517 -2.755600 -0.228261 -0.554275 -0.077695 -0.184816
    10 0.039887 -1.479790 0.029853 -1.688303 0.000000 0.000000
    11 0.028785 -1.075733 -0.023111 -1.188986 0.000000 0.000000
    12 0.250028 -2.820663 -0.238396 -0.624469 -0.087856 -0.177210
    13 -0.049759 -1.680546 0.100480 -1.822879 0.000000 -0.000002
    14 -0.034141 -1.148310 0.084779 -1.231236 0.000000 0.000000
    15 0.957766 -2.746775 -0.090300 -0.196405 -0.161174 -0.073421
    16 -0.033419 -1.397129 -0.011255 -1.507262 0.000000 -0.000001
    17 -0.022360 -0.957434 0.018783 -1.181193 0.000000 0.000000
    18 -1.180680 -2.507215 -0.193861 -0.264231 0.107072 -0.142275
    19 -0.024966 -1.123932 0.017594 -1.379609 0.000000 0.000001
    20 -0.020058 -0.890965 0.010091 -1.219224 0.303570 -0.062931
    21 0.583510 -1.197275 0.185377 0.966054 -0.980733 -0.837984
    22 1.535926 0.010246 0.005008 -0.492690 -0.171425 -0.747663
    23 1.100770 0.004526 -0.010676 0.158936 0.009058 -0.802012
    24 0.002961 -0.089330 -0.105271 -2.832690 -0.003247 -1.473441
    25 1.944700 8.621950 -0.153718 -1.570562 0.002683 -1.646672
    26 0.447952 -2.798983 -0.200442 -0.909449 -0.030015 0.262098
    27 -0.032909 -1.480204 0.004936 -0.846356 0.000000 0.000002
    28 -0.027022 -1.076920 -0.020212 -0.996827 0.000000 0.000000
    29 -0.249534 -2.846960 -0.174215 -0.189283 -0.012757 0.297798
    30 0.043235 -1.683941 0.096014 -0.603711 0.002823 -0.000167
    31 0.031729 -1.160830 0.058836 -0.952872 0.000642 0.008372
    32 -0.963867 -2.785143 -0.085346 -0.063316 0.061462 0.020715
    33 0.028479 -1.403067 0.006271 -0.417912 0.000000 0.000000
    34 0.021414 -0.957779 0.020047 -0.293088 0.000000 0.000000
    35 1.164475 -2.543938 -0.170328 -0.944022 -0.015164 0.298745
    36 0.024033 -1.129042 0.017806 -0.544432 0.000000 0.000001
    37 0.014896 -0.883989 -0.019845 -0.703199 0.000000 0.000000
    38 -0.586770 -1.264477 0.200164 0.033969 -0.936916 -2.771427
    39 1.522835 0.058681 0.016850 0.237643 -0.182349 0.359763
    40 1.117948 0.048424 -0.005764 -0.012647 -0.020884 0.605771
    41 0.094983 -0.111698 0.014397 -0.119192 0.402614 1.611548
    42 -4.299809 5.796116 -5.325527 1.598262 -0.649871 -1.117637
  time 24
    0 0.000000 0.000000 0.000000 0.000000 0.000000 0.000000
    1 13.518422 -8.932164 -9.156694 -0.209480 -1.850968 0.929289
    2 -0.071920 -8.498731 -0.104139 -0.053077 0.089255 -0.532110
    3 -5.102076 -1.764963 0.322289 -1.446615 -0.040519 -0.172534
    4 -5.065245 -5.819766 -9.660169 1.018674 2.659436 0.597601
    5 0.096946 -8.450418 -0.009361 -0.193940 0.197545 0.002720
    6 4.892712 -0.604068 1.165447 -0.294468 -3.136914 0.375296
    7 -24.896226 -25.388874 -146.277262 0.060050 0.180093 3.157834
    8 54.338464 -2.982667 -12.301463 1.010061 -0.181033 -2.986119
    9 -0.488517 -2.755600 -0.228261 -0.554275 -0.077695 -0.184816
    10 0.039887 -1.479790 0.029853 -1.688303 0.000000 0.000000
    11 0.028785 -1.075733 -0.023111 -1.188986 0.000000 0.000000
    12 0.250028 -2.820663 -0.238396 -0.624469 -0.087856 -0.177210
    13 -0.049759 -1.680546 0.100480 -1.822879 0.000000 -0.000002
    14 -0.034141 -1.148310 0.084779 -1.231236 0.000000 0.000000
    15 0.957766 -2.746775 -0.090300 -0.196405 -0.161174 -0.073421
    16 -0.033419 -1.397129 -0.011255 -1.507262 0.000000 -0.000001
    17 -0.022360 -0.957434 0.018783 -1.181193 0.000000 0.000000
    18 -1.180680 -2.507215 -0.193861 -0.264231 0.107072 -0.142275
    19 -0.024966 -1.123932 0.017594 -1.379609 0.000000 0.000001
    20 -0.020058 -0.890965 0.010091 -1.219224 0.303570 -0.062931
    21 0.583510 -1.197275 0.185377 0.966054 -0.980733 -0.837984
    22 1.535926 0.010246 0.005008 -0.492690 -0.171425 -0.747663
    23 1.100770 0.004526 -0.010676 0.158936 0.009058 -0.802012
    24 0.002961 -0.089330 -0.105271 -2.832690 -0.003247 -1.473441
    25 1.999389 8.625856 -0.153718 -1.570562 0.002683 -1.652350
    26 0.447952 -2.798983 -0.200442 -1.008692 -0.030015 0.262098
    27 -0.032909 -1.480204 0.004936 -0.935419 0.000000 0.000002
    28 -0.027022 -1.076920 -0.020212 -1.036228 0.000000 0.000000
    29 -0.249534 -2.846960 -0.174215 -0.372326 -0.012757 0.297798
    30 0.043235 -1.683941 0.096014 -0.766977 0.002823 -0.000167
    31 0.031729 -1.160830 0.058836 -0.990637 0.000642 0.008372
    32 -0.963867 -2.785143 -0.085346 -0.232607 0.061462 0.020715
    33 0.028479 -1.403067 0.006271 -0.583346 0.000000 0.000000
    34 0.021414 -0.957779 0.020047 -0.420475 0.000000 0.000000
    35 1.164475 -2.543938 -0.170328 -1.010472 -0.015164 0.298745
    36 0.024033 -1.129042 0.017806 -0.588984 0.000000 0.000001
    37 0.014896 -0.883989 -0.019845 -0.784109 0.000000 0.000000
    38 -0.586770 -1.264477 0.200164 -0.000583 -0.937326 -2.727770
    39 1.522835 0.058681 0.016850 0.229209 -0.191541 0.401539
    40 1.117948 0.048424 -0.005764 -0.014589 -0.018918 0.717590
    41 0.094983 -0.111698 0.014397 -0.119192 0.402614 1.611548
    42 -4.299809 5.796116 -5.325527 1.598262 -0.649871 -1.117637
  time 25
    0 0.000000 0.000000 0.000000 0.000000 0.000000 0.000000
    1 13.549673 -8.932164 -9.156694 -0.451056 -1.433135 0.856636
    2 -0.071920 -8.498731 -0.104139 -0.033882 0.096020 -0.342232
    3 -5.102076 -1.764963 0.322289 -1.446615 -0.040519 -0.172534
    4 -5.912927 -5.522882 -9.492195 0.841369 2.548003 0.347255
    5 0.096946 -8.450418 -0.009361 0.247260 0.345286 0.087702
    6 4.892712 -0.604068 1.165447 -0.294468 -3.136914 0.375296
    7 -24.896226 -25.388874 -146.277262 0.060050 0.180093 3.157834
    8 54.338464 -2.982667 -12.301463 1.010061 -0.181033 -2.986119
    9 -0.488517 -2.755600 -0.228261 -0.554275 -0.077695 -0.184816
    10 0.039887 -1.479790 0.029853 -1.688303 0.000000 0.000000
    11 0.028785 -1.075733 -0.023111 -1.188986 0.000000 0.000000
    12 0.250028 -2.820663 -0.238396 -0.624469 -0.087856 -0.177210
    13 -0.049759 -1.680546 0.100480 -1.822879 0.000000 -0.000002
    14 -0.034141 -1.148310 0.084779 -1.231236 0.000000 0.000000
    15 0.957766 -2.746775 -0.090300 -0.196405 -0.161174 -0.073421
    16 -0.033419 -1.397129 -0.011255 -1.507262 0.000000 -0.000001
    17 -0.022360 -0.957434 0.018783 -1.181193 0.000000 0.000000
    18 -1.180680 -2.507215 -0.193861 -0.264231 0.107072 -0.142275
    19 -0.024966 -1.123932 0.017594 -1.379609 0.000000 0.000001
    20 -0.020058 -0.890965 0.010091 -1.219224 0.303570 -0.062931
    21 0.583510 -1.197275 0.185377 0.966054 -0.980733 -0.837984
    22 1.535926 0.010246 0.005008 -0.492690 -0.171425 -0.747663
    23 1.100770 0.004526 -0.010676 0.158936 0.009058 -0.802012
    24 0.002961 -0.089330 -0.105271 -2.832690 -0.003247 -1.473441
    25 1.999389 8.625856 -0.153718 -1.570562 0.002683 -1.652350
    26 0.447952 -2.798983 -0.200442 -1.095350 -0.030015 0.262098
    27 -0.032909 -1.480204 0.004936 -1.016841 0.000000 0.000002
    28 -0.027022 -1.076920 -0.020212 -1.069522 0.000000 0.000000
    29 -0.249534 -2.846960 -0.174215 -0.572464 -0.012757 0.297798
    30 0.043235 -1.683941 0.096014 -0.954103 0.002823 -0.000167
    31 0.031729 -1.160830 0.058836 -1.023351 0.000642 0.008372
    32 -0.963867 -2.785143 -0.085346 -0.426661 0.061462 0.020715
    33 0.028479 -1.403067 0.006271 -0.771428 0.000000 0.000000
    34 0.021414 -0.957779 0.020047 -0.566423 0.000000 0.000000
    35 1.164475 -2.543938 -0.170328 -1.067490 -0.015164 0.298745
    36 0.024033 -1.129042 0.017806 -0.629685 0.000000 0.000001
    37 0.014896 -0.883989 -0.019845 -0.857313 0.000000 0.000000
    38 -0.586770 -1.264477 0.200164 -0.040192 -0.937638 -2.677734
    39 1.522835 0.058681 0.016850 0.219544 -0.202064 0.449400
    40 1.117948 0.048424 -0.005764 -0.016818 -0.016677 0.845763
    41 0.094983 -0.111698 0.014397 -0.119192 0.402614 1.611548
    42 -4.299809 5.796116 -5.325527 1.598262 -0.649871 -1.117637
  time 26
    0 0.000000 0.000000 0.000000 0.000000 0.000000 0.000000
    1 13.577017 -8.932164 -9.156694 -0.544754 -1.271085 0.774038
    2 -0.071920 -8.498731 -0.104139 -0.014670 0.102785 -0.152353
    3 -5.102076 -1.764963 0.322289 -1.446615 -0.040519 -0.172534
    4 -6.213717 -5.421316 -9.437506 0.685959 2.448266 0.129154
    5 0.096946 -8.450418 -0.009361 0.688387 0.428285 0.135467
    6 4.892712 -0.604068 1.165447 -0.294468 -3.136914 0.375296
    7 -24.896226 -25.388874 -146.277262 0.060050 0.180093 3.157834
    8 54.338464 -2.982667 -12.301463 1.010061 -0.181033 -2.986119
    9 -0.488517 -2.755600 -0.228261 -0.554275 -0.077695 -0.184816
    10 0.039887 -1.479790 0.029853 -1.688303 0.000000 0.000000
    11 0.028785 -1.075733 -0.023111 -1.188986 0.000000 0.000000
    12 0.250028 -2.820663 -0.238396 -0.624469 -0.087856 -0.177210
    13 -0.049759 -1.680546 0.100480 -1.822879 0.000000 -0.000002
    14 -0.034141 -1.148310 0.084779 -1.231236 0.000000 0.000000
    15 0.957766 -2.746775 -0.090300 -0.196405 -0.161174 -0.073421
    16 -0.033419 -1.397129 -0.011255 -1.507262 0.000000 -0.000001
    17 -0.022360 -0.957434 0.018783 -1.181193 0.000000 0.000000
    18 -1.180680 -2.507215 -0.193861 -0.264231 0.107072 -0.142275
    19 -0.024966 -1.123932 0.017594 -1.379609 0.000000 0.000001
    20 -0.020058 -0.890965 0.010091 -1.219224 0.303570 -0.062931
    21 0.583510 -1.197275 0.185377 0.966054 -0.980733 -0.837984
    22 1.535926 0.010246 0.005008 -0.492690 -0.171425 -0.747663
    23 1.100770 0.004526 -0.010676 0.158936 0.009058 -0.802012
    24 0.002961 -0.089330 -0.105271 -2.832690 -0.003247 -1.473441
    25 1.999389 8.625856 -0.153718 -1.570562 0.002683 -1.652350
    26 0.447952 -2.798983 -0.200442 -1.167048 -0.030015 0.262098
    27 -0.032909 -1.480204 0.004936 -1.086766 0.000000 0.000002
    28 -0.027022 -1.076920 -0.020212 -1.096298 0.000000 0.000000
    29 -0.249534 -2.846960 -0.174215 -0.767195 -0.012757 0.297798
    30 0.043235 -1.683941 0.096014 -1.141228 0.002823 -0.000167
    31 0.031729 -1.160830 0.058836 -1.050148 0.000642 0.008372
    32 -0.963867 -2.785143 -0.085346 -0.620715 0.061462 0.020715
    33 0.028479 -1.403067 0.006271 -0.958619 0.000000 0.000000
    34 0.021414 -0.957779 0.020047 -0.712427 0.000000 0.000000
    35 1.164475 -2.543938 -0.170328 -1.113949 -0.015164 0.298745
    36 0.024033 -1.129042 0.017806 -0.664653 0.000000 0.000001
    37 0.014896 -0.883989 -0.019845 -0.919601 0.000000 0.000000
    38 -0.586770 -1.264477 0.200164 -0.079801 -0.937853 -2.627684
    39 1.522835 0.058681 0.016850 0.209879 -0.212598 0.497290
    40 1.117948 0.048424 -0.005764 -0.019047 -0.014424 0.973936
    41 0.094983 -0.111698 0.014397 -0.119192 0.402614 1.611548
    42 -4.299809 5.796116 -5.325527 1.598262 -0.649871 -1.117637
  time 27
    0 0.000000 0.000000 0.000000 0.000000 0.000000 0.000000
    1 13.596549 -8.932164 -9.156694 -0.436868 -1.432532 0.627130
    2 -0.071920 -8.498731 -0.104139 0.000097 0.107988 -0.006293
    3 -5.102076 -1.764963 0.322289 -1.446615 -0.040519 -0.172534
    4 -6.209811 -5.421316 -9.437506 0.557166 2.363961 -0.050780
    5 0.096946 -8.450418 -0.009361 0.618430 0.422459 0.070236
    6 4.892712 -0.604068 1.165447 -0.294468 -3.136914 0.375296
    7 -24.896226 -25.388874 -146.277262 0.060050 0.180093 3.157834
    8 54.338464 -2.982667 -12.301463 1.010061 -0.181033 -2.986119
    9 -0.488517 -2.755600 -0.228261 -0.554275 -0.077695 -0.184816
    10 0.039887 -1.479790 0.029853 -1.688303 0.000000 0.000000
    11 0.028785 -1.075733 -0.023111 -1.188986 0.000000 0.000000
    12 0.250028 -2.820663 -0.238396 -0.624469 -0.087856 -0.177210
    13 -0.049759 -1.680546 0.100480 -1.822879 0.000000 -0.000002
    14 -0.034141 -1.148310 0.084779 -1.231236 0.000000 0.000000
    15 0.957766 -2.746775 -0.090300 -0.196405 -0.161174 -0.073421
    16 -0.033419 -1.397129 -0.011255 -1.507262 0.000000 -0.000001
    17 -0.022360 -0.957434 0.018783 -1.181193 0.000000 0.000000
    18 -1.180680 -2.507215 -0.193861 -0.264231 0.107072 -0.142275
    19 -0.024966 -1.123932 0.017594 -1.379609 0.000000 0.000001
    20 -0.020058 -0.890965 0.010091 -1.219224 0.303570 -0.062931
    21 0.583510 -1.197275 0.185377 0.966054 -0.980733 -0.837984
    22 1.535926 0.010246 0.005008 -0.492690 -0.171425 -0.747663
    23 1.100770 0.004526 -0.010676 0.158936 0.009058 -0.802012
    24 0.002961 -0.089330 -0.105271 -2.832690 -0.003247 -1.473441
    25 1.999389 8.625856 -0.153718 -1.570562 0.002683 -1.652350
    26 0.447952 -2.798983 -0.200442 -1.221312 -0.030015 0.262098
    27 -0.032909 -1.480204 0.004936 -1.141475 0.000000 0.000002
    28 -0.027022 -1.076920 -0.020212 -1.115978 0.000000 0.000000
    29 -0.249534 -2.846960 -0.174215 -0.934071 -0.012757 0.297798
    30 0.043235 -1.683941 0.096014 -1.304494 0.002823 -0.000167
    31 0.031729 -1.160830 0.058836 -1.070275 0.000642 0.008372
    32 -0.963867 -2.785143 -0.085346 -0.789974 0.061462 0.020715
    33 0.028479 -1.403067 0.006271 -1.121455 0.000000 0.000000
    34 0.021414 -0.957779 0.020047 -0.839758 0.000000 0.000000
    35 1.164475 -2.543938 -0.170328 -1.148629 -0.015164 0.298745
    36 0.024033 -1.129042 0.017806 -0.692006 0.000000 0.000001
    37 0.014896 -0.883989 -0.019845 -0.967975 0.000000 0.000000
    38 -0.586770 -1.264477 0.200164 -0.114353 -0.938009 -2.584027
    39 1.522835 0.058681 0.016850 0.201444 -0.221778 0.539066
    40 1.117948 0.048424 -0.005764 -0.020988 -0.012470 1.085755
    41 0.094983 -0.111698 0.014397 -0.119192 0.402614 1.611548
    42 -4.299809 5.796116 -5.325527 1.598262 -0.649871 -1.117637
  time 28
    0 0.000000 0.000000 0.000000 0.000000 0.000000 0.000000
    1 13.612175 -8.932164 -9.156694 -0.199481 -1.787701 0.417349
    2 -0.071920 -8.498731 -0.104139 0.005990 0.110047 0.052131
    3 -5.102076 -1.764963 0.322289 -1.446615 -0.040519 -0.172534
    4 -6.194185 -5.421316 -9.437506 0.459455 2.298905 -0.186623
    5 0.096946 -8.450418 -0.009361 0.488436 0.411630 -0.050935
    6 4.892712 -0.604068 1.165447 -0.294468 -3.136914 0.375296
    7 -24.896226 -25.388874 -146.277262 0.060050 0.180093 3.157834
    8 54.338464 -2.982667 -12.301463 1.010061 -0.181033 -2.986119
    9 -0.488517 -2.755600 -0.228261 -0.554275 -0.077695 -0.184816
    10 0.039887 -1.479790 0.029853 -1.688303 0.000000 0.000000
    11 0.028785 -1.075733 -0.023111 -1.188986 0.000000 0.000000
    12 0.250028 -2.820663 -0.238396 -0.624469 -0.087856 -0.177210
    13 -0.049759 -1.680546 0.100480 -1.822879 0.000000 -0.000002
    14 -0.034141 -1.148310 0.084779 -1.231236 0.000000 0.000000
    15 0.957766 -2.746775 -0.090300 -0.196405 -0.161174 -0.073421
    16 -0.033419 -1.397129 -0.011255 -1.507262 0.000000 -0.000001
    17 -0.022360 -0.957434 0.018783 -1.181193 0.000000 0.000000
    18 -1.180680 -2.507215 -0.193861 -0.264231 0.107072 -0.142275
    19 -0.024966 -1.123932 0.017594 -1.379609 0.000000 0.000001
    20 -0.020058 -0.890965 0.010091 -1.219224 0.303570 -0.062931
    21 0.583510 -1.197275 0.185377 0.966054 -0.980733 -0.837984
    22 1.535926 0.010246 0.005008 -0.492690 -0.171425 -0.747663
    23 1.100770 0.004526 -0.010676 0.158936 0.009058 -0.802012
    24 0.002961 -0.089330 -0.105271 -2.832690 -0.003247 -1.473441
    25 1.999389 8.625856 -0.153718 -1.570562 0.002683 -1.652350
    26 0.447952 -2.798983 -0.200442 -1.255666 -0.030015 0.262098
    27 -0.032909 -1.480204 0.004936 -1.177114 0.000000 0.000002
    28 -0.027022 -1.076920 -0.020212 -1.128190 0.000000 0.000000
    29 -0.249534 -2.846960 -0.174215 -1.050642 -0.012757 0.297798
    30 0.043235 -1.683941 0.096014 -1.419969 0.002823 -0.000167
    31 0.031729 -1.160830 0.058836 -1.082976 0.000642 0.008372
    32 -0.963867 -2.785143 -0.085346 -0.909708 0.061462 0.020715
    33 0.028479 -1.403067 0.006271 -1.236397 0.000000 0.000000
    34 0.021414 -0.957779 0.020047 -0.929854 0.000000 0.000000
    35 1.164475 -2.543938 -0.170328 -1.170263 -0.015164 0.298745
    36 0.024033 -1.129042 0.017806 -0.709818 0.000000 0.000001
    37 0.014896 -0.883989 -0.019845 -0.999269 0.000000 0.000000
    38 -0.586770 -1.264477 0.200164 -0.138789 -0.938087 -2.553154
    39 1.522835 0.058681 0.016850 0.195471 -0.228274 0.568612
    40 1.117948 0.048424 -0.005764 -0.022355 -0.011080 1.164822
    41 0.094983 -0.111698 0.014397 -0.119192 0.402614 1.611548
    42 -4.299809 5.796116 -5.325527 1.598262 -0.649871 -1.117637
  time 29
    0 0.000000 0.000000 0.000000 0.000000 0.000000 0.000000
    1 13.623894 -8.932164 -9.156694 0.037905 -2.142871 0.229335
    2 -0.071920 -8.498731 -0.104139 0.005990 0.110047 0.052131
    3 -5.102076 -1.764963 0.322289 -1.446615 -0.040519 -0.172534
    4 -6.155122 -5.421316 -9.437506 0.397462 2.257077 -0.272547
    5 0.096946 -8.450418 -0.009361 0.418479 0.405844 -0.116166
    6 4.892712 -0.604068 1.165447 -0.294468 -3.136914 0.375296
    7 -24.896226 -25.388874 -146.277262 0.060050 0.180093 3.157834
    8 54.338464 -2.982667 -12.301463 1.010061 -0.181033 -2.986119
    9 -0.488517 -2.755600 -0.228261 -0.554275 -0.077695 -0.184816
    10 0.039887 -1.479790 0.029853 -1.688303 0.000000 0.000000
    11 0.028785 -1.075733 -0.023111 -1.188986 0.000000 0.000000
    12 0.250028 -2.820663 -0.238396 -0.624469 -0.087856 -0.177210
    13 -0.049759 -1.680546 0.100480 -1.822879 0.000000 -0.000002
    14 -0.034141 -1.148310 0.084779 -1.231236 0.000000 0.000000
    15 0.957766 -2.746775 -0.090300 -0.196405 -0.161174 -0.073421
    16 -0.033419 -1.397129 -0.011255 -1.507262 0.000000 -0.000001
    17 -0.022360 -0.957434 0.018783 -1.181193 0.000000 0.000000
    18 -1.180680 -2.507215 -0.193861 -0.264231 0.107072 -0.142275
    19 -0.024966 -1.123932 0.017594 -1.379609 0.000000 0.000001
    20 -0.020058 -0.890965 0.010091 -1.219224 0.303570 -0.062931
    21 0.583510 -1.197275 0.185377 0.966054 -0.980733 -0.837984
    22 1.535926 0.010246 0.005008 -0.492690 -0.171425 -0.747663
    23 1.100770 0.004526 -0.010676 0.158936 0.009058 -0.802012
    24 0.002961 -0.089330 -0.105271 -2.832690 -0.003247 -1.473441
    25 1.999389 8.625856 -0.153718 -1.570562 0.002683 -1.652350
    26 0.447952 -2.798983 -0.200442 -1.267633 -0.030015 0.262098
    27 -0.032909 -1.480204 0.004936 -1.189828 0.000000 0.000002
    28 -0.027022 -1.076920 -0.020212 -1.132357 0.000000 0.000000
    29 -0.249534 -2.846960 -0.174215 -1.094511 -0.012757 0.297798
    30 0.043235 -1.683941 0.096014 -1.463724 0.002823 -0.000167
    31 0.031729 -1.160830 0.058836 -1.087348 0.000642 0.008372
    32 -0.963867 -2.785143 -0.085346 -0.955154 0.061462 0.020715
    33 0.028479 -1.403067 0.006271 -1.279909 0.000000 0.000000
    34 0.021414 -0.957779 0.020047 -0.964041 0.000000 0.000000
    35 1.164475 -2.543938 -0.170328 -1.177771 -0.015164 0.298745
    36 0.024033 -1.129042 0.017806 -0.716164 0.000000 0.000001
    37 0.014896 -0.883989 -0.019845 -1.010357 0.000000 0.000000
    38 -0.586770 -1.264477 0.200164 -0.148053 -0.938107 -2.541444
    39 1.522835 0.058681 0.016850 0.193191 -0.230743 0.579813
    40 1.117948 0.048424 -0.005764 -0.022882 -0.010553 1.194827
    41 0.094983 -0.111698 0.014397 -0.119192 0.402614 1.611548
    42 -4.299809 5.796116 -5.325527 1.598262 -0.649871 -1.117637
  time 30
    0 0.000000 0.000000 0.000000 0.000000 0.000000 0.000000
    1 13.627800 -8.932164 -9.156694 0.145791 -2.304318 0.147898
    2 -0.071920 -8.498731 -0.104139 0.005990 0.110047 0.052131
    3 -5.102076 -1.764963 0.322289 -1.446615 -0.040519 -0.172534
    4 -6.073088 -5.421316 -9.437506 0.375825 2.242295 -0.302442
    5 0.096946 -8.450418 -0.009361 0.418479 0.405844 -0.116166
    6 4.892712 -0.604068 1.165447 -0.294468 -3.136914 0.375296
    7 -24.896226 -25.388874 -146.277262 0.060050 0.180093 3.157834
    8 54.338464 -2.982667 -12.301463 1.010061 -0.181033 -2.986119
    9 -0.488517 -2.755600 -0.228261 -0.554275 -0.077695 -0.184816
    10 0.039887 -1.479790 0.029853 -1.688303 0.000000 0.000000
    11 0.028785 -1.075733 -0.023111 -1.188986 0.000000 0.000000
    12 0.250028 -2.820663 -0.238396 -0.624469 -0.087856 -0.177210
    13 -0.049759 -1.680546 0.100480 -1.822879 0.000000 -0.000002
    14 -0.034141 -1.148310 0.084779 -1.231236 0.000000 0.000000
    15 0.957766 -2.746775 -0.090300 -0.196405 -0.161174 -0.073421
    16 -0.033419 -1.397129 -0.011255 -1.507262 0.000000 -0.000001
    17 -0.022360 -0.957434 0.018783 -1.181193 0.000000 0.000000
    18 -1.180680 -2.507215 -0.193861 -0.264231 0.107072 -0.142275
    19 -0.024966 -1.123932 0.017594 -1.379609 0.000000 0.000001
    20 -0.020058 -0.890965 0.010091 -1.219224 0.303570 -0.062931
    21 0.583510 -1.197275 0.185377 0.966054 -0.980733 -0.837984
    22 1.535926 0.010246 0.005008 -0.492690 -0.171425 -0.747663
    23 1.100770 0.004526 -0.010676 0.158936 0.009058 -0.802012
    24 0.002961 -0.089330 -0.105271 -2.832690 -0.003247 -1.473441
    25 1.999389 8.625856 -0.153718 -1.570562 0.002683 -1.652350
    26 0.447952 -2.798983 -0.200442 -1.267633 -0.030015 0.262098
    27 -0.032909 -1.480204 0.004936 -1.189828 0.000000 0.000002
    28 -0.027022 -1.076920 -0.020212 -1.132357 0.000000 0.000000
    29 -0.249534 -2.846960 -0.174215 -1.094511 -0.012757 0.297798
    30 0.043235 -1.683941 0.096014 -1.463724 0.002823 -0.000167
    31 0.031729 -1.160830 0.058836 -1.087348 0.000642 0.008372
    32 -0.963867 -2.785143 -0.085346 -0.955154 0.061462 0.020715
    33 0.028479 -1.403067 0.006271 -1.279909 0.000000 0.000000
    34 0.021414 -0.957779 0.020047 -0.964041 0.000000 0.000000
    35 1.164475 -2.543938 -0.170328 -1.177771 -0.015164 0.298745
    36 0.024033 -1.129042 0.017806 -0.716164 0.000000 0.000001
    37 0.014896 -0.883989 -0.019845 -1.010357 0.000000 0.000000
    38 -0.586770 -1.264477 0.200164 -0.148053 -0.938107 -2.541444
    39 1.522835 0.058681 0.016850 0.193191 -0.230743 0.579813
    40 1.117948 0.048424 -0.005764 -0.022882 -0.010553 1.194827
    41 0.094983 -0.111698 0.014397 -0.119192 0.402614 1.611548
    42 -4.299809 5.796116 -5.325527 1.598262 -0.649871 -1.117637
  time 31
    0 0.000000 0.000000 0.000000 0.000000 0.000000 0.000000
    1 13.530141 -8.932164 -9.156694 0.145791 -2.304318 0.147898
    2 -0.071920 -8.498731 -0.104139 0.005990 0.110047 0.052131
    3 -5.102076 -1.764963 0.322289 -1.446615 -0.040519 -0.172534
    4 -5.873863 -5.421316 -9.437506 0.375825 2.242295 -0.302442
    5 0.096946 -8.450418 -0.009361 0.418479 0.405844 -0.116166
    6 4.892712 -0.604068 1.165447 -0.294468 -3.136914 0.375296
    7 -24.896226 -25.388874 -146.277262 0.060050 0.180093 3.157834
    8 54.338464 -2.982667 -12.301463 1.010061 -0.181033 -2.986119
    9 -0.488517 -2.755600 -0.228261 -0.554275 -0.077695 -0.184816
    10 0.039887 -1.479790 0.029853 -1.688303 0.000000 0.000000
    11 0.028785 -1.075733 -0.023111 -1.188986 0.000000 0.000000
    12 0.250028 -2.820663 -0.238396 -0.624469 -0.087856 -0.177210
    13 -0.049759 -1.680546 0.100480 -1.822879 0.000000 -0.000002
    14 -0.034141 -1.148310 0.084779 -1.231236 0.000000 0.000000
    15 0.957766 -2.746775 -0.090300 -0.196405 -0.161174 -0.073421
    16 -0.033419 -1.397129 -0.011255 -1.507262 0.000000 -0.000001
    17 -0.022360 -0.957434 0.018783 -1.181193 0.000000 0.000000
    18 -1.180680 -2.507215 -0.193861 -0.264231 0.107072 -0.142275
    19 -0.024966 -1.123932 0.017594 -1.379609 0.000000 0.000001
    20 -0.020058 -0.890965 0.010091 -1.219224 0.303570 -0.062931
    21 0.583510 -1.197275 0.185377 0.966054 -0.980733 -0.837984
    22 1.535926 0.010246 0.005008 -0.492690 -0.171425 -0.747663
    23 1.100770 0.004526 -0.010676 0.158936 0.009058 -0.802012
    24 0.002961 -0.089330 -0.105271 -2.832690 -0.003247 -1.473441
    25 1.999389 8.625856 -0.153718 -1.570562 0.002683 -1.652350
    26 0.447952 -2.798983 -0.200442 -1.267633 -0.030015 0.262098
    27 -0.032909 -1.480204 0.004936 -1.189828 0.000000 0.000002
    28 -0.027022 -1.076920 -0.020212 -1.132357 0.000000 0.000000
    29 -0.249534 -2.846960 -0.174215 -1.094511 -0.012757 0.297798
    30 0.043235 -1.683941 0.096014 -1.463724 0.002823 -0.000167
    31 0.031729 -1.160830 0.058836 -1.087348 0.000642 0.008372
    32 -0.963867 -2.785143 -0.085346 -0.955154 0.061462 0.020715
    33 0.028479 -1.403067 0.006271 -1.279909 0.000000 0.000000
    34 0.021414 -0.957779 0.020047 -0.964041 0.000000 0.000000
    35 1.164475 -2.543938 -0.170328 -1.177771 -0.015164 0.298745
    36 0.024033 -1.129042 0.017806 -0.716164 0.000000 0.000001
    37 0.014896 -0.883989 -0.019845 -1.010357 0.000000 0.000000
    38 -0.586770 -1.264477 0.200164 -0.148053 -0.938107 -2.541444
    39 1.522835 0.058681 0.016850 0.193191 -0.230743 0.579813
    40 1.117948 0.048424 -0.005764 -0.022882 -0.010553 1.194827
    41 0.094983 -0.111698 0.014397 -0.119192 0.402614 1.611548
    42 -4.299809 5.796116 -5.325527 1.598262 -0.649871 -1.117637
  time 32
    0 0.000000 0.000000 0.000000 0.000000 0.000000 0.000000
    1 13.350448 -8.932164 -9.156694 0.145791 -2.304318 0.147898
    2 -0.071920 -8.498731 -0.104139 0.005990 0.110047 0.052131
    3 -5.102076 -1.764963 0.322289 -1.446615 -0.040519 -0.172534
    4 -5.604324 -5.421316 -9.437506 0.375825 2.242295 -0.302442
    5 0.096946 -8.450418 -0.009361 0.418479 0.405844 -0.116166
    6 4.892712 -0.604068 1.165447 -0.294468 -3.136914 0.375296
    7 -24.896226 -25.388874 -146.277262 0.060050 0.180093 3.157834
    8 54.338464 -2.982667 -12.301463 1.010061 -0.181033 -2.986119
    9 -0.488517 -2.755600 -0.228261 -0.554275 -0.077695 -0.184816
    10 0.039887 -1.479790 0.029853 -1.688303 0.000000 0.000000
    11 0.028785 -1.075733 -0.023111 -1.188986 0.000000 0.000000
    12 0.250028 -2.820663 -0.238396 -0.624469 -0.087856 -0.177210
    13 -0.049759 -1.680546 0.100480 -1.822879 0.000000 -0.000002
    14 -0.034141 -1.148310 0.084779 -1.231236 0.000000 0.000000
    15 0.957766 -2.746775 -0.090300 -0.196405 -0.161174 -0.073421
    16 -0.033419 -1.397129 -0.011255 -1.507262 0.000000 -0.000001
    17 -0.022360 -0.957434 0.018783 -1.181193 0.000000 0.000000
    18 -1.180680 -2.507215 -0.193861 -0.264231 0.107072 -0.142275
    19 -0.024966 -1.123932 0.017594 -1.379609 0.000000 0.000001
    20 -0.020058 -0.890965 0.010091 -1.219224 0.303570 -0.062931
    21 0.583510 -1.197275 0.185377 0.966054 -0.980733 -0.837984
    22 1.535926 0.010246 0.005008 -0.492690 -0.171425 -0.747663
    23 1.100770 0.004526 -0.010676 0.158936 0.009058 -0.802012
    24 0.002961 -0.089330 -0.105271 -2.832690 -0.003247 -1.473441
    25 1.999389 8.625856 -0.153718 -1.570562 0.002683 -1.652350
    26 0.447952 -2.798983 -0.200442 -1.267633 -0.030015 0.262098
    27 -0.032909 -1.480204 0.004936 -1.189828 0.000000 0.000002
    28 -0.027022 -1.076920 -0.020212 -1.132357 0.000000 0.000000
    29 -0.249534 -2.846960 -0.174215 -1.094511 -0.012757 0.297798
    30 0.043235 -1.683941 0.096014 -1.463724 0.002823 -0.000167
    31 0.031729 -1.160830 0.058836 -1.087348 0.000642 0.008372
    32 -0.963867 -2.785143 -0.085346 -0.955154 0.061462 0.020715
    33 0.028479 -1.403067 0.006271 -1.279909 0.000000 0.000000
    34 0.021414 -0.957779 0.020047 -0.964041 0.000000 0.000000
    35 1.164475 -2.543938 -0.170328 -1.177771 -0.015164 0.298745
    36 0.024033 -1.129042 0.017806 -0.716164 0.000000 0.000001
    37 0.014896 -0.883989 -0.019845 -1.010357 0.000000 0.000000
    38 -0.586770 -1.264477 0.200164 -0.148053 -0.938107 -2.541444
    39 1.522835 0.058681 0.016850 0.193191 -0.230743 0.579813
    40 1.117948 0.048424 -0.005764 -0.022882 -0.010553 1.194827
    41 0.094983 -0.111698 0.014397 -0.119192 0.402614 1.611548
    42 -4.299809 5.796116 -5.325527 1.598262 -0.649871 -1.117637
  time 33
    0 0.000000 0.000000 0.000000 0.000000 0.000000 0.000000
    1 13.252789 -8.932164 -9.156694 0.145791 -2.304318 0.147898
    2 -0.071920 -8.498731 -0.104139 0.005990 0.110047 0.052131
    3 -5.102076 -1.764963 0.322289 -1.446615 -0.040519 -0.172534
    4 -5.471507 -5.421316 -9.437506 0.375825 2.242295 -0.302442
    5 0.096946 -8.450418 -0.009361 0.418479 0.405844 -0.116166
    6 4.892712 -0.604068 1.165447 -0.294468 -3.136914 0.375296
    7 -24.896226 -25.388874 -146.277262 0.060050 0.180093 3.157834
    8 54.338464 -2.982667 -12.301463 1.010061 -0.181033 -2.986119
    9 -0.488517 -2.755600 -0.228261 -0.554275 -0.077695 -0.184816
    10 0.039887 -1.479790 0.029853 -1.688303 0.000000 0.000000
    11 0.028785 -1.075733 -0.023111 -1.188986 0.000000 0.000000
    12 0.250028 -2.820663 -0.238396 -0.624469 -0.087856 -0.177210
    13 -0.049759 -1.680546 0.100480 -1.822879 0.000000 -0.000002
    14 -0.034141 -1.148310 0.084779 -1.231236 0.000000 0.000000
    15 0.957766 -2.746775 -0.090300 -0.196405 -0.161174 -0.073421
    16 -0.033419 -1.397129 -0.011255 -1.507262 0.000000 -0.000001
    17 -0.022360 -0.957434 0.018783 -1.181193 0.000000 0.000000
    18 -1.180680 -2.507215 -0.193861 -0.264231 0.107072 -0.142275
    19 -0.024966 -1.123932 0.017594 -1.379609 0.000000 0.000001
    20 -0.020058 -0.890965 0.010091 -1.219224 0.303570 -0.062931
    21 0.583510 -1.197275 0.185377 0.966054 -0.980733 -0.837984
    22 1.535926 0.010246 0.005008 -0.492690 -0.171425 -0.747663
    23 1.100770 0.004526 -0.010676 0.158936 0.009058 -0.802012
    24 0.002961 -0.089330 -0.105271 -2.832690 -0.003247 -1.473441
    25 1.999389 8.625856 -0.153718 -1.570562 0.002683 -1.652350
    26 0.447952 -2.798983 -0.200442 -1.267633 -0.030015 0.262098
    27 -0.032909 -1.480204 0.004936 -1.189828 0.000000 0.000002
    28 -0.027022 -1.076920 -0.020212 -1.132357 0.000000 0.000000
    29 -0.249534 -2.846960 -0.174215 -1.094511 -0.012757 0.297798
    30 0.043235 -1.683941 0.096014 -1.463724 0.002823 -0.000167
    31 0.031729 -1.160830 0.058836 -1.087348 0.000642 0.008372
    32 -0.963867 -2.785143 -0.085346 -0.955154 0.061462 0.020715
    33 0.028479 -1.403067 0.006271 -1.279909 0.000000 0.000000
    34 0.021414 -0.957779 0.020047 -0.964041 0.000000 0.000000
    35 1.164475 -2.543938 -0.170328 -1.177771 -0.015164 0.298745
    36 0.024033 -1.129042 0.017806 -0.716164 0.000000 0.000001
    37 0.014896 -0.883989 -0.019845 -1.010357 0.000000 0.000000
    38 -0.586770 -1.264477 0.200164 -0.148053 -0.938107 -2.541444
    39 1.522835 0.058681 0.016850 0.193191 -0.230743 0.579813
    40 1.117948 0.048424 -0.005764 -0.022882 -0.010553 1.194827
    41 0.094983 -0.111698 0.014397 -0.119192 0.402614 1.611548
    42 -4.299809 5.796116 -5.325527 1.598262 -0.649871 -1.117637
end
