version 1
nodes
  0 "y22s1crossbowex21_root" -1
  1 "Bone_right" 0
  2 "Bone_left" 0
  3 "Bone_bowline" 0
  4 "Bone_magazine_01" 0
  5 "Bone_magazine_02" 4
  6 "Bone_magazine_03" 5
  7 "Bone_magazine_04" 6
  8 "Bone_trigger" 0
  9 "led" 0
  10 "root" -1
  11 "Bone01" 10
  12 "Bone_L_Upper" 11
  13 "Bone_Lefthand" 11
  14 "Bone13" 13
  15 "Bone14" 14
  16 "Bone15" 15
  17 "Bone17" 13
  18 "Bone18" 17
  19 "Bone19" 18
  20 "Bone21" 13
  21 "Bone22" 20
  22 "Bone23" 21
  23 "Bone09" 13
  24 "Bone10" 23
  25 "Bone11" 24
  26 "Bone05" 13
  27 "Bone06" 26
  28 "Bone07" 27
  29 "Bone_Se_Hand-L" 13
  30 "Bone04" 10
  31 "Bone_Righthand" 30
  32 "Bone39" 31
  33 "Bone40" 32
  34 "Bone41" 33
  35 "Bone35" 31
  36 "Bone36" 35
  37 "Bone37" 36
  38 "Bone31" 31
  39 "Bone32" 38
  40 "Bone33" 39
  41 "Bone43" 31
  42 "Bone44" 41
  43 "Bone45" 42
  44 "Bone27" 31
  45 "Bone28" 44
  46 "Bone29" 45
  47 "Bone_Se_Hand-R" 31
  48 "Bone_R_Upper" 30
end
skeleton
  time 0
    0 0.011283 4.920593 -5.767315 1.570796 0.156471 -1.570958
    1 10.374578 1.770459 5.254278 -1.570796 0.000000 0.000000
    2 10.374576 1.770458 -5.354711 -1.570796 0.000000 0.000000
    3 18.727524 -2.892987 0.099099 -1.570796 0.000000 0.000000
    4 19.850611 -2.919320 1.053877 -1.570796 3.141592 0.000000
    5 1.136250 -0.000008 0.000000 0.000000 0.000000 0.000000
    6 0.163969 -1.053874 0.889052 0.000000 0.000000 -0.000001
    7 5.025912 0.000001 -0.000001 0.000000 0.000000 3.141592
    8 9.203300 0.828617 0.000000 0.000000 0.000000 -1.469692
    9 9.331239 8.519090 -0.019532 -1.727219 1.570319 0.000000
    10 -6.319351 -0.708318 -1.116602 0.000000 0.000000 0.000000
    11 8.716335 9.450836 -3.499088 5.826703 -2.185327 0.231997
    12 0.628255 8.801648 -0.122462 -1.604766 0.012019 -1.496721
    13 0.010113 -8.455766 -0.072883 -0.098752 0.687203 0.036202
    14 -0.488518 -2.755602 -0.228260 -1.572708 -0.177718 0.023991
    15 0.039887 -1.514947 0.010322 -1.082681 -0.013842 0.022436
    16 0.028786 -1.161671 -0.124675 -1.025158 -0.015053 0.021632
    17 0.250027 -2.820665 -0.238396 -1.659224 -0.096485 0.161223
    18 -0.049759 -1.618042 0.080947 -0.884149 0.008641 -0.024211
    19 -0.034142 -1.163937 0.053531 -0.944119 0.008150 -0.024377
    20 0.957766 -2.746780 -0.090302 -0.057777 -0.183765 0.043812
    21 -0.033420 -1.397129 -0.015163 -0.283970 0.006340 -0.013592
    22 -0.022360 -0.957436 0.010971 -0.294056 0.006148 -0.013674
    23 -1.180681 -2.507217 -0.193859 -0.844729 -0.059117 0.074764
    24 -0.024967 -1.127840 0.017597 -1.583613 -0.012788 -0.063086
    25 -0.020057 -0.902687 0.021809 -0.698854 0.007958 -0.027493
    26 0.595229 -1.220715 0.251787 -0.837213 -0.216084 0.257682
    27 1.297639 -0.329608 0.106575 0.206814 -0.315410 -1.473278
    28 0.940610 -0.225949 0.012759 0.144135 -0.084877 -1.398774
    29 0.120153 -0.050270 -0.054489 0.287569 3.110905 1.561085
    30 1.014427 -1.051445 -10.259409 0.215285 -5.498447 0.545558
    31 0.011004 -8.411355 0.025792 -0.257461 -0.624965 -0.039755
    32 0.701867 -2.736484 -0.305915 0.260194 -0.177557 0.124133
    33 -0.032909 -1.499736 0.032285 -1.517151 0.023286 -0.030067
    34 -0.027022 -1.088639 -0.028023 -0.358622 0.009743 -0.003068
    35 0.012193 -2.843058 -0.361719 -0.180625 0.187446 0.072355
    36 0.043235 -1.676128 0.096012 -0.331211 -0.003876 -0.001845
    37 0.031729 -1.145205 0.058838 -0.988087 -0.010827 0.005663
    38 -0.709952 -2.839834 -0.350983 -0.110994 0.289852 0.019704
    39 0.028479 -1.403067 -0.005448 -0.429674 -0.007179 -0.018552
    40 0.021413 -0.949968 0.020046 -0.474328 -0.008353 -0.019727
    41 1.387138 -2.430655 -0.182049 0.181716 -0.247563 0.028242
    42 0.024032 -1.148574 -0.009538 -1.316400 0.024532 0.063423
    43 0.014898 -0.903521 -0.012035 -1.116573 0.012895 0.055165
    44 -0.496924 -1.315260 0.063438 0.046089 -0.441217 -2.821869
    45 1.577524 0.035243 0.016848 -0.023542 -0.007482 1.060117
    46 1.114041 0.040611 -0.005766 -0.031834 -0.033659 1.133260
    47 -0.139399 -0.111698 0.014397 0.547751 0.014729 1.506009
    48 -2.248965 8.835271 -0.348811 1.598149 -0.016030 -1.440433
  time 1
    0 0.112848 4.967469 -5.669655 1.557278 0.159635 -1.579966
    1 10.374578 1.770459 5.254278 -1.570796 0.000000 0.000000
    2 10.374576 1.770458 -5.350804 -1.570796 0.000000 0.000000
    3 18.790026 -2.861736 0.099099 -1.570796 0.000000 0.000000
    4 19.850611 -2.919320 1.053877 -1.570796 3.141592 0.000000
    5 1.136250 -0.000008 0.000000 0.000000 0.000000 0.000000
    6 0.163969 -1.053874 0.889052 0.000000 0.000000 -0.000001
    7 5.025912 0.000001 -0.000001 0.000000 0.000000 3.141592
    8 9.203300 0.828617 0.000000 0.000000 0.000000 -1.469692
    9 10.128100 8.487892 -0.019532 -1.722833 1.570787 0.000000
    10 -6.276381 -0.735662 -1.116602 0.000000 0.000000 0.000000
    11 8.665552 9.513338 -3.405336 5.823734 -2.190751 0.241621
    12 0.628255 8.801648 -0.122462 -1.604766 0.012019 -1.496721
    13 0.014019 -8.451860 -0.072883 -0.116339 0.701642 0.036816
    14 -0.488518 -2.755602 -0.228260 -1.572708 -0.177718 0.023991
    15 0.039887 -1.514947 0.010322 -1.082650 -0.013842 0.022436
    16 0.028786 -1.161671 -0.124675 -1.025158 -0.015053 0.021632
    17 0.250027 -2.820665 -0.238396 -1.659224 -0.096485 0.161223
    18 -0.049759 -1.618042 0.080947 -0.884149 0.008641 -0.024211
    19 -0.034142 -1.163937 0.053531 -0.944119 0.008150 -0.024377
    20 0.957766 -2.746780 -0.090302 -0.057777 -0.183765 0.043812
    21 -0.033420 -1.397129 -0.015163 -0.283970 0.006340 -0.013592
    22 -0.022360 -0.957436 0.010971 -0.294056 0.006148 -0.013674
    23 -1.180681 -2.507217 -0.193859 -0.844729 -0.059117 0.074764
    24 -0.024967 -1.127840 0.017597 -1.583613 -0.012788 -0.063086
    25 -0.020057 -0.902687 0.021809 -0.698854 0.007958 -0.027493
    26 0.595229 -1.220715 0.251787 -0.837213 -0.216084 0.257682
    27 1.297639 -0.329608 0.106575 0.206814 -0.315410 -1.473278
    28 0.940610 -0.225949 0.012759 0.144135 -0.084877 -1.398774
    29 0.120153 -0.050270 -0.054489 0.287569 3.110905 1.561085
    30 0.979269 -1.000662 -10.243783 0.196600 -5.493483 0.518888
    31 0.011004 -8.415261 0.025792 -0.243947 -0.615435 -0.028279
    32 0.701867 -2.736484 -0.305915 0.260194 -0.177557 0.124133
    33 -0.032909 -1.499736 0.032285 -1.517151 0.023286 -0.030067
    34 -0.027022 -1.088639 -0.028023 -0.358622 0.009743 -0.003068
    35 0.012193 -2.843058 -0.361719 -0.180625 0.187446 0.072355
    36 0.043235 -1.676128 0.096012 -0.331211 -0.003876 -0.001845
    37 0.031729 -1.145205 0.058838 -0.988087 -0.010827 0.005663
    38 -0.709952 -2.839834 -0.350983 -0.110994 0.289852 0.019704
    39 0.028479 -1.403067 -0.005448 -0.429674 -0.007179 -0.018552
    40 0.021413 -0.949968 0.020046 -0.474328 -0.008353 -0.019727
    41 1.387138 -2.430655 -0.182049 0.181716 -0.247563 0.028242
    42 0.024032 -1.148574 -0.009538 -1.316400 0.024532 0.063423
    43 0.014898 -0.903521 -0.012035 -1.116573 0.012895 0.055165
    44 -0.496924 -1.315260 0.063438 0.046089 -0.441217 -2.821869
    45 1.577524 0.035243 0.016848 -0.023542 -0.007482 1.060083
    46 1.114041 0.040611 -0.005766 -0.031834 -0.033659 1.133260
    47 -0.139399 -0.111698 0.014397 0.547751 0.014729 1.506009
    48 -2.248965 8.835271 -0.348811 1.598149 -0.016030 -1.440433
  time 2
    0 0.390201 5.057316 -5.443086 1.524393 0.166538 -1.601608
    1 10.374578 1.770459 5.254278 -1.570796 0.000000 0.000000
    2 10.374576 1.770458 -5.342992 -1.570796 0.000000 0.000000
    3 18.961906 -2.779703 0.099099 -1.570796 0.000000 0.000000
    4 19.850611 -2.919320 1.053877 -1.570796 3.141592 0.000000
    5 1.136250 -0.000008 0.000000 0.000000 0.000000 0.000000
    6 0.163969 -1.053874 0.889052 0.000000 0.000000 -0.000001
    7 5.025912 0.000001 -0.000001 0.000000 0.000000 3.141592
    8 9.203300 0.828617 0.000000 0.000000 0.000000 -1.469692
    9 10.760529 8.409898 -0.015625 -1.710944 1.570787 0.000000
    10 -6.147471 -0.805977 -1.116602 0.000000 0.000000 0.000000
    11 8.524923 9.657874 -3.170953 5.815879 -2.206451 0.267373
    12 0.628255 8.801648 -0.122462 -1.604766 0.012019 -1.496721
    13 0.017925 -8.444047 -0.072883 -0.161544 0.737755 0.037983
    14 -0.488518 -2.755602 -0.228260 -1.572708 -0.177718 0.023991
    15 0.039887 -1.514947 0.010322 -1.082681 -0.013842 0.022436
    16 0.028786 -1.161671 -0.124675 -1.025158 -0.015053 0.021632
    17 0.250027 -2.820665 -0.238396 -1.659224 -0.096485 0.161223
    18 -0.049759 -1.618042 0.080947 -0.884149 0.008641 -0.024211
    19 -0.034142 -1.163937 0.053531 -0.944119 0.008150 -0.024377
    20 0.957766 -2.746780 -0.090302 -0.057777 -0.183765 0.043812
    21 -0.033420 -1.397129 -0.015163 -0.283970 0.006340 -0.013592
    22 -0.022360 -0.957436 0.010971 -0.294056 0.006148 -0.013674
    23 -1.180681 -2.507217 -0.193859 -0.844729 -0.059117 0.074764
    24 -0.024967 -1.127840 0.017597 -1.583613 -0.012788 -0.063086
    25 -0.020057 -0.902687 0.021809 -0.698854 0.007958 -0.027493
    26 0.595229 -1.220715 0.251787 -0.837213 -0.216084 0.257682
    27 1.297639 -0.329608 0.106575 0.206814 -0.315410 -1.473278
    28 0.940610 -0.225949 0.012759 0.144135 -0.084877 -1.398774
    29 0.120153 -0.050270 -0.054489 0.287569 3.110905 1.561085
    30 0.920674 -0.930347 -10.212532 0.147406 -5.483478 0.450941
    31 0.014910 -8.415261 0.025792 -0.210854 -0.591417 0.001274
    32 0.701867 -2.736484 -0.305915 0.260194 -0.177557 0.124133
    33 -0.032909 -1.499736 0.032285 -1.517151 0.023286 -0.030067
    34 -0.027022 -1.088639 -0.028023 -0.358622 0.009743 -0.003068
    35 0.012193 -2.843058 -0.361719 -0.180625 0.187446 0.072355
    36 0.043235 -1.676128 0.096012 -0.331211 -0.003876 -0.001845
    37 0.031729 -1.145205 0.058838 -0.988087 -0.010827 0.005663
    38 -0.709952 -2.839834 -0.350983 -0.110994 0.289852 0.019704
    39 0.028479 -1.403067 -0.005448 -0.429674 -0.007179 -0.018552
    40 0.021413 -0.949968 0.020046 -0.474328 -0.008353 -0.019727
    41 1.387138 -2.430655 -0.182049 0.181716 -0.247563 0.028242
    42 0.024032 -1.148574 -0.009538 -1.316400 0.024532 0.063423
    43 0.014898 -0.903521 -0.012035 -1.116573 0.012895 0.055165
    44 -0.496924 -1.315260 0.063438 0.046089 -0.441217 -2.821869
    45 1.577524 0.035243 0.016848 -0.023542 -0.007482 1.060117
    46 1.114041 0.040611 -0.005766 -0.031834 -0.033659 1.133260
    47 -0.139399 -0.111698 0.014397 0.547751 0.014729 1.506009
    48 -2.248965 8.835271 -0.348811 1.598149 -0.016030 -1.440433
  time 3
    0 0.800369 5.135443 -5.173547 1.484510 0.174016 -1.627603
    1 10.374578 1.770459 5.254278 -1.570796 0.000000 0.000000
    2 10.374576 1.770458 -5.323460 -1.570796 0.000000 0.000000
    3 19.211914 -2.658605 0.099099 -1.570796 0.000000 0.000000
    4 19.850611 -2.919320 1.053877 -1.570796 3.141592 0.000000
    5 1.136250 -0.000008 0.000000 0.000000 0.000000 0.000000
    6 0.163969 -1.053874 0.889052 0.000000 0.000000 -0.000001
    7 5.025912 0.000001 -0.000001 0.000000 0.000000 3.141592
    8 9.203300 0.828617 0.000000 0.000000 0.000000 -1.469692
    9 11.260148 8.290306 -0.015625 -1.693434 1.570787 0.000000
    10 -5.944340 -0.919262 -1.116602 0.000000 0.000000 0.000000
    11 8.329605 9.825848 -2.870163 5.806588 -2.231570 0.303194
    12 0.628255 8.801648 -0.122462 -1.604766 0.012019 -1.496721
    13 0.025738 -8.436234 -0.076789 -0.223348 0.784886 0.038106
    14 -0.488518 -2.755602 -0.228260 -1.572708 -0.177718 0.023991
    15 0.039887 -1.514947 0.010322 -1.082681 -0.013842 0.022436
    16 0.028786 -1.161671 -0.124675 -1.025158 -0.015053 0.021632
    17 0.250027 -2.820665 -0.238396 -1.659224 -0.096485 0.161223
    18 -0.049759 -1.618042 0.080947 -0.884149 0.008641 -0.024211
    19 -0.034142 -1.163937 0.053531 -0.944119 0.008150 -0.024377
    20 0.957766 -2.746780 -0.090302 -0.057777 -0.183765 0.043812
    21 -0.033420 -1.397129 -0.015163 -0.283970 0.006340 -0.013592
    22 -0.022360 -0.957436 0.010971 -0.294056 0.006148 -0.013674
    23 -1.180681 -2.507217 -0.193859 -0.844729 -0.059117 0.074764
    24 -0.024967 -1.127840 0.017597 -1.583613 -0.012788 -0.063086
    25 -0.020057 -0.902687 0.021809 -0.698854 0.007958 -0.027493
    26 0.595229 -1.220715 0.251787 -0.837213 -0.216084 0.257682
    27 1.297639 -0.329608 0.106575 0.206814 -0.315410 -1.473278
    28 0.940610 -0.225949 0.012759 0.144135 -0.084877 -1.398774
    29 0.120153 -0.050270 -0.054489 0.287569 3.110905 1.561085
    30 0.893329 -0.949879 -10.181281 0.078024 -5.475800 0.360187
    31 0.014910 -8.419168 0.025792 -0.169046 -0.560325 0.042082
    32 0.701867 -2.736484 -0.305915 0.260194 -0.177557 0.124133
    33 -0.032909 -1.499736 0.032285 -1.517151 0.023286 -0.030067
    34 -0.027022 -1.088639 -0.028023 -0.358622 0.009743 -0.003080
    35 0.012193 -2.843058 -0.361719 -0.180625 0.187446 0.072355
    36 0.043235 -1.676128 0.096012 -0.331211 -0.003876 -0.001845
    37 0.031729 -1.145205 0.058838 -0.988087 -0.010827 0.005663
    38 -0.709952 -2.839834 -0.350983 -0.110994 0.289852 0.019704
    39 0.028479 -1.403067 -0.005448 -0.429674 -0.007179 -0.018552
    40 0.021413 -0.949968 0.020046 -0.474328 -0.008353 -0.019727
    41 1.387138 -2.430655 -0.182049 0.181716 -0.247563 0.028242
    42 0.024032 -1.148574 -0.009538 -1.316400 0.024532 0.063423
    43 0.014898 -0.903521 -0.012035 -1.116573 0.012895 0.055165
    44 -0.496924 -1.315260 0.063438 0.046089 -0.441217 -2.821869
    45 1.577524 0.035243 0.016848 -0.023542 -0.007482 1.060117
    46 1.114041 0.040611 -0.005766 -0.031834 -0.033659 1.133260
    47 -0.139399 -0.111698 0.014397 0.547751 0.014729 1.506009
    48 -2.248965 8.835271 -0.348811 1.598149 -0.016030 -1.440433
  time 4
    0 1.296478 5.147162 -4.946977 1.449899 0.179481 -1.649366
    1 10.374578 1.770459 5.254278 -1.570796 0.000000 0.000000
    2 10.374576 1.770458 -5.303928 -1.570796 0.000000 0.000000
    3 19.520517 -2.510163 0.099099 -1.570796 0.000000 0.000000
    4 19.850611 -2.919320 1.053877 -1.570796 3.141592 0.000000
    5 1.136250 -0.000008 0.000000 0.000000 0.000000 0.000000
    6 0.163969 -1.053874 0.889052 0.000000 0.000000 -0.000001
    7 5.025912 0.000001 -0.000001 0.000000 0.000000 3.141592
    8 9.203300 0.828617 0.000000 0.000000 0.000000 -1.469692
    9 11.633281 8.139517 -0.011719 -1.672150 1.570787 0.000000
    10 -5.674801 -1.067704 -1.116602 0.000000 0.000000 0.000000
    11 8.122567 9.962571 -2.608436 5.802469 -2.261828 0.338748
    12 0.628255 8.801648 -0.122462 -1.604766 0.012019 -1.496721
    13 0.033551 -8.428422 -0.076789 -0.289178 0.831360 0.034115
    14 -0.488518 -2.755602 -0.228260 -1.572708 -0.177718 0.023991
    15 0.039887 -1.514947 0.010322 -1.082681 -0.013842 0.022436
    16 0.028786 -1.161671 -0.124675 -1.025158 -0.015053 0.021632
    17 0.250027 -2.820665 -0.238396 -1.659224 -0.096485 0.161223
    18 -0.049759 -1.618042 0.080947 -0.884149 0.008641 -0.024211
    19 -0.034142 -1.163937 0.053531 -0.944119 0.008150 -0.024377
    20 0.957766 -2.746780 -0.090302 -0.057777 -0.183765 0.043812
    21 -0.033420 -1.397129 -0.015163 -0.283970 0.006340 -0.013592
    22 -0.022360 -0.957436 0.010971 -0.294056 0.006148 -0.013674
    23 -1.180681 -2.507217 -0.193859 -0.844729 -0.059117 0.074764
    24 -0.024967 -1.127840 0.017597 -1.583613 -0.012788 -0.063086
    25 -0.020057 -0.902687 0.021809 -0.698854 0.007958 -0.027493
    26 0.595229 -1.220715 0.251787 -0.837213 -0.216084 0.257682
    27 1.297639 -0.329608 0.106575 0.206814 -0.315410 -1.473278
    28 0.940610 -0.225949 0.012759 0.144135 -0.084877 -1.398774
    29 0.120153 -0.050270 -0.054489 0.287569 3.110905 1.561085
    30 0.951925 -1.156917 -10.169562 0.003024 -5.475024 0.268868
    31 0.014910 -8.423074 0.025792 -0.128505 -0.531054 0.084928
    32 0.701867 -2.736484 -0.305915 0.260194 -0.177557 0.124133
    33 -0.032909 -1.499736 0.032285 -1.517151 0.023286 -0.030067
    34 -0.027022 -1.088639 -0.028023 -0.358622 0.009743 -0.003068
    35 0.012193 -2.843058 -0.361719 -0.180625 0.187446 0.072355
    36 0.043235 -1.676128 0.096012 -0.331211 -0.003876 -0.001845
    37 0.031729 -1.145205 0.058838 -0.988087 -0.010827 0.005663
    38 -0.709952 -2.839834 -0.350983 -0.110994 0.289852 0.019704
    39 0.028479 -1.403067 -0.005448 -0.429674 -0.007179 -0.018552
    40 0.021413 -0.949968 0.020046 -0.474328 -0.008353 -0.019727
    41 1.387138 -2.430655 -0.182049 0.181716 -0.247563 0.028242
    42 0.024032 -1.148574 -0.009538 -1.316400 0.024532 0.063423
    43 0.014898 -0.903521 -0.012035 -1.116573 0.012895 0.055165
    44 -0.496924 -1.315260 0.063438 0.046089 -0.441217 -2.821869
    45 1.577524 0.035243 0.016848 -0.023542 -0.007482 1.060117
    46 1.114041 0.040611 -0.005766 -0.031834 -0.033659 1.133260
    47 -0.139399 -0.111698 0.014397 0.547751 0.014729 1.506009
    48 -2.248965 8.835271 -0.348811 1.598149 -0.016030 -1.440433
  time 5
    0 1.823838 5.041690 -4.845412 1.433121 0.181686 -1.658132
    1 10.374578 1.770459 5.254278 -1.570796 0.000000 0.000000
    2 10.374576 1.770458 -5.276583 -1.570796 0.000000 0.000000
    3 19.852558 -2.350002 0.099099 -1.570796 0.000000 0.000000
    4 19.850611 -2.919320 1.053877 -1.570796 3.141592 0.000000
    5 1.136250 -0.000008 0.000000 0.000000 0.000000 0.000000
    6 0.163969 -1.053874 0.889052 0.000000 0.000000 -0.000001
    7 5.025912 0.000001 -0.000001 0.000000 0.000000 3.141592
    8 9.203300 0.828617 0.000000 0.000000 0.000000 -1.469692
    9 11.898901 7.983529 -0.007813 -1.649007 1.570787 0.000000
    10 -5.346666 -1.243490 -1.116602 0.000000 0.000000 0.000000
    11 7.997563 10.025072 -2.506871 5.811760 -2.289040 0.359777
    12 0.628255 8.801648 -0.122462 -1.604766 0.012019 -1.496721
    13 0.041364 -8.420609 -0.080696 -0.341270 0.864184 0.023248
    14 -0.488518 -2.755602 -0.228260 -1.572708 -0.177718 0.023991
    15 0.039887 -1.514947 0.010322 -1.082681 -0.013842 0.022436
    16 0.028786 -1.161671 -0.124675 -1.025158 -0.015053 0.021632
    17 0.250027 -2.820665 -0.238396 -1.659224 -0.096485 0.161223
    18 -0.049759 -1.618042 0.080947 -0.884149 0.008641 -0.024211
    19 -0.034142 -1.163937 0.053531 -0.944119 0.008150 -0.024377
    20 0.957766 -2.746780 -0.090302 -0.057777 -0.183765 0.043812
    21 -0.033420 -1.397129 -0.015163 -0.283970 0.006340 -0.013592
    22 -0.022360 -0.957436 0.010971 -0.294056 0.006148 -0.013674
    23 -1.180681 -2.507217 -0.193859 -0.844729 -0.059117 0.074764
    24 -0.024967 -1.127840 0.017597 -1.583613 -0.012788 -0.063086
    25 -0.020057 -0.902687 0.021809 -0.698854 0.007958 -0.027493
    26 0.595229 -1.220715 0.251787 -0.837213 -0.216084 0.257682
    27 1.297639 -0.329608 0.106575 0.206814 -0.315410 -1.473278
    28 0.940610 -0.225949 0.012759 0.144135 -0.084877 -1.398774
    29 0.120153 -0.050270 -0.054489 0.287569 3.110905 1.561085
    30 1.115992 -1.629587 -10.173469 -0.056885 -5.480143 0.206575
    31 0.014910 -8.423074 0.025792 -0.098533 -0.514746 0.114924
    32 0.701867 -2.736484 -0.305915 0.260194 -0.177557 0.124133
    33 -0.032909 -1.499736 0.032285 -1.517151 0.023286 -0.030067
    34 -0.027022 -1.088639 -0.028023 -0.358622 0.009743 -0.003080
    35 0.012193 -2.843058 -0.361719 -0.180625 0.187446 0.072355
    36 0.043235 -1.676128 0.096012 -0.331211 -0.003876 -0.001845
    37 0.031729 -1.145205 0.058838 -0.988087 -0.010827 0.005663
    38 -0.709952 -2.839834 -0.350983 -0.110994 0.289852 0.019704
    39 0.028479 -1.403067 -0.005448 -0.429674 -0.007179 -0.018552
    40 0.021413 -0.949968 0.020046 -0.474328 -0.008353 -0.019727
    41 1.387138 -2.430655 -0.182049 0.181716 -0.247563 0.028242
    42 0.024032 -1.148574 -0.009538 -1.316400 0.024532 0.063423
    43 0.014898 -0.903521 -0.012035 -1.116573 0.012895 0.055165
    44 -0.496924 -1.315260 0.063438 0.046089 -0.441217 -2.821869
    45 1.577524 0.035243 0.016848 -0.023542 -0.007482 1.060083
    46 1.114041 0.040611 -0.005766 -0.031834 -0.033659 1.133260
    47 -0.139399 -0.111698 0.014397 0.547751 0.014729 1.506009
    48 -2.248965 8.835271 -0.348811 1.598149 -0.016030 -1.440433
  time 6
    0 2.405887 4.819027 -4.857131 1.434655 0.182358 -1.652872
    1 10.374578 1.770459 5.254278 -1.570796 0.000000 0.000000
    2 10.374576 1.770458 -5.245332 -1.570796 0.000000 0.000000
    3 20.184600 -2.189841 0.099099 -1.570796 0.000000 0.000000
    4 19.850611 -2.919320 1.053877 -1.570796 3.141592 0.000000
    5 1.136250 -0.000008 0.000000 0.000000 0.000000 0.000000
    6 0.163969 -1.053874 0.889052 0.000000 0.000000 -0.000001
    7 5.025912 0.000001 -0.000001 0.000000 0.000000 3.141592
    8 9.203300 0.828617 0.000000 0.000000 0.000000 -1.469692
    9 12.082305 7.822341 -0.003906 -1.625853 1.570787 0.000000
    10 -4.975560 -1.450528 -1.116602 0.000000 0.000000 0.000000
    11 7.970219 10.021166 -2.588904 5.837240 -2.312447 0.364856
    12 0.628255 8.801648 -0.122462 -1.604766 0.012019 -1.496721
    13 0.041364 -8.412796 -0.080696 -0.380719 0.883950 0.002803
    14 -0.488518 -2.755602 -0.228260 -1.572708 -0.177718 0.023991
    15 0.039887 -1.514947 0.010322 -1.082681 -0.013842 0.022436
    16 0.028786 -1.161671 -0.124675 -1.025158 -0.015053 0.021632
    17 0.250027 -2.820665 -0.238396 -1.659224 -0.096485 0.161223
    18 -0.049759 -1.618042 0.080947 -0.884149 0.008641 -0.024211
    19 -0.034142 -1.163937 0.053531 -0.944119 0.008150 -0.024377
    20 0.957766 -2.746780 -0.090302 -0.057777 -0.183765 0.043812
    21 -0.033420 -1.397129 -0.015163 -0.283970 0.006340 -0.013592
    22 -0.022360 -0.957436 0.010971 -0.294056 0.006148 -0.013674
    23 -1.180681 -2.507217 -0.193859 -0.844729 -0.059117 0.074764
    24 -0.024967 -1.127840 0.017597 -1.583613 -0.012788 -0.063086
    25 -0.020057 -0.902687 0.021809 -0.698854 0.007958 -0.027493
    26 0.595229 -1.220715 0.251787 -0.837213 -0.216084 0.257682
    27 1.297639 -0.329608 0.106575 0.206814 -0.315410 -1.473278
    28 0.940610 -0.225949 0.012759 0.144135 -0.084877 -1.398774
    29 0.120153 -0.050270 -0.054489 0.287569 3.110905 1.561085
    30 1.338655 -2.313202 -10.138311 -0.086480 -5.485572 0.194606
    31 0.014910 -8.426980 0.029699 -0.078159 -0.513772 0.117139
    32 0.701867 -2.736484 -0.305915 0.260194 -0.177557 0.124133
    33 -0.032909 -1.499736 0.032285 -1.517151 0.023286 -0.030067
    34 -0.027022 -1.088639 -0.028023 -0.358622 0.009743 -0.003068
    35 0.012193 -2.843058 -0.361719 -0.180625 0.187446 0.072355
    36 0.043235 -1.676128 0.096012 -0.331211 -0.003876 -0.001845
    37 0.031729 -1.145205 0.058838 -0.988087 -0.010827 0.005663
    38 -0.709952 -2.839834 -0.350983 -0.110994 0.289852 0.019704
    39 0.028479 -1.403067 -0.005448 -0.429674 -0.007179 -0.018552
    40 0.021413 -0.949968 0.020046 -0.474328 -0.008353 -0.019727
    41 1.387138 -2.430655 -0.182049 0.181716 -0.247563 0.028242
    42 0.024032 -1.148574 -0.009538 -1.316400 0.024532 0.063423
    43 0.014898 -0.903521 -0.012035 -1.116573 0.012895 0.055165
    44 -0.496924 -1.315260 0.063438 0.046089 -0.441217 -2.821869
    45 1.577524 0.035243 0.016848 -0.023542 -0.007482 1.060117
    46 1.114041 0.040611 -0.005766 -0.031834 -0.033659 1.133260
    47 -0.139399 -0.111698 0.014397 0.547751 0.014729 1.506009
    48 -2.248965 8.835271 -0.348811 1.598149 -0.016030 -1.440433
  time 7
    0 3.058251 4.529956 -4.911820 1.444530 0.183316 -1.640479
    1 10.374578 1.770459 5.254278 -1.570796 0.000000 0.000000
    2 10.374576 1.770458 -5.214082 -1.570796 0.000000 0.000000
    3 20.489297 -2.045305 0.099099 -1.570796 0.000000 0.000000
    4 19.850611 -2.919320 1.053877 -1.570796 3.141592 0.000000
    5 1.136250 -0.000008 0.000000 0.000000 0.000000 0.000000
    6 0.163969 -1.053874 0.889052 0.000000 0.000000 -0.000001
    7 5.025912 0.000001 -0.000001 0.000000 0.000000 3.141592
    8 9.203300 0.828617 0.000000 0.000000 0.000000 -1.469692
    9 12.189818 7.676751 -0.003906 -1.604581 1.570787 0.000000
    10 -4.569298 -1.673191 -1.116602 0.000000 0.000000 0.000000
    11 7.997563 9.982102 -2.764691 5.871340 -2.335663 0.365301
    12 0.628255 8.801648 -0.122462 -1.604766 0.012019 -1.496721
    13 0.045270 -8.408890 -0.080696 -0.419814 0.898323 -0.025930
    14 -0.488518 -2.755602 -0.228260 -1.572708 -0.177718 0.023991
    15 0.039887 -1.514947 0.010322 -1.082681 -0.013842 0.022436
    16 0.028786 -1.161671 -0.124675 -1.025158 -0.015053 0.021632
    17 0.250027 -2.820665 -0.238396 -1.659224 -0.096485 0.161223
    18 -0.049759 -1.618042 0.080947 -0.884149 0.008641 -0.024211
    19 -0.034142 -1.163937 0.053531 -0.944119 0.008150 -0.024377
    20 0.957766 -2.746780 -0.090302 -0.057777 -0.183765 0.043812
    21 -0.033420 -1.397129 -0.015163 -0.283970 0.006340 -0.013592
    22 -0.022360 -0.957436 0.010971 -0.294056 0.006148 -0.013674
    23 -1.180681 -2.507217 -0.193859 -0.844729 -0.059117 0.074764
    24 -0.024967 -1.127840 0.017597 -1.583613 -0.012788 -0.063086
    25 -0.020057 -0.902687 0.021809 -0.698854 0.007958 -0.027493
    26 0.595229 -1.220715 0.251787 -0.837213 -0.216084 0.257682
    27 1.297639 -0.329608 0.106575 0.206814 -0.315410 -1.473278
    28 0.940610 -0.225949 0.012759 0.144135 -0.084877 -1.398774
    29 0.120153 -0.050270 -0.054489 0.287569 3.110905 1.561085
    30 1.545693 -3.067131 -10.021120 -0.086806 -5.487666 0.228061
    31 0.014910 -8.430887 0.029699 -0.061229 -0.521354 0.090821
    32 0.701867 -2.736484 -0.305915 0.260194 -0.177557 0.124133
    33 -0.032909 -1.499736 0.032285 -1.517151 0.023286 -0.030067
    34 -0.027022 -1.088639 -0.028023 -0.358622 0.009743 -0.003080
    35 0.012193 -2.843058 -0.361719 -0.180625 0.187446 0.072355
    36 0.043235 -1.676128 0.096012 -0.331211 -0.003876 -0.001845
    37 0.031729 -1.145205 0.058838 -0.988087 -0.010827 0.005663
    38 -0.709952 -2.839834 -0.350983 -0.110994 0.289852 0.019704
    39 0.028479 -1.403067 -0.005448 -0.429674 -0.007179 -0.018552
    40 0.021413 -0.949968 0.020046 -0.474328 -0.008353 -0.019727
    41 1.387138 -2.430655 -0.182049 0.181716 -0.247563 0.028242
    42 0.024032 -1.148574 -0.009538 -1.316400 0.024532 0.063423
    43 0.014898 -0.903521 -0.012035 -1.116573 0.012895 0.055165
    44 -0.496924 -1.315260 0.063438 0.046089 -0.441217 -2.821869
    45 1.577524 0.035243 0.016848 -0.023542 -0.007482 1.060117
    46 1.114041 0.040611 -0.005766 -0.031834 -0.033659 1.133260
    47 -0.139399 -0.111698 0.014397 0.547751 0.014729 1.506009
    48 -2.248965 8.835271 -0.348811 1.598149 -0.016030 -1.440433
  time 8
    0 3.749678 4.194008 -5.009479 1.460254 0.183508 -1.623432
    1 10.374578 1.770459 5.254278 -1.570796 0.000000 0.000000
    2 10.374576 1.770458 -5.175018 -1.570796 0.000000 0.000000
    3 20.743211 -1.924208 0.099099 -1.570796 0.000000 0.000000
    4 19.850611 -2.919320 1.053877 -1.570796 3.141592 0.000000
    5 1.136250 -0.000008 0.000000 0.000000 0.000000 0.000000
    6 0.163969 -1.053874 0.889052 0.000000 0.000000 -0.000001
    7 5.025912 0.000001 -0.000001 0.000000 0.000000 3.141592
    8 9.203300 0.828617 0.000000 0.000000 0.000000 -1.469692
    9 12.246737 7.557160 0.000000 -1.587059 1.570787 0.000000
    10 -4.131785 -1.915386 -1.116602 0.000000 0.000000 0.000000
    11 8.071784 9.915694 -2.987354 5.906015 -2.356025 0.365391
    12 0.628255 8.801648 -0.122462 -1.604766 0.012019 -1.496721
    13 0.049176 -8.404984 -0.084602 -0.452976 0.905362 -0.054602
    14 -0.488518 -2.755602 -0.228260 -1.572708 -0.177718 0.023991
    15 0.039887 -1.514947 0.010322 -1.082681 -0.013842 0.022436
    16 0.028786 -1.161671 -0.124675 -1.025158 -0.015053 0.021632
    17 0.250027 -2.820665 -0.238396 -1.659224 -0.096485 0.161223
    18 -0.049759 -1.618042 0.080947 -0.884149 0.008641 -0.024211
    19 -0.034142 -1.163937 0.053531 -0.944119 0.008150 -0.024377
    20 0.957766 -2.746780 -0.090302 -0.057777 -0.183765 0.043812
    21 -0.033420 -1.397129 -0.015163 -0.283970 0.006340 -0.013592
    22 -0.022360 -0.957436 0.010971 -0.294056 0.006148 -0.013674
    23 -1.180681 -2.507217 -0.193859 -0.844729 -0.059117 0.074764
    24 -0.024967 -1.127840 0.017597 -1.583613 -0.012788 -0.063086
    25 -0.020057 -0.902687 0.021809 -0.698854 0.007958 -0.027493
    26 0.595229 -1.220715 0.251787 -0.837213 -0.216084 0.257682
    27 1.297639 -0.329608 0.106575 0.206814 -0.315410 -1.473278
    28 0.940610 -0.225949 0.012759 0.144135 -0.084877 -1.398774
    29 0.120153 -0.050270 -0.054489 0.287569 3.110905 1.561085
    30 1.705854 -3.817154 -9.817989 -0.059629 -5.486735 0.301004
    31 0.014910 -8.438699 0.033605 -0.048923 -0.534401 0.039158
    32 0.701867 -2.736484 -0.305915 0.260194 -0.177557 0.124133
    33 -0.032909 -1.499736 0.032285 -1.517151 0.023286 -0.030067
    34 -0.027022 -1.088639 -0.028023 -0.358622 0.009743 -0.003080
    35 0.012193 -2.843058 -0.361719 -0.180625 0.187446 0.072355
    36 0.043235 -1.676128 0.096012 -0.331211 -0.003876 -0.001845
    37 0.031729 -1.145205 0.058838 -0.988087 -0.010827 0.005663
    38 -0.709952 -2.839834 -0.350983 -0.110994 0.289852 0.019704
    39 0.028479 -1.403067 -0.005448 -0.429674 -0.007179 -0.018552
    40 0.021413 -0.949968 0.020046 -0.474328 -0.008353 -0.019727
    41 1.387138 -2.430655 -0.182049 0.181716 -0.247563 0.028242
    42 0.024032 -1.148574 -0.009538 -1.316400 0.024532 0.063423
    43 0.014898 -0.903521 -0.012035 -1.116573 0.012895 0.055165
    44 -0.496924 -1.315260 0.063438 0.046089 -0.441217 -2.821869
    45 1.577524 0.035243 0.016848 -0.023542 -0.007482 1.060083
    46 1.114041 0.040611 -0.005766 -0.031834 -0.033659 1.133260
    47 -0.139399 -0.111698 0.014397 0.547751 0.014729 1.506009
    48 -2.248965 8.835271 -0.348811 1.598149 -0.016030 -1.440433
  time 9
    0 4.448918 3.830716 -5.130576 1.479045 0.182070 -1.604268
    1 10.374578 1.770459 5.254278 -1.570796 0.000000 0.000000
    2 10.374576 1.770458 -5.139861 -1.570796 0.000000 0.000000
    3 20.915091 -1.842174 0.099099 -1.570796 0.000000 0.000000
    4 19.850611 -2.919320 1.053877 -1.570796 3.141592 0.000000
    5 1.136250 -0.000008 0.000000 0.000000 0.000000 0.000000
    6 0.163969 -1.053874 0.889052 0.000000 0.000000 -0.000001
    7 5.025912 0.000001 -0.000001 0.000000 0.000000 3.141592
    8 9.203300 0.828617 0.000000 0.000000 0.000000 -1.469692
    9 12.265710 7.473966 0.000000 -1.575170 1.570787 0.000000
    10 -3.674740 -2.165394 -1.116602 0.000000 0.000000 0.000000
    11 8.169444 9.821941 -3.221736 5.935997 -2.371725 0.367440
    12 0.628255 8.801648 -0.122462 -1.604766 0.012019 -1.496721
    13 0.049176 -8.401077 -0.084602 -0.476073 0.905066 -0.076337
    14 -0.488518 -2.755602 -0.228260 -1.572708 -0.177718 0.023991
    15 0.039887 -1.514947 0.010322 -1.082681 -0.013842 0.022436
    16 0.028786 -1.161671 -0.124675 -1.025158 -0.015053 0.021632
    17 0.250027 -2.820665 -0.238396 -1.659224 -0.096485 0.161223
    18 -0.049759 -1.618042 0.080947 -0.884149 0.008641 -0.024211
    19 -0.034142 -1.163937 0.053531 -0.944119 0.008150 -0.024377
    20 0.957766 -2.746780 -0.090302 -0.057777 -0.183765 0.043812
    21 -0.033420 -1.397129 -0.015163 -0.283970 0.006340 -0.013592
    22 -0.022360 -0.957436 0.010971 -0.294056 0.006148 -0.013674
    23 -1.180681 -2.507217 -0.193859 -0.844729 -0.059117 0.074764
    24 -0.024967 -1.127840 0.017597 -1.583613 -0.012788 -0.063086
    25 -0.020057 -0.902687 0.021809 -0.698854 0.007958 -0.027493
    26 0.595229 -1.220715 0.251787 -0.837213 -0.216084 0.257682
    27 1.297639 -0.329608 0.106575 0.206814 -0.315410 -1.473278
    28 0.940610 -0.225949 0.012759 0.144135 -0.084877 -1.398774
    29 0.120153 -0.050270 -0.054489 0.287569 3.110905 1.561085
    30 1.807420 -4.508582 -9.544543 -0.010108 -5.486735 0.402878
    31 0.018817 -8.442606 0.033605 -0.041798 -0.548633 -0.031336
    32 0.701867 -2.736484 -0.305915 0.260194 -0.177557 0.124133
    33 -0.032909 -1.499736 0.032285 -1.517151 0.023286 -0.030067
    34 -0.027022 -1.088639 -0.028023 -0.358622 0.009743 -0.003068
    35 0.012193 -2.843058 -0.361719 -0.180625 0.187446 0.072355
    36 0.043235 -1.676128 0.096012 -0.331211 -0.003876 -0.001845
    37 0.031729 -1.145205 0.058838 -0.988087 -0.010827 0.005663
    38 -0.709952 -2.839834 -0.350983 -0.110994 0.289852 0.019704
    39 0.028479 -1.403067 -0.005448 -0.429674 -0.007179 -0.018552
    40 0.021413 -0.949968 0.020046 -0.474328 -0.008353 -0.019727
    41 1.387138 -2.430655 -0.182049 0.181716 -0.247563 0.028242
    42 0.024032 -1.148574 -0.009538 -1.316400 0.024532 0.063423
    43 0.014898 -0.903521 -0.012035 -1.116573 0.012895 0.055165
    44 -0.496924 -1.315260 0.063438 0.046089 -0.441217 -2.821869
    45 1.577524 0.035243 0.016848 -0.023542 -0.007482 1.060117
    46 1.114041 0.040611 -0.005766 -0.031834 -0.033659 1.133260
    47 -0.139399 -0.111698 0.014397 0.547751 0.014729 1.506009
    48 -2.248965 8.835271 -0.348811 1.598149 -0.016030 -1.440433
  time 10
    0 5.120814 3.467424 -5.271206 1.498411 0.178043 -1.585709
    1 10.374578 1.770459 5.254278 -1.570796 0.000000 0.000000
    2 10.374576 1.770458 -5.100797 -1.570796 0.000000 0.000000
    3 20.977593 -1.810923 0.099099 -1.570796 0.000000 0.000000
    4 19.850611 -2.919320 1.053877 -1.570796 3.141592 0.000000
    5 1.136250 -0.000008 0.000000 0.000000 0.000000 0.000000
    6 0.163969 -1.053874 0.889052 0.000000 0.000000 -0.000001
    7 5.025912 0.000001 -0.000001 0.000000 0.000000 3.141592
    8 9.203300 0.828617 0.000000 0.000000 0.000000 -1.469692
    9 12.265710 7.447968 0.000000 -1.570796 1.570451 0.000000
    10 -3.209882 -2.419308 -1.116602 0.000000 0.000000 0.000000
    11 8.267103 9.724282 -3.428774 5.958507 -2.382191 0.371806
    12 0.628255 8.801648 -0.122462 -1.604766 0.012019 -1.496721
    13 0.049176 -8.397171 -0.088509 -0.486703 0.899211 -0.086713
    14 -0.488518 -2.755602 -0.228260 -1.572708 -0.177718 0.023991
    15 0.039887 -1.514947 0.010322 -1.082681 -0.013842 0.022436
    16 0.028786 -1.161671 -0.124675 -1.025158 -0.015053 0.021632
    17 0.250027 -2.820665 -0.238396 -1.659224 -0.096485 0.161223
    18 -0.049759 -1.618042 0.080947 -0.884149 0.008641 -0.024211
    19 -0.034142 -1.163937 0.053531 -0.944119 0.008150 -0.024377
    20 0.957766 -2.746780 -0.090302 -0.057777 -0.183765 0.043812
    21 -0.033420 -1.397129 -0.015163 -0.283970 0.006340 -0.013592
    22 -0.022360 -0.957436 0.010971 -0.294056 0.006148 -0.013674
    23 -1.180681 -2.507217 -0.193859 -0.844729 -0.059117 0.074764
    24 -0.024967 -1.127840 0.017597 -1.583613 -0.012788 -0.063086
    25 -0.020057 -0.902687 0.021809 -0.698854 0.007958 -0.027493
    26 0.595229 -1.220715 0.251787 -0.837213 -0.216084 0.257682
    27 1.297639 -0.329608 0.106575 0.206814 -0.315410 -1.473278
    28 0.940610 -0.225949 0.012759 0.144135 -0.084877 -1.398774
    29 0.120153 -0.050270 -0.054489 0.287569 3.110905 1.561085
    30 1.862109 -5.055473 -9.247659 0.050520 -5.492320 0.515967
    31 0.018817 -8.450418 0.033605 -0.040237 -0.559520 -0.109495
    32 0.701867 -2.736484 -0.305915 0.260194 -0.177557 0.124133
    33 -0.032909 -1.499736 0.032285 -1.517151 0.023286 -0.030067
    34 -0.027022 -1.088639 -0.028023 -0.358622 0.009743 -0.003068
    35 0.012193 -2.843058 -0.361719 -0.180625 0.187446 0.072355
    36 0.043235 -1.676128 0.096012 -0.331211 -0.003876 -0.001845
    37 0.031729 -1.145205 0.058838 -0.988087 -0.010827 0.005663
    38 -0.709952 -2.839834 -0.350983 -0.110994 0.289852 0.019704
    39 0.028479 -1.403067 -0.005448 -0.429674 -0.007179 -0.018552
    40 0.021413 -0.949968 0.020046 -0.474328 -0.008353 -0.019727
    41 1.387138 -2.430655 -0.182049 0.181716 -0.247563 0.028242
    42 0.024032 -1.148574 -0.009538 -1.316400 0.024532 0.063423
    43 0.014898 -0.903521 -0.012035 -1.116573 0.012895 0.055165
    44 -0.496924 -1.315260 0.063438 0.046089 -0.441217 -2.821869
    45 1.577524 0.035243 0.016848 -0.023542 -0.007482 1.060117
    46 1.114041 0.040611 -0.005766 -0.031834 -0.033659 1.133260
    47 -0.139399 -0.111698 0.014397 0.547751 0.014729 1.506009
    48 -2.248965 8.835271 -0.348811 1.598149 -0.016030 -1.440433
  time 11
    0 5.730207 3.123663 -5.415741 1.515669 0.171044 -1.570293
    1 10.374578 1.770459 5.254278 -1.570796 0.000000 0.000000
    2 10.374576 1.770458 -5.061733 -1.570796 0.000000 0.000000
    3 20.977593 -1.810923 0.099099 -1.570796 0.000000 0.000000
    4 19.850611 -2.919320 1.053877 -1.570796 3.141592 0.000000
    5 1.136250 -0.000008 0.000000 0.000000 0.000000 0.000000
    6 0.163969 -1.053874 0.889052 0.000000 0.000000 -0.000001
    7 5.025912 0.000001 -0.000001 0.000000 0.000000 3.141592
    8 9.203300 0.828617 0.000000 0.000000 0.000000 -1.469692
    9 12.265710 7.447968 0.000000 -1.570796 1.570787 0.000000
    10 -2.745024 -2.677128 -1.116602 0.000000 0.000000 0.000000
    11 8.353043 9.638342 -3.588935 5.971725 -2.387615 0.377064
    12 0.628255 8.801648 -0.122462 -1.604766 0.012019 -1.496721
    13 0.045270 -8.401077 -0.088509 -0.484019 0.890923 -0.083643
    14 -0.488518 -2.755602 -0.228260 -1.572708 -0.177718 0.023991
    15 0.039887 -1.514947 0.010322 -1.082681 -0.013842 0.022436
    16 0.028786 -1.161671 -0.124675 -1.025158 -0.015053 0.021632
    17 0.250027 -2.820665 -0.238396 -1.659224 -0.096485 0.161223
    18 -0.049759 -1.618042 0.080947 -0.884149 0.008641 -0.024211
    19 -0.034142 -1.163937 0.053531 -0.944119 0.008150 -0.024377
    20 0.957766 -2.746780 -0.090302 -0.057777 -0.183765 0.043812
    21 -0.033420 -1.397129 -0.015163 -0.283970 0.006340 -0.013592
    22 -0.022360 -0.957436 0.010971 -0.294056 0.006148 -0.013674
    23 -1.180681 -2.507217 -0.193859 -0.844729 -0.059117 0.074764
    24 -0.024967 -1.127840 0.017597 -1.583613 -0.012788 -0.063086
    25 -0.020057 -0.902687 0.021809 -0.698854 0.007958 -0.027493
    26 0.595229 -1.220715 0.251787 -0.837213 -0.216084 0.257682
    27 1.297639 -0.329608 0.106575 0.206814 -0.315410 -1.473278
    28 0.940610 -0.225949 0.012759 0.144135 -0.084877 -1.398774
    29 0.120153 -0.050270 -0.054489 0.287569 3.110905 1.561085
    30 1.869921 -5.481267 -8.958588 0.106443 -5.502713 0.617935
    31 0.022723 -8.454325 0.037511 -0.043093 -0.565789 -0.181673
    32 0.701867 -2.736484 -0.305915 0.260194 -0.177557 0.124133
    33 -0.032909 -1.499736 0.032285 -1.517151 0.023286 -0.030067
    34 -0.027022 -1.088639 -0.028023 -0.358622 0.009743 -0.003068
    35 0.012193 -2.843058 -0.361719 -0.180625 0.187446 0.072355
    36 0.043235 -1.676128 0.096012 -0.331211 -0.003876 -0.001845
    37 0.031729 -1.145205 0.058838 -0.988087 -0.010827 0.005663
    38 -0.709952 -2.839834 -0.350983 -0.110994 0.289852 0.019704
    39 0.028479 -1.403067 -0.005448 -0.429674 -0.007179 -0.018552
    40 0.021413 -0.949968 0.020046 -0.474328 -0.008353 -0.019727
    41 1.387138 -2.430655 -0.182049 0.181716 -0.247563 0.028242
    42 0.024032 -1.148574 -0.009538 -1.316400 0.024532 0.063423
    43 0.014898 -0.903521 -0.012035 -1.116573 0.012895 0.055165
    44 -0.496924 -1.315260 0.063438 0.046089 -0.441217 -2.821869
    45 1.577524 0.035243 0.016848 -0.023542 -0.007482 1.060083
    46 1.114041 0.040611 -0.005766 -0.031834 -0.033659 1.133260
    47 -0.139399 -0.111698 0.014397 0.547751 0.014729 1.506009
    48 -2.248965 8.835271 -0.348811 1.598149 -0.016030 -1.440433
  time 12
    0 6.249754 2.826779 -5.548558 1.527940 0.160498 -1.560560
    1 10.374578 1.770459 5.254278 -1.570796 0.000000 0.000000
    2 10.374576 1.770458 -5.026576 -1.570796 0.000000 0.000000
    3 20.977593 -1.810923 0.099099 -1.570796 0.000000 0.000000
    4 19.850611 -2.919320 1.053877 -1.570796 3.141592 0.000000
    5 1.136250 -0.000008 0.000000 0.000000 0.000000 0.000000
    6 0.163969 -1.053874 0.889052 0.000000 0.000000 -0.000001
    7 5.025912 0.000001 -0.000001 0.000000 0.000000 3.141592
    8 9.203300 0.828617 0.000000 0.000000 0.000000 -1.469692
    9 12.265710 7.447968 0.000000 -1.570796 1.570787 0.000000
    10 -2.291885 -2.927136 -1.116602 0.000000 0.000000 0.000000
    11 8.407732 9.583653 -3.678781 5.974695 -2.388662 0.381163
    12 0.628255 8.801648 -0.122462 -1.604766 0.012019 -1.496721
    13 0.045270 -8.401077 -0.084602 -0.467491 0.883457 -0.065838
    14 -0.488518 -2.755602 -0.228260 -1.572708 -0.177718 0.023991
    15 0.039887 -1.514947 0.010322 -1.082681 -0.013842 0.022436
    16 0.028786 -1.161671 -0.124675 -1.025158 -0.015053 0.021632
    17 0.250027 -2.820665 -0.238396 -1.659224 -0.096485 0.161223
    18 -0.049759 -1.618042 0.080947 -0.884149 0.008641 -0.024211
    19 -0.034142 -1.163937 0.053531 -0.944119 0.008150 -0.024377
    20 0.957766 -2.746780 -0.090302 -0.057777 -0.183765 0.043812
    21 -0.033420 -1.397129 -0.015163 -0.283970 0.006340 -0.013592
    22 -0.022360 -0.957436 0.010971 -0.294056 0.006148 -0.013674
    23 -1.180681 -2.507217 -0.193859 -0.844729 -0.059117 0.074764
    24 -0.024967 -1.127840 0.017597 -1.583613 -0.012788 -0.063086
    25 -0.020057 -0.902687 0.021809 -0.698854 0.007958 -0.027493
    26 0.595229 -1.220715 0.251787 -0.837213 -0.216084 0.257682
    27 1.297639 -0.329608 0.106575 0.206814 -0.315410 -1.473278
    28 0.940610 -0.225949 0.012759 0.144135 -0.084877 -1.398774
    29 0.120153 -0.050270 -0.054489 0.287569 3.110905 1.561085
    30 1.842577 -5.805496 -8.708580 0.141526 -5.511477 0.684752
    31 0.026629 -8.458231 0.033605 -0.048452 -0.567949 -0.232317
    32 0.701867 -2.736484 -0.305915 0.260194 -0.177557 0.124133
    33 -0.032909 -1.499736 0.032285 -1.517151 0.023286 -0.030067
    34 -0.027022 -1.088639 -0.028023 -0.358622 0.009743 -0.003068
    35 0.012193 -2.843058 -0.361719 -0.180625 0.187446 0.072355
    36 0.043235 -1.676128 0.096012 -0.331211 -0.003876 -0.001845
    37 0.031729 -1.145205 0.058838 -0.988087 -0.010827 0.005663
    38 -0.709952 -2.839834 -0.350983 -0.110994 0.289852 0.019704
    39 0.028479 -1.403067 -0.005448 -0.429674 -0.007179 -0.018552
    40 0.021413 -0.949968 0.020046 -0.474328 -0.008353 -0.019727
    41 1.387138 -2.430655 -0.182049 0.181716 -0.247563 0.028242
    42 0.024032 -1.148574 -0.009538 -1.316400 0.024532 0.063423
    43 0.014898 -0.903521 -0.012035 -1.116573 0.012895 0.055165
    44 -0.496924 -1.315260 0.063438 0.046089 -0.441217 -2.821869
    45 1.577524 0.035243 0.016848 -0.023542 -0.007482 1.060083
    46 1.114041 0.040611 -0.005766 -0.031834 -0.033659 1.133260
    47 -0.139399 -0.111698 0.014397 0.547751 0.014729 1.506009
    48 -2.248965 8.835271 -0.348811 1.598149 -0.016030 -1.440433
  time 13
    0 6.652110 2.580678 -5.697000 1.536665 0.144103 -1.556389
    1 10.374578 1.770459 5.254278 -1.570796 0.000000 0.000000
    2 10.374576 1.770458 -4.987512 -1.570796 0.000000 0.000000
    3 20.977593 -1.810923 0.099099 -1.570796 0.000000 0.000000
    4 19.850611 -2.919320 1.053877 -1.570796 3.141592 0.000000
    5 1.136250 -0.000008 0.000000 0.000000 0.000000 0.000000
    6 0.163969 -1.053874 0.889052 0.000000 0.000000 -0.000001
    7 5.025912 0.000001 -0.000001 0.000000 0.000000 3.141592
    8 9.203300 0.828617 0.000000 0.000000 0.000000 -1.469692
    9 12.265710 7.447968 0.000000 -1.570796 1.570451 0.000000
    10 -1.854371 -3.165424 -1.116602 0.000000 0.000000 0.000000
    11 8.438983 9.568027 -3.694407 5.965978 -2.385141 0.382499
    12 0.628255 8.801648 -0.122462 -1.604766 0.012019 -1.496721
    13 0.041364 -8.408890 -0.084602 -0.430409 0.875596 -0.028141
    14 -0.488518 -2.755602 -0.228260 -1.572708 -0.177718 0.023991
    15 0.039887 -1.514947 0.010322 -1.082681 -0.013842 0.022436
    16 0.028786 -1.161671 -0.124675 -1.025158 -0.015053 0.021632
    17 0.250027 -2.820665 -0.238396 -1.659224 -0.096485 0.161223
    18 -0.049759 -1.618042 0.080947 -0.884149 0.008641 -0.024211
    19 -0.034142 -1.163937 0.053531 -0.944119 0.008150 -0.024377
    20 0.957766 -2.746780 -0.090302 -0.057777 -0.183765 0.043812
    21 -0.033420 -1.397129 -0.015163 -0.283970 0.006340 -0.013592
    22 -0.022360 -0.957436 0.010971 -0.294056 0.006148 -0.013674
    23 -1.180681 -2.507217 -0.193859 -0.844729 -0.059117 0.074764
    24 -0.024967 -1.127840 0.017597 -1.583613 -0.012788 -0.063086
    25 -0.020057 -0.902687 0.021809 -0.698854 0.007958 -0.027493
    26 0.595229 -1.220715 0.251787 -0.837213 -0.216084 0.257682
    27 1.297639 -0.329608 0.106575 0.206814 -0.315410 -1.473278
    28 0.940610 -0.225949 0.012759 0.144135 -0.084877 -1.398774
    29 0.120153 -0.050270 -0.054489 0.287569 3.110905 1.561085
    30 1.823045 -5.953938 -8.564045 0.141396 -5.514114 0.695589
    31 0.026629 -8.458231 0.033605 -0.057961 -0.566297 -0.246318
    32 0.701867 -2.736484 -0.305915 0.260194 -0.177557 0.124133
    33 -0.032909 -1.499736 0.032285 -1.517151 0.023286 -0.030067
    34 -0.027022 -1.088639 -0.028023 -0.358622 0.009743 -0.003080
    35 0.012193 -2.843058 -0.361719 -0.180625 0.187446 0.072355
    36 0.043235 -1.676128 0.096012 -0.331211 -0.003876 -0.001845
    37 0.031729 -1.145205 0.058838 -0.988087 -0.010827 0.005663
    38 -0.709952 -2.839834 -0.350983 -0.110994 0.289852 0.019704
    39 0.028479 -1.403067 -0.005448 -0.429674 -0.007179 -0.018552
    40 0.021413 -0.949968 0.020046 -0.474343 -0.008353 -0.019727
    41 1.387138 -2.430655 -0.182049 0.181716 -0.247563 0.028242
    42 0.024032 -1.148574 -0.009538 -1.316400 0.024532 0.063423
    43 0.014898 -0.903521 -0.012035 -1.116573 0.012895 0.055165
    44 -0.496924 -1.315260 0.063438 0.046089 -0.441217 -2.821869
    45 1.577524 0.035243 0.016848 -0.023542 -0.007482 1.060117
    46 1.114041 0.040611 -0.005766 -0.031834 -0.033659 1.133260
    47 -0.139399 -0.111698 0.014397 0.547751 0.014729 1.506009
    48 -2.248965 8.835271 -0.348811 1.598149 -0.016030 -1.440433
  time 14
    0 6.937275 2.369734 -5.872787 1.544622 0.121380 -1.555301
    1 10.374578 1.770459 5.254278 -1.570796 0.000000 0.000000
    2 10.374576 1.770458 -4.956261 -1.570796 0.000000 0.000000
    3 20.977593 -1.810923 0.099099 -1.570796 0.000000 0.000000
    4 19.850611 -2.919320 1.053877 -1.570796 3.141592 0.000000
    5 1.136250 -0.000008 0.000000 0.000000 0.000000 0.000000
    6 0.163969 -1.053874 0.889052 0.000000 0.000000 -0.000001
    7 5.025912 0.000001 -0.000001 0.000000 0.000000 3.141592
    8 9.203300 0.828617 0.000000 0.000000 0.000000 -1.469692
    9 12.265710 7.447968 0.000000 -1.570796 1.570787 0.000000
    10 -1.444203 -3.391993 -1.116602 0.000000 0.000000 0.000000
    11 8.462421 9.568027 -3.667062 5.947587 -2.376958 0.380895
    12 0.628255 8.801648 -0.122462 -1.604766 0.012019 -1.496721
    13 0.037457 -8.416703 -0.080696 -0.373161 0.863625 0.027730
    14 -0.488518 -2.755602 -0.228260 -1.572708 -0.177718 0.023991
    15 0.039887 -1.514947 0.010322 -1.082650 -0.013842 0.022436
    16 0.028786 -1.161671 -0.124675 -1.025158 -0.015053 0.021632
    17 0.250027 -2.820665 -0.238396 -1.659224 -0.096485 0.161223
    18 -0.049759 -1.618042 0.080947 -0.884149 0.008641 -0.024211
    19 -0.034142 -1.163937 0.053531 -0.944119 0.008150 -0.024377
    20 0.957766 -2.746780 -0.090302 -0.057777 -0.183765 0.043812
    21 -0.033420 -1.397129 -0.015163 -0.283970 0.006340 -0.013592
    22 -0.022360 -0.957436 0.010971 -0.294056 0.006148 -0.013674
    23 -1.180681 -2.507217 -0.193859 -0.844729 -0.059117 0.074764
    24 -0.024967 -1.127840 0.017597 -1.583613 -0.012788 -0.063086
    25 -0.020057 -0.902687 0.021809 -0.698854 0.007958 -0.027493
    26 0.595229 -1.220715 0.251787 -0.837213 -0.216084 0.257682
    27 1.297639 -0.329608 0.106575 0.206814 -0.315410 -1.473278
    28 0.940610 -0.225949 0.012759 0.144135 -0.084877 -1.398774
    29 0.120153 -0.050270 -0.054489 0.287569 3.110905 1.561085
    30 1.830858 -5.969564 -8.509355 0.111997 -5.511787 0.661192
    31 0.030536 -8.454325 0.033605 -0.072359 -0.562570 -0.230500
    32 0.701867 -2.736484 -0.305915 0.260194 -0.177557 0.124133
    33 -0.032909 -1.499736 0.032285 -1.517151 0.023286 -0.030067
    34 -0.027022 -1.088639 -0.028023 -0.358622 0.009743 -0.003080
    35 0.012193 -2.843058 -0.361719 -0.180625 0.187446 0.072355
    36 0.043235 -1.676128 0.096012 -0.331211 -0.003876 -0.001845
    37 0.031729 -1.145205 0.058838 -0.988087 -0.010827 0.005663
    38 -0.709952 -2.839834 -0.350983 -0.110994 0.289852 0.019704
    39 0.028479 -1.403067 -0.005448 -0.429674 -0.007179 -0.018552
    40 0.021413 -0.949968 0.020046 -0.474328 -0.008353 -0.019727
    41 1.387138 -2.430655 -0.182049 0.181716 -0.247563 0.028242
    42 0.024032 -1.148574 -0.009538 -1.316400 0.024532 0.063423
    43 0.014898 -0.903521 -0.012035 -1.116573 0.012895 0.055165
    44 -0.496924 -1.315260 0.063438 0.046089 -0.441217 -2.821869
    45 1.577524 0.035243 0.016848 -0.023542 -0.007482 1.060117
    46 1.114041 0.040611 -0.005766 -0.031834 -0.033659 1.133260
    47 -0.139399 -0.111698 0.014397 0.547751 0.014729 1.506009
    48 -2.248965 8.835271 -0.348811 1.598149 -0.016030 -1.440433
  time 15
    0 7.128688 2.190041 -6.064199 1.551813 0.095014 -1.556570
    1 10.374578 1.770459 5.254278 -1.570796 0.000000 0.000000
    2 10.374576 1.770458 -4.925010 -1.570796 0.000000 0.000000
    3 20.977593 -1.810923 0.099099 -1.570796 0.000000 0.000000
    4 19.850611 -2.919320 1.053877 -1.570796 3.141592 0.000000
    5 1.136250 -0.000008 0.000000 0.000000 0.000000 0.000000
    6 0.163969 -1.053874 0.889052 0.000000 0.000000 -0.000001
    7 5.025912 0.000001 -0.000001 0.000000 0.000000 3.141592
    8 9.203300 0.828617 0.000000 0.000000 0.000000 -1.469692
    9 12.265710 7.447968 0.000000 -1.570796 1.570451 0.000000
    10 -1.073098 -3.595125 -1.116602 0.000000 0.000000 0.000000
    11 8.481953 9.579746 -3.608467 5.922778 -2.365064 0.377153
    12 0.628255 8.801648 -0.122462 -1.604766 0.012019 -1.496721
    13 0.033551 -8.428422 -0.076789 -0.305353 0.846357 0.092441
    14 -0.488518 -2.755602 -0.228260 -1.572708 -0.177718 0.023991
    15 0.039887 -1.514947 0.010322 -1.082681 -0.013842 0.022436
    16 0.028786 -1.161671 -0.124675 -1.025158 -0.015053 0.021632
    17 0.250027 -2.820665 -0.238396 -1.659224 -0.096485 0.161223
    18 -0.049759 -1.618042 0.080947 -0.884177 0.008641 -0.024211
    19 -0.034142 -1.163937 0.053531 -0.944119 0.008150 -0.024377
    20 0.957766 -2.746780 -0.090302 -0.057777 -0.183765 0.043812
    21 -0.033420 -1.397129 -0.015163 -0.283970 0.006340 -0.013592
    22 -0.022360 -0.957436 0.010971 -0.294056 0.006148 -0.013674
    23 -1.180681 -2.507217 -0.193859 -0.844729 -0.059117 0.074764
    24 -0.024967 -1.127840 0.017597 -1.583613 -0.012788 -0.063086
    25 -0.020057 -0.902687 0.021809 -0.698854 0.007958 -0.027493
    26 0.595229 -1.220715 0.251787 -0.837213 -0.216084 0.257682
    27 1.297639 -0.329608 0.106575 0.206814 -0.315410 -1.473278
    28 0.940610 -0.225949 0.012759 0.144135 -0.084877 -1.398774
    29 0.120153 -0.050270 -0.054489 0.287569 3.110905 1.561085
    30 1.854296 -5.899249 -8.517168 0.063259 -5.508219 0.596731
    31 0.030536 -8.450418 0.033605 -0.089553 -0.557360 -0.195231
    32 0.701867 -2.736484 -0.305915 0.260194 -0.177557 0.124133
    33 -0.032909 -1.499736 0.032285 -1.517151 0.023286 -0.030067
    34 -0.027022 -1.088639 -0.028023 -0.358622 0.009743 -0.003068
    35 0.012193 -2.843058 -0.361719 -0.180625 0.187446 0.072355
    36 0.043235 -1.676128 0.096012 -0.331211 -0.003876 -0.001845
    37 0.031729 -1.145205 0.058838 -0.988087 -0.010827 0.005663
    38 -0.709952 -2.839834 -0.350983 -0.110994 0.289852 0.019704
    39 0.028479 -1.403067 -0.005448 -0.429674 -0.007179 -0.018552
    40 0.021413 -0.949968 0.020046 -0.474328 -0.008353 -0.019727
    41 1.387138 -2.430655 -0.182049 0.181716 -0.247563 0.028242
    42 0.024032 -1.148574 -0.009538 -1.316400 0.024532 0.063423
    43 0.014898 -0.903521 -0.012035 -1.116573 0.012895 0.055165
    44 -0.496924 -1.315260 0.063438 0.046089 -0.441217 -2.821869
    45 1.577524 0.035243 0.016848 -0.023542 -0.007482 1.060083
    46 1.114041 0.040611 -0.005766 -0.031834 -0.033659 1.133260
    47 -0.139399 -0.111698 0.014397 0.547751 0.014729 1.506009
    48 -2.248965 8.835271 -0.348811 1.598149 -0.016030 -1.440433
  time 16
    0 7.241972 2.041599 -6.255611 1.558045 0.067689 -1.559472
    1 10.374578 1.770459 5.254278 -1.570796 0.000000 0.000000
    2 10.374576 1.770458 -4.897666 -1.570796 0.000000 0.000000
    3 20.977593 -1.810923 0.099099 -1.570796 0.000000 0.000000
    4 19.850611 -2.919320 1.053877 -1.570796 3.141592 0.000000
    5 1.136250 -0.000008 0.000000 0.000000 0.000000 0.000000
    6 0.163969 -1.053874 0.889052 0.000000 0.000000 -0.000001
    7 5.025912 0.000001 -0.000001 0.000000 0.000000 3.141592
    8 9.203300 0.828617 0.000000 0.000000 0.000000 -1.469692
    9 12.265710 7.447968 0.000000 -1.570796 1.570451 0.000000
    10 -0.748869 -3.774818 -1.116602 0.000000 0.000000 0.000000
    11 8.505391 9.595372 -3.542058 5.894808 -2.350697 0.372074
    12 0.628255 8.801648 -0.122462 -1.604766 0.012019 -1.496721
    13 0.025738 -8.440141 -0.072883 -0.236239 0.823861 0.157030
    14 -0.488518 -2.755602 -0.228260 -1.572708 -0.177718 0.023991
    15 0.039887 -1.514947 0.010322 -1.082681 -0.013842 0.022436
    16 0.028786 -1.161671 -0.124675 -1.025158 -0.015053 0.021632
    17 0.250027 -2.820665 -0.238396 -1.659224 -0.096485 0.161223
    18 -0.049759 -1.618042 0.080947 -0.884149 0.008641 -0.024211
    19 -0.034142 -1.163937 0.053531 -0.944119 0.008150 -0.024377
    20 0.957766 -2.746780 -0.090302 -0.057777 -0.183765 0.043812
    21 -0.033420 -1.397129 -0.015163 -0.283970 0.006340 -0.013592
    22 -0.022360 -0.957436 0.010971 -0.294056 0.006148 -0.013674
    23 -1.180681 -2.507217 -0.193859 -0.844729 -0.059117 0.074764
    24 -0.024967 -1.127840 0.017597 -1.583613 -0.012788 -0.063086
    25 -0.020057 -0.902687 0.021809 -0.698854 0.007958 -0.027493
    26 0.595229 -1.220715 0.251787 -0.837213 -0.216084 0.257682
    27 1.297639 -0.329608 0.106575 0.206814 -0.315410 -1.473278
    28 0.940610 -0.225949 0.012759 0.144135 -0.084877 -1.398774
    29 0.120153 -0.050270 -0.054489 0.287569 3.110905 1.561085
    30 1.873828 -5.797683 -8.548419 0.006813 -5.506746 0.519831
    31 0.030536 -8.446512 0.029699 -0.107512 -0.551302 -0.152208
    32 0.701867 -2.736484 -0.305915 0.260194 -0.177557 0.124133
    33 -0.032909 -1.499736 0.032285 -1.517151 0.023286 -0.030067
    34 -0.027022 -1.088639 -0.028023 -0.358622 0.009743 -0.003068
    35 0.012193 -2.843058 -0.361719 -0.180625 0.187446 0.072355
    36 0.043235 -1.676128 0.096012 -0.331211 -0.003876 -0.001845
    37 0.031729 -1.145205 0.058838 -0.988087 -0.010827 0.005663
    38 -0.709952 -2.839834 -0.350983 -0.110994 0.289852 0.019704
    39 0.028479 -1.403067 -0.005448 -0.429674 -0.007179 -0.018552
    40 0.021413 -0.949968 0.020046 -0.474328 -0.008353 -0.019727
    41 1.387138 -2.430655 -0.182049 0.181716 -0.247563 0.028242
    42 0.024032 -1.148574 -0.009538 -1.316400 0.024532 0.063423
    43 0.014898 -0.903521 -0.012035 -1.116573 0.012895 0.055165
    44 -0.496924 -1.315260 0.063438 0.046089 -0.441217 -2.821869
    45 1.577524 0.035243 0.016848 -0.023542 -0.007482 1.060117
    46 1.114041 0.040611 -0.005766 -0.031834 -0.033659 1.133260
    47 -0.139399 -0.111698 0.014397 0.547751 0.014729 1.506009
    48 -2.248965 8.835271 -0.348811 1.598149 -0.016030 -1.440433
  time 17
    0 7.300568 1.924408 -6.435304 1.563318 0.041898 -1.563160
    1 10.374578 1.770459 5.254278 -1.570796 0.000000 0.000000
    2 10.374576 1.770458 -4.874227 -1.570796 0.000000 0.000000
    3 20.977593 -1.810923 0.099099 -1.570796 0.000000 0.000000
    4 19.850611 -2.919320 1.053877 -1.570796 3.141592 0.000000
    5 1.136250 -0.000008 0.000000 0.000000 0.000000 0.000000
    6 0.163969 -1.053874 0.889052 0.000000 0.000000 -0.000001
    7 5.025912 0.000001 -0.000001 0.000000 0.000000 3.141592
    8 9.203300 0.828617 0.000000 0.000000 0.000000 -1.469692
    9 12.265710 7.447968 0.000000 -1.570796 1.570787 0.000000
    10 -0.483236 -3.923260 -1.116602 0.000000 0.000000 0.000000
    11 8.528830 9.603185 -3.475650 5.867030 -2.335283 0.366638
    12 0.628255 8.801648 -0.122462 -1.604766 0.012019 -1.496721
    13 0.021832 -8.451860 -0.072883 -0.173870 0.798207 0.214067
    14 -0.488518 -2.755602 -0.228260 -1.572708 -0.177718 0.023991
    15 0.039887 -1.514947 0.010322 -1.082681 -0.013842 0.022436
    16 0.028786 -1.161671 -0.124675 -1.025158 -0.015053 0.021632
    17 0.250027 -2.820665 -0.238396 -1.659224 -0.096485 0.161223
    18 -0.049759 -1.618042 0.080947 -0.884149 0.008641 -0.024211
    19 -0.034142 -1.163937 0.053531 -0.944091 0.008150 -0.024377
    20 0.957766 -2.746780 -0.090302 -0.057777 -0.183765 0.043812
    21 -0.033420 -1.397129 -0.015163 -0.283970 0.006340 -0.013592
    22 -0.022360 -0.957436 0.010971 -0.294056 0.006148 -0.013674
    23 -1.180681 -2.507217 -0.193859 -0.844729 -0.059117 0.074764
    24 -0.024967 -1.127840 0.017597 -1.583613 -0.012788 -0.063086
    25 -0.020057 -0.902687 0.021809 -0.698854 0.007958 -0.027493
    26 0.595229 -1.220715 0.251787 -0.837213 -0.216084 0.257682
    27 1.297639 -0.329608 0.106575 0.206814 -0.315410 -1.473278
    28 0.940610 -0.225949 0.012759 0.144135 -0.084877 -1.398774
    29 0.120153 -0.050270 -0.054489 0.287569 3.110905 1.561085
    30 1.889453 -5.700024 -8.575764 -0.047869 -5.508375 0.444250
    31 0.026629 -8.438699 0.029699 -0.124412 -0.545118 -0.109806
    32 0.701867 -2.736484 -0.305915 0.260194 -0.177557 0.124133
    33 -0.032909 -1.499736 0.032285 -1.517151 0.023286 -0.030067
    34 -0.027022 -1.088639 -0.028023 -0.358622 0.009743 -0.003068
    35 0.012193 -2.843058 -0.361719 -0.180625 0.187446 0.072355
    36 0.043235 -1.676128 0.096012 -0.331211 -0.003876 -0.001845
    37 0.031729 -1.145205 0.058838 -0.988087 -0.010827 0.005663
    38 -0.709952 -2.839834 -0.350983 -0.110994 0.289852 0.019704
    39 0.028479 -1.403067 -0.005448 -0.429674 -0.007179 -0.018552
    40 0.021413 -0.949968 0.020046 -0.474328 -0.008353 -0.019727
    41 1.387138 -2.430655 -0.182049 0.181716 -0.247563 0.028242
    42 0.024032 -1.148574 -0.009538 -1.316400 0.024532 0.063423
    43 0.014898 -0.903521 -0.012035 -1.116573 0.012895 0.055165
    44 -0.496924 -1.315260 0.063438 0.046089 -0.441217 -2.821869
    45 1.577524 0.035243 0.016848 -0.023542 -0.007482 1.060117
    46 1.114041 0.040611 -0.005766 -0.031834 -0.033659 1.133260
    47 -0.139399 -0.111698 0.014397 0.547751 0.014729 1.506009
    48 -2.248965 8.835271 -0.348811 1.598149 -0.016030 -1.440433
  time 18
    0 7.320100 1.838468 -6.579839 1.567345 0.020326 -1.566847
    1 10.374578 1.770459 5.254278 -1.570796 0.000000 0.000000
    2 10.374576 1.770458 -4.858602 -1.570796 0.000000 0.000000
    3 20.977593 -1.810923 0.099099 -1.570796 0.000000 0.000000
    4 19.850611 -2.919320 1.053877 -1.570796 3.141592 0.000000
    5 1.136250 -0.000008 0.000000 0.000000 0.000000 0.000000
    6 0.163969 -1.053874 0.889052 0.000000 0.000000 -0.000001
    7 5.025912 0.000001 -0.000001 0.000000 0.000000 3.141592
    8 9.203300 0.828617 0.000000 0.000000 0.000000 -1.469692
    9 12.265710 7.447968 0.000000 -1.570796 1.570787 0.000000
    10 -0.280105 -4.032638 -1.116602 0.000000 0.000000 0.000000
    11 8.556174 9.607091 -3.424867 5.842795 -2.320725 0.361826
    12 0.628255 8.801648 -0.122462 -1.604766 0.012019 -1.496721
    13 0.017925 -8.459673 -0.068977 -0.124321 0.773375 0.258333
    14 -0.488518 -2.755602 -0.228260 -1.572708 -0.177718 0.023991
    15 0.039887 -1.514947 0.010322 -1.082681 -0.013842 0.022436
    16 0.028786 -1.161671 -0.124675 -1.025158 -0.015053 0.021632
    17 0.250027 -2.820665 -0.238396 -1.659224 -0.096485 0.161223
    18 -0.049759 -1.618042 0.080947 -0.884149 0.008641 -0.024211
    19 -0.034142 -1.163937 0.053531 -0.944119 0.008150 -0.024377
    20 0.957766 -2.746780 -0.090302 -0.057777 -0.183765 0.043812
    21 -0.033420 -1.397129 -0.015163 -0.283970 0.006340 -0.013592
    22 -0.022360 -0.957436 0.010971 -0.294056 0.006148 -0.013674
    23 -1.180681 -2.507217 -0.193859 -0.844729 -0.059117 0.074764
    24 -0.024967 -1.127840 0.017597 -1.583613 -0.012788 -0.063086
    25 -0.020057 -0.902687 0.021809 -0.698854 0.007958 -0.027493
    26 0.595229 -1.220715 0.251787 -0.837213 -0.216084 0.257682
    27 1.297639 -0.329608 0.106575 0.206814 -0.315410 -1.473278
    28 0.940610 -0.225949 0.012759 0.144135 -0.084877 -1.398774
    29 0.120153 -0.050270 -0.054489 0.287569 3.110905 1.561085
    30 1.897266 -5.621897 -8.595296 -0.093731 -5.512252 0.380166
    31 0.026629 -8.434793 0.025792 -0.138544 -0.539569 -0.073828
    32 0.701867 -2.736484 -0.305915 0.260194 -0.177557 0.124133
    33 -0.032909 -1.499736 0.032285 -1.517151 0.023286 -0.030067
    34 -0.027022 -1.088639 -0.028023 -0.358622 0.009743 -0.003080
    35 0.012193 -2.843058 -0.361719 -0.180625 0.187446 0.072355
    36 0.043235 -1.676128 0.096012 -0.331211 -0.003876 -0.001845
    37 0.031729 -1.145205 0.058838 -0.988087 -0.010827 0.005663
    38 -0.709952 -2.839834 -0.350983 -0.110994 0.289852 0.019704
    39 0.028479 -1.403067 -0.005448 -0.429674 -0.007179 -0.018552
    40 0.021413 -0.949968 0.020046 -0.474328 -0.008353 -0.019727
    41 1.387138 -2.430655 -0.182049 0.181716 -0.247563 0.028242
    42 0.024032 -1.148574 -0.009538 -1.316400 0.024532 0.063423
    43 0.014898 -0.903521 -0.012035 -1.116573 0.012895 0.055165
    44 -0.496924 -1.315260 0.063438 0.046089 -0.441217 -2.821869
    45 1.577524 0.035243 0.016848 -0.023542 -0.007482 1.060117
    46 1.114041 0.040611 -0.005766 -0.031834 -0.033659 1.133260
    47 -0.139399 -0.111698 0.014397 0.547751 0.014729 1.506009
    48 -2.248965 8.835271 -0.348811 1.598149 -0.016030 -1.440433
  time 19
    0 7.320100 1.783778 -6.677499 1.569933 0.005465 -1.569689
    1 10.374578 1.770459 5.254278 -1.570796 0.000000 0.000000
    2 10.374576 1.770458 -4.846883 -1.570796 0.000000 0.000000
    3 20.977593 -1.810923 0.099099 -1.570796 0.000000 0.000000
    4 19.850611 -2.919320 1.053877 -1.570796 3.141592 0.000000
    5 1.136250 -0.000008 0.000000 0.000000 0.000000 0.000000
    6 0.163969 -1.053874 0.889052 0.000000 0.000000 -0.000001
    7 5.025912 0.000001 -0.000001 0.000000 0.000000 3.141592
    8 9.203300 0.828617 0.000000 0.000000 0.000000 -1.469692
    9 12.265710 7.447968 0.000000 -1.570796 1.570451 0.000000
    10 -0.151195 -4.106859 -1.116602 0.000000 0.000000 0.000000
    11 8.579612 9.607091 -3.389710 5.825554 -2.309973 0.358351
    12 0.628255 8.801648 -0.122462 -1.604766 0.012019 -1.496721
    13 0.014019 -8.467485 -0.068977 -0.091865 0.754529 0.286760
    14 -0.488518 -2.755602 -0.228260 -1.572708 -0.177718 0.023991
    15 0.039887 -1.514947 0.010322 -1.082681 -0.013842 0.022436
    16 0.028786 -1.161671 -0.124675 -1.025158 -0.015053 0.021632
    17 0.250027 -2.820665 -0.238396 -1.659224 -0.096485 0.161223
    18 -0.049759 -1.618042 0.080947 -0.884149 0.008641 -0.024211
    19 -0.034142 -1.163937 0.053531 -0.944119 0.008150 -0.024377
    20 0.957766 -2.746780 -0.090302 -0.057777 -0.183765 0.043812
    21 -0.033420 -1.397129 -0.015163 -0.283970 0.006340 -0.013592
    22 -0.022360 -0.957436 0.010971 -0.294056 0.006148 -0.013674
    23 -1.180681 -2.507217 -0.193859 -0.844729 -0.059117 0.074764
    24 -0.024967 -1.127840 0.017597 -1.583613 -0.012788 -0.063086
    25 -0.020057 -0.902687 0.021809 -0.698854 0.007958 -0.027493
    26 0.595229 -1.220715 0.251787 -0.837213 -0.216084 0.257682
    27 1.297639 -0.329608 0.106575 0.206814 -0.315410 -1.473278
    28 0.940610 -0.225949 0.012759 0.144135 -0.084877 -1.398774
    29 0.120153 -0.050270 -0.054489 0.287569 3.110905 1.561085
    30 1.897266 -5.571114 -8.607015 -0.125090 -5.516208 0.335967
    31 0.026629 -8.430887 0.025792 -0.148231 -0.535544 -0.048882
    32 0.701867 -2.736484 -0.305915 0.260194 -0.177557 0.124133
    33 -0.032909 -1.499736 0.032285 -1.517151 0.023286 -0.030067
    34 -0.027022 -1.088639 -0.028023 -0.358622 0.009743 -0.003080
    35 0.012193 -2.843058 -0.361719 -0.180625 0.187446 0.072355
    36 0.043235 -1.676128 0.096012 -0.331211 -0.003876 -0.001845
    37 0.031729 -1.145205 0.058838 -0.988087 -0.010827 0.005663
    38 -0.709952 -2.839834 -0.350983 -0.110994 0.289852 0.019704
    39 0.028479 -1.403067 -0.005448 -0.429674 -0.007179 -0.018552
    40 0.021413 -0.949968 0.020046 -0.474328 -0.008353 -0.019727
    41 1.387138 -2.430655 -0.182049 0.181716 -0.247563 0.028242
    42 0.024032 -1.148574 -0.009538 -1.316400 0.024532 0.063423
    43 0.014898 -0.903521 -0.012035 -1.116573 0.012895 0.055165
    44 -0.496924 -1.315260 0.063438 0.046089 -0.441217 -2.821869
    45 1.577524 0.035243 0.016848 -0.023542 -0.007482 1.060117
    46 1.114041 0.040611 -0.005766 -0.031834 -0.033659 1.133260
    47 -0.139399 -0.111698 0.014397 0.547751 0.014729 1.506009
    48 -2.248965 8.835271 -0.348811 1.598149 -0.016030 -1.440433
  time 20
    0 7.316193 1.764247 -6.712656 1.570796 0.000000 -1.570837
    1 10.374578 1.770459 5.254278 -1.570796 0.000000 0.000000
    2 10.374576 1.770458 -4.846883 -1.570796 0.000000 0.000000
    3 20.977593 -1.810923 0.099099 -1.570796 0.000000 0.000000
    4 19.850611 -2.919320 1.053877 -1.570796 3.141592 0.000000
    5 1.136250 -0.000008 0.000000 0.000000 0.000000 0.000000
    6 0.163969 -1.053874 0.889052 0.000000 0.000000 -0.000001
    7 5.025912 0.000001 -0.000001 0.000000 0.000000 3.141592
    8 9.203300 0.828617 0.000000 0.000000 0.000000 -1.469692
    9 12.265710 7.447968 0.000000 -1.570796 1.570787 0.000000
    10 -0.104318 -4.130297 -1.116602 0.000000 0.000000 0.000000
    11 8.587425 9.607091 -3.377991 5.819040 -2.305691 0.357015
    12 0.628255 8.801648 -0.122462 -1.604766 0.012019 -1.496721
    13 0.014019 -8.471392 -0.068977 -0.080140 0.747161 0.296829
    14 -0.488518 -2.755602 -0.228260 -1.572708 -0.177718 0.023991
    15 0.039887 -1.514947 0.010322 -1.082681 -0.013842 0.022436
    16 0.028786 -1.161671 -0.124675 -1.025158 -0.015053 0.021632
    17 0.250027 -2.820665 -0.238396 -1.659224 -0.096485 0.161223
    18 -0.049759 -1.618042 0.080947 -0.884149 0.008641 -0.024211
    19 -0.034142 -1.163937 0.053531 -0.944119 0.008150 -0.024377
    20 0.957766 -2.746780 -0.090302 -0.057777 -0.183765 0.043812
    21 -0.033420 -1.397129 -0.015163 -0.283970 0.006340 -0.013592
    22 -0.022360 -0.957436 0.010971 -0.294056 0.006148 -0.013674
    23 -1.180681 -2.507217 -0.193859 -0.844729 -0.059117 0.074764
    24 -0.024967 -1.127840 0.017597 -1.583613 -0.012788 -0.063086
    25 -0.020057 -0.902687 0.021809 -0.698854 0.007958 -0.027493
    26 0.595229 -1.220715 0.251787 -0.837213 -0.216084 0.257682
    27 1.297639 -0.329608 0.106575 0.206814 -0.315410 -1.473278
    28 0.940610 -0.225949 0.012759 0.144135 -0.084877 -1.398774
    29 0.120153 -0.050270 -0.054489 0.287569 3.110905 1.561085
    30 1.897266 -5.551582 -8.610921 -0.136719 -5.517914 0.319475
    31 0.026629 -8.426980 0.025792 -0.151823 -0.534019 -0.039489
    32 0.701867 -2.736484 -0.305915 0.260194 -0.177557 0.124133
    33 -0.032909 -1.499736 0.032285 -1.517151 0.023286 -0.030067
    34 -0.027022 -1.088639 -0.028023 -0.358622 0.009743 -0.003068
    35 0.012193 -2.843058 -0.361719 -0.180625 0.187446 0.072355
    36 0.043235 -1.676128 0.096012 -0.331211 -0.003876 -0.001845
    37 0.031729 -1.145205 0.058838 -0.988087 -0.010827 0.005663
    38 -0.709952 -2.839834 -0.350983 -0.110994 0.289852 0.019704
    39 0.028479 -1.403067 -0.005448 -0.429674 -0.007179 -0.018552
    40 0.021413 -0.949968 0.020046 -0.474328 -0.008353 -0.019727
    41 1.387138 -2.430655 -0.182049 0.181716 -0.247563 0.028242
    42 0.024032 -1.148574 -0.009538 -1.316400 0.024532 0.063423
    43 0.014898 -0.903521 -0.012035 -1.116573 0.012895 0.055165
    44 -0.496924 -1.315260 0.063438 0.046089 -0.441217 -2.821869
    45 1.577524 0.035243 0.016848 -0.023542 -0.007482 1.060117
    46 1.114041 0.040611 -0.005766 -0.031834 -0.033659 1.133260
    47 -0.139399 -0.111698 0.014397 0.547751 0.014729 1.506009
    48 -2.248965 8.835271 -0.348811 1.598149 -0.016030 -1.440433
end
