version 1
nodes
  0 "Bone01" -1
  1 "Bone_Lefthand" 0
  2 "Bone02" 1
  3 "Bone03" 2
  4 "Bone52" 3
  5 "Bone25" 3
  6 "Bone50" 3
  7 "Bone48" 3
  8 "Bone 04" 1
  9 "Bone13" 8
  10 "Bone14" 9
  11 "Bone15" 10
  12 "Bone17" 8
  13 "Bone18" 12
  14 "Bone19" 13
  15 "Bone21" 8
  16 "Bone22" 15
  17 "Bone23" 16
  18 "Bone05" 8
  19 "Bone06" 18
  20 "Bone07" 19
  21 "Bone09" 8
  22 "Bone10" 21
  23 "Bone11" 22
  24 "Bone04" -1
  25 "Bone_Righthand" 24
  26 "Bone26" 25
  27 "Bone35" 26
  28 "Bone36" 27
  29 "Bone37" 28
  30 "Bone31" 26
  31 "Bone32" 30
  32 "Bone33" 31
  33 "Bone39" 26
  34 "Bone40" 33
  35 "Bone41" 34
  36 "Bone43" 26
  37 "Bone44" 36
  38 "Bone45" 37
  39 "Bone27" 26
  40 "Bone28" 39
  41 "Bone29" 40
end
skeleton
  time 0
    0 8.106566 4.665702 -7.194028 -0.784661 -1.331349 0.567278
    1 -0.001748 -8.563256 -0.000751 0.347509 -0.125173 -0.169614
    2 -0.219101 -3.426991 0.819250 -1.247037 1.437605 -1.233844
    3 0.000000 2.338130 0.839328 0.000000 0.000000 0.000000
    4 0.000001 -5.493101 2.360611 0.000000 0.000000 0.000000
    5 0.000001 -3.357312 1.408873 0.261779 0.000000 0.000000
    6 0.000001 -6.122600 1.221523 0.000000 0.000000 0.000000
    7 0.000000 -2.229289 1.941594 0.000000 0.000000 0.000000
    8 -0.003479 -0.404829 0.000000 0.000000 0.000000 0.000000
    9 -0.519310 -2.501155 -0.278957 -1.003564 0.000000 -0.122173
    10 -0.010598 -1.208185 0.000000 -1.148417 0.000000 0.000000
    11 0.000000 -0.763066 0.000000 -0.841249 0.000000 0.000000
    12 0.105980 -2.607135 -0.278957 -0.795871 0.000000 -0.148353
    13 0.000000 -1.250579 0.000000 -1.296776 0.000000 0.000000
    14 0.000000 -0.932634 0.000000 -0.886645 0.000000 0.000000
    15 0.763063 -2.490556 -0.278957 -0.226523 0.039309 0.239193
    16 -0.012323 -1.280918 0.000000 -0.788863 0.000000 0.000000
    17 -0.001696 -0.749371 0.000000 -0.933738 0.000000 0.000000
    18 0.354566 0.016267 0.318133 0.834772 -0.606745 -1.212439
    19 1.887166 0.012878 0.000000 -0.305433 0.000000 -0.401426
    20 1.001874 -0.000270 0.000000 0.000000 0.000000 -0.488692
    21 -1.123360 -2.195093 -0.278957 -0.933751 0.000000 -0.087266
    22 0.010772 -0.963792 0.000000 -0.610865 0.000000 0.000000
    23 -0.010412 -0.631916 0.000000 -1.370074 0.000000 0.000000
    24 1.434125 -7.419910 -8.272033 -0.497140 0.471883 0.200013
    25 0.089930 -8.543161 -0.000001 0.082474 -0.537511 0.530890
    26 0.000000 -0.359712 0.000000 0.000000 0.000000 0.000000
    27 -0.170479 -2.636147 -0.277657 -1.692969 0.000000 0.000000
    28 0.010599 -1.261176 0.000002 -0.253073 0.000000 0.000000
    29 -0.000001 -0.943233 -0.000002 -0.532326 0.000000 0.000000
    30 -0.827563 -2.508972 -0.277657 -1.396263 0.000000 0.000000
    31 0.000000 -1.292971 0.000001 -0.445059 0.000000 0.000000
    32 0.000000 -0.752465 0.000000 -0.445059 0.000000 0.000000
    33 0.444213 -2.561959 -0.277657 -1.727307 -0.046226 -0.024599
    34 0.021022 -1.208186 0.000001 -0.427606 0.000000 0.000000
    35 0.010597 -0.741867 -0.000001 -0.453786 0.000000 0.000000
    36 1.047445 -2.222820 -0.277657 -1.508123 -0.078971 -0.038609
    37 0.000000 -0.996224 -0.000002 -0.863938 0.000000 0.000000
    38 -0.000001 -0.614690 0.000000 -0.523599 0.000000 0.000000
    39 -0.308253 -0.007813 0.307166 -0.179973 -0.326092 -2.616278
    40 1.978376 0.019542 -0.000001 -0.084829 -0.033819 0.254889
    41 0.982425 0.003186 0.000001 0.000000 0.000000 0.326398
  time 1
    0 8.239382 5.267282 -7.279968 -0.846939 -1.316588 0.630150
    1 -0.001748 -8.563256 -0.000751 0.349972 -0.117795 -0.190055
    2 -0.219101 -3.426991 0.819250 -1.247037 1.437605 -1.233844
    3 0.000000 2.338130 0.839328 0.000000 0.000000 0.000000
    4 0.000001 -5.493101 2.360611 0.000000 0.000000 0.000000
    5 0.000001 -3.357312 1.408873 0.268790 0.000000 0.000000
    6 0.000001 -6.122600 1.221523 0.000000 0.000000 0.000000
    7 0.000000 -2.229289 1.941594 0.000000 0.000000 0.000000
    8 -0.003479 -0.404829 0.000000 0.000000 0.000000 0.000000
    9 -0.519310 -2.501155 -0.278957 -1.003564 0.000000 -0.122173
    10 -0.010598 -1.208185 0.000000 -1.148417 0.000000 0.000000
    11 0.000000 -0.763066 0.000000 -0.841249 0.000000 0.000000
    12 0.105980 -2.607135 -0.278957 -0.795871 0.000000 -0.148353
    13 0.000000 -1.250579 0.000000 -1.296776 0.000000 0.000000
    14 0.000000 -0.932634 0.000000 -0.886645 0.000000 0.000000
    15 0.763063 -2.490556 -0.278957 -0.223299 0.039309 0.239193
    16 -0.012323 -1.280918 0.000000 -0.801354 0.000000 0.000000
    17 -0.001696 -0.749371 0.000000 -0.942859 0.000000 0.000000
    18 0.354566 0.016267 0.318133 0.834772 -0.606745 -1.212439
    19 1.887166 0.012878 0.000000 -0.305433 0.000000 -0.401426
    20 1.001874 -0.000270 0.000000 0.000000 0.000000 -0.488692
    21 -1.123360 -2.195093 -0.278957 -0.933751 0.000000 -0.087266
    22 0.010772 -0.963792 0.000000 -0.610865 0.000000 0.000000
    23 -0.010412 -0.631916 0.000000 -1.370074 0.000000 0.000000
    24 1.684133 -6.990209 -8.561104 -0.547276 0.461179 0.179964
    25 0.089930 -8.543161 -0.000001 0.119072 -0.534406 0.503844
    26 0.000000 -0.359712 0.000000 0.000000 0.000000 0.000000
    27 -0.170479 -2.636147 -0.277657 -1.692969 0.000000 0.000000
    28 0.010599 -1.261176 0.000002 -0.253073 0.000000 0.000000
    29 -0.000001 -0.943233 -0.000002 -0.532326 0.000000 0.000000
    30 -0.827563 -2.508972 -0.277657 -1.396263 0.000000 0.000000
    31 0.000000 -1.292971 0.000001 -0.445059 0.000000 0.000000
    32 0.000000 -0.752465 0.000000 -0.445059 0.000000 0.000000
    33 0.444213 -2.561959 -0.277657 -1.727307 -0.046226 -0.024599
    34 0.021022 -1.208186 0.000001 -0.427606 0.000000 0.000000
    35 0.010597 -0.741867 -0.000001 -0.453786 0.000000 0.000000
    36 1.047445 -2.222820 -0.277657 -1.508123 -0.078971 -0.038609
    37 0.000000 -0.996224 -0.000002 -0.863938 0.000000 0.000000
    38 -0.000001 -0.614690 0.000000 -0.523599 0.000000 0.000000
    39 -0.308253 -0.007813 0.307166 -0.179973 -0.326092 -2.616278
    40 1.978376 0.019542 -0.000001 -0.084829 -0.033819 0.254889
    41 0.982425 0.003186 0.000001 0.000000 0.000000 0.326398
  time 2
    0 8.337041 5.712609 -7.346376 -0.902179 -1.300884 0.685999
    1 -0.001748 -8.563256 -0.000751 0.352288 -0.110367 -0.210460
    2 -0.219101 -3.426991 0.819250 -1.247037 1.437605 -1.233844
    3 0.000000 2.338130 0.839328 0.000000 0.000000 0.000000
    4 0.000001 -5.493101 2.360611 0.000000 0.000000 0.000000
    5 0.000001 -3.357312 1.408873 0.280475 0.000000 0.000000
    6 0.000001 -6.122600 1.221523 0.000000 0.000000 0.000000
    7 0.000000 -2.229289 1.941594 0.000000 0.000000 0.000000
    8 -0.003479 -0.404829 0.000000 0.000000 0.000000 0.000000
    9 -0.519310 -2.501155 -0.278957 -1.003564 0.000000 -0.122173
    10 -0.010598 -1.208185 0.000000 -1.148417 0.000000 0.000000
    11 0.000000 -0.763066 0.000000 -0.841249 0.000000 0.000000
    12 0.105980 -2.607135 -0.278957 -0.795871 0.000000 -0.148353
    13 0.000000 -1.250579 0.000000 -1.296776 0.000000 0.000000
    14 0.000000 -0.932634 0.000000 -0.886645 0.000000 0.000000
    15 0.763063 -2.490556 -0.278957 -0.217918 0.039309 0.239193
    16 -0.012323 -1.280918 0.000000 -0.822157 0.000000 0.000000
    17 -0.001696 -0.749371 0.000000 -0.958043 0.000000 0.000000
    18 0.354566 0.016267 0.318133 0.834772 -0.606745 -1.212439
    19 1.887166 0.012878 0.000000 -0.305433 0.000000 -0.401426
    20 1.001874 -0.000270 0.000000 0.000000 0.000000 -0.488692
    21 -1.123360 -2.195093 -0.278957 -0.933751 0.000000 -0.087266
    22 0.010772 -0.963792 0.000000 -0.610865 0.000000 0.000000
    23 -0.010412 -0.631916 0.000000 -1.370074 0.000000 0.000000
    24 1.434125 -6.837861 -8.647044 -0.574348 0.477677 0.208998
    25 0.089930 -8.543161 -0.000001 0.155484 -0.530408 0.477014
    26 0.000000 -0.359712 0.000000 0.000000 0.000000 0.000000
    27 -0.170479 -2.636147 -0.277657 -1.692969 0.000000 0.000000
    28 0.010599 -1.261176 0.000002 -0.253073 0.000000 0.000000
    29 -0.000001 -0.943233 -0.000002 -0.532326 0.000000 0.000000
    30 -0.827563 -2.508972 -0.277657 -1.396263 0.000000 0.000000
    31 0.000000 -1.292971 0.000001 -0.445059 0.000000 0.000000
    32 0.000000 -0.752465 0.000000 -0.445059 0.000000 0.000000
    33 0.444213 -2.561959 -0.277657 -1.727307 -0.046226 -0.024599
    34 0.021022 -1.208186 0.000001 -0.427606 0.000000 0.000000
    35 0.010597 -0.741867 -0.000001 -0.453786 0.000000 0.000000
    36 1.047445 -2.222820 -0.277657 -1.508123 -0.078971 -0.038609
    37 0.000000 -0.996224 -0.000002 -0.863938 0.000000 0.000000
    38 -0.000001 -0.614690 0.000000 -0.523599 0.000000 0.000000
    39 -0.308253 -0.007813 0.307166 -0.179973 -0.326092 -2.616278
    40 1.978376 0.019542 -0.000001 -0.084829 -0.033819 0.254889
    41 0.982425 0.003186 0.000001 0.000000 0.000000 0.326398
  time 3
    0 8.399543 6.001680 -7.397159 -0.925334 -1.293176 0.709692
    1 -0.001748 -8.563256 -0.000751 0.353226 -0.107209 -0.219144
    2 -0.219101 -3.426991 0.819250 -1.247037 1.437605 -1.233844
    3 0.000000 2.338130 0.839328 0.000000 0.000000 0.000000
    4 0.000001 -5.493101 2.360611 0.000000 0.000000 0.000000
    5 0.000001 -3.357312 1.408873 0.282824 0.000000 0.000000
    6 0.000001 -6.122600 1.221523 0.000000 0.000000 0.000000
    7 0.000000 -2.229289 1.941594 0.000000 0.000000 0.000000
    8 -0.003479 -0.404829 0.000000 0.000000 0.000000 0.000000
    9 -0.519310 -2.501155 -0.278957 -1.003564 0.000000 -0.122173
    10 -0.010598 -1.208185 0.000000 -1.148417 0.000000 0.000000
    11 0.000000 -0.763066 0.000000 -0.841249 0.000000 0.000000
    12 0.105980 -2.607135 -0.278957 -0.795871 0.000000 -0.148353
    13 0.000000 -1.250579 0.000000 -1.296776 0.000000 0.000000
    14 0.000000 -0.932634 0.000000 -0.886645 0.000000 0.000000
    15 0.763063 -2.490556 -0.278957 -0.216839 0.039309 0.239193
    16 -0.012323 -1.280918 0.000000 -0.826336 0.000000 0.000000
    17 -0.001696 -0.749371 0.000000 -0.961087 0.000000 0.000000
    18 0.354566 0.016267 0.318133 0.834772 -0.606745 -1.212439
    19 1.887166 0.012878 0.000000 -0.305433 0.000000 -0.401426
    20 1.001874 -0.000270 0.000000 0.000000 0.000000 -0.488692
    21 -1.123360 -2.195093 -0.278957 -0.933751 0.000000 -0.087266
    22 0.010772 -0.963792 0.000000 -0.610865 0.000000 0.000000
    23 -0.010412 -0.631916 0.000000 -1.370074 0.000000 0.000000
    24 1.223181 -6.712857 -8.428287 -0.580624 0.492323 0.234343
    25 0.089930 -8.543161 -0.000001 0.181428 -0.528073 0.464942
    26 0.000000 -0.359712 0.000000 0.000000 0.000000 0.000000
    27 -0.170479 -2.636147 -0.277657 -1.692969 0.000000 0.000000
    28 0.010599 -1.261176 0.000002 -0.253073 0.000000 0.000000
    29 -0.000001 -0.943233 -0.000002 -0.532326 0.000000 0.000000
    30 -0.827563 -2.508972 -0.277657 -1.396263 0.000000 0.000000
    31 0.000000 -1.292971 0.000001 -0.445059 0.000000 0.000000
    32 0.000000 -0.752465 0.000000 -0.445059 0.000000 0.000000
    33 0.444213 -2.561959 -0.277657 -1.727307 -0.046226 -0.024599
    34 0.021022 -1.208186 0.000001 -0.427606 0.000000 0.000000
    35 0.010597 -0.741867 -0.000001 -0.453786 0.000000 0.000000
    36 1.047445 -2.222820 -0.277657 -1.508123 -0.078971 -0.038609
    37 0.000000 -0.996224 -0.000002 -0.863938 0.000000 0.000000
    38 -0.000001 -0.614690 0.000000 -0.523599 0.000000 0.000000
    39 -0.308253 -0.007813 0.307166 -0.179973 -0.326092 -2.616278
    40 1.978376 0.019542 -0.000001 -0.084829 -0.033819 0.254889
    41 0.982425 0.003186 0.000001 0.000000 0.000000 0.326398
  time 4
    0 8.415169 6.056369 -7.440129 -0.915648 -1.295677 0.700300
    1 -0.001748 -8.563256 -0.000751 0.351702 -0.112304 -0.205171
    2 -0.219101 -3.426991 0.819250 -1.247037 1.437605 -1.233844
    3 0.000000 2.338130 0.839328 0.000000 0.000000 0.000000
    4 0.000001 -4.762610 2.360611 0.000000 0.000000 0.000000
    5 0.000001 -3.357312 1.408873 0.261779 0.000000 0.000000
    6 0.000001 -6.122600 1.221523 0.000000 0.000000 0.000000
    7 0.000000 -2.229289 1.941594 0.000000 0.000000 0.000000
    8 -0.003479 -0.404829 0.000000 0.000000 0.000000 0.000000
    9 -0.519310 -2.501155 -0.278957 -1.003564 0.000000 -0.122173
    10 -0.010598 -1.208185 0.000000 -1.148417 0.000000 0.000000
    11 0.000000 -0.763066 0.000000 -0.841249 0.000000 0.000000
    12 0.105980 -2.607135 -0.278957 -0.795871 0.000000 -0.148353
    13 0.000000 -1.250579 0.000000 -1.296776 0.000000 0.000000
    14 0.000000 -0.932634 0.000000 -0.886645 0.000000 0.000000
    15 0.763063 -2.490556 -0.278957 -0.226523 0.039309 0.239193
    16 -0.012323 -1.280918 0.000000 -0.788863 0.000000 0.000000
    17 -0.001696 -0.749371 0.000000 -0.933738 0.000000 0.000000
    18 0.354566 0.016267 0.318133 0.834772 -0.606745 -1.212439
    19 1.887166 0.012878 0.000000 -0.305433 0.000000 -0.401426
    20 1.001874 -0.000270 0.000000 0.000000 0.000000 -0.488692
    21 -1.123360 -2.195093 -0.278957 -0.933751 0.000000 -0.087266
    22 0.010772 -0.963792 0.000000 -0.610865 0.000000 0.000000
    23 -0.010412 -0.631916 0.000000 -1.370074 0.000000 0.000000
    24 1.352092 -6.326127 -8.186092 -0.550149 0.487897 0.228007
    25 0.089930 -8.543161 -0.000001 0.192028 -0.530184 0.481187
    26 0.000000 -0.359712 0.000000 0.000000 0.000000 0.000000
    27 -0.170479 -2.636147 -0.277657 -1.692969 0.000000 0.000000
    28 0.010599 -1.261176 0.000002 -0.253073 0.000000 0.000000
    29 -0.000001 -0.943233 -0.000002 -0.532326 0.000000 0.000000
    30 -0.827563 -2.508972 -0.277657 -1.396263 0.000000 0.000000
    31 0.000000 -1.292971 0.000001 -0.445059 0.000000 0.000000
    32 0.000000 -0.752465 0.000000 -0.445059 0.000000 0.000000
    33 0.444213 -2.561959 -0.277657 -1.727307 -0.046226 -0.024599
    34 0.021022 -1.208186 0.000001 -0.427606 0.000000 0.000000
    35 0.010597 -0.741867 -0.000001 -0.453786 0.000000 0.000000
    36 1.047445 -2.222820 -0.277657 -1.508123 -0.078971 -0.038609
    37 0.000000 -0.996224 -0.000002 -0.863938 0.000000 0.000000
    38 -0.000001 -0.614690 0.000000 -0.523599 0.000000 0.000000
    39 -0.308253 -0.007813 0.307166 -0.179973 -0.326092 -2.616278
    40 1.978376 0.019542 -0.000001 -0.084829 -0.033819 0.254889
    41 0.982425 0.003186 0.000001 0.000000 0.000000 0.326398
  time 5
    0 8.372199 5.861051 -7.467474 -0.890071 -1.302771 0.674914
    1 -0.001748 -8.563256 -0.000751 0.348711 -0.121632 -0.179477
    2 -0.219101 -3.426991 0.819250 -1.247037 1.437605 -1.233844
    3 0.000000 2.338130 0.839328 0.000000 0.000000 0.000000
    4 0.000001 -4.024306 2.360611 0.000000 0.000000 0.000000
    5 0.000001 -3.357312 1.408873 0.180919 0.000000 0.000000
    6 0.000001 -6.122600 1.221523 0.000000 0.000000 0.000000
    7 0.000000 -2.229289 1.941594 0.000000 0.000000 0.000000
    8 -0.003479 -0.404829 0.000000 0.000000 0.000000 0.000000
    9 -0.519310 -2.501155 -0.278957 -1.003564 0.000000 -0.122173
    10 -0.010598 -1.208185 0.000000 -1.148417 0.000000 0.000000
    11 0.000000 -0.763066 0.000000 -0.841249 0.000000 0.000000
    12 0.105980 -2.607135 -0.278957 -0.795871 0.000000 -0.148353
    13 0.000000 -1.250579 0.000000 -1.296776 0.000000 0.000000
    14 0.000000 -0.932634 0.000000 -0.886645 0.000000 0.000000
    15 0.763063 -2.490556 -0.278957 -0.260907 0.039309 0.239193
    16 -0.012323 -1.280918 0.000000 -0.655720 0.000000 0.000000
    17 -0.001696 -0.749371 0.000000 -0.836495 0.000000 0.000000
    18 0.354566 0.016267 0.318133 0.834772 -0.606745 -1.212439
    19 1.887166 0.012878 0.000000 -0.305433 0.000000 -0.401426
    20 1.001874 -0.000270 0.000000 0.000000 0.000000 -0.488692
    21 -1.123360 -2.195093 -0.278957 -0.933751 0.000000 -0.087266
    22 0.010772 -0.963792 0.000000 -0.610865 0.000000 0.000000
    23 -0.010412 -0.631916 0.000000 -1.370074 0.000000 0.000000
    24 1.598193 -6.142527 -7.693890 -0.506365 0.477918 0.210889
    25 0.089930 -8.543161 -0.000001 0.192240 -0.534729 0.512066
    26 0.000000 -0.359712 0.000000 0.000000 0.000000 0.000000
    27 -0.170479 -2.636147 -0.277657 -1.692969 0.000000 0.000000
    28 0.010599 -1.261176 0.000002 -0.253073 0.000000 0.000000
    29 -0.000001 -0.943233 -0.000002 -0.532326 0.000000 0.000000
    30 -0.827563 -2.508972 -0.277657 -1.396263 0.000000 0.000000
    31 0.000000 -1.292971 0.000001 -0.445059 0.000000 0.000000
    32 0.000000 -0.752465 0.000000 -0.445059 0.000000 0.000000
    33 0.444213 -2.561959 -0.277657 -1.727307 -0.046226 -0.024599
    34 0.021022 -1.208186 0.000001 -0.427606 0.000000 0.000000
    35 0.010597 -0.741867 -0.000001 -0.453786 0.000000 0.000000
    36 1.047445 -2.222820 -0.277657 -1.508123 -0.078971 -0.038609
    37 0.000000 -0.996224 -0.000002 -0.863938 0.000000 0.000000
    38 -0.000001 -0.614690 0.000000 -0.523599 0.000000 0.000000
    39 -0.308253 -0.007813 0.307166 -0.179973 -0.326092 -2.616278
    40 1.978376 0.019542 -0.000001 -0.084829 -0.033819 0.254889
    41 0.982425 0.003186 0.000001 0.000000 0.000000 0.326398
  time 6
    0 8.297978 5.509477 -7.475287 -0.855187 -1.311873 0.640135
    1 -0.001748 -8.563256 -0.000751 0.346688 -0.127468 -0.163181
    2 -0.219101 -3.426991 0.819250 -1.247037 1.437605 -1.233844
    3 0.000000 2.338130 0.839328 0.000000 0.000000 0.000000
    4 0.000001 -4.762610 2.360611 0.000000 0.000000 0.000000
    5 0.000001 -3.357312 1.408873 0.066814 0.000000 0.000000
    6 0.000001 -6.122600 1.221523 0.000000 0.000000 0.000000
    7 0.000000 -2.229289 1.941594 0.000000 0.000000 0.000000
    8 -0.003479 -0.404829 0.000000 0.000000 0.000000 0.000000
    9 -0.519310 -2.501155 -0.278957 -1.003564 0.000000 -0.122173
    10 -0.010598 -1.208185 0.000000 -1.148417 0.000000 0.000000
    11 0.000000 -0.763066 0.000000 -0.841249 0.000000 0.000000
    12 0.105980 -2.607135 -0.278957 -0.795871 0.000000 -0.148353
    13 0.000000 -1.250579 0.000000 -1.296776 0.000000 0.000000
    14 0.000000 -0.932634 0.000000 -0.886645 0.000000 0.000000
    15 0.763063 -2.490556 -0.278957 -0.310619 0.039309 0.239193
    16 -0.012323 -1.280918 0.000000 -0.463410 0.000000 0.000000
    17 -0.001696 -0.749371 0.000000 -0.696048 0.000000 0.000000
    18 0.354566 0.016267 0.318133 0.834772 -0.606745 -1.212439
    19 1.887166 0.012878 0.000000 -0.305433 0.000000 -0.401426
    20 1.001874 -0.000270 0.000000 0.000000 0.000000 -0.488692
    21 -1.123360 -2.195093 -0.278957 -0.933751 0.000000 -0.087266
    22 0.010772 -0.963792 0.000000 -0.610865 0.000000 0.000000
    23 -0.010412 -0.631916 0.000000 -1.370074 0.000000 0.000000
    24 1.699759 -6.435505 -7.611856 -0.481411 0.471883 0.200013
    25 0.089930 -8.543161 -0.000001 0.187205 -0.537511 0.530890
    26 0.000000 -0.359712 0.000000 0.000000 0.000000 0.000000
    27 -0.170479 -2.636147 -0.277657 -1.692969 0.000000 0.000000
    28 0.010599 -1.261176 0.000002 -0.253073 0.000000 0.000000
    29 -0.000001 -0.943233 -0.000002 -0.532326 0.000000 0.000000
    30 -0.827563 -2.508972 -0.277657 -1.396263 0.000000 0.000000
    31 0.000000 -1.292971 0.000001 -0.445059 0.000000 0.000000
    32 0.000000 -0.752465 0.000000 -0.445059 0.000000 0.000000
    33 0.444213 -2.561959 -0.277657 -1.727307 -0.046226 -0.024599
    34 0.021022 -1.208186 0.000001 -0.427606 0.000000 0.000000
    35 0.010597 -0.741867 -0.000001 -0.453786 0.000000 0.000000
    36 1.047445 -2.222820 -0.277657 -1.508123 -0.078971 -0.038609
    37 0.000000 -0.996224 -0.000002 -0.863938 0.000000 0.000000
    38 -0.000001 -0.614690 0.000000 -0.523599 0.000000 0.000000
    39 -0.308253 -0.007813 0.307166 -0.179973 -0.326092 -2.616278
    40 1.978376 0.019542 -0.000001 -0.084829 -0.033819 0.254889
    41 0.982425 0.003186 0.000001 0.000000 0.000000 0.326398
  time 7
    0 8.212038 5.091496 -7.483099 -0.819016 -1.320402 0.604088
    1 -0.001748 -8.563256 -0.000751 0.346277 -0.128628 -0.160001
    2 -0.219101 -3.426991 0.819250 -1.247037 1.437605 -1.233844
    3 0.000000 2.338130 0.839328 0.000000 0.000000 0.000000
    4 0.000001 -5.493101 2.360611 0.000000 0.000000 0.000000
    5 0.000001 -3.357312 1.408873 0.000000 0.000000 0.000000
    6 0.000001 -6.122600 1.221523 0.000000 0.000000 0.000000
    7 0.000000 -2.229289 1.941594 0.000000 0.000000 0.000000
    8 -0.003479 -0.404829 0.000000 0.000000 0.000000 0.000000
    9 -0.519310 -2.501155 -0.278957 -1.003564 0.000000 -0.122173
    10 -0.010598 -1.208185 0.000000 -1.148417 0.000000 0.000000
    11 0.000000 -0.763066 0.000000 -0.841249 0.000000 0.000000
    12 0.105980 -2.607135 -0.278957 -0.795871 0.000000 -0.148353
    13 0.000000 -1.250579 0.000000 -1.296776 0.000000 0.000000
    14 0.000000 -0.932634 0.000000 -0.886645 0.000000 0.000000
    15 0.763063 -2.490556 -0.278957 -0.346932 0.039309 0.239193
    16 -0.012323 -1.280918 0.000000 -0.322892 0.000000 0.000000
    17 -0.001696 -0.749371 0.000000 -0.593412 0.000000 0.000000
    18 0.354566 0.016267 0.318133 0.834772 -0.606745 -1.212439
    19 1.887166 0.012878 0.000000 -0.305433 0.000000 -0.401426
    20 1.001874 -0.000270 0.000000 0.000000 0.000000 -0.488692
    21 -1.123360 -2.195093 -0.278957 -0.933751 0.000000 -0.087266
    22 0.010772 -0.963792 0.000000 -0.610865 0.000000 0.000000
    23 -0.010412 -0.631916 0.000000 -1.370074 0.000000 0.000000
    24 1.609912 -6.915988 -7.811081 -0.477327 0.470997 0.198122
    25 0.089930 -8.543161 -0.000001 0.181123 -0.537958 0.534239
    26 0.000000 -0.359712 0.000000 0.000000 0.000000 0.000000
    27 -0.170479 -2.636147 -0.277657 -1.692969 0.000000 0.000000
    28 0.010599 -1.261176 0.000002 -0.253073 0.000000 0.000000
    29 -0.000001 -0.943233 -0.000002 -0.532326 0.000000 0.000000
    30 -0.827563 -2.508972 -0.277657 -1.396263 0.000000 0.000000
    31 0.000000 -1.292971 0.000001 -0.445059 0.000000 0.000000
    32 0.000000 -0.752465 0.000000 -0.445059 0.000000 0.000000
    33 0.444213 -2.561959 -0.277657 -1.727307 -0.046226 -0.024599
    34 0.021022 -1.208186 0.000001 -0.427606 0.000000 0.000000
    35 0.010597 -0.741867 -0.000001 -0.453786 0.000000 0.000000
    36 1.047445 -2.222820 -0.277657 -1.508123 -0.078971 -0.038609
    37 0.000000 -0.996224 -0.000002 -0.863938 0.000000 0.000000
    38 -0.000001 -0.614690 0.000000 -0.523599 0.000000 0.000000
    39 -0.308253 -0.007813 0.307166 -0.179973 -0.326092 -2.616278
    40 1.978376 0.019542 -0.000001 -0.084829 -0.033819 0.254889
    41 0.982425 0.003186 0.000001 0.000000 0.000000 0.326398
  time 8
    0 8.130004 4.712578 -7.483099 -0.792077 -1.326224 0.577179
    1 -0.001748 -8.563256 -0.000751 0.346160 -0.128998 -0.158964
    2 -0.219101 -3.426991 0.819250 -1.247037 1.437605 -1.233844
    3 0.000000 2.338130 0.839328 0.000000 0.000000 0.000000
    4 0.000001 -5.493101 2.360611 0.000000 0.000000 0.000000
    5 0.000001 -3.357312 1.408873 -0.013926 0.000000 0.000000
    6 0.000001 -6.122600 1.221523 0.000000 0.000000 0.000000
    7 0.000000 -2.229289 1.941594 0.000000 0.000000 0.000000
    8 -0.003479 -0.404829 0.000000 0.000000 0.000000 0.000000
    9 -0.519310 -2.501155 -0.278957 -1.003564 0.000000 -0.122173
    10 -0.010598 -1.208185 0.000000 -1.148417 0.000000 0.000000
    11 0.000000 -0.763066 0.000000 -0.841249 0.000000 0.000000
    12 0.105980 -2.607135 -0.278957 -0.795871 0.000000 -0.148353
    13 0.000000 -1.250579 0.000000 -1.296776 0.000000 0.000000
    14 0.000000 -0.932634 0.000000 -0.886645 0.000000 0.000000
    15 0.763063 -2.490556 -0.278957 -0.355837 0.039309 0.239193
    16 -0.012323 -1.280918 0.000000 -0.288385 0.000000 0.000000
    17 -0.001696 -0.749371 0.000000 -0.568208 0.000000 0.000000
    18 0.354566 0.016267 0.318133 0.834772 -0.606745 -1.212439
    19 1.887166 0.012878 0.000000 -0.305433 0.000000 -0.401426
    20 1.001874 -0.000270 0.000000 0.000000 0.000000 -0.488692
    21 -1.123360 -2.195093 -0.278957 -0.933751 0.000000 -0.087266
    22 0.010772 -0.963792 0.000000 -0.610865 0.000000 0.000000
    23 -0.010412 -0.631916 0.000000 -1.370074 0.000000 0.000000
    24 1.555223 -7.251936 -7.963429 -0.474832 0.470354 0.196892
    25 0.089930 -8.543161 -0.000001 0.174631 -0.538306 0.536622
    26 0.000000 -0.359712 0.000000 0.000000 0.000000 0.000000
    27 -0.170479 -2.636147 -0.277657 -1.692969 0.000000 0.000000
    28 0.010599 -1.261176 0.000002 -0.253073 0.000000 0.000000
    29 -0.000001 -0.943233 -0.000002 -0.532326 0.000000 0.000000
    30 -0.827563 -2.508972 -0.277657 -1.396263 0.000000 0.000000
    31 0.000000 -1.292971 0.000001 -0.445059 0.000000 0.000000
    32 0.000000 -0.752465 0.000000 -0.445059 0.000000 0.000000
    33 0.444213 -2.561959 -0.277657 -1.727307 -0.046226 -0.024599
    34 0.021022 -1.208186 0.000001 -0.427606 0.000000 0.000000
    35 0.010597 -0.741867 -0.000001 -0.453786 0.000000 0.000000
    36 1.047445 -2.222820 -0.277657 -1.508123 -0.078971 -0.038609
    37 0.000000 -0.996224 -0.000002 -0.863938 0.000000 0.000000
    38 -0.000001 -0.614690 0.000000 -0.523599 0.000000 0.000000
    39 -0.308253 -0.007813 0.307166 -0.179973 -0.326092 -2.616278
    40 1.978376 0.019542 -0.000001 -0.084829 -0.033819 0.254889
    41 0.982425 0.003186 0.000001 0.000000 0.000000 0.326398
  time 9
    0 8.075315 4.454758 -7.475287 -0.779667 -1.328889 0.564570
    1 -0.001748 -8.563256 -0.000751 0.346248 -0.128751 -0.159643
    2 -0.219101 -3.426991 0.819250 -1.247037 1.437605 -1.233844
    3 0.000000 2.338130 0.839328 0.000000 0.000000 0.000000
    4 0.000001 -5.493101 2.360611 0.000000 0.000000 0.000000
    5 0.000001 -3.357312 1.408873 -0.023430 0.000000 0.000000
    6 0.000001 -6.122600 1.221523 0.000000 0.000000 0.000000
    7 0.000000 -2.229289 1.941594 0.000000 0.000000 0.000000
    8 -0.003479 -0.404829 0.000000 0.000000 0.000000 0.000000
    9 -0.519310 -2.501155 -0.278957 -1.003564 0.000000 -0.122173
    10 -0.010598 -1.208185 0.000000 -1.148417 0.000000 0.000000
    11 0.000000 -0.763066 0.000000 -0.841249 0.000000 0.000000
    12 0.105980 -2.607135 -0.278957 -0.795871 0.000000 -0.148353
    13 0.000000 -1.250579 0.000000 -1.296776 0.000000 0.000000
    14 0.000000 -0.932634 0.000000 -0.886645 0.000000 0.000000
    15 0.763063 -2.490556 -0.278957 -0.351378 0.039309 0.239193
    16 -0.012323 -1.280918 0.000000 -0.305638 0.000000 0.000000
    17 -0.001696 -0.749371 0.000000 -0.580816 0.000000 0.000000
    18 0.354566 0.016267 0.318133 0.834772 -0.606745 -1.212439
    19 1.887166 0.012878 0.000000 -0.305433 0.000000 -0.401426
    20 1.001874 -0.000270 0.000000 0.000000 0.000000 -0.488692
    21 -1.123360 -2.195093 -0.278957 -0.933751 0.000000 -0.087266
    22 0.010772 -0.963792 0.000000 -0.610865 0.000000 0.000000
    23 -0.010412 -0.631916 0.000000 -1.370074 0.000000 0.000000
    24 1.523972 -7.458974 -8.072808 -0.473622 0.469871 0.196136
    25 0.089930 -8.543161 -0.000001 0.167780 -0.538480 0.538108
    26 0.000000 -0.359712 0.000000 0.000000 0.000000 0.000000
    27 -0.170479 -2.636147 -0.277657 -1.692969 0.000000 0.000000
    28 0.010599 -1.261176 0.000002 -0.253073 0.000000 0.000000
    29 -0.000001 -0.943233 -0.000002 -0.532326 0.000000 0.000000
    30 -0.827563 -2.508972 -0.277657 -1.396263 0.000000 0.000000
    31 0.000000 -1.292971 0.000001 -0.445059 0.000000 0.000000
    32 0.000000 -0.752465 0.000000 -0.445059 0.000000 0.000000
    33 0.444213 -2.561959 -0.277657 -1.727307 -0.046226 -0.024599
    34 0.021022 -1.208186 0.000001 -0.427606 0.000000 0.000000
    35 0.010597 -0.741867 -0.000001 -0.453786 0.000000 0.000000
    36 1.047445 -2.222820 -0.277657 -1.508123 -0.078971 -0.038609
    37 0.000000 -0.996224 -0.000002 -0.863938 0.000000 0.000000
    38 -0.000001 -0.614690 0.000000 -0.523599 0.000000 0.000000
    39 -0.308253 -0.007813 0.307166 -0.179973 -0.326092 -2.616278
    40 1.978376 0.019542 -0.000001 -0.084829 -0.033819 0.254889
    41 0.982425 0.003186 0.000001 0.000000 0.000000 0.326398
  time 10
    0 8.044064 4.310222 -7.475287 -0.776337 -1.329791 0.560847
    1 -0.001748 -8.563256 -0.000751 0.346483 -0.128097 -0.161466
    2 -0.219101 -3.426991 0.819250 -1.247037 1.437605 -1.233844
    3 0.000000 2.338130 0.839328 0.000000 0.000000 0.000000
    4 0.000001 -5.493101 2.360611 0.000000 0.000000 0.000000
    5 0.000001 -3.357312 1.408873 -0.029039 0.000000 0.000000
    6 0.000001 -6.122600 1.221523 0.000000 0.000000 0.000000
    7 0.000000 -2.229289 1.941594 0.000000 0.000000 0.000000
    8 -0.003479 -0.404829 0.000000 0.000000 0.000000 0.000000
    9 -0.519310 -2.501155 -0.278957 -1.003564 0.000000 -0.122173
    10 -0.010598 -1.208185 0.000000 -1.148417 0.000000 0.000000
    11 0.000000 -0.763066 0.000000 -0.841249 0.000000 0.000000
    12 0.105980 -2.607135 -0.278957 -0.795871 0.000000 -0.148353
    13 0.000000 -1.250579 0.000000 -1.296776 0.000000 0.000000
    14 0.000000 -0.932634 0.000000 -0.886645 0.000000 0.000000
    15 0.763063 -2.490556 -0.278957 -0.346932 0.039309 0.239193
    16 -0.012323 -1.280918 0.000000 -0.322892 0.000000 0.000000
    17 -0.001696 -0.749371 0.000000 -0.593412 0.000000 0.000000
    18 0.354566 0.016267 0.318133 0.834772 -0.606745 -1.212439
    19 1.887166 0.012878 0.000000 -0.305433 0.000000 -0.401426
    20 1.001874 -0.000270 0.000000 0.000000 0.000000 -0.488692
    21 -1.123360 -2.195093 -0.278957 -0.933751 0.000000 -0.087266
    22 0.010772 -0.963792 0.000000 -0.610865 0.000000 0.000000
    23 -0.010412 -0.631916 0.000000 -1.370074 0.000000 0.000000
    24 1.496627 -7.619135 -8.166561 -0.473622 0.469710 0.195757
    25 0.089930 -8.543161 -0.000001 0.160585 -0.538554 0.538842
    26 0.000000 -0.359712 0.000000 0.000000 0.000000 0.000000
    27 -0.170479 -2.636147 -0.277657 -1.692969 0.000000 0.000000
    28 0.010599 -1.261176 0.000002 -0.253073 0.000000 0.000000
    29 -0.000001 -0.943233 -0.000002 -0.532326 0.000000 0.000000
    30 -0.827563 -2.508972 -0.277657 -1.396263 0.000000 0.000000
    31 0.000000 -1.292971 0.000001 -0.445059 0.000000 0.000000
    32 0.000000 -0.752465 0.000000 -0.445059 0.000000 0.000000
    33 0.444213 -2.561959 -0.277657 -1.727307 -0.046226 -0.024599
    34 0.021022 -1.208186 0.000001 -0.427606 0.000000 0.000000
    35 0.010597 -0.741867 -0.000001 -0.453786 0.000000 0.000000
    36 1.047445 -2.222820 -0.277657 -1.508123 -0.078971 -0.038609
    37 0.000000 -0.996224 -0.000002 -0.863938 0.000000 0.000000
    38 -0.000001 -0.614690 0.000000 -0.523599 0.000000 0.000000
    39 -0.308253 -0.007813 0.307166 -0.179973 -0.326092 -2.616278
    40 1.978376 0.019542 -0.000001 -0.084829 -0.033819 0.254889
    41 0.982425 0.003186 0.000001 0.000000 0.000000 0.326398
  time 11
    0 8.020626 4.200844 -7.471380 -0.777094 -1.329832 0.561355
    1 -0.001748 -8.563256 -0.000751 0.346776 -0.127233 -0.163896
    2 -0.219101 -3.426991 0.819250 -1.247037 1.437605 -1.233844
    3 0.000000 2.338130 0.839328 0.000000 0.000000 0.000000
    4 0.000001 -5.493101 2.360611 0.000000 0.000000 0.000000
    5 0.000001 -3.357312 1.408873 -0.031364 0.000000 0.000000
    6 0.000001 -6.122600 1.221523 0.000000 0.000000 0.000000
    7 0.000000 -2.229289 1.941594 0.000000 0.000000 0.000000
    8 -0.003479 -0.404829 0.000000 0.000000 0.000000 0.000000
    9 -0.519310 -2.501155 -0.278957 -1.003564 0.000000 -0.122173
    10 -0.010598 -1.208185 0.000000 -1.148417 0.000000 0.000000
    11 0.000000 -0.763066 0.000000 -0.841249 0.000000 0.000000
    12 0.105980 -2.607135 -0.278957 -0.795871 0.000000 -0.148353
    13 0.000000 -1.250579 0.000000 -1.296776 0.000000 0.000000
    14 0.000000 -0.932634 0.000000 -0.886645 0.000000 0.000000
    15 0.763063 -2.490556 -0.278957 -0.346932 0.039309 0.239193
    16 -0.012323 -1.280918 0.000000 -0.322892 0.000000 0.000000
    17 -0.001696 -0.749371 0.000000 -0.593412 0.000000 0.000000
    18 0.354566 0.016267 0.318133 0.834772 -0.606745 -1.212439
    19 1.887166 0.012878 0.000000 -0.305433 0.000000 -0.401426
    20 1.001874 -0.000270 0.000000 0.000000 0.000000 -0.488692
    21 -1.123360 -2.195093 -0.278957 -0.933751 0.000000 -0.087266
    22 0.010772 -0.963792 0.000000 -0.610865 0.000000 0.000000
    23 -0.010412 -0.631916 0.000000 -1.370074 0.000000 0.000000
    24 1.465376 -7.740232 -8.256407 -0.474605 0.469629 0.195663
    25 0.089930 -8.543161 -0.000001 0.153152 -0.538554 0.538950
    26 0.000000 -0.359712 0.000000 0.000000 0.000000 0.000000
    27 -0.170479 -2.636147 -0.277657 -1.692969 0.000000 0.000000
    28 0.010599 -1.261176 0.000002 -0.253073 0.000000 0.000000
    29 -0.000001 -0.943233 -0.000002 -0.532326 0.000000 0.000000
    30 -0.827563 -2.508972 -0.277657 -1.396263 0.000000 0.000000
    31 0.000000 -1.292971 0.000001 -0.445059 0.000000 0.000000
    32 0.000000 -0.752465 0.000000 -0.445059 0.000000 0.000000
    33 0.444213 -2.561959 -0.277657 -1.727307 -0.046226 -0.024599
    34 0.021022 -1.208186 0.000001 -0.427606 0.000000 0.000000
    35 0.010597 -0.741867 -0.000001 -0.453786 0.000000 0.000000
    36 1.047445 -2.222820 -0.277657 -1.508123 -0.078971 -0.038609
    37 0.000000 -0.996224 -0.000002 -0.863938 0.000000 0.000000
    38 -0.000001 -0.614690 0.000000 -0.523599 0.000000 0.000000
    39 -0.308253 -0.007813 0.307166 -0.179973 -0.326092 -2.616278
    40 1.978376 0.019542 -0.000001 -0.084829 -0.033819 0.254889
    41 0.982425 0.003186 0.000001 0.000000 0.000000 0.326398
  time 12
    0 8.001094 4.122716 -7.459661 -0.777018 -1.329873 0.561693
    1 -0.001748 -8.563256 -0.000751 0.347098 -0.126320 -0.166433
    2 -0.219101 -3.426991 0.819250 -1.247037 1.437605 -1.233844
    3 0.000000 2.338130 0.839328 0.000000 0.000000 0.000000
    4 0.000001 -5.493101 2.360611 0.000000 0.000000 0.000000
    5 0.000001 -3.357312 1.408873 -0.030968 0.000000 0.000000
    6 0.000001 -6.122600 1.221523 0.000000 0.000000 0.000000
    7 0.000000 -2.229289 1.941594 0.000000 0.000000 0.000000
    8 -0.003479 -0.404829 0.000000 0.000000 0.000000 0.000000
    9 -0.519310 -2.501155 -0.278957 -1.003564 0.000000 -0.122173
    10 -0.010598 -1.208185 0.000000 -1.148417 0.000000 0.000000
    11 0.000000 -0.763066 0.000000 -0.841249 0.000000 0.000000
    12 0.105980 -2.607135 -0.278957 -0.795871 0.000000 -0.148353
    13 0.000000 -1.250579 0.000000 -1.296776 0.000000 0.000000
    14 0.000000 -0.932634 0.000000 -0.886645 0.000000 0.000000
    15 0.763063 -2.490556 -0.278957 -0.346932 0.039309 0.239193
    16 -0.012323 -1.280918 0.000000 -0.322892 0.000000 0.000000
    17 -0.001696 -0.749371 0.000000 -0.593412 0.000000 0.000000
    18 0.354566 0.016267 0.318133 0.834772 -0.606745 -1.212439
    19 1.887166 0.012878 0.000000 -0.305433 0.000000 -0.401426
    20 1.001874 -0.000270 0.000000 0.000000 0.000000 -0.488692
    21 -1.123360 -2.195093 -0.278957 -0.933751 0.000000 -0.087266
    22 0.010772 -0.963792 0.000000 -0.610865 0.000000 0.000000
    23 -0.010412 -0.631916 0.000000 -1.370074 0.000000 0.000000
    24 1.441938 -7.814453 -8.326722 -0.476344 0.469790 0.195946
    25 0.089930 -8.543161 -0.000001 0.145506 -0.538455 0.538538
    26 0.000000 -0.359712 0.000000 0.000000 0.000000 0.000000
    27 -0.170479 -2.636147 -0.277657 -1.692969 0.000000 0.000000
    28 0.010599 -1.261176 0.000002 -0.253073 0.000000 0.000000
    29 -0.000001 -0.943233 -0.000002 -0.532326 0.000000 0.000000
    30 -0.827563 -2.508972 -0.277657 -1.396263 0.000000 0.000000
    31 0.000000 -1.292971 0.000001 -0.445059 0.000000 0.000000
    32 0.000000 -0.752465 0.000000 -0.445059 0.000000 0.000000
    33 0.444213 -2.561959 -0.277657 -1.727307 -0.046226 -0.024599
    34 0.021022 -1.208186 0.000001 -0.427606 0.000000 0.000000
    35 0.010597 -0.741867 -0.000001 -0.453786 0.000000 0.000000
    36 1.047445 -2.222820 -0.277657 -1.508123 -0.078971 -0.038609
    37 0.000000 -0.996224 -0.000002 -0.863938 0.000000 0.000000
    38 -0.000001 -0.614690 0.000000 -0.523599 0.000000 0.000000
    39 -0.308253 -0.007813 0.307166 -0.179973 -0.326092 -2.616278
    40 1.978376 0.019542 -0.000001 -0.084829 -0.033819 0.254889
    41 0.982425 0.003186 0.000001 0.000000 0.000000 0.326398
  time 13
    0 7.993281 4.075840 -7.440129 -0.775051 -1.330119 0.560763
    1 -0.001748 -8.563256 -0.000751 0.347362 -0.125556 -0.168542
    2 -0.219101 -3.426991 0.819250 -1.247037 1.437605 -1.233844
    3 0.000000 2.338130 0.839328 0.000000 0.000000 0.000000
    4 0.000001 -5.493101 2.360611 0.000000 0.000000 0.000000
    5 0.000001 -3.357312 1.408873 -0.028451 0.000000 0.000000
    6 0.000001 -6.122600 1.221523 0.000000 0.000000 0.000000
    7 0.000000 -2.229289 1.941594 0.000000 0.000000 0.000000
    8 -0.003479 -0.404829 0.000000 0.000000 0.000000 0.000000
    9 -0.519310 -2.501155 -0.278957 -1.003564 0.000000 -0.122173
    10 -0.010598 -1.208185 0.000000 -1.148417 0.000000 0.000000
    11 0.000000 -0.763066 0.000000 -0.841249 0.000000 0.000000
    12 0.105980 -2.607135 -0.278957 -0.795871 0.000000 -0.148353
    13 0.000000 -1.250579 0.000000 -1.296776 0.000000 0.000000
    14 0.000000 -0.932634 0.000000 -0.886645 0.000000 0.000000
    15 0.763063 -2.490556 -0.278957 -0.346932 0.039309 0.239193
    16 -0.012323 -1.280918 0.000000 -0.322892 0.000000 0.000000
    17 -0.001696 -0.749371 0.000000 -0.593412 0.000000 0.000000
    18 0.354566 0.016267 0.318133 0.834772 -0.606745 -1.212439
    19 1.887166 0.012878 0.000000 -0.305433 0.000000 -0.401426
    20 1.001874 -0.000270 0.000000 0.000000 0.000000 -0.488692
    21 -1.123360 -2.195093 -0.278957 -0.933751 0.000000 -0.087266
    22 0.010772 -0.963792 0.000000 -0.610865 0.000000 0.000000
    23 -0.010412 -0.631916 0.000000 -1.370074 0.000000 0.000000
    24 1.426313 -7.861330 -8.381411 -0.478688 0.469951 0.196325
    25 0.089930 -8.543161 -0.000001 0.137675 -0.538355 0.537732
    26 0.000000 -0.359712 0.000000 0.000000 0.000000 0.000000
    27 -0.170479 -2.636147 -0.277657 -1.692969 0.000000 0.000000
    28 0.010599 -1.261176 0.000002 -0.253073 0.000000 0.000000
    29 -0.000001 -0.943233 -0.000002 -0.532326 0.000000 0.000000
    30 -0.827563 -2.508972 -0.277657 -1.396263 0.000000 0.000000
    31 0.000000 -1.292971 0.000001 -0.445059 0.000000 0.000000
    32 0.000000 -0.752465 0.000000 -0.445059 0.000000 0.000000
    33 0.444213 -2.561959 -0.277657 -1.727307 -0.046226 -0.024599
    34 0.021022 -1.208186 0.000001 -0.427606 0.000000 0.000000
    35 0.010597 -0.741867 -0.000001 -0.453786 0.000000 0.000000
    36 1.047445 -2.222820 -0.277657 -1.508123 -0.078971 -0.038609
    37 0.000000 -0.996224 -0.000002 -0.863938 0.000000 0.000000
    38 -0.000001 -0.614690 0.000000 -0.523599 0.000000 0.000000
    39 -0.308253 -0.007813 0.307166 -0.179973 -0.326092 -2.616278
    40 1.978376 0.019542 -0.000001 -0.084829 -0.033819 0.254889
    41 0.982425 0.003186 0.000001 0.000000 0.000000 0.326398
  time 14
    0 7.989375 4.060214 -7.416691 -0.773537 -1.330201 0.560255
    1 -0.001748 -8.563256 -0.000751 0.347509 -0.125173 -0.169614
    2 -0.219101 -3.426991 0.819250 -1.247037 1.437605 -1.233844
    3 0.000000 2.338130 0.839328 0.000000 0.000000 0.000000
    4 0.000001 -5.493101 2.360611 0.000000 0.000000 0.000000
    5 0.000001 -3.357312 1.408873 -0.024389 0.000000 0.000000
    6 0.000001 -6.122600 1.221523 0.000000 0.000000 0.000000
    7 0.000000 -2.229289 1.941594 0.000000 0.000000 0.000000
    8 -0.003479 -0.404829 0.000000 0.000000 0.000000 0.000000
    9 -0.519310 -2.501155 -0.278957 -1.003564 0.000000 -0.122173
    10 -0.010598 -1.208185 0.000000 -1.148417 0.000000 0.000000
    11 0.000000 -0.763066 0.000000 -0.841249 0.000000 0.000000
    12 0.105980 -2.607135 -0.278957 -0.795871 0.000000 -0.148353
    13 0.000000 -1.250579 0.000000 -1.296776 0.000000 0.000000
    14 0.000000 -0.932634 0.000000 -0.886645 0.000000 0.000000
    15 0.763063 -2.490556 -0.278957 -0.346932 0.039309 0.239193
    16 -0.012323 -1.280918 0.000000 -0.322892 0.000000 0.000000
    17 -0.001696 -0.749371 0.000000 -0.593412 0.000000 0.000000
    18 0.354566 0.016267 0.318133 0.834772 -0.606745 -1.212439
    19 1.887166 0.012878 0.000000 -0.305433 0.000000 -0.401426
    20 1.001874 -0.000270 0.000000 0.000000 0.000000 -0.488692
    21 -1.123360 -2.195093 -0.278957 -0.933751 0.000000 -0.087266
    22 0.010772 -0.963792 0.000000 -0.610865 0.000000 0.000000
    23 -0.010412 -0.631916 0.000000 -1.370074 0.000000 0.000000
    24 1.418500 -7.904300 -8.400943 -0.481562 0.470354 0.196892
    25 0.089930 -8.543161 -0.000001 0.129738 -0.538182 0.536639
    26 0.000000 -0.359712 0.000000 0.000000 0.000000 0.000000
    27 -0.170479 -2.636147 -0.277657 -1.692969 0.000000 0.000000
    28 0.010599 -1.261176 0.000002 -0.253073 0.000000 0.000000
    29 -0.000001 -0.943233 -0.000002 -0.532326 0.000000 0.000000
    30 -0.827563 -2.508972 -0.277657 -1.396263 0.000000 0.000000
    31 0.000000 -1.292971 0.000001 -0.445059 0.000000 0.000000
    32 0.000000 -0.752465 0.000000 -0.445059 0.000000 0.000000
    33 0.444213 -2.561959 -0.277657 -1.727307 -0.046226 -0.024599
    34 0.021022 -1.208186 0.000001 -0.427606 0.000000 0.000000
    35 0.010597 -0.741867 -0.000001 -0.453786 0.000000 0.000000
    36 1.047445 -2.222820 -0.277657 -1.508123 -0.078971 -0.038609
    37 0.000000 -0.996224 -0.000002 -0.863938 0.000000 0.000000
    38 -0.000001 -0.614690 0.000000 -0.523599 0.000000 0.000000
    39 -0.308253 -0.007813 0.307166 -0.179973 -0.326092 -2.616278
    40 1.978376 0.019542 -0.000001 -0.084829 -0.033819 0.254889
    41 0.982425 0.003186 0.000001 0.000000 0.000000 0.326398
  time 15
    0 7.989375 4.079746 -7.393253 -0.772175 -1.330201 0.560170
    1 -0.001748 -8.563256 -0.000751 0.347509 -0.125062 -0.169935
    2 -0.219101 -3.426991 0.819250 -1.247037 1.437605 -1.233844
    3 0.000000 2.338130 0.839328 0.000000 0.000000 0.000000
    4 0.000001 -5.493101 2.360611 0.000000 0.000000 0.000000
    5 0.000001 -3.357312 1.408873 -0.019343 0.000000 0.000000
    6 0.000001 -6.122600 1.221523 0.000000 0.000000 0.000000
    7 0.000000 -2.229289 1.941594 0.000000 0.000000 0.000000
    8 -0.003479 -0.404829 0.000000 0.000000 0.000000 0.000000
    9 -0.519310 -2.501155 -0.278957 -1.003564 0.000000 -0.122173
    10 -0.010598 -1.208185 0.000000 -1.148417 0.000000 0.000000
    11 0.000000 -0.763066 0.000000 -0.841249 0.000000 0.000000
    12 0.105980 -2.607135 -0.278957 -0.795871 0.000000 -0.148353
    13 0.000000 -1.250579 0.000000 -1.296776 0.000000 0.000000
    14 0.000000 -0.932634 0.000000 -0.886645 0.000000 0.000000
    15 0.763063 -2.490556 -0.278957 -0.346932 0.039309 0.239193
    16 -0.012323 -1.280918 0.000000 -0.322892 0.000000 0.000000
    17 -0.001696 -0.749371 0.000000 -0.593412 0.000000 0.000000
    18 0.354566 0.016267 0.318133 0.834772 -0.606745 -1.212439
    19 1.887166 0.012878 0.000000 -0.305433 0.000000 -0.401426
    20 1.001874 -0.000270 0.000000 0.000000 0.000000 -0.488692
    21 -1.123360 -2.195093 -0.278957 -0.933751 0.000000 -0.087266
    22 0.010772 -0.963792 0.000000 -0.610865 0.000000 0.000000
    23 -0.010412 -0.631916 0.000000 -1.370074 0.000000 0.000000
    24 1.426313 -7.923832 -8.400943 -0.484662 0.470676 0.197649
    25 0.089930 -8.543161 -0.000001 0.121735 -0.538008 0.535368
    26 0.000000 -0.359712 0.000000 0.000000 0.000000 0.000000
    27 -0.170479 -2.636147 -0.277657 -1.692969 0.000000 0.000000
    28 0.010599 -1.261176 0.000002 -0.253073 0.000000 0.000000
    29 -0.000001 -0.943233 -0.000002 -0.532326 0.000000 0.000000
    30 -0.827563 -2.508972 -0.277657 -1.396263 0.000000 0.000000
    31 0.000000 -1.292971 0.000001 -0.445059 0.000000 0.000000
    32 0.000000 -0.752465 0.000000 -0.445059 0.000000 0.000000
    33 0.444213 -2.561959 -0.277657 -1.727307 -0.046226 -0.024599
    34 0.021022 -1.208186 0.000001 -0.427606 0.000000 0.000000
    35 0.010597 -0.741867 -0.000001 -0.453786 0.000000 0.000000
    36 1.047445 -2.222820 -0.277657 -1.508123 -0.078971 -0.038609
    37 0.000000 -0.996224 -0.000002 -0.863938 0.000000 0.000000
    38 -0.000001 -0.614690 0.000000 -0.523599 0.000000 0.000000
    39 -0.308253 -0.007813 0.307166 -0.179973 -0.326092 -2.616278
    40 1.978376 0.019542 -0.000001 -0.084829 -0.033819 0.254889
    41 0.982425 0.003186 0.000001 0.000000 0.000000 0.326398
  time 16
    0 8.001094 4.134435 -7.362002 -0.771116 -1.330160 0.560424
    1 -0.001748 -8.563256 -0.000751 0.347509 -0.125025 -0.170043
    2 -0.219101 -3.426991 0.819250 -1.247037 1.437605 -1.233844
    3 0.000000 2.338130 0.839328 0.000000 0.000000 0.000000
    4 0.000001 -5.493101 2.360611 0.000000 0.000000 0.000000
    5 0.000001 -3.357312 1.408873 -0.013926 0.000000 0.000000
    6 0.000001 -6.122600 1.221523 0.000000 0.000000 0.000000
    7 0.000000 -2.229289 1.941594 0.000000 0.000000 0.000000
    8 -0.003479 -0.404829 0.000000 0.000000 0.000000 0.000000
    9 -0.519310 -2.501155 -0.278957 -1.003564 0.000000 -0.122173
    10 -0.010598 -1.208185 0.000000 -1.148417 0.000000 0.000000
    11 0.000000 -0.763066 0.000000 -0.841249 0.000000 0.000000
    12 0.105980 -2.607135 -0.278957 -0.795871 0.000000 -0.148353
    13 0.000000 -1.250579 0.000000 -1.296776 0.000000 0.000000
    14 0.000000 -0.932634 0.000000 -0.886645 0.000000 0.000000
    15 0.763063 -2.490556 -0.278957 -0.346932 0.039309 0.239193
    16 -0.012323 -1.280918 0.000000 -0.322892 0.000000 0.000000
    17 -0.001696 -0.749371 0.000000 -0.593412 0.000000 0.000000
    18 0.354566 0.016267 0.318133 0.834772 -0.606745 -1.212439
    19 1.887166 0.012878 0.000000 -0.305433 0.000000 -0.401426
    20 1.001874 -0.000270 0.000000 0.000000 0.000000 -0.488692
    21 -1.123360 -2.195093 -0.278957 -0.933751 0.000000 -0.087266
    22 0.010772 -0.963792 0.000000 -0.610865 0.000000 0.000000
    23 -0.010412 -0.631916 0.000000 -1.370074 0.000000 0.000000
    24 1.445845 -7.908206 -8.393130 -0.487763 0.470997 0.198216
    25 0.089930 -8.543161 -0.000001 0.113732 -0.537859 0.534078
    26 0.000000 -0.359712 0.000000 0.000000 0.000000 0.000000
    27 -0.170479 -2.636147 -0.277657 -1.692969 0.000000 0.000000
    28 0.010599 -1.261176 0.000002 -0.253073 0.000000 0.000000
    29 -0.000001 -0.943233 -0.000002 -0.532326 0.000000 0.000000
    30 -0.827563 -2.508972 -0.277657 -1.396263 0.000000 0.000000
    31 0.000000 -1.292971 0.000001 -0.445059 0.000000 0.000000
    32 0.000000 -0.752465 0.000000 -0.445059 0.000000 0.000000
    33 0.444213 -2.561959 -0.277657 -1.727307 -0.046226 -0.024599
    34 0.021022 -1.208186 0.000001 -0.427606 0.000000 0.000000
    35 0.010597 -0.741867 -0.000001 -0.453786 0.000000 0.000000
    36 1.047445 -2.222820 -0.277657 -1.508123 -0.078971 -0.038609
    37 0.000000 -0.996224 -0.000002 -0.863938 0.000000 0.000000
    38 -0.000001 -0.614690 0.000000 -0.523599 0.000000 0.000000
    39 -0.308253 -0.007813 0.307166 -0.179973 -0.326092 -2.616278
    40 1.978376 0.019542 -0.000001 -0.084829 -0.033819 0.254889
    41 0.982425 0.003186 0.000001 0.000000 0.000000 0.326398
  time 17
    0 8.016719 4.216469 -7.330751 -0.769981 -1.330119 0.560847
    1 -0.001748 -8.563256 -0.000751 0.347509 -0.125050 -0.169971
    2 -0.219101 -3.426991 0.819250 -1.247037 1.437605 -1.233844
    3 0.000000 2.338130 0.839328 0.000000 0.000000 0.000000
    4 0.000001 -5.493101 2.360611 0.000000 0.000000 0.000000
    5 0.000001 -3.357312 1.408873 -0.008713 0.000000 0.000000
    6 0.000001 -6.122600 1.221523 0.000000 0.000000 0.000000
    7 0.000000 -2.229289 1.941594 0.000000 0.000000 0.000000
    8 -0.003479 -0.404829 0.000000 0.000000 0.000000 0.000000
    9 -0.519310 -2.501155 -0.278957 -1.003564 0.000000 -0.122173
    10 -0.010598 -1.208185 0.000000 -1.148417 0.000000 0.000000
    11 0.000000 -0.763066 0.000000 -0.841249 0.000000 0.000000
    12 0.105980 -2.607135 -0.278957 -0.795871 0.000000 -0.148353
    13 0.000000 -1.250579 0.000000 -1.296776 0.000000 0.000000
    14 0.000000 -0.932634 0.000000 -0.886645 0.000000 0.000000
    15 0.763063 -2.490556 -0.278957 -0.346932 0.039309 0.239193
    16 -0.012323 -1.280918 0.000000 -0.322892 0.000000 0.000000
    17 -0.001696 -0.749371 0.000000 -0.593412 0.000000 0.000000
    18 0.354566 0.016267 0.318133 0.834772 -0.606745 -1.212439
    19 1.887166 0.012878 0.000000 -0.305433 0.000000 -0.401426
    20 1.001874 -0.000270 0.000000 0.000000 0.000000 -0.488692
    21 -1.123360 -2.195093 -0.278957 -0.933751 0.000000 -0.087266
    22 0.010772 -0.963792 0.000000 -0.610865 0.000000 0.000000
    23 -0.010412 -0.631916 0.000000 -1.370074 0.000000 0.000000
    24 1.484908 -7.845704 -8.381411 -0.490712 0.471400 0.198973
    25 0.089930 -8.543161 -0.000001 0.105742 -0.537710 0.532860
    26 0.000000 -0.359712 0.000000 0.000000 0.000000 0.000000
    27 -0.170479 -2.636147 -0.277657 -1.692969 0.000000 0.000000
    28 0.010599 -1.261176 0.000002 -0.253073 0.000000 0.000000
    29 -0.000001 -0.943233 -0.000002 -0.532326 0.000000 0.000000
    30 -0.827563 -2.508972 -0.277657 -1.396263 0.000000 0.000000
    31 0.000000 -1.292971 0.000001 -0.445059 0.000000 0.000000
    32 0.000000 -0.752465 0.000000 -0.445059 0.000000 0.000000
    33 0.444213 -2.561959 -0.277657 -1.727307 -0.046226 -0.024599
    34 0.021022 -1.208186 0.000001 -0.427606 0.000000 0.000000
    35 0.010597 -0.741867 -0.000001 -0.453786 0.000000 0.000000
    36 1.047445 -2.222820 -0.277657 -1.508123 -0.078971 -0.038609
    37 0.000000 -0.996224 -0.000002 -0.863938 0.000000 0.000000
    38 -0.000001 -0.614690 0.000000 -0.523599 0.000000 0.000000
    39 -0.308253 -0.007813 0.307166 -0.179973 -0.326092 -2.616278
    40 1.978376 0.019542 -0.000001 -0.084829 -0.033819 0.254889
    41 0.982425 0.003186 0.000001 0.000000 0.000000 0.326398
  time 18
    0 8.040157 4.333660 -7.287781 -0.768997 -1.329996 0.561270
    1 -0.001748 -8.563256 -0.000751 0.347509 -0.125111 -0.169828
    2 -0.219101 -3.426991 0.819250 -1.247037 1.437605 -1.233844
    3 0.000000 2.338130 0.839328 0.000000 0.000000 0.000000
    4 0.000001 -5.493101 2.360611 0.000000 0.000000 0.000000
    5 0.000001 -3.357312 1.408873 -0.004255 0.000000 0.000000
    6 0.000001 -6.122600 1.221523 0.000000 0.000000 0.000000
    7 0.000000 -2.229289 1.941594 0.000000 0.000000 0.000000
    8 -0.003479 -0.404829 0.000000 0.000000 0.000000 0.000000
    9 -0.519310 -2.501155 -0.278957 -1.003564 0.000000 -0.122173
    10 -0.010598 -1.208185 0.000000 -1.148417 0.000000 0.000000
    11 0.000000 -0.763066 0.000000 -0.841249 0.000000 0.000000
    12 0.105980 -2.607135 -0.278957 -0.795871 0.000000 -0.148353
    13 0.000000 -1.250579 0.000000 -1.296776 0.000000 0.000000
    14 0.000000 -0.932634 0.000000 -0.886645 0.000000 0.000000
    15 0.763063 -2.490556 -0.278957 -0.346932 0.039309 0.239193
    16 -0.012323 -1.280918 0.000000 -0.322892 0.000000 0.000000
    17 -0.001696 -0.749371 0.000000 -0.593412 0.000000 0.000000
    18 0.354566 0.016267 0.318133 0.834772 -0.606745 -1.212439
    19 1.887166 0.012878 0.000000 -0.305433 0.000000 -0.401426
    20 1.001874 -0.000270 0.000000 0.000000 0.000000 -0.488692
    21 -1.123360 -2.195093 -0.278957 -0.933751 0.000000 -0.087266
    22 0.010772 -0.963792 0.000000 -0.610865 0.000000 0.000000
    23 -0.010412 -0.631916 0.000000 -1.370074 0.000000 0.000000
    24 1.535691 -7.744139 -8.365785 -0.493434 0.471641 0.199446
    25 0.089930 -8.543161 -0.000001 0.097844 -0.537585 0.531839
    26 0.000000 -0.359712 0.000000 0.000000 0.000000 0.000000
    27 -0.170479 -2.636147 -0.277657 -1.692969 0.000000 0.000000
    28 0.010599 -1.261176 0.000002 -0.253073 0.000000 0.000000
    29 -0.000001 -0.943233 -0.000002 -0.532326 0.000000 0.000000
    30 -0.827563 -2.508972 -0.277657 -1.396263 0.000000 0.000000
    31 0.000000 -1.292971 0.000001 -0.445059 0.000000 0.000000
    32 0.000000 -0.752465 0.000000 -0.445059 0.000000 0.000000
    33 0.444213 -2.561959 -0.277657 -1.727307 -0.046226 -0.024599
    34 0.021022 -1.208186 0.000001 -0.427606 0.000000 0.000000
    35 0.010597 -0.741867 -0.000001 -0.453786 0.000000 0.000000
    36 1.047445 -2.222820 -0.277657 -1.508123 -0.078971 -0.038609
    37 0.000000 -0.996224 -0.000002 -0.863938 0.000000 0.000000
    38 -0.000001 -0.614690 0.000000 -0.523599 0.000000 0.000000
    39 -0.308253 -0.007813 0.307166 -0.179973 -0.326092 -2.616278
    40 1.978376 0.019542 -0.000001 -0.084829 -0.033819 0.254889
    41 0.982425 0.003186 0.000001 0.000000 0.000000 0.326398
  time 19
    0 8.067502 4.482102 -7.248717 -0.767937 -1.329914 0.561693
    1 -0.001748 -8.563256 -0.000751 0.347509 -0.125148 -0.169685
    2 -0.219101 -3.426991 0.819250 -1.247037 1.437605 -1.233844
    3 0.000000 2.338130 0.839328 0.000000 0.000000 0.000000
    4 0.000001 -5.493101 2.360611 0.000000 0.000000 0.000000
    5 0.000001 -3.357312 1.408873 -0.001151 0.000000 0.000000
    6 0.000001 -6.122600 1.221523 0.000000 0.000000 0.000000
    7 0.000000 -2.229289 1.941594 0.000000 0.000000 0.000000
    8 -0.003479 -0.404829 0.000000 0.000000 0.000000 0.000000
    9 -0.519310 -2.501155 -0.278957 -1.003564 0.000000 -0.122173
    10 -0.010598 -1.208185 0.000000 -1.148417 0.000000 0.000000
    11 0.000000 -0.763066 0.000000 -0.841249 0.000000 0.000000
    12 0.105980 -2.607135 -0.278957 -0.795871 0.000000 -0.148353
    13 0.000000 -1.250579 0.000000 -1.296776 0.000000 0.000000
    14 0.000000 -0.932634 0.000000 -0.886645 0.000000 0.000000
    15 0.763063 -2.490556 -0.278957 -0.346932 0.039309 0.239193
    16 -0.012323 -1.280918 0.000000 -0.322892 0.000000 0.000000
    17 -0.001696 -0.749371 0.000000 -0.593412 0.000000 0.000000
    18 0.354566 0.016267 0.318133 0.834772 -0.606745 -1.212439
    19 1.887166 0.012878 0.000000 -0.305433 0.000000 -0.401426
    20 1.001874 -0.000270 0.000000 0.000000 0.000000 -0.488692
    21 -1.123360 -2.195093 -0.278957 -0.933751 0.000000 -0.087266
    22 0.010772 -0.963792 0.000000 -0.610865 0.000000 0.000000
    23 -0.010412 -0.631916 0.000000 -1.370074 0.000000 0.000000
    24 1.606006 -7.603509 -8.338441 -0.495627 0.471883 0.199919
    25 0.089930 -8.543161 -0.000001 0.090066 -0.537511 0.531141
    26 0.000000 -0.359712 0.000000 0.000000 0.000000 0.000000
    27 -0.170479 -2.636147 -0.277657 -1.692969 0.000000 0.000000
    28 0.010599 -1.261176 0.000002 -0.253073 0.000000 0.000000
    29 -0.000001 -0.943233 -0.000002 -0.532326 0.000000 0.000000
    30 -0.827563 -2.508972 -0.277657 -1.396263 0.000000 0.000000
    31 0.000000 -1.292971 0.000001 -0.445059 0.000000 0.000000
    32 0.000000 -0.752465 0.000000 -0.445059 0.000000 0.000000
    33 0.444213 -2.561959 -0.277657 -1.727307 -0.046226 -0.024599
    34 0.021022 -1.208186 0.000001 -0.427606 0.000000 0.000000
    35 0.010597 -0.741867 -0.000001 -0.453786 0.000000 0.000000
    36 1.047445 -2.222820 -0.277657 -1.508123 -0.078971 -0.038609
    37 0.000000 -0.996224 -0.000002 -0.863938 0.000000 0.000000
    38 -0.000001 -0.614690 0.000000 -0.523599 0.000000 0.000000
    39 -0.308253 -0.007813 0.307166 -0.179973 -0.326092 -2.616278
    40 1.978376 0.019542 -0.000001 -0.084829 -0.033819 0.254889
    41 0.982425 0.003186 0.000001 0.000000 0.000000 0.326398
  time 20
    0 8.106566 4.665702 -7.194028 -0.766727 -1.329873 0.561778
    1 -0.001748 -8.563256 -0.000751 0.347509 -0.125173 -0.169614
    2 -0.219101 -3.426991 0.819250 -1.247037 1.437605 -1.233844
    3 0.000000 2.338130 0.839328 0.000000 0.000000 0.000000
    4 0.000001 -5.493101 2.360611 0.000000 0.000000 0.000000
    5 0.000001 -3.357312 1.408873 0.000000 0.000000 0.000000
    6 0.000001 -6.122600 1.221523 0.000000 0.000000 0.000000
    7 0.000000 -2.229289 1.941594 0.000000 0.000000 0.000000
    8 -0.003479 -0.404829 0.000000 0.000000 0.000000 0.000000
    9 -0.519310 -2.501155 -0.278957 -1.003564 0.000000 -0.122173
    10 -0.010598 -1.208185 0.000000 -1.148417 0.000000 0.000000
    11 0.000000 -0.763066 0.000000 -0.841249 0.000000 0.000000
    12 0.105980 -2.607135 -0.278957 -0.795871 0.000000 -0.148353
    13 0.000000 -1.250579 0.000000 -1.296776 0.000000 0.000000
    14 0.000000 -0.932634 0.000000 -0.886645 0.000000 0.000000
    15 0.763063 -2.490556 -0.278957 -0.346932 0.039309 0.239193
    16 -0.012323 -1.280918 0.000000 -0.322892 0.000000 0.000000
    17 -0.001696 -0.749371 0.000000 -0.593412 0.000000 0.000000
    18 0.354566 0.016267 0.318133 0.834772 -0.606745 -1.212439
    19 1.887166 0.012878 0.000000 -0.305433 0.000000 -0.401426
    20 1.001874 -0.000270 0.000000 0.000000 0.000000 -0.488692
    21 -1.123360 -2.195093 -0.278957 -0.933751 0.000000 -0.087266
    22 0.010772 -0.963792 0.000000 -0.610865 0.000000 0.000000
    23 -0.010412 -0.631916 0.000000 -1.370074 0.000000 0.000000
    24 1.688039 -7.423816 -8.307190 -0.497140 0.471883 0.200013
    25 0.089930 -8.543161 -0.000001 0.082474 -0.537511 0.530890
    26 0.000000 -0.359712 0.000000 0.000000 0.000000 0.000000
    27 -0.170479 -2.636147 -0.277657 -1.692969 0.000000 0.000000
    28 0.010599 -1.261176 0.000002 -0.253073 0.000000 0.000000
    29 -0.000001 -0.943233 -0.000002 -0.532326 0.000000 0.000000
    30 -0.827563 -2.508972 -0.277657 -1.396263 0.000000 0.000000
    31 0.000000 -1.292971 0.000001 -0.445059 0.000000 0.000000
    32 0.000000 -0.752465 0.000000 -0.445059 0.000000 0.000000
    33 0.444213 -2.561959 -0.277657 -1.727307 -0.046226 -0.024599
    34 0.021022 -1.208186 0.000001 -0.427606 0.000000 0.000000
    35 0.010597 -0.741867 -0.000001 -0.453786 0.000000 0.000000
    36 1.047445 -2.222820 -0.277657 -1.508123 -0.078971 -0.038609
    37 0.000000 -0.996224 -0.000002 -0.863938 0.000000 0.000000
    38 -0.000001 -0.614690 0.000000 -0.523599 0.000000 0.000000
    39 -0.308253 -0.007813 0.307166 -0.179973 -0.326092 -2.616278
    40 1.978376 0.019542 -0.000001 -0.084829 -0.033819 0.254889
    41 0.982425 0.003186 0.000001 0.000000 0.000000 0.326398
end
