version 1
nodes
  0 "Bone02" -1
  1 "Bone03" 0
  2 "Bone50" 1
  3 "Bone52" 1
  4 "Bone48" 1
  5 "Bone25" 1
  6 "Bone54" 1
  7 "root" -1
  8 "Bone01" 7
  9 "Bone_L_Upper" 8
  10 "Bone_Lefthand" 8
  11 "Bone13" 10
  12 "Bone14" 11
  13 "Bone15" 12
  14 "Bone17" 10
  15 "Bone18" 14
  16 "Bone19" 15
  17 "Bone21" 10
  18 "Bone22" 17
  19 "Bone23" 18
  20 "Bone09" 10
  21 "Bone10" 20
  22 "Bone11" 21
  23 "Bone05" 10
  24 "Bone06" 23
  25 "Bone07" 24
  26 "Bone_Se_Hand-L" 10
  27 "Bone04" 7
  28 "Bone_Righthand" 27
  29 "Bone39" 28
  30 "Bone40" 29
  31 "Bone41" 30
  32 "Bone35" 28
  33 "Bone36" 32
  34 "Bone37" 33
  35 "Bone31" 28
  36 "Bone32" 35
  37 "Bone33" 36
  38 "Bone43" 28
  39 "Bone44" 38
  40 "Bone45" 39
  41 "Bone27" 28
  42 "Bone28" 41
  43 "Bone29" 42
  44 "Bone_Se_Hand-R" 28
  45 "Bone_R_Upper" 27
end
skeleton
  time 0
    0 4.703474 -9.587037 -5.216417 0.000011 -0.000007 -0.000090
    1 0.000000 2.286976 0.873885 0.000000 0.000000 0.000000
    2 0.000000 -0.743733 1.487464 0.000000 0.000000 0.000000
    3 0.000000 -1.227157 2.045263 0.000000 0.000000 0.000000
    4 0.000001 -1.580431 1.264344 0.000000 0.000000 0.000000
    5 0.000000 -2.844775 1.022632 0.000000 0.000000 0.000000
    6 0.024938 -1.409605 0.862229 0.000000 0.000000 0.000000
    7 1.548076 5.823131 -6.425358 0.000000 0.000000 0.216777
    8 5.337326 -5.619936 -2.499058 0.793404 -2.158397 -1.265669
    9 6.562029 5.465609 -0.282623 1.565042 -3.128866 0.787733
    10 -0.044576 -8.467485 -0.092415 0.200195 0.383982 -0.243807
    11 -0.488518 -2.755602 -0.228260 -0.317159 0.118912 -0.274953
    12 0.039887 -1.554011 0.029854 -2.186484 -0.000036 0.046957
    13 0.028786 -1.118701 -0.097330 -0.661479 -0.012416 0.012296
    14 0.250027 -2.820665 -0.238396 -0.279241 0.001645 -0.191604
    15 -0.049759 -1.598510 0.006726 -1.867416 -0.007071 -0.047137
    16 -0.034142 -1.175657 0.045718 -1.221971 0.005992 -0.032239
    17 0.957766 -2.746780 -0.090302 0.020387 -0.095283 -0.001682
    18 -0.033420 -1.397129 -0.015163 -0.231150 0.005513 -0.011051
    19 -0.022360 -0.961342 -0.004654 -0.890998 0.005405 -0.043372
    20 -1.180681 -2.507217 -0.193859 -0.363374 0.387812 -0.251394
    21 -0.024967 -1.127840 0.017597 -1.854825 -0.023885 -0.068491
    22 -0.020057 -0.902687 0.025715 -0.804503 0.007526 -0.032298
    23 0.610855 -1.189464 0.177566 0.581784 -0.757762 -0.601920
    24 1.481238 -0.212417 0.067511 0.047263 -0.212451 -0.757364
    25 1.038269 -0.155634 0.036197 0.051434 -0.205466 -0.844507
    26 0.120153 -0.050270 -0.054489 0.287569 3.110905 1.561085
    27 -1.247361 -6.317230 -6.157721 -1.146573 -5.396041 -0.865896
    28 -0.121813 -8.493389 0.053137 0.234093 -1.180747 0.135050
    29 0.447953 -2.798986 -0.200443 -0.678697 0.009067 0.255279
    30 -0.032909 -1.499736 0.020565 -1.178410 0.022351 -0.020516
    31 -0.027022 -1.100358 -0.028023 -0.639531 0.016203 -0.007754
    32 -0.249534 -2.846964 -0.174213 -0.258956 -0.005614 -0.009379
    33 0.043235 -1.656596 0.076480 -1.170445 -0.019025 0.003656
    34 0.031729 -1.141298 0.054932 -1.115535 -0.012397 0.006167
    35 -0.963866 -2.785145 -0.085350 -0.258141 0.159244 -0.202043
    36 0.028479 -1.406973 -0.021074 -1.031688 -0.028068 -0.035402
    37 0.021413 -0.949968 0.020046 -0.506666 -0.009240 -0.020889
    38 1.164475 -2.543940 -0.170330 -0.918692 -0.005888 0.531366
    39 0.024032 -1.140761 -0.005631 -1.070107 0.013746 0.054771
    40 0.014898 -0.899614 -0.015942 -0.870242 0.004710 0.044031
    41 -0.586770 -1.264477 0.200161 0.075951 -0.554112 -2.665786
    42 1.557992 0.035243 0.016848 -0.015368 -0.006020 0.767033
    43 1.114041 0.044518 -0.005766 -0.024632 -0.034810 0.905845
    44 -0.139399 -0.111698 0.014397 0.285382 -0.030687 1.580508
    45 -7.432717 4.280444 -0.426939 1.575758 -0.029064 -0.612386
  time 1
    0 4.562845 -7.946362 -5.263293 -0.096401 0.011438 -0.066134
    1 0.000000 2.286976 0.873885 0.000000 0.000000 0.000000
    2 0.000000 -0.743733 1.487464 0.000000 0.000000 0.000000
    3 0.000000 -0.207595 2.045263 0.000000 0.000000 0.000000
    4 0.000001 -1.580431 1.264344 0.000000 0.000000 0.000000
    5 0.000000 -2.844775 1.022632 0.554571 0.000000 0.000000
    6 0.024938 -1.409605 0.862229 0.000000 0.000000 0.000000
    7 1.548076 5.823131 -6.425358 0.000000 0.000000 0.216777
    8 6.044379 -4.756629 -3.635811 0.887175 -2.238491 -1.407134
    9 7.874569 2.539739 -0.345125 1.566862 -3.120625 0.391654
    10 -0.044576 -8.467485 -0.092415 0.200195 0.383982 -0.243807
    11 -0.488518 -2.755602 -0.228260 -0.317159 0.118912 -0.274953
    12 0.039887 -1.554011 0.029854 -2.186484 -0.000036 0.046957
    13 0.028786 -1.118701 -0.097330 -0.661479 -0.012416 0.012296
    14 0.250027 -2.820665 -0.238396 -0.279241 0.001645 -0.191604
    15 -0.049759 -1.598510 0.006726 -1.867416 -0.007071 -0.047137
    16 -0.034142 -1.175657 0.045718 -1.221971 0.005992 -0.032239
    17 0.957766 -2.746780 -0.090302 0.020387 -0.095283 -0.001682
    18 -0.033420 -1.393223 -0.022976 -0.651670 0.008245 -0.031964
    19 -0.022360 -0.969155 -0.012467 -1.359367 -0.006999 -0.063279
    20 -1.180681 -2.507217 -0.193859 -0.363374 0.387812 -0.251394
    21 -0.024967 -1.127840 0.017597 -1.854825 -0.023885 -0.068491
    22 -0.020057 -0.902687 0.025715 -0.804503 0.007526 -0.032298
    23 0.610855 -1.189464 0.177566 0.581784 -0.757762 -0.601920
    24 1.473425 -0.224136 0.071417 0.054286 -0.221559 -0.799490
    25 1.022644 -0.171260 0.040104 0.068392 -0.224702 -0.938930
    26 0.120153 -0.050270 -0.054489 0.287569 3.110905 1.561085
    27 -1.114545 -5.434391 -7.013216 -1.200854 -5.483627 -0.886801
    28 -0.102281 -8.485576 0.057043 0.209184 -1.100562 0.192195
    29 0.447953 -2.798986 -0.200443 -0.678697 0.009067 0.255279
    30 -0.032909 -1.499736 0.020565 -1.178410 0.022351 -0.020516
    31 -0.027022 -1.100358 -0.028023 -0.639531 0.016203 -0.007754
    32 -0.249534 -2.846964 -0.174213 -0.258956 -0.005614 -0.009379
    33 0.043235 -1.656596 0.076480 -1.170445 -0.019025 0.003656
    34 0.031729 -1.141298 0.054932 -1.115535 -0.012397 0.006167
    35 -0.963866 -2.785145 -0.085350 -0.258141 0.159244 -0.202043
    36 0.028479 -1.406973 -0.021074 -1.031688 -0.028068 -0.035402
    37 0.021413 -0.949968 0.020046 -0.506666 -0.009240 -0.020889
    38 1.164475 -2.543940 -0.170330 -0.918692 -0.005888 0.531366
    39 0.024032 -1.140761 -0.005631 -1.070107 0.013746 0.054771
    40 0.014898 -0.899614 -0.015942 -0.870242 0.004710 0.044031
    41 -0.586770 -1.264477 0.200161 0.075951 -0.554112 -2.665786
    42 1.557992 0.035243 0.016848 -0.015368 -0.006020 0.767033
    43 1.114041 0.044518 -0.005766 -0.024632 -0.034810 0.905845
    44 -0.139399 -0.111698 0.014397 0.285382 -0.030687 1.580508
    45 -8.151489 1.924904 -0.462096 1.569826 -0.034433 -0.311964
  time 2
    0 4.453467 -7.731512 -4.704682 -0.185369 0.011259 -0.087636
    1 0.000000 2.286976 0.873885 0.000000 0.000000 0.000000
    2 0.000000 -0.743733 1.487464 0.000000 0.000000 0.000000
    3 0.000000 -0.207595 2.045263 0.000000 0.000000 0.000000
    4 0.000001 -1.580431 1.264344 0.000000 0.000000 0.000000
    5 0.000000 -2.844775 1.022632 0.554571 0.000000 0.000000
    6 0.024938 -1.409605 0.862229 0.000000 0.000000 0.000000
    7 1.548076 5.823131 -6.425358 0.000000 0.000000 0.216777
    8 6.032660 -4.768348 -3.592841 0.910760 -2.261839 -1.433846
    9 7.913633 2.360046 -0.349031 1.567053 -3.120146 0.368879
    10 -0.052389 -8.479205 -0.092415 0.209133 0.370003 -0.179890
    11 -0.488518 -2.755602 -0.228260 -0.317159 0.118912 -0.274953
    12 0.039887 -1.554011 0.029854 -2.186484 -0.000036 0.046957
    13 0.028786 -1.118701 -0.097330 -0.661479 -0.012416 0.012296
    14 0.250027 -2.820665 -0.238396 -0.279241 0.001645 -0.191604
    15 -0.049759 -1.598510 0.006726 -1.867416 -0.007071 -0.047137
    16 -0.034142 -1.175657 0.045718 -1.221971 0.005992 -0.032239
    17 0.957766 -2.746780 -0.090302 0.020387 -0.095283 -0.001682
    18 -0.033420 -1.393223 -0.022976 -0.686715 0.008078 -0.033726
    19 -0.022360 -0.973062 -0.012467 -1.398394 -0.008425 -0.064645
    20 -1.180681 -2.507217 -0.193859 -0.363374 0.387812 -0.251394
    21 -0.024967 -1.127840 0.017597 -1.854825 -0.023885 -0.068491
    22 -0.020057 -0.902687 0.025715 -0.804503 0.007526 -0.032298
    23 0.610855 -1.189464 0.177566 0.581784 -0.757762 -0.601920
    24 1.469519 -0.224136 0.071417 0.054898 -0.222302 -0.803021
    25 1.022644 -0.171260 0.040104 0.069891 -0.226236 -0.946841
    26 0.120153 -0.050270 -0.054489 0.287569 3.110905 1.561085
    27 -1.095013 -5.578927 -6.817898 -1.212353 -5.512271 -0.900070
    28 -0.090562 -8.477763 0.057043 0.160578 -1.048599 0.192467
    29 0.447953 -2.798986 -0.200443 -0.678697 0.009067 0.255279
    30 -0.032909 -1.499736 0.020565 -1.178410 0.022351 -0.020516
    31 -0.027022 -1.100358 -0.028023 -0.639531 0.016203 -0.007754
    32 -0.249534 -2.846964 -0.174213 -0.258956 -0.005614 -0.009379
    33 0.043235 -1.656596 0.076480 -1.170445 -0.019025 0.003656
    34 0.031729 -1.141298 0.054932 -1.115535 -0.012397 0.006167
    35 -0.963866 -2.785145 -0.085350 -0.258141 0.159244 -0.202043
    36 0.028479 -1.406973 -0.021074 -1.031688 -0.028068 -0.035402
    37 0.021413 -0.949968 0.020046 -0.506666 -0.009240 -0.020889
    38 1.164475 -2.543940 -0.170330 -0.918692 -0.005888 0.531366
    39 0.024032 -1.140761 -0.005631 -1.070107 0.013746 0.054771
    40 0.014898 -0.899614 -0.015942 -0.870242 0.004710 0.044031
    41 -0.586770 -1.264477 0.200161 0.075951 -0.554112 -2.665786
    42 1.557992 0.035243 0.016848 -0.015368 -0.006020 0.767033
    43 1.114041 0.044518 -0.005766 -0.024632 -0.034810 0.905845
    44 -0.139399 -0.111698 0.014397 0.285382 -0.030687 1.580508
    45 -8.135863 2.022563 -0.462096 1.570102 -0.034253 -0.323958
  time 3
    0 4.402684 -7.965894 -4.325765 -0.217653 0.009572 -0.086510
    1 0.000000 2.286976 0.873885 0.000000 0.000000 0.000000
    2 0.000000 -0.743733 1.487464 0.000000 0.000000 0.000000
    3 0.000000 -0.207595 2.045263 0.000000 0.000000 0.000000
    4 0.000001 -1.580431 1.264344 0.000000 0.000000 0.000000
    5 0.000000 -2.844775 1.022632 0.554571 0.000000 0.000000
    6 0.024938 -1.409605 0.862229 0.000000 0.000000 0.000000
    7 1.548076 5.823131 -6.425358 0.000000 0.000000 0.216777
    8 5.868592 -4.987104 -3.342834 0.912458 -2.262948 -1.427742
    9 7.788629 2.879593 -0.341219 1.566575 -3.121488 0.434766
    10 -0.052389 -8.483111 -0.096321 0.213195 0.362807 -0.148079
    11 -0.488518 -2.755602 -0.228260 -0.317159 0.118912 -0.274953
    12 0.039887 -1.554011 0.029854 -2.186484 -0.000036 0.046957
    13 0.028786 -1.118701 -0.097330 -0.661479 -0.012416 0.012296
    14 0.250027 -2.820665 -0.238396 -0.279241 0.001645 -0.191604
    15 -0.049759 -1.598510 0.006726 -1.867416 -0.007071 -0.047137
    16 -0.034142 -1.175657 0.045718 -1.221971 0.005992 -0.032239
    17 0.957766 -2.746780 -0.090302 0.020387 -0.095283 -0.001682
    18 -0.033420 -1.393223 -0.022976 -0.651670 0.008245 -0.031964
    19 -0.022360 -0.969155 -0.012467 -1.359367 -0.006999 -0.063279
    20 -1.180681 -2.507217 -0.193859 -0.363374 0.387812 -0.251394
    21 -0.024967 -1.127840 0.017597 -1.854825 -0.023885 -0.068491
    22 -0.020057 -0.902687 0.025715 -0.804503 0.007526 -0.032298
    23 0.610855 -1.189464 0.177566 0.581784 -0.757762 -0.601920
    24 1.473425 -0.224136 0.071417 0.054286 -0.221559 -0.799490
    25 1.022644 -0.171260 0.040104 0.068392 -0.224702 -0.938930
    26 0.120153 -0.050270 -0.054489 0.287569 3.110905 1.561085
    27 -1.118451 -5.867998 -6.501482 -1.208951 -5.512900 -0.908948
    28 -0.086655 -8.469950 0.057043 0.119528 -1.038642 0.201282
    29 0.447953 -2.798986 -0.200443 -0.678697 0.009067 0.255279
    30 -0.032909 -1.499736 0.020565 -1.178410 0.022351 -0.020516
    31 -0.027022 -1.100358 -0.028023 -0.639531 0.016203 -0.007754
    32 -0.249534 -2.846964 -0.174213 -0.258956 -0.005614 -0.009379
    33 0.043235 -1.656596 0.076480 -1.170445 -0.019025 0.003656
    34 0.031729 -1.141298 0.054932 -1.115535 -0.012397 0.006167
    35 -0.963866 -2.785145 -0.085350 -0.258141 0.159244 -0.202043
    36 0.028479 -1.406973 -0.021074 -1.031688 -0.028068 -0.035402
    37 0.021413 -0.949968 0.020046 -0.506666 -0.009240 -0.020889
    38 1.164475 -2.543940 -0.170330 -0.918692 -0.005888 0.531366
    39 0.024032 -1.140761 -0.005631 -1.070107 0.013746 0.054771
    40 0.014898 -0.899614 -0.015942 -0.870242 0.004698 0.044031
    41 -0.586770 -1.264477 0.200161 0.075951 -0.554112 -2.665786
    42 1.557992 0.035243 0.016848 -0.015368 -0.006020 0.767033
    43 1.114041 0.044518 -0.005766 -0.024632 -0.034810 0.905845
    44 -0.139399 -0.111698 0.014397 0.285382 -0.030687 1.580508
    45 -8.026485 2.596799 -0.454283 1.571636 -0.033127 -0.395146
  time 4
    0 4.488624 -8.434658 -4.607023 -0.120250 0.012443 -0.055792
    1 0.000000 2.286976 0.873885 0.000000 0.000000 0.000000
    2 0.000000 -0.743733 1.487464 0.000000 0.000000 0.000000
    3 0.000000 -0.207595 2.045263 0.000000 0.000000 0.000000
    4 0.000001 -1.580431 1.264344 0.000000 0.000000 0.000000
    5 0.000000 -2.844775 1.022632 0.554571 0.000000 0.000000
    6 0.024938 -1.409605 0.862229 0.000000 0.000000 0.000000
    7 1.548076 5.823131 -6.425358 0.000000 0.000000 0.216777
    8 5.724056 -5.182423 -3.116264 0.894628 -2.243958 -1.399021
    9 7.581592 3.531956 -0.329500 1.565904 -3.123213 0.518806
    10 -0.048483 -8.471392 -0.092415 0.202744 0.380224 -0.226217
    11 -0.488518 -2.755602 -0.228260 -0.317159 0.118912 -0.274953
    12 0.039887 -1.554011 0.029854 -2.186484 -0.000036 0.046957
    13 0.028786 -1.118701 -0.097330 -0.661479 -0.012416 0.012296
    14 0.250027 -2.820665 -0.238396 -0.279241 0.001645 -0.191604
    15 -0.049759 -1.598510 0.006726 -1.867416 -0.007071 -0.047137
    16 -0.034142 -1.175657 0.045718 -1.221971 0.005992 -0.032239
    17 0.957766 -2.746780 -0.090302 0.020387 -0.095283 -0.001682
    18 -0.033420 -1.393223 -0.022976 -0.662040 0.008197 -0.032479
    19 -0.022360 -0.969155 -0.012467 -1.370921 -0.007406 -0.063686
    20 -1.180681 -2.507217 -0.193859 -0.363374 0.387812 -0.251394
    21 -0.024967 -1.127840 0.017597 -1.854825 -0.023885 -0.068491
    22 -0.020057 -0.902687 0.025715 -0.804503 0.007526 -0.032298
    23 0.610855 -1.189464 0.177566 0.581784 -0.757762 -0.601920
    24 1.473425 -0.224136 0.071417 0.054466 -0.221775 -0.800527
    25 1.022644 -0.171260 0.040104 0.068836 -0.225157 -0.941284
    26 0.120153 -0.050270 -0.054489 0.287569 3.110905 1.561085
    27 -1.137983 -5.950032 -6.446792 -1.198746 -5.489765 -0.902361
    28 -0.102281 -8.481669 0.057043 0.176487 -1.095148 0.203324
    29 0.447953 -2.798986 -0.200443 -0.678697 0.009067 0.255279
    30 -0.032909 -1.499736 0.020565 -1.178410 0.022351 -0.020516
    31 -0.027022 -1.100358 -0.028023 -0.639531 0.016203 -0.007754
    32 -0.249534 -2.846964 -0.174213 -0.258956 -0.005614 -0.009379
    33 0.043235 -1.656596 0.076480 -1.170445 -0.019025 0.003656
    34 0.031729 -1.141298 0.054932 -1.115535 -0.012397 0.006167
    35 -0.963866 -2.785145 -0.085350 -0.258141 0.159244 -0.202043
    36 0.028479 -1.406973 -0.021074 -1.031688 -0.028068 -0.035402
    37 0.021413 -0.949968 0.020046 -0.506666 -0.009240 -0.020889
    38 1.164475 -2.543940 -0.170330 -0.918692 -0.005888 0.531366
    39 0.024032 -1.140761 -0.005631 -1.070107 0.013746 0.054771
    40 0.014898 -0.899614 -0.015942 -0.870242 0.004698 0.044031
    41 -0.586770 -1.264477 0.200161 0.075951 -0.554112 -2.665786
    42 1.557992 0.035243 0.016848 -0.015368 -0.006020 0.767033
    43 1.114041 0.044518 -0.005766 -0.024632 -0.034810 0.905845
    44 -0.139399 -0.111698 0.014397 0.285382 -0.030687 1.580508
    45 -7.944451 2.913215 -0.450377 1.572451 -0.032456 -0.434996
  time 5
    0 4.640972 -8.938580 -5.118758 0.022209 0.012837 -0.012838
    1 0.000000 2.286976 0.873885 0.000000 0.000000 0.000000
    2 0.000000 -0.743733 1.487464 0.000000 0.000000 0.000000
    3 0.000000 -0.207595 2.045263 0.000000 0.000000 0.000000
    4 0.000001 -1.580431 1.264344 0.000000 0.000000 0.000000
    5 0.000000 -2.844775 1.022632 0.554571 0.000000 0.000000
    6 0.024938 -1.409605 0.862229 0.000000 0.000000 0.000000
    7 1.548076 5.823131 -6.425358 0.000000 0.000000 0.216777
    8 5.567802 -5.373835 -2.862350 0.865949 -2.215881 -1.357075
    9 7.261269 4.289792 -0.309968 1.565425 -3.125321 0.619822
    10 -0.036764 -8.455766 -0.088509 0.184832 0.404058 -0.341053
    11 -0.488518 -2.755602 -0.228260 -0.317159 0.118912 -0.274953
    12 0.039887 -1.554011 0.029854 -2.186484 -0.000036 0.046957
    13 0.028786 -1.118701 -0.097330 -0.661479 -0.012416 0.012296
    14 0.250027 -2.820665 -0.238396 -0.279241 0.001645 -0.191604
    15 -0.049759 -1.598510 0.006726 -1.867416 -0.007071 -0.047137
    16 -0.034142 -1.175657 0.045718 -1.221971 0.005992 -0.032239
    17 0.957766 -2.746780 -0.090302 0.020387 -0.095283 -0.001682
    18 -0.033420 -1.393223 -0.022976 -0.672432 0.008150 -0.033007
    19 -0.022360 -0.969155 -0.012467 -1.382475 -0.007838 -0.064094
    20 -1.180681 -2.507217 -0.193859 -0.363374 0.387812 -0.251394
    21 -0.024967 -1.127840 0.017597 -1.854825 -0.023885 -0.068491
    22 -0.020057 -0.902687 0.025715 -0.804503 0.007526 -0.032298
    23 0.610855 -1.189464 0.177566 0.581784 -0.757762 -0.601920
    24 1.473425 -0.224136 0.071417 0.054646 -0.222002 -0.801589
    25 1.022644 -0.171260 0.040104 0.069279 -0.225612 -0.943592
    26 0.120153 -0.050270 -0.054489 0.287569 3.110905 1.561085
    27 -1.153608 -5.977376 -6.458512 -1.186961 -5.462537 -0.890906
    28 -0.121813 -8.501201 0.053137 0.274114 -1.173310 0.200567
    29 0.447953 -2.798986 -0.200443 -0.678697 0.009067 0.255279
    30 -0.032909 -1.499736 0.020565 -1.178410 0.022351 -0.020516
    31 -0.027022 -1.100358 -0.028023 -0.639531 0.016203 -0.007754
    32 -0.249534 -2.846964 -0.174213 -0.258956 -0.005614 -0.009379
    33 0.043235 -1.656596 0.076480 -1.170445 -0.019025 0.003656
    34 0.031729 -1.141298 0.054932 -1.115535 -0.012397 0.006167
    35 -0.963866 -2.785145 -0.085350 -0.258141 0.159244 -0.202043
    36 0.028479 -1.406973 -0.021074 -1.031688 -0.028068 -0.035402
    37 0.021413 -0.949968 0.020046 -0.506666 -0.009240 -0.020889
    38 1.164475 -2.543940 -0.170330 -0.918692 -0.005888 0.531366
    39 0.024032 -1.140761 -0.005631 -1.070107 0.013746 0.054771
    40 0.014898 -0.899614 -0.015942 -0.870242 0.004710 0.044031
    41 -0.586770 -1.264477 0.200161 0.075951 -0.554112 -2.665786
    42 1.557992 0.035243 0.016848 -0.015368 -0.006020 0.767033
    43 1.114041 0.044518 -0.005766 -0.024632 -0.034810 0.905845
    44 -0.139399 -0.111698 0.014397 0.285382 -0.030687 1.580508
    45 -7.874137 3.155410 -0.446471 1.573062 -0.031916 -0.465496
  time 6
    0 4.742538 -9.227651 -5.439080 0.107368 0.010218 0.014091
    1 0.000000 2.286976 0.873885 0.000000 0.000000 0.000000
    2 0.000000 -0.743733 1.487464 0.000000 0.000000 0.000000
    3 0.000000 -0.207595 2.045263 0.000000 0.000000 0.000000
    4 0.000001 -1.580431 1.264344 0.000000 0.000000 0.000000
    5 0.000000 -2.844775 1.022632 0.554571 0.000000 0.000000
    6 0.024938 -1.409605 0.862229 0.000000 0.000000 0.000000
    7 1.548076 5.823131 -6.425358 0.000000 0.000000 0.216777
    8 5.466236 -5.494932 -2.686564 0.842931 -2.195341 -1.324937
    9 6.991730 4.797620 -0.298249 1.565138 -3.126758 0.690163
    10 -0.028951 -8.451860 -0.088509 0.173605 0.416388 -0.405377
    11 -0.488518 -2.755602 -0.228260 -0.317159 0.118912 -0.274953
    12 0.039887 -1.554011 0.029854 -2.186484 -0.000036 0.046957
    13 0.028786 -1.118701 -0.097330 -0.661479 -0.012416 0.012296
    14 0.250027 -2.820665 -0.238396 -0.279241 0.001645 -0.191604
    15 -0.049759 -1.598510 0.006726 -1.867416 -0.007071 -0.047137
    16 -0.034142 -1.175657 0.045718 -1.221971 0.005992 -0.032239
    17 0.957766 -2.746780 -0.090302 0.020387 -0.095283 -0.001682
    18 -0.033420 -1.393223 -0.022976 -0.651670 0.008245 -0.031964
    19 -0.022360 -0.969155 -0.012467 -1.359367 -0.006999 -0.063279
    20 -1.180681 -2.507217 -0.193859 -0.363374 0.387812 -0.251394
    21 -0.024967 -1.127840 0.017597 -1.854825 -0.023885 -0.068491
    22 -0.020057 -0.902687 0.025715 -0.804503 0.007526 -0.032298
    23 0.610855 -1.189464 0.177566 0.581784 -0.757762 -0.601920
    24 1.473425 -0.224136 0.071417 0.054286 -0.221559 -0.799490
    25 1.022644 -0.171260 0.040104 0.068392 -0.224702 -0.938930
    26 0.120153 -0.050270 -0.054489 0.287569 3.110905 1.561085
    27 -1.157515 -6.004721 -6.454605 -1.179151 -5.445382 -0.882315
    28 -0.129625 -8.512920 0.049231 0.350037 -1.218147 0.178853
    29 0.447953 -2.798986 -0.200443 -0.678697 0.009067 0.255279
    30 -0.032909 -1.499736 0.020565 -1.178410 0.022351 -0.020516
    31 -0.027022 -1.100358 -0.028023 -0.639531 0.016203 -0.007754
    32 -0.249534 -2.846964 -0.174213 -0.258956 -0.005614 -0.009379
    33 0.043235 -1.656596 0.076480 -1.170445 -0.019025 0.003656
    34 0.031729 -1.141298 0.054932 -1.115535 -0.012397 0.006167
    35 -0.963866 -2.785145 -0.085350 -0.258141 0.159244 -0.202043
    36 0.028479 -1.406973 -0.021074 -1.031688 -0.028068 -0.035402
    37 0.021413 -0.949968 0.020046 -0.506666 -0.009240 -0.020889
    38 1.164475 -2.543940 -0.170330 -0.918692 -0.005888 0.531366
    39 0.024032 -1.140761 -0.005631 -1.070107 0.013746 0.054771
    40 0.014898 -0.899614 -0.015942 -0.870242 0.004710 0.044031
    41 -0.586770 -1.264477 0.200161 0.075951 -0.554112 -2.665786
    42 1.557992 0.035243 0.016848 -0.015368 -0.006020 0.767033
    43 1.114041 0.044518 -0.005766 -0.024632 -0.034810 0.905845
    44 -0.139399 -0.111698 0.014397 0.285382 -0.030687 1.580508
    45 -7.815541 3.327290 -0.442564 1.573493 -0.031509 -0.487613
  time 7
    0 4.765976 -9.356562 -5.482050 0.114657 0.008173 0.019365
    1 0.000000 2.286976 0.873885 0.000000 0.000000 0.000000
    2 0.000000 -0.743733 1.487464 0.000000 0.000000 0.000000
    3 0.000000 -0.207595 2.045263 0.000000 0.000000 0.000000
    4 0.000001 -1.580431 1.264344 0.000000 0.000000 0.000000
    5 0.000000 -2.844775 1.022632 0.462143 0.000000 0.000000
    6 0.024938 -1.409605 0.862229 0.000000 0.000000 0.000000
    7 1.548076 5.823131 -6.425358 0.000000 0.000000 0.216777
    8 5.415453 -5.545715 -2.604530 0.830101 -2.184775 -1.308216
    9 6.851101 5.032002 -0.294342 1.565138 -3.127525 0.723947
    10 -0.028951 -8.451860 -0.088509 0.174639 0.415288 -0.399600
    11 -0.488518 -2.755602 -0.228260 -0.317159 0.118912 -0.274953
    12 0.039887 -1.554011 0.029854 -2.186484 -0.000036 0.046957
    13 0.028786 -1.118701 -0.097330 -0.661479 -0.012416 0.012296
    14 0.250027 -2.820665 -0.238396 -0.279241 0.001645 -0.191604
    15 -0.049759 -1.598510 0.006726 -1.867416 -0.007071 -0.047137
    16 -0.034142 -1.175657 0.045718 -1.221971 0.005992 -0.032239
    17 0.957766 -2.746780 -0.090302 0.020387 -0.095283 -0.001682
    18 -0.033420 -1.393223 -0.019070 -0.591137 0.008401 -0.028908
    19 -0.022360 -0.969155 -0.012467 -1.291968 -0.004650 -0.060810
    20 -1.180681 -2.507217 -0.193859 -0.363374 0.387812 -0.251394
    21 -0.024967 -1.127840 0.017597 -1.854825 -0.023885 -0.068491
    22 -0.020057 -0.902687 0.025715 -0.804503 0.007526 -0.032298
    23 0.610855 -1.189464 0.177566 0.581784 -0.757762 -0.601920
    24 1.473425 -0.224136 0.071417 0.053256 -0.220264 -0.793415
    25 1.026550 -0.167353 0.040104 0.065828 -0.222029 -0.925272
    26 0.120153 -0.050270 -0.054489 0.287569 3.110905 1.561085
    27 -1.165327 -6.055504 -6.403822 -1.173067 -5.434365 -0.877542
    28 -0.129625 -8.512920 0.049231 0.367008 -1.222192 0.153361
    29 0.447953 -2.798986 -0.200443 -0.678697 0.009067 0.255279
    30 -0.032909 -1.499736 0.020565 -1.178410 0.022351 -0.020516
    31 -0.027022 -1.100358 -0.028023 -0.639531 0.016203 -0.007754
    32 -0.249534 -2.846964 -0.174213 -0.258956 -0.005614 -0.009379
    33 0.043235 -1.656596 0.076480 -1.170445 -0.019025 0.003656
    34 0.031729 -1.141298 0.054932 -1.115535 -0.012397 0.006167
    35 -0.963866 -2.785145 -0.085350 -0.258141 0.159244 -0.202043
    36 0.028479 -1.406973 -0.021074 -1.031688 -0.028068 -0.035402
    37 0.021413 -0.949968 0.020046 -0.506666 -0.009240 -0.020889
    38 1.164475 -2.543940 -0.170330 -0.918692 -0.005888 0.531366
    39 0.024032 -1.140761 -0.005631 -1.070107 0.013746 0.054771
    40 0.014898 -0.899614 -0.015942 -0.870242 0.004710 0.044031
    41 -0.586770 -1.264477 0.200161 0.075951 -0.554112 -2.665786
    42 1.557992 0.035243 0.016848 -0.015368 -0.006020 0.767033
    43 1.114041 0.044518 -0.005766 -0.024632 -0.034810 0.905845
    44 -0.139399 -0.111698 0.014397 0.285382 -0.030687 1.580508
    45 -7.753039 3.514796 -0.438658 1.573949 -0.031066 -0.511536
  time 8
    0 4.762070 -9.450314 -5.450799 0.098030 0.006236 0.018187
    1 0.000000 2.286976 0.873885 0.000000 0.000000 0.000000
    2 0.000000 -0.743733 1.487464 0.000000 0.000000 0.000000
    3 0.000000 -0.207595 2.045263 0.000000 0.000000 0.000000
    4 0.000001 -1.580431 1.264344 0.000000 0.000000 0.000000
    5 0.000000 -2.844775 1.022632 0.369714 0.000000 0.000000
    6 0.024938 -1.409605 0.862229 0.000000 0.000000 0.000000
    7 1.548076 5.823131 -6.425358 0.000000 0.000000 0.216777
    8 5.384202 -5.580873 -2.553747 0.819158 -2.176278 -1.294599
    9 6.741722 5.199976 -0.290436 1.565042 -3.128004 0.748066
    10 -0.032857 -8.455766 -0.088509 0.179736 0.409833 -0.370864
    11 -0.488518 -2.755602 -0.228260 -0.317159 0.118912 -0.274953
    12 0.039887 -1.554011 0.029854 -2.186484 -0.000036 0.046957
    13 0.028786 -1.118701 -0.097330 -0.661479 -0.012416 0.012296
    14 0.250027 -2.820665 -0.238396 -0.279241 0.001645 -0.191604
    15 -0.049759 -1.598510 0.006726 -1.867416 -0.007071 -0.047137
    16 -0.034142 -1.175657 0.045718 -1.221971 0.005992 -0.032239
    17 0.957766 -2.746780 -0.090302 0.020387 -0.095283 -0.001682
    18 -0.033420 -1.393223 -0.019070 -0.510933 0.008317 -0.024857
    19 -0.022360 -0.965249 -0.008561 -1.202659 -0.001822 -0.057298
    20 -1.180681 -2.507217 -0.193859 -0.363374 0.387812 -0.251394
    21 -0.024967 -1.127840 0.017597 -1.854825 -0.023885 -0.068491
    22 -0.020057 -0.902687 0.025715 -0.804503 0.007526 -0.032298
    23 0.610855 -1.189464 0.177566 0.581784 -0.757762 -0.601920
    24 1.473425 -0.220230 0.071417 0.051889 -0.218539 -0.785365
    25 1.030456 -0.167353 0.040104 0.062496 -0.218446 -0.907236
    26 0.120153 -0.050270 -0.054489 0.287569 3.110905 1.561085
    27 -1.180953 -6.121912 -6.345227 -1.166264 -5.423662 -0.873724
    28 -0.129625 -8.509014 0.049231 0.351349 -1.216343 0.140087
    29 0.447953 -2.798986 -0.200443 -0.678697 0.009067 0.255279
    30 -0.032909 -1.499736 0.020565 -1.178410 0.022351 -0.020516
    31 -0.027022 -1.100358 -0.028023 -0.639531 0.016203 -0.007754
    32 -0.249534 -2.846964 -0.174213 -0.258956 -0.005614 -0.009379
    33 0.043235 -1.656596 0.076480 -1.170445 -0.019025 0.003656
    34 0.031729 -1.141298 0.054932 -1.115535 -0.012397 0.006167
    35 -0.963866 -2.785145 -0.085350 -0.258141 0.159244 -0.202043
    36 0.028479 -1.406973 -0.021074 -1.031688 -0.028068 -0.035402
    37 0.021413 -0.949968 0.020046 -0.506666 -0.009240 -0.020889
    38 1.164475 -2.543940 -0.170330 -0.918692 -0.005888 0.531366
    39 0.024032 -1.140761 -0.005631 -1.070107 0.013746 0.054771
    40 0.014898 -0.899614 -0.015942 -0.870242 0.004710 0.044031
    41 -0.586770 -1.264477 0.200161 0.075951 -0.554112 -2.665786
    42 1.557992 0.035243 0.016848 -0.015368 -0.006020 0.767033
    43 1.114041 0.044518 -0.005766 -0.024632 -0.034810 0.905845
    44 -0.139399 -0.111698 0.014397 0.285382 -0.030687 1.580508
    45 -7.674912 3.717927 -0.434751 1.574452 -0.030562 -0.537974
  time 9
    0 4.746444 -9.512816 -5.376578 0.067112 0.004298 0.012914
    1 0.000000 2.286976 0.873885 0.000000 0.000000 0.000000
    2 0.000000 -0.743733 1.487464 0.000000 0.000000 0.000000
    3 0.000000 -0.207595 2.045263 0.000000 0.000000 0.000000
    4 0.000001 -1.580431 1.264344 0.000000 0.000000 0.000000
    5 0.000000 -2.844775 1.022632 0.277286 0.000000 0.000000
    6 0.024938 -1.409605 0.862229 0.000000 0.000000 0.000000
    7 1.548076 5.823131 -6.425358 0.000000 0.000000 0.216777
    8 5.360764 -5.600404 -2.526402 0.809913 -2.169628 -1.283877
    9 6.667501 5.309354 -0.286530 1.565042 -3.128387 0.764538
    10 -0.036764 -8.459673 -0.088509 0.186790 0.401721 -0.329314
    11 -0.488518 -2.755602 -0.228260 -0.317159 0.118912 -0.274953
    12 0.039887 -1.554011 0.029854 -2.186484 -0.000036 0.046957
    13 0.028786 -1.118701 -0.097330 -0.661479 -0.012416 0.012296
    14 0.250027 -2.820665 -0.238396 -0.279241 0.001645 -0.191604
    15 -0.049759 -1.598510 0.006726 -1.867416 -0.007071 -0.047137
    16 -0.034142 -1.175657 0.045718 -1.221971 0.005992 -0.032239
    17 0.957766 -2.746780 -0.090302 0.020387 -0.095283 -0.001682
    18 -0.033420 -1.397129 -0.019070 -0.422946 0.007850 -0.020435
    19 -0.022360 -0.965249 -0.008561 -1.104663 0.000911 -0.053176
    20 -1.180681 -2.507217 -0.193859 -0.363374 0.387812 -0.251394
    21 -0.024967 -1.127840 0.017597 -1.854825 -0.023885 -0.068491
    22 -0.020057 -0.902687 0.025715 -0.804503 0.007526 -0.032298
    23 0.610855 -1.189464 0.177566 0.581784 -0.757762 -0.601920
    24 1.477332 -0.220230 0.071417 0.050415 -0.216645 -0.776550
    25 1.030456 -0.163447 0.036197 0.058925 -0.214431 -0.887503
    26 0.120153 -0.050270 -0.054489 0.287569 3.110905 1.561085
    27 -1.200485 -6.192227 -6.278819 -1.159460 -5.413668 -0.870669
    28 -0.125719 -8.505108 0.053137 0.317140 -1.204705 0.133791
    29 0.447953 -2.798986 -0.200443 -0.678697 0.009067 0.255279
    30 -0.032909 -1.499736 0.020565 -1.178410 0.022351 -0.020516
    31 -0.027022 -1.100358 -0.028023 -0.639531 0.016203 -0.007754
    32 -0.249534 -2.846964 -0.174213 -0.258956 -0.005614 -0.009379
    33 0.043235 -1.656596 0.076480 -1.170445 -0.019025 0.003656
    34 0.031729 -1.141298 0.054932 -1.115535 -0.012397 0.006167
    35 -0.963866 -2.785145 -0.085350 -0.258141 0.159244 -0.202043
    36 0.028479 -1.406973 -0.021074 -1.031688 -0.028068 -0.035402
    37 0.021413 -0.949968 0.020046 -0.506666 -0.009240 -0.020889
    38 1.164475 -2.543940 -0.170330 -0.918692 -0.005888 0.531366
    39 0.024032 -1.140761 -0.005631 -1.070107 0.013746 0.054771
    40 0.014898 -0.899614 -0.015942 -0.870242 0.004698 0.044031
    41 -0.586770 -1.264477 0.200161 0.075951 -0.554112 -2.665786
    42 1.557992 0.035243 0.016848 -0.015368 -0.006020 0.767033
    43 1.114041 0.044518 -0.005766 -0.024632 -0.034810 0.905845
    44 -0.139399 -0.111698 0.014397 0.285382 -0.030687 1.580508
    45 -7.592878 3.921058 -0.434751 1.574932 -0.030035 -0.564669
  time 10
    0 4.723006 -9.547974 -5.282825 0.031546 0.002397 0.005951
    1 0.000000 2.286976 0.873885 0.000000 0.000000 0.000000
    2 0.000000 -0.743733 1.487464 0.000000 0.000000 0.000000
    3 0.000000 -0.207595 2.045263 0.000000 0.000000 0.000000
    4 0.000001 -1.580431 1.264344 0.000000 0.000000 0.000000
    5 0.000000 -2.844775 1.022632 0.184857 0.000000 0.000000
    6 0.024938 -1.409605 0.862229 0.000000 0.000000 0.000000
    7 1.548076 5.823131 -6.425358 0.000000 0.000000 0.216777
    8 5.349045 -5.612123 -2.510777 0.802555 -2.164530 -1.275686
    9 6.620625 5.383575 -0.286530 1.565042 -3.128579 0.775379
    10 -0.040670 -8.463579 -0.092415 0.193917 0.392691 -0.285098
    11 -0.488518 -2.755602 -0.228260 -0.317159 0.118912 -0.274953
    12 0.039887 -1.554011 0.029854 -2.186484 -0.000036 0.046957
    13 0.028786 -1.118701 -0.097330 -0.661479 -0.012416 0.012296
    14 0.250027 -2.820665 -0.238396 -0.279241 0.001645 -0.191604
    15 -0.049759 -1.598510 0.006726 -1.867416 -0.007071 -0.047137
    16 -0.034142 -1.175657 0.045718 -1.221971 0.005992 -0.032239
    17 0.957766 -2.746780 -0.090302 0.020387 -0.095283 -0.001682
    18 -0.033420 -1.397129 -0.015163 -0.339065 0.007047 -0.016276
    19 -0.022360 -0.961342 -0.004654 -1.011246 0.003128 -0.049005
    20 -1.180681 -2.507217 -0.193859 -0.363374 0.387812 -0.251394
    21 -0.024967 -1.127840 0.017597 -1.854825 -0.023885 -0.068491
    22 -0.020057 -0.902687 0.025715 -0.804503 0.007526 -0.032298
    23 0.610855 -1.189464 0.177566 0.581784 -0.757762 -0.601920
    24 1.477332 -0.216323 0.067511 0.049025 -0.214811 -0.768154
    25 1.034363 -0.159541 0.036197 0.055593 -0.210548 -0.868666
    26 0.120153 -0.050270 -0.054489 0.287569 3.110905 1.561085
    27 -1.220017 -6.254729 -6.212410 -1.153328 -5.405012 -0.867996
    28 -0.125719 -8.497295 0.053137 0.281885 -1.190610 0.125759
    29 0.447953 -2.798986 -0.200443 -0.678697 0.009067 0.255279
    30 -0.032909 -1.499736 0.020565 -1.178410 0.022351 -0.020516
    31 -0.027022 -1.100358 -0.028023 -0.639531 0.016203 -0.007754
    32 -0.249534 -2.846964 -0.174213 -0.258956 -0.005614 -0.009379
    33 0.043235 -1.656596 0.076480 -1.170445 -0.019025 0.003656
    34 0.031729 -1.141298 0.054932 -1.115535 -0.012397 0.006167
    35 -0.963866 -2.785145 -0.085350 -0.258141 0.159244 -0.202043
    36 0.028479 -1.406973 -0.021074 -1.031688 -0.028068 -0.035402
    37 0.021413 -0.949968 0.020046 -0.506666 -0.009240 -0.020889
    38 1.164475 -2.543940 -0.170330 -0.918692 -0.005888 0.531366
    39 0.024032 -1.140761 -0.005631 -1.070107 0.013746 0.054771
    40 0.014898 -0.899614 -0.015942 -0.870242 0.004710 0.044031
    41 -0.586770 -1.264477 0.200161 0.075951 -0.554112 -2.665786
    42 1.557992 0.035243 0.016848 -0.015368 -0.006020 0.767033
    43 1.114041 0.044518 -0.005766 -0.024632 -0.034810 0.905845
    44 -0.139399 -0.111698 0.014397 0.285382 -0.030687 1.580508
    45 -7.514751 4.108564 -0.430845 1.575363 -0.029543 -0.589108
  time 11
    0 4.699568 -9.567505 -5.204698 0.000914 0.000639 -0.000244
    1 0.000000 2.286976 0.873885 0.000000 0.000000 0.000000
    2 0.000000 -0.743733 1.487464 0.000000 0.000000 0.000000
    3 0.000000 -0.207595 2.045263 0.000000 0.000000 0.000000
    4 0.000001 -1.580431 1.264344 0.000000 0.000000 0.000000
    5 0.000000 -2.844775 1.022632 0.092429 0.000000 0.000000
    6 0.024938 -1.409605 0.862229 0.000000 0.000000 0.000000
    7 1.548076 5.823131 -6.425358 0.000000 0.000000 0.216777
    8 5.341232 -5.616030 -2.506871 0.797083 -2.160835 -1.269739
    9 6.585468 5.430452 -0.282623 1.565042 -3.128771 0.782439
    10 -0.044576 -8.467485 -0.092415 0.199568 0.384899 -0.248029
    11 -0.488518 -2.755602 -0.228260 -0.317159 0.118912 -0.274953
    12 0.039887 -1.554011 0.029854 -2.186484 -0.000036 0.046957
    13 0.028786 -1.118701 -0.097330 -0.661479 -0.012416 0.012296
    14 0.250027 -2.820665 -0.238396 -0.279241 0.001645 -0.191604
    15 -0.049759 -1.598510 0.006726 -1.867416 -0.007071 -0.047137
    16 -0.034142 -1.175657 0.045718 -1.221971 0.005992 -0.032239
    17 0.957766 -2.746780 -0.090302 0.020387 -0.095283 -0.001682
    18 -0.033420 -1.397129 -0.015163 -0.271177 0.006148 -0.012968
    19 -0.022360 -0.961342 -0.004654 -0.935588 0.004638 -0.045494
    20 -1.180681 -2.507217 -0.193859 -0.363374 0.387812 -0.251394
    21 -0.024967 -1.127840 0.017597 -1.854825 -0.023885 -0.068491
    22 -0.020057 -0.902687 0.025715 -0.804503 0.007526 -0.032298
    23 0.610855 -1.189464 0.177566 0.581784 -0.757762 -0.601920
    24 1.481238 -0.216323 0.067511 0.047911 -0.213325 -0.761364
    25 1.038269 -0.159541 0.036197 0.052956 -0.207360 -0.853502
    26 0.120153 -0.050270 -0.054489 0.287569 3.110905 1.561085
    27 -1.235642 -6.305511 -6.161628 -1.148489 -5.398481 -0.865801
    28 -0.121813 -8.493389 0.053137 0.253439 -1.178351 0.117794
    29 0.447953 -2.798986 -0.200443 -0.678697 0.009067 0.255279
    30 -0.032909 -1.499736 0.020565 -1.178410 0.022351 -0.020516
    31 -0.027022 -1.100358 -0.028023 -0.639531 0.016203 -0.007754
    32 -0.249534 -2.846964 -0.174213 -0.258956 -0.005614 -0.009379
    33 0.043235 -1.656596 0.076480 -1.170445 -0.019025 0.003656
    34 0.031729 -1.141298 0.054932 -1.115535 -0.012397 0.006167
    35 -0.963866 -2.785145 -0.085350 -0.258141 0.159244 -0.202043
    36 0.028479 -1.406973 -0.021074 -1.031688 -0.028068 -0.035402
    37 0.021413 -0.949968 0.020046 -0.506666 -0.009240 -0.020889
    38 1.164475 -2.543940 -0.170330 -0.918692 -0.005888 0.531366
    39 0.024032 -1.140761 -0.005631 -1.070107 0.013746 0.054771
    40 0.014898 -0.899614 -0.015942 -0.870242 0.004710 0.044031
    41 -0.586770 -1.264477 0.200161 0.075951 -0.554112 -2.665786
    42 1.557992 0.035243 0.016848 -0.015368 -0.006020 0.767033
    43 1.114041 0.044518 -0.005766 -0.024632 -0.034810 0.905845
    44 -0.139399 -0.111698 0.014397 0.285382 -0.030687 1.580508
    45 -7.444436 4.253100 -0.426939 1.575699 -0.029148 -0.608452
  time 12
    0 4.691755 -9.583131 -5.161728 -0.015162 -0.000438 -0.003315
    1 0.000000 2.286976 0.873885 0.000000 0.000000 0.000000
    2 0.000000 -0.743733 1.487464 0.000000 0.000000 0.000000
    3 0.000000 -0.207595 2.045263 0.000000 0.000000 0.000000
    4 0.000001 -1.580431 1.264344 0.000000 0.000000 0.000000
    5 0.000000 -2.844775 1.022632 0.000000 0.000000 0.000000
    6 0.024938 -1.409605 0.862229 0.000000 0.000000 0.000000
    7 1.548076 5.823131 -6.425358 0.000000 0.000000 0.216777
    8 5.337326 -5.619936 -2.499058 0.793404 -2.158397 -1.265669
    9 6.562029 5.465609 -0.282623 1.565042 -3.128866 0.787733
    10 -0.048483 -8.471392 -0.092415 0.202485 0.380591 -0.227957
    11 -0.488518 -2.755602 -0.228260 -0.317159 0.118912 -0.274953
    12 0.039887 -1.554011 0.029854 -2.186484 -0.000036 0.046957
    13 0.028786 -1.118701 -0.097330 -0.661479 -0.012416 0.012296
    14 0.250027 -2.820665 -0.238396 -0.279241 0.001645 -0.191604
    15 -0.049759 -1.598510 0.006726 -1.867416 -0.007071 -0.047137
    16 -0.034142 -1.175657 0.045718 -1.221971 0.005992 -0.032239
    17 0.957766 -2.746780 -0.090302 0.020387 -0.095283 -0.001682
    18 -0.033420 -1.397129 -0.015163 -0.231150 0.005513 -0.011051
    19 -0.022360 -0.961342 -0.004654 -0.890998 0.005405 -0.043372
    20 -1.180681 -2.507217 -0.193859 -0.363374 0.387812 -0.251394
    21 -0.024967 -1.127840 0.017597 -1.854825 -0.023885 -0.068491
    22 -0.020057 -0.902687 0.025715 -0.804503 0.007526 -0.032298
    23 0.610855 -1.189464 0.177566 0.581784 -0.757762 -0.601920
    24 1.481238 -0.212417 0.067511 0.047263 -0.212451 -0.757364
    25 1.038269 -0.155634 0.036197 0.051434 -0.205466 -0.844507
    26 0.120153 -0.050270 -0.054489 0.287569 3.110905 1.561085
    27 -1.247361 -6.332856 -6.130377 -1.145567 -5.394467 -0.864369
    28 -0.117906 -8.489482 0.053137 0.238527 -1.172128 0.112791
    29 0.447953 -2.798986 -0.200443 -0.678697 0.009067 0.255279
    30 -0.032909 -1.499736 0.020565 -1.178410 0.022351 -0.020516
    31 -0.027022 -1.100358 -0.028023 -0.639531 0.016203 -0.007754
    32 -0.249534 -2.846964 -0.174213 -0.258956 -0.005614 -0.009379
    33 0.043235 -1.656596 0.076480 -1.170445 -0.019025 0.003656
    34 0.031729 -1.141298 0.054932 -1.115535 -0.012397 0.006167
    35 -0.963866 -2.785145 -0.085350 -0.258141 0.159244 -0.202043
    36 0.028479 -1.406973 -0.021074 -1.031688 -0.028068 -0.035402
    37 0.021413 -0.949968 0.020046 -0.506666 -0.009240 -0.020889
    38 1.164475 -2.543940 -0.170330 -0.918692 -0.005888 0.531366
    39 0.024032 -1.140761 -0.005631 -1.070107 0.013746 0.054771
    40 0.014898 -0.899614 -0.015942 -0.870242 0.004710 0.044031
    41 -0.586770 -1.264477 0.200161 0.075951 -0.554112 -2.665786
    42 1.557992 0.035243 0.016848 -0.015368 -0.006020 0.767033
    43 1.114041 0.044518 -0.005766 -0.024632 -0.034810 0.905845
    44 -0.139399 -0.111698 0.014397 0.285382 -0.030687 1.580508
    45 -7.405372 4.339040 -0.423032 1.575890 -0.028908 -0.619995
  time 13
    0 4.687849 -9.594850 -5.153915 -0.019787 -0.000976 -0.003930
    1 0.000000 2.286976 0.873885 0.000000 0.000000 0.000000
    2 0.000000 -0.743733 1.487464 0.000000 0.000000 0.000000
    3 0.000000 -0.207595 2.045263 0.000000 0.000000 0.000000
    4 0.000001 -1.580431 1.264344 0.000000 0.000000 0.000000
    5 0.000000 -2.844775 1.022632 0.000000 0.000000 0.000000
    6 0.024938 -1.409605 0.862229 0.000000 0.000000 0.000000
    7 1.548076 5.823131 -6.425358 0.000000 0.000000 0.216777
    8 5.329513 -5.627749 -2.491245 0.791046 -2.156772 -1.262852
    9 6.538591 5.492954 -0.282623 1.565042 -3.128962 0.792187
    10 -0.048483 -8.471392 -0.092415 0.203482 0.379078 -0.220958
    11 -0.488518 -2.755602 -0.228260 -0.317159 0.118912 -0.274953
    12 0.039887 -1.554011 0.029854 -2.186484 -0.000036 0.046957
    13 0.028786 -1.118701 -0.097330 -0.661479 -0.012416 0.012296
    14 0.250027 -2.820665 -0.238396 -0.279241 0.001645 -0.191604
    15 -0.049759 -1.598510 0.006726 -1.867416 -0.007071 -0.047137
    16 -0.034142 -1.175657 0.045718 -1.221971 0.005992 -0.032239
    17 0.957766 -2.746780 -0.090302 0.020387 -0.095283 -0.001682
    18 -0.033420 -1.397129 -0.011257 -0.212291 0.005189 -0.010152
    19 -0.022360 -0.961342 -0.004654 -0.869987 0.005729 -0.042366
    20 -1.180681 -2.507217 -0.193859 -0.363374 0.387812 -0.251394
    21 -0.024967 -1.127840 0.017597 -1.854825 -0.023885 -0.068491
    22 -0.020057 -0.902687 0.025715 -0.804503 0.007526 -0.032298
    23 0.610855 -1.189464 0.177566 0.581784 -0.757762 -0.601920
    24 1.481238 -0.212417 0.067511 0.046964 -0.212031 -0.755462
    25 1.038269 -0.155634 0.036197 0.050715 -0.204567 -0.840316
    26 0.120153 -0.050270 -0.054489 0.287569 3.110905 1.561085
    27 -1.251268 -6.348481 -6.114751 -1.143986 -5.392264 -0.863510
    28 -0.117906 -8.489482 0.053137 0.233363 -1.170727 0.110987
    29 0.447953 -2.798986 -0.200443 -0.678697 0.009067 0.255279
    30 -0.032909 -1.499736 0.020565 -1.178410 0.022351 -0.020516
    31 -0.027022 -1.100358 -0.028023 -0.639531 0.016203 -0.007754
    32 -0.249534 -2.846964 -0.174213 -0.258956 -0.005614 -0.009379
    33 0.043235 -1.656596 0.076480 -1.170445 -0.019025 0.003656
    34 0.031729 -1.141298 0.054932 -1.115535 -0.012397 0.006167
    35 -0.963866 -2.785145 -0.085350 -0.258141 0.159244 -0.202043
    36 0.028479 -1.406973 -0.021074 -1.031688 -0.028068 -0.035402
    37 0.021413 -0.949968 0.020046 -0.506666 -0.009240 -0.020889
    38 1.164475 -2.543940 -0.170330 -0.918692 -0.005888 0.531366
    39 0.024032 -1.140761 -0.005631 -1.070107 0.013746 0.054771
    40 0.014898 -0.899614 -0.015942 -0.870242 0.004710 0.044031
    41 -0.586770 -1.264477 0.200161 0.075951 -0.554112 -2.665786
    42 1.557992 0.035243 0.016848 -0.015368 -0.006020 0.767033
    43 1.114041 0.044518 -0.005766 -0.024632 -0.034810 0.905845
    44 -0.139399 -0.111698 0.014397 0.285382 -0.030687 1.580508
    45 -7.385840 4.378103 -0.423032 1.575986 -0.028788 -0.625669
  time 14
    0 4.687849 -9.606569 -5.150009 -0.022561 -0.001334 -0.004288
    1 0.000000 2.286976 0.873885 0.000000 0.000000 0.000000
    2 0.000000 -0.743733 1.487464 0.000000 0.000000 0.000000
    3 0.000000 -0.207595 2.045263 0.000000 0.000000 0.000000
    4 0.000001 -1.580431 1.264344 0.000000 0.000000 0.000000
    5 0.000000 -2.844775 1.022632 0.000000 0.000000 0.000000
    6 0.024938 -1.409605 0.862229 0.000000 0.000000 0.000000
    7 1.548076 5.823131 -6.425358 0.000000 0.000000 0.216777
    8 5.325607 -5.631655 -2.487339 0.789442 -2.155663 -1.260921
    9 6.526872 5.512486 -0.282623 1.565042 -3.129058 0.795129
    10 -0.048483 -8.471392 -0.092415 0.204110 0.378115 -0.216626
    11 -0.488518 -2.755602 -0.228260 -0.317159 0.118912 -0.274953
    12 0.039887 -1.554011 0.029854 -2.186484 -0.000036 0.046957
    13 0.028786 -1.118701 -0.097330 -0.661479 -0.012416 0.012296
    14 0.250027 -2.820665 -0.238396 -0.279241 0.001645 -0.191604
    15 -0.049759 -1.598510 0.006726 -1.867416 -0.007071 -0.047137
    16 -0.034142 -1.175657 0.045718 -1.221971 0.005992 -0.032239
    17 0.957766 -2.746780 -0.090302 0.020387 -0.095283 -0.001682
    18 -0.033420 -1.397129 -0.011257 -0.199462 0.004950 -0.009553
    19 -0.022360 -0.961342 -0.004654 -0.855694 0.005944 -0.041682
    20 -1.180681 -2.507217 -0.193859 -0.363374 0.387812 -0.251394
    21 -0.024967 -1.127840 0.017597 -1.854825 -0.023885 -0.068491
    22 -0.020057 -0.902687 0.025715 -0.804503 0.007526 -0.032298
    23 0.610855 -1.189464 0.177566 0.581784 -0.757762 -0.601920
    24 1.481238 -0.212417 0.067511 0.046748 -0.211755 -0.754178
    25 1.038269 -0.155634 0.036197 0.050236 -0.203956 -0.837443
    26 0.120153 -0.050270 -0.054489 0.287569 3.110905 1.561085
    27 -1.255174 -6.356294 -6.106938 -1.142932 -5.390847 -0.862937
    28 -0.117906 -8.489482 0.053137 0.229560 -1.169981 0.110477
    29 0.447953 -2.798986 -0.200443 -0.678697 0.009067 0.255279
    30 -0.032909 -1.499736 0.020565 -1.178410 0.022351 -0.020516
    31 -0.027022 -1.100358 -0.028023 -0.639531 0.016203 -0.007754
    32 -0.249534 -2.846964 -0.174213 -0.258956 -0.005614 -0.009379
    33 0.043235 -1.656596 0.076480 -1.170445 -0.019025 0.003656
    34 0.031729 -1.141298 0.054932 -1.115535 -0.012397 0.006167
    35 -0.963866 -2.785145 -0.085350 -0.258141 0.159244 -0.202043
    36 0.028479 -1.406973 -0.021074 -1.031688 -0.028068 -0.035402
    37 0.021413 -0.949968 0.020046 -0.506666 -0.009240 -0.020889
    38 1.164475 -2.543940 -0.170330 -0.918692 -0.005888 0.531366
    39 0.024032 -1.140761 -0.005631 -1.070107 0.013746 0.054771
    40 0.014898 -0.899614 -0.015942 -0.870242 0.004710 0.044031
    41 -0.586770 -1.264477 0.200161 0.075951 -0.554112 -2.665786
    42 1.557992 0.035243 0.016848 -0.015368 -0.006020 0.767033
    43 1.114041 0.044518 -0.005766 -0.024632 -0.034810 0.905845
    44 -0.139399 -0.111698 0.014397 0.285382 -0.030687 1.580508
    45 -7.370215 4.405448 -0.423032 1.576046 -0.028705 -0.629280
  time 15
    0 4.687849 -9.610476 -5.146102 -0.023729 -0.001514 -0.004339
    1 0.000000 2.286976 0.873885 0.000000 0.000000 0.000000
    2 0.000000 -0.743733 1.487464 0.000000 0.000000 0.000000
    3 0.000000 -0.207595 2.045263 0.000000 0.000000 0.000000
    4 0.000001 -1.580431 1.264344 0.000000 0.000000 0.000000
    5 0.000000 -2.844775 1.022632 0.000000 0.000000 0.000000
    6 0.024938 -1.409605 0.862229 0.000000 0.000000 0.000000
    7 1.548076 5.823131 -6.425358 0.000000 0.000000 0.216777
    8 5.325607 -5.631655 -2.483432 0.788404 -2.154998 -1.259800
    9 6.515153 5.524205 -0.282623 1.565042 -3.129058 0.796893
    10 -0.048483 -8.471392 -0.092415 0.204406 0.377657 -0.214515
    11 -0.488518 -2.755602 -0.228260 -0.317159 0.118912 -0.274953
    12 0.039887 -1.554011 0.029854 -2.186484 -0.000036 0.046957
    13 0.028786 -1.118701 -0.097330 -0.661479 -0.012416 0.012296
    14 0.250027 -2.820665 -0.238396 -0.279241 0.001645 -0.191604
    15 -0.049759 -1.598510 0.006726 -1.867416 -0.007071 -0.047137
    16 -0.034142 -1.175657 0.045718 -1.221971 0.005992 -0.032239
    17 0.957766 -2.746780 -0.090302 0.020387 -0.095283 -0.001682
    18 -0.033420 -1.397129 -0.011257 -0.191871 0.004806 -0.009193
    19 -0.022360 -0.957436 -0.000748 -0.847221 0.006064 -0.041263
    20 -1.180681 -2.507217 -0.193859 -0.363374 0.387812 -0.251394
    21 -0.024967 -1.127840 0.017597 -1.854825 -0.023885 -0.068491
    22 -0.020057 -0.902687 0.025715 -0.804503 0.007526 -0.032298
    23 0.610855 -1.189464 0.177566 0.581784 -0.757762 -0.601920
    24 1.481238 -0.212417 0.067511 0.046628 -0.211588 -0.753413
    25 1.038269 -0.155634 0.036197 0.049948 -0.203585 -0.835748
    26 0.120153 -0.050270 -0.054489 0.287569 3.110905 1.561085
    27 -1.255174 -6.360201 -6.103032 -1.142357 -5.390060 -0.862650
    28 -0.117906 -8.489482 0.053137 0.226986 -1.169856 0.111124
    29 0.447953 -2.798986 -0.200443 -0.678697 0.009067 0.255279
    30 -0.032909 -1.499736 0.020565 -1.178410 0.022351 -0.020516
    31 -0.027022 -1.100358 -0.028023 -0.639531 0.016203 -0.007754
    32 -0.249534 -2.846964 -0.174213 -0.258956 -0.005614 -0.009379
    33 0.043235 -1.656596 0.076480 -1.170445 -0.019025 0.003656
    34 0.031729 -1.141298 0.054932 -1.115535 -0.012397 0.006167
    35 -0.963866 -2.785145 -0.085350 -0.258141 0.159244 -0.202043
    36 0.028479 -1.406973 -0.021074 -1.031688 -0.028068 -0.035402
    37 0.021413 -0.949968 0.020046 -0.506666 -0.009240 -0.020889
    38 1.164475 -2.543940 -0.170330 -0.918692 -0.005888 0.531366
    39 0.024032 -1.140761 -0.005631 -1.070107 0.013746 0.054771
    40 0.014898 -0.899614 -0.015942 -0.870242 0.004710 0.044031
    41 -0.586770 -1.264477 0.200161 0.075951 -0.554112 -2.665786
    42 1.557992 0.035243 0.016848 -0.015368 -0.006020 0.767033
    43 1.114041 0.044518 -0.005766 -0.024632 -0.034810 0.905845
    44 -0.139399 -0.111698 0.014397 0.285382 -0.030687 1.580508
    45 -7.362402 4.421074 -0.423032 1.576082 -0.028669 -0.631214
  time 16
    0 4.687849 -9.614382 -5.150009 -0.023530 -0.001586 -0.004237
    1 0.000000 2.286976 0.873885 0.000000 0.000000 0.000000
    2 0.000000 -0.743733 1.487464 0.000000 0.000000 0.000000
    3 0.000000 -0.207595 2.045263 0.000000 0.000000 0.000000
    4 0.000001 -1.580431 1.264344 0.000000 0.000000 0.000000
    5 0.000000 -2.844775 1.022632 0.000000 0.000000 0.000000
    6 0.024938 -1.409605 0.862229 0.000000 0.000000 0.000000
    7 1.548076 5.823131 -6.425358 0.000000 0.000000 0.216777
    8 5.325607 -5.635562 -2.479526 0.788027 -2.154777 -1.259304
    9 6.515153 5.528111 -0.282623 1.565042 -3.129058 0.797650
    10 -0.048483 -8.471392 -0.092415 0.204406 0.377611 -0.214367
    11 -0.488518 -2.755602 -0.228260 -0.317159 0.118912 -0.274953
    12 0.039887 -1.554011 0.029854 -2.186484 -0.000036 0.046957
    13 0.028786 -1.118701 -0.097330 -0.661479 -0.012416 0.012296
    14 0.250027 -2.820665 -0.238396 -0.279241 0.001645 -0.191604
    15 -0.049759 -1.598510 0.006726 -1.867416 -0.007071 -0.047137
    16 -0.034142 -1.175657 0.045718 -1.221971 0.005992 -0.032239
    17 0.957766 -2.746780 -0.090302 0.020387 -0.095283 -0.001682
    18 -0.033420 -1.397129 -0.011257 -0.188728 0.004758 -0.009049
    19 -0.022360 -0.957436 -0.000748 -0.843712 0.006112 -0.041095
    20 -1.180681 -2.507217 -0.193859 -0.363374 0.387812 -0.251394
    21 -0.024967 -1.127840 0.017597 -1.854825 -0.023885 -0.068491
    22 -0.020057 -0.902687 0.025715 -0.804503 0.007526 -0.032298
    23 0.610855 -1.189464 0.177566 0.581784 -0.757762 -0.601920
    24 1.481238 -0.212417 0.067511 0.046580 -0.211516 -0.753116
    25 1.038269 -0.155634 0.036197 0.049828 -0.203441 -0.835041
    26 0.120153 -0.050270 -0.054489 0.287569 3.110905 1.561085
    27 -1.259080 -6.360201 -6.103032 -1.142165 -5.389824 -0.862650
    28 -0.117906 -8.489482 0.053137 0.225442 -1.170198 0.112689
    29 0.447953 -2.798986 -0.200443 -0.678697 0.009067 0.255279
    30 -0.032909 -1.499736 0.020565 -1.178410 0.022351 -0.020516
    31 -0.027022 -1.100358 -0.028023 -0.639531 0.016203 -0.007754
    32 -0.249534 -2.846964 -0.174213 -0.258956 -0.005614 -0.009379
    33 0.043235 -1.656596 0.076480 -1.170445 -0.019025 0.003656
    34 0.031729 -1.141298 0.054932 -1.115535 -0.012397 0.006167
    35 -0.963866 -2.785145 -0.085350 -0.258141 0.159244 -0.202043
    36 0.028479 -1.406973 -0.021074 -1.031688 -0.028068 -0.035402
    37 0.021413 -0.949968 0.020046 -0.506666 -0.009240 -0.020889
    38 1.164475 -2.543940 -0.170330 -0.918692 -0.005888 0.531366
    39 0.024032 -1.140761 -0.005631 -1.070107 0.013746 0.054771
    40 0.014898 -0.899614 -0.015942 -0.870242 0.004710 0.044031
    41 -0.586770 -1.264477 0.200161 0.075951 -0.554112 -2.665786
    42 1.557992 0.035243 0.016848 -0.015368 -0.006020 0.767033
    43 1.114041 0.044518 -0.005766 -0.024632 -0.034810 0.905845
    44 -0.139399 -0.111698 0.014397 0.285382 -0.030687 1.580508
    45 -7.362402 4.424980 -0.423032 1.576082 -0.028657 -0.631666
  time 17
    0 4.687849 -9.614382 -5.153915 -0.022209 -0.001550 -0.003981
    1 0.000000 2.286976 0.873885 0.000000 0.000000 0.000000
    2 0.000000 -0.743733 1.487464 0.000000 0.000000 0.000000
    3 0.000000 -0.207595 2.045263 0.000000 0.000000 0.000000
    4 0.000001 -1.580431 1.264344 0.000000 0.000000 0.000000
    5 0.000000 -2.844775 1.022632 0.000000 0.000000 0.000000
    6 0.024938 -1.409605 0.862229 0.000000 0.000000 0.000000
    7 1.548076 5.823131 -6.425358 0.000000 0.000000 0.216777
    8 5.325607 -5.635562 -2.479526 0.788121 -2.154777 -1.259382
    9 6.515153 5.528111 -0.282623 1.565042 -3.129058 0.797482
    10 -0.048483 -8.471392 -0.092415 0.204221 0.377932 -0.215811
    11 -0.488518 -2.755602 -0.228260 -0.317159 0.118912 -0.274953
    12 0.039887 -1.554011 0.029854 -2.186484 -0.000036 0.046957
    13 0.028786 -1.118701 -0.097330 -0.661479 -0.012416 0.012296
    14 0.250027 -2.820665 -0.238396 -0.279241 0.001645 -0.191604
    15 -0.049759 -1.598510 0.006726 -1.867416 -0.007071 -0.047137
    16 -0.034142 -1.175657 0.045718 -1.221971 0.005992 -0.032239
    17 0.957766 -2.746780 -0.090302 0.020387 -0.095283 -0.001682
    18 -0.033420 -1.397129 -0.011257 -0.189241 0.004758 -0.009073
    19 -0.022360 -0.957436 -0.000748 -0.844311 0.006100 -0.041119
    20 -1.180681 -2.507217 -0.193859 -0.363374 0.387812 -0.251394
    21 -0.024967 -1.127840 0.017597 -1.854825 -0.023885 -0.068491
    22 -0.020057 -0.902687 0.025715 -0.804503 0.007526 -0.032298
    23 0.610855 -1.189464 0.177566 0.581784 -0.757762 -0.601920
    24 1.481238 -0.212417 0.067511 0.046580 -0.211528 -0.753166
    25 1.038269 -0.155634 0.036197 0.049852 -0.203465 -0.835183
    26 0.120153 -0.050270 -0.054489 0.287569 3.110905 1.561085
    27 -1.259080 -6.360201 -6.103032 -1.142309 -5.389982 -0.862746
    28 -0.117906 -8.489482 0.053137 0.224794 -1.170976 0.115038
    29 0.447953 -2.798986 -0.200443 -0.678697 0.009067 0.255279
    30 -0.032909 -1.499736 0.020565 -1.178410 0.022351 -0.020516
    31 -0.027022 -1.100358 -0.028023 -0.639531 0.016203 -0.007754
    32 -0.249534 -2.846964 -0.174213 -0.258956 -0.005614 -0.009379
    33 0.043235 -1.656596 0.076480 -1.170445 -0.019025 0.003656
    34 0.031729 -1.141298 0.054932 -1.115535 -0.012397 0.006167
    35 -0.963866 -2.785145 -0.085350 -0.258141 0.159244 -0.202043
    36 0.028479 -1.406973 -0.021074 -1.031688 -0.028068 -0.035402
    37 0.021413 -0.949968 0.020046 -0.506666 -0.009240 -0.020889
    38 1.164475 -2.543940 -0.170330 -0.918692 -0.005888 0.531366
    39 0.024032 -1.140761 -0.005631 -1.070107 0.013746 0.054771
    40 0.014898 -0.899614 -0.015942 -0.870242 0.004710 0.044031
    41 -0.586770 -1.264477 0.200161 0.075951 -0.554112 -2.665786
    42 1.557992 0.035243 0.016848 -0.015368 -0.006020 0.767033
    43 1.114041 0.044518 -0.005766 -0.024632 -0.034810 0.905845
    44 -0.139399 -0.111698 0.014397 0.285382 -0.030687 1.580508
    45 -7.366309 4.417167 -0.423032 1.576070 -0.028681 -0.630892
  time 18
    0 4.691755 -9.614382 -5.161728 -0.019985 -0.001406 -0.003571
    1 0.000000 2.286976 0.873885 0.000000 0.000000 0.000000
    2 0.000000 -0.743733 1.487464 0.000000 0.000000 0.000000
    3 0.000000 -0.207595 2.045263 0.000000 0.000000 0.000000
    4 0.000001 -1.580431 1.264344 0.000000 0.000000 0.000000
    5 0.000000 -2.844775 1.022632 0.000000 0.000000 0.000000
    6 0.024938 -1.409605 0.862229 0.000000 0.000000 0.000000
    7 1.548076 5.823131 -6.425358 0.000000 0.000000 0.216777
    8 5.325607 -5.631655 -2.483432 0.788499 -2.155072 -1.259904
    9 6.519059 5.524205 -0.282623 1.565042 -3.129058 0.796725
    10 -0.048483 -8.471392 -0.092415 0.203815 0.378528 -0.218514
    11 -0.488518 -2.755602 -0.228260 -0.317159 0.118912 -0.274953
    12 0.039887 -1.554011 0.029854 -2.186484 -0.000036 0.046957
    13 0.028786 -1.118701 -0.097330 -0.661479 -0.012416 0.012296
    14 0.250027 -2.820665 -0.238396 -0.279241 0.001645 -0.191604
    15 -0.049759 -1.598510 0.006726 -1.867416 -0.007071 -0.047137
    16 -0.034142 -1.175657 0.045718 -1.221971 0.005992 -0.032239
    17 0.957766 -2.746780 -0.090302 0.020387 -0.095283 -0.001682
    18 -0.033420 -1.397129 -0.011257 -0.192641 0.004830 -0.009229
    19 -0.022360 -0.957436 -0.004654 -0.848120 0.006052 -0.041311
    20 -1.180681 -2.507217 -0.193859 -0.363374 0.387812 -0.251394
    21 -0.024967 -1.127840 0.017597 -1.854825 -0.023885 -0.068491
    22 -0.020057 -0.902687 0.025715 -0.804503 0.007526 -0.032298
    23 0.610855 -1.189464 0.177566 0.581784 -0.757762 -0.601920
    24 1.481238 -0.212417 0.067511 0.046640 -0.211600 -0.753511
    25 1.038269 -0.155634 0.036197 0.049972 -0.203633 -0.835936
    26 0.120153 -0.050270 -0.054489 0.287569 3.110905 1.561085
    27 -1.255174 -6.356294 -6.106938 -1.142692 -5.390532 -0.863128
    28 -0.117906 -8.489482 0.053137 0.224877 -1.172065 0.117896
    29 0.447953 -2.798986 -0.200443 -0.678697 0.009067 0.255279
    30 -0.032909 -1.499736 0.020565 -1.178410 0.022351 -0.020516
    31 -0.027022 -1.100358 -0.028023 -0.639531 0.016203 -0.007754
    32 -0.249534 -2.846964 -0.174213 -0.258956 -0.005614 -0.009379
    33 0.043235 -1.656596 0.076480 -1.170445 -0.019025 0.003656
    34 0.031729 -1.141298 0.054932 -1.115535 -0.012397 0.006167
    35 -0.963866 -2.785145 -0.085350 -0.258141 0.159244 -0.202043
    36 0.028479 -1.406973 -0.021074 -1.031688 -0.028068 -0.035402
    37 0.021413 -0.949968 0.020046 -0.506666 -0.009240 -0.020889
    38 1.164475 -2.543940 -0.170330 -0.918692 -0.005888 0.531366
    39 0.024032 -1.140761 -0.005631 -1.070107 0.013746 0.054771
    40 0.014898 -0.899614 -0.015942 -0.870242 0.004710 0.044031
    41 -0.586770 -1.264477 0.200161 0.075951 -0.554112 -2.665786
    42 1.557992 0.035243 0.016848 -0.015368 -0.006020 0.767033
    43 1.114041 0.044518 -0.005766 -0.024632 -0.034810 0.905845
    44 -0.139399 -0.111698 0.014397 0.285382 -0.030687 1.580508
    45 -7.370215 4.405448 -0.423032 1.576046 -0.028717 -0.629151
  time 19
    0 4.691755 -9.610476 -5.169540 -0.017144 -0.001191 -0.003059
    1 0.000000 2.286976 0.873885 0.000000 0.000000 0.000000
    2 0.000000 -0.743733 1.487464 0.000000 0.000000 0.000000
    3 0.000000 -0.207595 2.045263 0.000000 0.000000 0.000000
    4 0.000001 -1.580431 1.264344 0.000000 0.000000 0.000000
    5 0.000000 -2.844775 1.022632 0.000000 0.000000 0.000000
    6 0.024938 -1.409605 0.862229 0.000000 0.000000 0.000000
    7 1.548076 5.823131 -6.425358 0.000000 0.000000 0.216777
    8 5.325607 -5.631655 -2.483432 0.789253 -2.155589 -1.260739
    9 6.522966 5.516392 -0.282623 1.565042 -3.129058 0.795465
    10 -0.048483 -8.471392 -0.092415 0.203335 0.379307 -0.222143
    11 -0.488518 -2.755602 -0.228260 -0.317159 0.118912 -0.274953
    12 0.039887 -1.554011 0.029854 -2.186484 -0.000036 0.046957
    13 0.028786 -1.118701 -0.097330 -0.661479 -0.012416 0.012296
    14 0.250027 -2.820665 -0.238396 -0.279241 0.001645 -0.191604
    15 -0.049759 -1.598510 0.006726 -1.867416 -0.007071 -0.047137
    16 -0.034142 -1.175657 0.045718 -1.221971 0.005992 -0.032239
    17 0.957766 -2.746780 -0.090302 0.020387 -0.095283 -0.001682
    18 -0.033420 -1.397129 -0.011257 -0.198157 0.004926 -0.009493
    19 -0.022360 -0.961342 -0.004654 -0.854239 0.005956 -0.041610
    20 -1.180681 -2.507217 -0.193859 -0.363374 0.387812 -0.251394
    21 -0.024967 -1.127840 0.017597 -1.854825 -0.023885 -0.068491
    22 -0.020057 -0.902687 0.025715 -0.804503 0.007526 -0.032298
    23 0.610855 -1.189464 0.177566 0.581784 -0.757762 -0.601920
    24 1.481238 -0.212417 0.067511 0.046724 -0.211719 -0.754055
    25 1.038269 -0.155634 0.036197 0.050188 -0.203896 -0.837161
    26 0.120153 -0.050270 -0.054489 0.287569 3.110905 1.561085
    27 -1.255174 -6.352388 -6.114751 -1.143267 -5.391398 -0.863605
    28 -0.117906 -8.489482 0.053137 0.225574 -1.173372 0.121062
    29 0.447953 -2.798986 -0.200443 -0.678697 0.009067 0.255279
    30 -0.032909 -1.499736 0.020565 -1.178410 0.022351 -0.020516
    31 -0.027022 -1.100358 -0.028023 -0.639531 0.016203 -0.007754
    32 -0.249534 -2.846964 -0.174213 -0.258956 -0.005614 -0.009379
    33 0.043235 -1.656596 0.076480 -1.170445 -0.019025 0.003656
    34 0.031729 -1.141298 0.054932 -1.115535 -0.012397 0.006167
    35 -0.963866 -2.785145 -0.085350 -0.258141 0.159244 -0.202043
    36 0.028479 -1.406973 -0.021074 -1.031688 -0.028068 -0.035402
    37 0.021413 -0.949968 0.020046 -0.506666 -0.009240 -0.020889
    38 1.164475 -2.543940 -0.170330 -0.918692 -0.005888 0.531366
    39 0.024032 -1.140761 -0.005631 -1.070107 0.013746 0.054771
    40 0.014898 -0.899614 -0.015942 -0.870242 0.004710 0.044031
    41 -0.586770 -1.264477 0.200161 0.075951 -0.554112 -2.665786
    42 1.557992 0.035243 0.016848 -0.015368 -0.006020 0.767033
    43 1.114041 0.044518 -0.005766 -0.024632 -0.034810 0.905845
    44 -0.139399 -0.111698 0.014397 0.285382 -0.030687 1.580508
    45 -7.381934 4.385916 -0.423032 1.575998 -0.028764 -0.626701
  time 20
    0 4.691755 -9.606569 -5.177353 -0.013863 -0.000940 -0.002496
    1 0.000000 2.286976 0.873885 0.000000 0.000000 0.000000
    2 0.000000 -0.743733 1.487464 0.000000 0.000000 0.000000
    3 0.000000 -0.207595 2.045263 0.000000 0.000000 0.000000
    4 0.000001 -1.580431 1.264344 0.000000 0.000000 0.000000
    5 0.000000 -2.844775 1.022632 0.000000 0.000000 0.000000
    6 0.024938 -1.409605 0.862229 0.000000 0.000000 0.000000
    7 1.548076 5.823131 -6.425358 0.000000 0.000000 0.216777
    8 5.329513 -5.627749 -2.487339 0.790102 -2.156180 -1.261756
    9 6.530778 5.504673 -0.282623 1.565042 -3.128962 0.793868
    10 -0.048483 -8.471392 -0.092415 0.202707 0.380224 -0.226291
    11 -0.488518 -2.755602 -0.228260 -0.317159 0.118912 -0.274953
    12 0.039887 -1.554011 0.029854 -2.186484 -0.000036 0.046957
    13 0.028786 -1.118701 -0.097330 -0.661479 -0.012416 0.012296
    14 0.250027 -2.820665 -0.238396 -0.279241 0.001645 -0.191604
    15 -0.049759 -1.598510 0.006726 -1.867416 -0.007071 -0.047137
    16 -0.034142 -1.175657 0.045718 -1.221971 0.005992 -0.032239
    17 0.957766 -2.746780 -0.090302 0.020387 -0.095283 -0.001682
    18 -0.033420 -1.397129 -0.011257 -0.204957 0.005057 -0.009804
    19 -0.022360 -0.961342 -0.004654 -0.861813 0.005848 -0.041970
    20 -1.180681 -2.507217 -0.193859 -0.363374 0.387812 -0.251394
    21 -0.024967 -1.127840 0.017597 -1.854825 -0.023885 -0.068491
    22 -0.020057 -0.902687 0.025715 -0.804503 0.007526 -0.032298
    23 0.610855 -1.189464 0.177566 0.581784 -0.757762 -0.601920
    24 1.481238 -0.212417 0.067511 0.046844 -0.211875 -0.754721
    25 1.038269 -0.155634 0.036197 0.050440 -0.204220 -0.838668
    26 0.120153 -0.050270 -0.054489 0.287569 3.110905 1.561085
    27 -1.255174 -6.344575 -6.122564 -1.143938 -5.392342 -0.864082
    28 -0.117906 -8.489482 0.053137 0.226704 -1.174803 0.124329
    29 0.447953 -2.798986 -0.200443 -0.678697 0.009067 0.255279
    30 -0.032909 -1.499736 0.020565 -1.178410 0.022351 -0.020516
    31 -0.027022 -1.100358 -0.028023 -0.639531 0.016203 -0.007754
    32 -0.249534 -2.846964 -0.174213 -0.258956 -0.005614 -0.009379
    33 0.043235 -1.656596 0.076480 -1.170445 -0.019025 0.003656
    34 0.031729 -1.141298 0.054932 -1.115535 -0.012397 0.006167
    35 -0.963866 -2.785145 -0.085350 -0.258141 0.159244 -0.202043
    36 0.028479 -1.406973 -0.021074 -1.031688 -0.028068 -0.035402
    37 0.021413 -0.949968 0.020046 -0.506666 -0.009240 -0.020889
    38 1.164475 -2.543940 -0.170330 -0.918692 -0.005888 0.531366
    39 0.024032 -1.140761 -0.005631 -1.070107 0.013746 0.054771
    40 0.014898 -0.899614 -0.015942 -0.870242 0.004698 0.044031
    41 -0.586770 -1.264477 0.200161 0.075951 -0.554112 -2.665786
    42 1.557992 0.035243 0.016848 -0.015368 -0.006020 0.767033
    43 1.114041 0.044518 -0.005766 -0.024632 -0.034810 0.905845
    44 -0.139399 -0.111698 0.014397 0.285382 -0.030687 1.580508
    45 -7.389747 4.366384 -0.423032 1.575950 -0.028824 -0.623863
  time 21
    0 4.695662 -9.598756 -5.189072 -0.010449 -0.000689 -0.001933
    1 0.000000 2.286976 0.873885 0.000000 0.000000 0.000000
    2 0.000000 -0.743733 1.487464 0.000000 0.000000 0.000000
    3 0.000000 -0.207595 2.045263 0.000000 0.000000 0.000000
    4 0.000001 -1.580431 1.264344 0.000000 0.000000 0.000000
    5 0.000000 -2.844775 1.022632 0.000000 0.000000 0.000000
    6 0.024938 -1.409605 0.862229 0.000000 0.000000 0.000000
    7 1.548076 5.823131 -6.425358 0.000000 0.000000 0.216777
    8 5.329513 -5.627749 -2.491245 0.791046 -2.156772 -1.262852
    9 6.538591 5.492954 -0.282623 1.565042 -3.128962 0.792187
    10 -0.048483 -8.471392 -0.092415 0.202079 0.381186 -0.230735
    11 -0.488518 -2.755602 -0.228260 -0.317159 0.118912 -0.274953
    12 0.039887 -1.554011 0.029854 -2.186484 -0.000036 0.046957
    13 0.028786 -1.118701 -0.097330 -0.661479 -0.012416 0.012296
    14 0.250027 -2.820665 -0.238396 -0.279241 0.001645 -0.191604
    15 -0.049759 -1.598510 0.006726 -1.867416 -0.007071 -0.047137
    16 -0.034142 -1.175657 0.045718 -1.221971 0.005992 -0.032239
    17 0.957766 -2.746780 -0.090302 0.020387 -0.095283 -0.001682
    18 -0.033420 -1.397129 -0.011257 -0.212291 0.005189 -0.010152
    19 -0.022360 -0.961342 -0.004654 -0.869987 0.005729 -0.042366
    20 -1.180681 -2.507217 -0.193859 -0.363374 0.387812 -0.251394
    21 -0.024967 -1.127840 0.017597 -1.854825 -0.023885 -0.068491
    22 -0.020057 -0.902687 0.025715 -0.804503 0.007526 -0.032298
    23 0.610855 -1.189464 0.177566 0.581784 -0.757762 -0.601920
    24 1.481238 -0.212417 0.067511 0.046964 -0.212031 -0.755462
    25 1.038269 -0.155634 0.036197 0.050715 -0.204567 -0.840316
    26 0.120153 -0.050270 -0.054489 0.287569 3.110905 1.561085
    27 -1.251268 -6.336762 -6.130377 -1.144656 -5.393287 -0.864655
    28 -0.121813 -8.489482 0.053137 0.228148 -1.176297 0.127528
    29 0.447953 -2.798986 -0.200443 -0.678697 0.009067 0.255279
    30 -0.032909 -1.499736 0.020565 -1.178410 0.022351 -0.020516
    31 -0.027022 -1.100358 -0.028023 -0.639531 0.016203 -0.007754
    32 -0.249534 -2.846964 -0.174213 -0.258956 -0.005614 -0.009379
    33 0.043235 -1.656596 0.076480 -1.170445 -0.019025 0.003656
    34 0.031729 -1.141298 0.054932 -1.115535 -0.012397 0.006167
    35 -0.963866 -2.785145 -0.085350 -0.258141 0.159244 -0.202043
    36 0.028479 -1.406973 -0.021074 -1.031688 -0.028068 -0.035402
    37 0.021413 -0.949968 0.020046 -0.506666 -0.009240 -0.020889
    38 1.164475 -2.543940 -0.170330 -0.918692 -0.005888 0.531366
    39 0.024032 -1.140761 -0.005631 -1.070107 0.013746 0.054771
    40 0.014898 -0.899614 -0.015942 -0.870242 0.004710 0.044031
    41 -0.586770 -1.264477 0.200161 0.075951 -0.554112 -2.665786
    42 1.557992 0.035243 0.016848 -0.015368 -0.006020 0.767033
    43 1.114041 0.044518 -0.005766 -0.024632 -0.034810 0.905845
    44 -0.139399 -0.111698 0.014397 0.285382 -0.030687 1.580508
    45 -7.401466 4.342946 -0.423032 1.575902 -0.028884 -0.620833
  time 22
    0 4.699568 -9.594850 -5.196885 -0.007102 -0.000438 -0.001370
    1 0.000000 2.286976 0.873885 0.000000 0.000000 0.000000
    2 0.000000 -0.743733 1.487464 0.000000 0.000000 0.000000
    3 0.000000 -0.207595 2.045263 0.000000 0.000000 0.000000
    4 0.000001 -1.580431 1.264344 0.000000 0.000000 0.000000
    5 0.000000 -2.844775 1.022632 0.000000 0.000000 0.000000
    6 0.024938 -1.409605 0.862229 0.000000 0.000000 0.000000
    7 1.548076 5.823131 -6.425358 0.000000 0.000000 0.216777
    8 5.333420 -5.623843 -2.495152 0.791895 -2.157363 -1.263895
    9 6.546404 5.481235 -0.282623 1.565042 -3.128962 0.790506
    10 -0.044576 -8.471392 -0.092415 0.201451 0.382103 -0.235030
    11 -0.488518 -2.755602 -0.228260 -0.317159 0.118912 -0.274953
    12 0.039887 -1.554011 0.029854 -2.186484 -0.000036 0.046957
    13 0.028786 -1.118701 -0.097330 -0.661479 -0.012416 0.012296
    14 0.250027 -2.820665 -0.238396 -0.279241 0.001645 -0.191604
    15 -0.049759 -1.598510 0.006726 -1.867416 -0.007071 -0.047137
    16 -0.034142 -1.175657 0.045718 -1.221971 0.005992 -0.032239
    17 0.957766 -2.746780 -0.090302 0.020387 -0.095283 -0.001682
    18 -0.033420 -1.397129 -0.015163 -0.219368 0.005309 -0.010488
    19 -0.022360 -0.961342 -0.004654 -0.877861 0.005609 -0.042749
    20 -1.180681 -2.507217 -0.193859 -0.363374 0.387812 -0.251394
    21 -0.024967 -1.127840 0.017597 -1.854825 -0.023885 -0.068491
    22 -0.020057 -0.902687 0.025715 -0.804503 0.007526 -0.032298
    23 0.610855 -1.189464 0.177566 0.581784 -0.757762 -0.601920
    24 1.481238 -0.212417 0.067511 0.047072 -0.212187 -0.756178
    25 1.038269 -0.155634 0.036197 0.050991 -0.204903 -0.841870
    26 0.120153 -0.050270 -0.054489 0.287569 3.110905 1.561085
    27 -1.251268 -6.328950 -6.138189 -1.145375 -5.394310 -0.865132
    28 -0.121813 -8.489482 0.053137 0.229759 -1.177728 0.130387
    29 0.447953 -2.798986 -0.200443 -0.678697 0.009067 0.255279
    30 -0.032909 -1.499736 0.020565 -1.178410 0.022351 -0.020516
    31 -0.027022 -1.100358 -0.028023 -0.639531 0.016203 -0.007754
    32 -0.249534 -2.846964 -0.174213 -0.258956 -0.005614 -0.009379
    33 0.043235 -1.656596 0.076480 -1.170445 -0.019025 0.003656
    34 0.031729 -1.141298 0.054932 -1.115535 -0.012397 0.006167
    35 -0.963866 -2.785145 -0.085350 -0.258141 0.159244 -0.202043
    36 0.028479 -1.406973 -0.021074 -1.031688 -0.028068 -0.035402
    37 0.021413 -0.949968 0.020046 -0.506666 -0.009240 -0.020889
    38 1.164475 -2.543940 -0.170330 -0.918692 -0.005888 0.531366
    39 0.024032 -1.140761 -0.005631 -1.070107 0.013746 0.054771
    40 0.014898 -0.899614 -0.015942 -0.870242 0.004710 0.044031
    41 -0.586770 -1.264477 0.200161 0.075951 -0.554112 -2.665786
    42 1.557992 0.035243 0.016848 -0.015368 -0.006020 0.767033
    43 1.114041 0.044518 -0.005766 -0.024632 -0.034810 0.905845
    44 -0.139399 -0.111698 0.014397 0.285382 -0.030687 1.580508
    45 -7.413185 4.323414 -0.426939 1.575854 -0.028944 -0.617931
  time 23
    0 4.699568 -9.590944 -5.204698 -0.004085 -0.000222 -0.000858
    1 0.000000 2.286976 0.873885 0.000000 0.000000 0.000000
    2 0.000000 -0.743733 1.487464 0.000000 0.000000 0.000000
    3 0.000000 -0.207595 2.045263 0.000000 0.000000 0.000000
    4 0.000001 -1.580431 1.264344 0.000000 0.000000 0.000000
    5 0.000000 -2.844775 1.022632 0.000000 0.000000 0.000000
    6 0.024938 -1.409605 0.862229 0.000000 0.000000 0.000000
    7 1.548076 5.823131 -6.425358 0.000000 0.000000 0.216777
    8 5.333420 -5.623843 -2.499058 0.792650 -2.157880 -1.264808
    9 6.554217 5.473422 -0.282623 1.565042 -3.128866 0.789078
    10 -0.044576 -8.471392 -0.092415 0.200897 0.382928 -0.238845
    11 -0.488518 -2.755602 -0.228260 -0.317159 0.118912 -0.274953
    12 0.039887 -1.554011 0.029854 -2.186484 -0.000036 0.046957
    13 0.028786 -1.118701 -0.097330 -0.661479 -0.012416 0.012296
    14 0.250027 -2.820665 -0.238396 -0.279241 0.001645 -0.191604
    15 -0.049759 -1.598510 0.006726 -1.867416 -0.007071 -0.047137
    16 -0.034142 -1.175657 0.045718 -1.221971 0.005992 -0.032239
    17 0.957766 -2.746780 -0.090302 0.020387 -0.095283 -0.001682
    18 -0.033420 -1.397129 -0.015163 -0.225377 0.005417 -0.010775
    19 -0.022360 -0.961342 -0.004654 -0.884579 0.005513 -0.043073
    20 -1.180681 -2.507217 -0.193859 -0.363374 0.387812 -0.251394
    21 -0.024967 -1.127840 0.017597 -1.854825 -0.023885 -0.068491
    22 -0.020057 -0.902687 0.025715 -0.804503 0.007526 -0.032298
    23 0.610855 -1.189464 0.177566 0.581784 -0.757762 -0.601920
    24 1.481238 -0.212417 0.067511 0.047168 -0.212319 -0.756771
    25 1.038269 -0.155634 0.036197 0.051219 -0.205191 -0.843236
    26 0.120153 -0.050270 -0.054489 0.287569 3.110905 1.561085
    27 -1.247361 -6.325043 -6.146002 -1.145950 -5.395175 -0.865514
    28 -0.121813 -8.489482 0.053137 0.231387 -1.179004 0.132736
    29 0.447953 -2.798986 -0.200443 -0.678697 0.009067 0.255279
    30 -0.032909 -1.499736 0.020565 -1.178410 0.022351 -0.020516
    31 -0.027022 -1.100358 -0.028023 -0.639531 0.016203 -0.007754
    32 -0.249534 -2.846964 -0.174213 -0.258956 -0.005614 -0.009379
    33 0.043235 -1.656596 0.076480 -1.170445 -0.019025 0.003656
    34 0.031729 -1.141298 0.054932 -1.115535 -0.012397 0.006167
    35 -0.963866 -2.785145 -0.085350 -0.258141 0.159244 -0.202043
    36 0.028479 -1.406973 -0.021074 -1.031688 -0.028068 -0.035402
    37 0.021413 -0.949968 0.020046 -0.506666 -0.009240 -0.020889
    38 1.164475 -2.543940 -0.170330 -0.918692 -0.005888 0.531366
    39 0.024032 -1.140761 -0.005631 -1.070107 0.013746 0.054771
    40 0.014898 -0.899614 -0.015942 -0.870242 0.004710 0.044031
    41 -0.586770 -1.264477 0.200161 0.075951 -0.554112 -2.665786
    42 1.557992 0.035243 0.016848 -0.015368 -0.006020 0.767033
    43 1.114041 0.044518 -0.005766 -0.024632 -0.034810 0.905845
    44 -0.139399 -0.111698 0.014397 0.285382 -0.030687 1.580508
    45 -7.420998 4.303882 -0.426939 1.575806 -0.029004 -0.615352
  time 24
    0 4.699568 -9.587037 -5.212510 -0.001641 -0.000079 -0.000397
    1 0.000000 2.286976 0.873885 0.000000 0.000000 0.000000
    2 0.000000 -0.743733 1.487464 0.000000 0.000000 0.000000
    3 0.000000 -0.207595 2.045263 0.000000 0.000000 0.000000
    4 0.000001 -1.580431 1.264344 0.000000 0.000000 0.000000
    5 0.000000 -2.844775 1.022632 0.000000 0.000000 0.000000
    6 0.024938 -1.409605 0.862229 0.000000 0.000000 0.000000
    7 1.548076 5.823131 -6.425358 0.000000 0.000000 0.216777
    8 5.337326 -5.623843 -2.499058 0.793216 -2.158249 -1.265434
    9 6.558123 5.465609 -0.282623 1.565042 -3.128866 0.788153
    10 -0.044576 -8.471392 -0.092415 0.200454 0.383616 -0.241918
    11 -0.488518 -2.755602 -0.228260 -0.317159 0.118912 -0.274953
    12 0.039887 -1.554011 0.029854 -2.186484 -0.000036 0.046957
    13 0.028786 -1.118701 -0.097330 -0.661479 -0.012416 0.012296
    14 0.250027 -2.820665 -0.238396 -0.279241 0.001645 -0.191604
    15 -0.049759 -1.598510 0.006726 -1.867416 -0.007071 -0.047137
    16 -0.034142 -1.175657 0.045718 -1.221971 0.005992 -0.032239
    17 0.957766 -2.746780 -0.090302 0.020387 -0.095283 -0.001682
    18 -0.033420 -1.397129 -0.015163 -0.229567 0.005489 -0.010979
    19 -0.022360 -0.961342 -0.004654 -0.889244 0.005429 -0.043288
    20 -1.180681 -2.507217 -0.193859 -0.363374 0.387812 -0.251394
    21 -0.024967 -1.127840 0.017597 -1.854825 -0.023885 -0.068491
    22 -0.020057 -0.902687 0.025715 -0.804503 0.007526 -0.032298
    23 0.610855 -1.189464 0.177566 0.581784 -0.757762 -0.601920
    24 1.481238 -0.212417 0.067511 0.047239 -0.212415 -0.757191
    25 1.038269 -0.155634 0.036197 0.051374 -0.205394 -0.844177
    26 0.120153 -0.050270 -0.054489 0.287569 3.110905 1.561085
    27 -1.247361 -6.317230 -6.153815 -1.146381 -5.395726 -0.865801
    28 -0.121813 -8.493389 0.053137 0.232881 -1.180031 0.134335
    29 0.447953 -2.798986 -0.200443 -0.678697 0.009067 0.255279
    30 -0.032909 -1.499736 0.020565 -1.178410 0.022351 -0.020516
    31 -0.027022 -1.100358 -0.028023 -0.639531 0.016203 -0.007754
    32 -0.249534 -2.846964 -0.174213 -0.258956 -0.005614 -0.009379
    33 0.043235 -1.656596 0.076480 -1.170445 -0.019025 0.003656
    34 0.031729 -1.141298 0.054932 -1.115535 -0.012397 0.006167
    35 -0.963866 -2.785145 -0.085350 -0.258141 0.159244 -0.202043
    36 0.028479 -1.406973 -0.021074 -1.031688 -0.028068 -0.035402
    37 0.021413 -0.949968 0.020046 -0.506666 -0.009240 -0.020889
    38 1.164475 -2.543940 -0.170330 -0.918692 -0.005888 0.531366
    39 0.024032 -1.140761 -0.005631 -1.070107 0.013746 0.054771
    40 0.014898 -0.899614 -0.015942 -0.870242 0.004710 0.044031
    41 -0.586770 -1.264477 0.200161 0.075951 -0.554112 -2.665786
    42 1.557992 0.035243 0.016848 -0.015368 -0.006020 0.767033
    43 1.114041 0.044518 -0.005766 -0.024632 -0.034810 0.905845
    44 -0.139399 -0.111698 0.014397 0.285382 -0.030687 1.580508
    45 -7.428810 4.288257 -0.426939 1.575782 -0.029040 -0.613417
  time 25
    0 4.703474 -9.587037 -5.216417 0.000011 -0.000007 -0.000090
    1 0.000000 2.286976 0.873885 0.000000 0.000000 0.000000
    2 0.000000 -0.743733 1.487464 0.000000 0.000000 0.000000
    3 0.000000 -0.207595 2.045263 0.000000 0.000000 0.000000
    4 0.000001 -1.580431 1.264344 0.000000 0.000000 0.000000
    5 0.000000 -2.844775 1.022632 0.000000 0.000000 0.000000
    6 0.024938 -1.409605 0.862229 0.000000 0.000000 0.000000
    7 1.548076 5.823131 -6.425358 0.000000 0.000000 0.216777
    8 5.337326 -5.619936 -2.499058 0.793404 -2.158397 -1.265669
    9 6.562029 5.465609 -0.282623 1.565042 -3.128866 0.787733
    10 -0.044576 -8.467485 -0.092415 0.200195 0.383982 -0.243807
    11 -0.488518 -2.755602 -0.228260 -0.317159 0.118912 -0.274953
    12 0.039887 -1.554011 0.029854 -2.186484 -0.000036 0.046957
    13 0.028786 -1.118701 -0.097330 -0.661479 -0.012416 0.012296
    14 0.250027 -2.820665 -0.238396 -0.279241 0.001645 -0.191604
    15 -0.049759 -1.598510 0.006726 -1.867416 -0.007071 -0.047137
    16 -0.034142 -1.175657 0.045718 -1.221971 0.005992 -0.032239
    17 0.957766 -2.746780 -0.090302 0.020387 -0.095283 -0.001682
    18 -0.033420 -1.397129 -0.015163 -0.231150 0.005513 -0.011051
    19 -0.022360 -0.961342 -0.004654 -0.890998 0.005405 -0.043372
    20 -1.180681 -2.507217 -0.193859 -0.363374 0.387812 -0.251394
    21 -0.024967 -1.127840 0.017597 -1.854825 -0.023885 -0.068491
    22 -0.020057 -0.902687 0.025715 -0.804503 0.007526 -0.032298
    23 0.610855 -1.189464 0.177566 0.581784 -0.757762 -0.601920
    24 1.481238 -0.212417 0.067511 0.047263 -0.212451 -0.757364
    25 1.038269 -0.155634 0.036197 0.051434 -0.205466 -0.844507
    26 0.120153 -0.050270 -0.054489 0.287569 3.110905 1.561085
    27 -1.247361 -6.317230 -6.157721 -1.146573 -5.396041 -0.865896
    28 -0.121813 -8.493389 0.053137 0.234093 -1.180747 0.135050
    29 0.447953 -2.798986 -0.200443 -0.678697 0.009067 0.255279
    30 -0.032909 -1.499736 0.020565 -1.178410 0.022351 -0.020516
    31 -0.027022 -1.100358 -0.028023 -0.639531 0.016203 -0.007754
    32 -0.249534 -2.846964 -0.174213 -0.258956 -0.005614 -0.009379
    33 0.043235 -1.656596 0.076480 -1.170445 -0.019025 0.003656
    34 0.031729 -1.141298 0.054932 -1.115535 -0.012397 0.006167
    35 -0.963866 -2.785145 -0.085350 -0.258141 0.159244 -0.202043
    36 0.028479 -1.406973 -0.021074 -1.031688 -0.028068 -0.035402
    37 0.021413 -0.949968 0.020046 -0.506666 -0.009240 -0.020889
    38 1.164475 -2.543940 -0.170330 -0.918692 -0.005888 0.531366
    39 0.024032 -1.140761 -0.005631 -1.070107 0.013746 0.054771
    40 0.014898 -0.899614 -0.015942 -0.870242 0.004698 0.044031
    41 -0.586770 -1.264477 0.200161 0.075951 -0.554112 -2.665786
    42 1.557992 0.035243 0.016848 -0.015368 -0.006020 0.767033
    43 1.114041 0.044518 -0.005766 -0.024632 -0.034810 0.905845
    44 -0.139399 -0.111698 0.014397 0.285382 -0.030687 1.580508
    45 -7.432717 4.280444 -0.426939 1.575758 -0.029064 -0.612386
end
