version 1
nodes
  0 "root" -1
  1 "Bone01" 0
  2 "Bone_Lefthand" 1
  3 "balrog_root" 2
  4 "balrog_shall" 3
  5 "balrog_grip01" 3
  6 "balrog_topgrip01" 3
  7 "balrog_trigger" 3
  8 "balrog_bone02" 3
  9 "scale_boneS14" 8
  10 "scale_boneS18" 8
  11 "scale_boneS17" 8
  12 "scale_boneS12" 8
  13 "scale_boneS13" 8
  14 "scale_boneS11" 8
  15 "scale_boneS15" 8
  16 "scale_boneS16" 8
  17 "scale_boneS19" 8
  18 "balrog_bone01" 3
  19 "scale_boneS02" 18
  20 "scale_boneS09" 18
  21 "scale_boneS011" 18
  22 "scale_boneS03" 18
  23 "scale_boneS06" 18
  24 "scale_boneS05" 18
  25 "scale_boneS07" 18
  26 "scale_boneS04" 18
  27 "scale_boneS10" 18
  28 "scale_boneS01" 18
  29 "scale_boneS08" 18
  30 "balrog_bullethole" 3
  31 "scale_root" 3
  32 "scale_bone_back03" 31
  33 "scale_bone_bot01" 31
  34 "scale_bone_bot02" 31
  35 "scale_bone_back02" 31
  36 "scale_bone_back01" 31
  37 "scale_bone_up03" 31
  38 "scale_bone_up05" 31
  39 "scale_bone_up02" 31
  40 "scale_bone_up04" 31
  41 "scale_bone_up01" 31
  42 "scale_bone_R01" 31
  43 "scale_bone_R04" 42
  44 "scale_bone_R03" 42
  45 "scale_bone_R02" 42
  46 "scale_bone_R05" 42
  47 "Bone_L_Upper" 1
  48 "Bone13" 2
  49 "Bone14" 48
  50 "Bone15" 49
  51 "Bone17" 2
  52 "Bone18" 51
  53 "Bone19" 52
  54 "Bone21" 2
  55 "Bone22" 54
  56 "Bone23" 55
  57 "Bone09" 2
  58 "Bone10" 57
  59 "Bone11" 58
  60 "Bone05" 2
  61 "Bone06" 60
  62 "Bone07" 61
  63 "Bone_Se_Hand-L" 2
  64 "Bone04" 0
  65 "Bone_Righthand" 64
  66 "Bone39" 65
  67 "Bone40" 66
  68 "Bone41" 67
  69 "Bone35" 65
  70 "Bone36" 69
  71 "Bone37" 70
  72 "Bone31" 65
  73 "Bone32" 72
  74 "Bone33" 73
  75 "Bone43" 65
  76 "Bone44" 75
  77 "Bone45" 76
  78 "Bone27" 65
  79 "Bone28" 78
  80 "Bone29" 79
  81 "Bone_Se_Hand-R" 65
  82 "Bone_R_Upper" 64
end
skeleton
  time 0
    0 6.897109 -1.851619 -8.459316 -0.515195 0.191562 -1.083040
    1 8.032554 4.617989 -3.867161 0.626497 -2.325920 -0.999747
    2 0.086717 -8.504436 0.175817 0.182673 0.689700 -0.328527
    3 1.528851 -3.281721 0.999439 -0.079869 0.067558 2.744734
    4 8.300838 1.338742 1.926091 0.399194 1.993105 1.040762
    5 -2.625165 4.674701 0.765408 0.000000 0.000000 -1.328908
    6 -1.311576 -0.227769 0.008379 0.000000 0.000000 -2.370930
    7 -0.227452 0.993410 -0.125221 0.000002 0.000000 0.328627
    8 -2.081265 2.688989 0.787919 0.000000 0.000000 1.302003
    9 0.623961 -0.071477 -0.159128 -0.072266 -1.649371 -1.466928
    10 0.860823 -0.134316 -0.214431 -0.261605 -1.079347 -1.241239
    11 0.515580 -0.285767 -0.106987 0.079880 -1.421928 -1.576773
    12 0.753099 0.035823 -0.117582 0.097460 3.040203 -1.041579
    13 0.889303 0.128740 -0.157093 0.089454 3.041258 -0.786698
    14 0.670109 -0.030865 -0.108571 -0.026680 3.002335 -1.038975
    15 0.738763 -0.042325 -0.146042 -1.928521 -1.403192 0.535980
    16 0.870137 0.057177 -0.201678 -1.666927 -1.175652 0.301700
    17 1.062045 -0.138207 -0.177049 -1.475751 -0.019124 -0.540530
    18 -2.265002 2.578599 0.787919 0.000000 0.000000 1.812685
    19 0.200670 0.289140 -0.056458 2.453249 -1.410446 0.563952
    20 0.843839 -0.116268 -0.075904 -0.000001 0.000001 -1.258455
    21 0.021543 0.074143 0.036639 -1.182514 -1.198896 -1.984516
    22 0.414373 0.275285 -0.140914 -2.894009 -1.129448 -0.224688
    23 0.453303 0.042736 -0.116169 -1.570795 -1.076855 -1.570796
    24 0.782161 -0.046541 -0.132180 -2.461252 -1.158811 0.186510
    25 0.702022 -0.173587 -0.036117 -2.370066 -1.338876 -0.088271
    26 0.850847 0.020146 -0.207489 -2.840683 -0.551510 0.665737
    27 0.902524 -0.072410 -0.184876 0.000001 0.000000 -1.039098
    28 0.621568 0.226086 -0.246501 -2.863347 -0.673432 1.097702
    29 0.787038 -0.251779 -0.014078 -0.000002 0.000000 -1.461311
    30 -1.216720 5.267646 -0.124773 0.000000 0.000000 -1.425691
    31 -1.644238 2.515574 0.008543 0.000000 0.000000 1.812686
    32 -3.494950 -0.101669 0.264376 1.151737 -1.077653 2.566527
    33 2.999629 -0.724906 0.283512 -1.570796 -1.012197 -1.570797
    34 -2.445238 -0.724906 0.283513 -1.570796 -1.012197 -1.570797
    35 -3.494950 -0.101669 -0.267711 -1.151740 2.063940 -0.575069
    36 -2.760940 0.247806 0.000001 0.000000 0.000000 2.147990
    37 -2.125106 0.640933 -0.295102 -1.570796 2.259721 -1.570796
    38 -2.125106 0.496397 0.119886 1.570798 -0.881871 1.570796
    39 3.254364 0.496399 0.119884 1.570798 -0.881871 1.570796
    40 3.254364 0.640934 -0.295102 -1.570796 2.259721 -1.570796
    41 -0.173692 0.628514 0.000000 0.000000 0.000000 1.570796
    42 1.666187 0.117875 0.021793 -1.570869 -1.567503 -1.570651
    43 -0.382374 0.030911 1.370591 1.575570 -0.712376 1.560207
    44 -0.384060 -0.560770 1.326299 -1.570796 -0.661079 -1.574078
    45 -0.384081 -0.704360 -2.662615 -1.567782 0.710423 -1.569457
    46 -0.382441 -0.001274 -2.485083 1.570797 0.982831 1.567515
    47 1.081393 8.766491 -0.462316 -1.586418 -0.030227 -1.547512
    48 -0.488518 -2.755602 -0.228260 -0.915416 0.030346 -0.257527
    49 0.039887 -1.479790 0.029854 -1.670335 0.000000 0.000001
    50 0.028786 -1.075731 -0.023109 -0.970335 0.000000 0.000000
    51 0.250027 -2.820665 -0.238396 -0.763710 0.009903 -0.231033
    52 -0.049759 -1.680544 0.100479 -1.650429 0.000000 -0.000002
    53 -0.034142 -1.148312 0.084782 -1.218373 0.000000 0.000000
    54 0.957766 -2.746780 -0.090302 -0.098864 -0.180194 0.054035
    55 -0.033420 -1.397129 -0.011257 -0.190573 0.060618 -0.121585
    56 -0.022360 -0.957436 0.018784 0.041446 0.000000 0.000000
    57 -1.180681 -2.507217 -0.193859 -1.063682 0.196299 -0.438881
    58 -0.024967 -1.123934 0.017597 -1.117804 0.000000 0.000001
    59 -0.020057 -0.890968 0.010090 -1.277757 0.000000 0.000000
    60 0.583510 -1.197277 0.185379 0.320488 -1.093714 -0.588318
    61 1.535927 0.010246 0.005009 -0.202424 0.318874 -0.881918
    62 1.100771 0.004527 -0.010679 -0.001993 0.016093 0.053594
    63 -0.055634 -0.124491 -0.210744 -2.785661 6.014089 -1.461755
    64 -10.255449 -9.055595 -6.747583 3.112241 -5.279869 -1.349952
    65 -0.227285 -8.466044 0.162515 -0.489545 -0.256384 0.255297
    66 0.447953 -2.798986 -0.180911 -0.133976 -0.295234 0.114064
    67 -0.032909 -1.480204 0.004940 -1.063254 0.000000 0.000002
    68 -0.027022 -1.076920 -0.020210 -0.870138 0.000000 0.000000
    69 -0.233909 -2.694615 -0.205464 0.065789 -0.206308 -0.021807
    70 0.043235 -1.683941 0.096012 -1.073156 0.002823 -0.000167
    71 0.031729 -1.160830 0.058838 -1.065608 0.000642 0.008372
    72 -0.963866 -2.785145 -0.085350 -0.019314 -0.030520 -0.105503
    73 0.028479 -1.403067 0.006271 -0.541224 0.000000 0.000000
    74 0.021413 -0.957781 0.020046 -0.176337 0.000000 0.000000
    75 1.152756 -2.676757 -0.076577 -0.347277 -0.492494 0.149058
    76 0.024032 -1.129042 0.017807 -0.757341 0.000000 0.000001
    77 0.014898 -0.883989 -0.019848 -0.678918 0.000000 0.000000
    78 -0.586770 -1.264477 0.200161 -0.054246 -0.697364 -2.654193
    79 1.522835 0.058681 0.016848 -0.282018 0.015271 0.507705
    80 1.117947 0.048424 -0.005766 -0.008189 -0.023832 0.386989
    81 0.059826 -0.142949 -0.087169 0.670651 0.223087 1.528339
    82 -1.030178 8.854803 -0.438658 1.479618 -0.035068 -1.607307
  time 1
    0 6.897109 -1.851619 -8.459316 -0.515195 0.191562 -1.083040
    1 7.973959 4.629708 -3.925757 0.626497 -2.325920 -0.999747
    2 0.086717 -8.504436 0.175817 0.189797 0.736261 -0.312360
    3 1.528851 -3.281721 0.999439 -0.079869 0.067558 2.744734
    4 2.484255 3.979447 0.918248 -1.264565 2.947850 0.557477
    5 -2.625165 4.674701 0.765408 0.000000 0.000000 -1.328908
    6 -1.311576 -0.227769 0.008379 0.000000 0.000000 -2.370930
    7 -0.227452 0.993410 -0.125221 0.000002 0.000000 0.328627
    8 -2.081265 2.688989 0.787919 0.000000 0.000000 1.302003
    9 0.623961 -0.071477 -0.159128 -0.072266 -1.649371 -1.466928
    10 0.860823 -0.134316 -0.214431 -0.261605 -1.079347 -1.241239
    11 0.515580 -0.285767 -0.106987 0.079880 -1.421928 -1.576773
    12 0.753099 0.035823 -0.117582 0.097460 3.040203 -1.041579
    13 0.889303 0.128740 -0.157093 0.089454 3.041258 -0.786698
    14 0.670109 -0.030865 -0.108571 -0.026680 3.002335 -1.038975
    15 0.738763 -0.042325 -0.146042 -1.928521 -1.403192 0.535980
    16 0.870137 0.057177 -0.201678 -1.666927 -1.175652 0.301700
    17 1.062045 -0.138207 -0.177049 -1.475751 -0.019124 -0.540530
    18 -2.265002 2.578599 0.787919 0.000000 0.000000 1.812685
    19 0.200670 0.289140 -0.056458 2.453249 -1.410446 0.563952
    20 0.843839 -0.116268 -0.075904 -0.000001 0.000001 -1.258455
    21 0.021543 0.074143 0.036639 -1.182514 -1.198896 -1.984516
    22 0.414373 0.275285 -0.140914 -2.894009 -1.129448 -0.224688
    23 0.453303 0.042736 -0.116169 -1.570795 -1.076855 -1.570796
    24 0.782161 -0.046541 -0.132180 -2.461252 -1.158811 0.186510
    25 0.702022 -0.173587 -0.036117 -2.370066 -1.338888 -0.088271
    26 0.850847 0.020146 -0.207489 -2.840683 -0.551510 0.665737
    27 0.902524 -0.072410 -0.184876 0.000001 0.000000 -1.039098
    28 0.621568 0.226086 -0.246501 -2.863347 -0.673432 1.097702
    29 0.787038 -0.251779 -0.014078 -0.000002 0.000000 -1.461311
    30 -1.216720 5.267646 -0.124773 0.000000 0.000000 -1.425691
    31 -1.644238 2.515574 0.008543 0.000000 0.000000 1.812686
    32 -3.494950 -0.101669 0.264376 1.151737 -1.077653 2.566527
    33 2.999629 -0.724906 0.283512 -1.570796 -1.012197 -1.570797
    34 -2.445238 -0.724906 0.283513 -1.570796 -1.012197 -1.570797
    35 -3.494950 -0.101669 -0.267711 -1.151740 2.063940 -0.575069
    36 -2.760940 0.247806 0.000001 0.000000 0.000000 2.147990
    37 -2.125106 0.640933 -0.295102 -1.570796 2.259721 -1.570796
    38 -2.125106 0.496397 0.119886 1.570798 -0.881871 1.570796
    39 3.254364 0.496399 0.119884 1.570798 -0.881871 1.570796
    40 3.254364 0.640934 -0.295102 -1.570796 2.259721 -1.570796
    41 -0.173692 0.628514 0.000000 0.000000 0.000000 1.570796
    42 1.666187 0.117875 0.021793 -1.570797 -1.567539 -1.570735
    43 -0.382374 0.030911 1.370591 1.575570 -0.712376 1.560207
    44 -0.384060 -0.560770 1.326299 -1.570796 -0.661079 -1.574078
    45 -0.384081 -0.704360 -2.662615 -1.567782 0.710423 -1.569457
    46 -0.382441 -0.001274 -2.485083 1.570797 0.982831 1.567515
    47 1.081393 8.766491 -0.462316 -1.587556 -0.030011 -1.547512
    48 -0.488518 -2.755602 -0.228260 -0.915416 0.030346 -0.257527
    49 0.039887 -1.479790 0.029854 -1.670335 0.000000 0.000001
    50 0.028786 -1.075731 -0.023109 -0.970335 0.000000 0.000000
    51 0.250027 -2.820665 -0.238396 -0.763710 0.009903 -0.231033
    52 -0.049759 -1.680544 0.100479 -1.650429 0.000000 -0.000002
    53 -0.034142 -1.148312 0.084782 -1.218373 0.000000 0.000000
    54 0.957766 -2.746780 -0.090302 -0.098864 -0.180194 0.054035
    55 -0.033420 -1.397129 -0.011257 -0.190573 0.060618 -0.121585
    56 -0.022360 -0.957436 0.018784 0.041446 0.000000 0.000000
    57 -1.180681 -2.507217 -0.193859 -1.063682 0.196299 -0.438881
    58 -0.024967 -1.123934 0.017597 -1.117804 0.000000 0.000001
    59 -0.020057 -0.890968 0.010090 -1.277757 0.000000 0.000000
    60 0.583510 -1.197277 0.185379 0.320488 -1.093714 -0.588318
    61 1.535927 0.010246 0.005009 -0.202424 0.318874 -0.881918
    62 1.100771 0.004527 -0.010679 -0.001993 0.016093 0.053594
    63 -0.055634 -0.124491 -0.210744 -2.785661 6.014089 -1.461755
    64 -4.903723 -10.672832 -11.915709 1.189315 -2.984684 1.554270
    65 -0.227285 -8.466044 0.162515 -0.496433 -0.299202 0.254789
    66 0.447953 -2.798986 -0.180911 -0.606283 -0.232902 0.464721
    67 -0.032909 -1.480204 0.004940 -1.503498 0.000000 0.000002
    68 -0.027022 -1.076920 -0.020210 -1.518465 0.000000 0.000000
    69 -0.233909 -2.694615 -0.205464 -0.191222 -0.027402 0.253264
    70 0.043235 -1.683941 0.096012 -1.513425 0.002823 -0.000167
    71 0.031729 -1.160830 0.058838 -1.713964 0.000642 0.008372
    72 -0.963866 -2.785145 -0.085350 0.080538 -0.022215 0.238536
    73 0.028479 -1.403067 0.006271 -1.340469 0.000000 0.000000
    74 0.021413 -0.957781 0.020046 -0.176337 0.000000 0.000000
    75 1.152756 -2.676757 -0.076577 -0.869729 -0.351134 0.493567
    76 0.024032 -1.129042 0.017807 -1.197599 0.000000 0.000001
    77 0.014898 -0.883989 -0.019848 -1.327259 0.000000 0.000000
    78 -0.586770 -1.264477 0.200161 -0.403545 -0.587609 -2.082196
    79 1.522835 0.058681 0.016848 -0.185027 0.477198 0.670699
    80 1.117947 0.048424 -0.005766 -0.000890 -0.025186 0.091210
    81 -0.108148 -0.146855 -0.016854 0.385274 -0.118798 1.556083
    82 -1.030178 8.854803 -0.438658 1.479618 -0.035068 -1.607307
  time 2
    0 6.897109 -1.851619 -8.459316 -0.515195 0.191562 -1.083040
    1 7.934895 4.633614 -3.972633 0.626497 -2.325920 -0.999747
    2 0.086717 -8.504436 0.175817 0.205442 0.804130 -0.291255
    3 1.528851 -3.281721 0.999439 -0.079869 0.067558 2.744734
    4 1.222497 4.053668 0.574487 -1.407979 2.841969 0.136578
    5 -2.625165 4.674701 0.765408 0.000000 0.000000 -1.328908
    6 -1.311576 -0.227769 0.008379 0.000000 0.000000 -2.370930
    7 -0.227452 0.993410 -0.125221 0.000002 0.000000 0.328627
    8 -2.081265 2.688989 0.787919 0.000000 0.000000 1.302003
    9 0.623961 -0.071477 -0.159128 -0.072266 -1.649371 -1.466928
    10 0.860823 -0.134316 -0.214431 -0.261605 -1.079347 -1.241239
    11 0.515580 -0.285767 -0.106987 0.079880 -1.421928 -1.576773
    12 0.753099 0.035823 -0.117582 0.097460 3.040203 -1.041579
    13 0.889303 0.128740 -0.157093 0.089454 3.041258 -0.786698
    14 0.670109 -0.030865 -0.108571 -0.026680 3.002335 -1.038975
    15 0.738763 -0.042325 -0.146042 -1.928521 -1.403192 0.535980
    16 0.870137 0.057177 -0.201678 -1.666927 -1.175652 0.301700
    17 1.062045 -0.138207 -0.177049 -1.475751 -0.019124 -0.540530
    18 -2.265002 2.578599 0.787919 0.000000 0.000000 1.812685
    19 0.200670 0.289140 -0.056458 2.453249 -1.410446 0.563952
    20 0.843839 -0.116268 -0.075904 -0.000001 0.000001 -1.258455
    21 0.021543 0.074143 0.036639 -1.182514 -1.198896 -1.984516
    22 0.414373 0.275285 -0.140914 -2.894009 -1.129448 -0.224688
    23 0.453303 0.042736 -0.116169 -1.570795 -1.076855 -1.570796
    24 0.782161 -0.046541 -0.132180 -2.461252 -1.158811 0.186510
    25 0.702022 -0.173587 -0.036117 -2.370066 -1.338876 -0.088271
    26 0.850847 0.020146 -0.207489 -2.840683 -0.551510 0.665737
    27 0.902524 -0.072410 -0.184876 0.000001 0.000000 -1.039098
    28 0.621568 0.226086 -0.246501 -2.863347 -0.673432 1.097702
    29 0.787038 -0.251779 -0.014078 -0.000002 0.000000 -1.461311
    30 -1.216720 5.263739 -0.128679 0.000000 0.000000 -1.425691
    31 -1.644238 2.515574 0.008543 0.000000 0.000000 1.812686
    32 -3.494950 -0.101669 0.264376 1.151737 -1.077653 2.566527
    33 2.999629 -0.724906 0.283512 -1.570796 -1.012197 -1.570797
    34 -2.445238 -0.724906 0.283513 -1.570796 -1.012197 -1.570797
    35 -3.494950 -0.101669 -0.267711 -1.151740 2.063940 -0.575069
    36 -2.760940 0.247806 0.000001 0.000000 0.000000 2.147990
    37 -2.125106 0.640933 -0.295102 -1.570796 2.259721 -1.570796
    38 -2.125106 0.496397 0.119886 1.570798 -0.881871 1.570796
    39 3.254364 0.496399 0.119884 1.570798 -0.881871 1.570796
    40 3.254364 0.640934 -0.295102 -1.570796 2.259721 -1.570796
    41 -0.173692 0.628514 0.000000 0.000000 0.000000 1.570796
    42 1.666187 0.117875 0.021793 -1.570869 -1.567539 -1.570687
    43 -0.382374 0.030911 1.370591 1.575570 -0.712376 1.560207
    44 -0.384060 -0.560770 1.326299 -1.570796 -0.661079 -1.574078
    45 -0.384081 -0.704360 -2.662615 -1.567782 0.710423 -1.569457
    46 -0.382441 -0.001274 -2.485083 1.570797 0.982831 1.567515
    47 1.081393 8.766491 -0.462316 -1.590049 -0.029532 -1.547524
    48 -0.488518 -2.755602 -0.228260 -0.915416 0.030346 -0.257527
    49 0.039887 -1.479790 0.029854 -1.670335 0.000000 0.000001
    50 0.028786 -1.075731 -0.023109 -0.970335 0.000000 0.000000
    51 0.250027 -2.820665 -0.238396 -0.763710 0.009903 -0.231033
    52 -0.049759 -1.680544 0.100479 -1.650429 0.000000 -0.000002
    53 -0.034142 -1.148312 0.084782 -1.218373 0.000000 0.000000
    54 0.957766 -2.746780 -0.090302 -0.098864 -0.180194 0.054035
    55 -0.033420 -1.397129 -0.011257 -0.190573 0.060618 -0.121585
    56 -0.022360 -0.957436 0.018784 0.041446 0.000000 0.000000
    57 -1.180681 -2.507217 -0.193859 -1.063682 0.196299 -0.438881
    58 -0.024967 -1.123934 0.017597 -1.117804 0.000000 0.000001
    59 -0.020057 -0.890968 0.010090 -1.277757 0.000000 0.000000
    60 0.583510 -1.197277 0.185379 0.320488 -1.093714 -0.588318
    61 1.535927 0.010246 0.005009 -0.202424 0.318874 -0.881918
    62 1.100771 0.004527 -0.010679 -0.001993 0.016093 0.053594
    63 -0.055634 -0.124491 -0.210744 -2.785661 6.014089 -1.461755
    64 -5.419363 -9.661083 -10.712548 1.105095 -3.024769 1.495593
    65 -0.227285 -8.466044 0.162515 -0.388586 -0.297756 0.353051
    66 0.447953 -2.798986 -0.180911 -0.606283 -0.232902 0.464721
    67 -0.032909 -1.480204 0.004940 -1.503498 0.000000 0.000002
    68 -0.027022 -1.076920 -0.020210 -1.518465 0.000000 0.000000
    69 -0.233909 -2.694615 -0.205464 -0.191222 -0.027402 0.253264
    70 0.043235 -1.683941 0.096012 -1.513425 0.002823 -0.000167
    71 0.031729 -1.160830 0.058838 -1.713964 0.000642 0.008372
    72 -0.963866 -2.785145 -0.085350 0.080538 -0.022215 0.238536
    73 0.028479 -1.403067 0.006271 -1.340469 0.000000 0.000000
    74 0.021413 -0.957781 0.020046 -0.176337 0.000000 0.000000
    75 1.152756 -2.676757 -0.076577 -0.869729 -0.351134 0.493567
    76 0.024032 -1.129042 0.017807 -1.197599 0.000000 0.000001
    77 0.014898 -0.883989 -0.019848 -1.327259 0.000000 0.000000
    78 -0.586770 -1.264477 0.200161 -0.403545 -0.587609 -2.082196
    79 1.522835 0.058681 0.016848 -0.119118 0.492894 0.717079
    80 1.117947 0.044518 -0.005766 0.006648 -0.023940 -0.218758
    81 -0.104242 -0.146855 -0.016854 0.278515 -0.063201 1.459846
    82 -1.030178 8.854803 -0.438658 1.479618 -0.035068 -1.607307
  time 3
    0 6.897109 -1.851619 -8.459316 -0.515195 0.191562 -1.083040
    1 7.911457 4.633614 -4.003884 0.626497 -2.325920 -0.999747
    2 0.086717 -8.504436 0.175817 0.221111 0.865338 -0.272919
    3 1.528851 -3.281721 0.999439 -0.079869 0.067558 2.744734
    4 -0.586152 4.311489 0.414326 -1.549066 2.970975 -0.338516
    5 -2.625165 4.674701 0.765408 0.000000 0.000000 -1.328908
    6 -1.311576 -0.227769 0.008379 0.000000 0.000000 -2.370930
    7 -0.227452 0.993410 -0.125221 0.000002 0.000000 0.328627
    8 -2.081265 2.688989 0.787919 0.000000 0.000000 1.302003
    9 0.623961 -0.071477 -0.159128 -0.072266 -1.649371 -1.466928
    10 0.860823 -0.134316 -0.214431 -0.261605 -1.079347 -1.241239
    11 0.515580 -0.285767 -0.106987 0.079880 -1.421928 -1.576773
    12 0.753099 0.035823 -0.117582 0.097460 3.040203 -1.041579
    13 0.889303 0.128740 -0.157093 0.089454 3.041258 -0.786698
    14 0.670109 -0.030865 -0.108571 -0.026680 3.002335 -1.038975
    15 0.738763 -0.042325 -0.146042 -1.928521 -1.403192 0.535980
    16 0.870137 0.057177 -0.201678 -1.666927 -1.175652 0.301700
    17 1.062045 -0.138207 -0.177049 -1.475751 -0.019124 -0.540530
    18 -2.265002 2.578599 0.787919 0.000000 0.000000 1.812685
    19 0.200670 0.289140 -0.056458 2.453249 -1.410446 0.563952
    20 0.843839 -0.116268 -0.075904 -0.000001 0.000001 -1.258455
    21 0.021543 0.074143 0.036639 -1.182514 -1.198896 -1.984516
    22 0.414373 0.275285 -0.140914 -2.894009 -1.129448 -0.224688
    23 0.453303 0.042736 -0.116169 -1.570795 -1.076855 -1.570796
    24 0.782161 -0.046541 -0.132180 -2.461252 -1.158811 0.186510
    25 0.702022 -0.173587 -0.036117 -2.370066 -1.338876 -0.088271
    26 0.850847 0.020146 -0.207489 -2.840683 -0.551510 0.665737
    27 0.902524 -0.072410 -0.184876 0.000001 0.000000 -1.039098
    28 0.621568 0.226086 -0.246501 -2.863347 -0.673432 1.097702
    29 0.787038 -0.251779 -0.014078 -0.000002 0.000000 -1.461311
    30 -1.220626 5.259833 -0.132586 0.000000 0.000000 -1.568767
    31 -1.644238 2.515574 0.008543 0.000000 0.000000 1.812686
    32 -3.494950 -0.101669 0.264376 1.151737 -1.077653 2.566527
    33 2.999629 -0.724906 0.283512 -1.570796 -1.012197 -1.570797
    34 -2.445238 -0.724906 0.283513 -1.570796 -1.012197 -1.570797
    35 -3.494950 -0.101669 -0.267711 -1.151740 2.063940 -0.575069
    36 -2.760940 0.247806 0.000001 0.000000 0.000000 2.147990
    37 -2.125106 0.640933 -0.295102 -1.570796 2.259721 -1.570796
    38 -2.125106 0.496397 0.119886 1.570798 -0.881871 1.570796
    39 3.254364 0.496399 0.119884 1.570798 -0.881871 1.570796
    40 3.254364 0.640934 -0.295102 -1.570796 2.259721 -1.570796
    41 -0.173692 0.628514 0.000000 0.000000 0.000000 1.570796
    42 1.666187 0.117875 0.021793 -1.570869 -1.567539 -1.570687
    43 -0.382374 0.030911 1.370591 1.575570 -0.712376 1.560207
    44 -0.384060 -0.560770 1.326299 -1.570796 -0.661079 -1.574078
    45 -0.384081 -0.704360 -2.662615 -1.567782 0.710423 -1.569457
    46 -0.382441 -0.001274 -2.485083 1.570797 0.982831 1.567515
    47 1.081393 8.766491 -0.462316 -1.592554 -0.029052 -1.547524
    48 -0.488518 -2.755602 -0.228260 -0.915416 0.030346 -0.257527
    49 0.039887 -1.479790 0.029854 -1.670335 0.000000 0.000001
    50 0.028786 -1.075731 -0.023109 -0.970335 0.000000 0.000000
    51 0.250027 -2.820665 -0.238396 -0.763710 0.009903 -0.231033
    52 -0.049759 -1.680544 0.100479 -1.650429 0.000000 -0.000002
    53 -0.034142 -1.148312 0.084782 -1.218373 0.000000 0.000000
    54 0.957766 -2.746780 -0.090302 -0.098864 -0.180194 0.054035
    55 -0.033420 -1.397129 -0.011257 -0.190573 0.060618 -0.121585
    56 -0.022360 -0.957436 0.018784 0.041446 0.000000 0.000000
    57 -1.180681 -2.507217 -0.193859 -1.063647 0.196299 -0.438881
    58 -0.024967 -1.123934 0.017597 -1.117804 0.000000 0.000001
    59 -0.020057 -0.890968 0.010090 -1.277757 0.000000 0.000000
    60 0.583510 -1.197277 0.185379 0.320488 -1.093714 -0.588318
    61 1.535927 0.010246 0.005009 -0.202424 0.318874 -0.881918
    62 1.100771 0.004527 -0.010679 -0.001993 0.016093 0.053594
    63 -0.055634 -0.124491 -0.210744 -2.785661 6.014089 -1.461755
    64 -5.532648 -7.946186 -8.864835 0.989842 -3.114851 1.436440
    65 -0.227285 -8.466044 0.162515 -0.188294 -0.294233 0.535555
    66 0.447953 -2.798986 -0.180911 -0.606283 -0.232902 0.464721
    67 -0.032909 -1.480204 0.004940 -1.503498 0.000000 0.000002
    68 -0.027022 -1.076920 -0.020210 -1.518465 0.000000 0.000000
    69 -0.233909 -2.694615 -0.205464 -0.191222 -0.027402 0.253264
    70 0.043235 -1.683941 0.096012 -1.513425 0.002823 -0.000167
    71 0.031729 -1.160830 0.058838 -1.713964 0.000642 0.008372
    72 -0.963866 -2.785145 -0.085350 0.080538 -0.022215 0.238536
    73 0.028479 -1.403067 0.006271 -1.340469 0.000000 0.000000
    74 0.021413 -0.957781 0.020046 -0.176337 0.000000 0.000000
    75 1.152756 -2.676757 -0.076577 -0.869729 -0.351134 0.493567
    76 0.024032 -1.129042 0.017807 -1.197599 0.000000 0.000001
    77 0.014898 -0.883989 -0.019848 -1.327259 0.000000 0.000000
    78 -0.586770 -1.264477 0.200161 -0.403545 -0.587609 -2.082196
    79 1.522835 0.058681 0.016848 -0.085891 0.512868 0.726927
    80 1.117947 0.040611 -0.005766 0.011406 -0.022477 -0.414223
    81 -0.096429 -0.146855 -0.024667 0.208045 0.045942 1.281123
    82 -1.030178 8.854803 -0.438658 1.479618 -0.035068 -1.607307
  time 4
    0 6.897109 -1.851619 -8.459316 -0.515195 0.191562 -1.083040
    1 7.899738 4.633614 -4.019510 0.626497 -2.325920 -0.999747
    2 0.086717 -8.504436 0.175817 0.228235 0.891955 -0.265081
    3 1.528851 -3.281721 0.999439 -0.079869 0.067558 2.744734
    4 -1.383051 4.924788 -0.109128 1.512228 -0.187394 2.611583
    5 -2.625165 4.674701 0.765408 0.000000 0.000000 -1.328908
    6 -1.311576 -0.227769 0.008379 0.000000 0.000000 -2.370930
    7 -0.227452 0.993410 -0.125221 0.000002 0.000000 0.328627
    8 -2.081265 2.688989 0.787919 0.000000 0.000000 1.302003
    9 0.623961 -0.071477 -0.159128 -0.072266 -1.649371 -1.466928
    10 0.860823 -0.134316 -0.214431 -0.261605 -1.079347 -1.241239
    11 0.515580 -0.285767 -0.106987 0.079880 -1.421928 -1.576773
    12 0.753099 0.035823 -0.117582 0.097460 3.040203 -1.041579
    13 0.889303 0.128740 -0.157093 0.089454 3.041258 -0.786698
    14 0.670109 -0.030865 -0.108571 -0.026680 3.002335 -1.038975
    15 0.738763 -0.042325 -0.146042 -1.928521 -1.403192 0.535980
    16 0.870137 0.057177 -0.201678 -1.666927 -1.175652 0.301700
    17 1.062045 -0.138207 -0.177049 -1.475751 -0.019124 -0.540530
    18 -2.265002 2.578599 0.787919 0.000000 0.000000 1.812685
    19 0.200670 0.289140 -0.056458 2.453249 -1.410446 0.563952
    20 0.843839 -0.116268 -0.075904 -0.000001 0.000001 -1.258455
    21 0.021543 0.074143 0.036639 -1.182514 -1.198896 -1.984516
    22 0.414373 0.275285 -0.140914 -2.894009 -1.129448 -0.224688
    23 0.453303 0.042736 -0.116169 -1.570795 -1.076855 -1.570796
    24 0.782161 -0.046541 -0.132180 -2.461252 -1.158811 0.186510
    25 0.702022 -0.173587 -0.036117 -2.370066 -1.338876 -0.088271
    26 0.850847 0.020146 -0.207489 -2.840683 -0.551510 0.665737
    27 0.902524 -0.072410 -0.184876 0.000001 0.000000 -1.039098
    28 0.621568 0.226086 -0.246501 -2.863347 -0.673432 1.097702
    29 0.787038 -0.251779 -0.014078 -0.000002 0.000000 -1.461311
    30 -1.224533 5.255927 -0.136492 0.000000 0.000000 -1.923919
    31 -1.644238 2.515574 0.008543 0.000000 0.000000 1.812686
    32 -3.494950 -0.101669 0.264376 1.151737 -1.077653 2.566527
    33 2.999629 -0.724906 0.283512 -1.570796 -1.012197 -1.570797
    34 -2.445238 -0.724906 0.283513 -1.570796 -1.012197 -1.570797
    35 -3.494950 -0.101669 -0.267711 -1.151740 2.063940 -0.575069
    36 -2.760940 0.247806 0.000001 0.000000 0.000000 2.147990
    37 -2.125106 0.640933 -0.295102 -1.570796 2.259721 -1.570796
    38 -2.125106 0.496397 0.119886 1.570798 -0.881871 1.570796
    39 3.254364 0.496399 0.119884 1.570798 -0.881871 1.570796
    40 3.254364 0.640934 -0.295102 -1.570796 2.259721 -1.570796
    41 -0.173692 0.628514 0.000000 0.000000 0.000000 1.570796
    42 1.666187 0.117875 0.021793 -1.570797 -1.567503 -1.570687
    43 -0.382374 0.030911 1.370591 1.575570 -0.712376 1.560207
    44 -0.384060 -0.560770 1.326299 -1.570796 -0.661079 -1.574078
    45 -0.384081 -0.704360 -2.662615 -1.567782 0.710423 -1.569457
    46 -0.382441 -0.001274 -2.485083 1.570797 0.982831 1.567515
    47 1.081393 8.766491 -0.462316 -1.593692 -0.028836 -1.547536
    48 -0.488518 -2.755602 -0.228260 -0.915416 0.030346 -0.257527
    49 0.039887 -1.479790 0.029854 -1.670335 0.000000 0.000001
    50 0.028786 -1.075731 -0.023109 -0.970335 0.000000 0.000000
    51 0.250027 -2.820665 -0.238396 -0.763710 0.009903 -0.231033
    52 -0.049759 -1.680544 0.100479 -1.650429 0.000000 -0.000002
    53 -0.034142 -1.148312 0.084782 -1.218373 0.000000 0.000000
    54 0.957766 -2.746780 -0.090302 -0.098864 -0.180194 0.054035
    55 -0.033420 -1.397129 -0.011257 -0.190573 0.060618 -0.121585
    56 -0.022360 -0.957436 0.018784 0.041446 0.000000 0.000000
    57 -1.180681 -2.507217 -0.193859 -1.063682 0.196299 -0.438881
    58 -0.024967 -1.123934 0.017597 -1.117804 0.000000 0.000001
    59 -0.020057 -0.890968 0.010090 -1.277757 0.000000 0.000000
    60 0.583510 -1.197277 0.185379 0.320488 -1.093714 -0.588318
    61 1.535927 0.010246 0.005009 -0.202424 0.318874 -0.881918
    62 1.100771 0.004527 -0.010679 -0.001993 0.016093 0.053594
    63 -0.055634 -0.124491 -0.210744 -2.785661 6.014089 -1.461755
    64 -5.419363 -7.118036 -7.696831 0.895596 -3.211735 1.394813
    65 -0.227285 -8.466044 0.162515 -0.080460 -0.290138 0.633817
    66 0.447953 -2.798986 -0.180911 -0.606283 -0.232902 0.464721
    67 -0.032909 -1.480204 0.004940 -1.503498 0.000000 0.000002
    68 -0.027022 -1.076920 -0.020210 -1.518465 0.000000 0.000000
    69 -0.233909 -2.694615 -0.205464 -0.191222 -0.027402 0.253264
    70 0.043235 -1.683941 0.096012 -1.513425 0.002823 -0.000167
    71 0.031729 -1.160830 0.058838 -1.713964 0.000642 0.008372
    72 -0.963866 -2.785145 -0.085350 0.080538 -0.022215 0.238536
    73 0.028479 -1.403067 0.006271 -1.340469 0.000000 0.000000
    74 0.021413 -0.957781 0.020046 -0.176337 0.000000 0.000000
    75 1.152756 -2.676757 -0.076577 -0.869729 -0.351134 0.493567
    76 0.024032 -1.129042 0.017807 -1.197599 0.000000 0.000001
    77 0.014898 -0.883989 -0.019848 -1.327259 0.000000 0.000000
    78 -0.586770 -1.264477 0.200161 -0.403545 -0.587609 -2.082196
    79 1.522835 0.058681 0.016848 -0.351405 0.629344 0.299606
    80 1.117947 0.036705 -0.005766 0.011993 -0.022226 -0.437979
    81 -0.076897 -0.146855 -0.028573 0.182614 0.122260 1.184886
    82 -1.030178 8.854803 -0.438658 1.479618 -0.035068 -1.607307
  time 5
    0 6.897109 -1.851619 -8.459316 -0.515195 0.191562 -1.083040
    1 7.966146 4.617989 -3.828098 0.626497 -2.325920 -0.999747
    2 0.086717 -8.504436 0.175817 0.204278 0.858865 -0.296804
    3 1.528851 -3.281721 0.999439 -0.079869 0.067558 2.744734
    4 -0.172076 6.143576 0.652614 1.429199 -0.073390 3.079628
    5 -2.625165 4.674701 0.765408 0.000000 0.000000 -1.328908
    6 -1.311576 -0.227769 0.008379 0.000000 0.000000 -2.370930
    7 -0.227452 0.993410 -0.125221 0.000002 0.000000 0.328627
    8 -2.081265 2.688989 0.787919 0.000000 0.000000 1.302003
    9 0.623961 -0.071477 -0.159128 -0.072266 -1.649371 -1.466928
    10 0.860823 -0.134316 -0.214431 -0.261605 -1.079347 -1.241239
    11 0.515580 -0.285767 -0.106987 0.079880 -1.421928 -1.576773
    12 0.753099 0.035823 -0.117582 0.097460 3.040203 -1.041579
    13 0.889303 0.128740 -0.157093 0.089454 3.041258 -0.786698
    14 0.670109 -0.030865 -0.108571 -0.026680 3.002335 -1.038975
    15 0.738763 -0.042325 -0.146042 -1.928521 -1.403192 0.535980
    16 0.870137 0.057177 -0.201678 -1.666927 -1.175652 0.301700
    17 1.062045 -0.138207 -0.177049 -1.475751 -0.019124 -0.540530
    18 -2.265002 2.578599 0.787919 0.000000 0.000000 1.812685
    19 0.200670 0.289140 -0.056458 2.453249 -1.410446 0.563952
    20 0.843839 -0.116268 -0.075904 -0.000001 0.000001 -1.258455
    21 0.021543 0.074143 0.036639 -1.182514 -1.198896 -1.984516
    22 0.414373 0.275285 -0.140914 -2.894009 -1.129448 -0.224688
    23 0.453303 0.042736 -0.116169 -1.570795 -1.076855 -1.570796
    24 0.782161 -0.046541 -0.132180 -2.461252 -1.158811 0.186510
    25 0.702022 -0.173587 -0.036117 -2.370066 -1.338876 -0.088271
    26 0.850847 0.020146 -0.207489 -2.840683 -0.551510 0.665737
    27 0.902524 -0.072410 -0.184876 0.000001 0.000000 -1.039098
    28 0.621568 0.226086 -0.246501 -2.863347 -0.673432 1.097702
    29 0.787038 -0.251779 -0.014078 -0.000002 0.000000 -1.461311
    30 -1.228439 5.252020 -0.140398 0.000000 0.000000 -1.788673
    31 -1.644238 2.515574 0.008543 0.000000 0.000000 1.812686
    32 -3.494950 -0.101669 0.264376 1.151737 -1.077653 2.566527
    33 2.999629 -0.724906 0.283512 -1.570796 -1.012197 -1.570797
    34 -2.445238 -0.724906 0.283513 -1.570796 -1.012197 -1.570797
    35 -3.494950 -0.101669 -0.267711 -1.151740 2.063940 -0.575069
    36 -2.760940 0.247806 0.000001 0.000000 0.000000 2.147990
    37 -2.125106 0.640933 -0.295102 -4.712388 0.881913 1.570796
    38 -2.125106 0.496397 0.119886 1.570798 -0.881871 1.570796
    39 3.254364 0.496399 0.119884 1.570798 -0.881871 1.570796
    40 3.254364 0.640934 -0.295102 -4.712388 0.881913 1.570796
    41 -0.173692 0.628514 0.000000 0.000000 0.000000 1.570796
    42 1.666187 0.117875 0.021793 -1.570797 -1.567503 -1.570687
    43 -0.382374 0.030911 1.370591 1.575570 -0.712376 1.560207
    44 -0.384060 -0.560770 1.326299 -1.570796 -0.661079 -1.574078
    45 -0.384081 -0.704360 -2.662615 -1.567782 0.710423 -1.569457
    46 -0.382441 -0.001274 -2.485083 1.570797 0.982831 1.567515
    47 1.081393 8.766491 -0.462316 -1.593381 -0.028896 -1.547536
    48 -0.488518 -2.755602 -0.228260 -0.915416 0.030346 -0.257527
    49 0.039887 -1.479790 0.029854 -1.670335 0.000000 0.000001
    50 0.028786 -1.075731 -0.023109 -0.970335 0.000000 0.000000
    51 0.250027 -2.820665 -0.238396 -0.763710 0.009903 -0.231033
    52 -0.049759 -1.680544 0.100479 -1.650429 0.000000 -0.000002
    53 -0.034142 -1.148312 0.084782 -1.218373 0.000000 0.000000
    54 0.957766 -2.746780 -0.090302 -0.098864 -0.180194 0.054035
    55 -0.033420 -1.397129 -0.011257 -0.190573 0.060618 -0.121585
    56 -0.022360 -0.957436 0.018784 0.041446 0.000000 0.000000
    57 -1.180681 -2.507217 -0.193859 -1.063647 0.196299 -0.438881
    58 -0.024967 -1.123934 0.017597 -1.117804 0.000000 0.000001
    59 -0.020057 -0.890968 0.010090 -1.277757 0.000000 0.000000
    60 0.583510 -1.197277 0.185379 0.320488 -1.093714 -0.588318
    61 1.535927 0.010246 0.005009 -0.202424 0.318874 -0.881918
    62 1.100771 0.004527 -0.010679 -0.001993 0.016093 0.053594
    63 -0.055634 -0.124491 -0.210744 -2.785661 6.014089 -1.461755
    64 -5.286547 -7.250853 -7.427291 0.887384 -3.315637 1.379573
    65 -0.227285 -8.466044 0.162515 -0.098027 -0.285712 0.617562
    66 0.447953 -2.798986 -0.180911 -0.593012 -0.226850 0.470150
    67 -0.032909 -1.480204 0.004940 -1.378725 0.000000 0.000002
    68 -0.027022 -1.076920 -0.020210 -1.406535 0.000000 0.000000
    69 -0.233909 -2.694615 -0.205464 -0.182153 -0.034161 0.252485
    70 0.043235 -1.683941 0.096012 -1.388671 0.002823 -0.000167
    71 0.031729 -1.160830 0.058838 -1.580237 0.000642 0.008372
    72 -0.963866 -2.785145 -0.085350 0.076244 -0.022574 0.223743
    73 0.028479 -1.403067 0.006271 -1.278219 0.000000 0.000000
    74 0.021413 -0.957781 0.020046 -0.176337 0.000000 0.000000
    75 1.152756 -2.676757 -0.076577 -0.861521 -0.325936 0.519921
    76 0.024032 -1.129042 0.017807 -1.072818 0.000000 0.000001
    77 0.014898 -0.883989 -0.019848 -1.215292 0.000000 0.000000
    78 -0.586770 -1.264477 0.200161 -0.365829 -0.600864 -2.145157
    79 1.522835 0.058681 0.016848 -0.435321 0.114309 0.230885
    80 1.121853 0.032799 -0.005766 0.012101 -0.022178 -0.442694
    81 -0.057365 -0.146855 -0.036386 0.203587 0.150388 1.199652
    82 -1.030178 8.854803 -0.438658 1.479618 -0.035068 -1.607307
  time 6
    0 6.787731 -2.421949 -8.088211 -0.515195 0.191562 -1.083040
    1 8.098962 4.590644 -3.468712 0.626497 -2.325920 -0.999747
    2 0.086717 -8.504436 0.175817 0.159787 0.792624 -0.355720
    3 1.528851 -3.281721 0.999439 -0.079869 0.067558 2.744734
    4 -0.332238 7.159232 0.801057 1.467794 0.045391 3.247169
    5 -2.625165 4.674701 0.765408 0.000000 0.000000 -1.328908
    6 -1.311576 -0.227769 0.008379 0.000000 0.000000 -2.370930
    7 -0.227452 0.993410 -0.125221 0.000002 0.000000 0.328627
    8 -2.081265 2.688989 0.787919 0.000000 0.000000 1.302003
    9 0.623961 -0.071477 -0.159128 -0.072266 -1.649371 -1.466928
    10 0.860823 -0.134316 -0.214431 -0.261605 -1.079347 -1.241239
    11 0.515580 -0.285767 -0.106987 0.079880 -1.421928 -1.576773
    12 0.753099 0.035823 -0.117582 0.097460 3.040203 -1.041579
    13 0.889303 0.128740 -0.157093 0.089454 3.041258 -0.786698
    14 0.670109 -0.030865 -0.108571 -0.026680 3.002335 -1.038975
    15 0.738763 -0.042325 -0.146042 -1.928521 -1.403192 0.535980
    16 0.870137 0.057177 -0.201678 -1.666927 -1.175652 0.301700
    17 1.062045 -0.138207 -0.177049 -1.475751 -0.019124 -0.540530
    18 -2.265002 2.578599 0.787919 0.000000 0.000000 1.812685
    19 0.200670 0.289140 -0.056458 2.453249 -1.410446 0.563952
    20 0.843839 -0.116268 -0.075904 -0.000001 0.000001 -1.258455
    21 0.021543 0.074143 0.036639 -1.182514 -1.198896 -1.984516
    22 0.414373 0.275285 -0.140914 -2.894009 -1.129448 -0.224688
    23 0.453303 0.042736 -0.116169 -1.570795 -1.076855 -1.570796
    24 0.782161 -0.046541 -0.132180 -2.461252 -1.158811 0.186510
    25 0.702022 -0.173587 -0.036117 -2.370066 -1.338876 -0.088271
    26 0.850847 0.020146 -0.207489 -2.840683 -0.551510 0.665737
    27 0.902524 -0.072410 -0.184876 0.000001 0.000000 -1.039098
    28 0.621568 0.226086 -0.246501 -2.863347 -0.673432 1.097702
    29 0.787038 -0.251779 -0.014078 -0.000002 0.000000 -1.461311
    30 -1.228439 5.248114 -0.144305 0.000000 0.000000 -1.537522
    31 -1.644238 2.515574 0.008543 0.000000 0.000000 1.812686
    32 -3.494950 -0.101669 0.264376 1.151737 -1.077653 2.566527
    33 2.999629 -0.724906 0.283512 -1.570796 -1.012197 -1.570797
    34 -2.445238 -0.724906 0.283513 -1.570796 -1.012197 -1.570797
    35 -3.494950 -0.101669 -0.267711 -1.151740 2.063940 -0.575069
    36 -2.760940 0.247806 0.000001 0.000000 0.000000 2.147990
    37 -2.125106 0.640933 -0.295102 -4.712388 0.881913 1.570796
    38 -2.125106 0.496397 0.119886 1.570798 -0.881871 1.570796
    39 3.254364 0.496399 0.119884 1.570798 -0.881871 1.570796
    40 3.254364 0.640934 -0.295102 -4.712388 0.881913 1.570796
    41 -0.173692 0.628514 0.000000 0.000000 0.000000 1.570796
    42 1.666187 0.117875 0.021793 -1.570797 -1.567503 -1.570687
    43 -0.382374 0.030911 1.370591 1.575570 -0.712376 1.560207
    44 -0.384060 -0.560770 1.326299 -1.570796 -0.661079 -1.574078
    45 -0.384081 -0.704360 -2.662615 -1.567782 0.710423 -1.569457
    46 -0.382441 -0.001274 -2.485083 1.570797 0.982831 1.567515
    47 1.081393 8.766491 -0.462316 -1.592554 -0.029052 -1.547524
    48 -0.488518 -2.755602 -0.228260 -0.915416 0.030346 -0.257527
    49 0.039887 -1.479790 0.029854 -1.670335 0.000000 0.000001
    50 0.028786 -1.075731 -0.023109 -0.970335 0.000000 0.000000
    51 0.250027 -2.820665 -0.238396 -0.763710 0.009903 -0.231033
    52 -0.049759 -1.680544 0.100479 -1.650429 0.000000 -0.000002
    53 -0.034142 -1.148312 0.084782 -1.218373 0.000000 0.000000
    54 0.957766 -2.746780 -0.090302 -0.098864 -0.180194 0.054035
    55 -0.033420 -1.397129 -0.011257 -0.190573 0.060618 -0.121585
    56 -0.022360 -0.957436 0.018784 0.041446 0.000000 0.000000
    57 -1.180681 -2.507217 -0.193859 -1.063682 0.196299 -0.438881
    58 -0.024967 -1.123934 0.017597 -1.117804 0.000000 0.000001
    59 -0.020057 -0.890968 0.010090 -1.277757 0.000000 0.000000
    60 0.583510 -1.197277 0.185379 0.320488 -1.093714 -0.588318
    61 1.535927 0.010246 0.005009 -0.202424 0.318874 -0.881918
    62 1.100771 0.004527 -0.010679 -0.001993 0.016093 0.053594
    63 -0.055634 -0.124491 -0.210744 -2.785661 6.014089 -1.461755
    64 -5.321704 -7.379763 -7.349164 0.907913 -3.443127 1.379001
    65 -0.227285 -8.466044 0.162515 -0.144377 -0.280473 0.574669
    66 0.447953 -2.798986 -0.180911 -0.557725 -0.212384 0.483106
    67 -0.032909 -1.480204 0.004940 -1.081214 0.000000 0.000002
    68 -0.027022 -1.076920 -0.020210 -1.139613 0.000000 0.000000
    69 -0.233909 -2.694615 -0.205464 -0.158553 -0.051659 0.248614
    70 0.043235 -1.683941 0.096012 -1.091113 0.002823 -0.000167
    71 0.031729 -1.160830 0.058838 -1.261397 0.000642 0.008372
    72 -0.963866 -2.785145 -0.085350 0.064933 -0.023509 0.184773
    73 0.028479 -1.403067 0.006271 -1.121685 0.000000 0.000000
    74 0.021413 -0.957781 0.020046 -0.176337 0.000000 0.000000
    75 1.152756 -2.676757 -0.076577 -0.837957 -0.265864 0.582768
    76 0.024032 -1.129042 0.017807 -0.775282 0.000000 0.000001
    77 0.014898 -0.883989 -0.019848 -0.948381 0.000000 0.000000
    78 -0.586770 -1.264477 0.200161 -0.287462 -0.628081 -2.275709
    79 1.522835 0.058681 0.016848 -0.375503 0.076879 0.341051
    80 1.121853 0.028892 -0.005766 -0.003311 -0.024611 0.195789
    81 -0.037833 -0.142949 -0.048105 0.258872 0.172979 1.238552
    82 -1.030178 8.854803 -0.438658 1.479618 -0.035068 -1.607307
  time 7
    0 6.674446 -2.336009 -8.275717 -0.515195 0.191562 -1.083040
    1 8.200528 4.571113 -3.265580 0.626497 -2.325920 -0.999747
    2 0.086717 -8.504436 0.175817 0.135806 0.742683 -0.387432
    3 1.528851 -3.281721 0.999439 -0.079869 0.067558 2.744734
    4 0.132620 8.225670 0.476828 -1.550490 2.946608 0.303833
    5 -2.625165 4.674701 0.765408 0.000000 0.000000 -1.328908
    6 -1.311576 -0.227769 0.008379 0.000000 0.000000 -2.370930
    7 -0.227452 0.993410 -0.125221 0.000002 0.000000 0.328627
    8 -2.081265 2.688989 0.787919 0.000000 0.000000 1.302003
    9 0.623961 -0.071477 -0.159128 -0.072266 -1.649371 -1.466928
    10 0.860823 -0.134316 -0.214431 -0.261605 -1.079347 -1.241239
    11 0.515580 -0.285767 -0.106987 0.079880 -1.421928 -1.576773
    12 0.753099 0.035823 -0.117582 0.097460 3.040203 -1.041579
    13 0.889303 0.128740 -0.157093 0.089454 3.041258 -0.786698
    14 0.670109 -0.030865 -0.108571 -0.026680 3.002335 -1.038975
    15 0.738763 -0.042325 -0.146042 -1.928521 -1.403192 0.535980
    16 0.870137 0.057177 -0.201678 -1.666927 -1.175652 0.301700
    17 1.062045 -0.138207 -0.177049 -1.475751 -0.019124 -0.540530
    18 -2.265002 2.578599 0.787919 0.000000 0.000000 1.812685
    19 0.200670 0.289140 -0.056458 2.453249 -1.410446 0.563952
    20 0.843839 -0.116268 -0.075904 -0.000001 0.000001 -1.258455
    21 0.021543 0.074143 0.036639 -1.182514 -1.198896 -1.984516
    22 0.414373 0.275285 -0.140914 -2.894009 -1.129448 -0.224688
    23 0.453303 0.042736 -0.116169 -1.570795 -1.076855 -1.570796
    24 0.782161 -0.046541 -0.132180 -2.461252 -1.158811 0.186510
    25 0.702022 -0.173587 -0.036117 -2.370066 -1.338876 -0.088271
    26 0.850847 0.020146 -0.207489 -2.840683 -0.551510 0.665737
    27 0.902524 -0.072410 -0.184876 0.000001 0.000000 -1.039098
    28 0.621568 0.226086 -0.246501 -2.863347 -0.673432 1.097702
    29 0.787038 -0.251779 -0.014078 -0.000002 0.000000 -1.461311
    30 -1.228439 5.248114 -0.144305 0.000000 0.000000 -1.402291
    31 -1.644238 2.515574 0.008543 0.000000 0.000000 1.812686
    32 -3.494950 -0.101669 0.264376 1.151737 -1.077653 2.566527
    33 2.999629 -0.724906 0.283512 1.570796 -2.129362 -4.712389
    34 -2.445238 -0.724906 0.283513 1.570796 -2.129362 -4.712389
    35 -3.494950 -0.101669 -0.267711 -1.151740 2.063940 -0.575069
    36 -2.760940 0.247806 0.000001 0.000000 0.000000 2.147990
    37 -2.125106 0.640933 -0.295102 -1.570796 2.259721 -1.570796
    38 -2.125106 0.496397 0.119886 1.570798 -0.881871 1.570796
    39 3.254364 0.496399 0.119884 1.570798 -0.881871 1.570796
    40 3.254364 0.640934 -0.295102 -1.570796 2.259721 -1.570796
    41 -0.173692 0.628514 0.000000 0.000000 0.000000 1.570796
    42 1.666187 0.117875 0.021793 -1.570797 -1.567503 -1.570687
    43 -0.382374 0.030911 1.370591 1.575570 -0.712376 1.560207
    44 -0.384060 -0.560770 1.326299 -1.570796 -0.661079 -1.574078
    45 -0.384081 -0.704360 -2.662615 -1.567782 0.710423 -1.569457
    46 -0.382441 -0.001274 -2.485083 1.570797 0.982831 1.567515
    47 1.081393 8.766491 -0.462316 -1.591391 -0.029280 -1.547524
    48 -0.488518 -2.755602 -0.228260 -0.915416 0.030346 -0.257527
    49 0.039887 -1.479790 0.029854 -1.670335 0.000000 0.000001
    50 0.028786 -1.075731 -0.023109 -0.970335 0.000000 0.000000
    51 0.250027 -2.820665 -0.238396 -0.763710 0.009903 -0.231033
    52 -0.049759 -1.680544 0.100479 -1.650429 0.000000 -0.000002
    53 -0.034142 -1.148312 0.084782 -1.218373 0.000000 0.000000
    54 0.957766 -2.746780 -0.090302 -0.098864 -0.180194 0.054035
    55 -0.033420 -1.397129 -0.011257 -0.190573 0.060618 -0.121585
    56 -0.022360 -0.957436 0.018784 0.041446 0.000000 0.000000
    57 -1.180681 -2.507217 -0.193859 -1.063647 0.196299 -0.438881
    58 -0.024967 -1.123934 0.017597 -1.117804 0.000000 0.000001
    59 -0.020057 -0.890968 0.010090 -1.277757 0.000000 0.000000
    60 0.583510 -1.197277 0.185379 0.320488 -1.093714 -0.588318
    61 1.535927 0.010246 0.005009 -0.202424 0.318874 -0.881918
    62 1.100771 0.004527 -0.010679 -0.001993 0.016093 0.053594
    63 -0.055634 -0.124491 -0.210744 -2.785661 6.014089 -1.461755
    64 -5.880315 -7.590707 -7.259317 0.836966 -3.569822 1.385478
    65 -0.227285 -8.466044 0.162515 -0.209891 -0.274872 0.514058
    66 0.447953 -2.798986 -0.180911 -0.507211 -0.195138 0.498566
    67 -0.032909 -1.480204 0.004940 -0.726071 0.000000 0.000002
    68 -0.027022 -1.076920 -0.020210 -0.821041 0.000000 0.000000
    69 -0.233909 -2.694615 -0.205464 -0.125829 -0.075712 0.239337
    70 0.043235 -1.683941 0.096012 -0.735972 0.002823 -0.000167
    71 0.031729 -1.160830 0.058838 -0.880852 0.000642 0.008372
    72 -0.963866 -2.785145 -0.085350 0.048950 -0.024839 0.129671
    73 0.028479 -1.403067 0.006271 -0.916169 0.000000 0.000000
    74 0.021413 -0.957781 0.020046 -0.176337 0.000000 0.000000
    75 1.152756 -2.676757 -0.076577 -0.800592 -0.194162 0.657780
    76 0.024032 -1.129042 0.017807 -0.420130 0.000000 0.000001
    77 0.014898 -0.883989 -0.019848 -0.629795 0.000000 0.000000
    78 -0.586770 -1.264477 0.200161 -0.220624 -0.650468 -2.386338
    79 1.522835 0.058681 0.016848 -0.309221 0.062452 0.461915
    80 1.121853 0.028892 -0.005766 -0.004761 -0.024551 0.252001
    81 -0.014395 -0.142949 -0.055918 0.337024 0.190585 1.293559
    82 -1.030178 8.854803 -0.438658 1.479618 -0.035068 -1.607307
  time 8
    0 6.678353 -2.152409 -8.545256 -0.515195 0.191562 -1.083040
    1 8.216154 4.575019 -3.304644 0.626497 -2.325920 -0.999747
    2 0.086717 -8.504436 0.175817 0.139415 0.720999 -0.383069
    3 1.528851 -3.281721 0.999439 -0.079869 0.067558 2.744734
    4 2.027209 8.776469 -0.531015 -1.255925 2.823908 0.514520
    5 -2.625165 4.674701 0.765408 0.000000 0.000000 -1.328908
    6 -1.311576 -0.227769 0.008379 0.000000 0.000000 -2.370930
    7 -0.227452 0.993410 -0.125221 0.000002 0.000000 0.328627
    8 -2.081265 2.688989 0.787919 0.000000 0.000000 1.302003
    9 0.623961 -0.071477 -0.159128 -0.072266 -1.649371 -1.466928
    10 0.860823 -0.134316 -0.214431 -0.261605 -1.079347 -1.241239
    11 0.515580 -0.285767 -0.106987 0.079880 -1.421928 -1.576773
    12 0.753099 0.035823 -0.117582 0.097460 3.040203 -1.041579
    13 0.889303 0.128740 -0.157093 0.089454 3.041258 -0.786698
    14 0.670109 -0.030865 -0.108571 -0.026680 3.002335 -1.038975
    15 0.738763 -0.042325 -0.146042 -1.928521 -1.403192 0.535980
    16 0.870137 0.057177 -0.201678 -1.666927 -1.175652 0.301700
    17 1.062045 -0.138207 -0.177049 -1.475751 -0.019124 -0.540530
    18 -2.265002 2.578599 0.787919 0.000000 0.000000 1.812685
    19 0.200670 0.289140 -0.056458 2.453249 -1.410446 0.563952
    20 0.843839 -0.116268 -0.075904 -0.000001 0.000001 -1.258455
    21 0.021543 0.074143 0.036639 -1.182514 -1.198896 -1.984516
    22 0.414373 0.275285 -0.140914 -2.894009 -1.129448 -0.224688
    23 0.453303 0.042736 -0.116169 -1.570795 -1.076855 -1.570796
    24 0.782161 -0.046541 -0.132180 -2.461252 -1.158811 0.186510
    25 0.702022 -0.173587 -0.036117 -2.370066 -1.338876 -0.088271
    26 0.850847 0.020146 -0.207489 -2.840683 -0.551510 0.665737
    27 0.902524 -0.072410 -0.184876 0.000001 0.000000 -1.039098
    28 0.621568 0.226086 -0.246501 -2.863347 -0.673432 1.097702
    29 0.787038 -0.251779 -0.014078 -0.000002 0.000000 -1.461311
    30 -1.224533 5.252020 -0.140398 0.000000 0.000000 -1.461924
    31 -1.644238 2.515574 0.008543 0.000000 0.000000 1.812686
    32 -3.494950 -0.101669 0.264376 1.151737 -1.077653 2.566527
    33 2.999629 -0.724906 0.283512 -1.570796 -1.012197 -1.570797
    34 -2.445238 -0.724906 0.283513 -1.570796 -1.012197 -1.570797
    35 -3.494950 -0.101669 -0.267711 -1.151740 2.063940 -0.575069
    36 -2.760940 0.247806 0.000001 0.000000 0.000000 2.147990
    37 -2.125106 0.640933 -0.295102 -1.570796 2.259721 -1.570796
    38 -2.125106 0.496397 0.119886 1.570798 -0.881871 1.570796
    39 3.254364 0.496399 0.119884 1.570798 -0.881871 1.570796
    40 3.254364 0.640934 -0.295102 -1.570796 2.259721 -1.570796
    41 -0.173692 0.628514 0.000000 0.000000 0.000000 1.570796
    42 1.666187 0.117875 0.021793 -1.570797 -1.567503 -1.570687
    43 -0.382374 0.030911 1.370591 1.575570 -0.712376 1.560207
    44 -0.384060 -0.560770 1.326299 -1.570796 -0.661079 -1.574078
    45 -0.384081 -0.704360 -2.662615 -1.567782 0.710423 -1.569457
    46 -0.382441 -0.001274 -2.485083 1.570797 0.982831 1.567515
    47 1.081393 8.766491 -0.462316 -1.590049 -0.029532 -1.547524
    48 -0.488518 -2.755602 -0.228260 -0.915416 0.030346 -0.257527
    49 0.039887 -1.479790 0.029854 -1.670335 0.000000 0.000001
    50 0.028786 -1.075731 -0.023109 -0.970335 0.000000 0.000000
    51 0.250027 -2.820665 -0.238396 -0.763710 0.009903 -0.231033
    52 -0.049759 -1.680544 0.100479 -1.650429 0.000000 -0.000002
    53 -0.034142 -1.148312 0.084782 -1.218373 0.000000 0.000000
    54 0.957766 -2.746780 -0.090302 -0.098864 -0.180194 0.054035
    55 -0.033420 -1.397129 -0.011257 -0.190573 0.060618 -0.121585
    56 -0.022360 -0.957436 0.018784 0.041446 0.000000 0.000000
    57 -1.180681 -2.507217 -0.193859 -1.063682 0.196299 -0.438881
    58 -0.024967 -1.123934 0.017597 -1.117804 0.000000 0.000001
    59 -0.020057 -0.890968 0.010090 -1.277757 0.000000 0.000000
    60 0.583510 -1.197277 0.185379 0.320488 -1.093714 -0.588318
    61 1.535927 0.010246 0.005009 -0.202424 0.318874 -0.881918
    62 1.100771 0.004527 -0.010679 -0.001993 0.016093 0.053594
    63 -0.055634 -0.124491 -0.210744 -2.785661 6.014089 -1.461755
    64 -6.927222 -7.942280 -7.071812 0.624793 -3.708020 1.415007
    65 -0.227285 -8.466044 0.162515 -0.284996 -0.269362 0.444547
    66 0.447953 -2.798986 -0.180911 -0.448305 -0.180685 0.511521
    67 -0.032909 -1.480204 0.004940 -0.428507 0.000000 0.000002
    68 -0.027022 -1.076920 -0.020210 -0.554119 0.000000 0.000000
    69 -0.233909 -2.694615 -0.205464 -0.089374 -0.102162 0.222367
    70 0.043235 -1.683941 0.096012 -0.438413 0.002823 -0.000167
    71 0.031729 -1.160830 0.058838 -0.562063 0.000642 0.008372
    72 -0.963866 -2.785145 -0.085350 0.030602 -0.026361 0.066510
    73 0.028479 -1.403067 0.006271 -0.537255 0.091538 0.021381
    74 0.021413 -0.957781 0.020046 -0.176337 0.000000 0.000000
    75 1.152756 -2.676757 -0.076577 -0.750915 -0.134090 0.720627
    76 0.024032 -1.129042 0.017807 -0.122593 0.000000 0.000001
    77 0.014898 -0.883989 -0.019848 -0.362883 0.000000 0.000000
    78 -0.586770 -1.264477 0.200161 -0.175379 -0.664131 -2.459942
    79 1.522835 0.058681 0.016848 -0.298132 0.048498 0.480382
    80 1.121853 0.032799 -0.005766 -0.005972 -0.024407 0.299173
    81 0.009043 -0.142949 -0.063730 0.426632 0.203756 1.356618
    82 -1.030178 8.854803 -0.438658 1.479618 -0.035068 -1.607307
  time 9
    0 6.736948 -2.000061 -8.623384 -0.515195 0.191562 -1.083040
    1 8.192715 4.582832 -3.410116 0.626497 -2.325920 -0.999747
    2 0.086717 -8.504436 0.175817 0.147424 0.705825 -0.372978
    3 1.528851 -3.281721 0.999439 -0.079869 0.067558 2.744734
    4 5.035114 7.733468 -1.152128 -0.840971 2.865381 0.677679
    5 -2.625165 4.674701 0.765408 0.000000 0.000000 -1.328908
    6 -1.311576 -0.227769 0.008379 0.000000 0.000000 -2.370930
    7 -0.227452 0.993410 -0.125221 0.000002 0.000000 0.328627
    8 -2.081265 2.688989 0.787919 0.000000 0.000000 1.302003
    9 0.623961 -0.071477 -0.159128 -0.072266 -1.649371 -1.466928
    10 0.860823 -0.134316 -0.214431 -0.261605 -1.079347 -1.241239
    11 0.515580 -0.285767 -0.106987 0.079880 -1.421928 -1.576773
    12 0.753099 0.035823 -0.117582 0.097460 3.040203 -1.041579
    13 0.889303 0.128740 -0.157093 0.089454 3.041258 -0.786698
    14 0.670109 -0.030865 -0.108571 -0.026680 3.002335 -1.038975
    15 0.738763 -0.042325 -0.146042 -1.928521 -1.403192 0.535980
    16 0.870137 0.057177 -0.201678 -1.666927 -1.175652 0.301700
    17 1.062045 -0.138207 -0.177049 -1.475751 -0.019124 -0.540530
    18 -2.265002 2.578599 0.787919 0.000000 0.000000 1.812685
    19 0.200670 0.289140 -0.056458 2.453249 -1.410446 0.563952
    20 0.843839 -0.116268 -0.075904 -0.000001 0.000001 -1.258455
    21 0.021543 0.074143 0.036639 -1.182514 -1.198896 -1.984516
    22 0.414373 0.275285 -0.140914 -2.894009 -1.129448 -0.224688
    23 0.453303 0.042736 -0.116169 -1.570795 -1.076855 -1.570796
    24 0.782161 -0.046541 -0.132180 -2.461252 -1.158811 0.186510
    25 0.702022 -0.173587 -0.036117 -2.370066 -1.338876 -0.088271
    26 0.850847 0.020146 -0.207489 -2.840683 -0.551510 0.665737
    27 0.902524 -0.072410 -0.184876 0.000001 0.000000 -1.039098
    28 0.621568 0.226086 -0.246501 -2.863347 -0.673432 1.097702
    29 0.787038 -0.251779 -0.014078 -0.000002 0.000000 -1.461311
    30 -1.220626 5.263739 -0.128679 0.000000 0.000000 -1.443800
    31 -1.644238 2.515574 0.008543 0.000000 0.000000 1.812686
    32 -3.494950 -0.101669 0.264376 1.151737 -1.077653 2.566527
    33 2.999629 -0.724906 0.283512 1.570796 -2.129362 -4.712389
    34 -2.445238 -0.724906 0.283513 1.570796 -2.129362 -4.712389
    35 -3.494950 -0.101669 -0.267711 -1.151740 2.063940 -0.575069
    36 -2.760940 0.247806 0.000001 0.000000 0.000000 2.147990
    37 -2.125106 0.640933 -0.295102 -1.570796 2.259721 -1.570796
    38 -2.125106 0.496397 0.119886 1.570798 -0.881871 1.570796
    39 3.254364 0.496399 0.119884 1.570798 -0.881871 1.570796
    40 3.254364 0.640934 -0.295102 -1.570796 2.259721 -1.570796
    41 -0.173692 0.628514 0.000000 0.000000 0.000000 1.570796
    42 1.666187 0.117875 0.021793 -1.570797 -1.567503 -1.570687
    43 -0.382374 0.030911 1.370591 1.575570 -0.712376 1.560207
    44 -0.384060 -0.560770 1.326299 -1.570796 -0.661079 -1.574078
    45 -0.384081 -0.704360 -2.662615 -1.567782 0.710423 -1.569457
    46 -0.382441 -0.001274 -2.485083 1.570797 0.982831 1.567515
    47 1.081393 8.766491 -0.462316 -1.588719 -0.029783 -1.547512
    48 -0.488518 -2.755602 -0.228260 -0.915416 0.030346 -0.257527
    49 0.039887 -1.479790 0.029854 -1.670335 0.000000 0.000001
    50 0.028786 -1.075731 -0.023109 -0.970335 0.000000 0.000000
    51 0.250027 -2.820665 -0.238396 -0.763710 0.009903 -0.231033
    52 -0.049759 -1.680544 0.100479 -1.650429 0.000000 -0.000002
    53 -0.034142 -1.148312 0.084782 -1.218373 0.000000 0.000000
    54 0.957766 -2.746780 -0.090302 -0.098864 -0.180194 0.054035
    55 -0.033420 -1.397129 -0.011257 -0.190573 0.060618 -0.121585
    56 -0.022360 -0.957436 0.018784 0.041446 0.000000 0.000000
    57 -1.180681 -2.507217 -0.193859 -1.063682 0.196299 -0.438881
    58 -0.024967 -1.123934 0.017597 -1.117804 0.000000 0.000001
    59 -0.020057 -0.890968 0.010090 -1.277757 0.000000 0.000000
    60 0.583510 -1.197277 0.185379 0.320488 -1.093714 -0.588318
    61 1.535927 0.010246 0.005009 -0.202424 0.318874 -0.881918
    62 1.100771 0.004527 -0.010679 -0.001993 0.016093 0.053594
    63 -0.055634 -0.124491 -0.210744 -2.785661 6.014089 -1.461755
    64 -8.079601 -8.301666 -6.935089 0.367072 -3.869228 1.492164
    65 -0.227285 -8.466044 0.162515 -0.360114 -0.264333 0.375056
    66 0.447953 -2.798986 -0.180911 -0.387796 -0.174621 0.516962
    67 -0.032909 -1.480204 0.004940 -0.303734 0.000000 0.000002
    68 -0.027022 -1.076920 -0.020210 -0.442189 0.000000 0.000000
    69 -0.233909 -2.694615 -0.205464 -0.054607 -0.126814 0.195378
    70 0.043235 -1.683941 0.096012 -0.313659 0.002823 -0.000167
    71 0.031729 -1.160830 0.058838 -0.428336 0.000642 0.008372
    72 -0.963866 -2.785145 -0.085350 0.012274 -0.027895 0.003349
    73 0.028479 -1.403067 0.006271 -0.265811 0.183077 0.042773
    74 0.021413 -0.957781 0.020046 -0.176337 0.000000 0.000000
    75 1.152756 -2.676757 -0.076577 -0.690482 -0.108892 0.746981
    76 0.024032 -1.129042 0.017807 0.002143 0.000000 0.000001
    77 0.014898 -0.883989 -0.019848 -0.250917 0.000000 0.000000
    78 -0.586770 -1.264477 0.200161 -0.130640 -0.676859 -2.532093
    79 1.522835 0.058681 0.016848 -0.290348 0.035662 0.493465
    80 1.117947 0.036705 -0.005766 -0.006918 -0.024227 0.336793
    81 0.028575 -0.142949 -0.071543 0.516229 0.213044 1.419678
    82 -1.030178 8.854803 -0.438658 1.479618 -0.035068 -1.607307
  time 10
    0 6.807263 -1.910215 -8.584320 -0.515195 0.191562 -1.083040
    1 8.145839 4.590644 -3.550745 0.626497 -2.325920 -0.999747
    2 0.086717 -8.504436 0.175817 0.157854 0.696210 -0.359592
    3 1.528851 -3.281721 0.999439 -0.079869 0.067558 2.744734
    4 7.746134 5.206047 -0.456794 -0.469928 3.034619 0.696538
    5 -2.625165 4.674701 0.765408 0.000000 0.000000 -1.328908
    6 -1.311576 -0.227769 0.008379 0.000000 0.000000 -2.370930
    7 -0.227452 0.993410 -0.125221 0.000002 0.000000 0.328627
    8 -2.081265 2.688989 0.787919 0.000000 0.000000 1.302003
    9 0.623961 -0.071477 -0.159128 -0.072266 -1.649371 -1.466928
    10 0.860823 -0.134316 -0.214431 -0.261605 -1.079347 -1.241239
    11 0.515580 -0.285767 -0.106987 0.079880 -1.421928 -1.576773
    12 0.753099 0.035823 -0.117582 0.097460 3.040203 -1.041579
    13 0.889303 0.128740 -0.157093 0.089454 3.041258 -0.786698
    14 0.670109 -0.030865 -0.108571 -0.026680 3.002335 -1.038975
    15 0.738763 -0.042325 -0.146042 -1.928521 -1.403192 0.535980
    16 0.870137 0.057177 -0.201678 -1.666927 -1.175652 0.301700
    17 1.062045 -0.138207 -0.177049 -1.475751 -0.019124 -0.540530
    18 -2.265002 2.578599 0.787919 0.000000 0.000000 1.812685
    19 0.200670 0.289140 -0.056458 2.453249 -1.410446 0.563952
    20 0.843839 -0.116268 -0.075904 -0.000001 0.000001 -1.258455
    21 0.021543 0.074143 0.036639 -1.182514 -1.198896 -1.984516
    22 0.414373 0.275285 -0.140914 -2.894009 -1.129448 -0.224688
    23 0.453303 0.042736 -0.116169 -1.570795 -1.076855 -1.570796
    24 0.782161 -0.046541 -0.132180 -2.461252 -1.158811 0.186510
    25 0.702022 -0.173587 -0.036117 -2.370066 -1.338876 -0.088271
    26 0.850847 0.020146 -0.207489 -2.840683 -0.551510 0.665737
    27 0.902524 -0.072410 -0.184876 0.000001 0.000000 -1.039098
    28 0.621568 0.226086 -0.246501 -2.863347 -0.673432 1.097702
    29 0.787038 -0.251779 -0.014078 -0.000002 0.000000 -1.461311
    30 -1.216720 5.267646 -0.124773 0.000000 0.000000 -1.425691
    31 -1.644238 2.515574 0.008543 0.000000 0.000000 1.812686
    32 -3.494950 -0.101669 0.264376 1.151737 -1.077653 2.566527
    33 2.999629 -0.724906 0.283512 -1.570796 -1.012197 -1.570797
    34 -2.445238 -0.724906 0.283513 -1.570796 -1.012197 -1.570797
    35 -3.494950 -0.101669 -0.267711 -1.151740 2.063940 -0.575069
    36 -2.760940 0.247806 0.000001 0.000000 0.000000 2.147990
    37 -2.125106 0.640933 -0.295102 -1.570796 2.259721 -1.570796
    38 -2.125106 0.496397 0.119886 1.570798 -0.881871 1.570796
    39 3.254364 0.496399 0.119884 1.570798 -0.881871 1.570796
    40 3.254364 0.640934 -0.295102 -1.570796 2.259721 -1.570796
    41 -0.173692 0.628514 0.000000 0.000000 0.000000 1.570796
    42 1.666187 0.117875 0.021793 -1.570797 -1.567539 -1.570735
    43 -0.382374 0.030911 1.370591 1.575570 -0.712376 1.560207
    44 -0.384060 -0.560770 1.326299 -1.570796 -0.661079 -1.574078
    45 -0.384081 -0.704360 -2.662615 -1.567782 0.710423 -1.569457
    46 -0.382441 -0.001274 -2.485083 1.570797 0.982831 1.567515
    47 1.081393 8.766491 -0.462316 -1.587556 -0.030011 -1.547512
    48 -0.488518 -2.755602 -0.228260 -0.915416 0.030346 -0.257527
    49 0.039887 -1.479790 0.029854 -1.670335 0.000000 0.000001
    50 0.028786 -1.075731 -0.023109 -0.970335 0.000000 0.000000
    51 0.250027 -2.820665 -0.238396 -0.763710 0.009903 -0.231033
    52 -0.049759 -1.680544 0.100479 -1.650429 0.000000 -0.000002
    53 -0.034142 -1.148312 0.084782 -1.218373 0.000000 0.000000
    54 0.957766 -2.746780 -0.090302 -0.098864 -0.180194 0.054035
    55 -0.033420 -1.397129 -0.011257 -0.190573 0.060618 -0.121585
    56 -0.022360 -0.957436 0.018784 0.041446 0.000000 0.000000
    57 -1.180681 -2.507217 -0.193859 -1.063682 0.196299 -0.438881
    58 -0.024967 -1.123934 0.017597 -1.117804 0.000000 0.000001
    59 -0.020057 -0.890968 0.010090 -1.277757 0.000000 0.000000
    60 0.583510 -1.197277 0.185379 0.320488 -1.093714 -0.588318
    61 1.535927 0.010246 0.005009 -0.202424 0.318874 -0.881918
    62 1.100771 0.004527 -0.010679 -0.001993 0.016093 0.053594
    63 -0.055634 -0.124491 -0.210744 -2.785661 6.014089 -1.461755
    64 -9.138227 -8.625895 -6.833523 -2.993227 -5.408661 -1.533127
    65 -0.227285 -8.466044 0.162515 -0.425629 -0.260178 0.314425
    66 0.447953 -2.798986 -0.180911 -0.295749 -0.205889 0.412504
    67 -0.032909 -1.480204 0.004940 -0.500613 0.000000 0.000002
    68 -0.027022 -1.076920 -0.020210 -0.553144 0.000000 0.000000
    69 -0.233909 -2.694615 -0.205464 -0.009110 -0.157363 0.124501
    70 0.043235 -1.683941 0.096012 -0.510572 0.002823 -0.000167
    71 0.031729 -1.160830 0.058838 -0.593528 0.000642 0.008372
    72 -0.963866 -2.785145 -0.085350 -0.003729 -0.029214 -0.051753
    73 0.028479 -1.403067 0.006271 -0.337196 0.135606 0.031687
    74 0.021413 -0.957781 0.020046 -0.176337 0.000000 0.000000
    75 1.152756 -2.676757 -0.076577 -0.572462 -0.208336 0.591960
    76 0.024032 -1.129042 0.017807 -0.194713 0.000000 0.000001
    77 0.014898 -0.883989 -0.019848 -0.361878 0.000000 0.000000
    78 -0.586770 -1.264477 0.200161 -0.091858 -0.687441 -2.594227
    79 1.522835 0.058681 0.016848 -0.285390 0.025097 0.501872
    80 1.117947 0.044518 -0.005766 -0.007626 -0.024035 0.364334
    81 0.044200 -0.142949 -0.079356 0.594393 0.218988 1.474672
    82 -1.030178 8.854803 -0.438658 1.479618 -0.035068 -1.607307
  time 11
    0 6.869765 -1.863338 -8.502286 -0.515195 0.191562 -1.083040
    1 8.087243 4.602363 -3.714813 0.626497 -2.325920 -0.999747
    2 0.086717 -8.504436 0.175817 0.169891 0.691165 -0.344179
    3 1.528851 -3.281721 0.999439 -0.079869 0.067558 2.744734
    4 9.242273 2.713784 1.082315 -0.207311 -3.095204 0.615387
    5 -2.625165 4.674701 0.765408 0.000000 0.000000 -1.328908
    6 -1.311576 -0.227769 0.008379 0.000000 0.000000 -2.370930
    7 -0.227452 0.993410 -0.125221 0.000002 0.000000 0.328627
    8 -2.081265 2.688989 0.787919 0.000000 0.000000 1.302003
    9 0.623961 -0.071477 -0.159128 -0.072266 -1.649371 -1.466928
    10 0.860823 -0.134316 -0.214431 -0.261605 -1.079347 -1.241239
    11 0.515580 -0.285767 -0.106987 0.079880 -1.421928 -1.576773
    12 0.753099 0.035823 -0.117582 0.097460 3.040203 -1.041579
    13 0.889303 0.128740 -0.157093 0.089454 3.041258 -0.786698
    14 0.670109 -0.030865 -0.108571 -0.026680 3.002335 -1.038975
    15 0.738763 -0.042325 -0.146042 -1.928521 -1.403192 0.535980
    16 0.870137 0.057177 -0.201678 -1.666927 -1.175652 0.301700
    17 1.062045 -0.138207 -0.177049 -1.475751 -0.019124 -0.540530
    18 -2.265002 2.578599 0.787919 0.000000 0.000000 1.812685
    19 0.200670 0.289140 -0.056458 2.453249 -1.410446 0.563952
    20 0.843839 -0.116268 -0.075904 -0.000001 0.000001 -1.258455
    21 0.021543 0.074143 0.036639 -1.182514 -1.198896 -1.984516
    22 0.414373 0.275285 -0.140914 -2.894009 -1.129448 -0.224688
    23 0.453303 0.042736 -0.116169 -1.570795 -1.076855 -1.570796
    24 0.782161 -0.046541 -0.132180 -2.461252 -1.158811 0.186510
    25 0.702022 -0.173587 -0.036117 -2.370066 -1.338876 -0.088271
    26 0.850847 0.020146 -0.207489 -2.840683 -0.551510 0.665737
    27 0.902524 -0.072410 -0.184876 0.000001 0.000000 -1.039098
    28 0.621568 0.226086 -0.246501 -2.863347 -0.673432 1.097702
    29 0.787038 -0.251779 -0.014078 -0.000002 0.000000 -1.461311
    30 -1.216720 5.267646 -0.124773 0.000000 0.000000 -1.425691
    31 -1.644238 2.515574 0.008543 0.000000 0.000000 1.812686
    32 -3.494950 -0.101669 0.264376 1.151737 -1.077653 2.566527
    33 2.999629 -0.724906 0.283512 -1.570796 -1.012197 -1.570797
    34 -2.445238 -0.724906 0.283513 -1.570796 -1.012197 -1.570797
    35 -3.494950 -0.101669 -0.267711 -1.151740 2.063940 -0.575069
    36 -2.760940 0.247806 0.000001 0.000000 0.000000 2.147990
    37 -2.125106 0.640933 -0.295102 1.570700 0.881913 1.570796
    38 -2.125106 0.496397 0.119886 1.570798 -0.881871 1.570796
    39 3.254364 0.496399 0.119884 1.570798 -0.881871 1.570796
    40 3.254364 0.640934 -0.295102 1.570700 0.881913 1.570796
    41 -0.173692 0.628514 0.000000 0.000000 0.000000 1.570796
    42 1.666187 0.117875 0.021793 -1.570869 -1.567539 -1.570687
    43 -0.382374 0.030911 1.370591 1.575570 -0.712376 1.560207
    44 -0.384060 -0.560770 1.326299 -1.570796 -0.661079 -1.574078
    45 -0.384081 -0.704360 -2.662615 -1.567782 0.710423 -1.569457
    46 -0.382441 -0.001274 -2.485083 1.570797 0.982831 1.567515
    47 1.081393 8.766491 -0.462316 -1.586729 -0.030167 -1.547512
    48 -0.488518 -2.755602 -0.228260 -0.915416 0.030346 -0.257527
    49 0.039887 -1.479790 0.029854 -1.670335 0.000000 0.000001
    50 0.028786 -1.075731 -0.023109 -0.970335 0.000000 0.000000
    51 0.250027 -2.820665 -0.238396 -0.763710 0.009903 -0.231033
    52 -0.049759 -1.680544 0.100479 -1.650429 0.000000 -0.000002
    53 -0.034142 -1.148312 0.084782 -1.218373 0.000000 0.000000
    54 0.957766 -2.746780 -0.090302 -0.098864 -0.180194 0.054035
    55 -0.033420 -1.397129 -0.011257 -0.190573 0.060618 -0.121585
    56 -0.022360 -0.957436 0.018784 0.041446 0.000000 0.000000
    57 -1.180681 -2.507217 -0.193859 -1.063682 0.196299 -0.438881
    58 -0.024967 -1.123934 0.017597 -1.117804 0.000000 0.000001
    59 -0.020057 -0.890968 0.010090 -1.277757 0.000000 0.000000
    60 0.583510 -1.197277 0.185379 0.320488 -1.093714 -0.588318
    61 1.535927 0.010246 0.005009 -0.202424 0.318874 -0.881918
    62 1.100771 0.004527 -0.010679 -0.001993 0.016093 0.053594
    63 -0.055634 -0.124491 -0.210744 -2.785661 6.014089 -1.461755
    64 -9.923407 -8.887621 -6.771021 -3.123949 -5.309824 -1.407962
    65 -0.227285 -8.466044 0.162515 -0.471964 -0.257407 0.271552
    66 0.447953 -2.798986 -0.180911 -0.186659 -0.263966 0.218522
    67 -0.032909 -1.480204 0.004940 -0.866322 0.000000 0.000002
    68 -0.027022 -1.076920 -0.020210 -0.759183 0.000000 0.000000
    69 -0.233909 -2.694615 -0.205464 0.041726 -0.190668 0.027210
    70 0.043235 -1.683941 0.096012 -0.876244 0.002823 -0.000167
    71 0.031729 -1.160830 0.058838 -0.900365 0.000642 0.008372
    72 -0.963866 -2.785145 -0.085350 -0.015040 -0.030161 -0.090724
    73 0.028479 -1.403067 0.006271 -0.469839 0.047459 0.011086
    74 0.021413 -0.957781 0.020046 -0.176337 0.000000 0.000000
    75 1.152756 -2.676757 -0.076577 -0.421743 -0.393035 0.304078
    76 0.024032 -1.129042 0.017807 -0.560397 0.000000 0.000001
    77 0.014898 -0.883989 -0.019848 -0.567956 0.000000 0.000000
    78 -0.586770 -1.264477 0.200161 -0.064571 -0.694680 -2.637759
    79 1.522835 0.058681 0.016848 -0.282777 0.017921 0.506382
    80 1.117947 0.048424 -0.005766 -0.008045 -0.023892 0.381236
    81 0.055919 -0.142949 -0.083262 0.649678 0.222152 1.513585
    82 -1.030178 8.854803 -0.438658 1.479618 -0.035068 -1.607307
  time 12
    0 6.897109 -1.851619 -8.459316 -0.515195 0.191562 -1.083040
    1 8.032554 4.617989 -3.867161 0.626497 -2.325920 -0.999747
    2 0.086717 -8.504436 0.175817 0.182673 0.689700 -0.328527
    3 1.528851 -3.281721 0.999439 -0.079869 0.067558 2.744734
    4 9.668068 1.678596 1.937810 -0.102540 -3.038059 0.563573
    5 -2.625165 4.674701 0.765408 0.000000 0.000000 -1.328908
    6 -1.311576 -0.227769 0.008379 0.000000 0.000000 -2.370930
    7 -0.227452 0.993410 -0.125221 0.000002 0.000000 0.328627
    8 -2.081265 2.688989 0.787919 0.000000 0.000000 1.302003
    9 0.623961 -0.071477 -0.159128 -0.072266 -1.649371 -1.466928
    10 0.860823 -0.134316 -0.214431 -0.261605 -1.079347 -1.241239
    11 0.515580 -0.285767 -0.106987 0.079880 -1.421928 -1.576773
    12 0.753099 0.035823 -0.117582 0.097460 3.040203 -1.041579
    13 0.889303 0.128740 -0.157093 0.089454 3.041258 -0.786698
    14 0.670109 -0.030865 -0.108571 -0.026680 3.002335 -1.038975
    15 0.738763 -0.042325 -0.146042 -1.928521 -1.403192 0.535980
    16 0.870137 0.057177 -0.201678 -1.666927 -1.175652 0.301700
    17 1.062045 -0.138207 -0.177049 -1.475751 -0.019124 -0.540530
    18 -2.265002 2.578599 0.787919 0.000000 0.000000 1.812685
    19 0.200670 0.289140 -0.056458 2.453249 -1.410446 0.563952
    20 0.843839 -0.116268 -0.075904 -0.000001 0.000001 -1.258455
    21 0.021543 0.074143 0.036639 -1.182514 -1.198896 -1.984516
    22 0.414373 0.275285 -0.140914 -2.894009 -1.129448 -0.224688
    23 0.453303 0.042736 -0.116169 -1.570795 -1.076855 -1.570796
    24 0.782161 -0.046541 -0.132180 -2.461252 -1.158811 0.186510
    25 0.702022 -0.173587 -0.036117 -2.370066 -1.338876 -0.088271
    26 0.850847 0.020146 -0.207489 -2.840683 -0.551510 0.665737
    27 0.902524 -0.072410 -0.184876 0.000001 0.000000 -1.039098
    28 0.621568 0.226086 -0.246501 -2.863347 -0.673432 1.097702
    29 0.787038 -0.251779 -0.014078 -0.000002 0.000000 -1.461311
    30 -1.216720 5.267646 -0.124773 0.000000 0.000000 -1.425691
    31 -1.644238 2.515574 0.008543 0.000000 0.000000 1.812686
    32 -3.494950 -0.101669 0.264376 1.151737 -1.077653 2.566527
    33 2.999629 -0.724906 0.283512 -1.570796 -1.012197 -1.570797
    34 -2.445238 -0.724906 0.283513 -1.570796 -1.012197 -1.570797
    35 -3.494950 -0.101669 -0.267711 -1.151740 2.063940 -0.575069
    36 -2.760940 0.247806 0.000001 0.000000 0.000000 2.147990
    37 -2.125106 0.640933 -0.295102 -1.570796 2.259721 -1.570796
    38 -2.125106 0.496397 0.119886 1.570798 -0.881871 1.570796
    39 3.254364 0.496399 0.119884 1.570798 -0.881871 1.570796
    40 3.254364 0.640934 -0.295102 -1.570796 2.259721 -1.570796
    41 -0.173692 0.628514 0.000000 0.000000 0.000000 1.570796
    42 1.666187 0.117875 0.021793 -1.570869 -1.567503 -1.570651
    43 -0.382374 0.030911 1.370591 1.575570 -0.712376 1.560207
    44 -0.384060 -0.560770 1.326299 -1.570796 -0.661079 -1.574078
    45 -0.384081 -0.704360 -2.662615 -1.567782 0.710423 -1.569457
    46 -0.382441 -0.001274 -2.485083 1.570797 0.982831 1.567515
    47 1.081393 8.766491 -0.462316 -1.586418 -0.030227 -1.547512
    48 -0.488518 -2.755602 -0.228260 -0.915416 0.030346 -0.257527
    49 0.039887 -1.479790 0.029854 -1.670335 0.000000 0.000001
    50 0.028786 -1.075731 -0.023109 -0.970335 0.000000 0.000000
    51 0.250027 -2.820665 -0.238396 -0.763710 0.009903 -0.231033
    52 -0.049759 -1.680544 0.100479 -1.650429 0.000000 -0.000002
    53 -0.034142 -1.148312 0.084782 -1.218373 0.000000 0.000000
    54 0.957766 -2.746780 -0.090302 -0.098864 -0.180194 0.054035
    55 -0.033420 -1.397129 -0.011257 -0.190573 0.060618 -0.121585
    56 -0.022360 -0.957436 0.018784 0.041446 0.000000 0.000000
    57 -1.180681 -2.507217 -0.193859 -1.063682 0.196299 -0.438881
    58 -0.024967 -1.123934 0.017597 -1.117804 0.000000 0.000001
    59 -0.020057 -0.890968 0.010090 -1.277757 0.000000 0.000000
    60 0.583510 -1.197277 0.185379 0.320488 -1.093714 -0.588318
    61 1.535927 0.010246 0.005009 -0.202424 0.318874 -0.881918
    62 1.100771 0.004527 -0.010679 -0.001993 0.016093 0.053594
    63 -0.055634 -0.124491 -0.210744 -2.785661 6.014089 -1.461755
    64 -10.255449 -9.055595 -6.747583 3.112241 -5.279869 -1.349952
    65 -0.227285 -8.466044 0.162515 -0.489545 -0.256384 0.255297
    66 0.447953 -2.798986 -0.180911 -0.133976 -0.295234 0.114064
    67 -0.032909 -1.480204 0.004940 -1.063254 0.000000 0.000002
    68 -0.027022 -1.076920 -0.020210 -0.870138 0.000000 0.000000
    69 -0.233909 -2.694615 -0.205464 0.065789 -0.206308 -0.021807
    70 0.043235 -1.683941 0.096012 -1.073156 0.002823 -0.000167
    71 0.031729 -1.160830 0.058838 -1.065608 0.000642 0.008372
    72 -0.963866 -2.785145 -0.085350 -0.019314 -0.030520 -0.105503
    73 0.028479 -1.403067 0.006271 -0.541224 0.000000 0.000000
    74 0.021413 -0.957781 0.020046 -0.176337 0.000000 0.000000
    75 1.152756 -2.676757 -0.076577 -0.347277 -0.492494 0.149058
    76 0.024032 -1.129042 0.017807 -0.757341 0.000000 0.000001
    77 0.014898 -0.883989 -0.019848 -0.678918 0.000000 0.000000
    78 -0.586770 -1.264477 0.200161 -0.054246 -0.697364 -2.654193
    79 1.522835 0.058681 0.016848 -0.282018 0.015271 0.507705
    80 1.117947 0.048424 -0.005766 -0.008189 -0.023832 0.386989
    81 0.059826 -0.142949 -0.087169 0.670651 0.223087 1.528339
    82 -1.030178 8.854803 -0.438658 1.479618 -0.035068 -1.607307
end
