version 1
nodes
  0 "Bone01" -1
  1 "Bone_Lefthand" 0
  2 "bone_handle01" 1
  3 "bone_trogger01" 2
  4 "bone_load01" 2
  5 "Bone25" 4
  6 "bone_megazine01" 2
  7 "bone_megazine02" 6
  8 "Bone12" 2
  9 "Bone16" 8
  10 "Bone30" 9
  11 "Bone02" 2
  12 "Bone03" 11
  13 "Bone20" 12
  14 "Bone24" 9
  15 "Bone08" 12
  16 "Bone04" -1
  17 "Bone_Righthand" 16
  18 "Bone39" 17
  19 "Bone40" 18
  20 "Bone41" 19
  21 "Bone35" 17
  22 "Bone36" 21
  23 "Bone37" 22
  24 "Bone31" 17
  25 "Bone32" 24
  26 "Bone33" 25
  27 "Bone43" 17
  28 "Bone44" 27
  29 "Bone45" 28
  30 "Bone27" 17
  31 "Bone28" 30
  32 "Bone29" 31
  33 "Bone_Se_Hand-R" 17
  34 "Bone13" 1
  35 "Bone14" 34
  36 "Bone15" 35
  37 "Bone17" 1
  38 "Bone18" 37
  39 "Bone19" 38
  40 "Bone21" 1
  41 "Bone22" 40
  42 "Bone23" 41
  43 "Bone09" 1
  44 "Bone10" 43
  45 "Bone11" 44
  46 "Bone05" 1
  47 "Bone06" 46
  48 "Bone07" 47
  49 "Bone_Se_Hand-L" 1
end
skeleton
  time 0
    0 10.548936 -2.831405 -11.305989 -2.104575 -0.770321 1.482286
    1 -0.071918 -8.498730 -0.104137 0.317473 0.470617 -0.640833
    2 1.666715 -2.907800 0.634356 -0.234317 0.084965 2.796590
    3 0.037088 1.836797 0.000000 0.000000 0.000000 0.679463
    4 -1.699721 2.222294 0.000422 0.000000 0.000000 -1.282538
    5 0.757016 0.138656 0.000000 0.000000 0.000000 -1.570796
    6 -0.489117 10.226310 1.194556 0.000000 0.000000 -1.282132
    7 1.189390 -0.918511 -1.194556 0.000000 0.000000 0.003685
    8 -6.011924 16.671375 5.900704 1.570796 -0.785398 -1.276283
    9 6.000000 -0.000002 0.000000 0.000000 0.000000 0.000000
    10 5.375443 -2.719460 -0.072982 0.012668 -0.000503 -1.901944
    11 -6.011848 16.671131 -5.947225 1.570797 0.785398 -1.276283
    12 5.999999 0.000002 0.000000 0.000000 0.000000 0.000000
    13 5.374880 2.719334 -0.072983 0.017897 -0.000501 1.903467
    14 3.890570 -1.778536 -0.095853 -0.005816 0.000000 -2.439604
    15 3.876997 1.784214 -0.095853 0.000000 0.000000 2.439367
    16 -0.726382 -15.457068 -14.470910 -1.156623 -5.590453 -0.110758
    17 0.096944 -8.450419 -0.009364 -0.005970 -0.540417 0.157854
    18 0.447952 -2.798982 -0.200442 -1.014489 0.150910 0.644051
    19 -0.032910 -1.480206 0.004936 -1.431587 0.000000 0.000002
    20 -0.027022 -1.076919 -0.020212 -0.473979 0.000000 0.000000
    21 -0.249534 -2.846962 -0.174215 -0.473080 0.210085 0.362128
    22 0.043235 -1.683939 0.096014 -1.793929 0.002823 -0.000167
    23 0.031729 -1.160831 0.058836 -0.335972 0.000642 0.008372
    24 -0.963866 -2.785142 -0.085346 -0.609797 0.267585 0.317863
    25 0.028479 -1.403068 0.006271 -1.150412 0.000000 0.000000
    26 0.021413 -0.957782 0.020047 -0.616018 0.000000 0.000000
    27 1.164474 -2.543938 -0.170328 -0.983966 0.070580 0.675853
    28 0.024032 -1.129043 0.017806 -1.337944 0.000000 0.000001
    29 0.014896 -0.883989 -0.019845 -0.672931 0.000000 0.000000
    30 -0.586770 -1.264475 0.200164 -0.186364 -1.053830 -3.148929
    31 1.522835 0.058681 0.016850 0.035029 0.111357 0.871415
    32 1.117948 0.048424 -0.005764 -0.015320 -0.019661 0.717991
    33 -0.057365 -0.119510 0.041742 0.574644 0.064105 1.500021
    34 -0.488517 -2.755600 -0.228261 -0.619222 -0.044186 -0.439117
    35 0.039888 -1.479789 0.029853 -2.158257 0.000000 0.000000
    36 0.028785 -1.075730 -0.023111 -0.647509 0.000000 0.000000
    37 0.250028 -2.820663 -0.238396 -0.535674 0.054413 -0.329163
    38 -0.049759 -1.680545 0.100480 -1.871490 0.000000 -0.000002
    39 -0.034141 -1.148312 0.084779 -1.387517 0.000000 0.000000
    40 0.957766 -2.746776 -0.090301 0.225143 -0.058359 -0.193630
    41 -0.033419 -1.397129 -0.011255 -0.184011 -0.032275 -0.008534
    42 -0.022361 -0.957434 0.018783 0.003845 0.000000 0.000000
    43 -1.180680 -2.507215 -0.193861 -0.379706 0.103261 -0.518998
    44 -0.024966 -1.123934 0.017594 -2.136747 0.000000 0.000001
    45 -0.020057 -0.890966 0.010091 -0.896554 0.000000 0.000000
    46 0.583510 -1.197274 0.185377 0.220453 -0.870283 -0.672925
    47 1.535926 0.010245 0.005008 -0.063786 0.310988 -1.032101
    48 1.100770 0.004526 -0.010676 -0.009999 0.012761 -0.488505
    49 0.006867 -0.065891 -0.085739 -2.852831 -0.015617 -1.424341
  time 1
    0 10.548936 -2.831405 -11.305989 -2.104575 -0.770321 1.482286
    1 -0.071918 -8.498730 -0.104137 0.317473 0.470617 -0.640833
    2 1.666715 -2.907800 0.634356 -0.234317 0.084965 2.796590
    3 0.037088 1.836797 0.000000 0.000000 0.000000 0.679463
    4 -1.699721 2.222294 0.000422 0.000000 0.000000 -1.282538
    5 0.757016 0.138656 0.000000 0.000000 0.000000 -1.570796
    6 -0.489117 10.226310 1.194556 0.000000 0.000000 -1.282132
    7 1.189390 -0.918511 -1.194556 0.000000 0.000000 0.003685
    8 -6.011924 16.671375 5.900704 1.570796 -0.785398 -1.276283
    9 6.000000 -0.000002 0.000000 0.000000 0.000000 0.000000
    10 5.375443 -2.719460 -0.072982 0.012668 -0.000503 -1.901944
    11 -6.011848 16.671131 -5.947225 1.570797 0.785398 -1.276283
    12 5.999999 0.000002 0.000000 0.000000 0.000000 0.000000
    13 5.374880 2.719334 -0.072983 0.017897 -0.000501 1.903467
    14 3.890570 -1.778536 -0.095853 -0.005816 0.000000 -2.439604
    15 3.876997 1.784214 -0.095853 0.000000 0.000000 2.439367
    16 -0.726382 -15.457068 -14.470910 -1.156623 -5.590453 -0.110758
    17 0.096944 -8.450419 -0.009364 -0.005970 -0.540417 0.157854
    18 0.447952 -2.798982 -0.200442 -1.014489 0.150910 0.644051
    19 -0.032910 -1.480206 0.004936 -1.431587 0.000000 0.000002
    20 -0.027022 -1.076919 -0.020212 -0.473979 0.000000 0.000000
    21 -0.249534 -2.846962 -0.174215 -0.473080 0.210085 0.362128
    22 0.043235 -1.683939 0.096014 -1.793929 0.002823 -0.000167
    23 0.031729 -1.160831 0.058836 -0.335972 0.000642 0.008372
    24 -0.963866 -2.785142 -0.085346 -0.609797 0.267585 0.317863
    25 0.028479 -1.403068 0.006271 -1.150412 0.000000 0.000000
    26 0.021413 -0.957782 0.020047 -0.616018 0.000000 0.000000
    27 1.164474 -2.543938 -0.170328 -0.983966 0.070580 0.675853
    28 0.024032 -1.129043 0.017806 -1.337944 0.000000 0.000001
    29 0.014896 -0.883989 -0.019845 -0.672931 0.000000 0.000000
    30 -0.586770 -1.264475 0.200164 -0.186364 -1.053830 -3.148929
    31 1.522835 0.058681 0.016850 0.035029 0.111357 0.871415
    32 1.117948 0.048424 -0.005764 -0.015320 -0.019661 0.717991
    33 -0.057365 -0.119510 0.041742 0.574644 0.064105 1.500021
    34 -0.488517 -2.755600 -0.228261 -0.619222 -0.044186 -0.439117
    35 0.039888 -1.479789 0.029853 -2.158257 0.000000 0.000000
    36 0.028785 -1.075730 -0.023111 -0.647509 0.000000 0.000000
    37 0.250028 -2.820663 -0.238396 -0.535674 0.054413 -0.329163
    38 -0.049759 -1.680545 0.100480 -1.871490 0.000000 -0.000002
    39 -0.034141 -1.148312 0.084779 -1.387517 0.000000 0.000000
    40 0.957766 -2.746776 -0.090301 0.225143 -0.058359 -0.193630
    41 -0.033419 -1.397129 -0.011255 -0.184011 -0.032275 -0.008534
    42 -0.022361 -0.957434 0.018783 0.003845 0.000000 0.000000
    43 -1.180680 -2.507215 -0.193861 -0.379706 0.103261 -0.518998
    44 -0.024966 -1.123934 0.017594 -2.136747 0.000000 0.000001
    45 -0.020057 -0.890966 0.010091 -0.896554 0.000000 0.000000
    46 0.583510 -1.197274 0.185377 0.220453 -0.870283 -0.672925
    47 1.535926 0.010245 0.005008 -0.063786 0.310988 -1.032101
    48 1.100770 0.004526 -0.010676 -0.009999 0.012761 -0.488505
    49 0.006867 -0.065891 -0.085739 -2.852831 -0.015617 -1.424341
end
