version 1
nodes
  0 "root" -1
  1 "Bone04" 0
  2 "Bone_Righthand" 1
  3 "root_tomahawk" 2
  4 "Bone01" 0
  5 "Bone_Lefthand" 4
  6 "Bone13" 5
  7 "Bone14" 6
  8 "Bone15" 7
  9 "Bone17" 5
  10 "Bone18" 9
  11 "Bone19" 10
  12 "Bone21" 5
  13 "Bone22" 12
  14 "Bone23" 13
  15 "Bone09" 5
  16 "Bone10" 15
  17 "Bone11" 16
  18 "Bone05" 5
  19 "Bone06" 18
  20 "Bone07" 19
  21 "Bone_Se_Hand-L" 5
  22 "Bone39" 2
  23 "Bone40" 22
  24 "Bone41" 23
  25 "Bone35" 2
  26 "Bone36" 25
  27 "Bone37" 26
  28 "Bone31" 2
  29 "Bone32" 28
  30 "Bone33" 29
  31 "Bone43" 2
  32 "Bone44" 31
  33 "Bone45" 32
  34 "Bone27" 2
  35 "Bone28" 34
  36 "Bone29" 35
  37 "Bone_Se_Hand-R" 2
end
skeleton
  time 0
    0 0.000114 5.939355 -3.518793 0.000000 0.000000 -0.000030
    1 -15.338106 -12.755247 -17.738536 -0.412173 -4.211324 0.658168
    2 0.096944 -8.450418 -0.009364 -0.084084 -0.017857 0.614641
    3 1.075543 -2.255324 0.791183 0.071865 3.247478 0.282745
    4 11.801470 -8.214074 -11.546658 6.028644 -2.546106 0.026080
    5 -0.071919 -8.498733 -0.104137 -0.089350 0.256048 -0.169797
    6 -0.488517 -2.755600 -0.228261 -0.421388 0.037645 -0.287536
    7 0.039887 -1.479789 0.029853 -0.679640 0.000000 0.000000
    8 0.028785 -1.075730 -0.023111 -0.577628 0.000000 0.000001
    9 0.250028 -2.820663 -0.238396 -0.193038 -0.018453 -0.128421
    10 -0.049759 -1.680545 0.100480 -0.747290 0.000000 -0.000002
    11 -0.034141 -1.148311 0.084779 -0.466792 0.000000 0.000000
    12 0.957766 -2.746777 -0.090301 -0.044927 -0.162565 -0.001658
    13 -0.033419 -1.397127 -0.011255 -0.453734 0.000000 -0.000001
    14 -0.022360 -0.957435 0.018783 -0.408352 0.000000 0.000000
    15 -1.180680 -2.507215 -0.193861 -0.456869 0.122928 -0.318014
    16 -0.024966 -1.123933 0.017594 -0.612659 0.000000 0.000001
    17 -0.020057 -0.890966 0.010091 -0.530061 0.000000 0.000000
    18 0.583510 -1.197274 0.185377 0.457472 -0.643095 -0.660627
    19 1.535926 0.010245 0.005008 -0.225913 -0.250238 -0.465271
    20 1.100770 0.004527 -0.010676 -0.005984 0.015074 -0.201936
    21 0.120152 -0.050266 -0.054488 0.287568 3.110905 1.561085
    22 0.447952 -2.798983 -0.200442 -1.180010 0.239639 0.248507
    23 -0.032910 -1.480207 0.004936 -1.668858 0.000000 0.000002
    24 -0.027022 -1.076920 -0.020212 -1.015864 0.000000 0.000000
    25 -0.249534 -2.846962 -0.174216 -1.033989 0.218845 0.164949
    26 0.043235 -1.683940 0.096014 -1.738499 0.002823 -0.000167
    27 0.031730 -1.160831 0.058836 -1.160052 0.000642 0.008372
    28 -0.963866 -2.785142 -0.085346 -0.754276 0.267860 0.066916
    29 0.028479 -1.403069 0.006271 -1.364513 0.000000 0.000000
    30 0.021413 -0.957782 0.020047 -0.740299 0.000000 0.000000
    31 1.164475 -2.543938 -0.170328 -0.862951 0.065073 0.386604
    32 0.024033 -1.129041 0.017806 -1.702787 0.000000 0.000001
    33 0.014896 -0.883990 -0.019845 -0.853439 0.000000 0.000000
    34 -0.586770 -1.264475 0.200164 -0.446649 -1.113739 -2.509270
    35 1.522835 0.058681 0.016850 0.627276 -0.441885 0.679146
    36 1.117948 0.048424 -0.005764 -0.016278 0.004644 1.437277
    37 0.079358 -0.123416 -0.055918 0.244227 0.157567 1.472128
  time 1
    0 0.000114 5.939355 -3.522699 0.000000 0.000000 -0.000030
    1 -15.338106 -12.755247 -16.976794 -0.412173 -4.211324 0.658168
    2 0.096944 -8.450418 -0.009364 -0.125683 -0.043693 0.481104
    3 1.075543 -2.255324 0.791183 0.071865 3.247478 0.282745
    4 12.379612 -8.214074 -10.968515 6.123384 -2.758630 -0.108158
    5 -0.071919 -8.498733 -0.104137 -0.088740 0.271611 -0.169269
    6 -0.488517 -2.755600 -0.228261 -0.424426 0.037645 -0.287536
    7 0.039887 -1.479789 0.029853 -0.666810 0.000000 0.000000
    8 0.028785 -1.075730 -0.023111 -0.567740 0.000000 0.000001
    9 0.250028 -2.820663 -0.238396 -0.195976 -0.018453 -0.128421
    10 -0.049759 -1.680545 0.100480 -0.738946 0.000000 -0.000002
    11 -0.034141 -1.148311 0.084779 -0.460169 0.000000 0.000000
    12 0.957766 -2.746777 -0.090301 -0.048249 -0.162565 -0.001658
    13 -0.033419 -1.397127 -0.011255 -0.446797 0.000000 -0.000001
    14 -0.022360 -0.957435 0.018783 -0.390664 0.000000 0.000000
    15 -1.180680 -2.507215 -0.193861 -0.459934 0.122928 -0.318014
    16 -0.024966 -1.123933 0.017594 -0.602083 0.000000 0.000001
    17 -0.020057 -0.890966 0.010091 -0.519425 0.000000 0.000000
    18 0.583510 -1.197274 0.185377 0.458131 -0.642651 -0.661748
    19 1.535926 0.010245 0.005008 -0.225829 -0.246834 -0.468748
    20 1.100770 0.004527 -0.010676 -0.005984 0.015074 -0.201936
    21 0.120152 -0.050266 -0.054488 0.287568 3.110905 1.561085
    22 0.447952 -2.798983 -0.200442 -0.983273 0.239339 0.270571
    23 -0.032910 -1.480207 0.004936 -1.431421 0.000000 0.000002
    24 -0.027022 -1.076920 -0.020212 -0.883085 0.000000 0.000000
    25 -0.249534 -2.846962 -0.174216 -0.848277 0.218282 0.175831
    26 0.043235 -1.683940 0.096014 -1.486247 0.002823 -0.000167
    27 0.031730 -1.160831 0.058836 -1.002160 0.000642 0.008372
    28 -0.963866 -2.785142 -0.085346 -0.588701 0.267860 0.066916
    29 0.028479 -1.403069 0.006271 -1.167044 0.000000 0.000000
    30 0.021413 -0.957782 0.020047 -0.645077 0.000000 0.000000
    31 1.164475 -2.543938 -0.170328 -0.716502 0.072540 0.388654
    32 0.024033 -1.129041 0.017806 -1.477854 0.000000 0.000001
    33 0.014896 -0.883990 -0.019845 -0.747268 0.000000 0.000000
    34 -0.586770 -1.264475 0.200164 -0.304476 -1.009805 -2.612122
    35 1.522835 0.058681 0.016850 0.524496 -0.381534 0.628161
    36 1.117948 0.048424 -0.005764 -0.020725 -0.002367 1.198754
    37 0.079358 -0.123416 -0.055918 0.245162 0.132843 1.485557
  time 2
    0 0.000114 5.939355 -3.530512 0.000000 0.000000 -0.000030
    1 -15.338106 -12.755247 -15.004078 -0.412173 -4.211324 0.658168
    2 0.096944 -8.450418 -0.009364 -0.195089 -0.079257 0.230609
    3 1.075543 -2.255324 0.791183 0.071865 3.247478 0.282745
    4 13.481208 -8.214074 -9.527065 6.191685 -2.967136 -0.213948
    5 -0.071919 -8.498733 -0.104137 -0.087710 0.295498 -0.168358
    6 -0.488517 -2.755600 -0.228261 -0.429163 0.037645 -0.287536
    7 0.039887 -1.479789 0.029853 -0.647166 0.000000 0.000000
    8 0.028785 -1.075730 -0.023111 -0.552545 0.000000 0.000001
    9 0.250028 -2.820663 -0.238396 -0.200594 -0.018453 -0.128421
    10 -0.049759 -1.680545 0.100480 -0.726068 0.000000 -0.000002
    11 -0.034141 -1.148311 0.084779 -0.450013 0.000000 0.000000
    12 0.957766 -2.746777 -0.090301 -0.053424 -0.162565 -0.001658
    13 -0.033419 -1.397127 -0.011255 -0.436068 0.000000 -0.000001
    14 -0.022360 -0.957435 0.018783 -0.363520 0.000000 0.000000
    15 -1.180680 -2.507215 -0.193861 -0.464744 0.122928 -0.318014
    16 -0.024966 -1.123933 0.017594 -0.585832 0.000000 0.000001
    17 -0.020057 -0.890966 0.010091 -0.503031 0.000000 0.000000
    18 0.583510 -1.197274 0.185377 0.459174 -0.641944 -0.663498
    19 1.535926 0.010245 0.005008 -0.225698 -0.241477 -0.474188
    20 1.100770 0.004527 -0.010676 -0.005984 0.015074 -0.201936
    21 0.120152 -0.050266 -0.054488 0.287568 3.110905 1.561085
    22 0.447952 -2.798983 -0.200442 -0.550577 0.238704 0.319085
    23 -0.032910 -1.480207 0.004936 -0.908933 0.000000 0.000002
    24 -0.027022 -1.076920 -0.020212 -0.590936 0.000000 0.000000
    25 -0.249534 -2.846962 -0.174216 -0.439682 0.217048 0.199788
    26 0.043235 -1.683940 0.096014 -0.931302 0.002823 -0.000167
    27 0.031730 -1.160831 0.058836 -0.654866 0.000642 0.008372
    28 -0.963866 -2.785142 -0.085346 -0.224416 0.267860 0.066916
    29 0.028479 -1.403069 0.006271 -0.732562 0.000000 0.000000
    30 0.021413 -0.957782 0.020047 -0.435626 0.000000 0.000000
    31 1.164475 -2.543938 -0.170328 -0.394333 0.088947 0.393148
    32 0.024033 -1.129041 0.017806 -0.983000 0.000000 0.000001
    33 0.014896 -0.883990 -0.019845 -0.513689 0.000000 0.000000
    34 -0.586770 -1.264475 0.200164 -0.066414 -0.773114 -2.761390
    35 1.522835 0.058681 0.016850 0.298537 -0.248807 0.515753
    36 1.117948 0.048424 -0.005764 -0.026178 -0.015287 0.673810
    37 0.079358 -0.123416 -0.052011 0.247774 0.073663 1.518453
  time 3
    0 0.000114 5.939355 -3.534418 0.000000 0.000000 -0.000030
    1 -15.338106 -12.755247 -12.308683 -0.412173 -4.211324 0.658168
    2 0.096944 -8.450418 -0.009364 -0.229404 -0.091123 0.094604
    3 1.075543 -2.255324 0.791183 0.071865 3.247478 0.282745
    4 14.828906 -8.214074 -7.652008 6.240252 3.127085 -0.296414
    5 -0.071919 -8.498733 -0.104137 -0.086314 0.326096 -0.167016
    6 -0.488517 -2.755600 -0.228261 -0.435375 0.037645 -0.287536
    7 0.039887 -1.479789 0.029853 -0.621976 0.000000 0.000000
    8 0.028785 -1.075730 -0.023111 -0.533086 0.000000 0.000001
    9 0.250028 -2.820663 -0.238396 -0.206656 -0.018453 -0.128421
    10 -0.049759 -1.680545 0.100480 -0.709684 0.000000 -0.000002
    11 -0.034141 -1.148311 0.084779 -0.436971 0.000000 0.000000
    12 0.957766 -2.746777 -0.090301 -0.060149 -0.162565 -0.001658
    13 -0.033419 -1.397127 -0.011255 -0.422380 0.000000 -0.000001
    14 -0.022360 -0.957435 0.018783 -0.328777 0.000000 0.000000
    15 -1.180680 -2.507215 -0.193861 -0.471015 0.122928 -0.318014
    16 -0.024966 -1.123933 0.017594 -0.565021 0.000000 0.000001
    17 -0.020057 -0.890966 0.010091 -0.482067 0.000000 0.000000
    18 0.583510 -1.197274 0.185377 0.460528 -0.641010 -0.665786
    19 1.535926 0.010245 0.005008 -0.225530 -0.234454 -0.481318
    20 1.100770 0.004527 -0.010676 -0.005984 0.015074 -0.201936
    21 0.120152 -0.050266 -0.054488 0.287568 3.110905 1.561085
    22 0.447952 -2.798983 -0.200442 -0.118117 0.238093 0.367538
    23 -0.032910 -1.480207 0.004936 -0.386494 0.000000 0.000002
    24 -0.027022 -1.076920 -0.020212 -0.298817 0.000000 0.000000
    25 -0.249534 -2.846962 -0.174216 -0.031121 0.215825 0.223746
    26 0.043235 -1.683940 0.096014 -0.376303 0.002823 -0.000167
    27 0.031730 -1.160831 0.058836 -0.307538 0.000642 0.008372
    28 -0.963866 -2.785142 -0.085346 0.139824 0.267860 0.066916
    29 0.028479 -1.403069 0.006271 -0.298122 0.000000 0.000000
    30 0.021413 -0.957782 0.020047 -0.226175 0.000000 0.000000
    31 1.164475 -2.543938 -0.170328 -0.072135 0.105353 0.397654
    32 0.024033 -1.129041 0.017806 -0.488146 0.000000 0.000001
    33 0.014896 -0.883990 -0.019845 -0.280109 0.000000 0.000000
    34 -0.586770 -1.264475 0.200164 0.125675 -0.530994 -2.861545
    35 1.522835 0.058681 0.016850 0.072655 -0.116161 0.403081
    36 1.117948 0.048424 -0.005764 -0.027688 -0.022681 0.148698
    37 0.075451 -0.123416 -0.052011 0.251669 0.002510 1.559602
  time 4
    0 0.000114 5.939355 -3.542231 0.000000 0.000000 -0.000030
    1 -15.338106 -12.755247 -9.375000 -0.412173 -4.211324 0.658168
    2 0.096944 -8.450418 -0.009364 -0.220748 -0.077535 0.102285
    3 1.075543 -2.255324 0.791183 0.071865 3.247478 0.282745
    4 16.137539 -8.214074 -5.776951 6.275696 2.973096 -0.360970
    5 -0.071919 -8.498733 -0.104137 -0.084525 0.361697 -0.165218
    6 -0.488517 -2.755600 -0.228261 -0.442837 0.037645 -0.287536
    7 0.039887 -1.479789 0.029853 -0.592698 0.000000 0.000000
    8 0.028785 -1.075730 -0.023111 -0.510452 0.000000 0.000001
    9 0.250028 -2.820663 -0.238396 -0.213955 -0.018453 -0.128421
    10 -0.049759 -1.680545 0.100480 -0.690518 0.000000 -0.000002
    11 -0.034141 -1.148311 0.084779 -0.421856 0.000000 0.000000
    12 0.957766 -2.746777 -0.090301 -0.068163 -0.162565 -0.001658
    13 -0.033419 -1.397127 -0.011255 -0.406472 0.000000 -0.000001
    14 -0.022360 -0.957435 0.018783 -0.288337 0.000000 0.000000
    15 -1.180680 -2.507215 -0.193861 -0.478560 0.122928 -0.318014
    16 -0.024966 -1.123933 0.017594 -0.540814 0.000000 0.000001
    17 -0.020057 -0.890966 0.010091 -0.457674 0.000000 0.000000
    18 0.583510 -1.197274 0.185377 0.462158 -0.639895 -0.668538
    19 1.535926 0.010245 0.005008 -0.225326 -0.226029 -0.489863
    20 1.100770 0.004527 -0.010676 -0.005984 0.015074 -0.201936
    21 0.120152 -0.050266 -0.054488 0.287568 3.110905 1.561085
    22 0.447952 -2.798983 -0.200442 0.078384 0.237841 0.389530
    23 -0.032910 -1.480207 0.004936 -0.149009 0.000000 0.000002
    24 -0.027022 -1.076920 -0.020212 -0.166007 0.000000 0.000000
    25 -0.249534 -2.846962 -0.174216 0.154559 0.215274 0.234628
    26 0.043235 -1.683940 0.096014 -0.124050 0.002823 -0.000167
    27 0.031730 -1.160831 0.058836 -0.149680 0.000642 0.008372
    28 -0.963866 -2.785142 -0.085346 0.305422 0.267860 0.066916
    29 0.028479 -1.403069 0.006271 -0.100611 0.000000 0.000000
    30 0.021413 -0.957782 0.020047 -0.130976 0.000000 0.000000
    31 1.164475 -2.543938 -0.170328 0.074343 0.112808 0.399704
    32 0.024033 -1.129041 0.017806 -0.263213 0.000000 0.000001
    33 0.014896 -0.883990 -0.019845 -0.173914 0.000000 0.000000
    34 -0.586770 -1.264475 0.200164 0.205588 -0.419934 -2.898661
    35 1.522835 0.058681 0.016850 -0.029972 -0.055907 0.351785
    36 1.117948 0.048424 -0.005764 -0.027951 -0.023820 -0.089951
    37 0.071545 -0.119510 -0.052011 0.255804 -0.058072 1.597609
  time 5
    0 0.000114 5.939355 -3.546137 0.000000 0.000000 -0.000030
    1 -15.338106 -12.755247 -6.679605 -0.412173 -4.211324 0.658168
    2 0.096944 -8.450418 -0.009364 -0.197037 -0.040248 0.123000
    3 1.075543 -2.255324 0.791183 0.071865 3.247478 0.282745
    4 17.129757 -8.214074 -4.335500 0.021520 2.869417 -0.412857
    5 -0.071919 -8.498733 -0.104137 -0.082370 0.400661 -0.162929
    6 -0.488517 -2.755600 -0.228261 -0.451283 0.037645 -0.287536
    7 0.039887 -1.479789 0.029853 -0.560693 0.000000 0.000000
    8 0.028785 -1.075730 -0.023111 -0.485732 0.000000 0.000001
    9 0.250028 -2.820663 -0.238396 -0.222233 -0.018453 -0.128421
    10 -0.049759 -1.680545 0.100480 -0.669599 0.000000 -0.000002
    11 -0.034141 -1.148311 0.084779 -0.405281 0.000000 0.000000
    12 0.957766 -2.746777 -0.090301 -0.077123 -0.162565 -0.001658
    13 -0.033419 -1.397127 -0.011255 -0.389038 0.000000 -0.000001
    14 -0.022360 -0.957435 0.018783 -0.244098 0.000000 0.000000
    15 -1.180680 -2.507215 -0.193861 -0.487048 0.122928 -0.318014
    16 -0.024966 -1.123933 0.017594 -0.514328 0.000000 0.000001
    17 -0.020057 -0.890966 0.010091 -0.430996 0.000000 0.000000
    18 0.583510 -1.197274 0.185377 0.464004 -0.638613 -0.671649
    19 1.535926 0.010245 0.005008 -0.225098 -0.216465 -0.499551
    20 1.100770 0.004527 -0.010676 -0.005984 0.015074 -0.201936
    21 0.120152 -0.050266 -0.054488 0.287568 3.110905 1.561085
    22 0.447952 -2.798983 -0.200442 0.060049 0.237865 0.387481
    23 -0.032910 -1.480207 0.004936 -0.171167 0.000000 0.000002
    24 -0.027022 -1.076920 -0.020212 -0.178403 0.000000 0.000000
    25 -0.249534 -2.846962 -0.174216 0.137222 0.215334 0.233609
    26 0.043235 -1.683940 0.096014 -0.147607 0.002823 -0.000167
    27 0.031730 -1.160831 0.058836 -0.164410 0.000642 0.008372
    28 -0.963866 -2.785142 -0.085346 0.289969 0.267860 0.066916
    29 0.028479 -1.403069 0.006271 -0.119037 0.000000 0.000000
    30 0.021413 -0.957782 0.020047 -0.139856 0.000000 0.000000
    31 1.164475 -2.543938 -0.170328 0.060688 0.112113 0.399512
    32 0.024033 -1.129041 0.017806 -0.284190 0.000000 0.000001
    33 0.014896 -0.883990 -0.019845 -0.183832 0.000000 0.000000
    34 -0.586770 -1.264475 0.200164 0.198266 -0.430321 -2.895353
    35 1.522835 0.058681 0.016850 -0.020403 -0.061521 0.356571
    36 1.117948 0.048424 -0.005764 -0.027927 -0.023772 -0.067677
    37 0.063732 -0.119510 -0.048105 0.258740 -0.085600 1.620993
  time 6
    0 0.000114 5.939355 -3.553950 0.000000 0.000000 -0.000030
    1 -15.338106 -12.755247 -4.706889 -0.412173 -4.211324 0.658168
    2 0.096944 -8.450418 -0.009364 -0.161681 0.015698 0.153065
    3 1.075543 -2.255324 0.791183 0.071865 3.247478 0.282745
    4 17.524300 -8.214074 -3.761264 0.050546 2.831350 -0.457315
    5 -0.071919 -8.498733 -0.104137 -0.079836 0.441333 -0.160125
    6 -0.488517 -2.755600 -0.228261 -0.460444 0.037645 -0.287536
    7 0.039887 -1.479789 0.029853 -0.527279 0.000000 0.000000
    8 0.028785 -1.075730 -0.023111 -0.459923 0.000000 0.000001
    9 0.250028 -2.820663 -0.238396 -0.231281 -0.018453 -0.128421
    10 -0.049759 -1.680545 0.100480 -0.647833 0.000000 -0.000002
    11 -0.034141 -1.148311 0.084779 -0.387992 0.000000 0.000000
    12 0.957766 -2.746777 -0.090301 -0.086768 -0.162565 -0.001658
    13 -0.033419 -1.397127 -0.011255 -0.370864 0.000000 -0.000001
    14 -0.022360 -0.957435 0.018783 -0.198000 0.000000 0.000000
    15 -1.180680 -2.507215 -0.193861 -0.496290 0.122928 -0.318014
    16 -0.024966 -1.123933 0.017594 -0.486725 0.000000 0.000001
    17 -0.020057 -0.890966 0.010091 -0.403175 0.000000 0.000000
    18 0.583510 -1.197274 0.185377 0.466005 -0.637222 -0.675043
    19 1.535926 0.010245 0.005008 -0.224847 -0.206051 -0.510108
    20 1.100770 0.004527 -0.010676 -0.005984 0.015074 -0.201936
    21 0.120152 -0.050266 -0.054488 0.287568 3.110905 1.561085
    22 0.447952 -2.798983 -0.200442 0.008735 0.237925 0.381740
    23 -0.032910 -1.480207 0.004936 -0.233209 0.000000 0.000002
    24 -0.027022 -1.076920 -0.020212 -0.213104 0.000000 0.000000
    25 -0.249534 -2.846962 -0.174216 0.088725 0.215478 0.230768
    26 0.043235 -1.683940 0.096014 -0.213500 0.002823 -0.000167
    27 0.031730 -1.160831 0.058836 -0.205626 0.000642 0.008372
    28 -0.963866 -2.785142 -0.085346 0.246714 0.267860 0.066916
    29 0.028479 -1.403069 0.006271 -0.170655 0.000000 0.000000
    30 0.021413 -0.957782 0.020047 -0.164723 0.000000 0.000000
    31 1.164475 -2.543938 -0.170328 0.022409 0.110159 0.398972
    32 0.024033 -1.129041 0.017806 -0.342955 0.000000 0.000001
    33 0.014896 -0.883990 -0.019845 -0.211554 0.000000 0.000000
    34 -0.586770 -1.264475 0.200164 0.177628 -0.459358 -2.885945
    35 1.522835 0.058681 0.016850 0.006395 -0.077262 0.369977
    36 1.117948 0.048424 -0.005764 -0.027855 -0.023580 -0.005335
    37 0.059826 -0.119510 -0.048105 0.260622 -0.088848 1.633028
  time 7
    0 0.000114 5.939355 -3.557856 0.000000 0.000000 -0.000030
    1 -15.338106 -12.755247 -3.945147 -0.412173 -4.211324 0.658168
    2 0.096944 -8.450418 -0.009364 -0.118222 0.085232 0.188622
    3 1.075543 -2.255324 0.791183 0.071865 3.247478 0.282745
    4 17.473518 -8.253138 -3.761264 0.082062 2.850288 -0.499066
    5 -0.071919 -8.498733 -0.104137 -0.076868 0.482020 -0.156745
    6 -0.488517 -2.755600 -0.228261 -0.470141 0.037645 -0.287536
    7 0.039887 -1.479789 0.029853 -0.493912 0.000000 0.000000
    8 0.028785 -1.075730 -0.023111 -0.434114 0.000000 0.000001
    9 0.250028 -2.820663 -0.238396 -0.240841 -0.018453 -0.128421
    10 -0.049759 -1.680545 0.100480 -0.626007 0.000000 -0.000002
    11 -0.034141 -1.148311 0.084779 -0.370737 0.000000 0.000000
    12 0.957766 -2.746777 -0.090301 -0.096796 -0.162565 -0.001658
    13 -0.033419 -1.397127 -0.011255 -0.352691 0.000000 -0.000001
    14 -0.022360 -0.957435 0.018783 -0.151862 0.000000 0.000000
    15 -1.180680 -2.507215 -0.193861 -0.506051 0.122928 -0.318014
    16 -0.024966 -1.123933 0.017594 -0.459123 0.000000 0.000001
    17 -0.020057 -0.890966 0.010091 -0.375354 0.000000 0.000000
    18 0.583510 -1.197274 0.185377 0.468126 -0.635760 -0.678618
    19 1.535926 0.010245 0.005008 -0.224583 -0.195037 -0.521286
    20 1.100770 0.004527 -0.010676 -0.005984 0.015074 -0.201936
    21 0.120152 -0.050266 -0.054488 0.287568 3.110905 1.561085
    22 0.447952 -2.798983 -0.200442 -0.070101 0.238033 0.372907
    23 -0.032910 -1.480207 0.004936 -0.328489 0.000000 0.000002
    24 -0.027022 -1.076920 -0.020212 -0.266352 0.000000 0.000000
    25 -0.249534 -2.846962 -0.174216 0.014256 0.215694 0.226394
    26 0.043235 -1.683940 0.096014 -0.314702 0.002823 -0.000167
    27 0.031730 -1.160831 0.058836 -0.268953 0.000642 0.008372
    28 -0.963866 -2.785142 -0.085346 0.180290 0.267860 0.066916
    29 0.028479 -1.403069 0.006271 -0.249870 0.000000 0.000000
    30 0.021413 -0.957782 0.020047 -0.202920 0.000000 0.000000
    31 1.164475 -2.543938 -0.170328 -0.036338 0.107175 0.398158
    32 0.024033 -1.129041 0.017806 -0.433185 0.000000 0.000001
    33 0.014896 -0.883990 -0.019845 -0.254153 0.000000 0.000000
    34 -0.586770 -1.264475 0.200164 0.145509 -0.503910 -2.870989
    35 1.522835 0.058681 0.016850 0.047576 -0.101438 0.390561
    36 1.117948 0.048424 -0.005764 -0.027760 -0.023089 0.090375
    37 0.052013 -0.119510 -0.044199 0.262563 -0.091533 1.644797
  time 8
    0 0.000114 5.939355 -3.561763 0.000000 0.000000 -0.000030
    1 -15.302948 -12.731809 -3.945147 -0.401342 -4.213033 0.663817
    2 0.096944 -8.450418 -0.009364 -0.070336 0.163123 0.226229
    3 1.075543 -2.255324 0.791183 0.071865 3.247478 0.282745
    4 17.328982 -8.362516 -3.761264 0.113674 2.902893 -0.539032
    5 -0.071919 -8.498733 -0.104137 -0.073413 0.521081 -0.152778
    6 -0.488517 -2.755600 -0.228261 -0.480061 0.037645 -0.287536
    7 0.039887 -1.479789 0.029853 -0.461861 0.000000 0.000000
    8 0.028785 -1.075730 -0.023111 -0.409348 0.000000 0.000001
    9 0.250028 -2.820663 -0.238396 -0.250728 -0.018453 -0.128421
    10 -0.049759 -1.680545 0.100480 -0.605088 0.000000 -0.000002
    11 -0.034141 -1.148311 0.084779 -0.354162 0.000000 0.000000
    12 0.957766 -2.746777 -0.090301 -0.106904 -0.162565 -0.001658
    13 -0.033419 -1.397127 -0.011255 -0.335303 0.000000 -0.000001
    14 -0.022360 -0.957435 0.018783 -0.107662 0.000000 0.000000
    15 -1.180680 -2.507215 -0.193861 -0.516000 0.122928 -0.318014
    16 -0.024966 -1.123933 0.017594 -0.432636 0.000000 0.000001
    17 -0.020057 -0.890966 0.010091 -0.348676 0.000000 0.000000
    18 0.583510 -1.197274 0.185377 0.470296 -0.634238 -0.682282
    19 1.535926 0.010245 0.005008 -0.224319 -0.183699 -0.532762
    20 1.100770 0.004527 -0.010676 -0.005984 0.015074 -0.201936
    21 0.120152 -0.050266 -0.054488 0.287568 3.110905 1.561085
    22 0.447952 -2.798983 -0.200442 -0.170923 0.238164 0.361618
    23 -0.032910 -1.480207 0.004936 -0.450359 0.000000 0.000002
    24 -0.027022 -1.076920 -0.020212 -0.334512 0.000000 0.000000
    25 -0.249534 -2.846962 -0.174216 -0.081030 0.215981 0.220809
    26 0.043235 -1.683940 0.096014 -0.444128 0.002823 -0.000167
    27 0.031730 -1.160831 0.058836 -0.349984 0.000642 0.008372
    28 -0.963866 -2.785142 -0.085346 0.095331 0.267860 0.066916
    29 0.028479 -1.403069 0.006271 -0.351212 0.000000 0.000000
    30 0.021413 -0.957782 0.020047 -0.251769 0.000000 0.000000
    31 1.164475 -2.543938 -0.170328 -0.111482 0.103340 0.397103
    32 0.024033 -1.129041 0.017806 -0.548608 0.000000 0.000001
    33 0.014896 -0.883990 -0.019845 -0.308629 0.000000 0.000000
    34 -0.586770 -1.264475 0.200164 0.103575 -0.560760 -2.850831
    35 1.522835 0.058681 0.016850 0.100255 -0.132370 0.416863
    36 1.117948 0.048424 -0.005764 -0.027616 -0.022142 0.212882
    37 0.044200 -0.119510 -0.040292 0.264541 -0.093678 1.656257
  time 9
    0 0.000114 5.939355 -3.569576 0.000000 0.000000 -0.000030
    1 -15.209195 -12.669307 -3.941240 -0.370221 -4.218160 0.679999
    2 0.096944 -8.450418 -0.009364 -0.021718 0.244108 0.262689
    3 1.075543 -2.255324 0.791183 0.071865 3.247478 0.282745
    4 17.106319 -8.526584 -3.761264 0.144998 2.983139 -0.576925
    5 -0.071919 -8.498733 -0.104137 -0.069401 0.556848 -0.148164
    6 -0.488517 -2.755600 -0.228261 -0.489982 0.037645 -0.287536
    7 0.039887 -1.479789 0.029853 -0.432583 0.000000 0.000000
    8 0.028785 -1.075730 -0.023111 -0.386714 0.000000 0.000001
    9 0.250028 -2.820663 -0.238396 -0.260685 -0.018453 -0.128421
    10 -0.049759 -1.680545 0.100480 -0.585983 0.000000 -0.000002
    11 -0.034141 -1.148311 0.084779 -0.339013 0.000000 0.000000
    12 0.957766 -2.746777 -0.090301 -0.116810 -0.162565 -0.001658
    13 -0.033419 -1.397127 -0.011255 -0.319349 0.000000 -0.000001
    14 -0.022360 -0.957435 0.018783 -0.067222 0.000000 0.000000
    15 -1.180680 -2.507215 -0.193861 -0.525950 0.122928 -0.318014
    16 -0.024966 -1.123933 0.017594 -0.408429 0.000000 0.000001
    17 -0.020057 -0.890966 0.010091 -0.324283 0.000000 0.000000
    18 0.583510 -1.197274 0.185377 0.472465 -0.632704 -0.685976
    19 1.535926 0.010245 0.005008 -0.224044 -0.172314 -0.544288
    20 1.100770 0.004527 -0.010676 -0.005984 0.015074 -0.201936
    21 0.120152 -0.050266 -0.054488 0.287568 3.110905 1.561085
    22 0.447952 -2.798983 -0.200442 -0.288274 0.238332 0.348471
    23 -0.032910 -1.480207 0.004936 -0.592122 0.000000 0.000002
    24 -0.027022 -1.076920 -0.020212 -0.413794 0.000000 0.000000
    25 -0.249534 -2.846962 -0.174216 -0.191912 0.216317 0.214314
    26 0.043235 -1.683940 0.096014 -0.594750 0.002823 -0.000167
    27 0.031730 -1.160831 0.058836 -0.444241 0.000642 0.008372
    28 -0.963866 -2.785142 -0.085346 -0.003551 0.267860 0.066916
    29 0.028479 -1.403069 0.006271 -0.469130 0.000000 0.000000
    30 0.021413 -0.957782 0.020047 -0.308611 0.000000 0.000000
    31 1.164475 -2.543938 -0.170328 -0.198953 0.098894 0.395880
    32 0.024033 -1.129041 0.017806 -0.682900 0.000000 0.000001
    33 0.014896 -0.883990 -0.019845 -0.372031 0.000000 0.000000
    34 -0.586770 -1.264475 0.200164 0.053336 -0.626709 -2.825747
    35 1.522835 0.058681 0.016850 0.161549 -0.168352 0.447463
    36 1.117948 0.048424 -0.005764 -0.027364 -0.020548 0.355401
    37 0.032481 -0.119510 -0.040292 0.266542 -0.095332 1.667406
  time 10
    0 0.000114 5.939355 -3.573482 0.000000 0.000000 -0.000030
    1 -15.060753 -12.563835 -3.941240 -0.320626 -4.226217 0.705851
    2 0.096944 -8.450418 -0.009364 0.024154 0.322701 0.295396
    3 1.075543 -2.255324 0.791183 0.071865 3.247478 0.282745
    4 16.817248 -8.741434 -3.761264 0.175556 3.084810 -0.612515
    5 -0.071919 -8.498733 -0.104137 -0.064726 0.587669 -0.142879
    6 -0.488517 -2.755600 -0.228261 -0.499724 0.037645 -0.287536
    7 0.039887 -1.479789 0.029853 -0.407440 0.000000 0.000000
    8 0.028785 -1.075730 -0.023111 -0.367301 0.000000 0.000001
    9 0.250028 -2.820663 -0.238396 -0.270479 -0.018453 -0.128421
    10 -0.049759 -1.680545 0.100480 -0.569537 0.000000 -0.000002
    11 -0.034141 -1.148311 0.084779 -0.326005 0.000000 0.000000
    12 0.957766 -2.746777 -0.090301 -0.126213 -0.162565 -0.001658
    13 -0.033419 -1.397127 -0.011255 -0.305661 0.000000 -0.000001
    14 -0.022360 -0.957435 0.018783 -0.032480 0.000000 0.000000
    15 -1.180680 -2.507215 -0.193861 -0.535617 0.122928 -0.318014
    16 -0.024966 -1.123933 0.017594 -0.387618 0.000000 0.000001
    17 -0.020057 -0.890966 0.010091 -0.303362 0.000000 0.000000
    18 0.583510 -1.197274 0.185377 0.474586 -0.631206 -0.689580
    19 1.535926 0.010245 0.005008 -0.223780 -0.161156 -0.555591
    20 1.100770 0.004527 -0.010676 -0.005984 0.015074 -0.201936
    21 0.120152 -0.050266 -0.054488 0.287568 3.110905 1.561085
    22 0.447952 -2.798983 -0.200442 -0.416658 0.238512 0.334089
    23 -0.032910 -1.480207 0.004936 -0.747228 0.000000 0.000002
    24 -0.027022 -1.076920 -0.020212 -0.500501 0.000000 0.000000
    25 -0.249534 -2.846962 -0.174216 -0.313203 0.216676 0.207207
    26 0.043235 -1.683940 0.096014 -0.759484 0.002823 -0.000167
    27 0.031730 -1.160831 0.058836 -0.547349 0.000642 0.008372
    28 -0.963866 -2.785142 -0.085346 -0.111655 0.267860 0.066916
    29 0.028479 -1.403069 0.006271 -0.598070 0.000000 0.000000
    30 0.021413 -0.957782 0.020047 -0.370790 0.000000 0.000000
    31 1.164475 -2.543938 -0.170328 -0.294593 0.094016 0.394538
    32 0.024033 -1.129041 0.017806 -0.829788 0.000000 0.000001
    33 0.014896 -0.883990 -0.019845 -0.441384 0.000000 0.000000
    34 -0.586770 -1.264475 0.200164 -0.003783 -0.698559 -2.795881
    35 1.522835 0.058681 0.016850 0.228610 -0.207733 0.480899
    36 1.117948 0.048424 -0.005764 -0.026921 -0.018259 0.511277
    37 0.024668 -0.119510 -0.036386 0.268580 -0.096530 1.678247
  time 11
    0 0.000114 5.939355 -3.577388 0.000000 0.000000 -0.000030
    1 -14.861529 -12.423206 -3.941240 -0.254591 -4.236878 0.740321
    2 0.096944 -8.450418 -0.009364 0.064004 0.393415 0.322437
    3 1.075543 -2.255324 0.791183 0.071865 3.247478 0.282745
    4 16.473487 -8.983629 -3.761264 0.204869 -3.081241 -0.645513
    5 -0.071919 -8.498733 -0.104137 -0.059278 0.611862 -0.136863
    6 -0.488517 -2.755600 -0.228261 -0.508929 0.037645 -0.287536
    7 0.039887 -1.479789 0.029853 -0.387749 0.000000 0.000000
    8 0.028785 -1.075730 -0.023111 -0.352105 0.000000 0.000001
    9 0.250028 -2.820663 -0.238396 -0.279900 -0.018453 -0.128421
    10 -0.049759 -1.680545 0.100480 -0.556659 0.000000 -0.000002
    11 -0.034141 -1.148311 0.084779 -0.315849 0.000000 0.000000
    12 0.957766 -2.746777 -0.090301 -0.134811 -0.162565 -0.001658
    13 -0.033419 -1.397127 -0.011255 -0.294978 0.000000 -0.000001
    14 -0.022360 -0.957435 0.018783 -0.005335 0.000000 0.000000
    15 -1.180680 -2.507215 -0.193861 -0.544765 0.122928 -0.318014
    16 -0.024966 -1.123933 0.017594 -0.371367 0.000000 0.000001
    17 -0.020057 -0.890966 0.010091 -0.286968 0.000000 0.000000
    18 0.583510 -1.197274 0.185377 0.476611 -0.629768 -0.693020
    19 1.535926 0.010245 0.005008 -0.223528 -0.150478 -0.566372
    20 1.100770 0.004527 -0.010676 -0.005984 0.015074 -0.201936
    21 0.120152 -0.050266 -0.054488 0.287568 3.110905 1.561085
    22 0.447952 -2.798983 -0.200442 -0.550577 0.238704 0.319085
    23 -0.032910 -1.480207 0.004936 -0.908933 0.000000 0.000002
    24 -0.027022 -1.076920 -0.020212 -0.590936 0.000000 0.000000
    25 -0.249534 -2.846962 -0.174216 -0.439682 0.217048 0.199788
    26 0.043235 -1.683940 0.096014 -0.931302 0.002823 -0.000167
    27 0.031730 -1.160831 0.058836 -0.654866 0.000642 0.008372
    28 -0.963866 -2.785142 -0.085346 -0.224416 0.267860 0.066916
    29 0.028479 -1.403069 0.006271 -0.732562 0.000000 0.000000
    30 0.021413 -0.957782 0.020047 -0.435626 0.000000 0.000000
    31 1.164475 -2.543938 -0.170328 -0.394333 0.088947 0.393148
    32 0.024033 -1.129041 0.017806 -0.983000 0.000000 0.000001
    33 0.014896 -0.883990 -0.019845 -0.513689 0.000000 0.000000
    34 -0.586770 -1.264475 0.200164 -0.066414 -0.773114 -2.761390
    35 1.522835 0.058681 0.016850 0.298537 -0.248807 0.515753
    36 1.117948 0.048424 -0.005764 -0.026178 -0.015287 0.673810
    37 0.012949 -0.119510 -0.032479 0.270617 -0.097297 1.688733
  time 12
    0 0.000114 5.939355 -3.585201 0.000000 0.000000 -0.000030
    1 -14.615427 -12.255232 -3.941240 -0.174041 -4.249980 0.782354
    2 0.096944 -8.450418 -0.009364 0.095109 0.450701 0.342492
    3 1.075543 -2.255324 0.791183 0.071865 3.247478 0.282745
    4 16.090663 -9.245356 -3.761264 0.232554 -2.954893 -0.675689
    5 -0.071919 -8.498733 -0.104137 -0.052976 0.627758 -0.130104
    6 -0.488517 -2.755600 -0.228261 -0.517464 0.037645 -0.287536
    7 0.039887 -1.479789 0.029853 -0.374966 0.000000 0.000000
    8 0.028785 -1.075730 -0.023111 -0.342172 0.000000 0.000001
    9 0.250028 -2.820663 -0.238396 -0.288714 -0.018453 -0.128421
    10 -0.049759 -1.680545 0.100480 -0.548316 0.000000 -0.000002
    11 -0.034141 -1.148311 0.084779 -0.309191 0.000000 0.000000
    12 0.957766 -2.746777 -0.090301 -0.142301 -0.162565 -0.001658
    13 -0.033419 -1.397127 -0.011255 -0.287995 0.000000 -0.000001
    14 -0.022360 -0.957435 0.018783 0.012313 0.000000 0.000000
    15 -1.180680 -2.507215 -0.193861 -0.553111 0.122928 -0.318014
    16 -0.024966 -1.123933 0.017594 -0.360743 0.000000 0.000001
    17 -0.020057 -0.890966 0.010091 -0.276288 0.000000 0.000000
    18 0.583510 -1.197274 0.185377 0.478493 -0.628426 -0.696205
    19 1.535926 0.010245 0.005008 -0.223301 -0.140579 -0.576382
    20 1.100770 0.004527 -0.010676 -0.005984 0.015074 -0.201936
    21 0.120152 -0.050266 -0.054488 0.287568 3.110905 1.561085
    22 0.447952 -2.798983 -0.200442 -0.684496 0.238895 0.304068
    23 -0.032910 -1.480207 0.004936 -1.070687 0.000000 0.000002
    24 -0.027022 -1.076920 -0.020212 -0.681401 0.000000 0.000000
    25 -0.249534 -2.846962 -0.174216 -0.566161 0.217431 0.192382
    26 0.043235 -1.683940 0.096014 -1.103119 0.002823 -0.000167
    27 0.031730 -1.160831 0.058836 -0.762383 0.000642 0.008372
    28 -0.963866 -2.785142 -0.085346 -0.337199 0.267860 0.066916
    29 0.028479 -1.403069 0.006271 -0.867097 0.000000 0.000000
    30 0.021413 -0.957782 0.020047 -0.500462 0.000000 0.000000
    31 1.164475 -2.543938 -0.170328 -0.494073 0.083865 0.391758
    32 0.024033 -1.129041 0.017806 -1.136160 0.000000 0.000001
    33 0.014896 -0.883990 -0.019845 -0.585993 0.000000 0.000000
    34 -0.586770 -1.264475 0.200164 -0.133108 -0.847175 -2.722524
    35 1.522835 0.058681 0.016850 0.368464 -0.289880 0.550564
    36 1.117948 0.048424 -0.005764 -0.025039 -0.011775 0.836342
    37 0.001230 -0.119510 -0.028573 0.272666 -0.097693 1.698843
  time 13
    0 0.000114 5.939355 -3.589107 0.000000 0.000000 -0.000030
    1 -14.334169 -12.059913 -3.941240 -0.080789 -4.265117 0.830995
    2 0.096944 -8.450418 -0.009364 0.115278 0.489073 0.354935
    3 1.075543 -2.255324 0.791183 0.071865 3.247478 0.282745
    4 15.680494 -9.514895 -3.761264 0.258131 -2.825581 -0.702755
    5 -0.071919 -8.498733 -0.104137 -0.045726 0.633720 -0.122601
    6 -0.488517 -2.755600 -0.228261 -0.525016 0.037645 -0.287536
    7 0.039887 -1.479789 0.029853 -0.370408 0.000000 0.000000
    8 0.028785 -1.075730 -0.023111 -0.338634 0.000000 0.000001
    9 0.250028 -2.820663 -0.238396 -0.296689 -0.018453 -0.128421
    10 -0.049759 -1.680545 0.100480 -0.545353 0.000000 -0.000002
    11 -0.034141 -1.148311 0.084779 -0.306848 0.000000 0.000000
    12 0.957766 -2.746777 -0.090301 -0.148423 -0.162565 -0.001658
    13 -0.033419 -1.397127 -0.011255 -0.285498 0.000000 -0.000001
    14 -0.022360 -0.957435 0.018783 0.018644 0.000000 0.000000
    15 -1.180680 -2.507215 -0.193861 -0.560467 0.122928 -0.318014
    16 -0.024966 -1.123933 0.017594 -0.356960 0.000000 0.000001
    17 -0.020057 -0.890966 0.010091 -0.272465 0.000000 0.000000
    18 0.583510 -1.197274 0.185377 0.480171 -0.627227 -0.699061
    19 1.535926 0.010245 0.005008 -0.223085 -0.131698 -0.585350
    20 1.100770 0.004527 -0.010676 -0.005984 0.015074 -0.201936
    21 0.120152 -0.050266 -0.054488 0.287568 3.110905 1.561085
    22 0.447952 -2.798983 -0.200442 -0.812919 0.239087 0.289674
    23 -0.032910 -1.480207 0.004936 -1.225794 0.000000 0.000002
    24 -0.027022 -1.076920 -0.020212 -0.768108 0.000000 0.000000
    25 -0.249534 -2.846962 -0.174216 -0.687453 0.217803 0.185263
    26 0.043235 -1.683940 0.096014 -1.267853 0.002823 -0.000167
    27 0.031730 -1.160831 0.058836 -0.865457 0.000642 0.008372
    28 -0.963866 -2.785142 -0.085346 -0.445326 0.267860 0.066916
    29 0.028479 -1.403069 0.006271 -0.996036 0.000000 0.000000
    30 0.021413 -0.957782 0.020047 -0.562641 0.000000 0.000000
    31 1.164475 -2.543938 -0.170328 -0.589684 0.078999 0.390427
    32 0.024033 -1.129041 0.017806 -1.283048 0.000000 0.000001
    33 0.014896 -0.883990 -0.019845 -0.655346 0.000000 0.000000
    34 -0.586770 -1.264475 0.200164 -0.202128 -0.917609 -2.679894
    35 1.522835 0.058681 0.016850 0.435545 -0.329288 0.583955
    36 1.117948 0.048424 -0.005764 -0.023517 -0.007964 0.992176
    37 -0.006582 -0.115603 -0.024667 0.274692 -0.097741 1.708555
  time 14
    0 0.000114 5.939355 -3.593014 0.000000 0.000000 -0.000030
    1 -14.017753 -11.841157 -3.941240 0.023075 -4.281963 0.885284
    2 0.096944 -8.450418 -0.009364 0.122473 0.503075 0.359280
    3 1.075543 -2.255324 0.791183 0.071865 3.247478 0.282745
    4 15.254700 -9.776622 -3.761264 0.281025 -2.699330 -0.726482
    5 -0.071919 -8.498733 -0.104137 -0.007510 0.608513 -0.109586
    6 -0.488517 -2.755600 -0.228261 -0.532300 0.037645 -0.287536
    7 0.039887 -1.479789 0.029853 -0.377645 0.000000 0.000000
    8 0.028785 -1.075730 -0.023111 -0.345075 0.000000 0.000001
    9 0.250028 -2.820663 -0.238396 -0.304664 -0.018453 -0.128421
    10 -0.049759 -1.680545 0.100480 -0.553153 0.000000 -0.000002
    11 -0.034141 -1.148311 0.084779 -0.307867 0.000000 0.000000
    12 0.957766 -2.746777 -0.090301 -0.153255 -0.162565 -0.001658
    13 -0.033419 -1.397127 -0.011255 -0.289984 0.000000 -0.000001
    14 -0.022360 -0.957435 0.018783 0.017180 0.000000 0.000000
    15 -1.180680 -2.507215 -0.193861 -0.567493 0.122928 -0.318014
    16 -0.024966 -1.123933 0.017594 -0.362878 0.000000 0.000001
    17 -0.020057 -0.890966 0.010091 -0.278398 0.000000 0.000000
    18 0.583510 -1.197274 0.185377 0.481813 -0.626041 -0.701858
    19 1.535926 0.010245 0.005008 -0.222881 -0.122974 -0.594168
    20 1.100770 0.004527 -0.010676 -0.005984 0.015074 -0.201936
    21 0.120152 -0.050266 -0.054488 0.287568 3.110905 1.561085
    22 0.447952 -2.798983 -0.200442 -0.930388 0.239267 0.276503
    23 -0.032910 -1.480207 0.004936 -1.367557 0.000000 0.000002
    24 -0.027022 -1.076920 -0.020212 -0.847390 0.000000 0.000000
    25 -0.249534 -2.846962 -0.174216 -0.798335 0.218126 0.178767
    26 0.043235 -1.683940 0.096014 -1.418475 0.002823 -0.000167
    27 0.031730 -1.160831 0.058836 -0.959714 0.000642 0.008372
    28 -0.963866 -2.785142 -0.085346 -0.544186 0.267860 0.066916
    29 0.028479 -1.403069 0.006271 -1.113954 0.000000 0.000000
    30 0.021413 -0.957782 0.020047 -0.619484 0.000000 0.000000
    31 1.164475 -2.543938 -0.170328 -0.677126 0.074541 0.389205
    32 0.024033 -1.129041 0.017806 -1.417391 0.000000 0.000001
    33 0.014896 -0.883990 -0.019845 -0.718724 0.000000 0.000000
    34 -0.586770 -1.264475 0.200164 -0.271099 -0.981348 -2.634832
    35 1.522835 0.058681 0.016850 0.496896 -0.365311 0.614445
    36 1.117948 0.048424 -0.005764 -0.021695 -0.004153 1.134612
    37 -0.018302 -0.115603 -0.020760 0.276705 -0.097477 1.717891
  time 15
    0 0.000114 5.939355 -3.596920 0.000000 0.000000 -0.000030
    1 -13.677899 -11.602868 -3.941240 0.135790 -4.300274 0.944074
    2 0.096944 -8.450418 -0.009364 0.107994 0.484830 0.337000
    3 1.075543 -2.255324 0.791183 0.071865 3.247478 0.282745
    4 14.828906 -10.018817 -3.761264 0.300950 -2.582164 -0.746522
    5 -0.071919 -8.498733 -0.104137 0.075522 0.544787 -0.089943
    6 -0.488517 -2.755600 -0.228261 -0.540165 0.037645 -0.287536
    7 0.039887 -1.479789 0.029853 -0.398088 0.000000 0.000000
    8 0.028785 -1.075730 -0.023111 -0.363309 0.000000 0.000001
    9 0.250028 -2.820663 -0.238396 -0.313479 -0.018453 -0.128421
    10 -0.049759 -1.680545 0.100480 -0.574979 0.000000 -0.000002
    11 -0.034141 -1.148311 0.084779 -0.310958 0.000000 0.000000
    12 0.957766 -2.746777 -0.090301 -0.157181 -0.162565 -0.001658
    13 -0.033419 -1.397127 -0.011255 -0.302701 0.000000 -0.000001
    14 -0.022360 -0.957435 0.018783 0.012986 0.000000 0.000000
    15 -1.180680 -2.507215 -0.193861 -0.574990 0.122928 -0.318014
    16 -0.024966 -1.123933 0.017594 -0.379565 0.000000 0.000001
    17 -0.020057 -0.890966 0.010091 -0.295143 0.000000 0.000000
    18 0.583510 -1.197274 0.185377 0.483598 -0.624746 -0.704909
    19 1.535926 0.010245 0.005008 -0.222654 -0.113470 -0.603782
    20 1.100770 0.004527 -0.010676 -0.005984 0.015074 -0.201936
    21 0.120152 -0.050266 -0.054488 0.287568 3.110905 1.561085
    22 0.447952 -2.798983 -0.200442 -1.031328 0.239411 0.265178
    23 -0.032910 -1.480207 0.004936 -1.489426 0.000000 0.000002
    24 -0.027022 -1.076920 -0.020212 -0.915519 0.000000 0.000000
    25 -0.249534 -2.846962 -0.174216 -0.893654 0.218414 0.173171
    26 0.043235 -1.683940 0.096014 -1.547901 0.002823 -0.000167
    27 0.031730 -1.160831 0.058836 -1.040744 0.000642 0.008372
    28 -0.963866 -2.785142 -0.085346 -0.629167 0.267860 0.066916
    29 0.028479 -1.403069 0.006271 -1.215297 0.000000 0.000000
    30 0.021413 -0.957782 0.020047 -0.668332 0.000000 0.000000
    31 1.164475 -2.543938 -0.170328 -0.752270 0.070718 0.388150
    32 0.024033 -1.129041 0.017806 -1.532763 0.000000 0.000001
    33 0.014896 -0.883990 -0.019845 -0.773224 0.000000 0.000000
    34 -0.586770 -1.264475 0.200164 -0.336355 -1.035493 -2.589926
    35 1.522835 0.058681 0.016850 0.549613 -0.396285 0.640613
    36 1.117948 0.048424 -0.005764 -0.019766 -0.000690 1.257034
    37 -0.030021 -0.115603 -0.020760 0.278695 -0.096938 1.726762
  time 16
    0 0.000114 5.939355 -3.600827 0.000000 0.000000 -0.000030
    1 -13.314606 -11.352861 -3.941240 0.255324 -4.319561 1.006598
    2 0.096944 -8.450418 -0.009364 0.069317 0.436571 0.276766
    3 1.075543 -2.255324 0.791183 0.071865 3.247478 0.282745
    4 14.418737 -10.229761 -3.761264 0.317235 -2.480494 -0.762589
    5 -0.071919 -8.498733 -0.104137 0.179465 0.461663 -0.068742
    6 -0.488517 -2.755600 -0.228261 -0.548477 0.037645 -0.287536
    7 0.039887 -1.479789 0.029853 -0.429857 0.000000 0.000000
    8 0.028785 -1.075730 -0.023111 -0.391567 0.000000 0.000001
    9 0.250028 -2.820663 -0.238396 -0.322899 -0.018453 -0.128421
    10 -0.049759 -1.680545 0.100480 -0.608595 0.000000 -0.000002
    11 -0.034141 -1.148311 0.084779 -0.316120 0.000000 0.000000
    12 0.957766 -2.746777 -0.090301 -0.160403 -0.162565 -0.001658
    13 -0.033419 -1.397127 -0.011255 -0.322678 0.000000 -0.000001
    14 -0.022360 -0.957435 0.018783 0.006338 0.000000 0.000000
    15 -1.180680 -2.507215 -0.193861 -0.582818 0.122928 -0.318014
    16 -0.024966 -1.123933 0.017594 -0.405616 0.000000 0.000001
    17 -0.020057 -0.890966 0.010091 -0.321294 0.000000 0.000000
    18 0.583510 -1.197274 0.185377 0.485492 -0.623380 -0.708139
    19 1.535926 0.010245 0.005008 -0.222426 -0.103367 -0.613991
    20 1.100770 0.004527 -0.010676 -0.005984 0.015074 -0.201936
    21 0.120152 -0.050266 -0.054488 0.287568 3.110905 1.561085
    22 0.447952 -2.798983 -0.200442 -1.110282 0.239531 0.256333
    23 -0.032910 -1.480207 0.004936 -1.584706 0.000000 0.000002
    24 -0.027022 -1.076920 -0.020212 -0.968798 0.000000 0.000000
    25 -0.249534 -2.846962 -0.174216 -0.968156 0.218642 0.168808
    26 0.043235 -1.683940 0.096014 -1.649103 0.002823 -0.000167
    27 0.031730 -1.160831 0.058836 -1.104072 0.000642 0.008372
    28 -0.963866 -2.785142 -0.085346 -0.695591 0.267860 0.066916
    29 0.028479 -1.403069 0.006271 -1.294511 0.000000 0.000000
    30 0.021413 -0.957782 0.020047 -0.706530 0.000000 0.000000
    31 1.164475 -2.543938 -0.170328 -0.811017 0.067722 0.387335
    32 0.024033 -1.129041 0.017806 -1.623045 0.000000 0.000001
    33 0.014896 -0.883990 -0.019845 -0.815799 0.000000 0.000000
    34 -0.586770 -1.264475 0.200164 -0.392407 -1.077299 -2.549646
    35 1.522835 0.058681 0.016850 0.590832 -0.420489 0.661087
    36 1.117948 0.048424 -0.005764 -0.018016 0.002115 1.352745
    37 -0.041740 -0.115603 -0.016854 0.280624 -0.096171 1.735213
  time 17
    0 0.000114 5.939355 -3.604733 0.000000 0.000000 -0.000030
    1 -12.935689 -11.091134 -3.941240 0.379806 -4.339662 1.071708
    2 0.096944 -8.450418 -0.009364 0.013483 0.368504 0.187927
    3 1.075543 -2.255324 0.791183 0.071865 3.247478 0.282745
    4 14.032006 -10.393828 -3.761264 0.329593 -2.400152 -0.774510
    5 -0.071919 -8.498733 -0.104137 0.281280 0.378386 -0.049987
    6 -0.488517 -2.755600 -0.228261 -0.557057 0.037645 -0.287536
    7 0.039887 -1.479789 0.029853 -0.471119 0.000000 0.000000
    8 0.028785 -1.075730 -0.023111 -0.428262 0.000000 0.000001
    9 0.250028 -2.820663 -0.238396 -0.332716 -0.018453 -0.128421
    10 -0.049759 -1.680545 0.100480 -0.651521 0.000000 -0.000002
    11 -0.034141 -1.148311 0.084779 -0.323355 0.000000 0.000000
    12 0.957766 -2.746777 -0.090301 -0.163041 -0.162565 -0.001658
    13 -0.033419 -1.397127 -0.011255 -0.348899 0.000000 -0.000001
    14 -0.022360 -0.957435 0.018783 -0.002367 0.000000 0.000000
    15 -1.180680 -2.507215 -0.193861 -0.590928 0.122928 -0.318014
    16 -0.024966 -1.123933 0.017594 -0.439622 0.000000 0.000001
    17 -0.020057 -0.890966 0.010091 -0.355400 0.000000 0.000000
    18 0.583510 -1.197274 0.185377 0.487445 -0.621954 -0.711489
    19 1.535926 0.010245 0.005008 -0.222174 -0.092904 -0.624548
    20 1.100770 0.004527 -0.010676 -0.005984 0.015074 -0.201936
    21 0.120152 -0.050266 -0.054488 0.287568 3.110905 1.561085
    22 0.447952 -2.798983 -0.200442 -1.161675 0.239615 0.250569
    23 -0.032910 -1.480207 0.004936 -1.646749 0.000000 0.000002
    24 -0.027022 -1.076920 -0.020212 -1.003499 0.000000 0.000000
    25 -0.249534 -2.846962 -0.174216 -1.016685 0.218786 0.165968
    26 0.043235 -1.683940 0.096014 -1.714997 0.002823 -0.000167
    27 0.031730 -1.160831 0.058836 -1.145322 0.000642 0.008372
    28 -0.963866 -2.785142 -0.085346 -0.738846 0.267860 0.066916
    29 0.028479 -1.403069 0.006271 -1.346129 0.000000 0.000000
    30 0.021413 -0.957782 0.020047 -0.731397 0.000000 0.000000
    31 1.164475 -2.543938 -0.170328 -0.849267 0.065780 0.386796
    32 0.024033 -1.129041 0.017806 -1.681759 0.000000 0.000001
    33 0.014896 -0.883990 -0.019845 -0.843545 0.000000 0.000000
    34 -0.586770 -1.264475 0.200164 -0.431884 -1.104189 -2.520392
    35 1.522835 0.058681 0.016850 0.617688 -0.436257 0.674404
    36 1.117948 0.048424 -0.005764 -0.016758 0.003972 1.415045
    37 -0.053459 -0.115603 -0.012948 0.282518 -0.095200 1.743199
  time 18
    0 0.000114 5.939355 -3.608639 0.000000 0.000000 -0.000030
    1 -12.548958 -10.821594 -3.941240 0.507312 -4.360170 1.138349
    2 0.096944 -8.450418 -0.009364 -0.051894 0.290581 0.080666
    3 1.075543 -2.255324 0.791183 0.071865 3.247478 0.282745
    4 13.684339 -10.503207 -3.761264 0.337352 -2.347547 -0.781881
    5 -0.071919 -8.498733 -0.104137 0.358621 0.314243 -0.036744
    6 -0.488517 -2.755600 -0.228261 -0.565771 0.037645 -0.287536
    7 0.039887 -1.479789 0.029853 -0.519901 0.000000 0.000000
    8 0.028785 -1.075730 -0.023111 -0.471625 0.000000 0.000001
    9 0.250028 -2.820663 -0.238396 -0.342673 -0.018453 -0.128421
    10 -0.049759 -1.680545 0.100480 -0.701521 0.000000 -0.000002
    11 -0.034141 -1.148311 0.084779 -0.332662 0.000000 0.000000
    12 0.957766 -2.746777 -0.090301 -0.165276 -0.162565 -0.001658
    13 -0.033419 -1.397127 -0.011255 -0.380252 0.000000 -0.000001
    14 -0.022360 -0.957435 0.018783 -0.012972 0.000000 0.000000
    15 -1.180680 -2.507215 -0.193861 -0.599133 0.122928 -0.318014
    16 -0.024966 -1.123933 0.017594 -0.480128 0.000000 0.000001
    17 -0.020057 -0.890966 0.010091 -0.396055 0.000000 0.000000
    18 0.583510 -1.197274 0.185377 0.489435 -0.620492 -0.714899
    19 1.535926 0.010245 0.005008 -0.221922 -0.082262 -0.635279
    20 1.100770 0.004527 -0.010676 -0.005984 0.015074 -0.201936
    21 0.120152 -0.050266 -0.054488 0.287568 3.110905 1.561085
    22 0.447952 -2.798983 -0.200442 -1.180010 0.239639 0.248507
    23 -0.032910 -1.480207 0.004936 -1.668858 0.000000 0.000002
    24 -0.027022 -1.076920 -0.020212 -1.015864 0.000000 0.000000
    25 -0.249534 -2.846962 -0.174216 -1.033989 0.218845 0.164949
    26 0.043235 -1.683940 0.096014 -1.738499 0.002823 -0.000167
    27 0.031730 -1.160831 0.058836 -1.160052 0.000642 0.008372
    28 -0.963866 -2.785142 -0.085346 -0.754276 0.267860 0.066916
    29 0.028479 -1.403069 0.006271 -1.364513 0.000000 0.000000
    30 0.021413 -0.957782 0.020047 -0.740299 0.000000 0.000000
    31 1.164475 -2.543938 -0.170328 -0.862922 0.065073 0.386604
    32 0.024033 -1.129041 0.017806 -1.702787 0.000000 0.000001
    33 0.014896 -0.883990 -0.019845 -0.853439 0.000000 0.000000
    34 -0.586770 -1.264475 0.200164 -0.446649 -1.113739 -2.509270
    35 1.522835 0.058681 0.016850 0.627276 -0.441885 0.679146
    36 1.117948 0.048424 -0.005764 -0.016278 0.004644 1.437277
    37 -0.061272 -0.115603 -0.009041 0.284339 -0.094074 1.750721
  time 19
    0 0.000114 5.939355 -3.608639 0.000000 0.000000 -0.000030
    1 -12.158321 -10.548149 -3.941240 0.635863 -4.380840 1.205661
    2 0.096944 -8.450418 -0.009364 -0.118554 0.211542 -0.032399
    3 1.075543 -2.255324 0.791183 0.071865 3.247478 0.282745
    4 13.387455 -10.546177 -3.761264 0.340034 -2.328609 -0.784415
    5 -0.071919 -8.498733 -0.104137 0.389343 0.288564 -0.031698
    6 -0.488517 -2.755600 -0.228261 -0.574485 0.037645 -0.287536
    7 0.039887 -1.479789 0.029853 -0.574369 0.000000 0.000000
    8 0.028785 -1.075730 -0.023111 -0.520068 0.000000 0.000001
    9 0.250028 -2.820663 -0.238396 -0.352537 -0.018453 -0.128421
    10 -0.049759 -1.680545 0.100480 -0.756177 0.000000 -0.000002
    11 -0.034141 -1.148311 0.084779 -0.344006 0.000000 0.000000
    12 0.957766 -2.746777 -0.090301 -0.167249 -0.162565 -0.001658
    13 -0.033419 -1.397127 -0.011255 -0.415814 0.000000 -0.000001
    14 -0.022360 -0.957435 0.018783 -0.025080 0.000000 0.000000
    15 -1.180680 -2.507215 -0.193861 -0.607338 0.122928 -0.318014
    16 -0.024966 -1.123933 0.017594 -0.525679 0.000000 0.000001
    17 -0.020057 -0.890966 0.010091 -0.441720 0.000000 0.000000
    18 0.583510 -1.197274 0.185377 0.491412 -0.619042 -0.718279
    19 1.535926 0.010245 0.005008 -0.221683 -0.071656 -0.645986
    20 1.100770 0.004527 -0.010676 -0.005984 0.015074 -0.201936
    21 0.120152 -0.050266 -0.054488 0.287568 3.110905 1.561085
    22 0.447952 -2.798983 -0.200442 -1.180010 0.239639 0.248507
    23 -0.032910 -1.480207 0.004936 -1.668858 0.000000 0.000002
    24 -0.027022 -1.076920 -0.020212 -1.015864 0.000000 0.000000
    25 -0.249534 -2.846962 -0.174216 -1.033989 0.218845 0.164949
    26 0.043235 -1.683940 0.096014 -1.738499 0.002823 -0.000167
    27 0.031730 -1.160831 0.058836 -1.160052 0.000642 0.008372
    28 -0.963866 -2.785142 -0.085346 -0.754276 0.267860 0.066916
    29 0.028479 -1.403069 0.006271 -1.364513 0.000000 0.000000
    30 0.021413 -0.957782 0.020047 -0.740299 0.000000 0.000000
    31 1.164475 -2.543938 -0.170328 -0.862922 0.065073 0.386604
    32 0.024033 -1.129041 0.017806 -1.702787 0.000000 0.000001
    33 0.014896 -0.883990 -0.019845 -0.853439 0.000000 0.000000
    34 -0.586770 -1.264475 0.200164 -0.446649 -1.113718 -2.509270
    35 1.522835 0.058681 0.016850 0.627276 -0.441885 0.679146
    36 1.117948 0.048424 -0.005764 -0.016278 0.004644 1.437319
    37 -0.072991 -0.111697 -0.005135 0.286077 -0.092815 1.757712
  time 20
    0 0.000114 5.939355 -3.612546 0.000000 0.000000 -0.000030
    1 -11.767684 -10.278609 -3.941240 0.763590 -4.401348 1.272589
    2 0.096944 -8.450418 -0.009364 -0.177599 0.138085 -0.136149
    3 1.075543 -2.255324 0.791183 0.071865 3.247478 0.282745
    4 13.121822 -10.546177 -3.788609 0.338022 -2.342286 -0.781593
    5 -0.071919 -8.498733 -0.104137 0.368609 0.288564 -0.031698
    6 -0.488517 -2.755600 -0.228261 -0.583020 0.037645 -0.287536
    7 0.039887 -1.479789 0.029853 -0.632597 0.000000 0.000000
    8 0.028785 -1.075730 -0.023111 -0.571867 0.000000 0.000001
    9 0.250028 -2.820663 -0.238396 -0.362121 -0.018453 -0.128421
    10 -0.049759 -1.680545 0.100480 -0.813191 0.000000 -0.000002
    11 -0.034141 -1.148311 0.084779 -0.357457 0.000000 0.000000
    12 0.957766 -2.746777 -0.090301 -0.169122 -0.162565 -0.001658
    13 -0.033419 -1.397127 -0.011255 -0.454473 0.000000 -0.000001
    14 -0.022360 -0.957435 0.018783 -0.038415 0.000000 0.000000
    15 -1.180680 -2.507215 -0.193861 -0.615449 0.122928 -0.318014
    16 -0.024966 -1.123933 0.017594 -0.574820 0.000000 0.000001
    17 -0.020057 -0.890966 0.010091 -0.491033 0.000000 0.000000
    18 0.583510 -1.197274 0.185377 0.493330 -0.617616 -0.721569
    19 1.535926 0.010245 0.005008 -0.221431 -0.061289 -0.656444
    20 1.100770 0.004527 -0.010676 -0.005984 0.015074 -0.201936
    21 0.120152 -0.050266 -0.054488 0.287568 3.110905 1.561085
    22 0.447952 -2.798983 -0.200442 -1.180010 0.239639 0.248507
    23 -0.032910 -1.480207 0.004936 -1.668858 0.000000 0.000002
    24 -0.027022 -1.076920 -0.020212 -1.015864 0.000000 0.000000
    25 -0.249534 -2.846962 -0.174216 -1.033989 0.218845 0.164949
    26 0.043235 -1.683940 0.096014 -1.738499 0.002823 -0.000167
    27 0.031730 -1.160831 0.058836 -1.160052 0.000642 0.008372
    28 -0.963866 -2.785142 -0.085346 -0.754276 0.267860 0.066916
    29 0.028479 -1.403069 0.006271 -1.364513 0.000000 0.000000
    30 0.021413 -0.957782 0.020047 -0.740299 0.000000 0.000000
    31 1.164475 -2.543938 -0.170328 -0.862922 0.065073 0.386604
    32 0.024033 -1.129041 0.017806 -1.702787 0.000000 0.000001
    33 0.014896 -0.883990 -0.019845 -0.853439 0.000000 0.000000
    34 -0.586770 -1.264475 0.200164 -0.446649 -1.113718 -2.509270
    35 1.522835 0.058681 0.016850 0.627276 -0.441885 0.679146
    36 1.117948 0.048424 -0.005764 -0.016278 0.004644 1.437277
    37 -0.084710 -0.111697 -0.001228 0.287743 -0.091473 1.764216
  time 21
    0 0.000114 5.939355 -3.616452 0.000000 0.000000 -0.000030
    1 -11.388766 -10.016882 -3.941240 0.888512 -4.421287 1.338177
    2 0.096944 -8.450418 -0.009364 -0.219863 0.074834 -0.212963
    3 1.075543 -2.255324 0.791183 0.071865 3.247478 0.282745
    4 12.860096 -10.546177 -3.862830 0.332562 -2.379684 -0.773934
    5 -0.071919 -8.498733 -0.104137 0.315174 0.288564 -0.031698
    6 -0.488517 -2.755600 -0.228261 -0.591287 0.037645 -0.287536
    7 0.039887 -1.479789 0.029853 -0.692704 0.000000 0.000000
    8 0.028785 -1.075730 -0.023111 -0.625345 0.000000 0.000001
    9 0.250028 -2.820663 -0.238396 -0.371169 -0.018453 -0.128421
    10 -0.049759 -1.680545 0.100480 -0.870205 0.000000 -0.000002
    11 -0.034141 -1.148311 0.084779 -0.372945 0.000000 0.000000
    12 0.957766 -2.746777 -0.090301 -0.171055 -0.162565 -0.001658
    13 -0.033419 -1.397127 -0.011255 -0.495261 0.000000 -0.000001
    14 -0.022360 -0.957435 0.018783 -0.052700 0.000000 0.000000
    15 -1.180680 -2.507215 -0.193861 -0.623323 0.122928 -0.318014
    16 -0.024966 -1.123933 0.017594 -0.626096 0.000000 0.000001
    17 -0.020057 -0.890966 0.010091 -0.542499 0.000000 0.000000
    18 0.583510 -1.197274 0.185377 0.495164 -0.616249 -0.724725
    19 1.535926 0.010245 0.005008 -0.221203 -0.051366 -0.666429
    20 1.100770 0.004527 -0.010676 -0.005984 0.015074 -0.201936
    21 0.120152 -0.050266 -0.054488 0.287568 3.110905 1.561085
    22 0.447952 -2.798983 -0.200442 -1.180010 0.239639 0.248507
    23 -0.032910 -1.480207 0.004936 -1.668858 0.000000 0.000002
    24 -0.027022 -1.076920 -0.020212 -1.015864 0.000000 0.000000
    25 -0.249534 -2.846962 -0.174216 -1.033989 0.218845 0.164949
    26 0.043235 -1.683940 0.096014 -1.738499 0.002823 -0.000167
    27 0.031730 -1.160831 0.058836 -1.160052 0.000642 0.008372
    28 -0.963866 -2.785142 -0.085346 -0.754276 0.267860 0.066916
    29 0.028479 -1.403069 0.006271 -1.364513 0.000000 0.000000
    30 0.021413 -0.957782 0.020047 -0.740299 0.000000 0.000000
    31 1.164475 -2.543938 -0.170328 -0.862922 0.065073 0.386604
    32 0.024033 -1.129041 0.017806 -1.702787 0.000000 0.000001
    33 0.014896 -0.883990 -0.019845 -0.853439 0.000000 0.000000
    34 -0.586770 -1.264475 0.200164 -0.446649 -1.113739 -2.509270
    35 1.522835 0.058681 0.016850 0.627276 -0.441885 0.679146
    36 1.117948 0.048424 -0.005764 -0.016278 0.004644 1.437277
    37 -0.092523 -0.111697 0.002678 0.289301 -0.090083 1.770167
  time 22
    0 0.000114 5.939355 -3.616452 0.000000 0.000000 -0.000030
    1 -11.021568 -9.759062 -3.941240 1.008705 -4.440411 1.401276
    2 0.096944 -8.450418 -0.009364 -0.236024 0.025363 -0.243932
    3 1.075543 -2.255324 0.791183 0.071865 3.247478 0.282745
    4 12.617901 -10.546177 -3.968302 0.324516 -2.435636 -0.762417
    5 -0.071919 -8.498733 -0.104137 0.242115 0.288564 -0.031698
    6 -0.488517 -2.755600 -0.228261 -0.599107 0.037645 -0.287536
    7 0.039887 -1.479789 0.029853 -0.752812 0.000000 0.000000
    8 0.028785 -1.075730 -0.023111 -0.678823 0.000000 0.000001
    9 0.250028 -2.820663 -0.238396 -0.379447 -0.018453 -0.128421
    10 -0.049759 -1.680545 0.100480 -0.924921 0.000000 -0.000002
    11 -0.034141 -1.148311 0.084779 -0.390539 0.000000 0.000000
    12 0.957766 -2.746777 -0.090301 -0.173209 -0.162565 -0.001658
    13 -0.033419 -1.397127 -0.011255 -0.537111 0.000000 -0.000001
    14 -0.022360 -0.957435 0.018783 -0.067578 0.000000 0.000000
    15 -1.180680 -2.507215 -0.193861 -0.630868 0.122928 -0.318014
    16 -0.024966 -1.123933 0.017594 -0.678148 0.000000 0.000001
    17 -0.020057 -0.890966 0.010091 -0.594713 0.000000 0.000000
    18 0.583510 -1.197274 0.185377 0.496877 -0.614979 -0.727656
    19 1.535926 0.010245 0.005008 -0.220988 -0.042102 -0.675769
    20 1.100770 0.004527 -0.010676 -0.005984 0.015074 -0.201936
    21 0.120152 -0.050266 -0.054488 0.287568 3.110905 1.561085
    22 0.447952 -2.798983 -0.200442 -1.180010 0.239639 0.248507
    23 -0.032910 -1.480207 0.004936 -1.668858 0.000000 0.000002
    24 -0.027022 -1.076920 -0.020212 -1.015864 0.000000 0.000000
    25 -0.249534 -2.846962 -0.174216 -1.033989 0.218845 0.164949
    26 0.043235 -1.683940 0.096014 -1.738499 0.002823 -0.000167
    27 0.031730 -1.160831 0.058836 -1.160052 0.000642 0.008372
    28 -0.963866 -2.785142 -0.085346 -0.754276 0.267860 0.066916
    29 0.028479 -1.403069 0.006271 -1.364513 0.000000 0.000000
    30 0.021413 -0.957782 0.020047 -0.740299 0.000000 0.000000
    31 1.164475 -2.543938 -0.170328 -0.862922 0.065073 0.386604
    32 0.024033 -1.129041 0.017806 -1.702787 0.000000 0.000001
    33 0.014896 -0.883990 -0.019845 -0.853439 0.000000 0.000000
    34 -0.586770 -1.264475 0.200164 -0.446649 -1.113718 -2.509270
    35 1.522835 0.058681 0.016850 0.627276 -0.441885 0.679146
    36 1.117948 0.048424 -0.005764 -0.016278 0.004644 1.437277
    37 -0.104242 -0.111697 0.002678 0.290751 -0.088680 1.775565
  time 23
    0 0.000114 5.939355 -3.616452 0.000000 0.000000 -0.000030
    1 -10.669994 -9.520773 -3.941240 1.122246 -4.458478 1.460927
    2 0.096944 -8.450418 -0.009364 -0.234430 -0.015815 -0.242958
    3 1.075543 -2.255324 0.791183 0.071865 3.247478 0.282745
    4 12.395238 -10.546177 -4.089399 0.314457 -2.504787 -0.748307
    5 -0.071919 -8.498733 -0.104137 0.162498 0.288564 -0.031698
    6 -0.488517 -2.755600 -0.228261 -0.606347 0.037645 -0.287536
    7 0.039887 -1.479789 0.029853 -0.811040 0.000000 0.000000
    8 0.028785 -1.075730 -0.023111 -0.730622 0.000000 0.000001
    9 0.250028 -2.820663 -0.238396 -0.386722 -0.018453 -0.128421
    10 -0.049759 -1.680545 0.100480 -0.974861 0.000000 -0.000002
    11 -0.034141 -1.148311 0.084779 -0.410172 0.000000 0.000000
    12 0.957766 -2.746777 -0.090301 -0.175726 -0.162565 -0.001658
    13 -0.033419 -1.397127 -0.011255 -0.579008 0.000000 -0.000001
    14 -0.022360 -0.957435 0.018783 -0.082813 0.000000 0.000000
    15 -1.180680 -2.507215 -0.193861 -0.637988 0.122928 -0.318014
    16 -0.024966 -1.123933 0.017594 -0.729423 0.000000 0.000001
    17 -0.020057 -0.890966 0.010091 -0.646179 0.000000 0.000000
    18 0.583510 -1.197274 0.185377 0.498423 -0.613816 -0.730333
    19 1.535926 0.010245 0.005008 -0.220796 -0.033700 -0.684240
    20 1.100770 0.004527 -0.010676 -0.005984 0.015074 -0.201936
    21 0.120152 -0.050266 -0.054488 0.287568 3.110905 1.561085
    22 0.447952 -2.798983 -0.200442 -1.180010 0.239639 0.248507
    23 -0.032910 -1.480207 0.004936 -1.668858 0.000000 0.000002
    24 -0.027022 -1.076920 -0.020212 -1.015864 0.000000 0.000000
    25 -0.249534 -2.846962 -0.174216 -1.033989 0.218845 0.164949
    26 0.043235 -1.683940 0.096014 -1.738499 0.002823 -0.000167
    27 0.031730 -1.160831 0.058836 -1.160052 0.000642 0.008372
    28 -0.963866 -2.785142 -0.085346 -0.754276 0.267860 0.066916
    29 0.028479 -1.403069 0.006271 -1.364513 0.000000 0.000000
    30 0.021413 -0.957782 0.020047 -0.740299 0.000000 0.000000
    31 1.164475 -2.543938 -0.170328 -0.862922 0.065073 0.386604
    32 0.024033 -1.129041 0.017806 -1.702787 0.000000 0.000001
    33 0.014896 -0.883990 -0.019845 -0.853439 0.000000 0.000000
    34 -0.586770 -1.264475 0.200164 -0.446649 -1.113739 -2.509270
    35 1.522835 0.058681 0.016850 0.627276 -0.441885 0.679146
    36 1.117948 0.048424 -0.005764 -0.016278 0.004644 1.437319
    37 -0.112054 -0.111697 0.006584 0.292081 -0.087302 1.780410
  time 24
    0 0.000114 5.939355 -3.620358 0.000000 0.000000 -0.000030
    1 -10.349672 -9.294204 -3.941240 1.227099 -4.475079 1.516175
    2 0.096944 -8.450418 -0.009364 -0.230179 -0.055973 -0.237536
    3 1.075543 -2.255324 0.791183 0.071865 3.247478 0.282745
    4 12.207732 -10.546177 -4.210497 0.303345 -2.581877 -0.732528
    5 -0.071919 -8.498733 -0.104137 0.089440 0.288564 -0.031698
    6 -0.488517 -2.755600 -0.228261 -0.612871 0.037645 -0.287536
    7 0.039887 -1.479789 0.029853 -0.865508 0.000000 0.000000
    8 0.028785 -1.075730 -0.023111 -0.779020 0.000000 0.000001
    9 0.250028 -2.820663 -0.238396 -0.392785 -0.018453 -0.128421
    10 -0.049759 -1.680545 0.100480 -1.017848 0.000000 -0.000002
    11 -0.034141 -1.148311 0.084779 -0.431910 0.000000 0.000000
    12 0.957766 -2.746777 -0.090301 -0.178787 -0.162565 -0.001658
    13 -0.033419 -1.397127 -0.011255 -0.619980 0.000000 -0.000001
    14 -0.022360 -0.957435 0.018783 -0.098047 0.000000 0.000000
    15 -1.180680 -2.507215 -0.193861 -0.644496 0.122928 -0.318014
    16 -0.024966 -1.123933 0.017594 -0.778565 0.000000 0.000001
    17 -0.020057 -0.890966 0.010091 -0.695492 0.000000 0.000000
    18 0.583510 -1.197274 0.185377 0.499778 -0.612798 -0.732651
    19 1.535926 0.010245 0.005008 -0.220616 -0.026366 -0.691618
    20 1.100770 0.004527 -0.010676 -0.005984 0.015074 -0.201936
    21 0.120152 -0.050266 -0.054488 0.287568 3.110905 1.561085
    22 0.447952 -2.798983 -0.200442 -1.180010 0.239639 0.248507
    23 -0.032910 -1.480207 0.004936 -1.668858 0.000000 0.000002
    24 -0.027022 -1.076920 -0.020212 -1.015864 0.000000 0.000000
    25 -0.249534 -2.846962 -0.174216 -1.033989 0.218845 0.164949
    26 0.043235 -1.683940 0.096014 -1.738499 0.002823 -0.000167
    27 0.031730 -1.160831 0.058836 -1.160052 0.000642 0.008372
    28 -0.963866 -2.785142 -0.085346 -0.754276 0.267860 0.066916
    29 0.028479 -1.403069 0.006271 -1.364513 0.000000 0.000000
    30 0.021413 -0.957782 0.020047 -0.740299 0.000000 0.000000
    31 1.164475 -2.543938 -0.170328 -0.862922 0.065073 0.386604
    32 0.024033 -1.129041 0.017806 -1.702787 0.000000 0.000001
    33 0.014896 -0.883990 -0.019845 -0.853439 0.000000 0.000000
    34 -0.586770 -1.264475 0.200164 -0.446649 -1.113718 -2.509270
    35 1.522835 0.058681 0.016850 0.627276 -0.441885 0.679146
    36 1.117948 0.048424 -0.005764 -0.016278 0.004644 1.437277
    37 -0.119867 -0.111697 0.010491 0.293280 -0.085996 1.784657
  time 25
    0 0.000114 5.939355 -3.620358 0.000000 0.000000 -0.000030
    1 -10.056694 -9.094979 -3.941240 1.321340 -4.489972 1.565868
    2 0.096944 -8.450418 -0.009364 -0.224135 -0.093643 -0.228951
    3 1.075543 -2.255324 0.791183 0.071865 3.247478 0.282745
    4 12.063196 -10.546177 -4.315969 0.291850 -2.661550 -0.716289
    5 -0.071919 -8.498733 -0.104137 0.036005 0.288564 -0.031698
    6 -0.488517 -2.755600 -0.228261 -0.618546 0.037645 -0.287536
    7 0.039887 -1.479789 0.029853 -0.914289 0.000000 0.000000
    8 0.028785 -1.075730 -0.023111 -0.822428 0.000000 0.000001
    9 0.250028 -2.820663 -0.238396 -0.397402 -0.018453 -0.128421
    10 -0.049759 -1.680545 0.100480 -1.051403 0.000000 -0.000002
    11 -0.034141 -1.148311 0.084779 -0.455720 0.000000 0.000000
    12 0.957766 -2.746777 -0.090301 -0.182552 -0.162565 -0.001658
    13 -0.033419 -1.397127 -0.011255 -0.658918 0.000000 -0.000001
    14 -0.022360 -0.957435 0.018783 -0.112965 0.000000 0.000000
    15 -1.180680 -2.507215 -0.193861 -0.650343 0.122928 -0.318014
    16 -0.024966 -1.123933 0.017594 -0.824116 0.000000 0.000001
    17 -0.020057 -0.890966 0.010091 -0.741157 0.000000 0.000000
    18 0.583510 -1.197274 0.185377 0.500892 -0.611959 -0.734565
    19 1.535926 0.010245 0.005008 -0.220484 -0.020290 -0.697728
    20 1.100770 0.004527 -0.010676 -0.005984 0.015074 -0.201936
    21 0.120152 -0.050266 -0.054488 0.287568 3.110905 1.561085
    22 0.447952 -2.798983 -0.200442 -1.180010 0.239639 0.248507
    23 -0.032910 -1.480207 0.004936 -1.668858 0.000000 0.000002
    24 -0.027022 -1.076920 -0.020212 -1.015864 0.000000 0.000000
    25 -0.249534 -2.846962 -0.174216 -1.033989 0.218845 0.164949
    26 0.043235 -1.683940 0.096014 -1.738499 0.002823 -0.000167
    27 0.031730 -1.160831 0.058836 -1.160052 0.000642 0.008372
    28 -0.963866 -2.785142 -0.085346 -0.754276 0.267860 0.066916
    29 0.028479 -1.403069 0.006271 -1.364513 0.000000 0.000000
    30 0.021413 -0.957782 0.020047 -0.740299 0.000000 0.000000
    31 1.164475 -2.543938 -0.170328 -0.862922 0.065073 0.386604
    32 0.024033 -1.129041 0.017806 -1.702787 0.000000 0.000001
    33 0.014896 -0.883990 -0.019845 -0.853439 0.000000 0.000000
    34 -0.586770 -1.264475 0.200164 -0.446649 -1.113739 -2.509270
    35 1.522835 0.058681 0.016850 0.627276 -0.441885 0.679146
    36 1.117948 0.048424 -0.005764 -0.016278 0.004644 1.437277
    37 -0.123774 -0.111697 0.010491 0.294334 -0.084785 1.788286
  time 26
    0 0.000114 5.939355 -3.620358 0.000000 0.000000 -0.000030
    1 -9.802780 -8.915286 -3.941240 -1.738591 -4.921941 -1.532665
    2 0.096944 -8.450418 -0.009364 -0.217228 -0.127485 -0.218559
    3 1.075543 -2.255324 0.791183 0.071865 3.247478 0.282745
    4 11.969443 -10.546177 -4.390190 0.280834 -2.738640 -0.700567
    5 -0.071919 -8.498733 -0.104137 0.015284 0.288564 -0.031698
    6 -0.488517 -2.755600 -0.228261 -0.623194 0.037645 -0.287536
    7 0.039887 -1.479789 0.029853 -0.955505 0.000000 0.000000
    8 0.028785 -1.075730 -0.023111 -0.859123 0.000000 0.000001
    9 0.250028 -2.820663 -0.238396 -0.400340 -0.018453 -0.128421
    10 -0.049759 -1.680545 0.100480 -1.073290 0.000000 -0.000002
    11 -0.034141 -1.148311 0.084779 -0.481602 0.000000 0.000000
    12 0.957766 -2.746777 -0.090301 -0.187143 -0.162565 -0.001658
    13 -0.033419 -1.397127 -0.011255 -0.694803 0.000000 -0.000001
    14 -0.022360 -0.957435 0.018783 -0.127328 0.000000 0.000000
    15 -1.180680 -2.507215 -0.193861 -0.655341 0.122928 -0.318014
    16 -0.024966 -1.123933 0.017594 -0.864622 0.000000 0.000001
    17 -0.020057 -0.890966 0.010091 -0.781812 0.000000 0.000000
    18 0.583510 -1.197274 0.185377 0.501731 -0.611324 -0.736016
    19 1.535926 0.010245 0.005008 -0.220376 -0.015700 -0.702349
    20 1.100770 0.004527 -0.010676 -0.005984 0.015074 -0.201936
    21 0.120152 -0.050266 -0.054488 0.287568 3.110905 1.561085
    22 0.447952 -2.798983 -0.200442 -1.180010 0.239639 0.248507
    23 -0.032910 -1.480207 0.004936 -1.668858 0.000000 0.000002
    24 -0.027022 -1.076920 -0.020212 -1.015864 0.000000 0.000000
    25 -0.249534 -2.846962 -0.174216 -1.033989 0.218845 0.164949
    26 0.043235 -1.683940 0.096014 -1.738499 0.002823 -0.000167
    27 0.031730 -1.160831 0.058836 -1.160052 0.000642 0.008372
    28 -0.963866 -2.785142 -0.085346 -0.754276 0.267860 0.066916
    29 0.028479 -1.403069 0.006271 -1.364513 0.000000 0.000000
    30 0.021413 -0.957782 0.020047 -0.740299 0.000000 0.000000
    31 1.164475 -2.543938 -0.170328 -0.862922 0.065073 0.386604
    32 0.024033 -1.129041 0.017806 -1.702787 0.000000 0.000001
    33 0.014896 -0.883990 -0.019845 -0.853439 0.000000 0.000000
    34 -0.586770 -1.264475 0.200164 -0.446649 -1.113739 -2.509270
    35 1.522835 0.058681 0.016850 0.627276 -0.441885 0.679146
    36 1.117948 0.048424 -0.005764 -0.016278 0.004644 1.437277
    37 -0.131586 -0.111697 0.014397 0.295221 -0.083707 1.791316
  time 27
    0 0.000114 5.939355 -3.620358 0.000000 0.000000 -0.000030
    1 -9.591837 -8.770751 -3.941240 -1.671621 -4.911361 -1.497237
    2 0.096944 -8.450418 -0.009364 -0.210321 -0.156159 -0.207819
    3 1.075543 -2.255324 0.791183 0.071865 3.247478 0.282745
    4 11.938192 -10.546177 -4.417534 0.270967 -2.807791 -0.686515
    5 -0.071919 -8.498733 -0.104137 0.017344 0.288453 -0.024423
    6 -0.488517 -2.755600 -0.228261 -0.626724 0.037645 -0.287536
    7 0.039887 -1.479789 0.029853 -0.987321 0.000000 0.000000
    8 0.028785 -1.075730 -0.023111 -0.887381 0.000000 0.000001
    9 0.250028 -2.820663 -0.238396 -0.401366 -0.018453 -0.128421
    10 -0.049759 -1.680545 0.100480 -1.081089 0.000000 -0.000002
    11 -0.034141 -1.148311 0.084779 -0.509589 0.000000 0.000000
    12 0.957766 -2.746777 -0.090301 -0.192740 -0.162565 -0.001658
    13 -0.033419 -1.397127 -0.011255 -0.726711 0.000000 -0.000001
    14 -0.022360 -0.957435 0.018783 -0.140822 0.000000 0.000000
    15 -1.180680 -2.507215 -0.193861 -0.659443 0.122928 -0.318014
    16 -0.024966 -1.123933 0.017594 -0.898628 0.000000 0.000001
    17 -0.020057 -0.890966 0.010091 -0.815918 0.000000 0.000000
    18 0.583510 -1.197274 0.185377 0.502258 -0.610928 -0.736943
    19 1.535926 0.010245 0.005008 -0.220305 -0.012811 -0.705280
    20 1.100770 0.004527 -0.010676 -0.005984 0.015074 -0.201936
    21 0.120152 -0.050266 -0.054488 0.287568 3.110905 1.561085
    22 0.447952 -2.798983 -0.200442 -1.180010 0.239639 0.248507
    23 -0.032910 -1.480207 0.004936 -1.668858 0.000000 0.000002
    24 -0.027022 -1.076920 -0.020212 -1.015864 0.000000 0.000000
    25 -0.249534 -2.846962 -0.174216 -1.033989 0.218845 0.164949
    26 0.043235 -1.683940 0.096014 -1.738499 0.002823 -0.000167
    27 0.031730 -1.160831 0.058836 -1.160052 0.000642 0.008372
    28 -0.963866 -2.785142 -0.085346 -0.754276 0.267860 0.066916
    29 0.028479 -1.403069 0.006271 -1.364513 0.000000 0.000000
    30 0.021413 -0.957782 0.020047 -0.740299 0.000000 0.000000
    31 1.164475 -2.543938 -0.170328 -0.862922 0.065073 0.386604
    32 0.024033 -1.129041 0.017806 -1.702787 0.000000 0.000001
    33 0.014896 -0.883990 -0.019845 -0.853439 0.000000 0.000000
    34 -0.586770 -1.264475 0.200164 -0.446649 -1.113739 -2.509270
    35 1.522835 0.058681 0.016850 0.627276 -0.441885 0.679146
    36 1.117948 0.048424 -0.005764 -0.016278 0.004644 1.437277
    37 -0.135493 -0.111697 0.014397 0.295940 -0.082808 1.793684
  time 28
    0 0.000114 5.939355 -3.620358 0.000000 0.000000 -0.000030
    1 -9.419956 -8.649653 -3.859207 -1.621256 -4.903467 -1.470523
    2 0.096944 -8.450418 -0.009364 -0.204321 -0.178264 -0.198191
    3 1.075543 -2.255324 0.791183 0.071865 3.247478 0.282745
    4 11.938192 -10.546177 -4.245654 0.262920 -2.863744 -0.675171
    5 -0.071919 -8.498733 -0.104137 0.021898 0.288147 -0.008400
    6 -0.488517 -2.755600 -0.228261 -0.628913 0.037645 -0.287536
    7 0.039887 -1.479789 0.029853 -1.007764 0.000000 0.000000
    8 0.028785 -1.075730 -0.023111 -0.905570 0.000000 0.000001
    9 0.250028 -2.820663 -0.238396 -0.401366 -0.018453 -0.128421
    10 -0.049759 -1.680545 0.100480 -1.081089 0.000000 -0.000002
    11 -0.034141 -1.148311 0.084779 -0.597764 0.000000 0.000000
    12 0.957766 -2.746777 -0.090301 -0.211124 -0.162565 -0.001658
    13 -0.033419 -1.397127 -0.011255 -0.755475 0.000000 -0.000001
    14 -0.022360 -0.957435 0.018783 -0.162229 0.000000 0.000000
    15 -1.180680 -2.507215 -0.193861 -0.662556 0.122928 -0.318014
    16 -0.024966 -1.123933 0.017594 -0.924678 0.000000 0.000001
    17 -0.020057 -0.890966 0.010091 -0.842069 0.000000 0.000000
    18 0.583510 -1.197274 0.185377 0.502450 -0.610784 -0.737257
    19 1.535926 0.010245 0.005008 -0.220281 -0.011793 -0.706298
    20 1.100770 0.004527 -0.010676 -0.005984 0.015074 -0.201936
    21 0.120152 -0.050266 -0.054488 0.287568 3.110905 1.561085
    22 0.447952 -2.798983 -0.200442 -1.180010 0.239639 0.248507
    23 -0.032910 -1.480207 0.004936 -1.668858 0.000000 0.000002
    24 -0.027022 -1.076920 -0.020212 -1.015864 0.000000 0.000000
    25 -0.249534 -2.846962 -0.174216 -1.033989 0.218845 0.164949
    26 0.043235 -1.683940 0.096014 -1.738499 0.002823 -0.000167
    27 0.031730 -1.160831 0.058836 -1.160052 0.000642 0.008372
    28 -0.963866 -2.785142 -0.085346 -0.754276 0.267860 0.066916
    29 0.028479 -1.403069 0.006271 -1.364513 0.000000 0.000000
    30 0.021413 -0.957782 0.020047 -0.740299 0.000000 0.000000
    31 1.164475 -2.543938 -0.170328 -0.862922 0.065073 0.386604
    32 0.024033 -1.129041 0.017806 -1.702787 0.000000 0.000001
    33 0.014896 -0.883990 -0.019845 -0.853439 0.000000 0.000000
    34 -0.586770 -1.264475 0.200164 -0.446649 -1.113739 -2.509270
    35 1.522835 0.058681 0.016850 0.627276 -0.441885 0.679146
    36 1.117948 0.048424 -0.005764 -0.016278 0.004644 1.437277
    37 -0.139399 -0.111697 0.014397 0.296468 -0.082113 1.795409
  time 29
    0 0.000114 5.939355 -3.620358 0.000000 0.000000 -0.000030
    1 -9.298859 -8.567619 -3.702952 -1.589531 -4.898585 -1.453767
    2 0.096944 -8.450418 -0.009364 -0.200115 -0.192521 -0.191274
    3 1.075543 -2.255324 0.791183 0.071865 3.247478 0.282745
    4 11.938192 -10.546177 -3.929238 0.257556 -2.901141 -0.667569
    5 -0.071919 -8.498733 -0.104137 0.026451 0.287772 0.007623
    6 -0.488517 -2.755600 -0.228261 -0.629673 0.037645 -0.287536
    7 0.039887 -1.479789 0.029853 -1.015001 0.000000 0.000000
    8 0.028785 -1.075730 -0.023111 -0.912011 0.000000 0.000001
    9 0.250028 -2.820663 -0.238396 -0.401366 -0.018453 -0.128421
    10 -0.049759 -1.680545 0.100480 -1.081089 0.000000 -0.000002
    11 -0.034141 -1.148311 0.084779 -0.731148 0.000000 0.000000
    12 0.957766 -2.746777 -0.090301 -0.238830 -0.162565 -0.001658
    13 -0.033419 -1.397127 -0.011255 -0.777950 0.000000 -0.000001
    14 -0.022360 -0.957435 0.018783 -0.188424 0.000000 0.000000
    15 -1.180680 -2.507215 -0.193861 -0.664489 0.122928 -0.318014
    16 -0.024966 -1.123933 0.017594 -0.941366 0.000000 0.000001
    17 -0.020057 -0.890966 0.010091 -0.858814 0.000000 0.000000
    18 0.583510 -1.197274 0.185377 0.502450 -0.610784 -0.737257
    19 1.535926 0.010245 0.005008 -0.220281 -0.011793 -0.706298
    20 1.100770 0.004527 -0.010676 -0.005984 0.015074 -0.201936
    21 0.120152 -0.050266 -0.054488 0.287568 3.110905 1.561085
    22 0.447952 -2.798983 -0.200442 -1.180010 0.239639 0.248507
    23 -0.032910 -1.480207 0.004936 -1.668858 0.000000 0.000002
    24 -0.027022 -1.076920 -0.020212 -1.015864 0.000000 0.000000
    25 -0.249534 -2.846962 -0.174216 -1.033989 0.218845 0.164949
    26 0.043235 -1.683940 0.096014 -1.738499 0.002823 -0.000167
    27 0.031730 -1.160831 0.058836 -1.160052 0.000642 0.008372
    28 -0.963866 -2.785142 -0.085346 -0.754276 0.267860 0.066916
    29 0.028479 -1.403069 0.006271 -1.364513 0.000000 0.000000
    30 0.021413 -0.957782 0.020047 -0.740299 0.000000 0.000000
    31 1.164475 -2.543938 -0.170328 -0.862922 0.065073 0.386604
    32 0.024033 -1.129041 0.017806 -1.702787 0.000000 0.000001
    33 0.014896 -0.883990 -0.019845 -0.853439 0.000000 0.000000
    34 -0.586770 -1.264475 0.200164 -0.446649 -1.113739 -2.509270
    35 1.522835 0.058681 0.016850 0.627276 -0.441885 0.679146
    36 1.117948 0.048424 -0.005764 -0.016278 0.004644 1.437277
    37 -0.139399 -0.111697 0.014397 0.296791 -0.081681 1.796449
  time 30
    0 0.000114 5.939355 -3.620358 0.000000 0.000000 -0.000030
    1 -9.255889 -8.536368 -3.620918 -1.578534 -4.896794 -1.447927
    2 0.096944 -8.450418 -0.009364 -0.198498 -0.197561 -0.188633
    3 1.075543 -2.255324 0.791183 0.071865 3.247478 0.282745
    4 11.938192 -10.546177 -3.761264 0.255640 -2.914818 -0.664747
    5 -0.071919 -8.498733 -0.104137 0.028525 0.287591 0.014898
    6 -0.488517 -2.755600 -0.228261 -0.629673 0.037645 -0.287536
    7 0.039887 -1.479789 0.029853 -1.015001 0.000000 0.000000
    8 0.028785 -1.075730 -0.023111 -0.912011 0.000000 0.000001
    9 0.250028 -2.820663 -0.238396 -0.401366 -0.018453 -0.128421
    10 -0.049759 -1.680545 0.100480 -1.081089 0.000000 -0.000002
    11 -0.034141 -1.148311 0.084779 -0.799996 0.000000 0.000000
    12 0.957766 -2.746777 -0.090301 -0.253106 -0.162565 -0.001658
    13 -0.033419 -1.397127 -0.011255 -0.787060 0.000000 -0.000001
    14 -0.022360 -0.957435 0.018783 -0.201165 0.000000 0.000000
    15 -1.180680 -2.507215 -0.193861 -0.665149 0.122928 -0.318014
    16 -0.024966 -1.123933 0.017594 -0.947284 0.000000 0.000001
    17 -0.020057 -0.890966 0.010091 -0.864747 0.000000 0.000000
    18 0.583510 -1.197274 0.185377 0.502450 -0.610784 -0.737257
    19 1.535926 0.010245 0.005008 -0.220281 -0.011793 -0.706298
    20 1.100770 0.004527 -0.010676 -0.005984 0.015074 -0.201936
    21 0.120152 -0.050266 -0.054488 0.287568 3.110905 1.561085
    22 0.447952 -2.798983 -0.200442 -1.180010 0.239639 0.248507
    23 -0.032910 -1.480207 0.004936 -1.668858 0.000000 0.000002
    24 -0.027022 -1.076920 -0.020212 -1.015864 0.000000 0.000000
    25 -0.249534 -2.846962 -0.174216 -1.033989 0.218845 0.164949
    26 0.043235 -1.683940 0.096014 -1.738499 0.002823 -0.000167
    27 0.031730 -1.160831 0.058836 -1.160052 0.000642 0.008372
    28 -0.963866 -2.785142 -0.085346 -0.754276 0.267860 0.066916
    29 0.028479 -1.403069 0.006271 -1.364513 0.000000 0.000000
    30 0.021413 -0.957782 0.020047 -0.740299 0.000000 0.000000
    31 1.164475 -2.543938 -0.170328 -0.862922 0.065073 0.386604
    32 0.024033 -1.129041 0.017806 -1.702787 0.000000 0.000001
    33 0.014896 -0.883990 -0.019845 -0.853439 0.000000 0.000000
    34 -0.586770 -1.264475 0.200164 -0.446649 -1.113739 -2.509270
    35 1.522835 0.058681 0.016850 0.627276 -0.441885 0.679146
    36 1.117948 0.048424 -0.005764 -0.016278 0.004644 1.437277
    37 -0.139399 -0.111697 0.014397 0.296911 -0.081526 1.796803
end
