// Created by Crowbar 0.49.0.0

$modelname "weapons/tfa_cso/c_kh2002.mdl"

$Include "csonline_gmod.qci"

$bodygroup "weapon"
{
	studio "v_kh2002_v_khaybar"
}

$CDMaterials "models\weapons\tfa_cso\kh2002"

$attachment 0 "v_root" 0.601 0.002 15.452
//$attachment 1 "v_root" 0 1 4

$definebone "v_root" "" 0.000000 -0.000003 0.000002 -89.999983 90.000038 0.000000 0.000000 0.000000 0.000000 -0.000000 0.000000 0.000000
$definebone "triger" "v_root" -0.571385 0.000001 0.187840 0.000057 -90.000038 -89.999983 0.000000 0.000000 0.000000 -0.000000 0.000000 -0.000000
$definebone "reloader" "v_root" 1.919001 -0.000000 1.430036 0.000057 -90.000038 -89.999983 0.000000 0.000000 0.000000 -0.000000 0.000000 -0.000000
$definebone "swich" "reloader" 0.000001 -0.405673 0.469965 -0.000000 0.000000 -0.000000 0.000000 0.000000 0.000000 -0.000000 0.000000 -0.000000
$definebone "megazine" "v_root" 0.666032 -0.000003 -7.756445 0.000036 180.000007 180.000007 0.000000 0.000000 0.000000 0.000000 0.000000 0.000000

$sequence "idle" {
	"v_kh2002_anims\idle"
	fps 30
	loop
	activity "ACT_VM_IDLE" 1
	snap
}
$sequence "shoot1" {
	"v_kh2002_anims\shoot1"
	{ event 5001 2 "22" }
	fps 30
	activity "ACT_VM_PRIMARYATTACK" 1
	snap
}
$sequence "shoot2" {
	"v_kh2002_anims\shoot2"
	{ event 5001 2 "22" }
	fps 30
	activity "ACT_VM_PRIMARYATTACK" 2
	snap
}
$sequence "shoot3" {
	"v_kh2002_anims\shoot3"
	{ event 5001 2 "22" }
	fps 30
	activity "ACT_VM_PRIMARYATTACK" 3
	snap
}
$sequence "reload" {
	"v_kh2002_anims\reload"
	{ event 5004 10 "KH2002.ClipOut" }
	{ event 5004 34 "KH2002.ClipIn" }
	{ event 5004 76 "KH2002.BoltPull" }
	fps 37
	activity "ACT_VM_RELOAD" 1
	snap
}
$sequence "draw" {
	"v_kh2002_anims\draw"
	{ event 5004 12 "KH2002.Draw" }
	fps 30
	activity "ACT_VM_DRAW" 1
	snap
}
