version 1
nodes
  0 "Bip01 L Clavicle" -1
  1 "Bip01 L UpperArm" 0
  2 "Bip01 L Forearm" 1
  3 "Bip01 L Hand" 2
  4 "Bone_epic_root" 3
  5 "Bone_magazine_01" 4
  6 "Bone_magazine_02" 5
  7 "Bone_magazine_03" 6
  8 "Bone_magazine_04" 7
  9 "Bone_trigger" 4
  10 "Point_led" 4
  11 "crossbowex21_led" 10
  12 "Bone_epick_right" 4
  13 "Bone_epick_left" 4
  14 "Bone_bowline" 4
  15 "Point_line" -1
  16 "bow_line2" 15
  17 "root" -1
  18 "Bone01" 17
  19 "Bone_Lefthand" 18
  20 "Bone_L_Upper" 18
  21 "Bone13" 19
  22 "Bone14" 21
  23 "Bone15" 22
  24 "Bone17" 19
  25 "Bone18" 24
  26 "Bone19" 25
  27 "Bone21" 19
  28 "Bone22" 27
  29 "Bone23" 28
  30 "Bone09" 19
  31 "Bone10" 30
  32 "Bone11" 31
  33 "Bone05" 19
  34 "Bone06" 33
  35 "Bone07" 34
  36 "Bone_Se_Hand-L" 19
  37 "Bone04" 17
  38 "Bone_Righthand" 37
  39 "Bone39" 38
  40 "Bone40" 39
  41 "Bone41" 40
  42 "Bone35" 38
  43 "Bone36" 42
  44 "Bone37" 43
  45 "Bone31" 38
  46 "Bone32" 45
  47 "Bone33" 46
  48 "Bone43" 38
  49 "Bone44" 48
  50 "Bone45" 49
  51 "Bone27" 38
  52 "Bone28" 51
  53 "Bone29" 52
  54 "Bone_Se_Hand-R" 38
  55 "Bone_R_Upper" 37
end
skeleton
  time 0
    0 -4.642885 5.132840 -0.495831 0.000000 0.372218 0.081720
    1 4.065896 0.000000 0.000000 0.581565 0.089607 1.001026
    2 5.727314 0.000000 0.000000 0.000000 0.000000 -2.432950
    3 9.229775 0.000001 0.000000 -2.073161 0.058763 -0.317050
    4 -4.028509 2.385202 -0.139540 -1.712325 0.032869 -0.243476
    5 19.850609 -2.919322 1.053877 -1.570796 3.141592 0.000000
    6 1.136250 -0.000008 0.000000 0.000000 0.000000 0.000000
    7 0.163969 -1.053874 0.889052 0.000000 0.000000 -0.000001
    8 5.025910 0.000002 0.000001 0.000000 0.000000 3.141592
    9 9.203299 0.828617 -0.000001 0.000000 0.000000 -1.469692
    10 12.265707 7.447968 -0.000001 -1.570796 1.570451 0.000000
    11 -0.000008 0.000090 0.000003 0.000000 0.000000 0.000000
    12 11.236527 1.770459 3.999999 -1.570796 0.000000 0.000000
    13 11.236526 1.770458 -4.000000 -1.570796 0.000000 0.000000
    14 20.099432 0.000001 0.099096 -1.570796 0.000000 0.000000
    15 6.261313 77.310570 -53.358147 0.000000 0.000000 0.000000
    16 0.000004 -0.661568 0.189796 0.000000 0.000000 0.000000
    17 -7.344676 0.170615 -0.470109 0.000000 0.000000 0.000000
    18 8.586528 9.606782 -3.374534 5.819041 -2.305732 0.356957
    19 0.014018 -8.475293 -0.068979 -0.080153 0.747111 0.296861
    20 5.542467 -5.175341 -0.419346 -1.557620 -0.033361 -3.785134
    21 -0.488518 -2.755602 -0.228260 -1.572657 -0.177706 0.023979
    22 0.039887 -1.511041 0.010322 -1.082681 -0.013830 0.022424
    23 0.028786 -1.157765 -0.124675 -1.025127 -0.015053 0.021620
    24 0.250027 -2.820665 -0.238396 -1.659172 -0.096485 0.161223
    25 -0.049759 -1.618042 0.080947 -0.884122 0.008641 -0.024211
    26 -0.034142 -1.160031 0.053531 -0.944064 0.008150 -0.024377
    27 0.957766 -2.746780 -0.090302 -0.057777 -0.183753 0.043824
    28 -0.033420 -1.397129 -0.011257 -0.283970 0.006340 -0.013592
    29 -0.022360 -0.957436 0.010971 -0.294056 0.006136 -0.013662
    30 -1.180681 -2.507217 -0.193859 -0.844729 -0.059117 0.074747
    31 -0.024967 -1.123934 0.017597 -1.583565 -0.012788 -0.063086
    32 -0.020057 -0.898781 0.017903 -0.698835 0.007958 -0.027493
    33 0.591323 -1.216809 0.247881 -0.837213 -0.216096 0.257682
    34 1.301545 -0.325702 0.106575 0.206802 -0.315398 -1.473233
    35 0.944516 -0.225949 0.008853 0.144123 -0.084865 -1.398731
    36 0.120153 -0.050270 -0.054489 0.287569 3.110905 1.561085
    37 2.838701 -3.699963 -7.208534 -0.096609 -6.014444 0.245446
    38 0.104757 -8.395729 -0.040616 -0.214351 -0.046521 0.103790
    39 0.701867 -2.736484 -0.305915 -0.119765 0.191640 0.297512
    40 -0.032909 -1.499736 0.032285 -1.517093 0.023274 -0.030055
    41 -0.027022 -1.127703 -0.020210 -1.257302 0.024425 -0.022986
    42 0.012193 -2.846964 -0.361719 0.212911 0.247369 0.269131
    43 0.043235 -1.656596 0.068667 -1.419909 -0.022105 0.007479
    44 0.031729 -1.141298 0.051025 -1.332477 -0.014878 0.007449
    45 -0.709952 -2.835928 -0.347077 0.195392 0.261101 0.242280
    46 0.028479 -1.403067 -0.001542 -0.497878 -0.008976 -0.021057
    47 0.021413 -0.949968 0.020046 -0.474313 -0.008341 -0.019727
    48 1.387138 -2.430655 -0.178143 -0.387235 -0.142500 0.585800
    49 0.024032 -1.148574 -0.009538 -1.316396 0.024520 0.063411
    50 0.014898 -0.903521 -0.012035 -1.116529 0.012883 0.055153
    51 -0.500830 -1.315260 0.063438 0.189258 -0.614315 -2.586011
    52 1.542367 0.039149 0.016848 -0.009160 -0.003071 0.525533
    53 1.117947 0.048424 -0.005766 -0.009124 -0.031598 0.407810
    54 -0.139399 -0.111698 0.014397 0.285382 -0.030687 1.580508
    55 -7.628035 3.846837 -0.430845 1.574864 -0.030104 -0.554184
  time 1
    0 -4.599915 5.121121 -0.495831 0.000000 0.372218 0.081720
    1 4.065896 0.000000 0.000000 0.582584 0.089739 1.000270
    2 5.727314 0.000000 0.000000 0.000000 0.000000 -2.431711
    3 9.229775 0.000001 0.000000 -2.097564 0.091535 -0.331286
    4 -4.028509 2.385202 -0.139540 -1.712325 0.032869 -0.243476
    5 19.850609 -2.919322 1.053877 -1.570796 3.141592 0.000000
    6 1.136250 -0.000008 0.000000 0.000000 0.000000 0.000000
    7 0.163969 -1.053874 0.889052 0.000000 0.000000 -0.000001
    8 5.025910 0.000002 0.000001 0.000000 0.000000 3.141592
    9 9.203299 0.828617 -0.000001 0.000000 0.000000 -1.469692
    10 12.265707 7.447968 -0.000001 -1.570796 1.570451 0.000000
    11 -0.000008 0.000090 0.000003 0.000000 0.000000 0.000000
    12 11.236527 1.770459 3.999999 -1.570796 0.000000 0.000000
    13 11.236526 1.770458 -4.000000 -1.570796 0.000000 0.000000
    14 20.099432 0.000001 0.099096 -1.570796 0.000000 0.000000
    15 6.261313 77.310570 -53.358147 0.000000 0.000000 0.000000
    16 0.000004 -0.661568 0.189796 0.000000 0.000000 0.000000
    17 -7.301705 0.151083 -0.470109 0.000000 0.000000 0.000000
    18 8.590434 9.606782 -3.378440 5.817282 -2.305391 0.358003
    19 0.017924 -8.463574 -0.072885 -0.126792 0.769516 0.277942
    20 5.550280 -5.167528 -0.419346 -1.557716 -0.033361 -3.783791
    21 -0.488518 -2.755602 -0.228260 -1.572657 -0.177706 0.023979
    22 0.039887 -1.511041 0.010322 -1.082681 -0.013830 0.022424
    23 0.028786 -1.157765 -0.124675 -1.025127 -0.015053 0.021620
    24 0.250027 -2.820665 -0.238396 -1.659172 -0.096485 0.161223
    25 -0.049759 -1.618042 0.080947 -0.884122 0.008641 -0.024211
    26 -0.034142 -1.160031 0.053531 -0.944064 0.008150 -0.024377
    27 0.957766 -2.746780 -0.090302 -0.057777 -0.183753 0.043824
    28 -0.033420 -1.397129 -0.011257 -0.283970 0.006340 -0.013592
    29 -0.022360 -0.957436 0.010971 -0.294056 0.006136 -0.013662
    30 -1.180681 -2.507217 -0.193859 -0.844729 -0.059117 0.074747
    31 -0.024967 -1.123934 0.017597 -1.583565 -0.012788 -0.063086
    32 -0.020057 -0.898781 0.017903 -0.698835 0.007958 -0.027493
    33 0.591323 -1.216809 0.247881 -0.837213 -0.216096 0.257682
    34 1.301545 -0.325702 0.106575 0.206802 -0.315398 -1.473233
    35 0.944516 -0.225949 0.008853 0.144123 -0.084865 -1.398731
    36 0.120153 -0.050270 -0.054489 0.287569 3.110905 1.561085
    37 2.811356 -3.446049 -7.310100 -0.094954 -6.012171 0.193454
    38 0.096944 -8.395729 -0.040616 -0.200154 -0.032763 0.128004
    39 0.701867 -2.736484 -0.305915 -0.119765 0.191640 0.297512
    40 -0.032909 -1.499736 0.032285 -1.517093 0.023274 -0.030055
    41 -0.027022 -1.127703 -0.020210 -1.257302 0.024425 -0.022986
    42 0.012193 -2.846964 -0.361719 0.212911 0.247369 0.269131
    43 0.043235 -1.656596 0.068667 -1.419909 -0.022105 0.007479
    44 0.031729 -1.141298 0.051025 -1.332477 -0.014878 0.007449
    45 -0.709952 -2.835928 -0.347077 0.195392 0.261101 0.242280
    46 0.028479 -1.403067 -0.001542 -0.497878 -0.008976 -0.021057
    47 0.021413 -0.949968 0.020046 -0.474313 -0.008341 -0.019727
    48 1.387138 -2.430655 -0.178143 -0.387235 -0.142500 0.585800
    49 0.024032 -1.148574 -0.009538 -1.316396 0.024520 0.063411
    50 0.014898 -0.903521 -0.012035 -1.116529 0.012883 0.055153
    51 -0.500830 -1.315260 0.063438 0.189258 -0.614315 -2.586011
    52 1.542367 0.039149 0.016848 -0.009160 -0.003071 0.525533
    53 1.117947 0.048424 -0.005766 -0.009124 -0.031598 0.407810
    54 -0.139399 -0.111698 0.014397 0.285382 -0.030687 1.580508
    55 -7.889762 3.081189 -0.446471 1.572947 -0.031922 -0.456092
  time 2
    0 -4.467099 5.066432 -0.495831 0.000000 0.372218 0.081720
    1 4.065896 0.000000 0.000000 0.584633 0.090077 0.998645
    2 5.727314 0.000000 0.000000 0.000000 0.000000 -2.429200
    3 9.229775 0.000001 0.000000 -2.130844 0.132540 -0.353956
    4 -4.028509 2.385202 -0.139540 -1.712325 0.032869 -0.243476
    5 19.850609 -2.919322 1.053877 -1.570796 3.141592 0.000000
    6 1.136250 -0.000008 0.000000 0.000000 0.000000 0.000000
    7 0.163969 -1.053874 0.889052 0.000000 0.000000 -0.000001
    8 5.025910 0.000002 0.000001 0.000000 0.000000 3.141592
    9 9.203299 0.828617 -0.000001 0.000000 0.000000 -1.469692
    10 12.265707 7.447968 -0.000001 -1.570796 1.570451 0.000000
    11 -0.000008 0.000090 0.000003 0.000000 0.000000 0.000000
    12 11.236527 1.770459 3.999999 -1.570796 0.000000 0.000000
    13 11.236526 1.770458 -4.000000 -1.570796 0.000000 0.000000
    14 20.099432 0.000001 0.099096 -1.570796 0.000000 0.000000
    15 6.261313 77.310570 -53.358147 0.000000 0.000000 0.000000
    16 0.000004 -0.661568 0.189796 0.000000 0.000000 0.000000
    17 -7.172795 0.100301 -0.470109 0.000000 0.000000 0.000000
    18 8.594340 9.602876 -3.382346 5.813764 -2.304538 0.360255
    19 0.017924 -8.455762 -0.072885 -0.188353 0.798434 0.254430
    20 5.569812 -5.155809 -0.419346 -1.557716 -0.033361 -3.781254
    21 -0.488518 -2.755602 -0.228260 -1.572657 -0.177706 0.023979
    22 0.039887 -1.511041 0.010322 -1.082681 -0.013830 0.022424
    23 0.028786 -1.157765 -0.124675 -1.025127 -0.015053 0.021620
    24 0.250027 -2.820665 -0.238396 -1.659172 -0.096485 0.161223
    25 -0.049759 -1.618042 0.080947 -0.884122 0.008641 -0.024211
    26 -0.034142 -1.160031 0.053531 -0.944119 0.008150 -0.024377
    27 0.957766 -2.746780 -0.090302 -0.057777 -0.183753 0.043824
    28 -0.033420 -1.397129 -0.011257 -0.283970 0.006340 -0.013592
    29 -0.022360 -0.957436 0.010971 -0.294056 0.006136 -0.013662
    30 -1.180681 -2.507217 -0.193859 -0.844729 -0.059117 0.074747
    31 -0.024967 -1.123934 0.017597 -1.583565 -0.012788 -0.063086
    32 -0.020057 -0.898781 0.017903 -0.698835 0.007958 -0.027493
    33 0.591323 -1.216809 0.247881 -0.837213 -0.216096 0.257682
    34 1.301545 -0.325702 0.106575 0.206802 -0.315398 -1.473233
    35 0.944516 -0.225949 0.008853 0.144123 -0.084865 -1.398731
    36 0.120153 -0.050270 -0.054489 0.287569 3.110905 1.561085
    37 2.752761 -3.129633 -7.415572 -0.094954 -6.010080 0.126702
    38 0.096944 -8.391823 -0.048429 -0.181128 -0.010719 0.157630
    39 0.701867 -2.736484 -0.305915 -0.119765 0.191640 0.297512
    40 -0.032909 -1.499736 0.032285 -1.517093 0.023274 -0.030055
    41 -0.027022 -1.127703 -0.020210 -1.257302 0.024425 -0.022986
    42 0.012193 -2.846964 -0.361719 0.212911 0.247369 0.269131
    43 0.043235 -1.656596 0.068667 -1.419909 -0.022105 0.007479
    44 0.031729 -1.141298 0.051025 -1.332477 -0.014878 0.007449
    45 -0.709952 -2.835928 -0.347077 0.195392 0.261101 0.242280
    46 0.028479 -1.403067 -0.001542 -0.497878 -0.008976 -0.021057
    47 0.021413 -0.949968 0.020046 -0.474313 -0.008341 -0.019727
    48 1.387138 -2.430655 -0.178143 -0.387235 -0.142500 0.585800
    49 0.024032 -1.148574 -0.009538 -1.316396 0.024520 0.063411
    50 0.014898 -0.903521 -0.012035 -1.116529 0.012883 0.055153
    51 -0.500830 -1.315260 0.063438 0.189258 -0.614315 -2.586011
    52 1.542367 0.039149 0.016848 -0.009160 -0.003071 0.525533
    53 1.117947 0.048424 -0.005766 -0.009124 -0.031598 0.407810
    54 -0.139399 -0.111698 0.014397 0.285382 -0.030687 1.580508
    55 -8.128051 2.088971 -0.458190 1.570360 -0.034028 -0.332516
  time 3
    0 -4.263968 4.996117 -0.495831 0.000000 0.372218 0.081720
    1 4.065896 0.000000 0.000000 0.586179 0.090313 0.997469
    2 5.727314 0.000000 0.000000 0.000000 0.000000 -2.427324
    3 9.229775 0.000001 0.000000 -2.165555 0.174651 -0.376490
    4 -4.028509 2.385202 -0.139540 -1.712325 0.032869 -0.243476
    5 19.850609 -2.919322 1.053877 -1.570796 3.141592 0.000000
    6 1.136250 -0.000008 0.000000 0.000000 0.000000 0.000000
    7 0.163969 -1.053874 0.889052 0.000000 0.000000 -0.000001
    8 5.025910 0.000002 0.000001 0.000000 0.000000 3.141592
    9 9.203299 0.828617 -0.000001 0.000000 0.000000 -1.469692
    10 12.265707 7.447968 -0.000001 -1.570796 1.570451 0.000000
    11 -0.000008 0.000090 0.000003 0.000000 0.000000 0.000000
    12 11.236527 1.770459 3.999999 -1.570796 0.000000 0.000000
    13 11.236526 1.770458 -4.000000 -1.570796 0.000000 0.000000
    14 20.099432 0.000001 0.099096 -1.570796 0.000000 0.000000
    15 6.261313 77.310570 -53.358147 0.000000 0.000000 0.000000
    16 0.000004 -0.661568 0.189796 0.000000 0.000000 0.000000
    17 -6.965758 0.026080 -0.470109 0.000000 0.000000 0.000000
    18 8.598247 9.598969 -3.386253 5.811125 -2.304026 0.361864
    19 0.021831 -8.444042 -0.076791 -0.255640 0.826158 0.223847
    20 5.581531 -5.144090 -0.419346 -1.557812 -0.033361 -3.779463
    21 -0.488518 -2.755602 -0.228260 -1.572657 -0.177706 0.023979
    22 0.039887 -1.511041 0.010322 -1.082681 -0.013830 0.022424
    23 0.028786 -1.157765 -0.124675 -1.025127 -0.015053 0.021620
    24 0.250027 -2.820665 -0.238396 -1.659172 -0.096485 0.161223
    25 -0.049759 -1.618042 0.080947 -0.884122 0.008641 -0.024211
    26 -0.034142 -1.160031 0.053531 -0.944119 0.008150 -0.024377
    27 0.957766 -2.746780 -0.090302 -0.057777 -0.183753 0.043824
    28 -0.033420 -1.397129 -0.011257 -0.283970 0.006340 -0.013592
    29 -0.022360 -0.957436 0.010971 -0.294056 0.006136 -0.013662
    30 -1.180681 -2.507217 -0.193859 -0.844729 -0.059117 0.074747
    31 -0.024967 -1.123934 0.017597 -1.583565 -0.012788 -0.063086
    32 -0.020057 -0.898781 0.017903 -0.698835 0.007958 -0.027493
    33 0.591323 -1.216809 0.247881 -0.837213 -0.216096 0.257682
    34 1.301545 -0.325702 0.106575 0.206802 -0.315398 -1.473233
    35 0.944516 -0.225949 0.008853 0.144123 -0.084865 -1.398731
    36 0.120153 -0.050270 -0.054489 0.287569 3.110905 1.561085
    37 2.678540 -2.813217 -7.501512 -0.093172 -6.006988 0.063283
    38 0.104757 -8.387917 -0.048429 -0.162313 0.010754 0.184138
    39 0.701867 -2.736484 -0.305915 -0.119765 0.191640 0.297512
    40 -0.032909 -1.499736 0.032285 -1.517093 0.023274 -0.030055
    41 -0.027022 -1.127703 -0.020210 -1.257302 0.024425 -0.022986
    42 0.012193 -2.846964 -0.361719 0.212911 0.247369 0.269131
    43 0.043235 -1.656596 0.068667 -1.419909 -0.022105 0.007479
    44 0.031729 -1.141298 0.051025 -1.332477 -0.014878 0.007449
    45 -0.709952 -2.835928 -0.347077 0.195392 0.261101 0.242280
    46 0.028479 -1.403067 -0.001542 -0.497878 -0.008976 -0.021057
    47 0.021413 -0.949968 0.020046 -0.474313 -0.008341 -0.019727
    48 1.387138 -2.430655 -0.178143 -0.387235 -0.142500 0.585800
    49 0.024032 -1.148574 -0.009538 -1.316396 0.024520 0.063411
    50 0.014898 -0.903521 -0.012035 -1.116529 0.012883 0.055153
    51 -0.500830 -1.315260 0.063438 0.189258 -0.614315 -2.586011
    52 1.542367 0.039149 0.016848 -0.009160 -0.003071 0.525533
    53 1.117947 0.048424 -0.005766 -0.009124 -0.031598 0.407810
    54 -0.139399 -0.111698 0.014397 0.285382 -0.030687 1.580508
    55 -8.229616 1.124098 -0.469909 1.567678 -0.035752 -0.214126
  time 4
    0 -3.994428 4.898458 -0.495831 0.000000 0.372218 0.081720
    1 4.065896 0.000000 0.000000 0.585676 0.090254 0.997861
    2 5.727314 0.000000 0.000000 0.000000 0.000000 -2.427927
    3 9.229775 0.000001 0.000000 -2.193071 0.211705 -0.389107
    4 -4.028509 2.385202 -0.139540 -1.712325 0.032869 -0.243476
    5 19.850609 -2.919322 1.053877 -1.570796 3.141592 0.000000
    6 1.136250 -0.000008 0.000000 0.000000 0.000000 0.000000
    7 0.163969 -1.053874 0.889052 0.000000 0.000000 -0.000001
    8 5.025910 0.000002 0.000001 0.000000 0.000000 3.141592
    9 9.203299 0.828617 -0.000001 0.000000 0.000000 -1.469692
    10 12.265707 7.447968 -0.000001 -1.570796 1.570451 0.000000
    11 -0.000008 0.000090 0.000003 0.000000 0.000000 0.000000
    12 11.236527 1.770459 3.999999 -1.570796 0.000000 0.000000
    13 11.236526 1.770458 -4.000000 -1.570796 0.000000 0.000000
    14 20.099432 0.000001 0.099096 -1.570796 0.000000 0.000000
    15 6.261313 77.310570 -53.358147 0.000000 0.000000 0.000000
    16 0.000004 -0.661568 0.189796 0.000000 0.000000 0.000000
    17 -6.700125 -0.067673 -0.470109 0.000000 0.000000 0.000000
    18 8.598247 9.598969 -3.386253 5.812004 -2.304197 0.361220
    19 0.021831 -8.432323 -0.076791 -0.317478 0.845469 0.186131
    20 5.573718 -5.144090 -0.419346 -1.557716 -0.033361 -3.780060
    21 -0.488518 -2.755602 -0.228260 -1.572657 -0.177706 0.023979
    22 0.039887 -1.511041 0.010322 -1.082681 -0.013830 0.022424
    23 0.028786 -1.157765 -0.124675 -1.025127 -0.015053 0.021620
    24 0.250027 -2.820665 -0.238396 -1.659172 -0.096485 0.161223
    25 -0.049759 -1.618042 0.080947 -0.884122 0.008641 -0.024211
    26 -0.034142 -1.160031 0.053531 -0.944119 0.008150 -0.024377
    27 0.957766 -2.746780 -0.090302 -0.057777 -0.183753 0.043824
    28 -0.033420 -1.397129 -0.011257 -0.283970 0.006340 -0.013592
    29 -0.022360 -0.957436 0.010971 -0.294056 0.006136 -0.013662
    30 -1.180681 -2.507217 -0.193859 -0.844729 -0.059117 0.074747
    31 -0.024967 -1.123934 0.017597 -1.583565 -0.012788 -0.063086
    32 -0.020057 -0.898781 0.017903 -0.698835 0.007958 -0.027493
    33 0.591323 -1.216809 0.247881 -0.837213 -0.216096 0.257682
    34 1.301545 -0.325702 0.106575 0.206802 -0.315398 -1.473233
    35 0.944516 -0.225949 0.008853 0.144123 -0.084865 -1.398731
    36 0.120153 -0.050270 -0.054489 0.287569 3.110905 1.561085
    37 2.604319 -2.567116 -7.575733 -0.085915 -6.000533 0.018528
    38 0.096944 -8.387917 -0.048429 -0.149131 0.021327 0.201320
    39 0.701867 -2.736484 -0.305915 -0.119765 0.191640 0.297512
    40 -0.032909 -1.499736 0.032285 -1.517093 0.023274 -0.030055
    41 -0.027022 -1.127703 -0.020210 -1.257302 0.024425 -0.022986
    42 0.012193 -2.846964 -0.361719 0.212911 0.247369 0.269131
    43 0.043235 -1.656596 0.068667 -1.419909 -0.022105 0.007479
    44 0.031729 -1.141298 0.051025 -1.332477 -0.014878 0.007449
    45 -0.709952 -2.835928 -0.347077 0.195392 0.261101 0.242280
    46 0.028479 -1.403067 -0.001542 -0.497878 -0.008976 -0.021057
    47 0.021413 -0.949968 0.020046 -0.474313 -0.008341 -0.019727
    48 1.387138 -2.430655 -0.178143 -0.387235 -0.142500 0.585800
    49 0.024032 -1.148574 -0.009538 -1.316396 0.024520 0.063411
    50 0.014898 -0.903521 -0.012035 -1.116529 0.012883 0.055153
    51 -0.500830 -1.315260 0.063438 0.189258 -0.614315 -2.586011
    52 1.542367 0.039149 0.016848 -0.009160 -0.003071 0.525533
    53 1.117947 0.048424 -0.005766 -0.009124 -0.031598 0.407810
    54 -0.139399 -0.111698 0.014397 0.285382 -0.030687 1.580508
    55 -8.229616 0.397513 -0.469909 1.565570 -0.036709 -0.125870
  time 5
    0 -3.670199 4.773454 -0.495831 0.000000 0.372218 0.081720
    1 4.065896 0.000000 0.000000 0.581565 0.089607 1.001026
    2 5.727314 0.000000 0.000000 0.000000 0.000000 -2.432950
    3 9.229775 0.000001 0.000000 -2.203757 0.238148 -0.380921
    4 -4.028509 2.385202 -0.139540 -1.712325 0.032869 -0.243476
    5 19.850609 -2.919322 1.053877 -1.570796 3.141592 0.000000
    6 1.136250 -0.000008 0.000000 0.000000 0.000000 0.000000
    7 0.163969 -1.053874 0.889052 0.000000 0.000000 -0.000001
    8 5.025910 0.000002 0.000001 0.000000 0.000000 3.141592
    9 9.203299 0.828617 -0.000001 0.000000 0.000000 -1.469692
    10 12.265707 7.447968 -0.000001 -1.570796 1.570787 0.000000
    11 -0.000008 0.000090 0.000003 0.000000 0.000000 0.000000
    12 11.236527 1.770459 3.999999 -1.570796 0.000000 0.000000
    13 11.236526 1.770458 -4.000000 -1.570796 0.000000 0.000000
    14 20.099432 0.000001 0.099096 -1.570796 0.000000 0.000000
    15 6.261313 77.310570 -53.358147 0.000000 0.000000 0.000000
    16 0.000004 -0.661568 0.189796 0.000000 0.000000 0.000000
    17 -6.371990 -0.180958 -0.470109 0.000000 0.000000 0.000000
    18 8.586528 9.606782 -3.374534 5.819041 -2.305732 0.356957
    19 0.025737 -8.424511 -0.080698 -0.360231 0.849595 0.143942
    20 5.542467 -5.175341 -0.419346 -1.557620 -0.033361 -3.785134
    21 -0.488518 -2.755602 -0.228260 -1.572657 -0.177706 0.023979
    22 0.039887 -1.511041 0.010322 -1.082681 -0.013830 0.022424
    23 0.028786 -1.157765 -0.124675 -1.025127 -0.015053 0.021620
    24 0.250027 -2.820665 -0.238396 -1.659172 -0.096485 0.161223
    25 -0.049759 -1.618042 0.080947 -0.884122 0.008641 -0.024211
    26 -0.034142 -1.160031 0.053531 -0.944119 0.008150 -0.024377
    27 0.957766 -2.746780 -0.090302 -0.057777 -0.183753 0.043824
    28 -0.033420 -1.397129 -0.011257 -0.283970 0.006340 -0.013592
    29 -0.022360 -0.957436 0.010971 -0.294056 0.006136 -0.013662
    30 -1.180681 -2.507217 -0.193859 -0.844729 -0.059117 0.074747
    31 -0.024967 -1.123934 0.017597 -1.583565 -0.012788 -0.063086
    32 -0.020057 -0.898781 0.017903 -0.698835 0.007958 -0.027493
    33 0.591323 -1.216809 0.247881 -0.837213 -0.216096 0.257682
    34 1.301545 -0.325702 0.106575 0.206802 -0.315398 -1.473233
    35 0.944516 -0.225949 0.008853 0.144123 -0.084865 -1.398731
    36 0.120153 -0.050270 -0.054489 0.287569 3.110905 1.561085
    37 2.561349 -2.442112 -7.657767 -0.068601 -5.988167 0.006911
    38 0.096944 -8.387917 -0.048429 -0.146985 0.009202 0.204088
    39 0.701867 -2.736484 -0.305915 -0.119765 0.191640 0.297512
    40 -0.032909 -1.499736 0.032285 -1.517093 0.023274 -0.030055
    41 -0.027022 -1.127703 -0.020210 -1.257302 0.024425 -0.022986
    42 0.012193 -2.846964 -0.361719 0.212911 0.247369 0.269131
    43 0.043235 -1.656596 0.068667 -1.419909 -0.022105 0.007479
    44 0.031729 -1.141298 0.051025 -1.332477 -0.014878 0.007449
    45 -0.709952 -2.835928 -0.347077 0.195392 0.261101 0.242280
    46 0.028479 -1.403067 -0.001542 -0.497878 -0.008976 -0.021057
    47 0.021413 -0.949968 0.020046 -0.474313 -0.008341 -0.019727
    48 1.387138 -2.430655 -0.178143 -0.387235 -0.142500 0.585800
    49 0.024032 -1.148574 -0.009538 -1.316396 0.024520 0.063411
    50 0.014898 -0.903521 -0.012035 -1.116529 0.012883 0.055153
    51 -0.500830 -1.315260 0.063438 0.189258 -0.614315 -2.586011
    52 1.542367 0.039149 0.016848 -0.009160 -0.003071 0.525533
    53 1.117947 0.048424 -0.005766 -0.009124 -0.031598 0.407810
    54 -0.139399 -0.111698 0.014397 0.285382 -0.030687 1.580508
    55 -8.217897 0.112348 -0.477722 1.564707 -0.037092 -0.091176
  time 6
    0 -3.299094 4.636731 -0.495831 0.000000 0.372218 0.081720
    1 4.065896 0.000000 0.000000 0.572577 0.088254 1.008029
    2 5.727314 0.000000 0.000000 0.000000 0.000000 -2.443967
    3 9.229775 0.000001 0.000000 -2.195616 0.256851 -0.345949
    4 -4.028509 2.385202 -0.139540 -1.712325 0.032869 -0.243476
    5 19.850609 -2.919322 1.053877 -1.570796 3.141592 0.000000
    6 1.136250 -0.000008 0.000000 0.000000 0.000000 0.000000
    7 0.163969 -1.053874 0.889052 0.000000 0.000000 -0.000001
    8 5.025910 0.000002 0.000001 0.000000 0.000000 3.141592
    9 9.203299 0.828617 -0.000001 0.000000 0.000000 -1.469692
    10 12.265707 7.447968 -0.000001 -1.570796 1.570451 0.000000
    11 -0.000008 0.000090 0.000003 0.000000 0.000000 0.000000
    12 11.236527 1.770459 3.999999 -1.570796 0.000000 0.000000
    13 11.236526 1.770458 -4.000000 -1.570796 0.000000 0.000000
    14 20.099432 0.000001 0.099096 -1.570796 0.000000 0.000000
    15 6.261313 77.310570 -53.358147 0.000000 0.000000 0.000000
    16 0.000004 -0.661568 0.189796 0.000000 0.000000 0.000000
    17 -6.000885 -0.321587 -0.470109 0.000000 0.000000 0.000000
    18 8.559183 9.626314 -3.351095 5.834257 -2.308802 0.347707
    19 0.025737 -8.420604 -0.080698 -0.385043 0.837732 0.092506
    20 5.479965 -5.237843 -0.419346 -1.557332 -0.033361 -3.796178
    21 -0.488518 -2.755602 -0.228260 -1.572657 -0.177706 0.023979
    22 0.039887 -1.511041 0.010322 -1.082681 -0.013830 0.022424
    23 0.028786 -1.157765 -0.124675 -1.025127 -0.015053 0.021620
    24 0.250027 -2.820665 -0.238396 -1.659172 -0.096485 0.161223
    25 -0.049759 -1.618042 0.080947 -0.884122 0.008641 -0.024211
    26 -0.034142 -1.160031 0.053531 -0.944119 0.008150 -0.024377
    27 0.957766 -2.746780 -0.090302 -0.057777 -0.183753 0.043824
    28 -0.033420 -1.397129 -0.011257 -0.283970 0.006340 -0.013592
    29 -0.022360 -0.957436 0.010971 -0.294056 0.006136 -0.013662
    30 -1.180681 -2.507217 -0.193859 -0.844729 -0.059117 0.074747
    31 -0.024967 -1.123934 0.017597 -1.583565 -0.012788 -0.063086
    32 -0.020057 -0.898781 0.017903 -0.698835 0.007958 -0.027493
    33 0.591323 -1.216809 0.247881 -0.837213 -0.216096 0.257682
    34 1.301545 -0.325702 0.106575 0.206802 -0.315398 -1.473233
    35 0.944516 -0.225949 0.008853 0.144123 -0.084865 -1.398731
    36 0.120153 -0.050270 -0.054489 0.287569 3.110905 1.561085
    37 2.549630 -2.430393 -7.767145 -0.037283 -5.968255 0.032431
    38 0.096944 -8.391823 -0.040616 -0.156182 -0.031865 0.191968
    39 0.701867 -2.736484 -0.305915 -0.119765 0.191640 0.297512
    40 -0.032909 -1.499736 0.032285 -1.517093 0.023274 -0.030055
    41 -0.027022 -1.127703 -0.020210 -1.257302 0.024425 -0.022986
    42 0.012193 -2.846964 -0.361719 0.212911 0.247369 0.269131
    43 0.043235 -1.656596 0.068667 -1.419909 -0.022105 0.007479
    44 0.031729 -1.141298 0.051025 -1.332477 -0.014878 0.007449
    45 -0.709952 -2.835928 -0.347077 0.195392 0.261101 0.242280
    46 0.028479 -1.403067 -0.001542 -0.497878 -0.008976 -0.021057
    47 0.021413 -0.949968 0.020046 -0.474313 -0.008341 -0.019727
    48 1.387138 -2.430655 -0.178143 -0.387235 -0.142500 0.585800
    49 0.024032 -1.148574 -0.009538 -1.316396 0.024520 0.063411
    50 0.014898 -0.903521 -0.012035 -1.116529 0.012883 0.055153
    51 -0.500830 -1.315260 0.063438 0.189258 -0.614315 -2.586011
    52 1.542367 0.039149 0.016848 -0.009160 -0.003071 0.525533
    53 1.117947 0.048424 -0.005766 -0.009124 -0.031598 0.407810
    54 -0.139399 -0.111698 0.014397 0.285382 -0.030687 1.580508
    55 -8.229616 0.288135 -0.469909 1.565186 -0.036805 -0.112368
  time 7
    0 -2.892832 4.484383 -0.495831 0.000000 0.372218 0.081720
    1 4.065896 0.000000 0.000000 0.559669 0.086387 1.018056
    2 5.727314 0.000000 0.000000 0.000000 0.000000 -2.459706
    3 9.229775 0.000001 0.000000 -2.175442 0.273083 -0.291232
    4 -4.028509 2.385202 -0.139540 -1.712325 0.032869 -0.243476
    5 19.850609 -2.919322 1.053877 -1.570796 3.141592 0.000000
    6 1.136250 -0.000008 0.000000 0.000000 0.000000 0.000000
    7 0.163969 -1.053874 0.889052 0.000000 0.000000 -0.000001
    8 5.025910 0.000002 0.000001 0.000000 0.000000 3.141592
    9 9.203299 0.828617 -0.000001 0.000000 0.000000 -1.469692
    10 12.265707 7.447968 -0.000001 -1.570796 1.570787 0.000000
    11 -0.000008 0.000090 0.000003 0.000000 0.000000 0.000000
    12 11.236527 1.770459 3.999999 -1.570796 0.000000 0.000000
    13 11.236526 1.770458 -4.000000 -1.570796 0.000000 0.000000
    14 20.099432 0.000001 0.099096 -1.570796 0.000000 0.000000
    15 6.261313 77.310570 -53.358147 0.000000 0.000000 0.000000
    16 0.000004 -0.661568 0.189796 0.000000 0.000000 0.000000
    17 -5.594622 -0.470029 -0.470109 0.000000 0.000000 0.000000
    18 8.520119 9.649752 -3.315938 5.855895 -2.313578 0.334516
    19 0.021831 -8.416698 -0.084604 -0.401457 0.815391 0.030734
    20 5.382306 -5.323783 -0.419346 -1.557045 -0.033552 -3.811922
    21 -0.488518 -2.755602 -0.228260 -1.572657 -0.177706 0.023979
    22 0.039887 -1.511041 0.010322 -1.082681 -0.013830 0.022424
    23 0.028786 -1.157765 -0.124675 -1.025127 -0.015053 0.021620
    24 0.250027 -2.820665 -0.238396 -1.659172 -0.096485 0.161223
    25 -0.049759 -1.618042 0.080947 -0.884122 0.008641 -0.024211
    26 -0.034142 -1.160031 0.053531 -0.944119 0.008150 -0.024377
    27 0.957766 -2.746780 -0.090302 -0.057777 -0.183753 0.043824
    28 -0.033420 -1.397129 -0.011257 -0.283970 0.006340 -0.013592
    29 -0.022360 -0.957436 0.010971 -0.294056 0.006136 -0.013662
    30 -1.180681 -2.507217 -0.193859 -0.844729 -0.059117 0.074747
    31 -0.024967 -1.123934 0.017597 -1.583565 -0.012788 -0.063086
    32 -0.020057 -0.898781 0.017903 -0.698835 0.007958 -0.027493
    33 0.591323 -1.216809 0.247881 -0.837213 -0.216096 0.257682
    34 1.301545 -0.325702 0.106575 0.206802 -0.315398 -1.473233
    35 0.944516 -0.225949 0.008853 0.144123 -0.084865 -1.398731
    36 0.120153 -0.050270 -0.054489 0.287569 3.110905 1.561085
    37 2.549630 -2.485082 -7.915587 0.004984 -5.944525 0.085280
    38 0.096944 -8.391823 -0.028897 -0.170437 -0.093589 0.169874
    39 0.701867 -2.736484 -0.305915 -0.119765 0.191640 0.297512
    40 -0.032909 -1.499736 0.032285 -1.517093 0.023274 -0.030055
    41 -0.027022 -1.127703 -0.020210 -1.257302 0.024425 -0.022986
    42 0.012193 -2.846964 -0.361719 0.212911 0.247369 0.269131
    43 0.043235 -1.656596 0.068667 -1.419909 -0.022105 0.007479
    44 0.031729 -1.141298 0.051025 -1.332477 -0.014878 0.007449
    45 -0.709952 -2.835928 -0.347077 0.195392 0.261101 0.242280
    46 0.028479 -1.403067 -0.001542 -0.497878 -0.008976 -0.021057
    47 0.021413 -0.949968 0.020046 -0.474313 -0.008341 -0.019727
    48 1.387138 -2.430655 -0.178143 -0.387235 -0.142500 0.585800
    49 0.024032 -1.148574 -0.009538 -1.316396 0.024520 0.063411
    50 0.014898 -0.903521 -0.012035 -1.116529 0.012883 0.055153
    51 -0.500830 -1.315260 0.063438 0.189258 -0.614315 -2.586011
    52 1.542367 0.039149 0.016848 -0.009160 -0.003071 0.525533
    53 1.117947 0.048424 -0.005766 -0.009124 -0.031598 0.407810
    54 -0.139399 -0.111698 0.014397 0.285382 -0.030687 1.580508
    55 -8.237429 0.768618 -0.469909 1.566719 -0.036134 -0.171116
  time 8
    0 -2.459225 4.324221 -0.495831 0.000000 0.372218 0.081720
    1 4.065896 0.000000 0.000000 0.544796 0.084432 1.029652
    2 5.727314 0.000000 0.000000 0.000000 0.000000 -2.477822
    3 9.229775 0.000001 0.000000 -2.147063 0.284611 -0.225269
    4 -4.028509 2.385202 -0.139540 -1.712325 0.032869 -0.243476
    5 19.850609 -2.919322 1.053877 -1.570796 3.141592 0.000000
    6 1.136250 -0.000008 0.000000 0.000000 0.000000 0.000000
    7 0.163969 -1.053874 0.889052 0.000000 0.000000 -0.000001
    8 5.025910 0.000002 0.000001 0.000000 0.000000 3.141592
    9 9.203299 0.828617 -0.000001 0.000000 0.000000 -1.469692
    10 12.265707 7.447968 -0.000001 -1.570796 1.570451 0.000000
    11 -0.000008 0.000090 0.000003 0.000000 0.000000 0.000000
    12 11.236527 1.770459 3.999999 -1.570796 0.000000 0.000000
    13 11.236526 1.770458 -4.000000 -1.570796 0.000000 0.000000
    14 20.099432 0.000001 0.099096 -1.570796 0.000000 0.000000
    15 6.261313 77.310570 -53.358147 0.000000 0.000000 0.000000
    16 0.000004 -0.661568 0.189796 0.000000 0.000000 0.000000
    17 -5.157109 -0.638003 -0.470109 0.000000 0.000000 0.000000
    18 8.473243 9.677097 -3.276874 5.880522 -2.319548 0.319555
    19 0.021831 -8.412791 -0.084604 -0.408120 0.786860 -0.032489
    20 5.276834 -5.421442 -0.419346 -1.556565 -0.033552 -3.829980
    21 -0.488518 -2.755602 -0.228260 -1.572657 -0.177706 0.023979
    22 0.039887 -1.511041 0.010322 -1.082681 -0.013830 0.022424
    23 0.028786 -1.157765 -0.124675 -1.025127 -0.015053 0.021620
    24 0.250027 -2.820665 -0.238396 -1.659172 -0.096485 0.161223
    25 -0.049759 -1.618042 0.080947 -0.884122 0.008641 -0.024211
    26 -0.034142 -1.160031 0.053531 -0.944119 0.008150 -0.024377
    27 0.957766 -2.746780 -0.090302 -0.057777 -0.183753 0.043824
    28 -0.033420 -1.397129 -0.011257 -0.283970 0.006340 -0.013592
    29 -0.022360 -0.957436 0.010971 -0.294056 0.006136 -0.013662
    30 -1.180681 -2.507217 -0.193859 -0.844729 -0.059117 0.074747
    31 -0.024967 -1.123934 0.017597 -1.583565 -0.012788 -0.063086
    32 -0.020057 -0.898781 0.017903 -0.698835 0.007958 -0.027493
    33 0.591323 -1.216809 0.247881 -0.837213 -0.216096 0.257682
    34 1.301545 -0.325702 0.106575 0.206802 -0.315398 -1.473233
    35 0.944516 -0.225949 0.008853 0.144123 -0.084865 -1.398731
    36 0.120153 -0.050270 -0.054489 0.287569 3.110905 1.561085
    37 2.561349 -2.598367 -8.079655 0.050815 -5.923522 0.158983
    38 0.089131 -8.399636 -0.017178 -0.185420 -0.164947 0.140697
    39 0.701867 -2.736484 -0.305915 -0.119765 0.191640 0.297512
    40 -0.032909 -1.499736 0.032285 -1.517093 0.023274 -0.030055
    41 -0.027022 -1.127703 -0.020210 -1.257302 0.024425 -0.022986
    42 0.012193 -2.846964 -0.361719 0.212911 0.247369 0.269131
    43 0.043235 -1.656596 0.068667 -1.419909 -0.022105 0.007479
    44 0.031729 -1.141298 0.051025 -1.332477 -0.014878 0.007449
    45 -0.709952 -2.835928 -0.347077 0.195392 0.261101 0.242280
    46 0.028479 -1.403067 -0.001542 -0.497878 -0.008976 -0.021057
    47 0.021413 -0.949968 0.020046 -0.474313 -0.008341 -0.019727
    48 1.387138 -2.430655 -0.178143 -0.387235 -0.142500 0.585800
    49 0.024032 -1.148574 -0.009538 -1.316396 0.024520 0.063411
    50 0.014898 -0.903521 -0.012035 -1.116529 0.012883 0.055153
    51 -0.500830 -1.315260 0.063438 0.189258 -0.614315 -2.586011
    52 1.542367 0.039149 0.016848 -0.009160 -0.003071 0.525533
    53 1.117947 0.048424 -0.005766 -0.009124 -0.031598 0.407810
    54 -0.139399 -0.111698 0.014397 0.285382 -0.030687 1.580508
    55 -8.202272 1.495203 -0.462096 1.568827 -0.035081 -0.259640
  time 9
    0 -1.998273 4.156248 -0.495831 0.000000 0.372218 0.081720
    1 4.065896 0.000000 0.000000 0.529875 0.082608 1.041333
    2 5.727314 0.000000 0.000000 0.000000 0.000000 -2.496005
    3 9.229775 0.000001 0.000000 -2.115003 0.289763 -0.157036
    4 -4.028509 2.385202 -0.139540 -1.712325 0.032869 -0.243476
    5 19.850609 -2.919322 1.053877 -1.570796 3.141592 0.000000
    6 1.136250 -0.000008 0.000000 0.000000 0.000000 0.000000
    7 0.163969 -1.053874 0.889052 0.000000 0.000000 -0.000001
    8 5.025910 0.000002 0.000001 0.000000 0.000000 3.141592
    9 9.203299 0.828617 -0.000001 0.000000 0.000000 -1.469692
    10 12.265707 7.447968 -0.000001 -1.570796 1.570451 0.000000
    11 -0.000008 0.000090 0.000003 0.000000 0.000000 0.000000
    12 11.236527 1.770459 3.999999 -1.570796 0.000000 0.000000
    13 11.236526 1.770458 -4.000000 -1.570796 0.000000 0.000000
    14 20.099432 0.000001 0.099096 -1.570796 0.000000 0.000000
    15 6.261313 77.310570 -53.358147 0.000000 0.000000 0.000000
    16 0.000004 -0.661568 0.189796 0.000000 0.000000 0.000000
    17 -4.700064 -0.805977 -0.470109 0.000000 0.000000 0.000000
    18 8.426367 9.700535 -3.237811 5.904798 -2.326030 0.304755
    19 0.021831 -8.408885 -0.088511 -0.405100 0.756653 -0.090030
    20 5.159643 -5.519101 -0.419346 -1.556278 -0.033552 -3.848261
    21 -0.488518 -2.755602 -0.228260 -1.572657 -0.177706 0.023979
    22 0.039887 -1.511041 0.010322 -1.082681 -0.013830 0.022424
    23 0.028786 -1.157765 -0.124675 -1.025127 -0.015053 0.021620
    24 0.250027 -2.820665 -0.238396 -1.659172 -0.096485 0.161223
    25 -0.049759 -1.618042 0.080947 -0.884122 0.008641 -0.024211
    26 -0.034142 -1.160031 0.053531 -0.944119 0.008150 -0.024377
    27 0.957766 -2.746780 -0.090302 -0.057777 -0.183753 0.043824
    28 -0.033420 -1.397129 -0.011257 -0.283970 0.006340 -0.013592
    29 -0.022360 -0.957436 0.010971 -0.294056 0.006136 -0.013662
    30 -1.180681 -2.507217 -0.193859 -0.844729 -0.059117 0.074747
    31 -0.024967 -1.123934 0.017597 -1.583565 -0.012788 -0.063086
    32 -0.020057 -0.898781 0.017903 -0.698835 0.007958 -0.027493
    33 0.591323 -1.216809 0.247881 -0.837213 -0.216096 0.257682
    34 1.301545 -0.325702 0.106575 0.206802 -0.315398 -1.473233
    35 0.944516 -0.225949 0.008853 0.144123 -0.084865 -1.398731
    36 0.120153 -0.050270 -0.054489 0.287569 3.110905 1.561085
    37 2.584787 -2.762434 -8.232003 0.093719 -5.910065 0.244208
    38 0.077412 -8.403542 -0.009365 -0.198717 -0.235367 0.107106
    39 0.701867 -2.736484 -0.305915 -0.119765 0.191640 0.297512
    40 -0.032909 -1.499736 0.032285 -1.517093 0.023274 -0.030055
    41 -0.027022 -1.127703 -0.020210 -1.257302 0.024425 -0.022986
    42 0.012193 -2.846964 -0.361719 0.212911 0.247369 0.269131
    43 0.043235 -1.656596 0.068667 -1.419909 -0.022105 0.007479
    44 0.031729 -1.141298 0.051025 -1.332477 -0.014878 0.007449
    45 -0.709952 -2.835928 -0.347077 0.195392 0.261101 0.242280
    46 0.028479 -1.403067 -0.001542 -0.497878 -0.008976 -0.021057
    47 0.021413 -0.949968 0.020046 -0.474313 -0.008341 -0.019727
    48 1.387138 -2.430655 -0.178143 -0.387235 -0.142500 0.585800
    49 0.024032 -1.148574 -0.009538 -1.316396 0.024520 0.063411
    50 0.014898 -0.903521 -0.012035 -1.116529 0.012883 0.055153
    51 -0.500830 -1.315260 0.063438 0.189258 -0.614315 -2.586011
    52 1.542367 0.039149 0.016848 -0.009160 -0.003071 0.525533
    53 1.117947 0.048424 -0.005766 -0.009124 -0.031598 0.407810
    54 -0.139399 -0.111698 0.014397 0.285382 -0.030687 1.580508
    55 -8.073361 2.385855 -0.458190 1.571223 -0.033550 -0.368462
  time 10
    0 -1.537322 3.980461 -0.495831 0.000000 0.372218 0.081720
    1 4.065896 0.000000 0.000000 0.516812 0.081182 1.051500
    2 5.727314 0.000000 0.000000 0.000000 0.000000 -2.511877
    3 9.229775 0.000001 0.000000 -2.084121 0.288022 -0.095796
    4 -4.028509 2.385202 -0.139540 -1.712325 0.032869 -0.243476
    5 19.850609 -2.919322 1.053877 -1.570796 3.141592 0.000000
    6 1.136250 -0.000008 0.000000 0.000000 0.000000 0.000000
    7 0.163969 -1.053874 0.889052 0.000000 0.000000 -0.000001
    8 5.025910 0.000002 0.000001 0.000000 0.000000 3.141592
    9 9.203299 0.828617 -0.000001 0.000000 0.000000 -1.469692
    10 12.265707 7.447968 -0.000001 -1.570796 1.570451 0.000000
    11 -0.000008 0.000090 0.000003 0.000000 0.000000 0.000000
    12 11.236527 1.770459 3.999999 -1.570796 0.000000 0.000000
    13 11.236526 1.770458 -4.000000 -1.570796 0.000000 0.000000
    14 20.099432 0.000001 0.099096 -1.570796 0.000000 0.000000
    15 6.261313 77.310570 -53.358147 0.000000 0.000000 0.000000
    16 0.000004 -0.661568 0.189796 0.000000 0.000000 0.000000
    17 -4.235206 -0.973951 -0.470109 0.000000 0.000000 0.000000
    18 8.383396 9.723973 -3.206560 5.925644 -2.332085 0.291966
    19 0.021831 -8.408885 -0.088511 -0.393996 0.729154 -0.135422
    20 5.061984 -5.597229 -0.419346 -1.555894 -0.033552 -3.864155
    21 -0.488518 -2.755602 -0.228260 -1.572657 -0.177706 0.023979
    22 0.039887 -1.511041 0.010322 -1.082681 -0.013830 0.022424
    23 0.028786 -1.157765 -0.124675 -1.025127 -0.015053 0.021620
    24 0.250027 -2.820665 -0.238396 -1.659172 -0.096485 0.161223
    25 -0.049759 -1.618042 0.080947 -0.884122 0.008641 -0.024211
    26 -0.034142 -1.160031 0.053531 -0.944119 0.008150 -0.024377
    27 0.957766 -2.746780 -0.090302 -0.057777 -0.183753 0.043824
    28 -0.033420 -1.397129 -0.011257 -0.283970 0.006340 -0.013592
    29 -0.022360 -0.957436 0.010971 -0.294056 0.006136 -0.013662
    30 -1.180681 -2.507217 -0.193859 -0.844729 -0.059117 0.074747
    31 -0.024967 -1.123934 0.017597 -1.583565 -0.012788 -0.063086
    32 -0.020057 -0.898781 0.017903 -0.698835 0.007958 -0.027493
    33 0.591323 -1.216809 0.247881 -0.837213 -0.216096 0.257682
    34 1.301545 -0.325702 0.106575 0.206802 -0.315398 -1.473233
    35 0.944516 -0.225949 0.008853 0.144123 -0.084865 -1.398731
    36 0.120153 -0.050270 -0.054489 0.287569 3.110905 1.561085
    37 2.616038 -2.969472 -8.337475 0.128219 -5.905246 0.328671
    38 0.069599 -8.411355 -0.009365 -0.209638 -0.295090 0.072718
    39 0.701867 -2.736484 -0.305915 -0.119765 0.191640 0.297512
    40 -0.032909 -1.499736 0.032285 -1.517093 0.023274 -0.030055
    41 -0.027022 -1.127703 -0.020210 -1.257302 0.024425 -0.022986
    42 0.012193 -2.846964 -0.361719 0.212911 0.247369 0.269131
    43 0.043235 -1.656596 0.068667 -1.419909 -0.022105 0.007479
    44 0.031729 -1.141298 0.051025 -1.332477 -0.014878 0.007449
    45 -0.709952 -2.835928 -0.347077 0.195392 0.261101 0.242280
    46 0.028479 -1.403067 -0.001542 -0.497878 -0.008976 -0.021057
    47 0.021413 -0.949968 0.020046 -0.474313 -0.008341 -0.019727
    48 1.387138 -2.430655 -0.178143 -0.387235 -0.142500 0.585800
    49 0.024032 -1.148574 -0.009538 -1.316396 0.024520 0.063411
    50 0.014898 -0.903521 -0.012035 -1.116529 0.012883 0.055153
    51 -0.500830 -1.315260 0.063438 0.189258 -0.614315 -2.586011
    52 1.542367 0.039149 0.016848 -0.009160 -0.003071 0.525533
    53 1.117947 0.048424 -0.005766 -0.009124 -0.031598 0.407810
    54 -0.139399 -0.111698 0.014397 0.285382 -0.030687 1.580508
    55 -7.823354 3.303852 -0.438658 1.573426 -0.031540 -0.483901
  time 11
    0 -1.072464 3.808581 -0.495831 0.000000 0.372218 0.081720
    1 4.065896 0.000000 0.000000 0.507560 0.080241 1.058755
    2 5.727314 0.000000 0.000000 0.000000 0.000000 -2.523129
    3 9.229775 0.000001 0.000000 -2.059361 0.279930 -0.050817
    4 -4.028509 2.385202 -0.139540 -1.712325 0.032869 -0.243476
    5 19.850609 -2.919322 1.053877 -1.570796 3.141592 0.000000
    6 1.136250 -0.000008 0.000000 0.000000 0.000000 0.000000
    7 0.163969 -1.053874 0.889052 0.000000 0.000000 -0.000001
    8 5.025910 0.000002 0.000001 0.000000 0.000000 3.141592
    9 9.203299 0.828617 -0.000001 0.000000 0.000000 -1.469692
    10 12.265707 7.447968 -0.000001 -1.570796 1.570451 0.000000
    11 -0.000008 0.000090 0.000003 0.000000 0.000000 0.000000
    12 11.236527 1.770459 3.999999 -1.570796 0.000000 0.000000
    13 11.236526 1.770458 -4.000000 -1.570796 0.000000 0.000000
    14 20.099432 0.000001 0.099096 -1.570796 0.000000 0.000000
    15 6.261313 77.310570 -53.358147 0.000000 0.000000 0.000000
    16 0.000004 -0.661568 0.189796 0.000000 0.000000 0.000000
    17 -3.770348 -1.145831 -0.470109 0.000000 0.000000 0.000000
    18 8.356052 9.739599 -3.183122 5.940244 -2.336605 0.282957
    19 0.021831 -8.408885 -0.088511 -0.376992 0.708361 -0.162742
    20 4.991669 -5.655824 -0.419346 -1.555607 -0.033552 -3.875348
    21 -0.488518 -2.755602 -0.228260 -1.572657 -0.177706 0.023979
    22 0.039887 -1.511041 0.010322 -1.082681 -0.013830 0.022424
    23 0.028786 -1.157765 -0.124675 -1.025127 -0.015053 0.021620
    24 0.250027 -2.820665 -0.238396 -1.659172 -0.096485 0.161223
    25 -0.049759 -1.618042 0.080947 -0.884122 0.008641 -0.024211
    26 -0.034142 -1.160031 0.053531 -0.944119 0.008150 -0.024377
    27 0.957766 -2.746780 -0.090302 -0.057777 -0.183753 0.043824
    28 -0.033420 -1.397129 -0.011257 -0.283970 0.006340 -0.013592
    29 -0.022360 -0.957436 0.010971 -0.294056 0.006136 -0.013662
    30 -1.180681 -2.507217 -0.193859 -0.844729 -0.059117 0.074747
    31 -0.024967 -1.123934 0.017597 -1.583565 -0.012788 -0.063086
    32 -0.020057 -0.898781 0.017903 -0.698835 0.007958 -0.027493
    33 0.591323 -1.216809 0.247881 -0.837213 -0.216096 0.257682
    34 1.301545 -0.325702 0.106575 0.206802 -0.315398 -1.473233
    35 0.944516 -0.225949 0.008853 0.144123 -0.084865 -1.398731
    36 0.120153 -0.050270 -0.054489 0.287569 3.110905 1.561085
    37 2.643383 -3.172603 -8.388258 0.150117 -5.907610 0.398184
    38 0.065693 -8.415261 -0.001552 -0.218279 -0.336240 0.042768
    39 0.701867 -2.736484 -0.305915 -0.119765 0.191640 0.297512
    40 -0.032909 -1.499736 0.032285 -1.517093 0.023274 -0.030055
    41 -0.027022 -1.127703 -0.020210 -1.257302 0.024425 -0.022986
    42 0.012193 -2.846964 -0.361719 0.212911 0.247369 0.269131
    43 0.043235 -1.656596 0.068667 -1.419909 -0.022105 0.007479
    44 0.031729 -1.141298 0.051025 -1.332477 -0.014878 0.007449
    45 -0.709952 -2.835928 -0.347077 0.195392 0.261101 0.242280
    46 0.028479 -1.403067 -0.001542 -0.497878 -0.008976 -0.021057
    47 0.021413 -0.949968 0.020046 -0.474313 -0.008341 -0.019727
    48 1.387138 -2.430655 -0.178143 -0.387235 -0.142500 0.585800
    49 0.024032 -1.148574 -0.009538 -1.316396 0.024520 0.063411
    50 0.014898 -0.903521 -0.012035 -1.116529 0.012883 0.055153
    51 -0.500830 -1.315260 0.063438 0.189258 -0.614315 -2.586011
    52 1.542367 0.039149 0.016848 -0.009160 -0.003071 0.525533
    53 1.117947 0.048424 -0.005766 -0.009124 -0.031598 0.407810
    54 -0.139399 -0.111698 0.014397 0.285382 -0.030687 1.580508
    55 -7.518657 4.100751 -0.426939 1.575438 -0.029434 -0.587895
  time 12
    0 -0.611512 3.640607 -0.495831 0.000000 0.372218 0.081720
    1 4.065896 0.000000 0.000000 0.504061 0.079888 1.061500
    2 5.727314 0.000000 0.000000 0.000000 0.000000 -2.527415
    3 9.229775 0.000001 0.000000 -2.044929 0.266637 -0.031003
    4 -4.028509 2.385202 -0.139540 -1.712325 0.032869 -0.243476
    5 19.850609 -2.919322 1.053877 -1.570796 3.141592 0.000000
    6 1.136250 -0.000008 0.000000 0.000000 0.000000 0.000000
    7 0.163969 -1.053874 0.889052 0.000000 0.000000 -0.000001
    8 5.025910 0.000002 0.000001 0.000000 0.000000 3.141592
    9 9.203299 0.828617 -0.000001 0.000000 0.000000 -1.469692
    10 12.265707 7.447968 -0.000001 -1.570796 1.570451 0.000000
    11 -0.000008 0.000090 0.000003 0.000000 0.000000 0.000000
    12 11.236527 1.770459 3.999999 -1.570796 0.000000 0.000000
    13 11.236526 1.770458 -4.000000 -1.570796 0.000000 0.000000
    14 20.099432 0.000001 0.099096 -1.570796 0.000000 0.000000
    15 6.261313 77.310570 -53.358147 0.000000 0.000000 0.000000
    16 0.000004 -0.661568 0.189796 0.000000 0.000000 0.000000
    17 -3.313303 -1.313805 -0.470109 0.000000 0.000000 0.000000
    18 8.344333 9.747411 -3.175309 5.945698 -2.338396 0.279579
    19 0.017924 -8.412791 -0.088511 -0.356344 0.697948 -0.165764
    20 4.960418 -5.675356 -0.419346 -1.555607 -0.033552 -3.879601
    21 -0.488518 -2.755602 -0.228260 -1.572657 -0.177706 0.023979
    22 0.039887 -1.511041 0.010322 -1.082681 -0.013830 0.022424
    23 0.028786 -1.157765 -0.124675 -1.025127 -0.015053 0.021620
    24 0.250027 -2.820665 -0.238396 -1.659172 -0.096485 0.161223
    25 -0.049759 -1.618042 0.080947 -0.884122 0.008641 -0.024211
    26 -0.034142 -1.160031 0.053531 -0.944064 0.008150 -0.024377
    27 0.957766 -2.746780 -0.090302 -0.057777 -0.183753 0.043824
    28 -0.033420 -1.397129 -0.011257 -0.283970 0.006340 -0.013592
    29 -0.022360 -0.957436 0.010971 -0.294056 0.006136 -0.013662
    30 -1.180681 -2.507217 -0.193859 -0.844729 -0.059117 0.074747
    31 -0.024967 -1.123934 0.017597 -1.583565 -0.012788 -0.063086
    32 -0.020057 -0.898781 0.017903 -0.698835 0.007958 -0.027493
    33 0.591323 -1.216809 0.247881 -0.837213 -0.216096 0.257682
    34 1.301545 -0.325702 0.106575 0.206802 -0.315398 -1.473233
    35 0.944516 -0.225949 0.008853 0.144123 -0.084865 -1.398731
    36 0.120153 -0.050270 -0.054489 0.287569 3.110905 1.561085
    37 2.666821 -3.352296 -8.380445 0.155464 -5.913429 0.437416
    38 0.065693 -8.415261 -0.001552 -0.224372 -0.351875 0.024514
    39 0.701867 -2.736484 -0.305915 -0.119765 0.191640 0.297512
    40 -0.032909 -1.499736 0.032285 -1.517093 0.023274 -0.030055
    41 -0.027022 -1.127703 -0.020210 -1.257302 0.024425 -0.022986
    42 0.012193 -2.846964 -0.361719 0.212911 0.247369 0.269131
    43 0.043235 -1.656596 0.068667 -1.419909 -0.022105 0.007479
    44 0.031729 -1.141298 0.051025 -1.332477 -0.014878 0.007449
    45 -0.709952 -2.835928 -0.347077 0.195392 0.261101 0.242280
    46 0.028479 -1.403067 -0.001542 -0.497878 -0.008976 -0.021057
    47 0.021413 -0.949968 0.020046 -0.474313 -0.008341 -0.019727
    48 1.387138 -2.430655 -0.178143 -0.387235 -0.142500 0.585800
    49 0.024032 -1.148574 -0.009538 -1.316396 0.024520 0.063411
    50 0.014898 -0.903521 -0.012035 -1.116529 0.012883 0.055153
    51 -0.500830 -1.315260 0.063438 0.189258 -0.614315 -2.586011
    52 1.542367 0.039149 0.016848 -0.009160 -0.003071 0.525533
    53 1.117947 0.048424 -0.005766 -0.009124 -0.031598 0.407810
    54 -0.139399 -0.111698 0.014397 0.285382 -0.030687 1.580508
    55 -7.260837 4.616392 -0.419126 1.576588 -0.027998 -0.657462
  time 13
    0 -0.173999 3.484352 -0.495831 0.000000 0.372218 0.081720
    1 4.065896 0.000000 0.000000 0.508459 0.080330 1.058055
    2 5.727314 0.000000 0.000000 0.000000 0.000000 -2.522057
    3 9.229775 0.000001 0.000000 -2.042615 0.244382 -0.044767
    4 -4.028509 2.385202 -0.139540 -1.712325 0.032869 -0.243476
    5 19.850609 -2.919322 1.053877 -1.570796 3.141592 0.000000
    6 1.136250 -0.000008 0.000000 0.000000 0.000000 0.000000
    7 0.163969 -1.053874 0.889052 0.000000 0.000000 -0.000001
    8 5.025910 0.000002 0.000001 0.000000 0.000000 3.141592
    9 9.203299 0.828617 -0.000001 0.000000 0.000000 -1.469692
    10 12.265707 7.447968 -0.000001 -1.570796 1.570451 0.000000
    11 -0.000008 0.000090 0.000003 0.000000 0.000000 0.000000
    12 11.236527 1.770459 3.999999 -1.570796 0.000000 0.000000
    13 11.236526 1.770458 -4.000000 -1.570796 0.000000 0.000000
    14 20.099432 0.000001 0.099096 -1.570796 0.000000 0.000000
    15 6.261313 77.310570 -53.358147 0.000000 0.000000 0.000000
    16 0.000004 -0.661568 0.189796 0.000000 0.000000 0.000000
    17 -2.879696 -1.481779 -0.470109 0.000000 0.000000 0.000000
    18 8.356052 9.739599 -3.187028 5.938837 -2.336179 0.283842
    19 0.017924 -8.416698 -0.084604 -0.326987 0.700011 -0.132883
    20 4.999482 -5.648011 -0.419346 -1.555607 -0.033552 -3.874303
    21 -0.488518 -2.755602 -0.228260 -1.572657 -0.177706 0.023979
    22 0.039887 -1.511041 0.010322 -1.082681 -0.013830 0.022424
    23 0.028786 -1.157765 -0.124675 -1.025127 -0.015053 0.021620
    24 0.250027 -2.820665 -0.238396 -1.659172 -0.096485 0.161223
    25 -0.049759 -1.618042 0.080947 -0.884122 0.008641 -0.024211
    26 -0.034142 -1.160031 0.053531 -0.944119 0.008150 -0.024377
    27 0.957766 -2.746780 -0.090302 -0.057777 -0.183753 0.043824
    28 -0.033420 -1.397129 -0.011257 -0.283970 0.006340 -0.013592
    29 -0.022360 -0.957436 0.010971 -0.294056 0.006136 -0.013662
    30 -1.180681 -2.507217 -0.193859 -0.844729 -0.059117 0.074747
    31 -0.024967 -1.123934 0.017597 -1.583565 -0.012788 -0.063086
    32 -0.020057 -0.898781 0.017903 -0.698835 0.007958 -0.027493
    33 0.591323 -1.216809 0.247881 -0.837213 -0.216096 0.257682
    34 1.301545 -0.325702 0.106575 0.206802 -0.315398 -1.473233
    35 0.944516 -0.225949 0.008853 0.144123 -0.084865 -1.398731
    36 0.120153 -0.050270 -0.054489 0.287569 3.110905 1.561085
    37 2.690259 -3.469487 -8.278880 0.138341 -5.922249 0.435607
    38 0.065693 -8.415261 -0.009365 -0.228108 -0.334403 0.023591
    39 0.701867 -2.736484 -0.305915 -0.119765 0.191640 0.297512
    40 -0.032909 -1.499736 0.032285 -1.517093 0.023274 -0.030055
    41 -0.027022 -1.127703 -0.020210 -1.257302 0.024425 -0.022986
    42 0.012193 -2.846964 -0.361719 0.212911 0.247369 0.269131
    43 0.043235 -1.656596 0.068667 -1.419909 -0.022105 0.007479
    44 0.031729 -1.141298 0.051025 -1.332477 -0.014878 0.007449
    45 -0.709952 -2.835928 -0.347077 0.195392 0.261101 0.242280
    46 0.028479 -1.403067 -0.001542 -0.497878 -0.008976 -0.021057
    47 0.021413 -0.949968 0.020046 -0.474313 -0.008341 -0.019727
    48 1.387138 -2.430655 -0.178143 -0.387235 -0.142500 0.585800
    49 0.024032 -1.148574 -0.009538 -1.316396 0.024520 0.063411
    50 0.014898 -0.903521 -0.012035 -1.116529 0.012883 0.055153
    51 -0.500830 -1.315260 0.063438 0.189258 -0.614315 -2.586011
    52 1.542367 0.039149 0.016848 -0.009160 -0.003071 0.525533
    53 1.117947 0.048424 -0.005766 -0.009124 -0.031598 0.407810
    54 -0.139399 -0.111698 0.014397 0.285382 -0.030687 1.580508
    55 -7.178803 4.764834 -0.415220 1.576971 -0.027615 -0.678833
  time 14
    0 0.228357 3.332004 -0.495831 0.000000 0.372218 0.081720
    1 4.065896 0.000000 0.000000 0.519880 0.081491 1.049091
    2 5.727314 0.000000 0.000000 0.000000 0.000000 -2.508160
    3 9.229775 0.000001 0.000000 -2.048337 0.211446 -0.086935
    4 -4.028509 2.385202 -0.139540 -1.712325 0.032869 -0.243476
    5 19.850609 -2.919322 1.053877 -1.570796 3.141592 0.000000
    6 1.136250 -0.000008 0.000000 0.000000 0.000000 0.000000
    7 0.163969 -1.053874 0.889052 0.000000 0.000000 -0.000001
    8 5.025910 0.000002 0.000001 0.000000 0.000000 3.141592
    9 9.203299 0.828617 -0.000001 0.000000 0.000000 -1.469692
    10 12.265707 7.447968 -0.000001 -1.570796 1.570451 0.000000
    11 -0.000008 0.000090 0.000003 0.000000 0.000000 0.000000
    12 11.236527 1.770459 3.999999 -1.570796 0.000000 0.000000
    13 11.236526 1.770458 -4.000000 -1.570796 0.000000 0.000000
    14 20.099432 0.000001 0.099096 -1.570796 0.000000 0.000000
    15 6.261313 77.310570 -53.358147 0.000000 0.000000 0.000000
    16 0.000004 -0.661568 0.189796 0.000000 0.000000 0.000000
    17 -2.469527 -1.630221 -0.470109 0.000000 0.000000 0.000000
    18 8.395116 9.720067 -3.214373 5.920718 -2.330635 0.294942
    19 0.014018 -8.428417 -0.080698 -0.284824 0.710811 -0.065067
    20 5.085422 -5.581603 -0.419346 -1.555894 -0.033552 -3.860424
    21 -0.488518 -2.755602 -0.228260 -1.572657 -0.177706 0.023979
    22 0.039887 -1.511041 0.010322 -1.082650 -0.013830 0.022424
    23 0.028786 -1.157765 -0.124675 -1.025127 -0.015053 0.021620
    24 0.250027 -2.820665 -0.238396 -1.659172 -0.096485 0.161223
    25 -0.049759 -1.618042 0.080947 -0.884122 0.008641 -0.024211
    26 -0.034142 -1.160031 0.053531 -0.944119 0.008150 -0.024377
    27 0.957766 -2.746780 -0.090302 -0.057777 -0.183753 0.043824
    28 -0.033420 -1.397129 -0.011257 -0.283970 0.006340 -0.013592
    29 -0.022360 -0.957436 0.010971 -0.294056 0.006136 -0.013662
    30 -1.180681 -2.507217 -0.193859 -0.844729 -0.059117 0.074747
    31 -0.024967 -1.123934 0.017597 -1.583565 -0.012788 -0.063086
    32 -0.020057 -0.898781 0.017903 -0.698835 0.007958 -0.027493
    33 0.591323 -1.216809 0.247881 -0.837213 -0.216096 0.257682
    34 1.301545 -0.325702 0.106575 0.206802 -0.315398 -1.473233
    35 0.944516 -0.225949 0.008853 0.144123 -0.084865 -1.398731
    36 0.120153 -0.050270 -0.054489 0.287569 3.110905 1.561085
    37 2.729323 -3.559334 -8.106999 0.100657 -5.935251 0.402755
    38 0.077412 -8.411355 -0.009365 -0.229775 -0.288681 0.036085
    39 0.701867 -2.736484 -0.305915 -0.119765 0.191640 0.297512
    40 -0.032909 -1.499736 0.032285 -1.517093 0.023274 -0.030055
    41 -0.027022 -1.127703 -0.020210 -1.257302 0.024425 -0.022986
    42 0.012193 -2.846964 -0.361719 0.212911 0.247369 0.269131
    43 0.043235 -1.656596 0.068667 -1.419909 -0.022105 0.007479
    44 0.031729 -1.141298 0.051025 -1.332477 -0.014878 0.007449
    45 -0.709952 -2.835928 -0.347077 0.195392 0.261101 0.242280
    46 0.028479 -1.403067 -0.001542 -0.497878 -0.008976 -0.021057
    47 0.021413 -0.949968 0.020046 -0.474313 -0.008341 -0.019727
    48 1.387138 -2.430655 -0.178143 -0.387235 -0.142500 0.585800
    49 0.024032 -1.148574 -0.009538 -1.316396 0.024520 0.063411
    50 0.014898 -0.903521 -0.012035 -1.116529 0.012883 0.055153
    51 -0.500830 -1.315260 0.063438 0.189258 -0.614315 -2.586011
    52 1.542367 0.039149 0.016848 -0.009160 -0.003071 0.525533
    53 1.117947 0.048424 -0.005766 -0.009124 -0.031598 0.407810
    54 -0.139399 -0.111698 0.014397 0.285382 -0.030687 1.580508
    55 -7.229586 4.667175 -0.419126 1.576684 -0.027902 -0.665152
  time 15
    0 0.599462 3.195281 -0.495831 0.000000 0.372218 0.081720
    1 4.065896 0.000000 0.000000 0.535604 0.083299 1.036851
    2 5.727314 0.000000 0.000000 0.000000 0.000000 -2.489040
    3 9.229775 0.000001 0.000000 -2.057320 0.171875 -0.145993
    4 -4.028509 2.385202 -0.139540 -1.712325 0.032869 -0.243476
    5 19.850609 -2.919322 1.053877 -1.570796 3.141592 0.000000
    6 1.136250 -0.000008 0.000000 0.000000 0.000000 0.000000
    7 0.163969 -1.053874 0.889052 0.000000 0.000000 -0.000001
    8 5.025910 0.000002 0.000001 0.000000 0.000000 3.141592
    9 9.203299 0.828617 -0.000001 0.000000 0.000000 -1.469692
    10 12.265707 7.447968 -0.000001 -1.570796 1.570451 0.000000
    11 -0.000008 0.000090 0.000003 0.000000 0.000000 0.000000
    12 11.236527 1.770459 3.999999 -1.570796 0.000000 0.000000
    13 11.236526 1.770458 -4.000000 -1.570796 0.000000 0.000000
    14 20.099432 0.000001 0.099096 -1.570796 0.000000 0.000000
    15 6.261313 77.310570 -53.358147 0.000000 0.000000 0.000000
    16 0.000004 -0.661568 0.189796 0.000000 0.000000 0.000000
    17 -2.098422 -1.766944 -0.470109 0.000000 0.000000 0.000000
    18 8.445898 9.692722 -3.253436 5.895475 -2.323471 0.310466
    19 0.014018 -8.440136 -0.076791 -0.233431 0.724673 0.025657
    20 5.202613 -5.480037 -0.419346 -1.556373 -0.033552 -3.841247
    21 -0.488518 -2.755602 -0.228260 -1.572657 -0.177706 0.023979
    22 0.039887 -1.511041 0.010322 -1.082681 -0.013830 0.022424
    23 0.028786 -1.157765 -0.124675 -1.025127 -0.015053 0.021620
    24 0.250027 -2.820665 -0.238396 -1.659172 -0.096485 0.161223
    25 -0.049759 -1.618042 0.080947 -0.884122 0.008641 -0.024211
    26 -0.034142 -1.160031 0.053531 -0.944119 0.008150 -0.024377
    27 0.957766 -2.746780 -0.090302 -0.057777 -0.183753 0.043824
    28 -0.033420 -1.397129 -0.011257 -0.283970 0.006340 -0.013592
    29 -0.022360 -0.957436 0.010971 -0.294056 0.006136 -0.013662
    30 -1.180681 -2.507217 -0.193859 -0.844729 -0.059117 0.074747
    31 -0.024967 -1.123934 0.017597 -1.583565 -0.012788 -0.063086
    32 -0.020057 -0.898781 0.017903 -0.698835 0.007958 -0.027493
    33 0.591323 -1.216809 0.247881 -0.837213 -0.216096 0.257682
    34 1.301545 -0.325702 0.106575 0.206802 -0.315398 -1.473233
    35 0.944516 -0.225949 0.008853 0.144123 -0.084865 -1.398731
    36 0.120153 -0.050270 -0.054489 0.287569 3.110905 1.561085
    37 2.764480 -3.614023 -7.876524 0.050052 -5.952799 0.354762
    38 0.085225 -8.411355 -0.017178 -0.228568 -0.226018 0.055336
    39 0.701867 -2.736484 -0.305915 -0.119765 0.191640 0.297512
    40 -0.032909 -1.499736 0.032285 -1.517093 0.023274 -0.030055
    41 -0.027022 -1.127703 -0.020210 -1.257302 0.024425 -0.022986
    42 0.012193 -2.846964 -0.361719 0.212911 0.247369 0.269131
    43 0.043235 -1.656596 0.068667 -1.419909 -0.022105 0.007479
    44 0.031729 -1.141298 0.051025 -1.332477 -0.014878 0.007449
    45 -0.709952 -2.835928 -0.347077 0.195392 0.261101 0.242280
    46 0.028479 -1.403067 -0.001542 -0.497878 -0.008976 -0.021057
    47 0.021413 -0.949968 0.020046 -0.474313 -0.008341 -0.019727
    48 1.387138 -2.430655 -0.178143 -0.387235 -0.142500 0.585800
    49 0.024032 -1.148574 -0.009538 -1.316396 0.024520 0.063411
    50 0.014898 -0.903521 -0.012035 -1.116529 0.012883 0.055153
    51 -0.500830 -1.315260 0.063438 0.189258 -0.614315 -2.586011
    52 1.542367 0.039149 0.016848 -0.009160 -0.003071 0.525533
    53 1.117947 0.048424 -0.005766 -0.009124 -0.031598 0.407810
    54 -0.139399 -0.111698 0.014397 0.285382 -0.030687 1.580508
    55 -7.358496 4.436699 -0.419126 1.576109 -0.028572 -0.632872
  time 16
    0 0.927597 3.070277 -0.495831 0.000000 0.372218 0.081720
    1 4.065896 0.000000 0.000000 0.552934 0.085490 1.023294
    2 5.727314 0.000000 0.000000 0.000000 0.000000 -2.467910
    3 9.229775 0.000001 0.000000 -2.065819 0.129999 -0.210944
    4 -4.028509 2.385202 -0.139540 -1.712325 0.032869 -0.243476
    5 19.850609 -2.919322 1.053877 -1.570796 3.141592 0.000000
    6 1.136250 -0.000008 0.000000 0.000000 0.000000 0.000000
    7 0.163969 -1.053874 0.889052 0.000000 0.000000 -0.000001
    8 5.025910 0.000002 0.000001 0.000000 0.000000 3.141592
    9 9.203299 0.828617 -0.000001 0.000000 0.000000 -1.469692
    10 12.265707 7.447968 -0.000001 -1.570796 1.570451 0.000000
    11 -0.000008 0.000090 0.000003 0.000000 0.000000 0.000000
    12 11.236527 1.770459 3.999999 -1.570796 0.000000 0.000000
    13 11.236526 1.770458 -4.000000 -1.570796 0.000000 0.000000
    14 20.099432 0.000001 0.099096 -1.570796 0.000000 0.000000
    15 6.261313 77.310570 -53.358147 0.000000 0.000000 0.000000
    16 0.000004 -0.661568 0.189796 0.000000 0.000000 0.000000
    17 -1.774193 -1.884135 -0.470109 0.000000 0.000000 0.000000
    18 8.500588 9.661471 -3.300313 5.867065 -2.316222 0.327840
    19 0.014018 -8.451855 -0.072885 -0.177665 0.736924 0.126172
    20 5.339336 -5.366753 -0.419346 -1.556853 -0.033552 -3.820130
    21 -0.488518 -2.755602 -0.228260 -1.572657 -0.177706 0.023979
    22 0.039887 -1.511041 0.010322 -1.082681 -0.013830 0.022424
    23 0.028786 -1.157765 -0.124675 -1.025127 -0.015053 0.021620
    24 0.250027 -2.820665 -0.238396 -1.659172 -0.096485 0.161223
    25 -0.049759 -1.618042 0.080947 -0.884122 0.008641 -0.024211
    26 -0.034142 -1.160031 0.053531 -0.944119 0.008150 -0.024377
    27 0.957766 -2.746780 -0.090302 -0.057777 -0.183753 0.043824
    28 -0.033420 -1.397129 -0.011257 -0.283970 0.006340 -0.013592
    29 -0.022360 -0.957436 0.010971 -0.294056 0.006136 -0.013662
    30 -1.180681 -2.507217 -0.193859 -0.844729 -0.059117 0.074747
    31 -0.024967 -1.123934 0.017597 -1.583565 -0.012788 -0.063086
    32 -0.020057 -0.898781 0.017903 -0.698835 0.007958 -0.027493
    33 0.591323 -1.216809 0.247881 -0.837213 -0.216096 0.257682
    34 1.301545 -0.325702 0.106575 0.206802 -0.315398 -1.473233
    35 0.944516 -0.225949 0.008853 0.144123 -0.084865 -1.398731
    36 0.120153 -0.050270 -0.054489 0.287569 3.110905 1.561085
    37 2.795731 -3.649180 -7.634329 -0.005201 -5.974074 0.306484
    38 0.096944 -8.403542 -0.021084 -0.224621 -0.157640 0.075611
    39 0.701867 -2.736484 -0.305915 -0.119765 0.191640 0.297512
    40 -0.032909 -1.499736 0.032285 -1.517093 0.023274 -0.030055
    41 -0.027022 -1.127703 -0.020210 -1.257302 0.024425 -0.022986
    42 0.012193 -2.846964 -0.361719 0.212911 0.247369 0.269131
    43 0.043235 -1.656596 0.068667 -1.419909 -0.022105 0.007479
    44 0.031729 -1.141298 0.051025 -1.332477 -0.014878 0.007449
    45 -0.709952 -2.835928 -0.347077 0.195392 0.261101 0.242280
    46 0.028479 -1.403067 -0.001542 -0.497878 -0.008976 -0.021057
    47 0.021413 -0.949968 0.020046 -0.474313 -0.008341 -0.019727
    48 1.387138 -2.430655 -0.178143 -0.387235 -0.142500 0.585800
    49 0.024032 -1.148574 -0.009538 -1.316396 0.024520 0.063411
    50 0.014898 -0.903521 -0.012035 -1.116529 0.012883 0.055153
    51 -0.500830 -1.315260 0.063438 0.189258 -0.614315 -2.586011
    52 1.542367 0.039149 0.016848 -0.009160 -0.003071 0.525533
    53 1.117947 0.048424 -0.005766 -0.009124 -0.031598 0.407810
    54 -0.139399 -0.111698 0.014397 0.285382 -0.030687 1.580508
    55 -7.483500 4.171066 -0.426939 1.575534 -0.029338 -0.596926
  time 17
    0 1.193230 2.972618 -0.495831 0.000000 0.372218 0.081720
    1 4.065896 0.000000 0.000000 0.569137 0.087754 1.010662
    2 5.727314 0.000000 0.000000 0.000000 0.000000 -2.448119
    3 9.229775 0.000001 0.000000 -2.071436 0.090570 -0.271328
    4 -4.028509 2.385202 -0.139540 -1.712325 0.032869 -0.243476
    5 19.850609 -2.919322 1.053877 -1.570796 3.141592 0.000000
    6 1.136250 -0.000008 0.000000 0.000000 0.000000 0.000000
    7 0.163969 -1.053874 0.889052 0.000000 0.000000 -0.000001
    8 5.025910 0.000002 0.000001 0.000000 0.000000 3.141592
    9 9.203299 0.828617 -0.000001 0.000000 0.000000 -1.469692
    10 12.265707 7.447968 -0.000001 -1.570796 1.570451 0.000000
    11 -0.000008 0.000090 0.000003 0.000000 0.000000 0.000000
    12 11.236527 1.770459 3.999999 -1.570796 0.000000 0.000000
    13 11.236526 1.770458 -4.000000 -1.570796 0.000000 0.000000
    14 20.099432 0.000001 0.099096 -1.570796 0.000000 0.000000
    15 6.261313 77.310570 -53.358147 0.000000 0.000000 0.000000
    16 0.000004 -0.661568 0.189796 0.000000 0.000000 0.000000
    17 -1.504654 -1.989607 -0.470109 0.000000 0.000000 0.000000
    18 8.547464 9.630220 -3.339376 5.840062 -2.309996 0.344168
    19 0.014018 -8.463574 -0.072885 -0.124016 0.744661 0.221792
    20 5.456527 -5.261281 -0.419346 -1.557236 -0.033361 -3.800282
    21 -0.488518 -2.755602 -0.228260 -1.572657 -0.177706 0.023979
    22 0.039887 -1.511041 0.010322 -1.082681 -0.013830 0.022424
    23 0.028786 -1.157765 -0.124675 -1.025127 -0.015053 0.021620
    24 0.250027 -2.820665 -0.238396 -1.659172 -0.096485 0.161223
    25 -0.049759 -1.618042 0.080947 -0.884122 0.008641 -0.024211
    26 -0.034142 -1.160031 0.053531 -0.944119 0.008150 -0.024377
    27 0.957766 -2.746780 -0.090302 -0.057777 -0.183753 0.043824
    28 -0.033420 -1.397129 -0.011257 -0.283970 0.006340 -0.013592
    29 -0.022360 -0.957436 0.010971 -0.294056 0.006136 -0.013662
    30 -1.180681 -2.507217 -0.193859 -0.844729 -0.059117 0.074747
    31 -0.024967 -1.123934 0.017597 -1.583565 -0.012788 -0.063086
    32 -0.020057 -0.898781 0.017903 -0.698835 0.007958 -0.027493
    33 0.591323 -1.216809 0.247881 -0.837213 -0.216096 0.257682
    34 1.301545 -0.325702 0.106575 0.206802 -0.315398 -1.473233
    35 0.944516 -0.225949 0.008853 0.144123 -0.084865 -1.398731
    36 0.120153 -0.050270 -0.054489 0.287569 3.110905 1.561085
    37 2.826982 -3.672619 -7.396040 -0.056888 -5.996260 0.268109
    38 0.096944 -8.399636 -0.036710 -0.219103 -0.094283 0.092743
    39 0.701867 -2.736484 -0.305915 -0.119765 0.191640 0.297512
    40 -0.032909 -1.499736 0.032285 -1.517093 0.023274 -0.030055
    41 -0.027022 -1.127703 -0.020210 -1.257302 0.024425 -0.022986
    42 0.012193 -2.846964 -0.361719 0.212911 0.247369 0.269131
    43 0.043235 -1.656596 0.068667 -1.419909 -0.022105 0.007479
    44 0.031729 -1.141298 0.051025 -1.332477 -0.014878 0.007449
    45 -0.709952 -2.835928 -0.347077 0.195392 0.261101 0.242280
    46 0.028479 -1.403067 -0.001542 -0.497878 -0.008976 -0.021057
    47 0.021413 -0.949968 0.020046 -0.474313 -0.008341 -0.019727
    48 1.387138 -2.430655 -0.178143 -0.387235 -0.142500 0.585800
    49 0.024032 -1.148574 -0.009538 -1.316396 0.024520 0.063411
    50 0.014898 -0.903521 -0.012035 -1.116529 0.012883 0.055153
    51 -0.500830 -1.315260 0.063438 0.189258 -0.614315 -2.586011
    52 1.542367 0.039149 0.016848 -0.009160 -0.003071 0.525533
    53 1.117947 0.048424 -0.005766 -0.009124 -0.031598 0.407810
    54 -0.139399 -0.111698 0.014397 0.285382 -0.030687 1.580508
    55 -7.581159 3.952309 -0.426939 1.575055 -0.029816 -0.568491
  time 18
    0 1.400268 2.898397 -0.495831 0.000000 0.372218 0.081720
    1 4.065896 0.000000 0.000000 0.581565 0.089607 1.001026
    2 5.727314 0.000000 0.000000 0.000000 0.000000 -2.432950
    3 9.229775 0.000001 0.000000 -2.073161 0.058763 -0.317050
    4 -4.028509 2.385202 -0.139540 -1.712325 0.032869 -0.243476
    5 19.850609 -2.919322 1.053877 -1.570796 3.141592 0.000000
    6 1.136250 -0.000008 0.000000 0.000000 0.000000 0.000000
    7 0.163969 -1.053874 0.889052 0.000000 0.000000 -0.000001
    8 5.025910 0.000002 0.000001 0.000000 0.000000 3.141592
    9 9.203299 0.828617 -0.000001 0.000000 0.000000 -1.469692
    10 12.265707 7.447968 -0.000001 -1.570796 1.570451 0.000000
    11 -0.000008 0.000090 0.000003 0.000000 0.000000 0.000000
    12 11.236527 1.770459 3.999999 -1.570796 0.000000 0.000000
    13 11.236526 1.770458 -4.000000 -1.570796 0.000000 0.000000
    14 20.099432 0.000001 0.099096 -1.570796 0.000000 0.000000
    15 6.261313 77.310570 -53.358147 0.000000 0.000000 0.000000
    16 0.000004 -0.661568 0.189796 0.000000 0.000000 0.000000
    17 -1.301522 -2.063828 -0.470109 0.000000 0.000000 0.000000
    18 8.586528 9.606782 -3.374534 5.819041 -2.305732 0.356957
    19 0.014018 -8.475293 -0.068979 -0.080153 0.747111 0.296861
    20 5.542467 -5.175341 -0.419346 -1.557620 -0.033361 -3.785134
    21 -0.488518 -2.755602 -0.228260 -1.572657 -0.177706 0.023979
    22 0.039887 -1.511041 0.010322 -1.082681 -0.013830 0.022424
    23 0.028786 -1.157765 -0.124675 -1.025127 -0.015053 0.021620
    24 0.250027 -2.820665 -0.238396 -1.659172 -0.096485 0.161223
    25 -0.049759 -1.618042 0.080947 -0.884122 0.008641 -0.024211
    26 -0.034142 -1.160031 0.053531 -0.944064 0.008150 -0.024377
    27 0.957766 -2.746780 -0.090302 -0.057777 -0.183753 0.043824
    28 -0.033420 -1.397129 -0.011257 -0.283970 0.006340 -0.013592
    29 -0.022360 -0.957436 0.010971 -0.294056 0.006136 -0.013662
    30 -1.180681 -2.507217 -0.193859 -0.844729 -0.059117 0.074747
    31 -0.024967 -1.123934 0.017597 -1.583565 -0.012788 -0.063086
    32 -0.020057 -0.898781 0.017903 -0.698835 0.007958 -0.027493
    33 0.591323 -1.216809 0.247881 -0.837213 -0.216096 0.257682
    34 1.301545 -0.325702 0.106575 0.206802 -0.315398 -1.473233
    35 0.944516 -0.225949 0.008853 0.144123 -0.084865 -1.398731
    36 0.120153 -0.050270 -0.054489 0.287569 3.110905 1.561085
    37 2.838701 -3.699963 -7.208534 -0.096609 -6.014353 0.245446
    38 0.104757 -8.395729 -0.040616 -0.214332 -0.046562 0.103790
    39 0.701867 -2.736484 -0.305915 -0.119765 0.191640 0.297512
    40 -0.032909 -1.499736 0.032285 -1.517093 0.023274 -0.030055
    41 -0.027022 -1.127703 -0.020210 -1.257302 0.024425 -0.022986
    42 0.012193 -2.846964 -0.361719 0.212911 0.247369 0.269131
    43 0.043235 -1.656596 0.068667 -1.419909 -0.022105 0.007479
    44 0.031729 -1.141298 0.051025 -1.332477 -0.014878 0.007449
    45 -0.709952 -2.835928 -0.347077 0.195392 0.261101 0.242280
    46 0.028479 -1.403067 -0.001542 -0.497878 -0.008976 -0.021057
    47 0.021413 -0.949968 0.020046 -0.474313 -0.008341 -0.019727
    48 1.387138 -2.430655 -0.178143 -0.387235 -0.142500 0.585800
    49 0.024032 -1.148574 -0.009538 -1.316396 0.024520 0.063411
    50 0.014898 -0.903521 -0.012035 -1.116529 0.012883 0.055153
    51 -0.500830 -1.315260 0.063438 0.189258 -0.614315 -2.586011
    52 1.542367 0.039149 0.016848 -0.009160 -0.003071 0.525533
    53 1.117947 0.048424 -0.005766 -0.009124 -0.031598 0.407810
    54 -0.139399 -0.111698 0.014397 0.285382 -0.030687 1.580508
    55 -7.628035 3.846837 -0.430845 1.574864 -0.030104 -0.554184
  time 19
    0 1.529178 2.847614 -0.495831 0.000000 0.372218 0.081720
    1 4.065896 0.000000 0.000000 0.583974 0.089975 0.999149
    2 5.727314 0.000000 0.000000 0.000000 0.000000 -2.430003
    3 9.229775 0.000001 0.000000 -2.073098 0.052199 -0.325799
    4 -4.028509 2.385202 -0.139540 -1.712325 0.032869 -0.243476
    5 19.850609 -2.919322 1.053877 -1.570796 3.141592 0.000000
    6 1.136250 -0.000008 0.000000 0.000000 0.000000 0.000000
    7 0.163969 -1.053874 0.889052 0.000000 0.000000 -0.000001
    8 5.025910 0.000002 0.000001 0.000000 0.000000 3.141592
    9 9.203299 0.828617 -0.000001 0.000000 0.000000 -1.469692
    10 12.265707 7.447968 -0.000001 -1.570796 1.570787 0.000000
    11 -0.000008 0.000090 0.000003 0.000000 0.000000 0.000000
    12 11.236527 1.770459 3.999999 -1.570796 0.000000 0.000000
    13 11.236526 1.770458 -4.000000 -1.570796 0.000000 0.000000
    14 20.099432 0.000001 0.099096 -1.570796 0.000000 0.000000
    15 6.261313 77.310570 -53.358147 0.000000 0.000000 0.000000
    16 0.000004 -0.661568 0.189796 0.000000 0.000000 0.000000
    17 -1.172612 -2.106798 -0.470109 0.000000 0.000000 0.000000
    18 8.594340 9.602876 -3.382346 5.814907 -2.304794 0.359531
    19 0.014018 -8.475293 -0.068979 -0.071061 0.747111 0.311730
    20 5.561999 -5.159715 -0.419346 -1.557716 -0.033361 -3.782075
    21 -0.488518 -2.755602 -0.228260 -1.572657 -0.177706 0.023979
    22 0.039887 -1.511041 0.010322 -1.082681 -0.013830 0.022424
    23 0.028786 -1.157765 -0.124675 -1.025127 -0.015053 0.021620
    24 0.250027 -2.820665 -0.238396 -1.659172 -0.096485 0.161223
    25 -0.049759 -1.618042 0.080947 -0.884122 0.008641 -0.024211
    26 -0.034142 -1.160031 0.053531 -0.944064 0.008150 -0.024377
    27 0.957766 -2.746780 -0.090302 -0.057777 -0.183753 0.043824
    28 -0.033420 -1.397129 -0.011257 -0.283970 0.006340 -0.013592
    29 -0.022360 -0.957436 0.010971 -0.294056 0.006136 -0.013662
    30 -1.180681 -2.507217 -0.193859 -0.844729 -0.059117 0.074747
    31 -0.024967 -1.123934 0.017597 -1.583565 -0.012788 -0.063086
    32 -0.020057 -0.898781 0.017903 -0.698835 0.007958 -0.027493
    33 0.591323 -1.216809 0.247881 -0.837213 -0.216096 0.257682
    34 1.301545 -0.325702 0.106575 0.206802 -0.315398 -1.473233
    35 0.944516 -0.225949 0.008853 0.144123 -0.084865 -1.398731
    36 0.120153 -0.050270 -0.054489 0.287569 3.110905 1.561085
    37 2.846514 -3.699963 -7.169471 -0.104375 -6.018081 0.242113
    38 0.104757 -8.395729 -0.048429 -0.213470 -0.037417 0.105560
    39 0.701867 -2.736484 -0.305915 -0.119765 0.191640 0.297512
    40 -0.032909 -1.499736 0.032285 -1.517093 0.023274 -0.030055
    41 -0.027022 -1.127703 -0.020210 -1.257302 0.024425 -0.022986
    42 0.012193 -2.846964 -0.361719 0.212911 0.247369 0.269131
    43 0.043235 -1.656596 0.068667 -1.419909 -0.022105 0.007479
    44 0.031729 -1.141298 0.051025 -1.332477 -0.014878 0.007449
    45 -0.709952 -2.835928 -0.347077 0.195392 0.261101 0.242280
    46 0.028479 -1.403067 -0.001542 -0.497878 -0.008976 -0.021057
    47 0.021413 -0.949968 0.020046 -0.474313 -0.008341 -0.019727
    48 1.387138 -2.430655 -0.178143 -0.387235 -0.142500 0.585800
    49 0.024032 -1.148574 -0.009538 -1.316396 0.024520 0.063411
    50 0.014898 -0.903521 -0.012035 -1.116529 0.012883 0.055153
    51 -0.500830 -1.315260 0.063438 0.189258 -0.614315 -2.586011
    52 1.542367 0.039149 0.016848 -0.009160 -0.003071 0.525533
    53 1.117947 0.048424 -0.005766 -0.009124 -0.031598 0.407810
    54 -0.139399 -0.111698 0.014397 0.285382 -0.030687 1.580508
    55 -7.631942 3.835118 -0.430845 1.574864 -0.030104 -0.552932
  time 20
    0 1.568242 2.828082 -0.495831 0.000000 0.372218 0.081720
    1 4.065896 0.000000 0.000000 0.581565 0.089607 1.001026
    2 5.727314 0.000000 0.000000 0.000000 0.000000 -2.432950
    3 9.229775 0.000001 0.000000 -2.073161 0.058763 -0.317050
    4 -4.028509 2.385202 -0.139540 -1.712325 0.032869 -0.243476
    5 19.850609 -2.919322 1.053877 -1.570796 3.141592 0.000000
    6 1.136250 -0.000008 0.000000 0.000000 0.000000 0.000000
    7 0.163969 -1.053874 0.889052 0.000000 0.000000 -0.000001
    8 5.025910 0.000002 0.000001 0.000000 0.000000 3.141592
    9 9.203299 0.828617 -0.000001 0.000000 0.000000 -1.469692
    10 12.265707 7.447968 -0.000001 -1.570796 1.570451 0.000000
    11 -0.000008 0.000090 0.000003 0.000000 0.000000 0.000000
    12 11.236527 1.770459 3.999999 -1.570796 0.000000 0.000000
    13 11.236526 1.770458 -4.000000 -1.570796 0.000000 0.000000
    14 20.099432 0.000001 0.099096 -1.570796 0.000000 0.000000
    15 6.261313 77.310570 -53.358147 0.000000 0.000000 0.000000
    16 0.000004 -0.661568 0.189796 0.000000 0.000000 0.000000
    17 -1.125736 -2.126330 -0.470109 0.000000 0.000000 0.000000
    18 8.586528 9.606782 -3.374534 5.819041 -2.305732 0.356957
    19 0.014018 -8.475293 -0.068979 -0.080153 0.747111 0.296861
    20 5.542467 -5.175341 -0.419346 -1.557620 -0.033361 -3.785134
    21 -0.488518 -2.755602 -0.228260 -1.572657 -0.177706 0.023979
    22 0.039887 -1.511041 0.010322 -1.082681 -0.013830 0.022424
    23 0.028786 -1.157765 -0.124675 -1.025127 -0.015053 0.021620
    24 0.250027 -2.820665 -0.238396 -1.659172 -0.096485 0.161223
    25 -0.049759 -1.618042 0.080947 -0.884122 0.008641 -0.024211
    26 -0.034142 -1.160031 0.053531 -0.944064 0.008150 -0.024377
    27 0.957766 -2.746780 -0.090302 -0.057777 -0.183753 0.043824
    28 -0.033420 -1.397129 -0.011257 -0.283970 0.006340 -0.013592
    29 -0.022360 -0.957436 0.010971 -0.294056 0.006136 -0.013662
    30 -1.180681 -2.507217 -0.193859 -0.844729 -0.059117 0.074747
    31 -0.024967 -1.123934 0.017597 -1.583565 -0.012788 -0.063086
    32 -0.020057 -0.898781 0.017903 -0.698835 0.007958 -0.027493
    33 0.591323 -1.216809 0.247881 -0.837213 -0.216096 0.257682
    34 1.301545 -0.325702 0.106575 0.206802 -0.315398 -1.473233
    35 0.944516 -0.225949 0.008853 0.144123 -0.084865 -1.398731
    36 0.120153 -0.050270 -0.054489 0.287569 3.110905 1.561085
    37 2.838701 -3.699963 -7.208534 -0.096673 -6.014353 0.245446
    38 0.104757 -8.395729 -0.040616 -0.214332 -0.046602 0.103790
    39 0.701867 -2.736484 -0.305915 -0.119765 0.191640 0.297512
    40 -0.032909 -1.499736 0.032285 -1.517093 0.023274 -0.030055
    41 -0.027022 -1.127703 -0.020210 -1.257302 0.024425 -0.022986
    42 0.012193 -2.846964 -0.361719 0.212911 0.247369 0.269131
    43 0.043235 -1.656596 0.068667 -1.419909 -0.022105 0.007479
    44 0.031729 -1.141298 0.051025 -1.332477 -0.014878 0.007449
    45 -0.709952 -2.835928 -0.347077 0.195392 0.261101 0.242280
    46 0.028479 -1.403067 -0.001542 -0.497878 -0.008976 -0.021057
    47 0.021413 -0.949968 0.020046 -0.474313 -0.008341 -0.019727
    48 1.387138 -2.430655 -0.178143 -0.387235 -0.142500 0.585800
    49 0.024032 -1.148574 -0.009538 -1.316396 0.024520 0.063411
    50 0.014898 -0.903521 -0.012035 -1.116529 0.012883 0.055153
    51 -0.500830 -1.315260 0.063438 0.189258 -0.614315 -2.586011
    52 1.542367 0.039149 0.016848 -0.009160 -0.003071 0.525533
    53 1.117947 0.048424 -0.005766 -0.009124 -0.031598 0.407810
    54 -0.139399 -0.111698 0.014397 0.285382 -0.030687 1.580508
    55 -7.628035 3.846837 -0.430845 1.574864 -0.030104 -0.554184
end
