version 1
nodes
  0 "Bone01" -1
  1 "Bone_Lefthand" 0
  2 "YoungJune_songpuen" 1
  3 "CSO_June_00" 2
  4 "CSO_June_01" 2
  5 "CSO_June_02" 2
  6 "CSO_June_03" 2
  7 "CSO_June_04" 2
  8 "CSO_June_05" 2
  9 "CSO_June_06" 2
  10 "CSO_June_07" 2
  11 "CSO_June_08" 2
  12 "CSO_June_09" 2
  13 "CSO_June_10" 2
  14 "CSO_June_11" 2
  15 "Point01" 2
  16 "CSO_June_12" 15
  17 "CSO_June_13" 15
  18 "CSO_June_14" 15
  19 "CSO_June_16" 15
  20 "CSO_June_17" 15
  21 "CSO_June_18" 15
  22 "CSO_June_19" 15
  23 "CSO_June_20" 15
  24 "CSO_June_21" 15
  25 "CSO_June_22" 15
  26 "CSO_June_23" 15
  27 "CSO_June_24" 15
  28 "CSO_June_15" 15
  29 "Dummy02" 15
  30 "CSO_June_25" 29
  31 "CSO_June_26" 29
  32 "CSO_June_27" 29
  33 "CSO_June_28" 29
  34 "CSO_June_29" 29
  35 "CSO_June_30" 29
  36 "CSO_June_31" 29
  37 "CSO_June_32" 29
  38 "CSO_June_33" 29
  39 "CSO_June_34" 29
  40 "CSO_June_35" 29
  41 "CSO_June_36" 29
  42 "NEXON_CSO_SongPuen" 1
  43 "NEXON_CSO_SongPuen_Gao00" 42
  44 "NEXON_CSO_SongPuen_Gao01" 42
  45 "NEXON_CSO_SongPuen_Gao02" 42
  46 "NEXON_CSO_SongPuen_Gao03" 42
  47 "Bone04" -1
  48 "Bone_Righthand" 47
  49 "NEXON_CSO_Spoon" 48
  50 "Box15" 49
  51 "Box42" 49
  52 "Box43" 49
  53 "Box44" 49
  54 "Box45" 49
  55 "Box46" 49
  56 "Box47" 49
  57 "Bone 04" 1
  58 "Bone13" 57
  59 "Bone14" 58
  60 "Bone15" 59
  61 "Bone17" 57
  62 "Bone18" 61
  63 "Bone19" 62
  64 "Bone21" 57
  65 "Bone22" 64
  66 "Bone23" 65
  67 "Bone05" 57
  68 "Bone06" 67
  69 "Bone07" 68
  70 "Bone09" 57
  71 "Bone10" 70
  72 "Bone11" 71
  73 "Bone26" 48
  74 "Bone35" 73
  75 "Bone36" 74
  76 "Bone37" 75
  77 "Bone31" 73
  78 "Bone32" 77
  79 "Bone33" 78
  80 "Bone39" 73
  81 "Bone40" 80
  82 "Bone41" 81
  83 "Bone43" 73
  84 "Bone44" 83
  85 "Bone45" 84
  86 "Bone27" 73
  87 "Bone28" 86
  88 "Bone29" 87
end
skeleton
  time 0
    0 9.068768 -0.301248 -8.984690 -0.547201 -0.390772 0.039687
    1 0.000000 -8.563283 0.000000 0.121953 0.770328 -0.446582
    2 0.073562 -2.950433 0.467655 -0.150325 -0.271779 0.658043
    3 0.009679 -1.253012 -0.154392 0.000000 0.000000 0.000000
    4 -0.600742 -1.098139 -0.185642 0.000000 0.000000 0.000000
    5 0.620055 -1.090309 -0.185643 0.000000 0.000000 0.000000
    6 1.081826 -0.658159 -0.017669 0.000000 0.000000 0.000000
    7 -1.062061 -0.650324 0.001863 0.000000 0.000000 0.000000
    8 -0.600742 1.037024 0.181557 0.000000 3.141592 0.000000
    9 0.009679 1.191897 0.165931 0.000000 3.141592 0.000000
    10 0.643492 1.001849 -0.033294 0.000000 3.141592 0.000000
    11 1.081826 0.597044 0.048740 0.000000 3.141592 0.000000
    12 -1.239103 -0.014181 0.068271 0.000000 3.141592 0.000000
    13 1.235106 -0.014188 0.138587 0.000000 3.141592 0.000000
    14 -1.062185 0.597044 0.310467 0.000000 3.141592 0.000000
    15 0.000000 0.000000 0.172058 1.570796 0.000000 0.000000
    16 0.009679 -0.523701 2.114601 -1.570796 0.000000 0.000000
    17 -1.003980 -0.207284 1.779878 -1.570796 0.000000 0.000000
    18 0.882662 -0.242442 1.883507 -1.570796 0.000000 0.000000
    19 1.833486 0.136477 1.113292 -1.570796 0.000000 0.000000
    20 -1.845402 -0.140876 1.096564 -1.570796 0.000000 0.000000
    21 0.009679 0.198978 -1.908949 1.570796 -3.141592 0.000000
    22 -1.046950 0.058349 -1.761733 1.570796 -3.141592 0.000000
    23 1.066261 0.046629 -1.810672 1.570796 -3.141592 0.000000
    24 -1.845402 0.066162 -1.035449 -1.570796 0.000000 -3.141592
    25 1.735827 0.171634 -1.044363 1.570796 -3.141592 0.000000
    26 -2.028277 0.027098 0.014173 -1.570796 0.000000 -3.141592
    27 2.141874 0.175539 0.014198 1.570796 -3.141592 0.000000
    28 0.000000 -0.428097 0.000000 -1.570796 0.000000 0.000000
    29 0.000000 -0.076881 0.000000 0.000000 0.000000 0.000000
    30 0.009679 -0.361282 2.501864 -1.570796 0.000000 0.000000
    31 -1.235706 -0.107369 2.174443 -1.570796 0.000000 0.000000
    32 1.215399 0.056700 2.182257 -1.570796 0.000000 0.000000
    33 -2.471678 0.130921 0.025195 -1.570796 0.000000 0.000000
    34 2.216127 0.142641 1.300005 -1.570796 0.000000 0.000000
    35 -2.142449 0.017634 1.275379 -1.570796 0.000000 0.000000
    36 0.009679 0.252018 -2.718101 1.570796 -3.141592 0.000000
    37 -1.001323 -0.267529 -1.894571 1.570796 -3.141592 0.000000
    38 1.215399 0.123108 -2.113328 1.570796 -3.141592 0.000000
    39 -2.142449 0.005915 -1.214264 1.570796 -3.141592 0.000000
    40 2.145812 0.025449 -1.192012 1.570796 -3.141592 0.000000
    41 2.555719 0.056701 0.080606 1.570796 -3.141592 0.000000
    42 -0.055532 -7.250776 -17.963177 0.186494 -0.131176 -0.127134
    43 1.822089 -0.000001 0.185090 0.000000 1.258190 0.000000
    44 1.165224 -0.000001 0.826735 0.000000 0.453150 0.000000
    45 -0.505282 -0.000001 1.104040 0.000000 -0.137941 0.000000
    46 -1.606096 -0.000002 0.452690 0.000000 -0.792746 0.000000
    47 -4.256526 -5.198696 -15.111884 0.747154 1.775525 0.829561
    48 0.089928 -8.543161 0.000000 -0.330413 -0.492107 0.023952
    49 -1.487347 -2.694321 -0.002551 -0.342844 0.457213 -1.513291
    50 -0.235846 0.014161 6.875397 0.000000 0.000000 0.000000
    51 0.422197 0.102860 6.402352 0.000000 0.000000 0.000000
    52 -0.059996 -0.224673 6.358178 0.000000 0.000000 0.000000
    53 -0.546009 0.014161 5.990119 0.000000 0.000000 0.000000
    54 -0.072388 0.305572 6.229564 0.000000 0.000000 0.000000
    55 -0.088845 -0.415084 5.797315 0.000000 0.000000 0.000000
    56 0.062633 0.174584 5.660718 0.000000 0.000000 0.000000
    57 -0.003480 -0.404829 0.000000 0.000000 0.000000 0.000000
    58 -0.519309 -2.501155 -0.278957 0.065651 -0.072602 -0.273893
    59 -0.010598 -1.208185 0.000000 -0.077096 0.000000 0.000000
    60 0.000000 -0.763065 0.000000 -0.156897 0.000000 0.000000
    61 0.105981 -2.607135 -0.278957 -0.073180 -0.197572 -0.109592
    62 0.000000 -1.250578 0.000000 -0.025486 0.000000 0.000000
    63 0.000000 -0.932634 0.000000 0.031977 0.000000 0.000000
    64 0.763065 -2.490555 -0.278957 -0.154350 -0.203104 -0.003939
    65 -0.012321 -1.280916 0.000000 0.098161 0.000000 0.000000
    66 -0.001697 -0.749370 0.000000 0.237051 0.000000 0.000000
    67 0.354566 0.016267 0.318133 0.377887 -0.318494 -0.751988
    68 1.887165 0.012879 0.000000 -0.623446 -0.058828 -0.460466
    69 1.001873 -0.000270 0.000000 -0.516189 0.248238 0.364619
    70 -1.123358 -2.195092 -0.278957 0.047031 -0.154436 -0.314154
    71 0.010772 -0.963792 0.000000 -0.076507 0.000000 0.000000
    72 -0.010412 -0.631916 0.000000 -0.057367 0.000000 0.000000
    73 0.000000 -0.359713 -0.000001 0.000000 0.000000 0.000000
    74 -0.170479 -2.636147 -0.277655 -0.861505 -0.024801 -0.011191
    75 0.010598 -1.261177 0.000001 -0.369824 0.000000 0.000000
    76 0.000000 -0.943233 0.000001 -1.153622 0.000000 0.000000
    77 -0.827562 -2.508972 -0.277655 -0.600144 -0.005298 -0.005694
    78 0.000000 -1.292971 0.000000 -0.785763 0.000000 0.000000
    79 0.000000 -0.752466 -0.000001 -0.314563 0.000000 0.000000
    80 0.444212 -2.561960 -0.277655 -1.029669 -0.143563 0.139535
    81 0.021023 -1.208187 0.000000 -0.458787 0.000000 0.000000
    82 0.010599 -0.741867 0.000000 -0.891894 0.000000 0.000000
    83 1.047445 -2.222819 -0.277655 -0.783309 -0.253696 0.187998
    84 -0.000001 -0.996223 0.000000 -0.795873 -0.066338 -0.064824
    85 0.000000 -0.614691 0.000000 -0.951198 0.000000 0.000000
    86 -0.308254 -0.007814 0.307166 -0.324881 -0.466175 -2.180560
    87 1.978377 0.019544 0.000000 0.222631 -0.072479 0.495882
    88 0.982424 0.003186 0.000000 0.204090 -0.016025 0.539602
  time 1
    0 9.068768 -0.301248 -8.984690 -0.547201 -0.390772 0.039687
    1 0.000000 -8.563283 0.000000 0.121953 0.770328 -0.446582
    2 0.073562 -2.950433 0.467655 -0.150325 -0.271779 0.658043
    3 0.009679 -1.253012 -0.154392 0.000000 0.000000 0.000000
    4 -0.600742 -1.098139 -0.185642 0.000000 0.000000 0.000000
    5 0.620055 -1.090309 -0.185643 0.000000 0.000000 0.000000
    6 1.081826 -0.658159 -0.017669 0.000000 0.000000 0.000000
    7 -1.062061 -0.650324 0.001863 0.000000 0.000000 0.000000
    8 -0.600742 1.037024 0.181557 0.000000 3.141592 0.000000
    9 0.009679 1.191897 0.165931 0.000000 3.141592 0.000000
    10 0.643492 1.001849 -0.033294 0.000000 3.141592 0.000000
    11 1.081826 0.597044 0.048740 0.000000 3.141592 0.000000
    12 -1.239103 -0.014181 0.068271 0.000000 3.141592 0.000000
    13 1.235106 -0.014188 0.138587 0.000000 3.141592 0.000000
    14 -1.062185 0.597044 0.310467 0.000000 3.141592 0.000000
    15 0.000000 0.000000 0.172058 1.570796 0.000000 0.000000
    16 0.009679 -0.523701 2.114601 -1.570796 0.000000 0.000000
    17 -1.003980 -0.207284 1.779878 -1.570796 0.000000 0.000000
    18 0.882662 -0.242442 1.883507 -1.570796 0.000000 0.000000
    19 1.833486 0.136477 1.113292 -1.570796 0.000000 0.000000
    20 -1.845402 -0.140876 1.096564 -1.570796 0.000000 0.000000
    21 0.009679 0.198978 -1.908949 1.570796 -3.141592 0.000000
    22 -1.046950 0.058349 -1.761733 1.570796 -3.141592 0.000000
    23 1.066261 0.046629 -1.810672 1.570796 -3.141592 0.000000
    24 -1.845402 0.066162 -1.035449 -1.570796 0.000000 -3.141592
    25 1.735827 0.171634 -1.044363 1.570796 -3.141592 0.000000
    26 -2.028277 0.027098 0.014173 -1.570796 0.000000 -3.141592
    27 2.141874 0.175539 0.014198 1.570796 -3.141592 0.000000
    28 0.000000 -0.428097 0.000000 -1.570796 0.000000 0.000000
    29 0.000000 -0.076881 0.000000 0.000000 0.000000 0.000000
    30 0.009679 -0.361282 2.501864 -1.570796 0.000000 0.000000
    31 -1.235706 -0.107369 2.174443 -1.570796 0.000000 0.000000
    32 1.215399 0.056700 2.182257 -1.570796 0.000000 0.000000
    33 -2.471678 0.130921 0.025195 -1.570796 0.000000 0.000000
    34 2.216127 0.142641 1.300005 -1.570796 0.000000 0.000000
    35 -2.142449 0.017634 1.275379 -1.570796 0.000000 0.000000
    36 0.009679 0.252018 -2.718101 1.570796 -3.141592 0.000000
    37 -1.001323 -0.267529 -1.894571 1.570796 -3.141592 0.000000
    38 1.215399 0.123108 -2.113328 1.570796 -3.141592 0.000000
    39 -2.142449 0.005915 -1.214264 1.570796 -3.141592 0.000000
    40 2.145812 0.025449 -1.192012 1.570796 -3.141592 0.000000
    41 2.555719 0.056701 0.080606 1.570796 -3.141592 0.000000
    42 -0.055532 -7.250776 -17.963177 0.186494 -0.131176 -0.127134
    43 1.822089 -0.000001 0.185090 0.000000 1.258190 0.000000
    44 1.165224 -0.000001 0.826735 0.000000 0.453150 0.000000
    45 -0.505282 -0.000001 1.104040 0.000000 -0.137941 0.000000
    46 -1.606096 -0.000002 0.452690 0.000000 -0.792746 0.000000
    47 -4.256526 -5.198696 -15.111884 0.747154 1.775525 0.829561
    48 0.089928 -8.543161 0.000000 -0.330413 -0.492107 0.023952
    49 -1.487347 -2.694321 -0.002551 -0.342844 0.457213 -1.513291
    50 -0.235846 0.014161 6.875397 0.000000 0.000000 0.000000
    51 0.422197 0.102860 6.402352 0.000000 0.000000 0.000000
    52 -0.059996 -0.224673 6.358178 0.000000 0.000000 0.000000
    53 -0.546009 0.014161 5.990119 0.000000 0.000000 0.000000
    54 -0.072388 0.305572 6.229564 0.000000 0.000000 0.000000
    55 -0.088845 -0.415084 5.797315 0.000000 0.000000 0.000000
    56 0.062633 0.174584 5.660718 0.000000 0.000000 0.000000
    57 -0.003480 -0.404829 0.000000 0.000000 0.000000 0.000000
    58 -0.519309 -2.501155 -0.278957 0.065651 -0.072602 -0.273893
    59 -0.010598 -1.208185 0.000000 -0.077096 0.000000 0.000000
    60 0.000000 -0.763065 0.000000 -0.156897 0.000000 0.000000
    61 0.105981 -2.607135 -0.278957 -0.073180 -0.197572 -0.109592
    62 0.000000 -1.250578 0.000000 -0.025486 0.000000 0.000000
    63 0.000000 -0.932634 0.000000 0.031977 0.000000 0.000000
    64 0.763065 -2.490555 -0.278957 -0.154350 -0.203104 -0.003939
    65 -0.012321 -1.280916 0.000000 0.098161 0.000000 0.000000
    66 -0.001697 -0.749370 0.000000 0.237051 0.000000 0.000000
    67 0.354566 0.016267 0.318133 0.377887 -0.318494 -0.751988
    68 1.887165 0.012879 0.000000 -0.623446 -0.058828 -0.460466
    69 1.001873 -0.000270 0.000000 -0.516189 0.248238 0.364619
    70 -1.123358 -2.195092 -0.278957 0.047031 -0.154436 -0.314154
    71 0.010772 -0.963792 0.000000 -0.076507 0.000000 0.000000
    72 -0.010412 -0.631916 0.000000 -0.057367 0.000000 0.000000
    73 0.000000 -0.359713 -0.000001 0.000000 0.000000 0.000000
    74 -0.170479 -2.636147 -0.277655 -0.861505 -0.024801 -0.011191
    75 0.010598 -1.261177 0.000001 -0.369824 0.000000 0.000000
    76 0.000000 -0.943233 0.000001 -1.153622 0.000000 0.000000
    77 -0.827562 -2.508972 -0.277655 -0.600144 -0.005298 -0.005694
    78 0.000000 -1.292971 0.000000 -0.785763 0.000000 0.000000
    79 0.000000 -0.752466 -0.000001 -0.314563 0.000000 0.000000
    80 0.444212 -2.561960 -0.277655 -1.029669 -0.143563 0.139535
    81 0.021023 -1.208187 0.000000 -0.458787 0.000000 0.000000
    82 0.010599 -0.741867 0.000000 -0.891894 0.000000 0.000000
    83 1.047445 -2.222819 -0.277655 -0.783309 -0.253696 0.187998
    84 -0.000001 -0.996223 0.000000 -0.795873 -0.066338 -0.064824
    85 0.000000 -0.614691 0.000000 -0.951198 0.000000 0.000000
    86 -0.308254 -0.007814 0.307166 -0.324881 -0.466175 -2.180560
    87 1.978377 0.019544 0.000000 0.222631 -0.072479 0.495882
    88 0.982424 0.003186 0.000000 0.204090 -0.016025 0.539602
end
