version 1
nodes
  0 "root" -1
  1 "Bone01" 0
  2 "Bone_L_Upper" 1
  3 "Bone_Lefthand" 1
  4 "Bone13" 3
  5 "Bone14" 4
  6 "Bone15" 5
  7 "Bone17" 3
  8 "Bone18" 7
  9 "Bone19" 8
  10 "Bone21" 3
  11 "Bone22" 10
  12 "Bone23" 11
  13 "Bone09" 3
  14 "Bone10" 13
  15 "Bone11" 14
  16 "Bone05" 3
  17 "Bone06" 16
  18 "Bone07" 17
  19 "Bone_Se_Hand-L" 3
  20 "Bone04" 0
  21 "Bone_Righthand" 20
  22 "Bone39" 21
  23 "Bone40" 22
  24 "Bone41" 23
  25 "Bone35" 21
  26 "Bone36" 25
  27 "Bone37" 26
  28 "Bone31" 21
  29 "Bone32" 28
  30 "Bone33" 29
  31 "Bone43" 21
  32 "Bone44" 31
  33 "Bone45" 32
  34 "Bone27" 21
  35 "Bone28" 34
  36 "Bone29" 35
  37 "Bone_Se_Hand-R" 21
  38 "Bone_R_Upper" 20
  39 "Bip01 L Clavicle" -1
  40 "Bip01 L UpperArm" 39
  41 "Bip01 L Forearm" 40
  42 "Bip01 L Hand" 41
  43 "Bone_grenade" 42
  44 "rebound_gren_v" 43
end
skeleton
  time 0
    0 -0.002752 -0.001265 -0.003287 0.000000 0.000000 0.000000
    1 5.743588 -4.573029 1.313558 4.758379 0.345215 -4.367225
    2 6.233894 5.860152 -0.622477 1.522911 -3.093115 0.850340
    3 0.002300 -8.612021 -0.096321 0.575098 0.445699 0.749377
    4 -0.488518 -2.755602 -0.228260 -0.500417 0.279961 -0.381016
    5 0.039887 -1.487603 0.022041 -0.405225 -0.007263 0.005861
    6 0.028786 -1.138233 -0.112955 -0.854605 -0.014238 0.017138
    7 0.250027 -2.820665 -0.238396 -0.434300 0.098804 -0.134665
    8 -0.049759 -1.641480 0.096573 -0.504471 0.007742 -0.013137
    9 -0.034142 -1.148312 0.069157 -0.460489 0.006568 -0.010367
    10 0.957766 -2.746780 -0.090302 -0.487171 -0.067395 0.116738
    11 -0.033420 -1.397129 -0.011257 -0.139220 0.003763 -0.006748
    12 -0.022360 -0.957436 0.010971 -0.329039 0.006592 -0.015388
    13 -1.180681 -2.507217 -0.193859 -0.262972 0.239084 -0.315979
    14 -0.024967 -1.123934 0.017597 -0.785803 0.006747 -0.033508
    15 -0.020057 -0.898781 0.013996 -0.393681 0.006364 -0.013710
    16 0.556165 -1.205090 0.232255 -0.494891 -0.042631 -0.392741
    17 1.508582 -0.157728 -0.041867 -0.529429 0.083101 -0.507961
    18 1.081239 -0.100945 0.016666 0.007439 -0.125289 -0.509799
    19 0.120153 -0.050270 -0.054489 0.287569 3.110905 1.561085
    20 -6.563930 -4.571083 2.108156 1.505796 -2.781798 1.225747
    21 -0.028060 -8.563703 0.049231 0.520836 -0.715161 -0.707231
    22 0.447953 -2.798986 -0.200443 -0.501132 -0.278132 0.381968
    23 -0.032909 -1.488017 0.004940 -0.388838 0.008893 -0.003222
    24 -0.027022 -1.108171 -0.028023 -0.775477 0.018804 -0.010618
    25 -0.249534 -2.846964 -0.174213 -0.263153 -0.096158 0.124717
    26 0.043235 -1.668316 0.092106 -0.602071 -0.009198 -0.001497
    27 0.031729 -1.156924 0.058838 -0.384702 -0.003169 0.006131
    28 -0.963866 -2.785145 -0.085350 -0.325890 0.071768 -0.151575
    29 0.028479 -1.403067 0.002365 -0.166307 -0.001906 -0.007910
    30 0.021413 -0.953875 0.020046 -0.340946 -0.005081 -0.014657
    31 1.164475 -2.543940 -0.170330 -0.268817 -0.234925 0.321516
    32 0.024032 -1.136855 -0.001725 -0.816998 0.005201 0.043421
    33 0.014898 -0.887895 -0.019848 -0.270831 -0.002253 0.011565
    34 -0.586770 -1.264477 0.200161 0.551726 -0.123446 -2.846455
    35 1.534554 0.046962 0.012942 0.533248 0.233888 0.464006
    36 1.114041 0.048424 -0.005766 -0.014804 -0.033731 0.597077
    37 -0.139399 -0.111698 0.014397 0.285382 -0.030687 1.580508
    38 -6.928795 5.182816 -0.407407 1.577736 -0.026274 -0.737809
    39 1.271553 -1.379853 -2.637508 0.000000 0.378680 -0.121031
    40 4.065896 0.000000 0.000000 -0.906006 -1.038872 -1.765986
    41 5.727315 0.000000 0.000000 0.000000 0.000000 -0.940510
    42 9.229777 0.000000 0.000000 -1.795896 -0.489853 -0.478059
    43 0.789402 6.000689 -1.689321 0.904419 1.433886 -0.843797
    44 0.000000 0.000000 -0.000001 -3.141592 -1.570796 0.000000
  time 1
    0 -0.002752 -0.001265 -0.003287 0.000000 0.000000 0.000000
    1 5.802184 -4.619906 1.262776 4.762840 0.361003 -4.354147
    2 6.386243 5.664834 -0.638103 1.524057 -3.091199 0.819378
    3 0.002300 -8.604208 -0.092415 0.569596 0.473980 0.687593
    4 -0.488518 -2.755602 -0.228260 -0.500417 0.279961 -0.381016
    5 0.039887 -1.487603 0.022041 -0.405225 -0.007263 0.005861
    6 0.028786 -1.138233 -0.112955 -0.854605 -0.014238 0.017138
    7 0.250027 -2.820665 -0.238396 -0.434300 0.098804 -0.134665
    8 -0.049759 -1.641480 0.096573 -0.504471 0.007742 -0.013137
    9 -0.034142 -1.148312 0.069157 -0.460489 0.006568 -0.010367
    10 0.957766 -2.746780 -0.090302 -0.487171 -0.067395 0.116738
    11 -0.033420 -1.397129 -0.011257 -0.139220 0.003763 -0.006748
    12 -0.022360 -0.957436 0.010971 -0.329039 0.006592 -0.015388
    13 -1.180681 -2.507217 -0.193859 -0.262972 0.239084 -0.315979
    14 -0.024967 -1.123934 0.017597 -0.785803 0.006747 -0.033508
    15 -0.020057 -0.898781 0.013996 -0.393681 0.006364 -0.013710
    16 0.556165 -1.205090 0.232255 -0.494891 -0.042631 -0.392741
    17 1.508582 -0.157728 -0.041867 -0.529429 0.083101 -0.507961
    18 1.081239 -0.100945 0.016666 0.007439 -0.125289 -0.509799
    19 0.120153 -0.050270 -0.054489 0.287569 3.110905 1.561085
    20 -6.602993 -4.696087 1.979246 1.505748 -2.759734 1.231205
    21 -0.024153 -8.559797 0.049231 0.512042 -0.723394 -0.631244
    22 0.447953 -2.798986 -0.200443 -0.501132 -0.278132 0.381968
    23 -0.032909 -1.488017 0.004940 -0.388838 0.008893 -0.003222
    24 -0.027022 -1.108171 -0.028023 -0.775477 0.018804 -0.010618
    25 -0.249534 -2.846964 -0.174213 -0.263153 -0.096158 0.124717
    26 0.043235 -1.668316 0.092106 -0.602071 -0.009198 -0.001497
    27 0.031729 -1.156924 0.058838 -0.384702 -0.003169 0.006131
    28 -0.963866 -2.785145 -0.085350 -0.325890 0.071768 -0.151575
    29 0.028479 -1.403067 0.002365 -0.166307 -0.001906 -0.007910
    30 0.021413 -0.953875 0.020046 -0.340946 -0.005081 -0.014657
    31 1.164475 -2.543940 -0.170330 -0.268817 -0.234925 0.321516
    32 0.024032 -1.136855 -0.001725 -0.816998 0.005201 0.043421
    33 0.014898 -0.887895 -0.019848 -0.270831 -0.002253 0.011565
    34 -0.586770 -1.264477 0.200161 0.551726 -0.123446 -2.846455
    35 1.534554 0.046962 0.012942 0.533248 0.233888 0.464006
    36 1.114041 0.048424 -0.005766 -0.014804 -0.033731 0.597077
    37 -0.139399 -0.111698 0.014397 0.285382 -0.030687 1.580508
    38 -7.163177 4.792179 -0.415220 1.576969 -0.027519 -0.682413
    39 1.271553 -1.379853 -2.637508 0.000000 0.378680 -0.121031
    40 4.065896 0.000000 0.000000 -0.924526 -1.032456 -1.735654
    41 5.727315 0.000000 0.000000 0.000000 0.000000 -0.971492
    42 9.229777 0.000000 0.000000 -1.822266 -0.481221 -0.404686
    43 0.789402 6.000689 -1.689321 0.904419 1.433886 -0.843797
    44 0.000000 0.000000 -0.000001 -3.141592 -1.570796 0.000000
  time 2
    0 -0.002752 -0.001265 -0.003287 0.000000 0.000000 0.000000
    1 5.614678 -7.647342 -1.807631 1.062062 -2.635731 -0.951365
    2 4.479935 7.473483 -0.474035 1.515175 -3.113044 1.143445
    3 0.080427 -8.647178 -0.108040 0.787084 0.413618 1.209985
    4 -0.488518 -2.755602 -0.228260 -0.500417 0.279961 -0.381016
    5 0.039887 -1.487603 0.022041 -0.405225 -0.007263 0.005861
    6 0.028786 -1.138233 -0.112955 -0.854605 -0.014238 0.017138
    7 0.250027 -2.820665 -0.238396 -0.434300 0.098804 -0.134665
    8 -0.049759 -1.641480 0.096573 -0.504471 0.007742 -0.013137
    9 -0.034142 -1.148312 0.069157 -0.460489 0.006568 -0.010367
    10 0.957766 -2.746780 -0.090302 -0.487171 -0.067395 0.116738
    11 -0.033420 -1.397129 -0.011257 -0.139220 0.003763 -0.006748
    12 -0.022360 -0.957436 0.010971 -0.329039 0.006592 -0.015388
    13 -1.180681 -2.507217 -0.193859 -0.262972 0.239084 -0.315979
    14 -0.024967 -1.123934 0.017597 -0.785803 0.006747 -0.033508
    15 -0.020057 -0.898781 0.013996 -0.393681 0.006364 -0.013710
    16 0.556165 -1.205090 0.232255 -0.494891 -0.042631 -0.392741
    17 1.508582 -0.157728 -0.041867 -0.529429 0.083101 -0.507961
    18 1.081239 -0.100945 0.016666 0.007439 -0.125289 -0.509799
    19 0.120153 -0.050270 -0.054489 0.287569 3.110905 1.561085
    20 -5.337330 -7.430546 -2.192756 -1.407997 -5.565813 -1.394145
    21 0.022723 -8.559797 0.037511 0.131208 -0.610979 -0.885090
    22 0.447953 -2.798986 -0.200443 -0.501132 -0.278132 0.381968
    23 -0.032909 -1.488017 0.004940 -0.388838 0.008893 -0.003222
    24 -0.027022 -1.108171 -0.028023 -0.775477 0.018804 -0.010618
    25 -0.249534 -2.846964 -0.174213 -0.263153 -0.096158 0.124717
    26 0.043235 -1.668316 0.092106 -0.602090 -0.009198 -0.001497
    27 0.031729 -1.156924 0.058838 -0.384702 -0.003169 0.006131
    28 -0.963866 -2.785145 -0.085350 -0.325890 0.071768 -0.151575
    29 0.028479 -1.403067 0.002365 -0.166307 -0.001906 -0.007910
    30 0.021413 -0.953875 0.020046 -0.340946 -0.005081 -0.014657
    31 1.164475 -2.543940 -0.170330 -0.268817 -0.234925 0.321516
    32 0.024032 -1.136855 -0.001725 -0.816998 0.005201 0.043421
    33 0.014898 -0.887895 -0.019848 -0.270831 -0.002253 0.011565
    34 -0.586770 -1.264477 0.200161 0.551726 -0.123446 -2.846455
    35 1.534554 0.046962 0.012942 0.533248 0.233888 0.464006
    36 1.114041 0.048424 -0.005766 -0.014804 -0.033731 0.597077
    37 -0.139399 -0.111698 0.014397 0.285382 -0.030687 1.580508
    38 -5.690476 6.682861 -0.364437 1.580420 -0.020627 -0.974650
    39 1.271553 -1.379853 -2.637508 0.000000 0.378680 -0.121031
    40 4.065896 0.000000 0.000000 -0.763330 -0.403253 -1.431028
    41 5.727315 0.000000 0.000000 0.000000 0.000000 -0.646916
    42 9.229777 0.000000 0.000000 -1.855504 -0.665391 -0.823788
    43 0.789402 6.000689 -1.689321 0.904419 1.433886 -0.843797
    44 0.000000 0.000000 -0.000001 -3.141592 -1.570796 0.000000
  time 3
    0 -0.002752 -0.001265 -0.003287 0.000000 0.000000 0.000000
    1 4.716213 -8.205953 -3.303770 0.409453 -2.250114 -0.435730
    2 0.948577 8.805555 -0.200589 -1.625951 0.005462 -1.529992
    3 0.053083 -8.526081 -0.065070 0.400959 0.888951 0.161589
    4 -0.488518 -2.755602 -0.228260 -0.500417 0.279961 -0.381016
    5 0.039887 -1.487603 0.022041 -0.405225 -0.007263 0.005861
    6 0.028786 -1.138233 -0.112955 -0.854605 -0.014238 0.017138
    7 0.250027 -2.820665 -0.238396 -0.434300 0.098804 -0.134665
    8 -0.049759 -1.641480 0.096573 -0.504471 0.007742 -0.013137
    9 -0.034142 -1.148312 0.069157 -0.460489 0.006568 -0.010367
    10 0.957766 -2.746780 -0.090302 -0.487171 -0.067395 0.116738
    11 -0.033420 -1.397129 -0.011257 -0.139220 0.003763 -0.006748
    12 -0.022360 -0.957436 0.010971 -0.329039 0.006592 -0.015388
    13 -1.180681 -2.507217 -0.193859 -0.262972 0.239084 -0.315979
    14 -0.024967 -1.123934 0.017597 -0.785803 0.006747 -0.033508
    15 -0.020057 -0.898781 0.013996 -0.393681 0.006364 -0.013710
    16 0.556165 -1.205090 0.232255 -0.494891 -0.042631 -0.392741
    17 1.508582 -0.157728 -0.041867 -0.529429 0.083101 -0.507961
    18 1.081239 -0.100945 0.016666 0.007439 -0.125289 -0.509799
    19 0.120153 -0.050270 -0.054489 0.287569 3.110905 1.561085
    20 -5.267015 -7.567269 -3.645926 -0.506712 -5.285682 -0.571200
    21 0.136008 -8.450418 -0.052335 0.135910 -0.022449 0.105761
    22 0.447953 -2.798986 -0.200443 -0.501132 -0.278132 0.381968
    23 -0.032909 -1.488017 0.004940 -0.388838 0.008893 -0.003222
    24 -0.027022 -1.108171 -0.028023 -0.775477 0.018804 -0.010618
    25 -0.249534 -2.846964 -0.174213 -0.263153 -0.096158 0.124717
    26 0.043235 -1.668316 0.092106 -0.602071 -0.009198 -0.001497
    27 0.031729 -1.156924 0.058838 -0.384702 -0.003169 0.006131
    28 -0.963866 -2.785145 -0.085350 -0.325890 0.071768 -0.151575
    29 0.028479 -1.403067 0.002365 -0.166307 -0.001906 -0.007910
    30 0.021413 -0.953875 0.020046 -0.340946 -0.005081 -0.014657
    31 1.164475 -2.543940 -0.170330 -0.268817 -0.234925 0.321516
    32 0.024032 -1.136855 -0.001725 -0.816998 0.005201 0.043421
    33 0.014898 -0.887895 -0.019848 -0.270831 -0.002253 0.011565
    34 -0.586770 -1.264477 0.200161 0.551726 -0.123446 -2.846455
    35 1.534554 0.046962 0.012942 0.533248 0.233888 0.464006
    36 1.114041 0.048424 -0.005766 -0.014804 -0.033731 0.597077
    37 -0.139399 -0.111698 0.014397 0.285382 -0.030687 1.580508
    38 -3.541973 8.159469 -0.298029 1.581763 -0.012203 -1.292535
    39 1.271553 -1.379853 -2.637508 0.000000 0.378680 -0.121031
    40 4.065896 0.000000 0.000000 -0.643759 -0.154527 -1.512968
    41 5.727315 0.000000 0.000000 0.000000 0.000000 -0.177472
    42 9.229777 0.000000 0.000000 -2.194389 -0.261285 0.174069
    43 0.789402 6.000689 -1.689321 0.904419 1.433886 -0.843797
    44 0.000000 0.000000 -0.000001 -3.141592 -1.570796 0.000000
  time 4
    0 -0.002752 -0.001265 -0.003287 0.000000 0.000000 0.000000
    1 6.587364 -6.592622 -7.413270 0.508350 -2.303244 -0.676641
    2 7.355022 4.020252 -0.731856 1.534657 -3.077689 0.584328
    3 -0.060202 -8.319043 -0.193980 -0.180745 -0.137933 -0.726948
    4 -0.488518 -2.755602 -0.228260 -0.500417 0.279961 -0.381016
    5 0.039887 -1.487603 0.022041 -0.405225 -0.007263 0.005861
    6 0.028786 -1.138233 -0.112955 -0.854605 -0.014238 0.017138
    7 0.250027 -2.820665 -0.238396 -0.434300 0.098804 -0.134665
    8 -0.049759 -1.641480 0.096573 -0.504471 0.007742 -0.013137
    9 -0.034142 -1.148312 0.069157 -0.460489 0.006568 -0.010367
    10 0.957766 -2.746780 -0.090302 -0.487171 -0.067395 0.116738
    11 -0.033420 -1.397129 -0.011257 -0.139220 0.003763 -0.006748
    12 -0.022360 -0.957436 0.010971 -0.329039 0.006592 -0.015388
    13 -1.180681 -2.507217 -0.193859 -0.262972 0.239084 -0.315979
    14 -0.024967 -1.123934 0.017597 -0.785803 0.006747 -0.033508
    15 -0.020057 -0.898781 0.013996 -0.393681 0.006364 -0.013710
    16 0.556165 -1.205090 0.232255 -0.494891 -0.042631 -0.392741
    17 1.508582 -0.157728 -0.041867 -0.529429 0.083101 -0.507961
    18 1.081239 -0.100945 0.016666 0.007439 -0.125289 -0.509799
    19 0.120153 -0.050270 -0.054489 0.287569 3.110905 1.561085
    20 -6.708465 -6.055504 -6.739770 0.173098 -4.087048 0.543221
    21 0.069599 -8.391823 -0.013271 -0.120677 -0.299008 0.305820
    22 0.447953 -2.798986 -0.200443 -0.501132 -0.278132 0.381968
    23 -0.032909 -1.488017 0.004940 -0.388838 0.008893 -0.003222
    24 -0.027022 -1.108171 -0.028023 -0.775477 0.018804 -0.010618
    25 -0.249534 -2.846964 -0.174213 -0.263153 -0.096158 0.124717
    26 0.043235 -1.668316 0.092106 -0.602090 -0.009198 -0.001497
    27 0.031729 -1.156924 0.058838 -0.384702 -0.003169 0.006131
    28 -0.963866 -2.785145 -0.085350 -0.325890 0.071768 -0.151575
    29 0.028479 -1.403067 0.002365 -0.166307 -0.001906 -0.007910
    30 0.021413 -0.953875 0.020046 -0.340946 -0.005081 -0.014657
    31 1.164475 -2.543940 -0.170330 -0.268817 -0.234925 0.321516
    32 0.024032 -1.136855 -0.001725 -0.816998 0.005201 0.043421
    33 0.014898 -0.887895 -0.019848 -0.270831 -0.002253 0.011565
    34 -0.586770 -1.264477 0.200161 0.551726 -0.123446 -2.846455
    35 1.534554 0.046962 0.012942 0.533248 0.233888 0.464006
    36 1.114041 0.048424 -0.005766 -0.014804 -0.033731 0.597077
    37 -0.139399 -0.111698 0.014397 0.285382 -0.030687 1.580508
    38 -6.866293 5.280475 -0.403501 1.577928 -0.025987 -0.751825
    39 1.271553 -1.379853 -2.637508 0.000000 0.378680 -0.121031
    40 4.065896 0.000000 0.000000 -0.501242 0.418360 -0.833528
    41 5.727315 0.000000 0.000000 0.000000 0.000000 -1.206551
    42 9.229777 0.000000 0.000000 -1.132559 0.113798 0.771917
    43 25.575314 25.433583 -220.928620 0.904419 1.433886 -0.843797
    44 0.000000 0.000000 -0.000001 -3.141592 -1.570796 0.000000
  time 5
    0 -0.002752 -0.001265 -0.003287 0.000000 0.000000 0.000000
    1 6.767057 -5.440243 -8.409395 0.406511 -2.223833 -0.630782
    2 7.835506 2.574896 -0.786545 1.545162 -3.068970 0.397137
    3 -0.060202 -8.322950 -0.190074 -0.094964 -0.131583 -0.774435
    4 -0.488518 -2.755602 -0.228260 -0.500417 0.279961 -0.381016
    5 0.039887 -1.487603 0.022041 -0.405225 -0.007263 0.005861
    6 0.028786 -1.138233 -0.112955 -0.854605 -0.014238 0.017138
    7 0.250027 -2.820665 -0.238396 -0.434300 0.098804 -0.134665
    8 -0.049759 -1.641480 0.096573 -0.504471 0.007742 -0.013137
    9 -0.034142 -1.148312 0.069157 -0.460489 0.006568 -0.010367
    10 0.957766 -2.746780 -0.090302 -0.487171 -0.067395 0.116738
    11 -0.033420 -1.397129 -0.011257 -0.139220 0.003763 -0.006748
    12 -0.022360 -0.957436 0.010971 -0.329039 0.006592 -0.015388
    13 -1.180681 -2.507217 -0.193859 -0.262972 0.239084 -0.315979
    14 -0.024967 -1.123934 0.017597 -0.785803 0.006747 -0.033508
    15 -0.020057 -0.898781 0.013996 -0.393681 0.006364 -0.013710
    16 0.556165 -1.205090 0.232255 -0.494891 -0.042631 -0.392741
    17 1.508582 -0.157728 -0.041867 -0.529429 0.083101 -0.507961
    18 1.081239 -0.100945 0.016666 0.007439 -0.125289 -0.509799
    19 0.120153 -0.050270 -0.054489 0.287569 3.110905 1.561085
    20 -6.927222 -5.578927 -7.239785 -0.093279 -4.056157 0.365343
    21 0.061787 -8.391823 -0.009365 -0.144324 -0.326154 0.319900
    22 0.447953 -2.798986 -0.200443 -0.501132 -0.278132 0.381968
    23 -0.032909 -1.488017 0.004940 -0.388838 0.008893 -0.003222
    24 -0.027022 -1.108171 -0.028023 -0.775477 0.018804 -0.010618
    25 -0.249534 -2.846964 -0.174213 -0.263153 -0.096158 0.124717
    26 0.043235 -1.668316 0.092106 -0.602090 -0.009198 -0.001497
    27 0.031729 -1.156924 0.058838 -0.384702 -0.003169 0.006131
    28 -0.963866 -2.785145 -0.085350 -0.325890 0.071768 -0.151575
    29 0.028479 -1.403067 0.002365 -0.166307 -0.001906 -0.007910
    30 0.021413 -0.953875 0.020046 -0.340946 -0.005081 -0.014657
    31 1.164475 -2.543940 -0.170330 -0.268817 -0.234925 0.321516
    32 0.024032 -1.136855 -0.001725 -0.816998 0.005201 0.043421
    33 0.014898 -0.887895 -0.019848 -0.270831 -0.002253 0.011565
    34 -0.586770 -1.264477 0.200161 0.551726 -0.123446 -2.846455
    35 1.534554 0.046962 0.012942 0.533248 0.233888 0.464006
    36 1.114041 0.048424 -0.005766 -0.014804 -0.033731 0.597077
    37 -0.139399 -0.111698 0.014397 0.285382 -0.030687 1.580508
    38 -6.862387 5.284381 -0.403501 1.577928 -0.025987 -0.752588
    39 1.271553 -1.379853 -2.637508 0.000000 0.378680 -0.121031
    40 4.065896 0.000000 0.000000 -0.345796 0.589642 -0.603688
    41 5.727315 0.000000 0.000000 0.000000 0.000000 -1.393546
    42 9.229777 0.000000 0.000000 -1.142101 0.026910 0.801553
    43 7.133345 26.338677 -223.136795 0.202150 1.481052 -1.580426
    44 0.000000 0.000000 -0.000001 -3.141592 -1.570796 0.000000
  time 6
    0 -0.002752 -0.001265 -0.003287 0.000000 0.000000 0.000000
    1 6.837372 -4.307396 -9.042226 0.229596 -2.134306 -0.496646
    2 7.987854 1.719401 -0.809983 1.551847 -3.064946 0.290184
    3 -0.068015 -8.338575 -0.170542 -0.003433 -0.072469 -0.760174
    4 -0.488518 -2.755602 -0.228260 -0.500417 0.279961 -0.381016
    5 0.039887 -1.487603 0.022041 -0.405225 -0.007263 0.005861
    6 0.028786 -1.138233 -0.112955 -0.854605 -0.014238 0.017138
    7 0.250027 -2.820665 -0.238396 -0.434300 0.098804 -0.134665
    8 -0.049759 -1.641480 0.096573 -0.504471 0.007742 -0.013137
    9 -0.034142 -1.148312 0.069157 -0.460489 0.006568 -0.010367
    10 0.957766 -2.746780 -0.090302 -0.487171 -0.067395 0.116738
    11 -0.033420 -1.397129 -0.011257 -0.139220 0.003763 -0.006748
    12 -0.022360 -0.957436 0.010971 -0.329039 0.006592 -0.015388
    13 -1.180681 -2.507217 -0.193859 -0.262972 0.239084 -0.315979
    14 -0.024967 -1.123934 0.017597 -0.785803 0.006747 -0.033508
    15 -0.020057 -0.898781 0.013996 -0.393681 0.006364 -0.013710
    16 0.556165 -1.205090 0.232255 -0.494891 -0.042631 -0.392741
    17 1.508582 -0.157728 -0.041867 -0.529429 0.083101 -0.507961
    18 1.081239 -0.100945 0.016666 0.007439 -0.125289 -0.509799
    19 0.120153 -0.050270 -0.054489 0.287569 3.110905 1.561085
    20 -7.071758 -5.082818 -7.677299 -0.333551 -4.028533 0.194900
    21 0.057880 -8.387917 -0.009365 -0.159060 -0.342505 0.328913
    22 0.447953 -2.798986 -0.200443 -0.501132 -0.278132 0.381968
    23 -0.032909 -1.488017 0.004940 -0.388838 0.008893 -0.003222
    24 -0.027022 -1.108171 -0.028023 -0.775477 0.018804 -0.010618
    25 -0.249534 -2.846964 -0.174213 -0.263153 -0.096158 0.124717
    26 0.043235 -1.668316 0.092106 -0.602090 -0.009198 -0.001497
    27 0.031729 -1.156924 0.058838 -0.384702 -0.003169 0.006131
    28 -0.963866 -2.785145 -0.085350 -0.325890 0.071768 -0.151575
    29 0.028479 -1.403067 0.002365 -0.166307 -0.001906 -0.007910
    30 0.021413 -0.953875 0.020046 -0.340946 -0.005081 -0.014657
    31 1.164475 -2.543940 -0.170330 -0.268817 -0.234925 0.321516
    32 0.024032 -1.136855 -0.001725 -0.816998 0.005201 0.043421
    33 0.014898 -0.887895 -0.019848 -0.270831 -0.002253 0.011565
    34 -0.586770 -1.264477 0.200161 0.551726 -0.123446 -2.846455
    35 1.534554 0.046962 0.012942 0.533248 0.233888 0.464006
    36 1.114041 0.048424 -0.005766 -0.014804 -0.033731 0.597077
    37 -0.139399 -0.111698 0.014397 0.285382 -0.030687 1.580508
    38 -6.760821 5.436730 -0.399594 1.578215 -0.025413 -0.774708
    39 1.271553 -1.379853 -2.637508 0.000000 0.378680 -0.121031
    40 4.065896 0.000000 0.000000 -0.150528 0.707525 -0.365534
    41 5.727315 0.000000 0.000000 0.000000 0.000000 -1.500207
    42 9.229777 0.000000 0.000000 -1.200532 -0.062231 0.771120
    43 -8.023367 37.844607 -222.398479 -0.945565 1.490646 -2.749442
    44 0.000000 0.000000 -0.000001 -3.141592 -1.570796 0.000000
  time 7
    0 -0.002752 -0.001265 -0.003287 0.000000 0.000000 0.000000
    1 6.852997 -3.291740 -9.393800 6.238899 -2.064916 -0.256251
    2 8.019105 1.375641 -0.817796 1.554616 -3.063509 0.247705
    3 -0.071921 -8.365920 -0.151010 0.084231 0.025442 -0.687266
    4 -0.488518 -2.755602 -0.228260 -0.500417 0.279961 -0.381016
    5 0.039887 -1.487603 0.022041 -0.405225 -0.007263 0.005861
    6 0.028786 -1.138233 -0.112955 -0.854605 -0.014238 0.017138
    7 0.250027 -2.820665 -0.238396 -0.434300 0.098804 -0.134665
    8 -0.049759 -1.641480 0.096573 -0.504471 0.007742 -0.013137
    9 -0.034142 -1.148312 0.069157 -0.460489 0.006568 -0.010367
    10 0.957766 -2.746780 -0.090302 -0.487171 -0.067395 0.116738
    11 -0.033420 -1.397129 -0.011257 -0.139220 0.003763 -0.006748
    12 -0.022360 -0.957436 0.010971 -0.329039 0.006592 -0.015388
    13 -1.180681 -2.507217 -0.193859 -0.262972 0.239084 -0.315979
    14 -0.024967 -1.123934 0.017597 -0.785803 0.006747 -0.033508
    15 -0.020057 -0.898781 0.013996 -0.393681 0.006364 -0.013710
    16 0.556165 -1.205090 0.232255 -0.494891 -0.042631 -0.392741
    17 1.508582 -0.157728 -0.041867 -0.529429 0.083101 -0.507961
    18 1.081239 -0.100945 0.016666 0.007439 -0.125289 -0.509799
    19 0.120153 -0.050270 -0.054489 0.287569 3.110905 1.561085
    20 -7.130353 -4.574990 -8.060123 -0.552526 -3.998084 0.028598
    21 0.057880 -8.387917 -0.009365 -0.165796 -0.350951 0.332282
    22 0.447953 -2.798986 -0.200443 -0.501132 -0.278132 0.381968
    23 -0.032909 -1.488017 0.004940 -0.388838 0.008893 -0.003222
    24 -0.027022 -1.108171 -0.028023 -0.775477 0.018804 -0.010618
    25 -0.249534 -2.846964 -0.174213 -0.263153 -0.096158 0.124717
    26 0.043235 -1.668316 0.092106 -0.602071 -0.009198 -0.001497
    27 0.031729 -1.156924 0.058838 -0.384702 -0.003169 0.006131
    28 -0.963866 -2.785145 -0.085350 -0.325890 0.071768 -0.151575
    29 0.028479 -1.403067 0.002365 -0.166307 -0.001906 -0.007910
    30 0.021413 -0.953875 0.020046 -0.340946 -0.005081 -0.014657
    31 1.164475 -2.543940 -0.170330 -0.268817 -0.234925 0.321516
    32 0.024032 -1.136855 -0.001725 -0.816998 0.005201 0.043421
    33 0.014898 -0.887895 -0.019848 -0.270831 -0.002253 0.011565
    34 -0.586770 -1.264477 0.200161 0.551726 -0.123446 -2.846455
    35 1.534554 0.046962 0.012942 0.533248 0.233888 0.464006
    36 1.114041 0.048424 -0.005766 -0.014804 -0.033731 0.597077
    37 -0.139399 -0.111698 0.014397 0.285382 -0.030687 1.580508
    38 -6.569409 5.694550 -0.391781 1.578791 -0.024551 -0.813896
    39 1.271553 -1.379853 -2.637508 0.000000 0.378680 -0.121031
    40 4.065896 0.000000 0.000000 0.060239 0.774793 -0.132582
    41 5.727315 0.000000 0.000000 0.000000 0.000000 -1.542639
    42 9.229777 0.000000 0.000000 -1.295633 -0.145284 0.697110
    43 -19.836228 57.378067 -218.402088 1.356983 1.716215 -0.457295
    44 0.000000 0.000000 -0.000001 -3.141592 -1.570796 0.000000
  time 8
    0 -0.002752 -0.001265 -0.003287 0.000000 0.000000 0.000000
    1 6.829559 -2.467496 -9.573493 5.886019 -2.047521 0.068376
    2 8.011292 1.496738 -0.813889 1.553661 -3.063988 0.262337
    3 -0.079734 -8.404984 -0.127572 0.166443 0.148827 -0.562604
    4 -0.488518 -2.755602 -0.228260 -0.500417 0.279961 -0.381016
    5 0.039887 -1.487603 0.022041 -0.405225 -0.007263 0.005861
    6 0.028786 -1.138233 -0.112955 -0.854605 -0.014238 0.017138
    7 0.250027 -2.820665 -0.238396 -0.434300 0.098804 -0.134665
    8 -0.049759 -1.641480 0.096573 -0.504471 0.007742 -0.013137
    9 -0.034142 -1.148312 0.069157 -0.460489 0.006568 -0.010367
    10 0.957766 -2.746780 -0.090302 -0.487171 -0.067395 0.116738
    11 -0.033420 -1.397129 -0.011257 -0.139220 0.003763 -0.006748
    12 -0.022360 -0.957436 0.010971 -0.329039 0.006592 -0.015388
    13 -1.180681 -2.507217 -0.193859 -0.262972 0.239084 -0.315979
    14 -0.024967 -1.123934 0.017597 -0.785803 0.006747 -0.033508
    15 -0.020057 -0.898781 0.013996 -0.393681 0.006364 -0.013710
    16 0.556165 -1.205090 0.232255 -0.494891 -0.042631 -0.392741
    17 1.508582 -0.157728 -0.041867 -0.529429 0.083101 -0.507961
    18 1.081239 -0.100945 0.016666 0.007439 -0.125289 -0.509799
    19 0.120153 -0.050270 -0.054489 0.287569 3.110905 1.561085
    20 -7.114728 -4.067162 -8.396071 -0.749869 -3.960750 -0.130457
    21 0.057880 -8.387917 -0.009365 -0.165656 -0.354287 0.329719
    22 0.447953 -2.798986 -0.200443 -0.501132 -0.278132 0.381968
    23 -0.032909 -1.488017 0.004940 -0.388838 0.008893 -0.003222
    24 -0.027022 -1.108171 -0.028023 -0.775477 0.018804 -0.010618
    25 -0.249534 -2.846964 -0.174213 -0.263153 -0.096158 0.124717
    26 0.043235 -1.668316 0.092106 -0.602090 -0.009198 -0.001497
    27 0.031729 -1.156924 0.058838 -0.384702 -0.003169 0.006131
    28 -0.963866 -2.785145 -0.085350 -0.325890 0.071768 -0.151575
    29 0.028479 -1.403067 0.002365 -0.166307 -0.001906 -0.007910
    30 0.021413 -0.953875 0.020046 -0.340946 -0.005081 -0.014657
    31 1.164475 -2.543940 -0.170330 -0.268817 -0.234925 0.321516
    32 0.024032 -1.136855 -0.001725 -0.816998 0.005201 0.043421
    33 0.014898 -0.887895 -0.019848 -0.270831 -0.002253 0.011565
    34 -0.586770 -1.264477 0.200161 0.551726 -0.123446 -2.846455
    35 1.534554 0.046962 0.012942 0.533248 0.233888 0.464006
    36 1.114041 0.048424 -0.005766 -0.014804 -0.033731 0.597077
    37 -0.139399 -0.111698 0.014397 0.285382 -0.030687 1.580508
    38 -6.299870 6.034404 -0.383969 1.579366 -0.023307 -0.866241
    39 1.271553 -1.379853 -2.637508 0.000000 0.378680 -0.121031
    40 4.065896 0.000000 0.000000 0.253970 0.803632 0.066554
    41 5.727315 0.000000 0.000000 0.000000 0.000000 -1.528005
    42 9.229777 0.000000 0.000000 -1.417724 -0.218487 0.592852
    43 -28.777907 82.265185 -210.294156 0.999931 1.824832 -0.816266
    44 0.000000 0.000000 -0.000001 -3.141592 -1.570796 0.000000
  time 9
    0 -0.002752 -0.001265 -0.003287 0.000000 0.000000 0.000000
    1 6.782683 -1.877635 -9.678964 5.544623 -2.097531 0.383109
    2 7.937071 2.055349 -0.802170 1.549173 -3.066383 0.331719
    3 -0.071921 -8.451860 -0.104134 0.247044 0.286251 -0.394248
    4 -0.488518 -2.755602 -0.228260 -0.500417 0.279961 -0.381016
    5 0.039887 -1.487603 0.022041 -0.405225 -0.007263 0.005861
    6 0.028786 -1.138233 -0.112955 -0.854605 -0.014238 0.017138
    7 0.250027 -2.820665 -0.238396 -0.434300 0.098804 -0.134665
    8 -0.049759 -1.641480 0.096573 -0.504471 0.007742 -0.013137
    9 -0.034142 -1.148312 0.069157 -0.460489 0.006568 -0.010367
    10 0.957766 -2.746780 -0.090302 -0.487171 -0.067395 0.116738
    11 -0.033420 -1.397129 -0.011257 -0.139220 0.003763 -0.006748
    12 -0.022360 -0.957436 0.010971 -0.329039 0.006592 -0.015388
    13 -1.180681 -2.507217 -0.193859 -0.262972 0.239084 -0.315979
    14 -0.024967 -1.123934 0.017597 -0.785803 0.006747 -0.033508
    15 -0.020057 -0.898781 0.013996 -0.393681 0.006364 -0.013710
    16 0.556165 -1.205090 0.232255 -0.494891 -0.042631 -0.392741
    17 1.508582 -0.157728 -0.041867 -0.529429 0.083101 -0.507961
    18 1.081239 -0.100945 0.016666 0.007439 -0.125289 -0.509799
    19 0.120153 -0.050270 -0.054489 0.287569 3.110905 1.561085
    20 -7.028788 -3.574959 -8.677329 -0.923319 -3.914944 -0.276901
    21 0.057880 -8.387917 -0.009365 -0.159948 -0.355174 0.321081
    22 0.447953 -2.798986 -0.200443 -0.501132 -0.278132 0.381968
    23 -0.032909 -1.488017 0.004940 -0.388838 0.008893 -0.003222
    24 -0.027022 -1.108171 -0.028023 -0.775477 0.018804 -0.010618
    25 -0.249534 -2.846964 -0.174213 -0.263153 -0.096158 0.124717
    26 0.043235 -1.668316 0.092106 -0.602090 -0.009198 -0.001497
    27 0.031729 -1.156924 0.058838 -0.384702 -0.003169 0.006131
    28 -0.963866 -2.785145 -0.085350 -0.325890 0.071768 -0.151575
    29 0.028479 -1.403067 0.002365 -0.166307 -0.001906 -0.007910
    30 0.021413 -0.953875 0.020046 -0.340946 -0.005081 -0.014657
    31 1.164475 -2.543940 -0.170330 -0.268817 -0.234925 0.321516
    32 0.024032 -1.136855 -0.001725 -0.816998 0.005201 0.043421
    33 0.014898 -0.887895 -0.019848 -0.270831 -0.002253 0.011565
    34 -0.586770 -1.264477 0.200161 0.551726 -0.123446 -2.846455
    35 1.534554 0.046962 0.012942 0.533248 0.233888 0.464006
    36 1.114041 0.048424 -0.005766 -0.014804 -0.033731 0.597077
    37 -0.139399 -0.111698 0.014397 0.285382 -0.030687 1.580508
    38 -5.963922 6.409415 -0.372250 1.580037 -0.021775 -0.927549
    39 1.271553 -1.379853 -2.637508 0.000000 0.378680 -0.121031
    40 4.065896 0.000000 0.000000 0.407032 0.814196 0.208880
    41 5.727315 0.000000 0.000000 0.000000 0.000000 -1.458816
    42 9.229777 0.000000 0.000000 -1.558860 -0.281258 0.469076
    43 -35.567177 109.707863 -197.377007 0.816356 1.955615 -0.996053
    44 0.000000 0.000000 -0.000001 -3.141592 -1.570796 0.000000
  time 10
    0 -0.002752 -0.001265 -0.003287 0.000000 0.000000 0.000000
    1 6.692836 -1.541687 -9.788343 5.286560 -2.203413 0.613093
    2 7.710502 3.051473 -0.770919 1.541628 -3.071557 0.457457
    3 -0.060202 -8.498736 -0.092415 0.332131 0.427328 -0.188034
    4 -0.488518 -2.755602 -0.228260 -0.500417 0.279961 -0.381016
    5 0.039887 -1.487603 0.022041 -0.405225 -0.007263 0.005861
    6 0.028786 -1.138233 -0.112955 -0.854605 -0.014238 0.017138
    7 0.250027 -2.820665 -0.238396 -0.434300 0.098804 -0.134665
    8 -0.049759 -1.641480 0.096573 -0.504471 0.007742 -0.013137
    9 -0.034142 -1.148312 0.069157 -0.460489 0.006568 -0.010367
    10 0.957766 -2.746780 -0.090302 -0.487171 -0.067395 0.116738
    11 -0.033420 -1.397129 -0.011257 -0.139220 0.003763 -0.006748
    12 -0.022360 -0.957436 0.010971 -0.329039 0.006592 -0.015388
    13 -1.180681 -2.507217 -0.193859 -0.262972 0.239084 -0.315979
    14 -0.024967 -1.123934 0.017597 -0.785803 0.006747 -0.033508
    15 -0.020057 -0.898781 0.013996 -0.393681 0.006364 -0.013710
    16 0.556165 -1.205090 0.232255 -0.494891 -0.042631 -0.392741
    17 1.508582 -0.157728 -0.041867 -0.529429 0.083101 -0.507961
    18 1.081239 -0.100945 0.016666 0.007439 -0.125289 -0.509799
    19 0.120153 -0.050270 -0.054489 0.287569 3.110905 1.561085
    20 -6.899877 -3.117914 -8.899992 -1.070568 -3.861725 -0.405933
    21 0.057880 -8.391823 -0.009365 -0.150031 -0.356210 0.306367
    22 0.447953 -2.798986 -0.200443 -0.501132 -0.278132 0.381968
    23 -0.032909 -1.488017 0.004940 -0.388838 0.008893 -0.003222
    24 -0.027022 -1.108171 -0.028023 -0.775477 0.018804 -0.010618
    25 -0.249534 -2.846964 -0.174213 -0.263153 -0.096158 0.124717
    26 0.043235 -1.668316 0.092106 -0.602090 -0.009198 -0.001497
    27 0.031729 -1.156924 0.058838 -0.384702 -0.003169 0.006131
    28 -0.963866 -2.785145 -0.085350 -0.325890 0.071768 -0.151575
    29 0.028479 -1.403067 0.002365 -0.166307 -0.001906 -0.007910
    30 0.021413 -0.953875 0.020046 -0.340946 -0.005081 -0.014657
    31 1.164475 -2.543940 -0.170330 -0.268817 -0.234925 0.321516
    32 0.024032 -1.136855 -0.001725 -0.816998 0.005201 0.043421
    33 0.014898 -0.887895 -0.019848 -0.270831 -0.002253 0.011565
    34 -0.586770 -1.264477 0.200161 0.551726 -0.123446 -2.846455
    35 1.534554 0.046962 0.012942 0.533248 0.233888 0.464006
    36 1.114041 0.048424 -0.005766 -0.014804 -0.033731 0.597077
    37 -0.139399 -0.111698 0.014397 0.285382 -0.030687 1.580508
    38 -5.573285 6.792240 -0.360530 1.580612 -0.020052 -0.993719
    39 1.271553 -1.379853 -2.637508 0.000000 0.378680 -0.121031
    40 4.065896 0.000000 0.000000 0.510468 0.827546 0.285385
    41 5.727315 0.000000 0.000000 0.000000 0.000000 -1.333296
    42 9.229777 0.000000 0.000000 -1.711614 -0.334452 0.332819
    43 -40.965779 136.943492 -179.643869 0.708429 2.098162 -1.096931
    44 0.000000 0.000000 -0.000001 -3.141592 -1.570796 0.000000
  time 11
    0 -0.002752 -0.001265 -0.003287 0.000000 0.000000 0.000000
    1 6.532675 -1.471372 -9.960223 5.109455 -2.348433 0.759705
    2 7.128453 4.492923 -0.708417 1.531410 -3.081138 0.648707
    3 -0.028951 -8.533894 -0.080696 0.427181 0.562109 0.054762
    4 -0.488518 -2.755602 -0.228260 -0.500417 0.279961 -0.381016
    5 0.039887 -1.487603 0.022041 -0.405225 -0.007263 0.005861
    6 0.028786 -1.138233 -0.112955 -0.854605 -0.014238 0.017138
    7 0.250027 -2.820665 -0.238396 -0.434300 0.098804 -0.134665
    8 -0.049759 -1.641480 0.096573 -0.504471 0.007742 -0.013137
    9 -0.034142 -1.148312 0.069157 -0.460489 0.006568 -0.010367
    10 0.957766 -2.746780 -0.090302 -0.487171 -0.067395 0.116738
    11 -0.033420 -1.397129 -0.011257 -0.139220 0.003763 -0.006748
    12 -0.022360 -0.957436 0.010971 -0.329039 0.006592 -0.015388
    13 -1.180681 -2.507217 -0.193859 -0.262972 0.239084 -0.315979
    14 -0.024967 -1.123934 0.017597 -0.785803 0.006747 -0.033508
    15 -0.020057 -0.898781 0.013996 -0.393681 0.006364 -0.013710
    16 0.556165 -1.205090 0.232255 -0.494891 -0.042631 -0.392741
    17 1.508582 -0.157728 -0.041867 -0.529429 0.083101 -0.507961
    18 1.081239 -0.100945 0.016666 0.007439 -0.125289 -0.509799
    19 0.120153 -0.050270 -0.054489 0.287569 3.110905 1.561085
    20 -6.747529 -2.707745 -9.067966 -1.190079 -3.803474 -0.514919
    21 0.061787 -8.395729 -0.009365 -0.137120 -0.359940 0.285434
    22 0.447953 -2.798986 -0.200443 -0.501132 -0.278132 0.381968
    23 -0.032909 -1.488017 0.004940 -0.388838 0.008893 -0.003222
    24 -0.027022 -1.108171 -0.028023 -0.775477 0.018804 -0.010618
    25 -0.249534 -2.846964 -0.174213 -0.263153 -0.096158 0.124717
    26 0.043235 -1.668316 0.092106 -0.602071 -0.009198 -0.001497
    27 0.031729 -1.156924 0.058838 -0.384702 -0.003169 0.006131
    28 -0.963866 -2.785145 -0.085350 -0.325890 0.071768 -0.151575
    29 0.028479 -1.403067 0.002365 -0.166307 -0.001906 -0.007910
    30 0.021413 -0.953875 0.020046 -0.340946 -0.005081 -0.014657
    31 1.164475 -2.543940 -0.170330 -0.268817 -0.234925 0.321516
    32 0.024032 -1.136855 -0.001725 -0.816998 0.005201 0.043421
    33 0.014898 -0.887895 -0.019848 -0.270831 -0.002253 0.011565
    34 -0.586770 -1.264477 0.200161 0.551726 -0.123446 -2.846455
    35 1.534554 0.046962 0.012942 0.533248 0.233888 0.464006
    36 1.114041 0.048424 -0.005766 -0.014804 -0.033731 0.597077
    37 -0.139399 -0.111698 0.014397 0.285382 -0.030687 1.580508
    38 -5.155304 7.151626 -0.344905 1.580996 -0.018329 -1.060748
    39 1.271553 -1.379853 -2.637508 0.000000 0.378680 -0.121031
    40 4.065896 0.000000 0.000000 0.558768 0.861374 0.290587
    41 5.727315 0.000000 0.000000 0.000000 0.000000 -1.142138
    42 9.229777 0.000000 0.000000 -1.868220 -0.378468 0.185860
    43 -45.688579 161.528913 -158.049811 0.644120 2.243686 -1.153868
    44 0.000000 0.000000 -0.000001 -3.141592 -1.570796 0.000000
  time 12
    0 -0.002752 -0.001265 -0.003287 0.000000 0.000000 0.000000
    1 6.216259 -1.740912 -10.218043 4.985501 -2.532024 0.851423
    2 5.765130 6.391419 -0.583414 1.520046 -3.098768 0.936903
    3 0.014019 -8.561238 -0.072883 0.534203 0.681108 0.340778
    4 -0.488518 -2.755602 -0.228260 -0.500417 0.279961 -0.381016
    5 0.039887 -1.487603 0.022041 -0.405225 -0.007263 0.005861
    6 0.028786 -1.138233 -0.112955 -0.854605 -0.014238 0.017138
    7 0.250027 -2.820665 -0.238396 -0.434300 0.098804 -0.134665
    8 -0.049759 -1.641480 0.096573 -0.504471 0.007742 -0.013137
    9 -0.034142 -1.148312 0.069157 -0.460489 0.006568 -0.010367
    10 0.957766 -2.746780 -0.090302 -0.487171 -0.067395 0.116738
    11 -0.033420 -1.397129 -0.011257 -0.139220 0.003763 -0.006748
    12 -0.022360 -0.957436 0.010971 -0.329039 0.006592 -0.015388
    13 -1.180681 -2.507217 -0.193859 -0.262972 0.239084 -0.315979
    14 -0.024967 -1.123934 0.017597 -0.785803 0.006747 -0.033508
    15 -0.020057 -0.898781 0.013996 -0.393681 0.006364 -0.013710
    16 0.556165 -1.205090 0.232255 -0.494891 -0.042631 -0.392741
    17 1.508582 -0.157728 -0.041867 -0.529429 0.083101 -0.507961
    18 1.081239 -0.100945 0.016666 0.007439 -0.125289 -0.509799
    19 0.120153 -0.050270 -0.054489 0.287569 3.110905 1.561085
    20 -6.606900 -2.367891 -9.185157 -1.280698 -3.743635 -0.602917
    21 0.061787 -8.403542 -0.005459 -0.122291 -0.368863 0.258022
    22 0.447953 -2.798986 -0.200443 -0.501132 -0.278132 0.381968
    23 -0.032909 -1.488017 0.004940 -0.388838 0.008893 -0.003222
    24 -0.027022 -1.108171 -0.028023 -0.775477 0.018804 -0.010618
    25 -0.249534 -2.846964 -0.174213 -0.263153 -0.096158 0.124717
    26 0.043235 -1.668316 0.092106 -0.602090 -0.009198 -0.001497
    27 0.031729 -1.156924 0.058838 -0.384702 -0.003169 0.006131
    28 -0.963866 -2.785145 -0.085350 -0.325890 0.071768 -0.151575
    29 0.028479 -1.403067 0.002365 -0.166307 -0.001906 -0.007910
    30 0.021413 -0.953875 0.020046 -0.340946 -0.005081 -0.014657
    31 1.164475 -2.543940 -0.170330 -0.268817 -0.234925 0.321516
    32 0.024032 -1.136855 -0.001725 -0.816998 0.005201 0.043421
    33 0.014898 -0.887895 -0.019848 -0.270831 -0.002253 0.011565
    34 -0.586770 -1.264477 0.200161 0.551726 -0.123446 -2.846455
    35 1.534554 0.046962 0.012942 0.533248 0.233888 0.464006
    36 1.114041 0.048424 -0.005766 -0.014804 -0.033731 0.597077
    37 -0.139399 -0.111698 0.014397 0.285382 -0.030687 1.580508
    38 -4.733416 7.464135 -0.333186 1.581379 -0.016702 -1.124535
    39 1.271553 -1.379853 -2.637508 0.000000 0.378680 -0.121031
    40 4.065896 0.000000 0.000000 0.523980 0.932532 0.194991
    41 5.727315 0.000000 0.000000 0.000000 0.000000 -0.853871
    42 9.229777 0.000000 0.000000 -2.020455 -0.412198 0.019223
    43 -50.356690 181.719010 -134.396595 0.611179 2.384097 -1.182136
    44 0.000000 0.000000 -0.000001 -3.141592 -1.570796 0.000000
  time 13
    0 -0.002752 -0.001265 -0.003287 0.000000 0.000000 0.000000
    1 5.356858 -2.905010 -10.460238 4.886414 -2.827169 0.921804
    2 1.632191 8.692270 -0.251372 1.514220 3.142171 1.526322
    3 0.064802 -8.572957 -0.072883 0.650618 0.773219 0.740514
    4 -0.488518 -2.755602 -0.228260 -0.500417 0.279961 -0.381016
    5 0.039887 -1.487603 0.022041 -0.405225 -0.007263 0.005861
    6 0.028786 -1.138233 -0.112955 -0.854605 -0.014238 0.017138
    7 0.250027 -2.820665 -0.238396 -0.434300 0.098804 -0.134665
    8 -0.049759 -1.641480 0.096573 -0.504471 0.007742 -0.013137
    9 -0.034142 -1.148312 0.069157 -0.460489 0.006568 -0.010367
    10 0.957766 -2.746780 -0.090302 -0.487171 -0.067395 0.116738
    11 -0.033420 -1.397129 -0.011257 -0.139220 0.003763 -0.006748
    12 -0.022360 -0.957436 0.010971 -0.329039 0.006592 -0.015388
    13 -1.180681 -2.507217 -0.193859 -0.262972 0.239084 -0.315979
    14 -0.024967 -1.123934 0.017597 -0.785803 0.006747 -0.033508
    15 -0.020057 -0.898781 0.013996 -0.393681 0.006364 -0.013710
    16 0.556165 -1.205090 0.232255 -0.494891 -0.042631 -0.392741
    17 1.508582 -0.157728 -0.041867 -0.529429 0.083101 -0.507961
    18 1.081239 -0.100945 0.016666 0.007439 -0.125289 -0.509799
    19 0.120153 -0.050270 -0.054489 0.287569 3.110905 1.561085
    20 -6.520960 -2.106164 -9.255472 -1.341319 -3.685562 -0.670209
    21 0.061787 -8.411355 -0.001552 -0.106339 -0.385542 0.223700
    22 0.447953 -2.798986 -0.200443 -0.501132 -0.278132 0.381968
    23 -0.032909 -1.488017 0.004940 -0.388838 0.008893 -0.003222
    24 -0.027022 -1.108171 -0.028023 -0.775477 0.018804 -0.010618
    25 -0.249534 -2.846964 -0.174213 -0.263153 -0.096158 0.124717
    26 0.043235 -1.668316 0.092106 -0.602071 -0.009198 -0.001497
    27 0.031729 -1.156924 0.058838 -0.384702 -0.003169 0.006131
    28 -0.963866 -2.785145 -0.085350 -0.325890 0.071768 -0.151575
    29 0.028479 -1.403067 0.002365 -0.166307 -0.001906 -0.007910
    30 0.021413 -0.953875 0.020046 -0.340946 -0.005081 -0.014657
    31 1.164475 -2.543940 -0.170330 -0.268817 -0.234925 0.321516
    32 0.024032 -1.136855 -0.001725 -0.816998 0.005201 0.043421
    33 0.014898 -0.887895 -0.019848 -0.270831 -0.002253 0.011565
    34 -0.586770 -1.264477 0.200161 0.551726 -0.123446 -2.846455
    35 1.534554 0.046962 0.012942 0.533248 0.233888 0.464006
    36 1.114041 0.048424 -0.005766 -0.014804 -0.033731 0.597077
    37 -0.139399 -0.111698 0.014397 0.285382 -0.030687 1.580508
    38 -4.346685 7.721956 -0.321467 1.581571 -0.015170 -1.180884
    39 1.271553 -1.379853 -2.637508 0.000000 0.378680 -0.121031
    40 4.065896 0.000000 0.000000 0.150110 1.062403 -0.282851
    41 5.727315 0.000000 0.000000 0.000000 0.000000 -0.263070
    42 9.229777 0.000000 0.000000 -2.159494 -0.432789 -0.245193
    43 -55.517004 196.661929 -111.095604 0.606048 2.511763 -1.188968
    44 0.000000 0.000000 -0.000001 -3.141592 -1.570796 0.000000
  time 14
    0 -0.002752 -0.001265 -0.003287 0.000000 0.000000 0.000000
    1 5.356858 -2.905010 -10.460238 4.886414 -2.827169 0.921804
    2 1.632191 8.692270 -0.251372 1.514220 3.142171 1.526322
    3 0.064802 -8.572957 -0.072883 0.650618 0.773219 0.740514
    4 -0.488518 -2.755602 -0.228260 -0.500417 0.279961 -0.381016
    5 0.039887 -1.487603 0.022041 -0.405225 -0.007263 0.005861
    6 0.028786 -1.138233 -0.112955 -0.854605 -0.014238 0.017138
    7 0.250027 -2.820665 -0.238396 -0.434300 0.098804 -0.134665
    8 -0.049759 -1.641480 0.096573 -0.504471 0.007742 -0.013137
    9 -0.034142 -1.148312 0.069157 -0.460489 0.006568 -0.010367
    10 0.957766 -2.746780 -0.090302 -0.487171 -0.067395 0.116738
    11 -0.033420 -1.397129 -0.011257 -0.139220 0.003763 -0.006748
    12 -0.022360 -0.957436 0.010971 -0.329039 0.006592 -0.015388
    13 -1.180681 -2.507217 -0.193859 -0.262972 0.239084 -0.315979
    14 -0.024967 -1.123934 0.017597 -0.785803 0.006747 -0.033508
    15 -0.020057 -0.898781 0.013996 -0.393681 0.006364 -0.013710
    16 0.556165 -1.205090 0.232255 -0.494891 -0.042631 -0.392741
    17 1.508582 -0.157728 -0.041867 -0.529429 0.083101 -0.507961
    18 1.081239 -0.100945 0.016666 0.007439 -0.125289 -0.509799
    19 0.120153 -0.050270 -0.054489 0.287569 3.110905 1.561085
    20 -6.454551 -1.942097 -9.302348 -1.380740 -3.632607 -0.734113
    21 0.061787 -8.419168 0.002354 -0.084867 -0.410749 0.176075
    22 0.447953 -2.798986 -0.200443 -0.501132 -0.278132 0.381968
    23 -0.032909 -1.488017 0.004940 -0.388838 0.008893 -0.003222
    24 -0.027022 -1.108171 -0.028023 -0.775477 0.018804 -0.010618
    25 -0.249534 -2.846964 -0.174213 -0.263153 -0.096158 0.124717
    26 0.043235 -1.668316 0.092106 -0.602071 -0.009198 -0.001497
    27 0.031729 -1.156924 0.058838 -0.384702 -0.003169 0.006131
    28 -0.963866 -2.785145 -0.085350 -0.325890 0.071768 -0.151575
    29 0.028479 -1.403067 0.002365 -0.166307 -0.001906 -0.007910
    30 0.021413 -0.953875 0.020046 -0.340946 -0.005081 -0.014657
    31 1.164475 -2.543940 -0.170330 -0.268817 -0.234925 0.321516
    32 0.024032 -1.136855 -0.001725 -0.816998 0.005201 0.043421
    33 0.014898 -0.887895 -0.019848 -0.270831 -0.002253 0.011565
    34 -0.586770 -1.264477 0.200161 0.551726 -0.123446 -2.846455
    35 1.534554 0.046962 0.012942 0.533248 0.233888 0.464006
    36 1.114041 0.048424 -0.005766 -0.014804 -0.033731 0.597077
    37 -0.139399 -0.111698 0.014397 0.285382 -0.030687 1.580508
    38 -3.944329 7.956338 -0.309748 1.581667 -0.013734 -1.237234
    39 1.271553 -1.379853 -2.637508 0.000000 0.378680 -0.121031
    40 4.065896 0.000000 0.000000 0.150110 1.062403 -0.282851
    41 5.727315 0.000000 0.000000 0.000000 0.000000 -0.263070
    42 9.229777 0.000000 0.000000 -2.159494 -0.432789 -0.245193
    43 -55.517004 196.661929 -111.095604 0.606048 2.511763 -1.188968
    44 0.000000 0.000000 -0.000001 -3.141592 -1.570796 0.000000
  time 15
    0 -0.002752 -0.001265 -0.003287 0.000000 0.000000 0.000000
    1 5.356858 -2.905010 -10.460238 4.886414 -2.827169 0.921804
    2 1.632191 8.692270 -0.251372 1.514220 3.142171 1.526322
    3 0.064802 -8.572957 -0.072883 0.650618 0.773219 0.740514
    4 -0.488518 -2.755602 -0.228260 -0.500417 0.279961 -0.381016
    5 0.039887 -1.487603 0.022041 -0.405225 -0.007263 0.005861
    6 0.028786 -1.138233 -0.112955 -0.854605 -0.014238 0.017138
    7 0.250027 -2.820665 -0.238396 -0.434300 0.098804 -0.134665
    8 -0.049759 -1.641480 0.096573 -0.504471 0.007742 -0.013137
    9 -0.034142 -1.148312 0.069157 -0.460489 0.006568 -0.010367
    10 0.957766 -2.746780 -0.090302 -0.487171 -0.067395 0.116738
    11 -0.033420 -1.397129 -0.011257 -0.139220 0.003763 -0.006748
    12 -0.022360 -0.957436 0.010971 -0.329039 0.006592 -0.015388
    13 -1.180681 -2.507217 -0.193859 -0.262972 0.239084 -0.315979
    14 -0.024967 -1.123934 0.017597 -0.785803 0.006747 -0.033508
    15 -0.020057 -0.898781 0.013996 -0.393681 0.006364 -0.013710
    16 0.556165 -1.205090 0.232255 -0.494891 -0.042631 -0.392741
    17 1.508582 -0.157728 -0.041867 -0.529429 0.083101 -0.507961
    18 1.081239 -0.100945 0.016666 0.007439 -0.125289 -0.509799
    19 0.120153 -0.050270 -0.054489 0.287569 3.110905 1.561085
    20 -6.349079 -1.863970 -9.337506 -1.411218 -3.585918 -0.809971
    21 0.061787 -8.434793 0.010167 -0.053501 -0.441429 0.111146
    22 0.447953 -2.798986 -0.200443 -0.501132 -0.278132 0.381968
    23 -0.032909 -1.488017 0.004940 -0.388838 0.008893 -0.003222
    24 -0.027022 -1.108171 -0.028023 -0.775477 0.018804 -0.010618
    25 -0.249534 -2.846964 -0.174213 -0.263153 -0.096158 0.124717
    26 0.043235 -1.668316 0.092106 -0.602071 -0.009198 -0.001497
    27 0.031729 -1.156924 0.058838 -0.384702 -0.003169 0.006131
    28 -0.963866 -2.785145 -0.085350 -0.325890 0.071768 -0.151575
    29 0.028479 -1.403067 0.002365 -0.166307 -0.001906 -0.007910
    30 0.021413 -0.953875 0.020046 -0.340946 -0.005081 -0.014657
    31 1.164475 -2.543940 -0.170330 -0.268817 -0.234925 0.321516
    32 0.024032 -1.136855 -0.001725 -0.816998 0.005201 0.043421
    33 0.014898 -0.887895 -0.019848 -0.270831 -0.002253 0.011565
    34 -0.586770 -1.264477 0.200161 0.551726 -0.123446 -2.846455
    35 1.534554 0.046962 0.012942 0.533248 0.233888 0.464006
    36 1.114041 0.048424 -0.005766 -0.014804 -0.033731 0.597077
    37 -0.139399 -0.111698 0.014397 0.285382 -0.030687 1.580508
    38 -3.471658 8.194626 -0.294122 1.581763 -0.012011 -1.301784
    39 1.271553 -1.379853 -2.637508 0.000000 0.378680 -0.121031
    40 4.065896 0.000000 0.000000 0.150110 1.062403 -0.282851
    41 5.727315 0.000000 0.000000 0.000000 0.000000 -0.263070
    42 9.229777 0.000000 0.000000 -2.159494 -0.432789 -0.245193
    43 -55.517004 196.661929 -111.095604 0.606048 2.511763 -1.188968
    44 0.000000 0.000000 -0.000001 -3.141592 -1.570796 0.000000
  time 16
    0 -0.002752 -0.001265 -0.003287 0.000000 0.000000 0.000000
    1 5.356858 -2.905010 -10.460238 4.886414 -2.827169 0.921804
    2 1.632191 8.692270 -0.251372 1.514220 3.142171 1.526322
    3 0.064802 -8.572957 -0.072883 0.650618 0.773219 0.740514
    4 -0.488518 -2.755602 -0.228260 -0.500417 0.279961 -0.381016
    5 0.039887 -1.487603 0.022041 -0.405225 -0.007263 0.005861
    6 0.028786 -1.138233 -0.112955 -0.854605 -0.014238 0.017138
    7 0.250027 -2.820665 -0.238396 -0.434300 0.098804 -0.134665
    8 -0.049759 -1.641480 0.096573 -0.504471 0.007742 -0.013137
    9 -0.034142 -1.148312 0.069157 -0.460489 0.006568 -0.010367
    10 0.957766 -2.746780 -0.090302 -0.487171 -0.067395 0.116738
    11 -0.033420 -1.397129 -0.011257 -0.139220 0.003763 -0.006748
    12 -0.022360 -0.957436 0.010971 -0.329039 0.006592 -0.015388
    13 -1.180681 -2.507217 -0.193859 -0.262972 0.239084 -0.315979
    14 -0.024967 -1.123934 0.017597 -0.785803 0.006747 -0.033508
    15 -0.020057 -0.898781 0.013996 -0.393681 0.006364 -0.013710
    16 0.556165 -1.205090 0.232255 -0.494891 -0.042631 -0.392741
    17 1.508582 -0.157728 -0.041867 -0.529429 0.083101 -0.507961
    18 1.081239 -0.100945 0.016666 0.007439 -0.125289 -0.509799
    19 0.120153 -0.050270 -0.054489 0.287569 3.110905 1.561085
    20 -6.224076 -1.867876 -9.364850 -1.436072 -3.545408 -0.895333
    21 0.061787 -8.450418 0.014073 -0.012873 -0.474326 0.032020
    22 0.447953 -2.798986 -0.200443 -0.501132 -0.278132 0.381968
    23 -0.032909 -1.488017 0.004940 -0.388838 0.008893 -0.003222
    24 -0.027022 -1.108171 -0.028023 -0.775477 0.018804 -0.010618
    25 -0.249534 -2.846964 -0.174213 -0.263153 -0.096158 0.124717
    26 0.043235 -1.668316 0.092106 -0.602090 -0.009198 -0.001497
    27 0.031729 -1.156924 0.058838 -0.384702 -0.003169 0.006131
    28 -0.963866 -2.785145 -0.085350 -0.325890 0.071768 -0.151575
    29 0.028479 -1.403067 0.002365 -0.166307 -0.001906 -0.007910
    30 0.021413 -0.953875 0.020046 -0.340946 -0.005081 -0.014657
    31 1.164475 -2.543940 -0.170330 -0.268817 -0.234925 0.321516
    32 0.024032 -1.136855 -0.001725 -0.816998 0.005201 0.043421
    33 0.014898 -0.887895 -0.019848 -0.270831 -0.002253 0.011565
    34 -0.586770 -1.264477 0.200161 0.551726 -0.123446 -2.846455
    35 1.534554 0.046962 0.012942 0.533248 0.233888 0.464006
    36 1.114041 0.048424 -0.005766 -0.014804 -0.033731 0.597077
    37 -0.139399 -0.111698 0.014397 0.285382 -0.030687 1.580508
    38 -2.940392 8.417289 -0.282403 1.581667 -0.010097 -1.371577
    39 1.271553 -1.379853 -2.637508 0.000000 0.378680 -0.121031
    40 4.065896 0.000000 0.000000 0.150110 1.062403 -0.282851
    41 5.727315 0.000000 0.000000 0.000000 0.000000 -0.263070
    42 9.229777 0.000000 0.000000 -2.159494 -0.432789 -0.245193
    43 -55.517004 196.661929 -111.095604 0.606048 2.511763 -1.188968
    44 0.000000 0.000000 -0.000001 -3.141592 -1.570796 0.000000
  time 17
    0 -0.002752 -0.001265 -0.003287 0.000000 0.000000 0.000000
    1 5.356858 -2.905010 -10.460238 4.886414 -2.827169 0.921804
    2 1.632191 8.692270 -0.251372 1.514220 3.142171 1.526322
    3 0.064802 -8.572957 -0.072883 0.650618 0.773219 0.740514
    4 -0.488518 -2.755602 -0.228260 -0.500417 0.279961 -0.381016
    5 0.039887 -1.487603 0.022041 -0.405225 -0.007263 0.005861
    6 0.028786 -1.138233 -0.112955 -0.854605 -0.014238 0.017138
    7 0.250027 -2.820665 -0.238396 -0.434300 0.098804 -0.134665
    8 -0.049759 -1.641480 0.096573 -0.504471 0.007742 -0.013137
    9 -0.034142 -1.148312 0.069157 -0.460489 0.006568 -0.010367
    10 0.957766 -2.746780 -0.090302 -0.487171 -0.067395 0.116738
    11 -0.033420 -1.397129 -0.011257 -0.139220 0.003763 -0.006748
    12 -0.022360 -0.957436 0.010971 -0.329039 0.006592 -0.015388
    13 -1.180681 -2.507217 -0.193859 -0.262972 0.239084 -0.315979
    14 -0.024967 -1.123934 0.017597 -0.785803 0.006747 -0.033508
    15 -0.020057 -0.898781 0.013996 -0.393681 0.006364 -0.013710
    16 0.556165 -1.205090 0.232255 -0.494891 -0.042631 -0.392741
    17 1.508582 -0.157728 -0.041867 -0.529429 0.083101 -0.507961
    18 1.081239 -0.100945 0.016666 0.007439 -0.125289 -0.509799
    19 0.120153 -0.050270 -0.054489 0.287569 3.110905 1.561085
    20 -6.083446 -1.942097 -9.380476 -1.458090 -3.510634 -0.987002
    21 0.057880 -8.462138 0.021886 0.035848 -0.506304 -0.057787
    22 0.447953 -2.798986 -0.200443 -0.501132 -0.278132 0.381968
    23 -0.032909 -1.488017 0.004940 -0.388838 0.008893 -0.003222
    24 -0.027022 -1.108171 -0.028023 -0.775477 0.018804 -0.010618
    25 -0.249534 -2.846964 -0.174213 -0.263153 -0.096158 0.124717
    26 0.043235 -1.668316 0.092106 -0.602090 -0.009198 -0.001497
    27 0.031729 -1.156924 0.058838 -0.384702 -0.003169 0.006131
    28 -0.963866 -2.785145 -0.085350 -0.325890 0.071768 -0.151575
    29 0.028479 -1.403067 0.002365 -0.166307 -0.001906 -0.007910
    30 0.021413 -0.953875 0.020046 -0.340946 -0.005081 -0.014657
    31 1.164475 -2.543940 -0.170330 -0.268817 -0.234925 0.321516
    32 0.024032 -1.136855 -0.001725 -0.816998 0.005201 0.043421
    33 0.014898 -0.887895 -0.019848 -0.270831 -0.002253 0.011565
    34 -0.586770 -1.264477 0.200161 0.551726 -0.123446 -2.846455
    35 1.534554 0.046962 0.012942 0.533248 0.233888 0.464006
    36 1.114041 0.048424 -0.005766 -0.014804 -0.033731 0.597077
    37 -0.139399 -0.111698 0.014397 0.285382 -0.030687 1.580508
    38 -2.377875 8.608701 -0.262871 1.581475 -0.008182 -1.443850
    39 1.271553 -1.379853 -2.637508 0.000000 0.378680 -0.121031
    40 4.065896 0.000000 0.000000 0.150110 1.062403 -0.282851
    41 5.727315 0.000000 0.000000 0.000000 0.000000 -0.263070
    42 9.229777 0.000000 0.000000 -2.159494 -0.432789 -0.245193
    43 -55.517004 196.661929 -111.095604 0.606048 2.511763 -1.188968
    44 0.000000 0.000000 -0.000001 -3.141592 -1.570796 0.000000
  time 18
    0 -0.002752 -0.001265 -0.003287 0.000000 0.000000 0.000000
    1 5.356858 -2.905010 -10.460238 4.886414 -2.827169 0.921804
    2 1.632191 8.692270 -0.251372 1.514220 3.142171 1.526322
    3 0.064802 -8.572957 -0.072883 0.650618 0.773219 0.740514
    4 -0.488518 -2.755602 -0.228260 -0.500417 0.279961 -0.381016
    5 0.039887 -1.487603 0.022041 -0.405225 -0.007263 0.005861
    6 0.028786 -1.138233 -0.112955 -0.854605 -0.014238 0.017138
    7 0.250027 -2.820665 -0.238396 -0.434300 0.098804 -0.134665
    8 -0.049759 -1.641480 0.096573 -0.504471 0.007742 -0.013137
    9 -0.034142 -1.148312 0.069157 -0.460489 0.006568 -0.010367
    10 0.957766 -2.746780 -0.090302 -0.487171 -0.067395 0.116738
    11 -0.033420 -1.397129 -0.011257 -0.139220 0.003763 -0.006748
    12 -0.022360 -0.957436 0.010971 -0.329039 0.006592 -0.015388
    13 -1.180681 -2.507217 -0.193859 -0.262972 0.239084 -0.315979
    14 -0.024967 -1.123934 0.017597 -0.785803 0.006747 -0.033508
    15 -0.020057 -0.898781 0.013996 -0.393681 0.006364 -0.013710
    16 0.556165 -1.205090 0.232255 -0.494891 -0.042631 -0.392741
    17 1.508582 -0.157728 -0.041867 -0.529429 0.083101 -0.507961
    18 1.081239 -0.100945 0.016666 0.007439 -0.125289 -0.509799
    19 0.120153 -0.050270 -0.054489 0.287569 3.110905 1.561085
    20 -5.942817 -2.067101 -9.380476 -1.479243 -3.481244 -1.081023
    21 0.053974 -8.481669 0.029699 0.090557 -0.534749 -0.154189
    22 0.447953 -2.798986 -0.200443 -0.501132 -0.278132 0.381968
    23 -0.032909 -1.488017 0.004940 -0.388838 0.008893 -0.003222
    24 -0.027022 -1.108171 -0.028023 -0.775477 0.018804 -0.010618
    25 -0.249534 -2.846964 -0.174213 -0.263153 -0.096158 0.124717
    26 0.043235 -1.668316 0.092106 -0.602071 -0.009198 -0.001497
    27 0.031729 -1.156924 0.058838 -0.384702 -0.003169 0.006131
    28 -0.963866 -2.785145 -0.085350 -0.325890 0.071768 -0.151575
    29 0.028479 -1.403067 0.002365 -0.166307 -0.001906 -0.007910
    30 0.021413 -0.953875 0.020046 -0.340946 -0.005081 -0.014657
    31 1.164475 -2.543940 -0.170330 -0.268817 -0.234925 0.321516
    32 0.024032 -1.136855 -0.001725 -0.816998 0.005201 0.043421
    33 0.014898 -0.887895 -0.019848 -0.270831 -0.002253 0.011565
    34 -0.586770 -1.264477 0.200161 0.551726 -0.123446 -2.846455
    35 1.534554 0.046962 0.012942 0.533248 0.233888 0.464006
    36 1.114041 0.048424 -0.005766 -0.014804 -0.033731 0.597077
    37 -0.139399 -0.111698 0.014397 0.285382 -0.030687 1.580508
    38 -1.803639 8.761050 -0.247246 1.581092 -0.006267 -1.515646
    39 1.271553 -1.379853 -2.637508 0.000000 0.378680 -0.121031
    40 4.065896 0.000000 0.000000 0.150110 1.062403 -0.282851
    41 5.727315 0.000000 0.000000 0.000000 0.000000 -0.263070
    42 9.229777 0.000000 0.000000 -2.159494 -0.432789 -0.245193
    43 -55.517004 196.661929 -111.095604 0.606048 2.511763 -1.188968
    44 0.000000 0.000000 -0.000001 -3.141592 -1.570796 0.000000
  time 19
    0 -0.002752 -0.001265 -0.003287 0.000000 0.000000 0.000000
    1 5.356858 -2.905010 -10.460238 4.886414 -2.827169 0.921804
    2 1.632191 8.692270 -0.251372 1.514220 3.142171 1.526322
    3 0.064802 -8.572957 -0.072883 0.650618 0.773219 0.740514
    4 -0.488518 -2.755602 -0.228260 -0.500417 0.279961 -0.381016
    5 0.039887 -1.487603 0.022041 -0.405225 -0.007263 0.005861
    6 0.028786 -1.138233 -0.112955 -0.854605 -0.014238 0.017138
    7 0.250027 -2.820665 -0.238396 -0.434300 0.098804 -0.134665
    8 -0.049759 -1.641480 0.096573 -0.504471 0.007742 -0.013137
    9 -0.034142 -1.148312 0.069157 -0.460489 0.006568 -0.010367
    10 0.957766 -2.746780 -0.090302 -0.487171 -0.067395 0.116738
    11 -0.033420 -1.397129 -0.011257 -0.139220 0.003763 -0.006748
    12 -0.022360 -0.957436 0.010971 -0.329039 0.006592 -0.015388
    13 -1.180681 -2.507217 -0.193859 -0.262972 0.239084 -0.315979
    14 -0.024967 -1.123934 0.017597 -0.785803 0.006747 -0.033508
    15 -0.020057 -0.898781 0.013996 -0.393681 0.006364 -0.013710
    16 0.556165 -1.205090 0.232255 -0.494891 -0.042631 -0.392741
    17 1.508582 -0.157728 -0.041867 -0.529429 0.083101 -0.507961
    18 1.081239 -0.100945 0.016666 0.007439 -0.125289 -0.509799
    19 0.120153 -0.050270 -0.054489 0.287569 3.110905 1.561085
    20 -5.821720 -2.231168 -9.368757 -1.500491 -3.456796 -1.173256
    21 0.046161 -8.501201 0.033605 0.148166 -0.557787 -0.252088
    22 0.447953 -2.798986 -0.200443 -0.501132 -0.278132 0.381968
    23 -0.032909 -1.488017 0.004940 -0.388838 0.008893 -0.003222
    24 -0.027022 -1.108171 -0.028023 -0.775477 0.018804 -0.010618
    25 -0.249534 -2.846964 -0.174213 -0.263153 -0.096158 0.124717
    26 0.043235 -1.668316 0.092106 -0.602071 -0.009198 -0.001497
    27 0.031729 -1.156924 0.058838 -0.384702 -0.003169 0.006131
    28 -0.963866 -2.785145 -0.085350 -0.325890 0.071768 -0.151575
    29 0.028479 -1.403067 0.002365 -0.166307 -0.001906 -0.007910
    30 0.021413 -0.953875 0.020046 -0.340946 -0.005081 -0.014657
    31 1.164475 -2.543940 -0.170330 -0.268817 -0.234925 0.321516
    32 0.024032 -1.136855 -0.001725 -0.816998 0.005201 0.043421
    33 0.014898 -0.887895 -0.019848 -0.270831 -0.002253 0.011565
    34 -0.586770 -1.264477 0.200161 0.551748 -0.123446 -2.846455
    35 1.534554 0.046962 0.012942 0.533248 0.233888 0.464006
    36 1.114041 0.048424 -0.005766 -0.014804 -0.033731 0.597077
    37 -0.139399 -0.111698 0.014397 0.285382 -0.030687 1.580508
    38 -1.252841 8.858709 -0.239433 4.722270 -3.136935 1.557372
    39 1.271553 -1.379853 -2.637508 0.000000 0.378680 -0.121031
    40 4.065896 0.000000 0.000000 0.150110 1.062403 -0.282851
    41 5.727315 0.000000 0.000000 0.000000 0.000000 -0.263070
    42 9.229777 0.000000 0.000000 -2.159494 -0.432789 -0.245193
    43 -55.517004 196.661929 -111.095604 0.606048 2.511763 -1.188968
    44 0.000000 0.000000 -0.000001 -3.141592 -1.570796 0.000000
  time 20
    0 -0.002752 -0.001265 -0.003287 0.000000 0.000000 0.000000
    1 5.356858 -2.905010 -10.460238 4.886414 -2.827169 0.921804
    2 1.632191 8.692270 -0.251372 1.514220 3.142171 1.526322
    3 0.064802 -8.572957 -0.072883 0.650618 0.773219 0.740514
    4 -0.488518 -2.755602 -0.228260 -0.500417 0.279961 -0.381016
    5 0.039887 -1.487603 0.022041 -0.405225 -0.007263 0.005861
    6 0.028786 -1.138233 -0.112955 -0.854605 -0.014238 0.017138
    7 0.250027 -2.820665 -0.238396 -0.434300 0.098804 -0.134665
    8 -0.049759 -1.641480 0.096573 -0.504471 0.007742 -0.013137
    9 -0.034142 -1.148312 0.069157 -0.460489 0.006568 -0.010367
    10 0.957766 -2.746780 -0.090302 -0.487171 -0.067395 0.116738
    11 -0.033420 -1.397129 -0.011257 -0.139220 0.003763 -0.006748
    12 -0.022360 -0.957436 0.010971 -0.329039 0.006592 -0.015388
    13 -1.180681 -2.507217 -0.193859 -0.262972 0.239084 -0.315979
    14 -0.024967 -1.123934 0.017597 -0.785803 0.006747 -0.033508
    15 -0.020057 -0.898781 0.013996 -0.393681 0.006364 -0.013710
    16 0.556165 -1.205090 0.232255 -0.494891 -0.042631 -0.392741
    17 1.508582 -0.157728 -0.041867 -0.529429 0.083101 -0.507961
    18 1.081239 -0.100945 0.016666 0.007439 -0.125289 -0.509799
    19 0.120153 -0.050270 -0.054489 0.287569 3.110905 1.561085
    20 -5.720154 -2.414768 -9.341412 -1.521643 -3.436762 -1.259184
    21 0.038348 -8.516827 0.037511 0.204793 -0.574565 -0.345811
    22 0.447953 -2.798986 -0.200443 -0.501132 -0.278132 0.381968
    23 -0.032909 -1.488017 0.004940 -0.388838 0.008893 -0.003222
    24 -0.027022 -1.108171 -0.028023 -0.775477 0.018804 -0.010618
    25 -0.249534 -2.846964 -0.174213 -0.263153 -0.096158 0.124717
    26 0.043235 -1.668316 0.092106 -0.602071 -0.009198 -0.001497
    27 0.031729 -1.156924 0.058838 -0.384702 -0.003169 0.006131
    28 -0.963866 -2.785145 -0.085350 -0.325890 0.071768 -0.151575
    29 0.028479 -1.403067 0.002365 -0.166307 -0.001906 -0.007910
    30 0.021413 -0.953875 0.020046 -0.340946 -0.005081 -0.014657
    31 1.164475 -2.543940 -0.170330 -0.268817 -0.234925 0.321516
    32 0.024032 -1.136855 -0.001725 -0.816998 0.005201 0.043421
    33 0.014898 -0.887895 -0.019848 -0.270831 -0.002253 0.011565
    34 -0.586770 -1.264477 0.200161 0.551726 -0.123446 -2.846455
    35 1.534554 0.046962 0.012942 0.533248 0.233888 0.464006
    36 1.114041 0.048424 -0.005766 -0.014804 -0.033731 0.597077
    37 -0.139399 -0.111698 0.014397 0.285382 -0.030687 1.580508
    38 -0.745013 8.921211 -0.223808 4.721695 -3.138563 1.494825
    39 1.271553 -1.379853 -2.637508 0.000000 0.378680 -0.121031
    40 4.065896 0.000000 0.000000 0.150110 1.062403 -0.282851
    41 5.727315 0.000000 0.000000 0.000000 0.000000 -0.263070
    42 9.229777 0.000000 0.000000 -2.159494 -0.432789 -0.245193
    43 -55.517004 196.661929 -111.095604 0.606048 2.511763 -1.188968
    44 0.000000 0.000000 -0.000001 -3.141592 -1.570796 0.000000
  time 21
    0 -0.002752 -0.001265 -0.003287 0.000000 0.000000 0.000000
    1 5.356858 -2.905010 -10.460238 4.886414 -2.827169 0.921804
    2 1.632191 8.692270 -0.251372 1.514220 3.142171 1.526322
    3 0.064802 -8.572957 -0.072883 0.650618 0.773219 0.740514
    4 -0.488518 -2.755602 -0.228260 -0.500417 0.279961 -0.381016
    5 0.039887 -1.487603 0.022041 -0.405225 -0.007263 0.005861
    6 0.028786 -1.138233 -0.112955 -0.854605 -0.014238 0.017138
    7 0.250027 -2.820665 -0.238396 -0.434300 0.098804 -0.134665
    8 -0.049759 -1.641480 0.096573 -0.504471 0.007742 -0.013137
    9 -0.034142 -1.148312 0.069157 -0.460489 0.006568 -0.010367
    10 0.957766 -2.746780 -0.090302 -0.487171 -0.067395 0.116738
    11 -0.033420 -1.397129 -0.011257 -0.139220 0.003763 -0.006748
    12 -0.022360 -0.957436 0.010971 -0.329039 0.006592 -0.015388
    13 -1.180681 -2.507217 -0.193859 -0.262972 0.239084 -0.315979
    14 -0.024967 -1.123934 0.017597 -0.785803 0.006747 -0.033508
    15 -0.020057 -0.898781 0.013996 -0.393681 0.006364 -0.013710
    16 0.556165 -1.205090 0.232255 -0.494891 -0.042631 -0.392741
    17 1.508582 -0.157728 -0.041867 -0.529429 0.083101 -0.507961
    18 1.081239 -0.100945 0.016666 0.007439 -0.125289 -0.509799
    19 0.120153 -0.050270 -0.054489 0.287569 3.110905 1.561085
    20 -5.642027 -2.590554 -9.306255 -1.541594 -3.421052 -1.334099
    21 0.030536 -8.532452 0.037511 0.256040 -0.585312 -0.429169
    22 0.447953 -2.798986 -0.200443 -0.501132 -0.278132 0.381968
    23 -0.032909 -1.488017 0.004940 -0.388838 0.008893 -0.003222
    24 -0.027022 -1.108171 -0.028023 -0.775477 0.018804 -0.010618
    25 -0.249534 -2.846964 -0.174213 -0.263153 -0.096158 0.124717
    26 0.043235 -1.668316 0.092106 -0.602090 -0.009198 -0.001497
    27 0.031729 -1.156924 0.058838 -0.384702 -0.003169 0.006131
    28 -0.963866 -2.785145 -0.085350 -0.325890 0.071768 -0.151575
    29 0.028479 -1.403067 0.002365 -0.166307 -0.001906 -0.007910
    30 0.021413 -0.953875 0.020046 -0.340946 -0.005081 -0.014657
    31 1.164475 -2.543940 -0.170330 -0.268817 -0.234925 0.321516
    32 0.024032 -1.136855 -0.001725 -0.816998 0.005201 0.043421
    33 0.014898 -0.887895 -0.019848 -0.270831 -0.002253 0.011565
    34 -0.586770 -1.264477 0.200161 0.551726 -0.123446 -2.846455
    35 1.534554 0.046962 0.012942 0.533248 0.233888 0.464006
    36 1.114041 0.048424 -0.005766 -0.014804 -0.033731 0.597077
    37 -0.139399 -0.111698 0.014397 0.285382 -0.030687 1.580508
    38 -0.303593 8.948555 -0.212088 4.721216 -3.139903 1.441335
    39 1.271553 -1.379853 -2.637508 0.000000 0.378680 -0.121031
    40 4.065896 0.000000 0.000000 0.150110 1.062403 -0.282851
    41 5.727315 0.000000 0.000000 0.000000 0.000000 -0.263070
    42 9.229777 0.000000 0.000000 -2.159494 -0.432789 -0.245193
    43 -55.517004 196.661929 -111.095604 0.606048 2.511763 -1.188968
    44 0.000000 0.000000 -0.000001 -3.141592 -1.570796 0.000000
  time 22
    0 -0.002752 -0.001265 -0.003287 0.000000 0.000000 0.000000
    1 5.356858 -2.905010 -10.460238 4.886414 -2.827169 0.921804
    2 1.632191 8.692270 -0.251372 1.514220 3.142171 1.526322
    3 0.064802 -8.572957 -0.072883 0.650618 0.773219 0.740514
    4 -0.488518 -2.755602 -0.228260 -0.500417 0.279961 -0.381016
    5 0.039887 -1.487603 0.022041 -0.405225 -0.007263 0.005861
    6 0.028786 -1.138233 -0.112955 -0.854605 -0.014238 0.017138
    7 0.250027 -2.820665 -0.238396 -0.434300 0.098804 -0.134665
    8 -0.049759 -1.641480 0.096573 -0.504471 0.007742 -0.013137
    9 -0.034142 -1.148312 0.069157 -0.460489 0.006568 -0.010367
    10 0.957766 -2.746780 -0.090302 -0.487171 -0.067395 0.116738
    11 -0.033420 -1.397129 -0.011257 -0.139220 0.003763 -0.006748
    12 -0.022360 -0.957436 0.010971 -0.329039 0.006592 -0.015388
    13 -1.180681 -2.507217 -0.193859 -0.262972 0.239084 -0.315979
    14 -0.024967 -1.123934 0.017597 -0.785803 0.006747 -0.033508
    15 -0.020057 -0.898781 0.013996 -0.393681 0.006364 -0.013710
    16 0.556165 -1.205090 0.232255 -0.494891 -0.042631 -0.392741
    17 1.508582 -0.157728 -0.041867 -0.529429 0.083101 -0.507961
    18 1.081239 -0.100945 0.016666 0.007439 -0.125289 -0.509799
    19 0.120153 -0.050270 -0.054489 0.287569 3.110905 1.561085
    20 -5.591244 -2.742903 -9.271097 -1.558516 -3.409755 -1.393392
    21 0.026629 -8.540265 0.041418 0.297533 -0.591145 -0.495942
    22 0.447953 -2.798986 -0.200443 -0.501132 -0.278132 0.381968
    23 -0.032909 -1.488017 0.004940 -0.388838 0.008893 -0.003222
    24 -0.027022 -1.108171 -0.028023 -0.775477 0.018804 -0.010618
    25 -0.249534 -2.846964 -0.174213 -0.263153 -0.096158 0.124717
    26 0.043235 -1.668316 0.092106 -0.602090 -0.009198 -0.001497
    27 0.031729 -1.156924 0.058838 -0.384702 -0.003169 0.006131
    28 -0.963866 -2.785145 -0.085350 -0.325890 0.071768 -0.151575
    29 0.028479 -1.403067 0.002365 -0.166307 -0.001906 -0.007910
    30 0.021413 -0.953875 0.020046 -0.340946 -0.005081 -0.014657
    31 1.164475 -2.543940 -0.170330 -0.268817 -0.234925 0.321516
    32 0.024032 -1.136855 -0.001725 -0.816998 0.005201 0.043421
    33 0.014898 -0.887895 -0.019848 -0.270831 -0.002253 0.011565
    34 -0.586770 -1.264477 0.200161 0.551726 -0.123446 -2.846455
    35 1.534554 0.046962 0.012942 0.533248 0.233888 0.464006
    36 1.114041 0.048424 -0.005766 -0.014804 -0.033731 0.597077
    37 -0.139399 -0.111698 0.014397 0.285382 -0.030687 1.580508
    38 0.040167 8.956368 -0.204276 4.720736 -3.140860 1.399764
    39 1.271553 -1.379853 -2.637508 0.000000 0.378680 -0.121031
    40 4.065896 0.000000 0.000000 0.150110 1.062403 -0.282851
    41 5.727315 0.000000 0.000000 0.000000 0.000000 -0.263070
    42 9.229777 0.000000 0.000000 -2.159494 -0.432789 -0.245193
    43 -55.517004 196.661929 -111.095604 0.606048 2.511763 -1.188968
    44 0.000000 0.000000 -0.000001 -3.141592 -1.570796 0.000000
  time 23
    0 -0.002752 -0.001265 -0.003287 0.000000 0.000000 0.000000
    1 5.356858 -2.905010 -10.460238 4.886414 -2.827169 0.921804
    2 1.632191 8.692270 -0.251372 1.514220 3.142171 1.526322
    3 0.064802 -8.572957 -0.072883 0.650618 0.773219 0.740514
    4 -0.488518 -2.755602 -0.228260 -0.500417 0.279961 -0.381016
    5 0.039887 -1.487603 0.022041 -0.405225 -0.007263 0.005861
    6 0.028786 -1.138233 -0.112955 -0.854605 -0.014238 0.017138
    7 0.250027 -2.820665 -0.238396 -0.434300 0.098804 -0.134665
    8 -0.049759 -1.641480 0.096573 -0.504471 0.007742 -0.013137
    9 -0.034142 -1.148312 0.069157 -0.460489 0.006568 -0.010367
    10 0.957766 -2.746780 -0.090302 -0.487171 -0.067395 0.116738
    11 -0.033420 -1.397129 -0.011257 -0.139220 0.003763 -0.006748
    12 -0.022360 -0.957436 0.010971 -0.329039 0.006592 -0.015388
    13 -1.180681 -2.507217 -0.193859 -0.262972 0.239084 -0.315979
    14 -0.024967 -1.123934 0.017597 -0.785803 0.006747 -0.033508
    15 -0.020057 -0.898781 0.013996 -0.393681 0.006364 -0.013710
    16 0.556165 -1.205090 0.232255 -0.494891 -0.042631 -0.392741
    17 1.508582 -0.157728 -0.041867 -0.529429 0.083101 -0.507961
    18 1.081239 -0.100945 0.016666 0.007439 -0.125289 -0.509799
    19 0.120153 -0.050270 -0.054489 0.287569 3.110905 1.561085
    20 -5.563899 -2.852281 -9.243753 -1.570294 -3.403047 -1.432544
    21 0.022723 -8.548078 0.041418 0.325157 -0.593626 -0.540169
    22 0.447953 -2.798986 -0.200443 -0.501132 -0.278132 0.381968
    23 -0.032909 -1.488017 0.004940 -0.388838 0.008893 -0.003222
    24 -0.027022 -1.108171 -0.028023 -0.775477 0.018804 -0.010618
    25 -0.249534 -2.846964 -0.174213 -0.263153 -0.096158 0.124717
    26 0.043235 -1.668316 0.092106 -0.602090 -0.009198 -0.001497
    27 0.031729 -1.156924 0.058838 -0.384702 -0.003169 0.006131
    28 -0.963866 -2.785145 -0.085350 -0.325890 0.071768 -0.151575
    29 0.028479 -1.403067 0.002365 -0.166307 -0.001906 -0.007910
    30 0.021413 -0.953875 0.020046 -0.340946 -0.005081 -0.014657
    31 1.164475 -2.543940 -0.170330 -0.268817 -0.234925 0.321516
    32 0.024032 -1.136855 -0.001725 -0.816998 0.005201 0.043421
    33 0.014898 -0.887895 -0.019848 -0.270831 -0.002253 0.011565
    34 -0.586770 -1.264477 0.200161 0.551726 -0.123446 -2.846455
    35 1.534554 0.046962 0.012942 0.533248 0.233888 0.464006
    36 1.114041 0.048424 -0.005766 -0.014804 -0.033731 0.597077
    37 -0.139399 -0.111698 0.014397 0.285382 -0.030687 1.580508
    38 0.262830 8.948555 -0.196463 4.720353 -3.141530 1.372781
    39 1.271553 -1.379853 -2.637508 0.000000 0.378680 -0.121031
    40 4.065896 0.000000 0.000000 0.150110 1.062403 -0.282851
    41 5.727315 0.000000 0.000000 0.000000 0.000000 -0.263070
    42 9.229777 0.000000 0.000000 -2.159494 -0.432789 -0.245193
    43 -55.517004 196.661929 -111.095604 0.606048 2.511763 -1.188968
    44 0.000000 0.000000 -0.000001 -3.141592 -1.570796 0.000000
  time 24
    0 -0.002752 -0.001265 -0.003287 0.000000 0.000000 0.000000
    1 5.356858 -2.905010 -10.460238 4.886414 -2.827169 0.921804
    2 1.632191 8.692270 -0.251372 1.514220 3.142171 1.526322
    3 0.064802 -8.572957 -0.072883 0.650618 0.773219 0.740514
    4 -0.488518 -2.755602 -0.228260 -0.500417 0.279961 -0.381016
    5 0.039887 -1.487603 0.022041 -0.405225 -0.007263 0.005861
    6 0.028786 -1.138233 -0.112955 -0.854605 -0.014238 0.017138
    7 0.250027 -2.820665 -0.238396 -0.434300 0.098804 -0.134665
    8 -0.049759 -1.641480 0.096573 -0.504471 0.007742 -0.013137
    9 -0.034142 -1.148312 0.069157 -0.460489 0.006568 -0.010367
    10 0.957766 -2.746780 -0.090302 -0.487171 -0.067395 0.116738
    11 -0.033420 -1.397129 -0.011257 -0.139220 0.003763 -0.006748
    12 -0.022360 -0.957436 0.010971 -0.329039 0.006592 -0.015388
    13 -1.180681 -2.507217 -0.193859 -0.262972 0.239084 -0.315979
    14 -0.024967 -1.123934 0.017597 -0.785803 0.006747 -0.033508
    15 -0.020057 -0.898781 0.013996 -0.393681 0.006364 -0.013710
    16 0.556165 -1.205090 0.232255 -0.494891 -0.042631 -0.392741
    17 1.508582 -0.157728 -0.041867 -0.529429 0.083101 -0.507961
    18 1.081239 -0.100945 0.016666 0.007439 -0.125289 -0.509799
    19 0.120153 -0.050270 -0.054489 0.287569 3.110905 1.561085
    20 -5.556086 -2.891345 -9.232034 1.566801 -6.023608 -4.588423
    21 0.018817 -8.551984 0.041418 0.335238 -0.594202 -0.556179
    22 0.447953 -2.798986 -0.200443 -0.501132 -0.278132 0.381968
    23 -0.032909 -1.488017 0.004940 -0.388838 0.008893 -0.003222
    24 -0.027022 -1.108171 -0.028023 -0.775477 0.018804 -0.010618
    25 -0.249534 -2.846964 -0.174213 -0.263153 -0.096158 0.124717
    26 0.043235 -1.668316 0.092106 -0.602071 -0.009198 -0.001497
    27 0.031729 -1.156924 0.058838 -0.384702 -0.003169 0.006131
    28 -0.963866 -2.785145 -0.085350 -0.325890 0.071768 -0.151575
    29 0.028479 -1.403067 0.002365 -0.166307 -0.001906 -0.007910
    30 0.021413 -0.953875 0.020046 -0.340946 -0.005081 -0.014657
    31 1.164475 -2.543940 -0.170330 -0.268817 -0.234925 0.321516
    32 0.024032 -1.136855 -0.001725 -0.816998 0.005201 0.043421
    33 0.014898 -0.887895 -0.019848 -0.270831 -0.002253 0.011565
    34 -0.586770 -1.264477 0.200161 0.551726 -0.123446 -2.846455
    35 1.534554 0.046962 0.012942 0.533248 0.233888 0.464006
    36 1.114041 0.048424 -0.005766 -0.014804 -0.033731 0.597077
    37 -0.139399 -0.111698 0.014397 0.285382 -0.030687 1.580508
    38 0.340958 8.948555 -0.196463 4.720257 -3.141817 1.363342
    39 1.271553 -1.379853 -2.637508 0.000000 0.378680 -0.121031
    40 4.065896 0.000000 0.000000 0.150110 1.062403 -0.282851
    41 5.727315 0.000000 0.000000 0.000000 0.000000 -0.263070
    42 9.229777 0.000000 0.000000 -2.159494 -0.432789 -0.245193
    43 -55.517004 196.661929 -111.095604 0.606048 2.511763 -1.188968
    44 0.000000 0.000000 -0.000001 -3.141592 -1.570796 0.000000
end
