version 1
nodes
  0 "root" -1
  1 "Bone01" 0
  2 "Bone_L_Upper" 1
  3 "Bone_Lefthand" 1
  4 "Bone13" 3
  5 "Bone14" 4
  6 "Bone15" 5
  7 "Bone17" 3
  8 "Bone18" 7
  9 "Bone19" 8
  10 "Bone21" 3
  11 "Bone22" 10
  12 "Bone23" 11
  13 "Bone09" 3
  14 "Bone10" 13
  15 "Bone11" 14
  16 "Bone05" 3
  17 "Bone06" 16
  18 "Bone07" 17
  19 "Bone_Se_Hand-L" 3
  20 "Bone04" 0
  21 "Bone_Righthand" 20
  22 "Bone39" 21
  23 "Bone40" 22
  24 "Bone41" 23
  25 "Bone35" 21
  26 "Bone36" 25
  27 "Bone37" 26
  28 "Bone31" 21
  29 "Bone32" 28
  30 "Bone33" 29
  31 "Bone43" 21
  32 "Bone44" 31
  33 "Bone45" 32
  34 "Bone27" 21
  35 "Bone28" 34
  36 "Bone29" 35
  37 "Bone_Se_Hand-R" 21
  38 "Bone_R_Upper" 20
  39 "chainsaw_root" 3
  40 "chainsaw_diviner" 39
  41 "chainsaw_rope01" 40
  42 "chainsaw_rope02" 41
  43 "chainsaw_rope03" 42
  44 "chainsaw_chain_bottom" 39
  45 "chainsaw_chain_top" 39
  46 "chainsaw_chain00" 45
  47 "chainsaw_rope04" 39
  48 "chainsaw_chain04" 39
  49 "chainsaw_chain01" 39
  50 "chainsaw_chain02" 39
  51 "chainsaw_chain03" 39
  52 "chainsaw_chain08" 39
  53 "chainsaw_chain05" 39
  54 "chainsaw_chain06" 39
  55 "chainsaw_chain07" 39
  56 "Point_01" 39
  57 "ef_01" 56
  58 "Point_02" 39
  59 "ef_02" 58
end
skeleton
  time 0
    0 7.708420 -5.083451 -7.784775 0.029549 -0.105674 0.000958
    1 9.958561 2.895949 8.450495 6.160421 -2.640523 -0.710316
    2 1.257180 8.762585 -0.153713 -1.570562 0.002683 -1.566807
    3 -0.071921 -8.498736 -0.104134 -0.824722 0.655783 -0.854340
    4 -0.488518 -2.755602 -0.228260 -0.979699 0.016588 -0.071802
    5 0.039887 -1.479790 0.029854 -1.522347 0.000000 0.000001
    6 0.028786 -1.075731 -0.023109 -0.648244 0.000000 0.000000
    7 0.250027 -2.820665 -0.238396 -0.863717 -0.002921 0.008443
    8 -0.049759 -1.680544 0.100479 -1.633952 0.000000 -0.000002
    9 -0.034142 -1.148312 0.084782 -0.802483 0.000000 0.000000
    10 0.957766 -2.746780 -0.090302 -0.624278 -0.102438 0.132186
    11 -0.033420 -1.397129 -0.011257 -1.295916 0.000000 -0.000001
    12 -0.022360 -0.957436 0.018784 -0.874776 0.000000 0.000000
    13 -1.165056 -2.643940 0.044430 -0.611305 0.176033 -0.219647
    14 -0.024967 -1.166904 0.017597 -1.640812 0.017378 0.001511
    15 -0.020057 -0.890968 0.010090 -0.728844 0.000000 0.000000
    16 0.583510 -1.197277 0.185379 -0.052102 -1.189669 -0.675037
    17 1.535927 0.010246 0.005009 0.104082 0.235093 -0.755843
    18 1.100771 0.004527 -0.010679 -0.423178 -0.515423 -1.256662
    19 -0.254858 -0.163555 -0.066208 -2.327901 0.120210 -1.064059
    20 -7.919440 2.308033 -2.259165 -1.808930 -5.252626 -1.531992
    21 0.096944 -8.450418 -0.009365 0.664539 -0.390999 -0.021094
    22 0.447953 -2.798986 -0.200443 -1.208615 0.224166 0.273004
    23 -0.032909 -1.480204 0.004940 -1.668020 0.000000 0.000002
    24 -0.027022 -1.076920 -0.020210 -1.321794 0.000000 0.000000
    25 -0.249534 -2.846964 -0.174213 -1.029784 0.203062 0.157890
    26 0.043235 -1.683941 0.096012 -1.852447 0.002823 -0.000167
    27 0.031729 -1.160830 0.058838 -1.143865 0.000642 0.008372
    28 -0.963866 -2.785145 -0.085350 -0.684260 0.358320 0.011787
    29 0.028479 -1.403067 0.006271 -1.707337 0.000000 0.000000
    30 0.021413 -0.957781 0.020046 -0.759293 0.000000 0.000000
    31 1.090254 -2.375966 0.075771 -1.018939 0.002358 0.424979
    32 0.024032 -1.129042 0.017807 -1.753582 0.000000 0.000001
    33 0.014898 -0.883989 -0.019848 -0.880952 0.000000 0.000000
    34 -0.586770 -1.264477 0.200161 -0.378752 -1.128527 -2.437241
    35 1.655652 0.261812 0.036380 0.126397 -0.305179 1.069144
    36 1.117947 0.048424 -0.005766 -0.008405 -0.060493 1.219762
    37 -0.119867 -0.158574 0.037835 0.524355 0.109100 1.461525
    38 -1.393470 8.839177 -0.239433 1.580804 -0.005023 -1.566847
    39 1.449079 -1.117134 1.509074 -0.263634 0.120136 -2.904175
    40 4.594990 7.785654 3.872275 -0.000001 0.000000 -2.696508
    41 -0.389066 -0.003800 0.000000 0.000001 0.000000 0.023980
    42 -0.350265 0.005619 0.000000 0.000000 0.000000 -0.010007
    43 -0.341040 0.002085 0.000000 0.000001 0.000000 -0.001544
    44 2.661497 23.114220 -1.230783 0.000000 0.000000 -1.250625
    45 0.334484 17.943974 -1.230783 0.000000 0.000000 1.890968
    46 11.169169 -0.192357 -0.011297 0.000000 0.000000 1.565115
    47 5.797596 8.373769 3.872275 0.000000 0.000000 -2.675408
    48 -2.581527 31.592813 -1.242079 0.000000 0.000000 2.124711
    49 -3.143922 29.152092 -1.242079 0.000000 0.000000 -2.903876
    50 -3.330981 30.178059 -1.242079 0.000000 0.000000 -3.093568
    51 -3.162554 30.997158 -1.242079 0.000000 0.000000 2.630754
    52 -0.017782 30.171263 -1.242080 0.000000 0.000000 0.409926
    53 -1.874652 31.813976 -1.242079 0.000000 0.000000 1.657224
    54 -1.136277 31.689322 -1.242079 0.000000 0.000000 1.105571
    55 -0.494656 31.127480 -1.242079 0.000001 0.000000 0.600469
    56 3.453030 14.406916 -0.000001 0.000000 0.000000 1.890968
    57 8.632640 -5.077181 -0.614632 0.000000 0.000000 0.000000
    58 203.978826 -557.797258 593.219933 0.000000 0.000000 1.890968
    59 7.658112 4.437680 -1.658882 0.000000 0.000000 0.000000
  time 1
    0 7.696701 -5.095170 -7.765243 -0.020330 -0.073277 0.005743
    1 9.958561 2.895949 8.450495 6.160421 -2.640523 -0.710316
    2 1.257180 8.762585 -0.153713 -1.570562 0.002683 -1.566807
    3 -0.071921 -8.498736 -0.104134 -0.824722 0.655783 -0.854340
    4 -0.488518 -2.755602 -0.228260 -0.979699 0.016588 -0.071802
    5 0.039887 -1.479790 0.029854 -1.522347 0.000000 0.000001
    6 0.028786 -1.075731 -0.023109 -0.648244 0.000000 0.000000
    7 0.250027 -2.820665 -0.238396 -0.863717 -0.002921 0.008443
    8 -0.049759 -1.680544 0.100479 -1.633952 0.000000 -0.000002
    9 -0.034142 -1.148312 0.084782 -0.802483 0.000000 0.000000
    10 0.957766 -2.746780 -0.090302 -0.624278 -0.102438 0.132186
    11 -0.033420 -1.397129 -0.011257 -1.295916 0.000000 -0.000001
    12 -0.022360 -0.957436 0.018784 -0.874776 0.000000 0.000000
    13 -1.165056 -2.643940 0.044430 -0.631520 0.177507 -0.220893
    14 -0.024967 -1.162998 0.017597 -1.630362 0.016635 0.001451
    15 -0.020057 -0.890968 0.010090 -0.728844 0.000000 0.000000
    16 0.583510 -1.197277 0.185379 -0.052102 -1.189669 -0.675037
    17 1.535927 0.010246 0.005009 0.104082 0.235093 -0.755843
    18 1.100771 0.004527 -0.010679 -0.423178 -0.515423 -1.256662
    19 -0.243139 -0.159648 -0.062302 -2.343691 0.119059 -1.085058
    20 -7.825687 2.280688 -2.290416 -1.794601 -5.254420 -1.533141
    21 0.096944 -8.450418 -0.009365 0.630518 -0.390999 -0.021094
    22 0.447953 -2.798986 -0.200443 -1.208615 0.224166 0.273004
    23 -0.032909 -1.480204 0.004940 -1.668020 0.000000 0.000002
    24 -0.027022 -1.076920 -0.020210 -1.321794 0.000000 0.000000
    25 -0.249534 -2.846964 -0.174213 -1.029784 0.203062 0.157890
    26 0.043235 -1.683941 0.096012 -1.852447 0.002823 -0.000167
    27 0.031729 -1.160830 0.058838 -1.143865 0.000642 0.008372
    28 -0.963866 -2.785145 -0.085350 -0.684260 0.358320 0.011787
    29 0.028479 -1.403067 0.006271 -1.707337 0.000000 0.000000
    30 0.021413 -0.957781 0.020046 -0.759293 0.000000 0.000000
    31 1.090254 -2.375966 0.075771 -1.018939 0.002358 0.424979
    32 0.024032 -1.129042 0.017807 -1.753582 0.000000 0.000001
    33 0.014898 -0.883989 -0.019848 -0.880952 0.000000 0.000000
    34 -0.586770 -1.264477 0.200161 -0.378752 -1.128527 -2.437241
    35 1.655652 0.261812 0.036380 0.126397 -0.305179 1.069144
    36 1.117947 0.048424 -0.005766 -0.008405 -0.060493 1.219762
    37 -0.119867 -0.158574 0.037835 0.524355 0.109100 1.461525
    38 -1.600508 8.753237 -0.239433 1.580648 -0.005335 -1.535370
    39 1.449079 -1.117134 1.509074 -0.263634 0.120136 -2.904175
    40 4.594990 7.785654 3.872275 -0.000001 0.000000 -2.696508
    41 -0.389066 -0.003800 0.000000 0.000001 0.000000 0.023980
    42 -0.350265 0.005619 0.000000 0.000000 0.000000 -0.010007
    43 -0.341040 0.002085 0.000000 0.000001 0.000000 -0.001544
    44 3.200576 21.489170 -1.230783 0.000000 0.000000 -1.250625
    45 -0.204595 19.569023 -1.230783 0.000000 0.000000 1.890968
    46 11.051978 -0.340799 -0.011297 0.000000 0.000000 1.242490
    47 5.797596 8.373769 3.872275 0.000000 0.000000 -2.675408
    48 -1.272893 31.772506 -1.242079 0.000000 0.000000 1.323576
    49 -3.249394 30.546666 -1.242079 0.000000 0.000000 -3.375906
    50 -2.866123 31.279655 -1.242079 0.000000 0.000000 -4.033216
    51 -2.092209 31.719836 -1.242079 0.000000 0.000000 1.934584
    52 0.540829 28.585277 -1.242080 0.000000 0.000000 0.349524
    53 -0.675397 31.368650 -1.242079 0.000000 0.000000 0.691524
    54 -0.171404 30.622883 -1.242079 0.000000 0.000000 0.399746
    55 0.212397 29.666497 -1.242079 0.000001 0.000000 0.369921
    56 3.453030 14.406916 -0.000001 0.000000 0.000000 1.890968
    57 8.632640 -5.077181 -0.614632 0.000000 0.000000 0.000000
    58 203.978826 -557.797258 593.219933 0.000000 0.000000 1.890968
    59 7.658112 4.437680 -1.658882 0.000000 0.000000 0.000000
  time 2
    0 7.649825 -5.130328 -7.714460 -0.151919 0.014597 0.018279
    1 9.958561 2.895949 8.450495 6.160421 -2.640523 -0.710316
    2 1.257180 8.762585 -0.153713 -1.570562 0.002683 -1.566807
    3 -0.071921 -8.498736 -0.104134 -0.824722 0.655783 -0.854340
    4 -0.488518 -2.755602 -0.228260 -0.979699 0.016588 -0.071802
    5 0.039887 -1.479790 0.029854 -1.522347 0.000000 0.000001
    6 0.028786 -1.075731 -0.023109 -0.648244 0.000000 0.000000
    7 0.250027 -2.820665 -0.238396 -0.863717 -0.002921 0.008443
    8 -0.049759 -1.680544 0.100479 -1.633952 0.000000 -0.000002
    9 -0.034142 -1.148312 0.084782 -0.802483 0.000000 0.000000
    10 0.957766 -2.746780 -0.090302 -0.624278 -0.102438 0.132186
    11 -0.033420 -1.397129 -0.011257 -1.295916 0.000000 -0.000001
    12 -0.022360 -0.957436 0.018784 -0.874776 0.000000 0.000000
    13 -1.165056 -2.643940 0.044430 -0.684829 0.181378 -0.224189
    14 -0.024967 -1.159091 0.017597 -1.602728 0.014669 0.001271
    15 -0.020057 -0.890968 0.010090 -0.728844 0.000000 0.000000
    16 0.583510 -1.197277 0.185379 -0.052102 -1.189669 -0.675037
    17 1.535927 0.010246 0.005009 0.104082 0.235093 -0.755843
    18 1.100771 0.004527 -0.010679 -0.423178 -0.515423 -1.256662
    19 -0.204076 -0.147929 -0.054489 -2.385735 0.116375 -1.140610
    20 -7.567867 2.198654 -2.372449 -1.755821 -5.259354 -1.536397
    21 0.096944 -8.450418 -0.009365 0.540796 -0.390999 -0.021094
    22 0.447953 -2.798986 -0.200443 -1.208615 0.224166 0.273004
    23 -0.032909 -1.480204 0.004940 -1.668020 0.000000 0.000002
    24 -0.027022 -1.076920 -0.020210 -1.321794 0.000000 0.000000
    25 -0.249534 -2.846964 -0.174213 -1.029784 0.203062 0.157890
    26 0.043235 -1.683941 0.096012 -1.852447 0.002823 -0.000167
    27 0.031729 -1.160830 0.058838 -1.143865 0.000642 0.008372
    28 -0.963866 -2.785145 -0.085350 -0.684260 0.358320 0.011787
    29 0.028479 -1.403067 0.006271 -1.707337 0.000000 0.000000
    30 0.021413 -0.957781 0.020046 -0.759293 0.000000 0.000000
    31 1.090254 -2.375966 0.075771 -1.018939 0.002358 0.424979
    32 0.024032 -1.129042 0.017807 -1.753582 0.000000 0.000001
    33 0.014898 -0.883989 -0.019848 -0.880952 0.000000 0.000000
    34 -0.586770 -1.264477 0.200161 -0.378752 -1.128527 -2.437241
    35 1.655652 0.261812 0.036380 0.126397 -0.305179 1.069144
    36 1.117947 0.048424 -0.005766 -0.008405 -0.060493 1.219762
    37 -0.119867 -0.158574 0.037835 0.524355 0.109100 1.461525
    38 -2.151306 8.522761 -0.243339 1.580169 -0.006126 -1.452328
    39 1.449079 -1.117134 1.509074 -0.263634 0.120136 -2.904175
    40 4.594990 7.785654 3.872275 -0.000001 0.000000 -2.696508
    41 -0.389066 -0.003800 0.000000 0.000001 0.000000 0.023980
    42 -0.350265 0.005619 0.000000 0.000000 0.000000 -0.010007
    43 -0.341040 0.002085 0.000000 0.000001 0.000000 -0.001544
    44 2.661497 23.114220 -1.230783 0.000000 0.000000 -1.250625
    45 0.334484 17.943974 -1.230783 0.000000 0.000000 1.890968
    46 11.169169 -0.192357 -0.011297 0.000000 0.000000 1.565115
    47 5.797596 8.373769 3.872275 0.000000 0.000000 -2.675408
    48 -2.581527 31.592813 -1.242079 0.000000 0.000000 2.124711
    49 -3.143922 29.152092 -1.242079 0.000000 0.000000 -2.903876
    50 -3.330981 30.178059 -1.242079 0.000000 0.000000 -3.093568
    51 -3.162554 30.997158 -1.242079 0.000000 0.000000 2.630754
    52 -0.017782 30.171263 -1.242080 0.000000 0.000000 0.409926
    53 -1.874652 31.813976 -1.242079 0.000000 0.000000 1.657224
    54 -1.136277 31.689322 -1.242079 0.000000 0.000000 1.105571
    55 -0.494656 31.127480 -1.242079 0.000001 0.000000 0.600469
    56 3.453030 14.406916 -0.000001 0.000000 0.000000 1.890968
    57 8.632640 -5.077181 -0.614632 0.000000 0.000000 0.000000
    58 203.978826 -557.797258 593.219933 0.000000 0.000000 1.890968
    59 7.658112 4.437680 -1.658882 0.000000 0.000000 0.000000
  time 3
    0 7.567791 -5.188923 -7.644145 -0.337996 0.144267 0.035982
    1 9.958561 2.895949 8.450495 6.160421 -2.640523 -0.710316
    2 1.257180 8.762585 -0.153713 -1.570562 0.002683 -1.566807
    3 -0.071921 -8.498736 -0.104134 -0.824722 0.655783 -0.854340
    4 -0.488518 -2.755602 -0.228260 -0.979699 0.016588 -0.071802
    5 0.039887 -1.479790 0.029854 -1.522347 0.000000 0.000001
    6 0.028786 -1.075731 -0.023109 -0.648244 0.000000 0.000000
    7 0.250027 -2.820665 -0.238396 -0.863717 -0.002921 0.008443
    8 -0.049759 -1.680544 0.100479 -1.633952 0.000000 -0.000002
    9 -0.034142 -1.148312 0.084782 -0.802483 0.000000 0.000000
    10 0.957766 -2.746780 -0.090302 -0.624278 -0.102438 0.132186
    11 -0.033420 -1.397129 -0.011257 -1.295916 0.000000 -0.000001
    12 -0.022360 -0.957436 0.018784 -0.874776 0.000000 0.000000
    13 -1.165056 -2.643940 0.044430 -0.760224 0.186867 -0.228839
    14 -0.024967 -1.151279 0.017597 -1.563703 0.011877 0.001032
    15 -0.020057 -0.890968 0.010090 -0.728844 0.000000 0.000000
    16 0.583510 -1.197277 0.185379 -0.052102 -1.189669 -0.675037
    17 1.535927 0.010246 0.005009 0.104082 0.235093 -0.755843
    18 1.100771 0.004527 -0.010679 -0.423178 -0.515423 -1.256662
    19 -0.149386 -0.128397 -0.038864 -2.446518 0.113021 -1.219546
    20 -7.181136 2.081463 -2.497453 -1.699298 -5.266605 -1.541089
    21 0.096944 -8.450418 -0.009365 0.413969 -0.390999 -0.021094
    22 0.447953 -2.798986 -0.200443 -1.208615 0.224166 0.273004
    23 -0.032909 -1.480204 0.004940 -1.668020 0.000000 0.000002
    24 -0.027022 -1.076920 -0.020210 -1.321794 0.000000 0.000000
    25 -0.249534 -2.846964 -0.174213 -1.029784 0.203062 0.157890
    26 0.043235 -1.683941 0.096012 -1.852447 0.002823 -0.000167
    27 0.031729 -1.160830 0.058838 -1.143865 0.000642 0.008372
    28 -0.963866 -2.785145 -0.085350 -0.684260 0.358320 0.011787
    29 0.028479 -1.403067 0.006271 -1.707337 0.000000 0.000000
    30 0.021413 -0.957781 0.020046 -0.759293 0.000000 0.000000
    31 1.090254 -2.375966 0.075771 -1.018939 0.002358 0.424979
    32 0.024032 -1.129042 0.017807 -1.753582 0.000000 0.000001
    33 0.014898 -0.883989 -0.019848 -0.880952 0.000000 0.000000
    34 -0.586770 -1.264477 0.200161 -0.378752 -1.128527 -2.437241
    35 1.655652 0.261812 0.036380 0.126397 -0.305179 1.069144
    36 1.117947 0.048424 -0.005766 -0.008405 -0.060493 1.219762
    37 -0.119867 -0.158574 0.037835 0.524355 0.109100 1.461525
    38 -2.928673 8.198533 -0.251152 1.579390 -0.007180 -1.334923
    39 1.449079 -1.117134 1.509074 -0.263634 0.120136 -2.904175
    40 4.594990 7.785654 3.872275 -0.000001 0.000000 -2.696508
    41 -0.389066 -0.003800 0.000000 0.000001 0.000000 0.023980
    42 -0.350265 0.005619 0.000000 0.000000 0.000000 -0.010007
    43 -0.341040 0.002085 0.000000 0.000001 0.000000 -0.001544
    44 3.200576 21.489170 -1.230783 0.000000 0.000000 -1.250625
    45 -0.204595 19.569023 -1.230783 0.000000 0.000000 1.890968
    46 11.051978 -0.340799 -0.011297 0.000000 0.000000 1.242490
    47 5.797596 8.373769 3.872275 0.000000 0.000000 -2.675408
    48 -1.272893 31.772506 -1.242079 0.000000 0.000000 1.323576
    49 -3.249394 30.546666 -1.242079 0.000000 0.000000 -3.375906
    50 -2.866123 31.279655 -1.242079 0.000000 0.000000 -4.033216
    51 -2.092209 31.719836 -1.242079 0.000000 0.000000 1.934584
    52 0.540829 28.585277 -1.242080 0.000000 0.000000 0.349524
    53 -0.675397 31.368650 -1.242079 0.000000 0.000000 0.691524
    54 -0.171404 30.622883 -1.242079 0.000000 0.000000 0.399746
    55 0.212397 29.666497 -1.242079 0.000001 0.000000 0.369921
    56 3.453030 14.406916 -0.000001 0.000000 0.000000 1.890968
    57 8.632640 -5.077181 -0.614632 0.000000 0.000000 0.000000
    58 203.978826 -557.797258 593.219933 0.000000 0.000000 1.890968
    59 7.658112 4.437680 -1.658882 0.000000 0.000000 0.000000
  time 4
    0 7.438881 -5.278770 -7.558205 -0.551293 0.301884 0.056269
    1 9.958561 2.895949 8.450495 6.160421 -2.640523 -0.710316
    2 1.257180 8.762585 -0.153713 -1.570562 0.002683 -1.566807
    3 -0.071921 -8.498736 -0.104134 -0.824722 0.655783 -0.854340
    4 -0.488518 -2.755602 -0.228260 -0.979699 0.016588 -0.071802
    5 0.039887 -1.479790 0.029854 -1.522347 0.000000 0.000001
    6 0.028786 -1.075731 -0.023109 -0.648244 0.000000 0.000000
    7 0.250027 -2.820665 -0.238396 -0.863717 -0.002921 0.008443
    8 -0.049759 -1.680544 0.100479 -1.633952 0.000000 -0.000002
    9 -0.034142 -1.148312 0.084782 -0.802506 0.000000 0.000000
    10 0.957766 -2.746780 -0.090302 -0.624278 -0.102438 0.132186
    11 -0.033420 -1.397129 -0.011257 -1.295916 0.000000 -0.000001
    12 -0.022360 -0.957436 0.018784 -0.874776 0.000000 0.000000
    13 -1.165056 -2.643940 0.044430 -0.846625 0.193147 -0.234184
    14 -0.024967 -1.143466 0.017597 -1.518933 0.008689 0.000756
    15 -0.020057 -0.890968 0.010090 -0.728844 0.000000 0.000000
    16 0.583510 -1.197277 0.185379 -0.052102 -1.189669 -0.675037
    17 1.535927 0.010246 0.005009 0.104082 0.235093 -0.755843
    18 1.100771 0.004527 -0.010679 -0.423178 -0.515423 -1.256662
    19 -0.086885 -0.108866 -0.019332 -2.518335 0.109762 -1.310319
    20 -6.708465 1.936928 -2.649802 -1.631374 -5.275500 -1.546834
    21 0.096944 -8.450418 -0.009365 0.268590 -0.390999 -0.021094
    22 0.447953 -2.798986 -0.200443 -1.208615 0.224166 0.273004
    23 -0.032909 -1.480204 0.004940 -1.668020 0.000000 0.000002
    24 -0.027022 -1.076920 -0.020210 -1.321794 0.000000 0.000000
    25 -0.249534 -2.846964 -0.174213 -1.029784 0.203062 0.157890
    26 0.043235 -1.683941 0.096012 -1.852447 0.002823 -0.000167
    27 0.031729 -1.160830 0.058838 -1.143865 0.000642 0.008372
    28 -0.963866 -2.785145 -0.085350 -0.684260 0.358320 0.011787
    29 0.028479 -1.403067 0.006271 -1.707337 0.000000 0.000000
    30 0.021413 -0.957781 0.020046 -0.759293 0.000000 0.000000
    31 1.090254 -2.375966 0.075771 -1.018939 0.002358 0.424979
    32 0.024032 -1.129042 0.017807 -1.753582 0.000000 0.000001
    33 0.014898 -0.883989 -0.019848 -0.880952 0.000000 0.000000
    34 -0.586770 -1.264477 0.200161 -0.378752 -1.128527 -2.437241
    35 1.655652 0.261812 0.036380 0.126397 -0.305179 1.069144
    36 1.117947 0.048424 -0.005766 -0.008405 -0.060493 1.219762
    37 -0.119867 -0.158574 0.037835 0.524355 0.109100 1.461525
    38 -3.819325 7.823521 -0.255058 1.578347 -0.008271 -1.200337
    39 1.449079 -1.117134 1.509074 -0.263634 0.120136 -2.904175
    40 4.594990 7.785654 3.872275 -0.000001 0.000000 -2.696508
    41 -0.389066 -0.003800 0.000000 0.000001 0.000000 0.023980
    42 -0.350265 0.005619 0.000000 0.000000 0.000000 -0.010007
    43 -0.341040 0.002085 0.000000 0.000001 0.000000 -0.001544
    44 2.661497 23.114220 -1.230783 0.000000 0.000000 -1.250625
    45 0.334484 17.943974 -1.230783 0.000000 0.000000 1.890968
    46 11.169169 -0.192357 -0.011297 0.000000 0.000000 1.565115
    47 5.797596 8.373769 3.872275 0.000000 0.000000 -2.675408
    48 -2.581527 31.592813 -1.242079 0.000000 0.000000 2.124711
    49 -3.143922 29.152092 -1.242079 0.000000 0.000000 -2.903876
    50 -3.330981 30.178059 -1.242079 0.000000 0.000000 -3.093568
    51 -3.162554 30.997158 -1.242079 0.000000 0.000000 2.630754
    52 -0.017782 30.171263 -1.242080 0.000000 0.000000 0.409926
    53 -1.874652 31.813976 -1.242079 0.000000 0.000000 1.657224
    54 -1.136277 31.689322 -1.242079 0.000000 0.000000 1.105571
    55 -0.494656 31.127480 -1.242079 0.000001 0.000000 0.600469
    56 3.453030 14.406916 -0.000001 0.000000 0.000000 1.890968
    57 8.632640 -5.077181 -0.614632 0.000000 0.000000 0.000000
    58 203.978826 -557.797258 593.219933 0.000000 0.000000 1.890968
    59 7.658112 4.437680 -1.658882 0.000000 0.000000 0.000000
  time 5
    0 7.259188 -5.395961 -7.476171 -0.764591 0.473682 0.076556
    1 9.958561 2.895949 8.450495 6.160421 -2.640523 -0.710316
    2 1.257180 8.762585 -0.153713 -1.570562 0.002683 -1.566807
    3 -0.071921 -8.498736 -0.104134 -0.824722 0.655783 -0.854340
    4 -0.488518 -2.755602 -0.228260 -0.979699 0.016588 -0.071802
    5 0.039887 -1.479790 0.029854 -1.522347 0.000000 0.000001
    6 0.028786 -1.075731 -0.023109 -0.648244 0.000000 0.000000
    7 0.250027 -2.820665 -0.238396 -0.863717 -0.002921 0.008443
    8 -0.049759 -1.680544 0.100479 -1.633952 0.000000 -0.000002
    9 -0.034142 -1.148312 0.084782 -0.802483 0.000000 0.000000
    10 0.957766 -2.746780 -0.090302 -0.624278 -0.102438 0.132186
    11 -0.033420 -1.397129 -0.011257 -1.295916 0.000000 -0.000001
    12 -0.022360 -0.957436 0.018784 -0.874776 0.000000 0.000000
    13 -1.165056 -2.643940 0.044430 -0.932988 0.199427 -0.239518
    14 -0.024967 -1.135653 0.017597 -1.474164 0.005501 0.000480
    15 -0.020057 -0.890968 0.010090 -0.728844 0.000000 0.000000
    16 0.583510 -1.197277 0.185379 -0.052102 -1.189669 -0.675037
    17 1.535927 0.010246 0.005009 0.104082 0.235093 -0.755843
    18 1.100771 0.004527 -0.010679 -0.423178 -0.515423 -1.256662
    19 -0.024383 -0.089334 0.000200 -2.592339 0.106982 -1.401473
    20 -6.192825 1.776767 -2.813869 -1.558632 -5.285218 -1.553154
    21 0.096944 -8.450418 -0.009365 0.123188 -0.390999 -0.021094
    22 0.447953 -2.798986 -0.200443 -1.208615 0.224166 0.273004
    23 -0.032909 -1.480204 0.004940 -1.668020 0.000000 0.000002
    24 -0.027022 -1.076920 -0.020210 -1.321794 0.000000 0.000000
    25 -0.249534 -2.846964 -0.174213 -1.029784 0.203062 0.157890
    26 0.043235 -1.683941 0.096012 -1.852447 0.002823 -0.000167
    27 0.031729 -1.160830 0.058838 -1.143865 0.000642 0.008372
    28 -0.963866 -2.785145 -0.085350 -0.684260 0.358320 0.011787
    29 0.028479 -1.403067 0.006271 -1.707337 0.000000 0.000000
    30 0.021413 -0.957781 0.020046 -0.759293 0.000000 0.000000
    31 1.090254 -2.375966 0.075771 -1.018939 0.002358 0.424979
    32 0.024032 -1.129042 0.017807 -1.753582 0.000000 0.000001
    33 0.014898 -0.883989 -0.019848 -0.880952 0.000000 0.000000
    34 -0.586770 -1.264477 0.200161 -0.378752 -1.128527 -2.437241
    35 1.655652 0.261812 0.036380 0.126397 -0.305179 1.069144
    36 1.117947 0.048424 -0.005766 -0.008405 -0.060493 1.219762
    37 -0.119867 -0.158574 0.037835 0.524355 0.109100 1.461525
    38 -4.713884 7.448510 -0.262871 1.577173 -0.009206 -1.065751
    39 1.449079 -1.117134 1.509074 -0.263634 0.120136 -2.904175
    40 4.594990 7.785654 3.872275 -0.000001 0.000000 -2.696508
    41 -0.389066 -0.003800 0.000000 0.000001 0.000000 0.023980
    42 -0.350265 0.005619 0.000000 0.000000 0.000000 -0.010007
    43 -0.341040 0.002085 0.000000 0.000001 0.000000 -0.001544
    44 3.200576 21.489170 -1.230783 0.000000 0.000000 -1.250625
    45 -0.204595 19.569023 -1.230783 0.000000 0.000000 1.890968
    46 11.051978 -0.340799 -0.011297 0.000000 0.000000 1.242490
    47 5.797596 8.373769 3.872275 0.000000 0.000000 -2.675408
    48 -1.272893 31.772506 -1.242079 0.000000 0.000000 1.323576
    49 -3.249394 30.546666 -1.242079 0.000000 0.000000 -3.375906
    50 -2.866123 31.279655 -1.242079 0.000000 0.000000 -4.033216
    51 -2.092209 31.719836 -1.242079 0.000000 0.000000 1.934584
    52 0.540829 28.585277 -1.242080 0.000000 0.000000 0.349524
    53 -0.675397 31.368650 -1.242079 0.000000 0.000000 0.691524
    54 -0.171404 30.622883 -1.242079 0.000000 0.000000 0.399746
    55 0.212397 29.666497 -1.242079 0.000001 0.000000 0.369921
    56 3.453030 14.406916 -0.000001 0.000000 0.000000 1.890968
    57 8.632640 -5.077181 -0.614632 0.000000 0.000000 0.000000
    58 203.978826 -557.797258 593.219933 0.000000 0.000000 1.890968
    59 7.658112 4.437680 -1.658882 0.000000 0.000000 0.000000
  time 6
    0 7.016993 -5.540497 -7.401950 -0.950620 0.645897 0.094259
    1 9.958561 2.895949 8.450495 6.160421 -2.640523 -0.710316
    2 1.257180 8.762585 -0.153713 -1.570562 0.002683 -1.566807
    3 -0.071921 -8.498736 -0.104134 -0.824722 0.655783 -0.854340
    4 -0.488518 -2.755602 -0.228260 -0.979699 0.016588 -0.071802
    5 0.039887 -1.479790 0.029854 -1.522347 0.000000 0.000001
    6 0.028786 -1.075731 -0.023109 -0.648244 0.000000 0.000000
    7 0.250027 -2.820665 -0.238396 -0.863717 -0.002921 0.008443
    8 -0.049759 -1.680544 0.100479 -1.633952 0.000000 -0.000002
    9 -0.034142 -1.148312 0.084782 -0.802483 0.000000 0.000000
    10 0.957766 -2.746780 -0.090302 -0.624278 -0.102438 0.132186
    11 -0.033420 -1.397129 -0.011257 -1.295916 0.000000 -0.000001
    12 -0.022360 -0.957436 0.018784 -0.874776 0.000000 0.000000
    13 -1.165056 -2.643940 0.044430 -1.008384 0.204904 -0.244168
    14 -0.024967 -1.127840 0.017597 -1.435139 0.002709 0.000229
    15 -0.020057 -0.890968 0.010090 -0.728844 0.000000 0.000000
    16 0.583510 -1.197277 0.185379 -0.052102 -1.189669 -0.675037
    17 1.535927 0.010246 0.005009 0.104082 0.235093 -0.755843
    18 1.100771 0.004527 -0.010679 -0.423178 -0.515407 -1.256662
    19 0.030307 -0.073708 0.015826 -2.658734 0.104681 -1.481268
    20 -5.669371 1.616605 -2.981843 -1.487536 -5.295161 -1.559570
    21 0.096944 -8.450418 -0.009365 -0.003639 -0.390999 -0.021094
    22 0.447953 -2.798986 -0.200443 -1.208615 0.224166 0.273004
    23 -0.032909 -1.480204 0.004940 -1.668020 0.000000 0.000002
    24 -0.027022 -1.076920 -0.020210 -1.321794 0.000000 0.000000
    25 -0.249534 -2.846964 -0.174213 -1.029784 0.203062 0.157890
    26 0.043235 -1.683941 0.096012 -1.852447 0.002823 -0.000167
    27 0.031729 -1.160830 0.058838 -1.143865 0.000642 0.008372
    28 -0.963866 -2.785145 -0.085350 -0.684260 0.358320 0.011787
    29 0.028479 -1.403067 0.006271 -1.707337 0.000000 0.000000
    30 0.021413 -0.957781 0.020046 -0.759293 0.000000 0.000000
    31 1.090254 -2.375966 0.075771 -1.018939 0.002358 0.424979
    32 0.024032 -1.129042 0.017807 -1.753582 0.000000 0.000001
    33 0.014898 -0.883989 -0.019848 -0.880952 0.000000 0.000000
    34 -0.586770 -1.264477 0.200161 -0.378752 -1.128527 -2.437241
    35 1.655652 0.261812 0.036380 0.126397 -0.305179 1.069144
    36 1.117947 0.048424 -0.005766 -0.008405 -0.060493 1.219762
    37 -0.119867 -0.158574 0.037835 0.524355 0.109100 1.461525
    38 -5.491251 7.124281 -0.270684 1.576046 -0.009889 -0.948369
    39 1.449079 -1.117134 1.509074 -0.263634 0.120136 -2.904175
    40 4.594990 7.785654 3.872275 -0.000001 0.000000 -2.696508
    41 -0.389066 -0.003800 0.000000 0.000001 0.000000 0.023980
    42 -0.350265 0.005619 0.000000 0.000000 0.000000 -0.010007
    43 -0.341040 0.002085 0.000000 0.000001 0.000000 -0.001544
    44 2.661497 23.114220 -1.230783 0.000000 0.000000 -1.250625
    45 0.334484 17.943974 -1.230783 0.000000 0.000000 1.890968
    46 11.169169 -0.192357 -0.011297 0.000000 0.000000 1.565115
    47 5.797596 8.373769 3.872275 0.000000 0.000000 -2.675408
    48 -2.581527 31.592813 -1.242079 0.000000 0.000000 2.124711
    49 -3.143922 29.152092 -1.242079 0.000000 0.000000 -2.903876
    50 -3.330981 30.178059 -1.242079 0.000000 0.000000 -3.093568
    51 -3.162554 30.997158 -1.242079 0.000000 0.000000 2.630754
    52 -0.017782 30.171263 -1.242080 0.000000 0.000000 0.409926
    53 -1.874652 31.813976 -1.242079 0.000000 0.000000 1.657224
    54 -1.136277 31.689322 -1.242079 0.000000 0.000000 1.105571
    55 -0.494656 31.127480 -1.242079 0.000001 0.000000 0.600469
    56 3.453030 14.406916 -0.000001 0.000000 0.000000 1.890968
    57 8.632640 -5.077181 -0.614632 0.000000 0.000000 0.000000
    58 203.978826 -557.797258 593.219933 0.000000 0.000000 1.890968
    59 7.658112 4.437680 -1.658882 0.000000 0.000000 0.000000
  time 7
    0 6.712296 -5.716283 -7.351168 -1.082257 0.804678 0.106795
    1 9.958561 2.895949 8.450495 6.160421 -2.640523 -0.710316
    2 1.257180 8.762585 -0.153713 -1.570562 0.002683 -1.566807
    3 -0.071921 -8.498736 -0.104134 -0.824722 0.655783 -0.854340
    4 -0.488518 -2.755602 -0.228260 -0.979699 0.016588 -0.071802
    5 0.039887 -1.479790 0.029854 -1.522347 0.000000 0.000001
    6 0.028786 -1.075731 -0.023109 -0.648244 0.000000 0.000000
    7 0.250027 -2.820665 -0.238396 -0.863717 -0.002921 0.008443
    8 -0.049759 -1.680544 0.100479 -1.633952 0.000000 -0.000002
    9 -0.034142 -1.148312 0.084782 -0.802483 0.000000 0.000000
    10 0.957766 -2.746780 -0.090302 -0.624278 -0.102438 0.132186
    11 -0.033420 -1.397129 -0.011257 -1.295916 0.000000 -0.000001
    12 -0.022360 -0.957436 0.018784 -0.874776 0.000000 0.000000
    13 -1.165056 -2.643940 0.044430 -1.061692 0.208775 -0.247463
    14 -0.024967 -1.123934 0.017597 -1.407505 0.000743 0.000061
    15 -0.020057 -0.890968 0.010090 -0.728844 0.000000 0.000000
    16 0.583510 -1.197277 0.185379 -0.052102 -1.189669 -0.675037
    17 1.535927 0.010246 0.005009 0.104082 0.235093 -0.755843
    18 1.100771 0.004527 -0.010679 -0.423178 -0.515407 -1.256662
    19 0.069370 -0.061989 0.023638 -2.706676 0.102956 -1.537774
    20 -5.173262 1.464257 -3.138098 -1.424733 -5.304430 -1.565602
    21 0.096944 -8.450418 -0.009365 -0.093316 -0.390999 -0.021094
    22 0.447953 -2.798986 -0.200443 -1.208615 0.224166 0.273004
    23 -0.032909 -1.480204 0.004940 -1.668020 0.000000 0.000002
    24 -0.027022 -1.076920 -0.020210 -1.321794 0.000000 0.000000
    25 -0.249534 -2.846964 -0.174213 -1.029784 0.203062 0.157890
    26 0.043235 -1.683941 0.096012 -1.852447 0.002823 -0.000167
    27 0.031729 -1.160830 0.058838 -1.143865 0.000642 0.008372
    28 -0.963866 -2.785145 -0.085350 -0.684260 0.358320 0.011787
    29 0.028479 -1.403067 0.006271 -1.707337 0.000000 0.000000
    30 0.021413 -0.957781 0.020046 -0.759293 0.000000 0.000000
    31 1.090254 -2.375966 0.075771 -1.018939 0.002358 0.424979
    32 0.024032 -1.129042 0.017807 -1.753582 0.000000 0.000001
    33 0.014898 -0.883989 -0.019848 -0.880952 0.000000 0.000000
    34 -0.586770 -1.264477 0.200161 -0.378752 -1.128527 -2.437241
    35 1.655652 0.261812 0.036380 0.126397 -0.305179 1.069144
    36 1.117947 0.048424 -0.005766 -0.008405 -0.060493 1.219762
    37 -0.119867 -0.158574 0.037835 0.524355 0.109100 1.461525
    38 -6.042049 6.893805 -0.274590 1.575207 -0.010284 -0.865326
    39 1.449079 -1.117134 1.509074 -0.263634 0.120136 -2.904175
    40 4.594990 7.785654 3.872275 -0.000001 0.000000 -2.696508
    41 -0.389066 -0.003800 0.000000 0.000001 0.000000 0.023980
    42 -0.350265 0.005619 0.000000 0.000000 0.000000 -0.010007
    43 -0.341040 0.002085 0.000000 0.000001 0.000000 -0.001544
    44 3.200576 21.489170 -1.230783 0.000000 0.000000 -1.250625
    45 -0.204595 19.569023 -1.230783 0.000000 0.000000 1.890968
    46 11.051978 -0.340799 -0.011297 0.000000 0.000000 1.242490
    47 5.797596 8.373769 3.872275 0.000000 0.000000 -2.675408
    48 -1.272893 31.772506 -1.242079 0.000000 0.000000 1.323576
    49 -3.249394 30.546666 -1.242079 0.000000 0.000000 -3.375906
    50 -2.866123 31.279655 -1.242079 0.000000 0.000000 -4.033216
    51 -2.092209 31.719836 -1.242079 0.000000 0.000000 1.934584
    52 0.540829 28.585277 -1.242080 0.000000 0.000000 0.349524
    53 -0.675397 31.368650 -1.242079 0.000000 0.000000 0.691524
    54 -0.171404 30.622883 -1.242079 0.000000 0.000000 0.399746
    55 0.212397 29.666497 -1.242079 0.000001 0.000000 0.369921
    56 3.453030 14.406916 -0.000001 0.000000 0.000000 1.890968
    57 8.632640 -5.077181 -0.614632 0.000000 0.000000 0.000000
    58 203.978826 -557.797258 593.219933 0.000000 0.000000 1.890968
    59 7.658112 4.437680 -1.658882 0.000000 0.000000 0.000000
  time 8
    0 6.333378 -5.923321 -7.331636 -1.132136 0.936261 0.111484
    1 9.958561 2.895949 8.450495 6.160421 -2.640523 -0.710316
    2 1.257180 8.762585 -0.153713 -1.570562 0.002683 -1.566807
    3 -0.071921 -8.498736 -0.104134 -0.824722 0.655783 -0.854340
    4 -0.488518 -2.755602 -0.228260 -0.979699 0.016588 -0.071802
    5 0.039887 -1.479790 0.029854 -1.522347 0.000000 0.000001
    6 0.028786 -1.075731 -0.023109 -0.648244 0.000000 0.000000
    7 0.250027 -2.820665 -0.238396 -0.863717 -0.002921 0.008443
    8 -0.049759 -1.680544 0.100479 -1.633952 0.000000 -0.000002
    9 -0.034142 -1.148312 0.084782 -0.802483 0.000000 0.000000
    10 0.957766 -2.746780 -0.090302 -0.624278 -0.102438 0.132186
    11 -0.033420 -1.397129 -0.011257 -1.295916 0.000000 -0.000001
    12 -0.022360 -0.957436 0.018784 -0.874776 0.000000 0.000000
    13 -1.165056 -2.643940 0.044430 -1.081907 0.210249 -0.248710
    14 -0.024967 -1.123934 0.017597 -1.397055 0.000000 0.000001
    15 -0.020057 -0.890968 0.010090 -0.728844 0.000000 0.000000
    16 0.583510 -1.197277 0.185379 -0.052102 -1.189669 -0.675037
    17 1.535927 0.010246 0.005009 0.104082 0.235093 -0.755843
    18 1.100771 0.004527 -0.010679 -0.423178 -0.515423 -1.256662
    19 0.084996 -0.058083 0.031451 -2.725129 0.102381 -1.559155
    20 -4.751374 1.335347 -3.274821 -1.376563 -5.312429 -1.570677
    21 0.096944 -8.450418 -0.009365 -0.127359 -0.390999 -0.021094
    22 0.447953 -2.798986 -0.200443 -1.208615 0.224166 0.273004
    23 -0.032909 -1.480204 0.004940 -1.668020 0.000000 0.000002
    24 -0.027022 -1.076920 -0.020210 -1.321794 0.000000 0.000000
    25 -0.249534 -2.846964 -0.174213 -1.029784 0.203062 0.157890
    26 0.043235 -1.683941 0.096012 -1.852447 0.002823 -0.000167
    27 0.031729 -1.160830 0.058838 -1.143831 0.000642 0.008372
    28 -0.963866 -2.785145 -0.085350 -0.684260 0.358320 0.011787
    29 0.028479 -1.403067 0.006271 -1.707337 0.000000 0.000000
    30 0.021413 -0.957781 0.020046 -0.759293 0.000000 0.000000
    31 1.090254 -2.375966 0.075771 -1.018939 0.002358 0.424979
    32 0.024032 -1.129042 0.017807 -1.753582 0.000000 0.000001
    33 0.014898 -0.883989 -0.019848 -0.880952 0.000000 0.000000
    34 -0.586770 -1.264477 0.200161 -0.378752 -1.128527 -2.437241
    35 1.655652 0.261812 0.036380 0.126397 -0.305179 1.069144
    36 1.117947 0.048424 -0.005766 -0.008405 -0.060493 1.219762
    37 -0.119867 -0.158574 0.037835 0.524355 0.109100 1.461525
    38 -6.249087 6.807865 -0.274590 1.574884 -0.010428 -0.833805
    39 1.449079 -1.117134 1.509074 -0.263634 0.120136 -2.904175
    40 4.594990 7.785654 3.872275 -0.000001 0.000000 -2.696508
    41 -0.389066 -0.003800 0.000000 0.000001 0.000000 0.023980
    42 -0.350265 0.005619 0.000000 0.000000 0.000000 -0.010007
    43 -0.341040 0.002085 0.000000 0.000001 0.000000 -0.001544
    44 2.661497 23.114220 -1.230783 0.000000 0.000000 -1.250625
    45 0.334484 17.943974 -1.230783 0.000000 0.000000 1.890968
    46 11.169169 -0.192357 -0.011297 0.000000 0.000000 1.565115
    47 5.797596 8.373769 3.872275 0.000000 0.000000 -2.675408
    48 -2.581527 31.592813 -1.242079 0.000000 0.000000 2.124711
    49 -3.143922 29.152092 -1.242079 0.000000 0.000000 -2.903876
    50 -3.330981 30.178059 -1.242079 0.000000 0.000000 -3.093568
    51 -3.162554 30.997158 -1.242079 0.000000 0.000000 2.630754
    52 -0.017782 30.171263 -1.242080 0.000000 0.000000 0.409926
    53 -1.874652 31.813976 -1.242079 0.000000 0.000000 1.657224
    54 -1.136277 31.689322 -1.242079 0.000000 0.000000 1.105571
    55 -0.494656 31.127480 -1.242079 0.000001 0.000000 0.600469
    56 3.453030 14.406916 -0.000001 0.000000 0.000000 1.890968
    57 8.632640 -5.077181 -0.614632 0.000000 0.000000 0.000000
    58 203.978826 -557.797258 593.219933 0.000000 0.000000 1.890968
    59 7.658112 4.437680 -1.658882 0.000000 0.000000 0.000000
  time 9
    0 5.536479 -7.939007 -7.351168 -1.127090 1.039897 0.070431
    1 9.958561 2.895949 8.450495 6.160421 -2.640523 -0.710316
    2 1.257180 8.762585 -0.153713 -1.570562 0.002683 -1.566807
    3 -0.071921 -8.498736 -0.104134 -0.824722 0.655783 -0.854340
    4 -0.488518 -2.755602 -0.228260 -0.979699 0.016588 -0.071802
    5 0.039887 -1.479790 0.029854 -1.522347 0.000000 0.000001
    6 0.028786 -1.075731 -0.023109 -0.648244 0.000000 0.000000
    7 0.250027 -2.820665 -0.238396 -0.863717 -0.002921 0.008443
    8 -0.049759 -1.680544 0.100479 -1.633952 0.000000 -0.000002
    9 -0.034142 -1.148312 0.084782 -0.802483 0.000000 0.000000
    10 0.957766 -2.746780 -0.090302 -0.624278 -0.102438 0.132186
    11 -0.033420 -1.397129 -0.011257 -1.295916 0.000000 -0.000001
    12 -0.022360 -0.957436 0.018784 -0.874776 0.000000 0.000000
    13 -1.165056 -2.643940 0.044430 -1.081907 0.210249 -0.248710
    14 -0.024967 -1.123934 0.017597 -1.397055 0.000000 0.000001
    15 -0.020057 -0.890968 0.010090 -0.728844 0.000000 0.000000
    16 0.583510 -1.197277 0.185379 -0.052102 -1.189669 -0.675037
    17 1.535927 0.010246 0.005009 0.104082 0.235093 -0.755843
    18 1.100771 0.004527 -0.010679 -0.423178 -0.515423 -1.256662
    19 0.084996 -0.058083 0.031451 -2.725129 0.102381 -1.559155
    20 -4.341206 1.206437 -3.407637 -1.341808 -5.320128 -1.575656
    21 0.096944 -8.450418 -0.009365 -0.103598 -0.390999 -0.021094
    22 0.447953 -2.798986 -0.200443 -1.208615 0.224166 0.273004
    23 -0.032909 -1.480204 0.004940 -1.668020 0.000000 0.000002
    24 -0.027022 -1.076920 -0.020210 -1.321794 0.000000 0.000000
    25 -0.249534 -2.846964 -0.174213 -1.029784 0.203062 0.157890
    26 0.043235 -1.683941 0.096012 -1.852447 0.002823 -0.000167
    27 0.031729 -1.160830 0.058838 -1.143865 0.000642 0.008372
    28 -0.963866 -2.785145 -0.085350 -0.684260 0.358320 0.011787
    29 0.028479 -1.403067 0.006271 -1.707337 0.000000 0.000000
    30 0.021413 -0.957781 0.020046 -0.759293 0.000000 0.000000
    31 1.090254 -2.375966 0.075771 -1.018939 0.002358 0.424979
    32 0.024032 -1.129042 0.017807 -1.753582 0.000000 0.000001
    33 0.014898 -0.883989 -0.019848 -0.880952 0.000000 0.000000
    34 -0.586770 -1.264477 0.200161 -0.378752 -1.128527 -2.437241
    35 1.655652 0.261812 0.036380 0.126397 -0.305179 1.069144
    36 1.117947 0.048424 -0.005766 -0.008405 -0.060493 1.219762
    37 -0.119867 -0.158574 0.037835 0.524355 0.109100 1.461525
    38 -5.979548 6.917243 -0.274590 1.575303 -0.010248 -0.874431
    39 1.449079 -1.117134 1.509074 -0.263634 0.120136 -2.904175
    40 4.594990 7.785654 3.872275 -0.000001 0.000000 -2.696508
    41 -0.389066 -0.003800 0.000000 0.000001 0.000000 0.023980
    42 -0.350265 0.005619 0.000000 0.000000 0.000000 -0.010007
    43 -0.341040 0.002085 0.000000 0.000001 0.000000 -0.001544
    44 3.200576 21.489170 -1.230783 0.000000 0.000000 -1.250625
    45 -0.204595 19.569023 -1.230783 0.000000 0.000000 1.890968
    46 11.051978 -0.340799 -0.011297 0.000000 0.000000 1.242490
    47 5.797596 8.373769 3.872275 0.000000 0.000000 -2.675408
    48 -1.272893 31.772506 -1.242079 0.000000 0.000000 1.323576
    49 -3.249394 30.546666 -1.242079 0.000000 0.000000 -3.375906
    50 -2.866123 31.279655 -1.242079 0.000000 0.000000 -4.033216
    51 -2.092209 31.719836 -1.242079 0.000000 0.000000 1.934584
    52 0.540829 28.585277 -1.242080 0.000000 0.000000 0.349524
    53 -0.675397 31.368650 -1.242079 0.000000 0.000000 0.691524
    54 -0.171404 30.622883 -1.242079 0.000000 0.000000 0.399746
    55 0.212397 29.666497 -1.242079 0.000001 0.000000 0.369921
    56 3.453030 14.406916 -0.000001 0.000000 0.000000 1.890968
    57 8.632640 -5.077181 -0.614632 0.000000 0.000000 0.000000
    58 203.978826 -557.797258 593.219933 0.000000 0.000000 1.890968
    59 7.658112 4.437680 -1.658882 0.000000 0.000000 0.000000
  time 10
    0 4.305973 -11.450833 -7.386325 -1.101956 1.113549 -0.005836
    1 9.958561 2.895949 8.450495 6.160421 -2.640523 -0.710316
    2 1.257180 8.762585 -0.153713 -1.570562 0.002683 -1.566807
    3 -0.071921 -8.498736 -0.104134 -0.824722 0.655783 -0.854340
    4 -0.488518 -2.755602 -0.228260 -0.979699 0.016588 -0.071802
    5 0.039887 -1.479790 0.029854 -1.522347 0.000000 0.000001
    6 0.028786 -1.075731 -0.023109 -0.648244 0.000000 0.000000
    7 0.250027 -2.820665 -0.238396 -0.863717 -0.002921 0.008443
    8 -0.049759 -1.680544 0.100479 -1.633952 0.000000 -0.000002
    9 -0.034142 -1.148312 0.084782 -0.802483 0.000000 0.000000
    10 0.957766 -2.746780 -0.090302 -0.624278 -0.102438 0.132186
    11 -0.033420 -1.397129 -0.011257 -1.295916 0.000000 -0.000001
    12 -0.022360 -0.957436 0.018784 -0.874776 0.000000 0.000000
    13 -1.165056 -2.643940 0.044430 -1.081907 0.210249 -0.248710
    14 -0.024967 -1.123934 0.017597 -1.397055 0.000000 0.000001
    15 -0.020057 -0.890968 0.010090 -0.728844 0.000000 0.000000
    16 0.583510 -1.197277 0.185379 -0.052102 -1.189669 -0.675037
    17 1.535927 0.010246 0.005009 0.104082 0.235093 -0.755843
    18 1.100771 0.004527 -0.010679 -0.423178 -0.515423 -1.256662
    19 0.084996 -0.058083 0.031451 -2.725129 0.102381 -1.559155
    20 -3.888067 1.069714 -3.552173 -1.314309 -5.328725 -1.581210
    21 0.096944 -8.450418 -0.009365 -0.044208 -0.390999 -0.021094
    22 0.447953 -2.798986 -0.200443 -1.208615 0.224166 0.273004
    23 -0.032909 -1.480204 0.004940 -1.668020 0.000000 0.000002
    24 -0.027022 -1.076920 -0.020210 -1.321794 0.000000 0.000000
    25 -0.249534 -2.846964 -0.174213 -1.029784 0.203062 0.157890
    26 0.043235 -1.683941 0.096012 -1.852447 0.002823 -0.000167
    27 0.031729 -1.160830 0.058838 -1.143865 0.000642 0.008372
    28 -0.963866 -2.785145 -0.085350 -0.684260 0.358320 0.011787
    29 0.028479 -1.403067 0.006271 -1.707337 0.000000 0.000000
    30 0.021413 -0.957781 0.020046 -0.759293 0.000000 0.000000
    31 1.090254 -2.375966 0.075771 -1.018939 0.002358 0.424979
    32 0.024032 -1.129042 0.017807 -1.753582 0.000000 0.000001
    33 0.014898 -0.883989 -0.019848 -0.880952 0.000000 0.000000
    34 -0.586770 -1.264477 0.200161 -0.378752 -1.128527 -2.437241
    35 1.655652 0.261812 0.036380 0.126397 -0.305179 1.069144
    36 1.117947 0.048424 -0.005766 -0.008405 -0.060493 1.219762
    37 -0.119867 -0.158574 0.037835 0.524355 0.109100 1.461525
    38 -5.288120 7.210221 -0.266778 1.576346 -0.009721 -0.979152
    39 1.449079 -1.117134 1.509074 -0.263634 0.120136 -2.904175
    40 4.594990 7.785654 3.872275 -0.000001 0.000000 -2.696508
    41 -0.389066 -0.003800 0.000000 0.000001 0.000000 0.023980
    42 -0.350265 0.005619 0.000000 0.000000 0.000000 -0.010007
    43 -0.341040 0.002085 0.000000 0.000001 0.000000 -0.001544
    44 2.661497 23.114220 -1.230783 0.000000 0.000000 -1.250625
    45 0.334484 17.943974 -1.230783 0.000000 0.000000 1.890968
    46 11.169169 -0.192357 -0.011297 0.000000 0.000000 1.565115
    47 5.797596 8.373769 3.872275 0.000000 0.000000 -2.675408
    48 -2.581527 31.592813 -1.242079 0.000000 0.000000 2.124711
    49 -3.143922 29.152092 -1.242079 0.000000 0.000000 -2.903876
    50 -3.330981 30.178059 -1.242079 0.000000 0.000000 -3.093568
    51 -3.162554 30.997158 -1.242079 0.000000 0.000000 2.630754
    52 -0.017782 30.171263 -1.242080 0.000000 0.000000 0.409926
    53 -1.874652 31.813976 -1.242079 0.000000 0.000000 1.657224
    54 -1.136277 31.689322 -1.242079 0.000000 0.000000 1.105571
    55 -0.494656 31.127480 -1.242079 0.000001 0.000000 0.600469
    56 3.453030 14.406916 -0.000001 0.000000 0.000000 1.890968
    57 8.632640 -5.077181 -0.614632 0.000000 0.000000 0.000000
    58 203.978826 -557.797258 593.219933 0.000000 0.000000 1.890968
    59 7.658112 4.437680 -1.658882 0.000000 0.000000 0.000000
  time 11
    0 3.126249 -13.318078 -7.405857 -1.041839 1.141579 -0.046984
    1 9.958561 2.895949 8.450495 6.160421 -2.640523 -0.710316
    2 1.257180 8.762585 -0.153713 -1.570562 0.002683 -1.566807
    3 -0.071921 -8.498736 -0.104134 -0.824722 0.655783 -0.854340
    4 -0.488518 -2.755602 -0.228260 -0.979699 0.016588 -0.071802
    5 0.039887 -1.479790 0.029854 -1.522347 0.000000 0.000001
    6 0.028786 -1.075731 -0.023109 -0.648244 0.000000 0.000000
    7 0.250027 -2.820665 -0.238396 -0.863717 -0.002921 0.008443
    8 -0.049759 -1.680544 0.100479 -1.633952 0.000000 -0.000002
    9 -0.034142 -1.148312 0.084782 -0.802483 0.000000 0.000000
    10 0.957766 -2.746780 -0.090302 -0.624278 -0.102438 0.132186
    11 -0.033420 -1.397129 -0.011257 -1.295916 0.000000 -0.000001
    12 -0.022360 -0.957436 0.018784 -0.874776 0.000000 0.000000
    13 -1.165056 -2.643940 0.044430 -1.081907 0.210249 -0.248710
    14 -0.024967 -1.123934 0.017597 -1.397055 0.000000 0.000001
    15 -0.020057 -0.890968 0.010090 -0.728844 0.000000 0.000000
    16 0.583510 -1.197277 0.185379 -0.052102 -1.189669 -0.675037
    17 1.535927 0.010246 0.005009 0.104082 0.235093 -0.755843
    18 1.100771 0.004527 -0.010679 -0.423178 -0.515423 -1.256662
    19 0.084996 -0.058083 0.031451 -2.725129 0.102381 -1.559155
    20 -3.446647 0.932991 -3.692802 -1.293700 -5.337097 -1.586668
    21 0.096944 -8.450418 -0.009365 0.032952 -0.390999 -0.021094
    22 0.447953 -2.798986 -0.200443 -1.208615 0.224166 0.273004
    23 -0.032909 -1.480204 0.004940 -1.668020 0.000000 0.000002
    24 -0.027022 -1.076920 -0.020210 -1.321794 0.000000 0.000000
    25 -0.249534 -2.846964 -0.174213 -1.029784 0.203062 0.157890
    26 0.043235 -1.683941 0.096012 -1.852447 0.002823 -0.000167
    27 0.031729 -1.160830 0.058838 -1.143865 0.000642 0.008372
    28 -0.963866 -2.785145 -0.085350 -0.684260 0.358320 0.011787
    29 0.028479 -1.403067 0.006271 -1.707337 0.000000 0.000000
    30 0.021413 -0.957781 0.020046 -0.759293 0.000000 0.000000
    31 1.090254 -2.375966 0.075771 -1.018939 0.002358 0.424979
    32 0.024032 -1.129042 0.017807 -1.753582 0.000000 0.000001
    33 0.014898 -0.883989 -0.019848 -0.880952 0.000000 0.000000
    34 -0.586770 -1.264477 0.200161 -0.378752 -1.128527 -2.437241
    35 1.655652 0.261812 0.036380 0.126397 -0.305179 1.069144
    36 1.117947 0.048424 -0.005766 -0.008405 -0.060493 1.219762
    37 -0.119867 -0.158574 0.037835 0.524355 0.109100 1.461525
    38 -4.338872 7.608671 -0.258965 1.577676 -0.008834 -1.122328
    39 1.449079 -1.117134 1.509074 -0.263634 0.120136 -2.904175
    40 4.594990 7.785654 3.872275 -0.000001 0.000000 -2.696508
    41 -0.389066 -0.003800 0.000000 0.000001 0.000000 0.023980
    42 -0.350265 0.005619 0.000000 0.000000 0.000000 -0.010007
    43 -0.341040 0.002085 0.000000 0.000001 0.000000 -0.001544
    44 3.200576 21.489170 -1.230783 0.000000 0.000000 -1.250625
    45 -0.204595 19.569023 -1.230783 0.000000 0.000000 1.890968
    46 11.051978 -0.340799 -0.011297 0.000000 0.000000 1.242490
    47 5.797596 8.373769 3.872275 0.000000 0.000000 -2.675408
    48 -1.272893 31.772506 -1.242079 0.000000 0.000000 1.323576
    49 -3.249394 30.546666 -1.242079 0.000000 0.000000 -3.375906
    50 -2.866123 31.279655 -1.242079 0.000000 0.000000 -4.033216
    51 -2.092209 31.719836 -1.242079 0.000000 0.000000 1.934584
    52 0.540829 28.585277 -1.242080 0.000000 0.000000 0.349524
    53 -0.675397 31.368650 -1.242079 0.000000 0.000000 0.691524
    54 -0.171404 30.622883 -1.242079 0.000000 0.000000 0.399746
    55 0.212397 29.666497 -1.242079 0.000001 0.000000 0.369921
    56 3.453030 14.406916 -0.000001 0.000000 0.000000 1.890968
    57 8.632640 -5.077181 -0.614632 0.000000 0.000000 0.000000
    58 203.978826 -557.797258 593.219933 0.000000 0.000000 1.890968
    59 7.658112 4.437680 -1.658882 0.000000 0.000000 0.000000
  time 12
    0 2.153563 -12.357111 -7.355074 -0.723882 1.106229 0.090910
    1 9.958561 2.895949 8.450495 6.160421 -2.640523 -0.710316
    2 1.257180 8.762585 -0.153713 -1.570562 0.002683 -1.566807
    3 -0.071921 -8.498736 -0.104134 -0.824722 0.655783 -0.854340
    4 -0.488518 -2.755602 -0.228260 -0.979699 0.016588 -0.071802
    5 0.039887 -1.479790 0.029854 -1.522347 0.000000 0.000001
    6 0.028786 -1.075731 -0.023109 -0.648244 0.000000 0.000000
    7 0.250027 -2.820665 -0.238396 -0.863717 -0.002921 0.008443
    8 -0.049759 -1.680544 0.100479 -1.633952 0.000000 -0.000002
    9 -0.034142 -1.148312 0.084782 -0.802483 0.000000 0.000000
    10 0.957766 -2.746780 -0.090302 -0.624278 -0.102438 0.132186
    11 -0.033420 -1.397129 -0.011257 -1.295916 0.000000 -0.000001
    12 -0.022360 -0.957436 0.018784 -0.874776 0.000000 0.000000
    13 -1.165056 -2.643940 0.044430 -1.081907 0.210249 -0.248710
    14 -0.024967 -1.123934 0.017597 -1.397055 0.000000 0.000001
    15 -0.020057 -0.890968 0.010090 -0.728844 0.000000 0.000000
    16 0.583510 -1.197277 0.185379 -0.052102 -1.189669 -0.675037
    17 1.535927 0.010246 0.005009 0.104082 0.235093 -0.755843
    18 1.100771 0.004527 -0.010679 -0.423178 -0.515423 -1.256662
    19 0.084996 -0.058083 0.031451 -2.725129 0.102381 -1.559155
    20 -3.063823 0.815800 -3.813900 -1.279493 -5.344274 -1.591264
    21 0.096944 -8.450418 -0.009365 0.110157 -0.390999 -0.021094
    22 0.447953 -2.798986 -0.200443 -1.208615 0.224166 0.273004
    23 -0.032909 -1.480204 0.004940 -1.668020 0.000000 0.000002
    24 -0.027022 -1.076920 -0.020210 -1.321794 0.000000 0.000000
    25 -0.249534 -2.846964 -0.174213 -1.029784 0.203062 0.157890
    26 0.043235 -1.683941 0.096012 -1.852447 0.002823 -0.000167
    27 0.031729 -1.160830 0.058838 -1.143865 0.000642 0.008372
    28 -0.963866 -2.785145 -0.085350 -0.684260 0.358320 0.011787
    29 0.028479 -1.403067 0.006271 -1.707337 0.000000 0.000000
    30 0.021413 -0.957781 0.020046 -0.759293 0.000000 0.000000
    31 1.090254 -2.375966 0.075771 -1.018939 0.002358 0.424979
    32 0.024032 -1.129042 0.017807 -1.753582 0.000000 0.000001
    33 0.014898 -0.883989 -0.019848 -0.880952 0.000000 0.000000
    34 -0.586770 -1.264477 0.200161 -0.378752 -1.128527 -2.437241
    35 1.655652 0.261812 0.036380 0.126397 -0.305179 1.069144
    36 1.117947 0.048424 -0.005766 -0.008405 -0.060493 1.219762
    37 -0.119867 -0.158574 0.037835 0.524355 0.109100 1.461525
    38 -3.303685 8.038371 -0.251152 1.578970 -0.007660 -1.278346
    39 1.449079 -1.117134 1.509074 -0.263634 0.120136 -2.904175
    40 4.594990 7.785654 3.872275 -0.000001 0.000000 -2.696508
    41 -0.389066 -0.003800 0.000000 0.000001 0.000000 0.023980
    42 -0.350265 0.005619 0.000000 0.000000 0.000000 -0.010007
    43 -0.341040 0.002085 0.000000 0.000001 0.000000 -0.001544
    44 2.661497 23.114220 -1.230783 0.000000 0.000000 -1.250625
    45 0.334484 17.943974 -1.230783 0.000000 0.000000 1.890968
    46 11.169169 -0.192357 -0.011297 0.000000 0.000000 1.565115
    47 5.797596 8.373769 3.872275 0.000000 0.000000 -2.675408
    48 -2.581527 31.592813 -1.242079 0.000000 0.000000 2.124711
    49 -3.143922 29.152092 -1.242079 0.000000 0.000000 -2.903876
    50 -3.330981 30.178059 -1.242079 0.000000 0.000000 -3.093568
    51 -3.162554 30.997158 -1.242079 0.000000 0.000000 2.630754
    52 -0.017782 30.171263 -1.242080 0.000000 0.000000 0.409926
    53 -1.874652 31.813976 -1.242079 0.000000 0.000000 1.657224
    54 -1.136277 31.689322 -1.242079 0.000000 0.000000 1.105571
    55 -0.494656 31.127480 -1.242079 0.000001 0.000000 0.600469
    56 3.453030 14.406916 -0.000001 0.000000 0.000000 1.890968
    57 8.632640 -5.077181 -0.614632 0.000000 0.000000 0.000000
    58 203.978826 -557.797258 593.219933 0.000000 0.000000 1.890968
    59 7.658112 4.437680 -1.658882 0.000000 0.000000 0.000000
  time 13
    0 1.231660 -10.575806 -7.261321 -0.219896 1.040604 0.347079
    1 9.958561 2.895949 8.450495 6.160421 -2.640523 -0.710316
    2 1.257180 8.762585 -0.153713 -1.570562 0.002683 -1.566807
    3 -0.071921 -8.498736 -0.104134 -0.824722 0.655783 -0.854340
    4 -0.488518 -2.755602 -0.228260 -0.979699 0.016588 -0.071802
    5 0.039887 -1.479790 0.029854 -1.522347 0.000000 0.000001
    6 0.028786 -1.075731 -0.023109 -0.648244 0.000000 0.000000
    7 0.250027 -2.820665 -0.238396 -0.863717 -0.002921 0.008443
    8 -0.049759 -1.680544 0.100479 -1.633952 0.000000 -0.000002
    9 -0.034142 -1.148312 0.084782 -0.802483 0.000000 0.000000
    10 0.957766 -2.746780 -0.090302 -0.624278 -0.102438 0.132186
    11 -0.033420 -1.397129 -0.011257 -1.295916 0.000000 -0.000001
    12 -0.022360 -0.957436 0.018784 -0.874776 0.000000 0.000000
    13 -1.165056 -2.643940 0.044430 -1.081907 0.210249 -0.248710
    14 -0.024967 -1.123934 0.017597 -1.397055 0.000000 0.000001
    15 -0.020057 -0.890968 0.010090 -0.728844 0.000000 0.000000
    16 0.583510 -1.197277 0.185379 -0.052102 -1.189669 -0.675037
    17 1.535927 0.010246 0.005009 0.104082 0.235093 -0.755843
    18 1.100771 0.004527 -0.010679 -0.423178 -0.515407 -1.256662
    19 0.084996 -0.058083 0.031451 -2.725129 0.102381 -1.559155
    20 -2.798190 0.733766 -3.899840 -1.271322 -5.349282 -1.594520
    21 0.096944 -8.450418 -0.009365 0.169547 -0.390999 -0.021094
    22 0.447953 -2.798986 -0.200443 -1.208615 0.224166 0.273004
    23 -0.032909 -1.480204 0.004940 -1.668020 0.000000 0.000002
    24 -0.027022 -1.076920 -0.020210 -1.321794 0.000000 0.000000
    25 -0.249534 -2.846964 -0.174213 -1.029784 0.203062 0.157890
    26 0.043235 -1.683941 0.096012 -1.852447 0.002823 -0.000167
    27 0.031729 -1.160830 0.058838 -1.143865 0.000642 0.008372
    28 -0.963866 -2.785145 -0.085350 -0.684260 0.358320 0.011787
    29 0.028479 -1.403067 0.006271 -1.707337 0.000000 0.000000
    30 0.021413 -0.957781 0.020046 -0.759293 0.000000 0.000000
    31 1.090254 -2.375966 0.075771 -1.018939 0.002358 0.424979
    32 0.024032 -1.129042 0.017807 -1.753582 0.000000 0.000001
    33 0.014898 -0.883989 -0.019848 -0.880952 0.000000 0.000000
    34 -0.586770 -1.264477 0.200161 -0.378752 -1.128527 -2.437241
    35 1.655652 0.261812 0.036380 0.126397 -0.305179 1.069144
    36 1.117947 0.048424 -0.005766 -0.008405 -0.060493 1.219762
    37 -0.119867 -0.158574 0.037835 0.524355 0.109100 1.461525
    38 -2.354437 8.436821 -0.243339 1.579977 -0.006413 -1.421545
    39 1.449079 -1.117134 1.509074 -0.263634 0.120136 -2.904175
    40 4.594990 7.785654 3.872275 -0.000001 0.000000 -2.696508
    41 -0.389066 -0.003800 0.000000 0.000001 0.000000 0.023980
    42 -0.350265 0.005619 0.000000 0.000000 0.000000 -0.010007
    43 -0.341040 0.002085 0.000000 0.000001 0.000000 -0.001544
    44 3.200576 21.489170 -1.230783 0.000000 0.000000 -1.250625
    45 -0.204595 19.569023 -1.230783 0.000000 0.000000 1.890968
    46 11.051978 -0.340799 -0.011297 0.000000 0.000000 1.242490
    47 5.797596 8.373769 3.872275 0.000000 0.000000 -2.675408
    48 -1.272893 31.772506 -1.242079 0.000000 0.000000 1.323576
    49 -3.249394 30.546666 -1.242079 0.000000 0.000000 -3.375906
    50 -2.866123 31.279655 -1.242079 0.000000 0.000000 -4.033216
    51 -2.092209 31.719836 -1.242079 0.000000 0.000000 1.934584
    52 0.540829 28.585277 -1.242080 0.000000 0.000000 0.349524
    53 -0.675397 31.368650 -1.242079 0.000000 0.000000 0.691524
    54 -0.171404 30.622883 -1.242079 0.000000 0.000000 0.399746
    55 0.212397 29.666497 -1.242079 0.000001 0.000000 0.369921
    56 3.453030 14.406916 -0.000001 0.000000 0.000000 1.890968
    57 8.632640 -5.077181 -0.614632 0.000000 0.000000 0.000000
    58 203.978826 -557.797258 593.219933 0.000000 0.000000 1.890968
    59 7.658112 4.437680 -1.658882 0.000000 0.000000 0.000000
  time 14
    0 0.380072 -9.614840 -7.210538 0.042989 1.005255 0.484973
    1 9.958561 2.895949 8.450495 6.160421 -2.640523 -0.710316
    2 1.257180 8.762585 -0.153713 -1.570562 0.002683 -1.566807
    3 -0.071921 -8.498736 -0.104134 -0.824722 0.655783 -0.854340
    4 -0.488518 -2.755602 -0.228260 -0.979699 0.016588 -0.071802
    5 0.039887 -1.479790 0.029854 -1.522347 0.000000 0.000001
    6 0.028786 -1.075731 -0.023109 -0.648244 0.000000 0.000000
    7 0.250027 -2.820665 -0.238396 -0.863717 -0.002921 0.008443
    8 -0.049759 -1.680544 0.100479 -1.633952 0.000000 -0.000002
    9 -0.034142 -1.148312 0.084782 -0.802483 0.000000 0.000000
    10 0.957766 -2.746780 -0.090302 -0.624278 -0.102438 0.132186
    11 -0.033420 -1.397129 -0.011257 -1.295916 0.000000 -0.000001
    12 -0.022360 -0.957436 0.018784 -0.874776 0.000000 0.000000
    13 -1.165056 -2.643940 0.044430 -1.081907 0.210249 -0.248710
    14 -0.024967 -1.123934 0.017597 -1.397055 0.000000 0.000001
    15 -0.020057 -0.890968 0.010090 -0.728844 0.000000 0.000000
    16 0.583510 -1.197277 0.185379 -0.052102 -1.189669 -0.675037
    17 1.535927 0.010246 0.005009 0.104082 0.235093 -0.755843
    18 1.100771 0.004527 -0.010679 -0.423178 -0.515407 -1.256662
    19 0.084996 -0.058083 0.031451 -2.725129 0.102381 -1.559155
    20 -2.696624 0.702515 -3.931091 -1.268701 -5.351151 -1.595765
    21 0.096944 -8.450418 -0.009365 0.193307 -0.390999 -0.021094
    22 0.447953 -2.798986 -0.200443 -1.208615 0.224166 0.273004
    23 -0.032909 -1.480204 0.004940 -1.668020 0.000000 0.000002
    24 -0.027022 -1.076920 -0.020210 -1.321794 0.000000 0.000000
    25 -0.249534 -2.846964 -0.174213 -1.029784 0.203062 0.157890
    26 0.043235 -1.683941 0.096012 -1.852447 0.002823 -0.000167
    27 0.031729 -1.160830 0.058838 -1.143865 0.000642 0.008372
    28 -0.963866 -2.785145 -0.085350 -0.684260 0.358320 0.011787
    29 0.028479 -1.403067 0.006271 -1.707337 0.000000 0.000000
    30 0.021413 -0.957781 0.020046 -0.759293 0.000000 0.000000
    31 1.090254 -2.375966 0.075771 -1.018939 0.002358 0.424979
    32 0.024032 -1.129042 0.017807 -1.753582 0.000000 0.000001
    33 0.014898 -0.883989 -0.019848 -0.880952 0.000000 0.000000
    34 -0.586770 -1.264477 0.200161 -0.378752 -1.128527 -2.437241
    35 1.655652 0.261812 0.036380 0.126397 -0.305179 1.069144
    36 1.117947 0.048424 -0.005766 -0.008405 -0.060493 1.219762
    37 -0.119867 -0.158574 0.037835 0.524355 0.109100 1.461525
    38 -1.659103 8.729799 -0.239433 1.580600 -0.005418 -1.526243
    39 1.449079 -1.117134 1.509074 -0.263634 0.120136 -2.904175
    40 4.594990 7.785654 3.872275 -0.000001 0.000000 -2.696508
    41 -0.389066 -0.003800 0.000000 0.000001 0.000000 0.023980
    42 -0.350265 0.005619 0.000000 0.000000 0.000000 -0.010007
    43 -0.341040 0.002085 0.000000 0.000001 0.000000 -0.001544
    44 2.661497 23.114220 -1.230783 0.000000 0.000000 -1.250625
    45 0.334484 17.943974 -1.230783 0.000000 0.000000 1.890968
    46 11.169169 -0.192357 -0.011297 0.000000 0.000000 1.565115
    47 5.797596 8.373769 3.872275 0.000000 0.000000 -2.675408
    48 -2.581527 31.592813 -1.242079 0.000000 0.000000 2.124711
    49 -3.143922 29.152092 -1.242079 0.000000 0.000000 -2.903876
    50 -3.330981 30.178059 -1.242079 0.000000 0.000000 -3.093568
    51 -3.162554 30.997158 -1.242079 0.000000 0.000000 2.630754
    52 -0.017782 30.171263 -1.242080 0.000000 0.000000 0.409926
    53 -1.874652 31.813976 -1.242079 0.000000 0.000000 1.657224
    54 -1.136277 31.689322 -1.242079 0.000000 0.000000 1.105571
    55 -0.494656 31.127480 -1.242079 0.000001 0.000000 0.600469
    56 3.453030 14.406916 -0.000001 0.000000 0.000000 1.890968
    57 8.632640 -5.077181 -0.614632 0.000000 0.000000 0.000000
    58 203.978826 -557.797258 593.219933 0.000000 0.000000 1.890968
    59 7.658112 4.437680 -1.658882 0.000000 0.000000 0.000000
  time 15
    0 -0.127756 -9.876566 -7.519142 -0.150172 1.072668 0.344879
    1 9.958561 2.895949 8.450495 6.160421 -2.640523 -0.710316
    2 1.257180 8.762585 -0.153713 -1.570562 0.002683 -1.566807
    3 -0.071921 -8.498736 -0.104134 -0.824722 0.655783 -0.854340
    4 -0.488518 -2.755602 -0.228260 -0.979699 0.016588 -0.071802
    5 0.039887 -1.479790 0.029854 -1.522347 0.000000 0.000001
    6 0.028786 -1.075731 -0.023109 -0.648244 0.000000 0.000000
    7 0.250027 -2.820665 -0.238396 -0.863717 -0.002921 0.008443
    8 -0.049759 -1.680544 0.100479 -1.633952 0.000000 -0.000002
    9 -0.034142 -1.148312 0.084782 -0.802483 0.000000 0.000000
    10 0.957766 -2.746780 -0.090302 -0.624278 -0.102438 0.132186
    11 -0.033420 -1.397129 -0.011257 -1.295916 0.000000 -0.000001
    12 -0.022360 -0.957436 0.018784 -0.874776 0.000000 0.000000
    13 -1.165056 -2.643940 0.044430 -1.081907 0.210249 -0.248710
    14 -0.024967 -1.123934 0.017597 -1.397055 0.000000 0.000001
    15 -0.020057 -0.890968 0.010090 -0.728844 0.000000 0.000000
    16 0.583510 -1.197277 0.185379 -0.052102 -1.189669 -0.675037
    17 1.535927 0.010246 0.005009 0.104082 0.235093 -0.755843
    18 1.100771 0.004527 -0.010679 -0.423178 -0.515407 -1.256662
    19 0.084996 -0.058083 0.031451 -2.725129 0.102381 -1.559155
    20 -2.696624 0.702515 -3.931091 -1.268701 -5.351151 -1.595765
    21 0.096944 -8.450418 -0.009365 0.193307 -0.390999 -0.021094
    22 0.447953 -2.798986 -0.200443 -1.208615 0.224166 0.273004
    23 -0.032909 -1.480204 0.004940 -1.668020 0.000000 0.000002
    24 -0.027022 -1.076920 -0.020210 -1.321794 0.000000 0.000000
    25 -0.249534 -2.846964 -0.174213 -1.029784 0.203062 0.157890
    26 0.043235 -1.683941 0.096012 -1.852447 0.002823 -0.000167
    27 0.031729 -1.160830 0.058838 -1.143865 0.000642 0.008372
    28 -0.963866 -2.785145 -0.085350 -0.684260 0.358320 0.011787
    29 0.028479 -1.403067 0.006271 -1.707337 0.000000 0.000000
    30 0.021413 -0.957781 0.020046 -0.759293 0.000000 0.000000
    31 1.090254 -2.375966 0.075771 -1.018939 0.002358 0.424979
    32 0.024032 -1.129042 0.017807 -1.753582 0.000000 0.000001
    33 0.014898 -0.883989 -0.019848 -0.880952 0.000000 0.000000
    34 -0.586770 -1.264477 0.200161 -0.378752 -1.128527 -2.437241
    35 1.655652 0.261812 0.036380 0.126397 -0.305179 1.069144
    36 1.117947 0.048424 -0.005766 -0.008405 -0.060493 1.219762
    37 -0.119867 -0.158574 0.037835 0.524355 0.109100 1.461525
    38 -1.393470 8.839177 -0.239433 1.580804 -0.005023 -1.566847
    39 1.449079 -1.117134 1.509074 -0.263634 0.120136 -2.904175
    40 4.594990 7.785654 3.872275 -0.000001 0.000000 -2.696508
    41 -0.389066 -0.003800 0.000000 0.000001 0.000000 0.023980
    42 -0.350265 0.005619 0.000000 0.000000 0.000000 -0.010007
    43 -0.341040 0.002085 0.000000 0.000001 0.000000 -0.001544
    44 3.200576 21.489170 -1.230783 0.000000 0.000000 -1.250625
    45 -0.204595 19.569023 -1.230783 0.000000 0.000000 1.890968
    46 11.051978 -0.340799 -0.011297 0.000000 0.000000 1.242490
    47 5.797596 8.373769 3.872275 0.000000 0.000000 -2.675408
    48 -1.272893 31.772506 -1.242079 0.000000 0.000000 1.323576
    49 -3.249394 30.546666 -1.242079 0.000000 0.000000 -3.375906
    50 -2.866123 31.279655 -1.242079 0.000000 0.000000 -4.033216
    51 -2.092209 31.719836 -1.242079 0.000000 0.000000 1.934584
    52 0.540829 28.585277 -1.242080 0.000000 0.000000 0.349524
    53 -0.675397 31.368650 -1.242079 0.000000 0.000000 0.691524
    54 -0.171404 30.622883 -1.242079 0.000000 0.000000 0.399746
    55 0.212397 29.666497 -1.242079 0.000001 0.000000 0.369921
    56 3.453030 14.406916 -0.000001 0.000000 0.000000 1.890968
    57 8.632640 -5.077181 -0.614632 0.000000 0.000000 0.000000
    58 203.978826 -557.797258 593.219933 0.000000 0.000000 1.890968
    59 7.658112 4.437680 -1.658882 0.000000 0.000000 0.000000
end
