// Created by Crowbar 0.34.0.0

$ModelName "weapons/tfa_cso/w_vulcanus11.mdl"

$BodyGroup "studio"
{
	studio "v_vulcanus11"
}

$collisionmodel "v_vulcanus11.smd"
{
	$mass 9
}

$CDMaterials "models\weapons\tfa_cso\vulcanus11"

$attachment "0" "root" 0.00 -14.70 -0.30 rotate -0 0 -2

$Sequence "idle" {
	"anims\idle.smd"
	fps 30
}