version 1
nodes
  0 "scar3_root" -1
  1 "Bone002" 0
  2 "Bone001" 0
  3 "root" -1
  4 "Bone01" 3
  5 "Bone_L_Upper" 4
  6 "Bone_Lefthand" 4
  7 "Bone13" 6
  8 "Bone14" 7
  9 "Bone15" 8
  10 "Bone17" 6
  11 "Bone18" 10
  12 "Bone19" 11
  13 "Bone21" 6
  14 "Bone22" 13
  15 "Bone23" 14
  16 "Bone09" 6
  17 "Bone10" 16
  18 "Bone11" 17
  19 "Bone05" 6
  20 "Bone06" 19
  21 "Bone07" 20
  22 "Bone_Se_Hand-L" 6
  23 "Bone04" 3
  24 "Bone_Righthand" 23
  25 "Bone39" 24
  26 "Bone40" 25
  27 "Bone41" 26
  28 "Bone35" 24
  29 "Bone36" 28
  30 "Bone37" 29
  31 "Bone31" 24
  32 "Bone32" 31
  33 "Bone33" 32
  34 "Bone43" 24
  35 "Bone44" 34
  36 "Bone45" 35
  37 "Bone27" 24
  38 "Bone28" 37
  39 "Bone29" 38
  40 "Bone_Se_Hand-R" 24
  41 "Bone_R_Upper" 23
end
skeleton
  time 0
    0 5.886898 -10.254219 -5.390790 -0.466465 -1.510790 -4.323262
    1 -1.281497 0.000001 1.221859 -1.570796 3.141592 0.000000
    2 1.485246 0.257944 4.299517 -1.570796 -3.141592 -1.570796
    3 -0.862154 -0.856760 -1.276764 -0.003020 -0.360401 0.288652
    4 6.645960 0.845105 -7.440615 5.843012 -1.922966 0.025932
    5 8.073794 1.000629 -0.372470 1.568905 -3.117039 0.200689
    6 0.033551 -8.518268 -0.065070 0.236130 0.732275 0.540535
    7 -0.488518 -2.755602 -0.228260 -0.888354 0.016180 -0.254183
    8 0.039887 -1.550105 0.025948 -1.996582 -0.004231 0.044080
    9 0.028786 -1.118701 -0.097330 -0.653184 -0.012308 0.012104
    10 0.250027 -2.820665 -0.238396 -0.790618 -0.014043 -0.199190
    11 -0.049759 -1.594604 0.030164 -1.602203 -0.000683 -0.042667
    12 -0.034142 -1.171750 0.045718 -1.183572 0.006424 -0.031196
    13 0.957766 -2.746780 -0.090302 0.060619 -0.161786 0.047180
    14 -0.033420 -1.397129 -0.034695 -1.343918 -0.005920 -0.063184
    15 -0.022360 -0.957436 0.003159 -0.577884 0.008018 -0.027840
    16 -1.180681 -2.507217 -0.193859 -0.695044 0.195831 -0.247787
    17 -0.024967 -1.127840 0.017597 -1.674946 -0.016359 -0.065243
    18 -0.020057 -0.906594 0.025715 -0.860057 0.007095 -0.034791
    19 0.614761 -1.197277 0.181473 0.632193 -0.960466 -0.780381
    20 1.485144 -0.204604 0.067511 0.042194 -0.205332 -0.725373
    21 0.987486 -0.190791 0.047917 0.109955 -0.259553 -1.139795
    22 0.120153 -0.050270 -0.054489 0.287569 3.110905 1.561085
    23 -4.192764 -6.293792 -7.177284 0.227667 -4.297999 0.514199
    24 0.147727 -8.481669 -0.060148 0.205969 0.024583 -0.011822
    25 0.447953 -2.798986 -0.200443 -1.405545 0.042672 0.291160
    26 -0.032909 -1.499736 0.036191 -1.642416 0.022807 -0.033603
    27 -0.027022 -1.119890 -0.024116 -1.038028 0.022615 -0.017030
    28 -0.249534 -2.846964 -0.174213 -1.168927 0.058647 0.186330
    29 0.043235 -1.656596 0.056948 -1.760380 -0.024610 0.013699
    30 0.031729 -1.145205 0.058838 -0.891798 -0.009617 0.005424
    31 -0.963866 -2.785145 -0.085350 -1.129370 0.129450 0.064099
    32 0.028479 -1.414786 -0.028886 -1.440957 -0.046189 -0.038566
    33 0.021413 -0.949968 0.020046 -0.553441 -0.010594 -0.022507
    34 1.164475 -2.543940 -0.170330 -1.416440 -0.167668 0.428443
    35 0.024032 -1.148574 -0.009538 -1.320520 0.024724 0.063543
    36 0.014898 -0.907427 -0.004223 -1.472304 0.028931 0.066982
    37 -0.586770 -1.264477 0.200161 0.274218 -0.737009 -2.830893
    38 1.581431 0.035243 0.016848 -0.025340 -0.007470 1.123357
    39 1.114041 0.040611 -0.005766 -0.029138 -0.034294 1.047061
    40 -0.076897 -0.076541 -0.044199 0.248098 0.161054 1.615347
    41 -5.694383 6.678955 -0.364437 1.580421 -0.020627 -0.973765
  time 1
    0 6.480667 -8.140873 -5.437666 -1.032702 -1.443226 -3.684704
    1 -1.281497 0.000001 1.221859 -1.570796 3.141592 0.000000
    2 1.485246 0.257944 2.295550 -1.570796 -3.141592 -1.570796
    3 -0.862154 -0.856760 -1.276764 -0.003020 -0.360401 0.288652
    4 7.306136 2.731881 -6.854660 5.589242 -1.987948 0.294976
    5 7.890195 -1.015057 -0.399814 -1.569124 -0.028396 -3.189729
    6 0.021832 -8.545613 -0.068977 0.292102 0.637556 0.647446
    7 -0.488518 -2.755602 -0.228260 -0.888354 0.016180 -0.254183
    8 0.039887 -1.550105 0.025948 -1.996582 -0.004231 0.044080
    9 0.028786 -1.118701 -0.097330 -0.653184 -0.012308 0.012104
    10 0.250027 -2.820665 -0.238396 -0.790618 -0.014043 -0.199190
    11 -0.049759 -1.594604 0.030164 -1.602203 -0.000683 -0.042667
    12 -0.034142 -1.171750 0.045718 -1.183572 0.006424 -0.031196
    13 0.957766 -2.746780 -0.090302 0.060619 -0.161786 0.047180
    14 -0.033420 -1.397129 -0.034695 -1.343918 -0.005920 -0.063184
    15 -0.022360 -0.957436 -0.000748 -0.804401 0.006615 -0.039178
    16 -1.180681 -2.507217 -0.193859 -0.695044 0.195831 -0.247787
    17 -0.024967 -1.127840 0.017597 -1.674946 -0.016359 -0.065243
    18 -0.020057 -0.906594 0.025715 -0.860057 0.007095 -0.034791
    19 0.614761 -1.197277 0.181473 0.632193 -0.960466 -0.780381
    20 1.485144 -0.204604 0.067511 0.042194 -0.205332 -0.725373
    21 0.987486 -0.190791 0.047917 0.109955 -0.259553 -1.139795
    22 0.120153 -0.050270 -0.054489 0.287569 3.110905 1.561085
    23 -4.141981 -5.332825 -8.099187 0.346251 -4.309808 0.769163
    24 0.132101 -8.466044 -0.044522 0.135355 -0.053873 0.020998
    25 0.447953 -2.798986 -0.200443 -1.405545 0.042672 0.291160
    26 -0.032909 -1.499736 0.036191 -1.642416 0.022807 -0.033603
    27 -0.027022 -1.119890 -0.024116 -1.038028 0.022615 -0.017042
    28 -0.249534 -2.846964 -0.174213 -1.168927 0.058647 0.186330
    29 0.043235 -1.656596 0.056948 -1.760380 -0.024610 0.013699
    30 0.031729 -1.145205 0.058838 -0.891798 -0.009617 0.005424
    31 -0.963866 -2.785145 -0.085350 -1.129370 0.129450 0.064099
    32 0.028479 -1.414786 -0.028886 -1.440957 -0.046189 -0.038566
    33 0.021413 -0.949968 0.020046 -0.553441 -0.010594 -0.022507
    34 1.164475 -2.543940 -0.170330 -1.416440 -0.167668 0.428443
    35 0.024032 -1.148574 -0.009538 -1.320520 0.024724 0.063543
    36 0.014898 -0.907427 -0.004223 -1.472304 0.028931 0.066982
    37 -0.586770 -1.264477 0.200161 0.274218 -0.737009 -2.830893
    38 1.581431 0.035243 0.016848 -0.025340 -0.007470 1.123357
    39 1.114041 0.040611 -0.005766 -0.029138 -0.034294 1.047061
    40 -0.076897 -0.076541 -0.044199 0.248098 0.161054 1.615347
    41 -7.190522 4.745302 -0.415220 1.576876 -0.027710 -0.675704
  time 2
    0 6.574419 -7.910398 -5.218909 -0.857928 -1.415031 -3.836108
    1 -1.281497 0.000001 1.221859 -1.570796 3.141592 0.000000
    2 1.485246 0.257944 0.287676 -1.570796 -3.141592 -1.570796
    3 -0.862154 -0.856760 -1.276764 -0.003020 -0.360401 0.288652
    4 7.353012 2.884230 -6.768719 5.581578 -1.993485 0.305446
    5 7.843318 -1.218189 -0.403721 -1.568645 -0.028777 -3.215313
    6 0.025738 -8.553426 -0.068977 0.332230 0.615667 0.691640
    7 -0.488518 -2.755602 -0.228260 -0.888354 0.016180 -0.254183
    8 0.039887 -1.550105 0.025948 -1.996582 -0.004231 0.044080
    9 0.028786 -1.118701 -0.097330 -0.653184 -0.012308 0.012104
    10 0.250027 -2.820665 -0.238396 -0.790618 -0.014043 -0.199190
    11 -0.049759 -1.594604 0.030164 -1.602203 -0.000683 -0.042667
    12 -0.034142 -1.171750 0.045718 -1.183572 0.006424 -0.031196
    13 0.957766 -2.746780 -0.090302 0.060619 -0.161786 0.047180
    14 -0.033420 -1.397129 -0.034695 -1.343918 -0.005920 -0.063184
    15 -0.022360 -0.957436 -0.000748 -0.814668 0.006484 -0.039681
    16 -1.180681 -2.507217 -0.193859 -0.695044 0.195831 -0.247787
    17 -0.024967 -1.127840 0.017597 -1.674946 -0.016359 -0.065243
    18 -0.020057 -0.906594 0.025715 -0.860057 0.007095 -0.034791
    19 0.614761 -1.197277 0.181473 0.632193 -0.960466 -0.780381
    20 1.485144 -0.204604 0.067511 0.042194 -0.205332 -0.725373
    21 0.987486 -0.190791 0.047917 0.109955 -0.259553 -1.139795
    22 0.120153 -0.050270 -0.054489 0.287569 3.110905 1.561085
    23 -4.032602 -5.457829 -7.974183 0.409601 -4.301023 0.836707
    24 0.132101 -8.450418 -0.048429 0.024661 -0.068809 0.021078
    25 0.447953 -2.798986 -0.200443 -1.405545 0.042672 0.291160
    26 -0.032909 -1.499736 0.036191 -1.642416 0.022807 -0.033603
    27 -0.027022 -1.119890 -0.024116 -1.038028 0.022615 -0.017042
    28 -0.249534 -2.846964 -0.174213 -1.168927 0.058647 0.186330
    29 0.043235 -1.656596 0.056948 -1.760380 -0.024610 0.013699
    30 0.031729 -1.145205 0.058838 -0.891798 -0.009617 0.005424
    31 -0.963866 -2.785145 -0.085350 -1.129370 0.129450 0.064099
    32 0.028479 -1.414786 -0.028886 -1.440957 -0.046189 -0.038566
    33 0.021413 -0.949968 0.020046 -0.553441 -0.010594 -0.022507
    34 1.164475 -2.543940 -0.170330 -1.416440 -0.167668 0.428443
    35 0.024032 -1.148574 -0.009538 -1.320520 0.024724 0.063543
    36 0.014898 -0.907427 -0.004223 -1.472304 0.028931 0.066982
    37 -0.586770 -1.264477 0.200161 0.274218 -0.737009 -2.830893
    38 1.581431 0.035243 0.016848 -0.025340 -0.007470 1.123357
    39 1.114041 0.040611 -0.005766 -0.029138 -0.034294 1.047061
    40 -0.076897 -0.076541 -0.044199 0.248098 0.161054 1.615347
    41 -7.163177 4.792179 -0.415220 1.576971 -0.027519 -0.682501
  time 3
    0 6.590045 -8.066652 -5.109531 -0.725259 -1.405339 -3.962613
    1 -1.281497 0.000001 1.221859 -1.570796 3.141592 0.000000
    2 1.485246 0.257944 1.326770 -1.570796 -3.141592 -1.570796
    3 -0.862154 -0.856760 -1.276764 -0.003020 -0.360401 0.288652
    4 7.310042 2.708443 -6.854660 5.610893 -1.985211 0.275801
    5 7.882382 -1.050215 -0.399814 -1.569028 -0.028491 -3.194406
    6 0.025738 -8.557332 -0.068977 0.352409 0.615998 0.704675
    7 -0.488518 -2.755602 -0.228260 -0.888354 0.016180 -0.254183
    8 0.039887 -1.550105 0.025948 -1.996582 -0.004231 0.044080
    9 0.028786 -1.118701 -0.097330 -0.653184 -0.012308 0.012104
    10 0.250027 -2.820665 -0.238396 -0.790618 -0.014043 -0.199190
    11 -0.049759 -1.594604 0.030164 -1.602203 -0.000683 -0.042667
    12 -0.034142 -1.171750 0.045718 -1.183572 0.006424 -0.031196
    13 0.957766 -2.746780 -0.090302 0.060619 -0.161786 0.047180
    14 -0.033420 -1.397129 -0.034695 -1.343918 -0.005920 -0.063184
    15 -0.022360 -0.957436 -0.000748 -0.773476 0.006951 -0.037656
    16 -1.180681 -2.507217 -0.193859 -0.695044 0.195831 -0.247787
    17 -0.024967 -1.127840 0.017597 -1.674946 -0.016359 -0.065243
    18 -0.020057 -0.906594 0.025715 -0.860057 0.007095 -0.034791
    19 0.614761 -1.197277 0.181473 0.632193 -0.960466 -0.780381
    20 1.485144 -0.204604 0.067511 0.042194 -0.205332 -0.725373
    21 0.987486 -0.190791 0.047917 0.109955 -0.259553 -1.139795
    22 0.120153 -0.050270 -0.054489 0.287569 3.110905 1.561085
    23 -3.923224 -5.649241 -7.790583 0.426441 -4.297495 0.846274
    24 0.136008 -8.450418 -0.052335 0.010820 -0.044167 0.018858
    25 0.447953 -2.798986 -0.200443 -1.405545 0.042672 0.291160
    26 -0.032909 -1.499736 0.036191 -1.642416 0.022807 -0.033603
    27 -0.027022 -1.119890 -0.024116 -1.038028 0.022615 -0.017042
    28 -0.249534 -2.846964 -0.174213 -1.168927 0.058647 0.186330
    29 0.043235 -1.656596 0.056948 -1.760380 -0.024610 0.013699
    30 0.031729 -1.145205 0.058838 -0.891798 -0.009617 0.005424
    31 -0.963866 -2.785145 -0.085350 -1.129370 0.129450 0.064099
    32 0.028479 -1.414786 -0.028886 -1.440957 -0.046189 -0.038566
    33 0.021413 -0.949968 0.020046 -0.553441 -0.010594 -0.022507
    34 1.164475 -2.543940 -0.170330 -1.416440 -0.167668 0.428443
    35 0.024032 -1.148574 -0.009538 -1.320520 0.024724 0.063543
    36 0.014898 -0.907427 -0.004223 -1.472304 0.028931 0.066982
    37 -0.586770 -1.264477 0.200161 0.274218 -0.737009 -2.830893
    38 1.581431 0.035243 0.016848 -0.025340 -0.007470 1.123357
    39 1.114041 0.040611 -0.005766 -0.029138 -0.034294 1.047061
    40 -0.076897 -0.076541 -0.044199 0.248098 0.161054 1.615347
    41 -6.979578 5.100782 -0.407407 1.577546 -0.026562 -0.726320
  time 4
    0 6.562700 -8.179937 -5.175939 -0.782822 -1.417814 -3.910996
    1 -1.281497 0.000001 1.221859 -1.570796 3.141592 0.000000
    2 1.485246 0.257944 3.260423 -1.570796 -3.141592 -1.570796
    3 -0.862154 -0.856760 -1.276764 -0.003020 -0.360401 0.288652
    4 7.290511 2.642035 -6.889817 5.620760 -1.982284 0.265566
    5 7.898008 -0.979900 -0.399814 -1.569124 -0.028301 -3.185760
    6 0.025738 -8.553426 -0.068977 0.338521 0.625217 0.683236
    7 -0.488518 -2.755602 -0.228260 -0.888354 0.016180 -0.254183
    8 0.039887 -1.550105 0.025948 -1.996582 -0.004231 0.044080
    9 0.028786 -1.118701 -0.097330 -0.653184 -0.012308 0.012104
    10 0.250027 -2.820665 -0.238396 -0.790618 -0.014043 -0.199190
    11 -0.049759 -1.594604 0.030164 -1.602203 -0.000683 -0.042667
    12 -0.034142 -1.171750 0.045718 -1.183572 0.006424 -0.031196
    13 0.957766 -2.746780 -0.090302 0.060619 -0.161786 0.047180
    14 -0.033420 -1.397129 -0.034695 -1.343918 -0.005920 -0.063184
    15 -0.022360 -0.957436 -0.000748 -0.725340 0.007394 -0.035259
    16 -1.180681 -2.507217 -0.193859 -0.695044 0.195831 -0.247787
    17 -0.024967 -1.127840 0.017597 -1.674946 -0.016359 -0.065243
    18 -0.020057 -0.906594 0.025715 -0.860057 0.007095 -0.034791
    19 0.614761 -1.197277 0.181473 0.632193 -0.960466 -0.780381
    20 1.485144 -0.204604 0.067511 0.042194 -0.205332 -0.725373
    21 0.987486 -0.190791 0.047917 0.109955 -0.259553 -1.139795
    22 0.120153 -0.050270 -0.054489 0.287569 3.110905 1.561085
    23 -3.942756 -5.629709 -7.821834 0.402794 -4.301743 0.821113
    24 0.136008 -8.454325 -0.052335 0.051273 -0.029854 0.026371
    25 0.447953 -2.798986 -0.200443 -1.405545 0.042672 0.291160
    26 -0.032909 -1.499736 0.036191 -1.642416 0.022807 -0.033603
    27 -0.027022 -1.119890 -0.024116 -1.038028 0.022615 -0.017042
    28 -0.249534 -2.846964 -0.174213 -1.168927 0.058647 0.186330
    29 0.043235 -1.656596 0.056948 -1.760380 -0.024610 0.013699
    30 0.031729 -1.145205 0.058838 -0.891798 -0.009617 0.005424
    31 -0.963866 -2.785145 -0.085350 -1.129370 0.129450 0.064099
    32 0.028479 -1.414786 -0.028886 -1.440957 -0.046189 -0.038566
    33 0.021413 -0.949968 0.020046 -0.553441 -0.010594 -0.022507
    34 1.164475 -2.543940 -0.170330 -1.416440 -0.167668 0.428443
    35 0.024032 -1.148574 -0.009538 -1.320520 0.024724 0.063543
    36 0.014898 -0.907427 -0.004223 -1.472304 0.028931 0.066982
    37 -0.586770 -1.264477 0.200161 0.274218 -0.737009 -2.830893
    38 1.581431 0.035243 0.016848 -0.025340 -0.007470 1.123357
    39 1.114041 0.040611 -0.005766 -0.029138 -0.034294 1.047061
    40 -0.076897 -0.076541 -0.044199 0.248098 0.161054 1.615347
    41 -6.960046 5.132033 -0.407407 1.577642 -0.026466 -0.730702
  time 5
    0 6.515824 -8.328379 -5.308756 -0.921276 -1.437707 -3.784012
    1 -1.281497 0.000001 1.221859 -1.570796 3.141592 0.000000
    2 1.485246 0.257944 4.299517 -1.570796 -3.141592 -1.570796
    3 -0.862154 -0.856760 -1.276764 -0.003020 -0.360401 0.288652
    4 7.267072 2.567814 -6.924974 5.629957 -1.979165 0.255802
    5 7.917539 -0.897866 -0.399814 -1.569316 -0.028205 -3.175200
    6 0.025738 -8.545613 -0.068977 0.311782 0.639069 0.647217
    7 -0.488518 -2.755602 -0.228260 -0.888354 0.016180 -0.254183
    8 0.039887 -1.550105 0.025948 -1.996582 -0.004231 0.044080
    9 0.028786 -1.118701 -0.097330 -0.653184 -0.012308 0.012104
    10 0.250027 -2.820665 -0.238396 -0.790618 -0.014043 -0.199190
    11 -0.049759 -1.594604 0.030164 -1.602203 -0.000683 -0.042667
    12 -0.034142 -1.171750 0.045718 -1.183572 0.006424 -0.031196
    13 0.957766 -2.746780 -0.090302 0.060619 -0.161786 0.047180
    14 -0.033420 -1.397129 -0.034695 -1.343918 -0.005920 -0.063184
    15 -0.022360 -0.957436 0.003159 -0.666588 0.007778 -0.032310
    16 -1.180681 -2.507217 -0.193859 -0.695044 0.195831 -0.247787
    17 -0.024967 -1.127840 0.017597 -1.674946 -0.016359 -0.065243
    18 -0.020057 -0.906594 0.025715 -0.860057 0.007095 -0.034791
    19 0.614761 -1.197277 0.181473 0.632193 -0.960466 -0.780381
    20 1.485144 -0.204604 0.067511 0.042194 -0.205332 -0.725373
    21 0.987486 -0.190791 0.047917 0.109955 -0.259553 -1.139795
    22 0.120153 -0.050270 -0.054489 0.287569 3.110905 1.561085
    23 -4.005258 -5.567208 -7.896055 0.359602 -4.307720 0.774616
    24 0.136008 -8.458231 -0.052335 0.106248 -0.021433 0.035606
    25 0.447953 -2.798986 -0.200443 -1.405545 0.042672 0.291160
    26 -0.032909 -1.499736 0.036191 -1.642416 0.022807 -0.033603
    27 -0.027022 -1.119890 -0.024116 -1.038028 0.022615 -0.017042
    28 -0.249534 -2.846964 -0.174213 -1.168927 0.058647 0.186330
    29 0.043235 -1.656596 0.056948 -1.760380 -0.024610 0.013699
    30 0.031729 -1.145205 0.058838 -0.891798 -0.009617 0.005424
    31 -0.963866 -2.785145 -0.085350 -1.129370 0.129450 0.064099
    32 0.028479 -1.414786 -0.028886 -1.440957 -0.046189 -0.038566
    33 0.021413 -0.949968 0.020046 -0.553441 -0.010594 -0.022507
    34 1.164475 -2.543940 -0.170330 -1.416440 -0.167668 0.428443
    35 0.024032 -1.148574 -0.009538 -1.320520 0.024724 0.063543
    36 0.014898 -0.907427 -0.004223 -1.472304 0.028931 0.066982
    37 -0.586770 -1.264477 0.200161 0.274236 -0.737009 -2.830893
    38 1.581431 0.035243 0.016848 -0.025340 -0.007470 1.123357
    39 1.114041 0.040611 -0.005766 -0.029138 -0.034294 1.047061
    40 -0.076897 -0.076541 -0.044199 0.248098 0.161054 1.615347
    41 -6.960046 5.135939 -0.407407 1.577642 -0.026466 -0.731149
  time 6
    0 6.453322 -8.504166 -5.449385 -1.098800 -1.456395 -3.619967
    1 -1.281497 0.000001 1.221859 -1.570796 3.141592 0.000000
    2 1.485246 0.257944 4.194045 -1.570796 -3.141592 -1.570796
    3 -0.862154 -0.856760 -1.276764 -0.003020 -0.360401 0.288652
    4 7.235821 2.462342 -6.975757 5.641357 -1.975155 0.243332
    5 7.940978 -0.780675 -0.395908 -1.569603 -0.028015 -3.160388
    6 0.021832 -8.537800 -0.068977 0.282626 0.654221 0.609141
    7 -0.488518 -2.755602 -0.228260 -0.888354 0.016180 -0.254183
    8 0.039887 -1.550105 0.025948 -1.996582 -0.004231 0.044080
    9 0.028786 -1.118701 -0.097330 -0.653184 -0.012308 0.012104
    10 0.250027 -2.820665 -0.238396 -0.790618 -0.014043 -0.199190
    11 -0.049759 -1.594604 0.030164 -1.602203 -0.000683 -0.042667
    12 -0.034142 -1.171750 0.045718 -1.183572 0.006424 -0.031196
    13 0.957766 -2.746780 -0.090302 0.060619 -0.161786 0.047180
    14 -0.033420 -1.397129 -0.034695 -1.343918 -0.005920 -0.063184
    15 -0.022360 -0.957436 0.003159 -0.612357 0.007970 -0.029578
    16 -1.180681 -2.507217 -0.193859 -0.695044 0.195831 -0.247787
    17 -0.024967 -1.127840 0.017597 -1.674946 -0.016359 -0.065243
    18 -0.020057 -0.906594 0.025715 -0.860057 0.007095 -0.034791
    19 0.614761 -1.197277 0.181473 0.632193 -0.960466 -0.780381
    20 1.485144 -0.204604 0.067511 0.042194 -0.205332 -0.725373
    21 0.987486 -0.190791 0.047917 0.109955 -0.259553 -1.139795
    22 0.120153 -0.050270 -0.054489 0.287569 3.110905 1.561085
    23 -4.083385 -5.520331 -7.954651 0.313093 -4.311969 0.719892
    24 0.136008 -8.462138 -0.052335 0.145647 -0.021433 0.042460
    25 0.447953 -2.798986 -0.200443 -1.405545 0.042672 0.291160
    26 -0.032909 -1.499736 0.036191 -1.642416 0.022807 -0.033603
    27 -0.027022 -1.119890 -0.024116 -1.038028 0.022615 -0.017042
    28 -0.249534 -2.846964 -0.174213 -1.168927 0.058647 0.186330
    29 0.043235 -1.656596 0.056948 -1.760380 -0.024610 0.013699
    30 0.031729 -1.145205 0.058838 -0.891798 -0.009617 0.005424
    31 -0.963866 -2.785145 -0.085350 -1.129370 0.129450 0.064099
    32 0.028479 -1.414786 -0.028886 -1.440957 -0.046189 -0.038566
    33 0.021413 -0.949968 0.020046 -0.553441 -0.010594 -0.022507
    34 1.164475 -2.543940 -0.170330 -1.416440 -0.167668 0.428443
    35 0.024032 -1.148574 -0.009538 -1.320520 0.024724 0.063543
    36 0.014898 -0.907427 -0.004223 -1.472304 0.028931 0.066982
    37 -0.586770 -1.264477 0.200161 0.274218 -0.737009 -2.830893
    38 1.581431 0.035243 0.016848 -0.025340 -0.007470 1.123357
    39 1.114041 0.040611 -0.005766 -0.029138 -0.034294 1.047061
    40 -0.076897 -0.076541 -0.044199 0.248098 0.161054 1.615347
    41 -6.936608 5.167190 -0.407407 1.577738 -0.026370 -0.735799
  time 7
    0 6.394726 -8.703391 -5.539232 -1.213640 -1.470724 -3.517212
    1 -1.281497 0.000001 1.221859 -1.570796 3.141592 0.000000
    2 1.485246 0.257944 4.299517 -1.570796 -3.141592 -1.570796
    3 -0.862154 -0.856760 -1.276764 -0.003020 -0.360401 0.288652
    4 7.188945 2.309993 -7.042165 5.658409 -1.969364 0.224745
    5 7.968322 -0.608795 -0.395908 -1.569891 -0.027633 -3.138986
    6 0.021832 -8.533894 -0.065070 0.262294 0.668475 0.582442
    7 -0.488518 -2.755602 -0.228260 -0.888354 0.016180 -0.254183
    8 0.039887 -1.550105 0.025948 -1.996582 -0.004231 0.044080
    9 0.028786 -1.118701 -0.097330 -0.653184 -0.012308 0.012104
    10 0.250027 -2.820665 -0.238396 -0.790618 -0.014043 -0.199190
    11 -0.049759 -1.594604 0.030164 -1.602203 -0.000683 -0.042667
    12 -0.034142 -1.171750 0.045718 -1.183572 0.006424 -0.031196
    13 0.957766 -2.746780 -0.090302 0.060619 -0.161786 0.047180
    14 -0.033420 -1.397129 -0.034695 -1.343918 -0.005920 -0.063184
    15 -0.022360 -0.957436 0.003159 -0.577884 0.008018 -0.027840
    16 -1.180681 -2.507217 -0.193859 -0.695044 0.195831 -0.247787
    17 -0.024967 -1.127840 0.017597 -1.674946 -0.016359 -0.065243
    18 -0.020057 -0.906594 0.025715 -0.860057 0.007095 -0.034791
    19 0.614761 -1.197277 0.181473 0.632193 -0.960466 -0.780381
    20 1.485144 -0.204604 0.067511 0.042194 -0.205332 -0.725373
    21 0.987486 -0.190791 0.047917 0.109955 -0.259553 -1.139795
    22 0.120153 -0.050270 -0.054489 0.287569 3.110905 1.561085
    23 -4.145887 -5.535957 -7.954651 0.281069 -4.312113 0.675118
    24 0.136008 -8.466044 -0.048429 0.162262 -0.022339 0.044954
    25 0.447953 -2.798986 -0.200443 -1.405545 0.042672 0.291160
    26 -0.032909 -1.499736 0.036191 -1.642416 0.022807 -0.033603
    27 -0.027022 -1.119890 -0.024116 -1.038028 0.022615 -0.017042
    28 -0.249534 -2.846964 -0.174213 -1.168927 0.058647 0.186330
    29 0.043235 -1.656596 0.056948 -1.760380 -0.024610 0.013699
    30 0.031729 -1.145205 0.058838 -0.891798 -0.009617 0.005424
    31 -0.963866 -2.785145 -0.085350 -1.129370 0.129450 0.064099
    32 0.028479 -1.414786 -0.028886 -1.440957 -0.046189 -0.038566
    33 0.021413 -0.949968 0.020046 -0.553441 -0.010594 -0.022507
    34 1.164475 -2.543940 -0.170330 -1.416440 -0.167668 0.428443
    35 0.024032 -1.148574 -0.009538 -1.320520 0.024724 0.063543
    36 0.014898 -0.907427 -0.004223 -1.472304 0.028931 0.066982
    37 -0.586770 -1.264477 0.200161 0.274218 -0.737009 -2.830893
    38 1.581431 0.035243 0.016848 -0.025340 -0.007470 1.123357
    39 1.114041 0.040611 -0.005766 -0.029138 -0.034294 1.047061
    40 -0.076897 -0.076541 -0.044199 0.248098 0.161054 1.615347
    41 -6.874106 5.268756 -0.403501 1.577930 -0.025987 -0.750287
  time 8
    0 6.332224 -8.949492 -5.566576 -1.204537 -1.484543 -3.537610
    1 -1.281497 0.000001 1.221859 -1.570796 3.141592 0.000000
    2 1.485246 0.257944 4.299517 -1.570796 -3.141592 -1.570796
    3 -0.862154 -0.856760 -1.276764 -0.003020 -0.360401 0.288652
    4 7.118630 2.091237 -7.132012 5.683891 -1.961408 0.197217
    5 8.007386 -0.362694 -0.392002 -1.570370 -0.027252 -3.108866
    6 0.025738 -8.529987 -0.065070 0.252396 0.683273 0.568835
    7 -0.488518 -2.755602 -0.228260 -0.888354 0.016180 -0.254183
    8 0.039887 -1.550105 0.025948 -1.996582 -0.004231 0.044080
    9 0.028786 -1.118701 -0.097330 -0.653184 -0.012308 0.012104
    10 0.250027 -2.820665 -0.238396 -0.790618 -0.014043 -0.199190
    11 -0.049759 -1.594604 0.030164 -1.602203 -0.000683 -0.042667
    12 -0.034142 -1.171750 0.045718 -1.183572 0.006424 -0.031196
    13 0.957766 -2.746780 -0.090302 0.060619 -0.161786 0.047180
    14 -0.033420 -1.397129 -0.034695 -1.343918 -0.005920 -0.063184
    15 -0.022360 -0.957436 0.003159 -0.564295 0.008018 -0.027157
    16 -1.180681 -2.507217 -0.193859 -0.695044 0.195831 -0.247787
    17 -0.024967 -1.127840 0.017597 -1.674946 -0.016359 -0.065243
    18 -0.020057 -0.906594 0.025715 -0.860057 0.007095 -0.034791
    19 0.614761 -1.197277 0.181473 0.632193 -0.960466 -0.780381
    20 1.485144 -0.204604 0.067511 0.042194 -0.205332 -0.725373
    21 0.987486 -0.190791 0.047917 0.109955 -0.259553 -1.139795
    22 0.120153 -0.050270 -0.054489 0.287569 3.110905 1.561085
    23 -4.181044 -5.629709 -7.876524 0.266148 -4.308656 0.643642
    24 0.139914 -8.466044 -0.052335 0.169360 -0.015334 0.045082
    25 0.447953 -2.798986 -0.200443 -1.405545 0.042672 0.291160
    26 -0.032909 -1.499736 0.036191 -1.642416 0.022807 -0.033603
    27 -0.027022 -1.119890 -0.024116 -1.038028 0.022615 -0.017042
    28 -0.249534 -2.846964 -0.174213 -1.168927 0.058647 0.186330
    29 0.043235 -1.656596 0.056948 -1.760380 -0.024610 0.013699
    30 0.031729 -1.145205 0.058838 -0.891798 -0.009617 0.005424
    31 -0.963866 -2.785145 -0.085350 -1.129370 0.129450 0.064099
    32 0.028479 -1.414786 -0.028886 -1.440957 -0.046189 -0.038566
    33 0.021413 -0.949968 0.020046 -0.553441 -0.010594 -0.022507
    34 1.164475 -2.543940 -0.170330 -1.416440 -0.167668 0.428443
    35 0.024032 -1.148574 -0.009538 -1.320520 0.024724 0.063543
    36 0.014898 -0.907427 -0.004223 -1.472304 0.028931 0.066982
    37 -0.586770 -1.264477 0.200161 0.274218 -0.737009 -2.830893
    38 1.581431 0.035243 0.016848 -0.025340 -0.007470 1.123357
    39 1.114041 0.040611 -0.005766 -0.029138 -0.034294 1.047061
    40 -0.076897 -0.076541 -0.044199 0.248098 0.161054 1.615347
    41 -6.749102 5.448449 -0.399594 1.578313 -0.025413 -0.776847
  time 9
    0 6.254097 -9.238563 -5.558763 -1.105438 -1.499522 -3.648888
    1 -1.281497 0.000001 1.221859 -1.570796 3.141592 0.000000
    2 1.485246 0.257944 4.299517 -1.570796 -3.141592 -1.570796
    3 -0.862154 -0.856760 -1.276764 -0.003020 -0.360401 0.288652
    4 7.024877 1.817791 -7.225765 5.716175 -1.952116 0.162277
    5 8.042543 -0.065810 -0.388095 1.570727 -3.114846 0.069651
    6 0.029645 -8.526081 -0.065070 0.245875 0.700009 0.559630
    7 -0.488518 -2.755602 -0.228260 -0.888354 0.016180 -0.254183
    8 0.039887 -1.550105 0.025948 -1.996582 -0.004231 0.044080
    9 0.028786 -1.118701 -0.097330 -0.653184 -0.012308 0.012104
    10 0.250027 -2.820665 -0.238396 -0.790618 -0.014043 -0.199190
    11 -0.049759 -1.594604 0.030164 -1.602203 -0.000683 -0.042667
    12 -0.034142 -1.171750 0.045718 -1.183572 0.006424 -0.031196
    13 0.957766 -2.746780 -0.090302 0.060619 -0.161786 0.047180
    14 -0.033420 -1.397129 -0.034695 -1.343918 -0.005920 -0.063184
    15 -0.022360 -0.957436 0.003159 -0.560499 0.008018 -0.026965
    16 -1.180681 -2.507217 -0.193859 -0.695044 0.195831 -0.247787
    17 -0.024967 -1.127840 0.017597 -1.674946 -0.016359 -0.065243
    18 -0.020057 -0.906594 0.025715 -0.860057 0.007095 -0.034791
    19 0.614761 -1.197277 0.181473 0.632193 -0.960466 -0.780381
    20 1.485144 -0.204604 0.067511 0.042194 -0.205332 -0.725373
    21 0.987486 -0.190791 0.047917 0.109955 -0.259553 -1.139795
    22 0.120153 -0.050270 -0.054489 0.287569 3.110905 1.561085
    23 -4.208389 -5.762526 -7.755426 0.258906 -4.303687 0.615706
    24 0.139914 -8.466044 -0.052335 0.170430 -0.004835 0.043908
    25 0.447953 -2.798986 -0.200443 -1.405545 0.042672 0.291160
    26 -0.032909 -1.499736 0.036191 -1.642416 0.022807 -0.033603
    27 -0.027022 -1.119890 -0.024116 -1.038028 0.022615 -0.017042
    28 -0.249534 -2.846964 -0.174213 -1.168927 0.058647 0.186330
    29 0.043235 -1.656596 0.056948 -1.760380 -0.024610 0.013699
    30 0.031729 -1.145205 0.058838 -0.891798 -0.009617 0.005424
    31 -0.963866 -2.785145 -0.085350 -1.129370 0.129450 0.064099
    32 0.028479 -1.414786 -0.028886 -1.440957 -0.046189 -0.038566
    33 0.021413 -0.949968 0.020046 -0.553441 -0.010594 -0.022507
    34 1.164475 -2.543940 -0.170330 -1.416440 -0.167668 0.428443
    35 0.024032 -1.148574 -0.009538 -1.320520 0.024724 0.063543
    36 0.014898 -0.907427 -0.004223 -1.472304 0.028931 0.066982
    37 -0.586770 -1.264477 0.200161 0.274236 -0.737009 -2.830893
    38 1.581431 0.035243 0.016848 -0.025340 -0.007470 1.123357
    39 1.114041 0.040611 -0.005766 -0.029138 -0.034294 1.047061
    40 -0.076897 -0.076541 -0.044199 0.248098 0.161054 1.615347
    41 -6.581128 5.682831 -0.395688 1.578696 -0.024551 -0.811634
  time 10
    0 6.164251 -9.547166 -5.527512 -0.897378 -1.512367 -3.869434
    1 -1.281497 0.000001 1.221859 -1.570796 3.141592 0.000000
    2 1.485246 0.257944 4.299517 -1.570796 -3.141592 -1.570796
    3 -0.862154 -0.856760 -1.276764 -0.003020 -0.360401 0.288652
    4 6.919405 1.528719 -7.307798 5.752291 -1.942632 0.123279
    5 8.065982 0.254513 -0.384189 1.570152 -3.115514 0.109196
    6 0.029645 -8.522175 -0.065070 0.241923 0.717052 0.553856
    7 -0.488518 -2.755602 -0.228260 -0.888354 0.016180 -0.254183
    8 0.039887 -1.550105 0.025948 -1.996582 -0.004231 0.044080
    9 0.028786 -1.118701 -0.097330 -0.653184 -0.012308 0.012104
    10 0.250027 -2.820665 -0.238396 -0.790618 -0.014043 -0.199190
    11 -0.049759 -1.594604 0.030164 -1.602203 -0.000683 -0.042667
    12 -0.034142 -1.171750 0.045718 -1.183572 0.006424 -0.031196
    13 0.957766 -2.746780 -0.090302 0.060619 -0.161786 0.047180
    14 -0.033420 -1.397129 -0.034695 -1.343918 -0.005920 -0.063184
    15 -0.022360 -0.957436 0.003159 -0.563196 0.008018 -0.027097
    16 -1.180681 -2.507217 -0.193859 -0.695044 0.195831 -0.247787
    17 -0.024967 -1.127840 0.017597 -1.674946 -0.016359 -0.065243
    18 -0.020057 -0.906594 0.025715 -0.860057 0.007095 -0.034791
    19 0.614761 -1.197277 0.181473 0.632193 -0.960466 -0.780381
    20 1.485144 -0.204604 0.067511 0.042194 -0.205332 -0.725373
    21 0.987486 -0.190791 0.047917 0.109955 -0.259553 -1.139795
    22 0.120153 -0.050270 -0.054489 0.287569 3.110905 1.561085
    23 -4.231827 -5.914874 -7.599171 0.257160 -4.298287 0.591406
    24 0.143820 -8.466044 -0.056241 0.167826 0.007570 0.041366
    25 0.447953 -2.798986 -0.200443 -1.405545 0.042672 0.291160
    26 -0.032909 -1.499736 0.036191 -1.642416 0.022807 -0.033603
    27 -0.027022 -1.119890 -0.024116 -1.038028 0.022615 -0.017042
    28 -0.249534 -2.846964 -0.174213 -1.168927 0.058647 0.186330
    29 0.043235 -1.656596 0.056948 -1.760380 -0.024610 0.013699
    30 0.031729 -1.145205 0.058838 -0.891798 -0.009617 0.005424
    31 -0.963866 -2.785145 -0.085350 -1.129370 0.129450 0.064099
    32 0.028479 -1.414786 -0.028886 -1.440957 -0.046189 -0.038566
    33 0.021413 -0.949968 0.020046 -0.553441 -0.010594 -0.022507
    34 1.164475 -2.543940 -0.170330 -1.416440 -0.167668 0.428443
    35 0.024032 -1.148574 -0.009538 -1.320520 0.024724 0.063543
    36 0.014898 -0.907427 -0.004223 -1.472304 0.028931 0.066982
    37 -0.586770 -1.264477 0.200161 0.274218 -0.737009 -2.830893
    38 1.581431 0.035243 0.016848 -0.025340 -0.007470 1.123357
    39 1.114041 0.040611 -0.005766 -0.029138 -0.034294 1.047061
    40 -0.076897 -0.076541 -0.044199 0.248098 0.161054 1.615347
    41 -6.377997 5.936745 -0.387875 1.579175 -0.023594 -0.851250
  time 11
    0 6.070498 -9.840144 -5.472823 -0.595151 -1.519647 -4.183350
    1 -1.281497 0.000001 1.221859 -1.570796 3.141592 0.000000
    2 1.485246 0.257944 4.299517 -1.570796 -3.141592 -1.570796
    3 -0.862154 -0.856760 -1.276764 -0.003020 -0.360401 0.288652
    4 6.810027 1.247461 -7.374207 5.788599 -1.934104 0.084282
    5 8.077701 0.563116 -0.380282 1.569577 -3.116086 0.147041
    6 0.033551 -8.522175 -0.065070 0.239660 0.732724 0.550197
    7 -0.488518 -2.755602 -0.228260 -0.888354 0.016180 -0.254183
    8 0.039887 -1.550105 0.025948 -1.996582 -0.004231 0.044080
    9 0.028786 -1.118701 -0.097330 -0.653184 -0.012308 0.012104
    10 0.250027 -2.820665 -0.238396 -0.790618 -0.014043 -0.199190
    11 -0.049759 -1.594604 0.030164 -1.602203 -0.000683 -0.042667
    12 -0.034142 -1.171750 0.045718 -1.183572 0.006424 -0.031196
    13 0.957766 -2.746780 -0.090302 0.060619 -0.161786 0.047180
    14 -0.033420 -1.397129 -0.034695 -1.343918 -0.005920 -0.063184
    15 -0.022360 -0.957436 0.003159 -0.569192 0.008018 -0.027397
    16 -1.180681 -2.507217 -0.193859 -0.695044 0.195831 -0.247787
    17 -0.024967 -1.127840 0.017597 -1.674946 -0.016359 -0.065243
    18 -0.020057 -0.906594 0.025715 -0.860057 0.007095 -0.034791
    19 0.614761 -1.197277 0.181473 0.632193 -0.960466 -0.780381
    20 1.485144 -0.204604 0.067511 0.042194 -0.205332 -0.725373
    21 0.987486 -0.190791 0.047917 0.109955 -0.259553 -1.139795
    22 0.120153 -0.050270 -0.054489 0.287569 3.110905 1.561085
    23 -4.247453 -6.067223 -7.435104 0.258295 -4.293462 0.570549
    24 0.143820 -8.466044 -0.060148 0.163982 0.020146 0.037521
    25 0.447953 -2.798986 -0.200443 -1.405545 0.042672 0.291160
    26 -0.032909 -1.499736 0.036191 -1.642416 0.022807 -0.033603
    27 -0.027022 -1.119890 -0.024116 -1.038028 0.022615 -0.017042
    28 -0.249534 -2.846964 -0.174213 -1.168927 0.058647 0.186330
    29 0.043235 -1.656596 0.056948 -1.760380 -0.024610 0.013699
    30 0.031729 -1.145205 0.058838 -0.891798 -0.009617 0.005424
    31 -0.963866 -2.785145 -0.085350 -1.129370 0.129450 0.064099
    32 0.028479 -1.414786 -0.028886 -1.440957 -0.046189 -0.038566
    33 0.021413 -0.949968 0.020046 -0.553441 -0.010594 -0.022507
    34 1.164475 -2.543940 -0.170330 -1.416440 -0.167668 0.428443
    35 0.024032 -1.148574 -0.009538 -1.320520 0.024724 0.063543
    36 0.014898 -0.907427 -0.004223 -1.472304 0.028931 0.066982
    37 -0.586770 -1.264477 0.200161 0.274218 -0.737009 -2.830893
    38 1.581431 0.035243 0.016848 -0.025340 -0.007470 1.123357
    39 1.114041 0.040611 -0.005766 -0.029138 -0.034294 1.047061
    40 -0.076897 -0.076541 -0.044199 0.248098 0.161054 1.615347
    41 -6.163147 6.190659 -0.380062 1.579654 -0.022637 -0.891582
  time 12
    0 5.980651 -10.086245 -5.422040 -0.302407 -1.520621 -4.485871
    1 -1.281497 0.000001 1.221859 -1.570796 3.141592 0.000000
    2 1.485246 0.257944 4.299517 -1.570796 -3.141592 -1.570796
    3 -0.862154 -0.856760 -1.276764 -0.003020 -0.360401 0.288652
    4 6.712368 1.005266 -7.417177 5.820500 -1.927357 0.049989
    5 8.077701 0.824842 -0.376376 1.569193 -3.116658 0.178932
    6 0.037457 -8.518268 -0.065070 0.238125 0.745347 0.547567
    7 -0.488518 -2.755602 -0.228260 -0.888354 0.016180 -0.254183
    8 0.039887 -1.550105 0.025948 -1.996582 -0.004231 0.044080
    9 0.028786 -1.118701 -0.097330 -0.653184 -0.012308 0.012104
    10 0.250027 -2.820665 -0.238396 -0.790618 -0.014043 -0.199190
    11 -0.049759 -1.594604 0.030164 -1.602203 -0.000683 -0.042667
    12 -0.034142 -1.171750 0.045718 -1.183572 0.006424 -0.031196
    13 0.957766 -2.746780 -0.090302 0.060619 -0.161786 0.047180
    14 -0.033420 -1.397129 -0.034695 -1.343918 -0.005920 -0.063184
    15 -0.022360 -0.957436 0.003159 -0.575162 0.008018 -0.027708
    16 -1.180681 -2.507217 -0.193859 -0.695044 0.195831 -0.247787
    17 -0.024967 -1.127840 0.017597 -1.674946 -0.016359 -0.065243
    18 -0.020057 -0.906594 0.025715 -0.860057 0.007095 -0.034791
    19 0.614761 -1.197277 0.181473 0.632193 -0.960466 -0.780381
    20 1.485144 -0.204604 0.067511 0.042194 -0.205332 -0.725373
    21 0.987486 -0.190791 0.047917 0.109955 -0.259553 -1.139795
    22 0.120153 -0.050270 -0.054489 0.287569 3.110905 1.561085
    23 -4.259172 -6.200039 -7.282755 0.259604 -4.290077 0.553137
    24 0.143820 -8.466044 -0.060148 0.161378 0.030946 0.032775
    25 0.447953 -2.798986 -0.200443 -1.405545 0.042672 0.291160
    26 -0.032909 -1.499736 0.036191 -1.642416 0.022807 -0.033603
    27 -0.027022 -1.119890 -0.024116 -1.038028 0.022615 -0.017042
    28 -0.249534 -2.846964 -0.174213 -1.168927 0.058647 0.186330
    29 0.043235 -1.656596 0.056948 -1.760380 -0.024610 0.013699
    30 0.031729 -1.145205 0.058838 -0.891798 -0.009617 0.005424
    31 -0.963866 -2.785145 -0.085350 -1.129370 0.129450 0.064099
    32 0.028479 -1.414786 -0.028886 -1.440957 -0.046189 -0.038566
    33 0.021413 -0.949968 0.020046 -0.553441 -0.010594 -0.022507
    34 1.164475 -2.543940 -0.170330 -1.416440 -0.167668 0.428443
    35 0.024032 -1.148574 -0.009538 -1.320520 0.024724 0.063543
    36 0.014898 -0.907427 -0.004223 -1.472304 0.028931 0.066982
    37 -0.586770 -1.264477 0.200161 0.274218 -0.737009 -2.830893
    38 1.581431 0.035243 0.016848 -0.025340 -0.007470 1.123357
    39 1.114041 0.040611 -0.005766 -0.029138 -0.034294 1.047061
    40 -0.076897 -0.076541 -0.044199 0.248098 0.161054 1.615347
    41 -5.960016 6.409415 -0.372250 1.580037 -0.021775 -0.927800
  time 13
    0 5.914243 -10.258126 -5.382977 -0.128201 -1.519230 -4.666770
    1 -1.281497 0.000001 1.221859 -1.570796 3.141592 0.000000
    2 1.485246 0.257944 4.299517 -1.570796 -3.141592 -1.570796
    3 -0.862154 -0.856760 -1.276764 -0.003020 -0.360401 0.288652
    4 6.645960 0.845105 -7.440615 5.843012 -1.922966 0.025932
    5 8.073794 1.000629 -0.372470 1.568905 -3.117039 0.200689
    6 0.037457 -8.518268 -0.065070 0.236360 0.753171 0.544708
    7 -0.488518 -2.755602 -0.228260 -0.888354 0.016180 -0.254183
    8 0.039887 -1.550105 0.025948 -1.996582 -0.004231 0.044080
    9 0.028786 -1.118701 -0.097330 -0.653184 -0.012308 0.012104
    10 0.250027 -2.820665 -0.238396 -0.790618 -0.014043 -0.199190
    11 -0.049759 -1.594604 0.030164 -1.602203 -0.000683 -0.042667
    12 -0.034142 -1.171750 0.045718 -1.183572 0.006424 -0.031196
    13 0.957766 -2.746780 -0.090302 0.060619 -0.161786 0.047180
    14 -0.033420 -1.397129 -0.034695 -1.343918 -0.005920 -0.063184
    15 -0.022360 -0.957436 0.003159 -0.577884 0.008018 -0.027840
    16 -1.180681 -2.507217 -0.193859 -0.695044 0.195831 -0.247787
    17 -0.024967 -1.127840 0.017597 -1.674946 -0.016359 -0.065243
    18 -0.020057 -0.906594 0.025715 -0.860057 0.007095 -0.034791
    19 0.614761 -1.197277 0.181473 0.632193 -0.960466 -0.780381
    20 1.485144 -0.204604 0.067511 0.042194 -0.205332 -0.725373
    21 0.987486 -0.190791 0.047917 0.109955 -0.259553 -1.139795
    22 0.120153 -0.050270 -0.054489 0.287569 3.110905 1.561085
    23 -4.263078 -6.285980 -7.177284 0.258556 -4.288493 0.539360
    24 0.147727 -8.469950 -0.064054 0.162463 0.037990 0.027916
    25 0.447953 -2.798986 -0.200443 -1.405545 0.042672 0.291160
    26 -0.032909 -1.499736 0.036191 -1.642416 0.022807 -0.033603
    27 -0.027022 -1.119890 -0.024116 -1.038028 0.022615 -0.017042
    28 -0.249534 -2.846964 -0.174213 -1.168927 0.058647 0.186330
    29 0.043235 -1.656596 0.056948 -1.760380 -0.024610 0.013699
    30 0.031729 -1.145205 0.058838 -0.891798 -0.009617 0.005424
    31 -0.963866 -2.785145 -0.085350 -1.129370 0.129450 0.064099
    32 0.028479 -1.414786 -0.028886 -1.440957 -0.046189 -0.038566
    33 0.021413 -0.949968 0.020046 -0.553441 -0.010594 -0.022507
    34 1.164475 -2.543940 -0.170330 -1.416440 -0.167668 0.428443
    35 0.024032 -1.148574 -0.009538 -1.320520 0.024724 0.063543
    36 0.014898 -0.907427 -0.004223 -1.472304 0.028931 0.066982
    37 -0.586770 -1.264477 0.200161 0.274236 -0.737009 -2.830893
    38 1.581431 0.035243 0.016848 -0.025340 -0.007470 1.123357
    39 1.114041 0.040611 -0.005766 -0.029138 -0.034294 1.047061
    40 -0.076897 -0.076541 -0.044199 0.248098 0.161054 1.615347
    41 -5.811574 6.565670 -0.368343 1.580229 -0.021105 -0.953913
  time 14
    0 5.875179 -10.347972 -5.363445 -0.071303 -1.518302 1.556205
    1 -1.281497 0.000001 1.221859 -1.570796 3.141592 0.000000
    2 1.485246 0.257944 4.299517 -1.570796 -3.141592 -1.570796
    3 -0.862154 -0.856760 -1.276764 -0.003020 -0.360401 0.288652
    4 6.610802 0.759165 -7.448428 5.854891 -1.920802 0.013227
    5 8.069888 1.090476 -0.372470 1.568810 -3.117230 0.211887
    6 0.037457 -8.518268 -0.065070 0.234672 0.755961 0.542021
    7 -0.488518 -2.755602 -0.228260 -0.888354 0.016180 -0.254183
    8 0.039887 -1.550105 0.025948 -1.996582 -0.004231 0.044080
    9 0.028786 -1.118701 -0.097330 -0.653184 -0.012308 0.012104
    10 0.250027 -2.820665 -0.238396 -0.790618 -0.014043 -0.199190
    11 -0.049759 -1.594604 0.030164 -1.602203 -0.000683 -0.042667
    12 -0.034142 -1.171750 0.045718 -1.183572 0.006424 -0.031196
    13 0.957766 -2.746780 -0.090302 0.060619 -0.161786 0.047180
    14 -0.033420 -1.397129 -0.034695 -1.343918 -0.005920 -0.063184
    15 -0.022360 -0.957436 0.003159 -0.577884 0.008018 -0.027840
    16 -1.180681 -2.507217 -0.193859 -0.695044 0.195831 -0.247787
    17 -0.024967 -1.127840 0.017597 -1.674946 -0.016359 -0.065243
    18 -0.020057 -0.906594 0.025715 -0.860057 0.007095 -0.034791
    19 0.614761 -1.197277 0.181473 0.632193 -0.960466 -0.780381
    20 1.485144 -0.204604 0.067511 0.042194 -0.205332 -0.725373
    21 0.987486 -0.190791 0.047917 0.109955 -0.259553 -1.139795
    22 0.120153 -0.050270 -0.054489 0.287569 3.110905 1.561085
    23 -4.263078 -6.328950 -7.122594 0.255241 -4.288565 0.529889
    24 0.147727 -8.469950 -0.064054 0.166865 0.040784 0.022993
    25 0.447953 -2.798986 -0.200443 -1.405545 0.042672 0.291160
    26 -0.032909 -1.499736 0.036191 -1.642416 0.022807 -0.033603
    27 -0.027022 -1.119890 -0.024116 -1.038028 0.022615 -0.017042
    28 -0.249534 -2.846964 -0.174213 -1.168927 0.058647 0.186330
    29 0.043235 -1.656596 0.056948 -1.760380 -0.024610 0.013699
    30 0.031729 -1.145205 0.058838 -0.891798 -0.009617 0.005424
    31 -0.963866 -2.785145 -0.085350 -1.129370 0.129450 0.064099
    32 0.028479 -1.414786 -0.028886 -1.440957 -0.046189 -0.038566
    33 0.021413 -0.949968 0.020046 -0.553441 -0.010594 -0.022507
    34 1.164475 -2.543940 -0.170330 -1.416440 -0.167668 0.428443
    35 0.024032 -1.148574 -0.009538 -1.320520 0.024724 0.063543
    36 0.014898 -0.907427 -0.004223 -1.472304 0.028931 0.066982
    37 -0.586770 -1.264477 0.200161 0.274218 -0.737009 -2.830893
    38 1.581431 0.035243 0.016848 -0.025340 -0.007470 1.123357
    39 1.114041 0.040611 -0.005766 -0.029138 -0.034294 1.047061
    40 -0.076897 -0.076541 -0.044199 0.248098 0.161054 1.615347
    41 -5.721727 6.647704 -0.364437 1.580421 -0.020722 -0.968757
  time 15
    0 5.855647 -10.383129 -5.355632 -0.083062 -1.517607 1.567026
    1 -1.281497 0.000001 1.221859 -1.570796 3.141592 0.000000
    2 1.485246 0.257944 4.299517 -1.570796 -3.141592 -1.570796
    3 -0.862154 -0.856760 -1.276764 -0.003020 -0.360401 0.288652
    4 6.595177 0.727914 -7.452334 5.859490 -1.919974 0.008286
    5 8.069888 1.125633 -0.372470 1.568714 -3.117325 0.216281
    6 0.037457 -8.518268 -0.065070 0.233982 0.755228 0.540592
    7 -0.488518 -2.755602 -0.228260 -0.888354 0.016180 -0.254183
    8 0.039887 -1.550105 0.025948 -1.996582 -0.004231 0.044080
    9 0.028786 -1.118701 -0.097330 -0.653184 -0.012308 0.012104
    10 0.250027 -2.820665 -0.238396 -0.790618 -0.014043 -0.199190
    11 -0.049759 -1.594604 0.030164 -1.602203 -0.000683 -0.042667
    12 -0.034142 -1.171750 0.045718 -1.183572 0.006424 -0.031196
    13 0.957766 -2.746780 -0.090302 0.060619 -0.161786 0.047180
    14 -0.033420 -1.397129 -0.034695 -1.343918 -0.005920 -0.063184
    15 -0.022360 -0.957436 0.003159 -0.577884 0.008018 -0.027840
    16 -1.180681 -2.507217 -0.193859 -0.695044 0.195831 -0.247787
    17 -0.024967 -1.127840 0.017597 -1.674946 -0.016359 -0.065243
    18 -0.020057 -0.906594 0.025715 -0.860057 0.007095 -0.034791
    19 0.614761 -1.197277 0.181473 0.632193 -0.960466 -0.780381
    20 1.485144 -0.204604 0.067511 0.042194 -0.205332 -0.725373
    21 0.987486 -0.190791 0.047917 0.109955 -0.259553 -1.139795
    22 0.120153 -0.050270 -0.054489 0.287569 3.110905 1.561085
    23 -4.255265 -6.348481 -7.099156 0.251314 -4.289429 0.523957
    24 0.147727 -8.473857 -0.064054 0.172336 0.040671 0.017619
    25 0.447953 -2.798986 -0.200443 -1.405545 0.042672 0.291160
    26 -0.032909 -1.499736 0.036191 -1.642416 0.022807 -0.033603
    27 -0.027022 -1.119890 -0.024116 -1.038028 0.022615 -0.017042
    28 -0.249534 -2.846964 -0.174213 -1.168927 0.058647 0.186330
    29 0.043235 -1.656596 0.056948 -1.760380 -0.024610 0.013699
    30 0.031729 -1.145205 0.058838 -0.891798 -0.009617 0.005424
    31 -0.963866 -2.785145 -0.085350 -1.129370 0.129450 0.064099
    32 0.028479 -1.414786 -0.028886 -1.440957 -0.046189 -0.038566
    33 0.021413 -0.949968 0.020046 -0.553441 -0.010594 -0.022507
    34 1.164475 -2.543940 -0.170330 -1.416440 -0.167668 0.428443
    35 0.024032 -1.148574 -0.009538 -1.320520 0.024724 0.063543
    36 0.014898 -0.907427 -0.004223 -1.472304 0.028931 0.066982
    37 -0.586770 -1.264477 0.200161 0.274218 -0.737009 -2.830893
    38 1.581431 0.035243 0.016848 -0.025340 -0.007470 1.123357
    39 1.114041 0.040611 -0.005766 -0.029138 -0.034294 1.047061
    40 -0.076897 -0.076541 -0.044199 0.248098 0.161054 1.615347
    41 -5.678757 6.690674 -0.364437 1.580421 -0.020531 -0.976359
  time 16
    0 5.855647 -10.375317 -5.359539 -0.142426 -1.516958 -4.655661
    1 -1.281497 0.000001 1.221859 -1.570796 3.141592 0.000000
    2 1.485246 0.257944 4.299517 -1.570796 -3.141592 -1.570796
    3 -0.862154 -0.856760 -1.276764 -0.003020 -0.360401 0.288652
    4 6.599083 0.731820 -7.452334 5.858819 -1.920102 0.008991
    5 8.069888 1.121727 -0.372470 1.568714 -3.117325 0.215643
    6 0.037457 -8.518268 -0.065070 0.234059 0.751919 0.540135
    7 -0.488518 -2.755602 -0.228260 -0.888354 0.016180 -0.254183
    8 0.039887 -1.550105 0.025948 -1.996582 -0.004231 0.044080
    9 0.028786 -1.118701 -0.097330 -0.653184 -0.012308 0.012104
    10 0.250027 -2.820665 -0.238396 -0.790618 -0.014043 -0.199190
    11 -0.049759 -1.594604 0.030164 -1.602203 -0.000683 -0.042667
    12 -0.034142 -1.171750 0.045718 -1.183572 0.006424 -0.031196
    13 0.957766 -2.746780 -0.090302 0.060619 -0.161786 0.047180
    14 -0.033420 -1.397129 -0.034695 -1.343918 -0.005920 -0.063184
    15 -0.022360 -0.957436 0.003159 -0.577884 0.008018 -0.027840
    16 -1.180681 -2.507217 -0.193859 -0.695044 0.195831 -0.247787
    17 -0.024967 -1.127840 0.017597 -1.674946 -0.016359 -0.065243
    18 -0.020057 -0.906594 0.025715 -0.860057 0.007095 -0.034791
    19 0.614761 -1.197277 0.181473 0.632193 -0.960466 -0.780381
    20 1.485144 -0.204604 0.067511 0.042194 -0.205332 -0.725373
    21 0.987486 -0.190791 0.047917 0.109955 -0.259553 -1.139795
    22 0.120153 -0.050270 -0.054489 0.287569 3.110905 1.561085
    23 -4.247453 -6.344575 -7.103063 0.246864 -4.290870 0.520704
    24 0.147727 -8.473857 -0.064054 0.178613 0.038462 0.011924
    25 0.447953 -2.798986 -0.200443 -1.405545 0.042672 0.291160
    26 -0.032909 -1.499736 0.036191 -1.642416 0.022807 -0.033603
    27 -0.027022 -1.119890 -0.024116 -1.038028 0.022615 -0.017042
    28 -0.249534 -2.846964 -0.174213 -1.168927 0.058647 0.186330
    29 0.043235 -1.656596 0.056948 -1.760380 -0.024610 0.013699
    30 0.031729 -1.145205 0.058838 -0.891798 -0.009617 0.005424
    31 -0.963866 -2.785145 -0.085350 -1.129370 0.129450 0.064099
    32 0.028479 -1.414786 -0.028886 -1.440957 -0.046189 -0.038566
    33 0.021413 -0.949968 0.020046 -0.553441 -0.010594 -0.022507
    34 1.164475 -2.543940 -0.170330 -1.416440 -0.167668 0.428443
    35 0.024032 -1.148574 -0.009538 -1.320520 0.024724 0.063543
    36 0.014898 -0.907427 -0.004223 -1.472304 0.028931 0.066982
    37 -0.586770 -1.264477 0.200161 0.274218 -0.737009 -2.830893
    38 1.581431 0.035243 0.016848 -0.025340 -0.007470 1.123357
    39 1.114041 0.040611 -0.005766 -0.029138 -0.034294 1.047061
    40 -0.076897 -0.076541 -0.044199 0.248098 0.161054 1.615347
    41 -5.667038 6.706300 -0.364437 1.580517 -0.020531 -0.978416
  time 17
    0 5.863460 -10.347972 -5.367351 -0.229576 -1.515984 -4.566409
    1 -1.281497 0.000001 1.221859 -1.570796 3.141592 0.000000
    2 1.485246 0.257944 4.299517 -1.570796 -3.141592 -1.570796
    3 -0.862154 -0.856760 -1.276764 -0.003020 -0.360401 0.288652
    4 6.610802 0.759165 -7.448428 5.854891 -1.920802 0.013227
    5 8.069888 1.090476 -0.372470 1.568810 -3.117230 0.211887
    6 0.037457 -8.518268 -0.065070 0.234557 0.747002 0.540249
    7 -0.488518 -2.755602 -0.228260 -0.888354 0.016180 -0.254183
    8 0.039887 -1.550105 0.025948 -1.996582 -0.004231 0.044080
    9 0.028786 -1.118701 -0.097330 -0.653184 -0.012308 0.012104
    10 0.250027 -2.820665 -0.238396 -0.790618 -0.014043 -0.199190
    11 -0.049759 -1.594604 0.030164 -1.602203 -0.000683 -0.042667
    12 -0.034142 -1.171750 0.045718 -1.183572 0.006424 -0.031196
    13 0.957766 -2.746780 -0.090302 0.060619 -0.161786 0.047180
    14 -0.033420 -1.397129 -0.034695 -1.343918 -0.005920 -0.063184
    15 -0.022360 -0.957436 0.003159 -0.577884 0.008018 -0.027840
    16 -1.180681 -2.507217 -0.193859 -0.695044 0.195831 -0.247787
    17 -0.024967 -1.127840 0.017597 -1.674946 -0.016359 -0.065243
    18 -0.020057 -0.906594 0.025715 -0.860057 0.007095 -0.034791
    19 0.614761 -1.197277 0.181473 0.632193 -0.960466 -0.780381
    20 1.485144 -0.204604 0.067511 0.042194 -0.205332 -0.725373
    21 0.987486 -0.190791 0.047917 0.109955 -0.259553 -1.139795
    22 0.120153 -0.050270 -0.054489 0.287569 3.110905 1.561085
    23 -4.231827 -6.332856 -7.122594 0.242152 -4.292670 0.519174
    24 0.147727 -8.477763 -0.060148 0.185417 0.034931 0.006020
    25 0.447953 -2.798986 -0.200443 -1.405545 0.042672 0.291160
    26 -0.032909 -1.499736 0.036191 -1.642416 0.022807 -0.033603
    27 -0.027022 -1.119890 -0.024116 -1.038028 0.022615 -0.017030
    28 -0.249534 -2.846964 -0.174213 -1.168927 0.058647 0.186330
    29 0.043235 -1.656596 0.056948 -1.760380 -0.024610 0.013699
    30 0.031729 -1.145205 0.058838 -0.891798 -0.009617 0.005424
    31 -0.963866 -2.785145 -0.085350 -1.129370 0.129450 0.064099
    32 0.028479 -1.414786 -0.028886 -1.440957 -0.046189 -0.038566
    33 0.021413 -0.949968 0.020046 -0.553441 -0.010594 -0.022507
    34 1.164475 -2.543940 -0.170330 -1.416440 -0.167668 0.428443
    35 0.024032 -1.148574 -0.009538 -1.320520 0.024724 0.063543
    36 0.014898 -0.907427 -0.004223 -1.472304 0.028931 0.066982
    37 -0.586770 -1.264477 0.200161 0.274218 -0.737009 -2.830893
    38 1.581431 0.035243 0.016848 -0.025340 -0.007470 1.123357
    39 1.114041 0.040611 -0.005766 -0.029138 -0.034294 1.047061
    40 -0.076897 -0.076541 -0.044199 0.248098 0.161054 1.615347
    41 -5.674851 6.698487 -0.364437 1.580517 -0.020531 -0.977164
  time 18
    0 5.875179 -10.305002 -5.379070 -0.324597 -1.514546 -4.468920
    1 -1.281497 0.000001 1.221859 -1.570796 3.141592 0.000000
    2 1.485246 0.257944 4.299517 -1.570796 -3.141592 -1.570796
    3 -0.862154 -0.856760 -1.276764 -0.003020 -0.360401 0.288652
    4 6.626428 0.798228 -7.444521 5.849623 -1.921757 0.018873
    5 8.073794 1.051412 -0.372470 1.568810 -3.117134 0.206926
    6 0.033551 -8.518268 -0.065070 0.235286 0.741447 0.540592
    7 -0.488518 -2.755602 -0.228260 -0.888354 0.016180 -0.254183
    8 0.039887 -1.550105 0.025948 -1.996582 -0.004231 0.044080
    9 0.028786 -1.118701 -0.097330 -0.653184 -0.012308 0.012104
    10 0.250027 -2.820665 -0.238396 -0.790618 -0.014043 -0.199190
    11 -0.049759 -1.594604 0.030164 -1.602203 -0.000683 -0.042667
    12 -0.034142 -1.171750 0.045718 -1.183572 0.006424 -0.031196
    13 0.957766 -2.746780 -0.090302 0.060619 -0.161786 0.047180
    14 -0.033420 -1.397129 -0.034695 -1.343918 -0.005920 -0.063184
    15 -0.022360 -0.957436 0.003159 -0.577884 0.008018 -0.027840
    16 -1.180681 -2.507217 -0.193859 -0.695044 0.195831 -0.247787
    17 -0.024967 -1.127840 0.017597 -1.674946 -0.016359 -0.065243
    18 -0.020057 -0.906594 0.025715 -0.860057 0.007095 -0.034791
    19 0.614761 -1.197277 0.181473 0.632193 -0.960466 -0.780381
    20 1.485144 -0.204604 0.067511 0.042194 -0.205332 -0.725373
    21 0.987486 -0.190791 0.047917 0.109955 -0.259553 -1.139795
    22 0.120153 -0.050270 -0.054489 0.287569 3.110905 1.561085
    23 -4.220108 -6.317230 -7.146033 0.237265 -4.294614 0.518217
    24 0.147727 -8.477763 -0.060148 0.192454 0.030928 0.000003
    25 0.447953 -2.798986 -0.200443 -1.405545 0.042672 0.291160
    26 -0.032909 -1.499736 0.036191 -1.642416 0.022807 -0.033603
    27 -0.027022 -1.119890 -0.024116 -1.038028 0.022615 -0.017042
    28 -0.249534 -2.846964 -0.174213 -1.168927 0.058647 0.186330
    29 0.043235 -1.656596 0.056948 -1.760380 -0.024610 0.013699
    30 0.031729 -1.145205 0.058838 -0.891798 -0.009617 0.005424
    31 -0.963866 -2.785145 -0.085350 -1.129370 0.129450 0.064099
    32 0.028479 -1.414786 -0.028886 -1.440957 -0.046189 -0.038566
    33 0.021413 -0.949968 0.020046 -0.553441 -0.010594 -0.022507
    34 1.164475 -2.543940 -0.170330 -1.416440 -0.167668 0.428443
    35 0.024032 -1.148574 -0.009538 -1.320520 0.024724 0.063543
    36 0.014898 -0.907427 -0.004223 -1.472304 0.028931 0.066982
    37 -0.586770 -1.264477 0.200161 0.274218 -0.737009 -2.830893
    38 1.581431 0.035243 0.016848 -0.025340 -0.007470 1.123357
    39 1.114041 0.040611 -0.005766 -0.029138 -0.034294 1.047061
    40 -0.076897 -0.076541 -0.044199 0.248098 0.161054 1.615347
    41 -5.690476 6.682861 -0.364437 1.580421 -0.020627 -0.974570
  time 19
    0 5.886898 -10.269845 -5.386883 -0.408618 -1.512645 -4.382636
    1 -1.281497 0.000001 1.221859 -1.570796 3.141592 0.000000
    2 1.485246 0.257944 4.299517 -1.570796 -3.141592 -1.570796
    3 -0.862154 -0.856760 -1.276764 -0.003020 -0.360401 0.288652
    4 6.638147 0.829479 -7.440615 5.845024 -1.922584 0.023814
    5 8.073794 1.016255 -0.372470 1.568905 -3.117039 0.202603
    6 0.033551 -8.518268 -0.065070 0.235862 0.736223 0.540764
    7 -0.488518 -2.755602 -0.228260 -0.888354 0.016180 -0.254183
    8 0.039887 -1.550105 0.025948 -1.996582 -0.004231 0.044080
    9 0.028786 -1.118701 -0.097330 -0.653184 -0.012308 0.012104
    10 0.250027 -2.820665 -0.238396 -0.790618 -0.014043 -0.199190
    11 -0.049759 -1.594604 0.030164 -1.602203 -0.000683 -0.042667
    12 -0.034142 -1.171750 0.045718 -1.183572 0.006424 -0.031196
    13 0.957766 -2.746780 -0.090302 0.060619 -0.161786 0.047180
    14 -0.033420 -1.397129 -0.034695 -1.343918 -0.005920 -0.063184
    15 -0.022360 -0.957436 0.003159 -0.577884 0.008018 -0.027840
    16 -1.180681 -2.507217 -0.193859 -0.695044 0.195831 -0.247787
    17 -0.024967 -1.127840 0.017597 -1.674946 -0.016359 -0.065243
    18 -0.020057 -0.906594 0.025715 -0.860057 0.007095 -0.034791
    19 0.614761 -1.197277 0.181473 0.632193 -0.960466 -0.780381
    20 1.485144 -0.204604 0.067511 0.042194 -0.205332 -0.725373
    21 0.987486 -0.190791 0.047917 0.109955 -0.259553 -1.139795
    22 0.120153 -0.050270 -0.054489 0.287569 3.110905 1.561085
    23 -4.204483 -6.301605 -7.169471 0.232379 -4.296486 0.516973
    24 0.147727 -8.481669 -0.060148 0.199413 0.027208 -0.005966
    25 0.447953 -2.798986 -0.200443 -1.405545 0.042672 0.291160
    26 -0.032909 -1.499736 0.036191 -1.642416 0.022807 -0.033603
    27 -0.027022 -1.119890 -0.024116 -1.038028 0.022615 -0.017042
    28 -0.249534 -2.846964 -0.174213 -1.168927 0.058647 0.186330
    29 0.043235 -1.656596 0.056948 -1.760380 -0.024610 0.013699
    30 0.031729 -1.145205 0.058838 -0.891798 -0.009617 0.005424
    31 -0.963866 -2.785145 -0.085350 -1.129370 0.129450 0.064099
    32 0.028479 -1.414786 -0.028886 -1.440957 -0.046189 -0.038566
    33 0.021413 -0.949968 0.020046 -0.553441 -0.010594 -0.022507
    34 1.164475 -2.543940 -0.170330 -1.416440 -0.167668 0.428443
    35 0.024032 -1.148574 -0.009538 -1.320520 0.024724 0.063543
    36 0.014898 -0.907427 -0.004223 -1.472304 0.028931 0.066982
    37 -0.586770 -1.264477 0.200161 0.274218 -0.737009 -2.830893
    38 1.581431 0.035243 0.016848 -0.025340 -0.007470 1.123357
    39 1.114041 0.040611 -0.005766 -0.029138 -0.034294 1.047061
    40 -0.076897 -0.076541 -0.044199 0.248098 0.161054 1.615347
    41 -5.698289 6.671142 -0.364437 1.580421 -0.020627 -0.972782
  time 20
    0 5.886898 -10.254219 -5.390790 -0.466465 -1.510790 -4.323262
    1 -1.281497 0.000001 1.221859 -1.570796 3.141592 0.000000
    2 1.485246 0.257944 4.299517 -1.570796 -3.141592 -1.570796
    3 -0.862154 -0.856760 -1.276764 -0.003020 -0.360401 0.288652
    4 6.645960 0.845105 -7.440615 5.843012 -1.922966 0.025932
    5 8.073794 1.000629 -0.372470 1.568905 -3.117039 0.200689
    6 0.033551 -8.518268 -0.065070 0.236130 0.732275 0.540535
    7 -0.488518 -2.755602 -0.228260 -0.888354 0.016180 -0.254183
    8 0.039887 -1.550105 0.025948 -1.996582 -0.004231 0.044080
    9 0.028786 -1.118701 -0.097330 -0.653184 -0.012308 0.012104
    10 0.250027 -2.820665 -0.238396 -0.790618 -0.014043 -0.199190
    11 -0.049759 -1.594604 0.030164 -1.602203 -0.000683 -0.042667
    12 -0.034142 -1.171750 0.045718 -1.183572 0.006424 -0.031196
    13 0.957766 -2.746780 -0.090302 0.060619 -0.161786 0.047180
    14 -0.033420 -1.397129 -0.034695 -1.343918 -0.005920 -0.063184
    15 -0.022360 -0.957436 0.003159 -0.577884 0.008018 -0.027840
    16 -1.180681 -2.507217 -0.193859 -0.695044 0.195831 -0.247787
    17 -0.024967 -1.127840 0.017597 -1.674946 -0.016359 -0.065243
    18 -0.020057 -0.906594 0.025715 -0.860057 0.007095 -0.034791
    19 0.614761 -1.197277 0.181473 0.632193 -0.960466 -0.780381
    20 1.485144 -0.204604 0.067511 0.042194 -0.205332 -0.725373
    21 0.987486 -0.190791 0.047917 0.109955 -0.259553 -1.139795
    22 0.120153 -0.050270 -0.054489 0.287569 3.110905 1.561085
    23 -4.192764 -6.293792 -7.177284 0.227667 -4.297999 0.514199
    24 0.147727 -8.481669 -0.060148 0.205969 0.024583 -0.011822
    25 0.447953 -2.798986 -0.200443 -1.405545 0.042672 0.291160
    26 -0.032909 -1.499736 0.036191 -1.642416 0.022807 -0.033603
    27 -0.027022 -1.119890 -0.024116 -1.038028 0.022615 -0.017042
    28 -0.249534 -2.846964 -0.174213 -1.168927 0.058647 0.186330
    29 0.043235 -1.656596 0.056948 -1.760380 -0.024610 0.013699
    30 0.031729 -1.145205 0.058838 -0.891798 -0.009617 0.005424
    31 -0.963866 -2.785145 -0.085350 -1.129370 0.129450 0.064099
    32 0.028479 -1.414786 -0.028886 -1.440957 -0.046189 -0.038566
    33 0.021413 -0.949968 0.020046 -0.553441 -0.010594 -0.022507
    34 1.164475 -2.543940 -0.170330 -1.416440 -0.167668 0.428443
    35 0.024032 -1.148574 -0.009538 -1.320520 0.024724 0.063543
    36 0.014898 -0.907427 -0.004223 -1.472304 0.028931 0.066982
    37 -0.586770 -1.264477 0.200161 0.274218 -0.737009 -2.830893
    38 1.581431 0.035243 0.016848 -0.025340 -0.007470 1.123357
    39 1.114041 0.040611 -0.005766 -0.029138 -0.034294 1.047061
    40 -0.076897 -0.076541 -0.044199 0.248098 0.161054 1.615347
    41 -5.694383 6.678955 -0.364437 1.580421 -0.020627 -0.973765
end
