version 1
nodes
  0 "Bone_Root" -1
  1 "Bone01" 0
  2 "Bone_Lefthand" 1
  3 "wa2000_root" 2
  4 "trigger" 3
  5 "load" 3
  6 "magazine" 3
  7 "Bone04" 0
  8 "Bone_Righthand" 7
  9 "Bone39" 8
  10 "Bone40" 9
  11 "Bone41" 10
  12 "Bone35" 8
  13 "Bone36" 12
  14 "Bone37" 13
  15 "Bone31" 8
  16 "Bone32" 15
  17 "Bone33" 16
  18 "Bone43" 8
  19 "Bone44" 18
  20 "Bone45" 19
  21 "Bone27" 8
  22 "Bone28" 21
  23 "Bone29" 22
  24 "Bone_Se_Hand-R" 8
  25 "Bone13" 2
  26 "Bone14" 25
  27 "Bone15" 26
  28 "Bone17" 2
  29 "Bone18" 28
  30 "Bone19" 29
  31 "Bone21" 2
  32 "Bone22" 31
  33 "Bone23" 32
  34 "Bone09" 2
  35 "Bone10" 34
  36 "Bone11" 35
  37 "Bone05" 2
  38 "Bone06" 37
  39 "Bone07" 38
  40 "Bone_Se_Hand-L" 2
end
skeleton
  time 0
    0 0.000000 0.000000 0.000000 0.000000 0.000000 -0.000063
    1 6.208814 4.861697 -6.974305 6.073625 -1.608730 0.168997
    2 -0.071918 -8.498732 -0.104137 0.000791 0.288635 0.105900
    3 2.309492 -2.752047 1.804646 -0.057826 0.286025 -3.251375
    4 0.822732 1.600163 0.000001 0.000002 0.000000 -0.024500
    5 -0.135229 4.811259 0.000000 0.000000 0.000000 1.558216
    6 -0.114076 -2.997109 0.000000 0.000000 0.000000 -0.019284
    7 -1.055155 -7.027356 -7.666015 -0.126093 -6.210215 0.489182
    8 0.096944 -8.450418 -0.009364 -0.135215 -0.268260 0.357715
    9 0.447952 -2.798983 -0.200442 -0.766149 -0.010396 0.265094
    10 -0.032910 -1.480206 0.004936 -0.491695 0.000000 0.000002
    11 -0.027022 -1.076919 -0.020212 -1.394127 0.000000 0.000000
    12 -0.249534 -2.846962 -0.174215 -0.219877 -0.000125 -0.008396
    13 0.043235 -1.683940 0.096014 -1.114635 0.002823 -0.000167
    14 0.031729 -1.160831 0.058836 -0.912818 0.000642 0.008372
    15 -0.963866 -2.785142 -0.085346 0.070019 0.162276 -0.191556
    16 0.028479 -1.403069 0.006271 -0.596876 0.000000 0.000000
    17 0.021413 -0.957782 0.020047 -0.432482 0.000000 0.000000
    18 1.164474 -2.543938 -0.170328 -0.702366 -0.013294 0.477915
    19 0.024033 -1.129042 0.017806 -0.803472 0.000000 0.000001
    20 0.014896 -0.883989 -0.019845 -0.584376 0.000000 0.000000
    21 -0.586770 -1.264475 0.200164 -0.286511 -0.333680 -2.448923
    22 1.522835 0.058681 0.016850 -0.077529 -0.420656 0.144479
    23 1.117948 0.048424 -0.005764 -0.000243 -0.025198 0.065422
    24 -0.139399 -0.111697 0.014397 0.285382 -0.030687 1.580508
    25 -0.488517 -2.755600 -0.228261 -1.119640 -0.066262 -0.107576
    26 0.039888 -1.479789 0.029853 -1.451658 0.000000 0.000000
    27 0.028786 -1.075730 -0.023111 -0.870565 0.000000 0.000000
    28 0.250028 -2.820664 -0.238396 -0.916633 -0.083565 -0.024874
    29 -0.049759 -1.680545 0.100480 -1.550922 0.000000 -0.000002
    30 -0.034141 -1.148312 0.084779 -1.087312 0.000000 0.000000
    31 0.957766 -2.746776 -0.090301 -0.432128 -0.184437 0.072455
    32 -0.033419 -1.397128 -0.011255 -0.247848 0.000000 -0.000001
    33 -0.022361 -0.957434 0.018783 -0.956086 0.000000 0.000000
    34 -1.180680 -2.507215 -0.193861 -0.747365 0.130011 -0.054388
    35 -0.024966 -1.123935 0.017594 -1.414285 0.000000 0.000001
    36 -0.020057 -0.890966 0.010091 -0.846171 0.000000 0.000000
    37 0.583510 -1.197274 0.185377 0.631272 -1.323162 -0.918143
    38 1.535926 0.010244 0.005008 -0.124871 0.065208 -0.956765
    39 1.100770 0.004526 -0.010676 -0.014685 0.006889 -0.956472
    40 0.120152 -0.050266 -0.054488 0.287568 3.110905 1.561085
  time 1
    0 0.000000 0.000000 0.000000 0.045322 0.000000 -0.000063
    1 7.017432 5.892979 -6.974305 6.046296 -1.608730 0.168997
    2 -0.071918 -8.498732 -0.104137 0.000791 0.288635 0.105900
    3 2.309492 -2.752047 1.804646 -0.057826 0.286025 -3.251375
    4 0.822732 1.600163 0.000001 0.000002 0.000000 -0.024500
    5 -0.174293 1.236931 0.000000 0.000000 0.000000 1.558216
    6 -0.114076 -2.997109 0.000000 0.000000 0.000000 -0.019284
    7 -1.055155 -6.093734 -7.666015 -0.124563 -6.207655 0.510049
    8 0.096944 -8.450418 -0.009364 -0.139643 -0.268260 0.357715
    9 0.447952 -2.798983 -0.200442 -0.766149 -0.010396 0.265094
    10 -0.032910 -1.480206 0.004936 -0.491695 0.000000 0.000002
    11 -0.027022 -1.076919 -0.020212 -1.394127 0.000000 0.000000
    12 -0.249534 -2.846962 -0.174215 -0.219877 -0.000125 -0.008396
    13 0.043235 -1.683940 0.096014 -1.114635 0.002823 -0.000167
    14 0.031729 -1.160831 0.058836 -0.912818 0.000642 0.008372
    15 -0.963866 -2.785142 -0.085346 0.070019 0.162276 -0.191556
    16 0.028479 -1.403069 0.006271 -0.596876 0.000000 0.000000
    17 0.021413 -0.957782 0.020047 -0.432482 0.000000 0.000000
    18 1.164474 -2.543938 -0.170328 -0.702366 -0.013294 0.477915
    19 0.024033 -1.129042 0.017806 -0.803472 0.000000 0.000001
    20 0.014896 -0.883989 -0.019845 -0.584376 0.000000 0.000000
    21 -0.586770 -1.264475 0.200164 -0.286511 -0.333680 -2.448923
    22 1.522835 0.058681 0.016850 0.006775 -0.427294 -0.059809
    23 1.117948 0.048424 -0.005764 -0.007410 -0.024097 0.354576
    24 -0.139399 -0.111697 0.014397 0.285382 -0.030687 1.580508
    25 -0.488517 -2.755600 -0.228261 -1.119640 -0.066262 -0.107576
    26 0.039888 -1.479789 0.029853 -1.451658 0.000000 0.000000
    27 0.028786 -1.075730 -0.023111 -0.870565 0.000000 0.000000
    28 0.250028 -2.820664 -0.238396 -0.916633 -0.083565 -0.024874
    29 -0.049759 -1.680545 0.100480 -1.550922 0.000000 -0.000002
    30 -0.034141 -1.148312 0.084779 -1.087312 0.000000 0.000000
    31 0.957766 -2.746776 -0.090301 -0.432128 -0.184437 0.072455
    32 -0.033419 -1.397128 -0.011255 -0.247848 0.000000 -0.000001
    33 -0.022361 -0.957434 0.018783 -0.956086 0.000000 0.000000
    34 -1.180680 -2.507215 -0.193861 -0.747365 0.130011 -0.054388
    35 -0.024966 -1.123935 0.017594 -1.414285 0.000000 0.000001
    36 -0.020057 -0.890966 0.010091 -0.846171 0.000000 0.000000
    37 0.583510 -1.197274 0.185377 0.631272 -1.323162 -0.918177
    38 1.535926 0.010244 0.005008 -0.124871 0.065208 -0.956765
    39 1.100770 0.004526 -0.010676 -0.014685 0.006889 -0.956472
    40 0.120152 -0.050266 -0.054488 0.287568 3.110905 1.561085
  time 2
    0 0.000000 0.000000 0.000000 0.030341 0.000000 -0.000063
    1 6.993994 5.853915 -6.974305 6.047248 -1.608730 0.168997
    2 -0.071918 -8.498732 -0.104137 0.000936 0.288415 0.110239
    3 2.309492 -2.752047 1.804646 -0.057826 0.286025 -3.251375
    4 0.822732 1.600163 0.000001 0.000002 0.000000 -0.024500
    5 -0.174293 1.502564 0.000000 0.000000 0.000000 1.558216
    6 -0.114076 -2.997109 0.000000 0.000000 0.000000 -0.019284
    7 -1.055155 -6.124985 -7.666015 -0.127686 -6.207749 0.509192
    8 0.096944 -8.450418 -0.009364 -0.151480 -0.268260 0.357715
    9 0.447952 -2.798983 -0.200442 -0.766149 -0.010396 0.265094
    10 -0.032910 -1.480206 0.004936 -0.491695 0.000000 0.000002
    11 -0.027022 -1.076919 -0.020212 -1.394127 0.000000 0.000000
    12 -0.249534 -2.846962 -0.174215 -0.219877 -0.000125 -0.008396
    13 0.043235 -1.683940 0.096014 -1.114635 0.002823 -0.000167
    14 0.031729 -1.160831 0.058836 -0.912818 0.000642 0.008372
    15 -0.963866 -2.785142 -0.085346 0.070019 0.162276 -0.191556
    16 0.028479 -1.403069 0.006271 -0.596876 0.000000 0.000000
    17 0.021413 -0.957782 0.020047 -0.432482 0.000000 0.000000
    18 1.164474 -2.543938 -0.170328 -0.702366 -0.013294 0.477915
    19 0.024033 -1.129042 0.017806 -0.803472 0.000000 0.000001
    20 0.014896 -0.883989 -0.019845 -0.584376 0.000000 0.000000
    21 -0.586770 -1.264475 0.200164 -0.286511 -0.333680 -2.448923
    22 1.522835 0.058681 0.016850 -0.005548 -0.426046 -0.029717
    23 1.117948 0.048424 -0.005764 -0.007889 -0.023906 0.376023
    24 -0.139399 -0.111697 0.014397 0.285382 -0.030687 1.580508
    25 -0.488517 -2.755600 -0.228261 -1.119640 -0.066262 -0.107576
    26 0.039888 -1.479789 0.029853 -1.451658 0.000000 0.000000
    27 0.028786 -1.075730 -0.023111 -0.870565 0.000000 0.000000
    28 0.250028 -2.820664 -0.238396 -0.916633 -0.083565 -0.024874
    29 -0.049759 -1.680545 0.100480 -1.550922 0.000000 -0.000002
    30 -0.034141 -1.148312 0.084779 -1.087312 0.000000 0.000000
    31 0.957766 -2.746776 -0.090301 -0.432128 -0.184437 0.072455
    32 -0.033419 -1.397128 -0.011255 -0.247848 0.000000 -0.000001
    33 -0.022361 -0.957434 0.018783 -0.956086 0.000000 0.000000
    34 -1.180680 -2.507215 -0.193861 -0.747365 0.130011 -0.054388
    35 -0.024966 -1.123935 0.017594 -1.414285 0.000000 0.000001
    36 -0.020057 -0.890966 0.010091 -0.846171 0.000000 0.000000
    37 0.583510 -1.197274 0.185377 0.631272 -1.323162 -0.918143
    38 1.535926 0.010244 0.005008 -0.124871 0.065208 -0.956765
    39 1.100770 0.004526 -0.010676 -0.014685 0.006889 -0.956472
    40 0.120152 -0.050266 -0.054488 0.287568 3.110905 1.561085
  time 3
    0 0.000000 0.000000 0.000000 0.002482 0.000000 -0.000063
    1 6.915867 5.764069 -6.974305 6.049724 -1.608730 0.168997
    2 -0.071918 -8.498732 -0.104137 0.001298 0.287921 0.121479
    3 2.309492 -2.752047 1.804646 -0.057826 0.286025 -3.251375
    4 0.822732 1.600163 0.000001 0.000002 0.000000 -0.024500
    5 -0.166480 2.162740 0.000000 0.000000 0.000000 1.558216
    6 -0.114076 -2.997109 0.000000 0.000000 0.000000 -0.019284
    7 -1.055155 -6.210925 -7.666015 -0.135715 -6.208034 0.507000
    8 0.096944 -8.450418 -0.009364 -0.168602 -0.268260 0.357715
    9 0.447952 -2.798983 -0.200442 -0.766149 -0.010396 0.265094
    10 -0.032910 -1.480206 0.004936 -0.491695 0.000000 0.000002
    11 -0.027022 -1.076919 -0.020212 -1.394127 0.000000 0.000000
    12 -0.249534 -2.846962 -0.174215 -0.219877 -0.000125 -0.008396
    13 0.043235 -1.683940 0.096014 -1.114635 0.002823 -0.000167
    14 0.031729 -1.160831 0.058836 -0.912818 0.000642 0.008372
    15 -0.963866 -2.785142 -0.085346 0.070019 0.162276 -0.191556
    16 0.028479 -1.403069 0.006271 -0.596876 0.000000 0.000000
    17 0.021413 -0.957782 0.020047 -0.432482 0.000000 0.000000
    18 1.164474 -2.543938 -0.170328 -0.702366 -0.013294 0.477915
    19 0.024033 -1.129042 0.017806 -0.803472 0.000000 0.000001
    20 0.014896 -0.883989 -0.019845 -0.584376 0.000000 0.000000
    21 -0.586770 -1.264475 0.200164 -0.286511 -0.333680 -2.448923
    22 1.522835 0.058681 0.016850 -0.032892 -0.423285 0.036854
    23 1.117948 0.048424 -0.005764 -0.008333 -0.023714 0.394921
    24 -0.139399 -0.111697 0.014397 0.285382 -0.030687 1.580508
    25 -0.488517 -2.755600 -0.228261 -1.119640 -0.066262 -0.107576
    26 0.039888 -1.479789 0.029853 -1.451658 0.000000 0.000000
    27 0.028786 -1.075730 -0.023111 -0.870565 0.000000 0.000000
    28 0.250028 -2.820664 -0.238396 -0.916633 -0.083565 -0.024874
    29 -0.049759 -1.680545 0.100480 -1.550922 0.000000 -0.000002
    30 -0.034141 -1.148312 0.084779 -1.087312 0.000000 0.000000
    31 0.957766 -2.746776 -0.090301 -0.432128 -0.184437 0.072455
    32 -0.033419 -1.397128 -0.011255 -0.247848 0.000000 -0.000001
    33 -0.022361 -0.957434 0.018783 -0.956086 0.000000 0.000000
    34 -1.180680 -2.507215 -0.193861 -0.747365 0.130011 -0.054388
    35 -0.024966 -1.123935 0.017594 -1.414285 0.000000 0.000001
    36 -0.020057 -0.890966 0.010091 -0.846171 0.000000 0.000000
    37 0.583510 -1.197274 0.185377 0.631272 -1.323162 -0.918177
    38 1.535926 0.010244 0.005008 -0.124871 0.065208 -0.956765
    39 1.100770 0.004526 -0.010676 -0.014685 0.006889 -0.956472
    40 0.120152 -0.050266 -0.054488 0.287568 3.110905 1.561085
  time 4
    0 0.000000 0.000000 0.000000 -0.012440 0.000000 -0.000063
    1 6.810395 5.627346 -6.974305 6.053438 -1.608730 0.168997
    2 -0.071918 -8.498732 -0.104137 0.001781 0.287243 0.136832
    3 2.309492 -2.752047 1.804646 -0.057826 0.286025 -3.251375
    4 0.822732 1.600163 0.000001 0.000002 0.000000 -0.024500
    5 -0.154761 3.026048 0.000000 0.000000 0.000000 1.558216
    6 -0.114076 -2.997109 0.000000 0.000000 0.000000 -0.019284
    7 -1.055155 -6.332022 -7.666015 -0.146866 -6.208413 0.503951
    8 0.096944 -8.450418 -0.009364 -0.188831 -0.268260 0.357715
    9 0.447952 -2.798983 -0.200442 -0.766149 -0.010396 0.265094
    10 -0.032910 -1.480206 0.004936 -0.491695 0.000000 0.000002
    11 -0.027022 -1.076919 -0.020212 -1.394127 0.000000 0.000000
    12 -0.249534 -2.846962 -0.174215 -0.219877 -0.000125 -0.008396
    13 0.043235 -1.683940 0.096014 -1.114635 0.002823 -0.000167
    14 0.031729 -1.160831 0.058836 -0.912818 0.000642 0.008372
    15 -0.963866 -2.785142 -0.085346 0.070019 0.162276 -0.191556
    16 0.028479 -1.403069 0.006271 -0.596876 0.000000 0.000000
    17 0.021413 -0.957782 0.020047 -0.432482 0.000000 0.000000
    18 1.164474 -2.543938 -0.170328 -0.702366 -0.013294 0.477915
    19 0.024033 -1.129042 0.017806 -0.803472 0.000000 0.000001
    20 0.014896 -0.883989 -0.019845 -0.584376 0.000000 0.000000
    21 -0.586770 -1.264475 0.200164 -0.286511 -0.333680 -2.448923
    22 1.522835 0.058681 0.016850 -0.060646 -0.420497 0.104407
    23 1.117948 0.048424 -0.005764 -0.008692 -0.023571 0.410977
    24 -0.139399 -0.111697 0.014397 0.285382 -0.030687 1.580508
    25 -0.488517 -2.755600 -0.228261 -1.119640 -0.066262 -0.107576
    26 0.039888 -1.479789 0.029853 -1.451658 0.000000 0.000000
    27 0.028786 -1.075730 -0.023111 -0.870565 0.000000 0.000000
    28 0.250028 -2.820664 -0.238396 -0.916633 -0.083565 -0.024874
    29 -0.049759 -1.680545 0.100480 -1.550922 0.000000 -0.000002
    30 -0.034141 -1.148312 0.084779 -1.087312 0.000000 0.000000
    31 0.957766 -2.746776 -0.090301 -0.432128 -0.184437 0.072455
    32 -0.033419 -1.397128 -0.011255 -0.247848 0.000000 -0.000001
    33 -0.022361 -0.957434 0.018783 -0.956086 0.000000 0.000000
    34 -1.180680 -2.507215 -0.193861 -0.747365 0.130011 -0.054388
    35 -0.024966 -1.123935 0.017594 -1.414285 0.000000 0.000001
    36 -0.020057 -0.890966 0.010091 -0.846171 0.000000 0.000000
    37 0.583510 -1.197274 0.185377 0.631272 -1.323162 -0.918143
    38 1.535926 0.010244 0.005008 -0.124871 0.065208 -0.956794
    39 1.100770 0.004526 -0.010676 -0.014685 0.006889 -0.956472
    40 0.120152 -0.050266 -0.054488 0.287568 3.110905 1.561085
  time 5
    0 0.000000 0.000000 0.000000 -0.011506 0.000000 -0.000063
    1 6.677578 5.467185 -6.974305 6.057723 -1.608730 0.168997
    2 -0.071918 -8.498732 -0.104137 0.002361 0.286474 0.153579
    3 2.309492 -2.752047 1.804646 -0.057826 0.286025 -3.251375
    4 0.822732 1.600163 0.000001 0.000002 0.000000 -0.024500
    5 -0.143042 3.889356 0.000000 0.000000 0.000000 1.558216
    6 -0.114076 -2.997109 0.000000 0.000000 0.000000 -0.019284
    7 -1.055155 -6.484371 -7.666015 -0.159292 -6.208793 0.500712
    8 0.096944 -8.450418 -0.009364 -0.210023 -0.268260 0.357715
    9 0.447952 -2.798983 -0.200442 -0.766149 -0.010396 0.265094
    10 -0.032910 -1.480206 0.004936 -0.491695 0.000000 0.000002
    11 -0.027022 -1.076919 -0.020212 -1.394127 0.000000 0.000000
    12 -0.249534 -2.846962 -0.174215 -0.219877 -0.000125 -0.008396
    13 0.043235 -1.683940 0.096014 -1.114635 0.002823 -0.000167
    14 0.031729 -1.160831 0.058836 -0.912818 0.000642 0.008372
    15 -0.963866 -2.785142 -0.085346 0.070019 0.162276 -0.191556
    16 0.028479 -1.403069 0.006271 -0.596876 0.000000 0.000000
    17 0.021413 -0.957782 0.020047 -0.432482 0.000000 0.000000
    18 1.164474 -2.543938 -0.170328 -0.702366 -0.013294 0.477915
    19 0.024033 -1.129042 0.017806 -0.803472 0.000000 0.000001
    20 0.014896 -0.883989 -0.019845 -0.584376 0.000000 0.000000
    21 -0.586770 -1.264475 0.200164 -0.286511 -0.333680 -2.448923
    22 1.522835 0.058681 0.016850 -0.074231 -0.419249 0.137220
    23 1.117948 0.048424 -0.005764 -0.009016 -0.023475 0.423927
    24 -0.139399 -0.111697 0.014397 0.285382 -0.030687 1.580508
    25 -0.488517 -2.755600 -0.228261 -1.119640 -0.066262 -0.107576
    26 0.039888 -1.479789 0.029853 -1.451658 0.000000 0.000000
    27 0.028786 -1.075730 -0.023111 -0.870565 0.000000 0.000000
    28 0.250028 -2.820664 -0.238396 -0.916633 -0.083565 -0.024874
    29 -0.049759 -1.680545 0.100480 -1.550922 0.000000 -0.000002
    30 -0.034141 -1.148312 0.084779 -1.087312 0.000000 0.000000
    31 0.957766 -2.746776 -0.090301 -0.432128 -0.184437 0.072455
    32 -0.033419 -1.397128 -0.011255 -0.247848 0.000000 -0.000001
    33 -0.022361 -0.957434 0.018783 -0.956086 0.000000 0.000000
    34 -1.180680 -2.507215 -0.193861 -0.747365 0.130011 -0.054388
    35 -0.024966 -1.123935 0.017594 -1.414285 0.000000 0.000001
    36 -0.020057 -0.890966 0.010091 -0.846171 0.000000 0.000000
    37 0.583510 -1.197274 0.185377 0.631272 -1.323162 -0.918177
    38 1.535926 0.010244 0.005008 -0.124871 0.065208 -0.956765
    39 1.100770 0.004526 -0.010676 -0.014685 0.006889 -0.956472
    40 0.120152 -0.050266 -0.054488 0.287568 3.110905 1.561085
  time 6
    0 0.000000 0.000000 0.000000 -0.009199 0.000000 -0.000063
    1 6.548668 5.291398 -6.974305 6.062294 -1.608730 0.168997
    2 -0.071918 -8.498732 -0.104137 0.002844 0.285778 0.168932
    3 2.309492 -2.752047 1.804646 -0.057826 0.286025 -3.251375
    4 0.822732 1.600163 0.000001 0.000002 0.000000 -0.024500
    5 -0.135229 4.553438 0.000000 0.000000 0.000000 1.558216
    6 -0.114076 -2.997109 0.000000 0.000000 0.000000 -0.019284
    7 -1.055155 -6.636719 -7.666015 -0.171208 -6.209172 0.497853
    8 0.096944 -8.450418 -0.009364 -0.230020 -0.268260 0.357715
    9 0.447952 -2.798983 -0.200442 -0.766149 -0.010396 0.265094
    10 -0.032910 -1.480206 0.004936 -0.491695 0.000000 0.000002
    11 -0.027022 -1.076919 -0.020212 -1.394127 0.000000 0.000000
    12 -0.249534 -2.846962 -0.174215 -0.219877 -0.000125 -0.008396
    13 0.043235 -1.683940 0.096014 -1.114635 0.002823 -0.000167
    14 0.031729 -1.160831 0.058836 -0.912818 0.000642 0.008372
    15 -0.963866 -2.785142 -0.085346 0.070019 0.162276 -0.191556
    16 0.028479 -1.403069 0.006271 -0.596876 0.000000 0.000000
    17 0.021413 -0.957782 0.020047 -0.432482 0.000000 0.000000
    18 1.164474 -2.543938 -0.170328 -0.702366 -0.013294 0.477915
    19 0.024033 -1.129042 0.017806 -0.803472 0.000000 0.000001
    20 0.014896 -0.883989 -0.019845 -0.584376 0.000000 0.000000
    21 -0.586770 -1.264475 0.200164 -0.286511 -0.333680 -2.448923
    22 1.522835 0.058681 0.016850 -0.075636 -0.419435 0.140320
    23 1.117948 0.048424 -0.005764 -0.009219 -0.023331 0.433537
    24 -0.139399 -0.111697 0.014397 0.285382 -0.030687 1.580508
    25 -0.488517 -2.755600 -0.228261 -1.119640 -0.066262 -0.107576
    26 0.039888 -1.479789 0.029853 -1.451658 0.000000 0.000000
    27 0.028786 -1.075730 -0.023111 -0.870565 0.000000 0.000000
    28 0.250028 -2.820664 -0.238396 -0.916633 -0.083565 -0.024874
    29 -0.049759 -1.680545 0.100480 -1.550922 0.000000 -0.000002
    30 -0.034141 -1.148312 0.084779 -1.087312 0.000000 0.000000
    31 0.957766 -2.746776 -0.090301 -0.432128 -0.184437 0.072455
    32 -0.033419 -1.397128 -0.011255 -0.247848 0.000000 -0.000001
    33 -0.022361 -0.957434 0.018783 -0.956086 0.000000 0.000000
    34 -1.180680 -2.507215 -0.193861 -0.747365 0.130011 -0.054388
    35 -0.024966 -1.123935 0.017594 -1.414285 0.000000 0.000001
    36 -0.020057 -0.890966 0.010091 -0.846171 0.000000 0.000000
    37 0.583510 -1.197274 0.185377 0.631272 -1.323162 -0.918143
    38 1.535926 0.010244 0.005008 -0.124871 0.065208 -0.956765
    39 1.100770 0.004526 -0.010676 -0.014685 0.006889 -0.956472
    40 0.120152 -0.050266 -0.054488 0.287568 3.110905 1.561085
  time 7
    0 0.000000 0.000000 0.000000 -0.006191 0.000000 -0.000063
    1 6.419758 5.135143 -6.974305 6.066579 -1.608730 0.168997
    2 -0.071918 -8.498732 -0.104137 0.003206 0.285247 0.180172
    3 2.309492 -2.752047 1.804646 -0.057826 0.286025 -3.251375
    4 0.822732 1.600163 0.000001 0.000002 0.000000 -0.024500
    5 -0.135229 4.811259 0.000000 0.000000 0.000000 1.558216
    6 -0.114076 -2.997109 0.000000 0.000000 0.000000 -0.019284
    7 -1.055155 -6.785161 -7.666015 -0.188987 -6.209551 0.494994
    8 0.096944 -8.450418 -0.009364 -0.262068 -0.268260 0.357715
    9 0.447952 -2.798983 -0.200442 -0.766149 -0.010396 0.265094
    10 -0.032910 -1.480206 0.004936 -0.491695 0.000000 0.000002
    11 -0.027022 -1.076919 -0.020212 -1.394127 0.000000 0.000000
    12 -0.249534 -2.846962 -0.174215 -0.219877 -0.000125 -0.008396
    13 0.043235 -1.683940 0.096014 -1.114635 0.002823 -0.000167
    14 0.031729 -1.160831 0.058836 -0.912818 0.000642 0.008372
    15 -0.963866 -2.785142 -0.085346 0.070019 0.162276 -0.191556
    16 0.028479 -1.403069 0.006271 -0.596876 0.000000 0.000000
    17 0.021413 -0.957782 0.020047 -0.432482 0.000000 0.000000
    18 1.164474 -2.543938 -0.170328 -0.702366 -0.013294 0.477915
    19 0.024033 -1.129042 0.017806 -0.803472 0.000000 0.000001
    20 0.014896 -0.883989 -0.019845 -0.584376 0.000000 0.000000
    21 -0.586770 -1.264475 0.200164 -0.286511 -0.333680 -2.448923
    22 1.522835 0.058681 0.016850 -0.076582 -0.419780 0.142399
    23 1.117948 0.048424 -0.005764 -0.009363 -0.023283 0.439485
    24 -0.139399 -0.111697 0.014397 0.285382 -0.030687 1.580508
    25 -0.488517 -2.755600 -0.228261 -1.119640 -0.066262 -0.107576
    26 0.039888 -1.479789 0.029853 -1.451658 0.000000 0.000000
    27 0.028786 -1.075730 -0.023111 -0.870565 0.000000 0.000000
    28 0.250028 -2.820664 -0.238396 -0.916633 -0.083565 -0.024874
    29 -0.049759 -1.680545 0.100480 -1.550922 0.000000 -0.000002
    30 -0.034141 -1.148312 0.084779 -1.087312 0.000000 0.000000
    31 0.957766 -2.746776 -0.090301 -0.432128 -0.184437 0.072455
    32 -0.033419 -1.397128 -0.011255 -0.247848 0.000000 -0.000001
    33 -0.022361 -0.957434 0.018783 -0.956086 0.000000 0.000000
    34 -1.180680 -2.507215 -0.193861 -0.747365 0.130011 -0.054388
    35 -0.024966 -1.123935 0.017594 -1.414285 0.000000 0.000001
    36 -0.020057 -0.890966 0.010091 -0.846171 0.000000 0.000000
    37 0.583510 -1.197274 0.185377 0.631272 -1.323162 -0.918177
    38 1.535926 0.010244 0.005008 -0.124871 0.065208 -0.956765
    39 1.100770 0.004526 -0.010676 -0.014685 0.006889 -0.956472
    40 0.120152 -0.050266 -0.054488 0.287568 3.110905 1.561085
  time 8
    0 0.000000 0.000000 0.000000 -0.003183 0.000000 -0.000063
    1 6.310379 4.994514 -6.974305 6.070197 -1.608730 0.168997
    2 -0.071918 -8.498732 -0.104137 0.003351 0.285064 0.184546
    3 2.309492 -2.752047 1.804646 -0.057826 0.286025 -3.251375
    4 0.822732 1.600163 0.000001 0.000002 0.000000 -0.024500
    5 -0.135229 4.811259 0.000000 0.000000 0.000000 1.558216
    6 -0.114076 -2.997109 0.000000 0.000000 0.000000 -0.019284
    7 -1.055155 -6.910165 -7.666015 -0.201349 -6.209836 0.492327
    8 0.096944 -8.450418 -0.009364 -0.284778 -0.268260 0.357715
    9 0.447952 -2.798983 -0.200442 -0.766149 -0.010396 0.265094
    10 -0.032910 -1.480206 0.004936 -0.491695 0.000000 0.000002
    11 -0.027022 -1.076919 -0.020212 -1.394127 0.000000 0.000000
    12 -0.249534 -2.846962 -0.174215 -0.219877 -0.000125 -0.008396
    13 0.043235 -1.683940 0.096014 -1.114635 0.002823 -0.000167
    14 0.031729 -1.160831 0.058836 -0.912818 0.000642 0.008372
    15 -0.963866 -2.785142 -0.085346 0.070019 0.162276 -0.191556
    16 0.028479 -1.403069 0.006271 -0.596876 0.000000 0.000000
    17 0.021413 -0.957782 0.020047 -0.432482 0.000000 0.000000
    18 1.164474 -2.543938 -0.170328 -0.702366 -0.013294 0.477915
    19 0.024033 -1.129042 0.017806 -0.803472 0.000000 0.000001
    20 0.014896 -0.883989 -0.019845 -0.584376 0.000000 0.000000
    21 -0.586770 -1.264475 0.200164 -0.286511 -0.333680 -2.448923
    22 1.522835 0.058681 0.016850 -0.077166 -0.420178 0.143685
    23 1.117948 0.048424 -0.005764 -0.009411 -0.023283 0.441536
    24 -0.139399 -0.111697 0.014397 0.285382 -0.030687 1.580508
    25 -0.488517 -2.755600 -0.228261 -1.119640 -0.066262 -0.107576
    26 0.039888 -1.479789 0.029853 -1.451658 0.000000 0.000000
    27 0.028786 -1.075730 -0.023111 -0.870565 0.000000 0.000000
    28 0.250028 -2.820664 -0.238396 -0.916633 -0.083565 -0.024874
    29 -0.049759 -1.680545 0.100480 -1.550922 0.000000 -0.000002
    30 -0.034141 -1.148312 0.084779 -1.087312 0.000000 0.000000
    31 0.957766 -2.746776 -0.090301 -0.432128 -0.184437 0.072455
    32 -0.033419 -1.397128 -0.011255 -0.247848 0.000000 -0.000001
    33 -0.022361 -0.957434 0.018783 -0.956086 0.000000 0.000000
    34 -1.180680 -2.507215 -0.193861 -0.747365 0.130011 -0.054388
    35 -0.024966 -1.123935 0.017594 -1.414285 0.000000 0.000001
    36 -0.020057 -0.890966 0.010091 -0.846171 0.000000 0.000000
    37 0.583510 -1.197274 0.185377 0.631272 -1.323162 -0.918143
    38 1.535926 0.010244 0.005008 -0.124871 0.065208 -0.956765
    39 1.100770 0.004526 -0.010676 -0.014685 0.006889 -0.956472
    40 0.120152 -0.050266 -0.054488 0.287568 3.110905 1.561085
  time 9
    0 0.000000 0.000000 0.000000 -0.000876 0.000000 -0.000063
    1 6.232252 4.900761 -6.974305 6.072673 -1.608730 0.168997
    2 -0.071918 -8.498732 -0.104137 0.003061 0.285467 0.175606
    3 2.309492 -2.752047 1.804646 -0.057826 0.286025 -3.251375
    4 0.822732 1.600163 0.000001 0.000002 0.000000 -0.024500
    5 -0.135229 4.811259 0.000000 0.000000 0.000000 1.558216
    6 -0.114076 -2.997109 0.000000 0.000000 0.000000 -0.019284
    7 -1.055155 -6.996105 -7.666015 -0.186502 -6.210120 0.490230
    8 0.096944 -8.450418 -0.009364 -0.239625 -0.268260 0.357715
    9 0.447952 -2.798983 -0.200442 -0.766149 -0.010396 0.265094
    10 -0.032910 -1.480206 0.004936 -0.491695 0.000000 0.000002
    11 -0.027022 -1.076919 -0.020212 -1.394127 0.000000 0.000000
    12 -0.249534 -2.846962 -0.174215 -0.219877 -0.000125 -0.008396
    13 0.043235 -1.683940 0.096014 -1.114635 0.002823 -0.000167
    14 0.031729 -1.160831 0.058836 -0.912818 0.000642 0.008372
    15 -0.963866 -2.785142 -0.085346 0.070019 0.162276 -0.191556
    16 0.028479 -1.403069 0.006271 -0.596876 0.000000 0.000000
    17 0.021413 -0.957782 0.020047 -0.432482 0.000000 0.000000
    18 1.164474 -2.543938 -0.170328 -0.702366 -0.013294 0.477915
    19 0.024033 -1.129042 0.017806 -0.803472 0.000000 0.000001
    20 0.014896 -0.883989 -0.019845 -0.584376 0.000000 0.000000
    21 -0.586770 -1.264475 0.200164 -0.286511 -0.333680 -2.448923
    22 1.522835 0.058681 0.016850 -0.077450 -0.420497 0.144290
    23 1.117948 0.048424 -0.005764 -0.004821 -0.024289 0.253464
    24 -0.139399 -0.111697 0.014397 0.285382 -0.030687 1.580508
    25 -0.488517 -2.755600 -0.228261 -1.119640 -0.066262 -0.107576
    26 0.039888 -1.479789 0.029853 -1.451658 0.000000 0.000000
    27 0.028786 -1.075730 -0.023111 -0.870565 0.000000 0.000000
    28 0.250028 -2.820664 -0.238396 -0.916633 -0.083565 -0.024874
    29 -0.049759 -1.680545 0.100480 -1.550922 0.000000 -0.000002
    30 -0.034141 -1.148312 0.084779 -1.087312 0.000000 0.000000
    31 0.957766 -2.746776 -0.090301 -0.432128 -0.184437 0.072455
    32 -0.033419 -1.397128 -0.011255 -0.247848 0.000000 -0.000001
    33 -0.022361 -0.957434 0.018783 -0.956086 0.000000 0.000000
    34 -1.180680 -2.507215 -0.193861 -0.747365 0.130011 -0.054388
    35 -0.024966 -1.123935 0.017594 -1.414285 0.000000 0.000001
    36 -0.020057 -0.890966 0.010091 -0.846171 0.000000 0.000000
    37 0.583510 -1.197274 0.185377 0.631272 -1.323162 -0.918143
    38 1.535926 0.010244 0.005008 -0.124871 0.065208 -0.956765
    39 1.100770 0.004526 -0.010676 -0.014685 0.006889 -0.956472
    40 0.120152 -0.050266 -0.054488 0.287568 3.110905 1.561085
  time 10
    0 0.000000 0.000000 0.000000 0.000000 0.000000 -0.000063
    1 6.208814 4.861697 -6.974305 6.073625 -1.608730 0.168997
    2 -0.071918 -8.498732 -0.104137 0.002288 0.286474 0.153248
    3 2.309492 -2.752047 1.804646 -0.057826 0.286025 -3.251375
    4 0.822732 1.600163 0.000001 0.000002 0.000000 -0.024500
    5 -0.135229 4.811259 0.000000 0.000000 0.000000 1.558216
    6 -0.114076 -2.997109 0.000000 0.000000 0.000000 -0.019284
    7 -1.055155 -7.027356 -7.666015 -0.162351 -6.210215 0.489182
    8 0.096944 -8.450418 -0.009364 -0.188242 -0.268260 0.357715
    9 0.447952 -2.798983 -0.200442 -0.766149 -0.010396 0.265094
    10 -0.032910 -1.480206 0.004936 -0.491695 0.000000 0.000002
    11 -0.027022 -1.076919 -0.020212 -1.394127 0.000000 0.000000
    12 -0.249534 -2.846962 -0.174215 -0.219877 -0.000125 -0.008396
    13 0.043235 -1.683940 0.096014 -1.114635 0.002823 -0.000167
    14 0.031729 -1.160831 0.058836 -0.912818 0.000642 0.008372
    15 -0.963866 -2.785142 -0.085346 0.070019 0.162276 -0.191556
    16 0.028479 -1.403069 0.006271 -0.596876 0.000000 0.000000
    17 0.021413 -0.957782 0.020047 -0.432482 0.000000 0.000000
    18 1.164474 -2.543938 -0.170328 -0.702366 -0.013294 0.477915
    19 0.024033 -1.129042 0.017806 -0.803472 0.000000 0.000001
    20 0.014896 -0.883989 -0.019845 -0.584376 0.000000 0.000000
    21 -0.586770 -1.264475 0.200164 -0.286511 -0.333680 -2.448923
    22 1.522835 0.058681 0.016850 -0.077529 -0.420656 0.144479
    23 1.117948 0.048424 -0.005764 -0.000243 -0.025198 0.065422
    24 -0.139399 -0.111697 0.014397 0.285382 -0.030687 1.580508
    25 -0.488517 -2.755600 -0.228261 -1.119640 -0.066262 -0.107576
    26 0.039888 -1.479789 0.029853 -1.451658 0.000000 0.000000
    27 0.028786 -1.075730 -0.023111 -0.870565 0.000000 0.000000
    28 0.250028 -2.820664 -0.238396 -0.916633 -0.083565 -0.024874
    29 -0.049759 -1.680545 0.100480 -1.550922 0.000000 -0.000002
    30 -0.034141 -1.148312 0.084779 -1.087312 0.000000 0.000000
    31 0.957766 -2.746776 -0.090301 -0.432128 -0.184437 0.072455
    32 -0.033419 -1.397128 -0.011255 -0.247848 0.000000 -0.000001
    33 -0.022361 -0.957434 0.018783 -0.956086 0.000000 0.000000
    34 -1.180680 -2.507215 -0.193861 -0.747365 0.130011 -0.054388
    35 -0.024966 -1.123935 0.017594 -1.414285 0.000000 0.000001
    36 -0.020057 -0.890966 0.010091 -0.846171 0.000000 0.000000
    37 0.583510 -1.197274 0.185377 0.631272 -1.323162 -0.918143
    38 1.535926 0.010244 0.005008 -0.124871 0.065208 -0.956765
    39 1.100770 0.004526 -0.010676 -0.014685 0.006889 -0.956472
    40 0.120152 -0.050266 -0.054488 0.287568 3.110905 1.561085
  time 11
    0 0.000000 0.000000 0.000000 0.000000 0.000000 -0.000063
    1 6.208814 4.861697 -6.974305 6.073625 -1.608730 0.168997
    2 -0.071918 -8.498732 -0.104137 0.001322 0.287719 0.124198
    3 2.309492 -2.752047 1.804646 -0.057826 0.286025 -3.251375
    4 0.822732 1.600163 0.000001 0.000002 0.000000 -0.024500
    5 -0.135229 4.811259 0.000000 0.000000 0.000000 1.558216
    6 -0.114076 -2.997109 0.000000 0.000000 0.000000 -0.019284
    7 -1.055155 -7.027356 -7.666015 -0.140876 -6.210215 0.489182
    8 0.096944 -8.450418 -0.009364 -0.176672 -0.268260 0.357715
    9 0.447952 -2.798983 -0.200442 -0.766149 -0.010396 0.265094
    10 -0.032910 -1.480206 0.004936 -0.491695 0.000000 0.000002
    11 -0.027022 -1.076919 -0.020212 -1.394127 0.000000 0.000000
    12 -0.249534 -2.846962 -0.174215 -0.219877 -0.000125 -0.008396
    13 0.043235 -1.683940 0.096014 -1.114635 0.002823 -0.000167
    14 0.031729 -1.160831 0.058836 -0.912818 0.000642 0.008372
    15 -0.963866 -2.785142 -0.085346 0.070019 0.162276 -0.191556
    16 0.028479 -1.403069 0.006271 -0.596876 0.000000 0.000000
    17 0.021413 -0.957782 0.020047 -0.432482 0.000000 0.000000
    18 1.164474 -2.543938 -0.170328 -0.702366 -0.013294 0.477915
    19 0.024033 -1.129042 0.017806 -0.803472 0.000000 0.000001
    20 0.014896 -0.883989 -0.019845 -0.584376 0.000000 0.000000
    21 -0.586770 -1.264475 0.200164 -0.286511 -0.333680 -2.448923
    22 1.522835 0.058681 0.016850 -0.077529 -0.420656 0.144479
    23 1.117948 0.048424 -0.005764 -0.000243 -0.025198 0.065422
    24 -0.139399 -0.111697 0.014397 0.285382 -0.030687 1.580508
    25 -0.488517 -2.755600 -0.228261 -1.119640 -0.066262 -0.107576
    26 0.039888 -1.479789 0.029853 -1.451658 0.000000 0.000000
    27 0.028786 -1.075730 -0.023111 -0.870565 0.000000 0.000000
    28 0.250028 -2.820664 -0.238396 -0.916633 -0.083565 -0.024874
    29 -0.049759 -1.680545 0.100480 -1.550922 0.000000 -0.000002
    30 -0.034141 -1.148312 0.084779 -1.087312 0.000000 0.000000
    31 0.957766 -2.746776 -0.090301 -0.432128 -0.184437 0.072455
    32 -0.033419 -1.397128 -0.011255 -0.247848 0.000000 -0.000001
    33 -0.022361 -0.957434 0.018783 -0.956086 0.000000 0.000000
    34 -1.180680 -2.507215 -0.193861 -0.747365 0.130011 -0.054388
    35 -0.024966 -1.123935 0.017594 -1.414285 0.000000 0.000001
    36 -0.020057 -0.890966 0.010091 -0.846171 0.000000 0.000000
    37 0.583510 -1.197274 0.185377 0.631272 -1.323162 -0.918143
    38 1.535926 0.010244 0.005008 -0.124871 0.065208 -0.956765
    39 1.100770 0.004526 -0.010676 -0.014685 0.006889 -0.956472
    40 0.120152 -0.050266 -0.054488 0.287568 3.110905 1.561085
  time 12
    0 0.000000 0.000000 0.000000 0.000000 0.000000 -0.000063
    1 6.208814 4.861697 -6.974305 6.073625 -1.608730 0.168997
    2 -0.071918 -8.498732 -0.104137 0.000381 0.289038 0.095130
    3 2.309492 -2.752047 1.804646 -0.057826 0.286025 -3.251375
    4 0.822732 1.600163 0.000001 0.000002 0.000000 -0.024500
    5 -0.135229 4.811259 0.000000 0.000000 0.000000 1.558216
    6 -0.114076 -2.997109 0.000000 0.000000 0.000000 -0.019284
    7 -1.055155 -7.027356 -7.666015 -0.116598 -6.210215 0.489182
    8 0.096944 -8.450418 -0.009364 -0.166781 -0.268260 0.357715
    9 0.447952 -2.798983 -0.200442 -0.766149 -0.010396 0.265094
    10 -0.032910 -1.480206 0.004936 -0.491695 0.000000 0.000002
    11 -0.027022 -1.076919 -0.020212 -1.394127 0.000000 0.000000
    12 -0.249534 -2.846962 -0.174215 -0.219877 -0.000125 -0.008396
    13 0.043235 -1.683940 0.096014 -1.114635 0.002823 -0.000167
    14 0.031729 -1.160831 0.058836 -0.912818 0.000642 0.008372
    15 -0.963866 -2.785142 -0.085346 0.070019 0.162276 -0.191556
    16 0.028479 -1.403069 0.006271 -0.596876 0.000000 0.000000
    17 0.021413 -0.957782 0.020047 -0.432482 0.000000 0.000000
    18 1.164474 -2.543938 -0.170328 -0.702366 -0.013294 0.477915
    19 0.024033 -1.129042 0.017806 -0.803472 0.000000 0.000001
    20 0.014896 -0.883989 -0.019845 -0.584376 0.000000 0.000000
    21 -0.586770 -1.264475 0.200164 -0.286511 -0.333680 -2.448923
    22 1.522835 0.058681 0.016850 -0.077529 -0.420656 0.144479
    23 1.117948 0.048424 -0.005764 -0.000243 -0.025198 0.065422
    24 -0.139399 -0.111697 0.014397 0.285382 -0.030687 1.580508
    25 -0.488517 -2.755600 -0.228261 -1.119640 -0.066262 -0.107576
    26 0.039888 -1.479789 0.029853 -1.451658 0.000000 0.000000
    27 0.028786 -1.075730 -0.023111 -0.870565 0.000000 0.000000
    28 0.250028 -2.820664 -0.238396 -0.916633 -0.083565 -0.024874
    29 -0.049759 -1.680545 0.100480 -1.550922 0.000000 -0.000002
    30 -0.034141 -1.148312 0.084779 -1.087312 0.000000 0.000000
    31 0.957766 -2.746776 -0.090301 -0.432128 -0.184437 0.072455
    32 -0.033419 -1.397128 -0.011255 -0.247848 0.000000 -0.000001
    33 -0.022361 -0.957434 0.018783 -0.956086 0.000000 0.000000
    34 -1.180680 -2.507215 -0.193861 -0.747365 0.130011 -0.054388
    35 -0.024966 -1.123935 0.017594 -1.414285 0.000000 0.000001
    36 -0.020057 -0.890966 0.010091 -0.846171 0.000000 0.000000
    37 0.583510 -1.197274 0.185377 0.631272 -1.323162 -0.918143
    38 1.535926 0.010244 0.005008 -0.124871 0.065208 -0.956765
    39 1.100770 0.004526 -0.010676 -0.014685 0.006889 -0.956472
    40 0.120152 -0.050266 -0.054488 0.287568 3.110905 1.561085
  time 13
    0 0.000000 0.000000 0.000000 0.000000 0.000000 -0.000063
    1 6.208814 4.861697 -6.974305 6.073625 -1.608730 0.168997
    2 -0.071918 -8.498732 -0.104137 -0.000392 0.290008 0.072772
    3 2.309492 -2.752047 1.804646 -0.057826 0.286025 -3.251375
    4 0.822732 1.600163 0.000001 0.000002 0.000000 -0.024500
    5 -0.135229 4.811259 0.000000 0.000000 0.000000 1.558216
    6 -0.114076 -2.997109 0.000000 0.000000 0.000000 -0.019284
    7 -1.055155 -7.027356 -7.666015 -0.093913 -6.210215 0.489182
    8 0.096944 -8.450418 -0.009364 -0.158479 -0.268260 0.357715
    9 0.447952 -2.798983 -0.200442 -0.766149 -0.010396 0.265094
    10 -0.032910 -1.480206 0.004936 -0.491695 0.000000 0.000002
    11 -0.027022 -1.076919 -0.020212 -1.394127 0.000000 0.000000
    12 -0.249534 -2.846962 -0.174215 -0.219877 -0.000125 -0.008396
    13 0.043235 -1.683940 0.096014 -1.114635 0.002823 -0.000167
    14 0.031729 -1.160831 0.058836 -0.912818 0.000642 0.008372
    15 -0.963866 -2.785142 -0.085346 0.070019 0.162276 -0.191556
    16 0.028479 -1.403069 0.006271 -0.596876 0.000000 0.000000
    17 0.021413 -0.957782 0.020047 -0.432482 0.000000 0.000000
    18 1.164474 -2.543938 -0.170328 -0.702366 -0.013294 0.477915
    19 0.024033 -1.129042 0.017806 -0.803472 0.000000 0.000001
    20 0.014896 -0.883989 -0.019845 -0.584376 0.000000 0.000000
    21 -0.586770 -1.264475 0.200164 -0.286511 -0.333680 -2.448923
    22 1.522835 0.058681 0.016850 -0.077529 -0.420656 0.144479
    23 1.117948 0.048424 -0.005764 -0.000243 -0.025198 0.065422
    24 -0.139399 -0.111697 0.014397 0.285382 -0.030687 1.580508
    25 -0.488517 -2.755600 -0.228261 -1.119640 -0.066262 -0.107576
    26 0.039888 -1.479789 0.029853 -1.451658 0.000000 0.000000
    27 0.028786 -1.075730 -0.023111 -0.870565 0.000000 0.000000
    28 0.250028 -2.820664 -0.238396 -0.916633 -0.083565 -0.024874
    29 -0.049759 -1.680545 0.100480 -1.550922 0.000000 -0.000002
    30 -0.034141 -1.148312 0.084779 -1.087312 0.000000 0.000000
    31 0.957766 -2.746776 -0.090301 -0.432128 -0.184437 0.072455
    32 -0.033419 -1.397128 -0.011255 -0.247848 0.000000 -0.000001
    33 -0.022361 -0.957434 0.018783 -0.956086 0.000000 0.000000
    34 -1.180680 -2.507215 -0.193861 -0.747365 0.130011 -0.054388
    35 -0.024966 -1.123935 0.017594 -1.414285 0.000000 0.000001
    36 -0.020057 -0.890966 0.010091 -0.846171 0.000000 0.000000
    37 0.583510 -1.197274 0.185377 0.631272 -1.323162 -0.918143
    38 1.535926 0.010244 0.005008 -0.124871 0.065208 -0.956765
    39 1.100770 0.004526 -0.010676 -0.014685 0.006889 -0.956472
    40 0.120152 -0.050266 -0.054488 0.287568 3.110905 1.561085
  time 14
    0 0.000000 0.000000 0.000000 0.000000 0.000000 -0.000063
    1 6.208814 4.861697 -6.974305 6.073625 -1.608730 0.168997
    2 -0.071918 -8.498732 -0.104137 -0.000706 0.290411 0.063832
    3 2.309492 -2.752047 1.804646 -0.057826 0.286025 -3.251375
    4 0.822732 1.600163 0.000001 0.000002 0.000000 -0.024500
    5 -0.135229 4.811259 0.000000 0.000000 0.000000 1.558216
    6 -0.114076 -2.997109 0.000000 0.000000 0.000000 -0.019284
    7 -1.055155 -7.027356 -7.666015 -0.077154 -6.210215 0.489182
    8 0.096944 -8.450418 -0.009364 -0.151641 -0.268260 0.357715
    9 0.447952 -2.798983 -0.200442 -0.766149 -0.010396 0.265094
    10 -0.032910 -1.480206 0.004936 -0.491695 0.000000 0.000002
    11 -0.027022 -1.076919 -0.020212 -1.394127 0.000000 0.000000
    12 -0.249534 -2.846962 -0.174215 -0.219877 -0.000125 -0.008396
    13 0.043235 -1.683940 0.096014 -1.114635 0.002823 -0.000167
    14 0.031729 -1.160831 0.058836 -0.912818 0.000642 0.008372
    15 -0.963866 -2.785142 -0.085346 0.070019 0.162276 -0.191556
    16 0.028479 -1.403069 0.006271 -0.596876 0.000000 0.000000
    17 0.021413 -0.957782 0.020047 -0.432482 0.000000 0.000000
    18 1.164474 -2.543938 -0.170328 -0.702366 -0.013294 0.477915
    19 0.024033 -1.129042 0.017806 -0.803472 0.000000 0.000001
    20 0.014896 -0.883989 -0.019845 -0.584376 0.000000 0.000000
    21 -0.586770 -1.264475 0.200164 -0.286511 -0.333680 -2.448923
    22 1.522835 0.058681 0.016850 -0.077529 -0.420656 0.144479
    23 1.117948 0.048424 -0.005764 -0.000243 -0.025198 0.065422
    24 -0.139399 -0.111697 0.014397 0.285382 -0.030687 1.580508
    25 -0.488517 -2.755600 -0.228261 -1.119640 -0.066262 -0.107576
    26 0.039888 -1.479789 0.029853 -1.451658 0.000000 0.000000
    27 0.028786 -1.075730 -0.023111 -0.870565 0.000000 0.000000
    28 0.250028 -2.820664 -0.238396 -0.916633 -0.083565 -0.024874
    29 -0.049759 -1.680545 0.100480 -1.550922 0.000000 -0.000002
    30 -0.034141 -1.148312 0.084779 -1.087312 0.000000 0.000000
    31 0.957766 -2.746776 -0.090301 -0.432128 -0.184437 0.072455
    32 -0.033419 -1.397128 -0.011255 -0.247848 0.000000 -0.000001
    33 -0.022361 -0.957434 0.018783 -0.956086 0.000000 0.000000
    34 -1.180680 -2.507215 -0.193861 -0.747365 0.130011 -0.054388
    35 -0.024966 -1.123935 0.017594 -1.414285 0.000000 0.000001
    36 -0.020057 -0.890966 0.010091 -0.846171 0.000000 0.000000
    37 0.583510 -1.197274 0.185377 0.631272 -1.323162 -0.918143
    38 1.535926 0.010244 0.005008 -0.124871 0.065208 -0.956765
    39 1.100770 0.004526 -0.010676 -0.014685 0.006889 -0.956472
    40 0.120152 -0.050266 -0.054488 0.287568 3.110905 1.561085
  time 15
    0 0.000000 0.000000 0.000000 0.000000 0.000000 -0.000063
    1 6.208814 4.861697 -6.974305 6.073625 -1.608730 0.168997
    2 -0.071918 -8.498732 -0.104137 -0.000561 0.290283 0.066969
    3 2.309492 -2.752047 1.804646 -0.057826 0.286025 -3.251375
    4 0.822732 1.600163 0.000001 0.000002 0.000000 -0.024500
    5 -0.135229 4.811259 0.000000 0.000000 0.000000 1.558216
    6 -0.114076 -2.997109 0.000000 0.000000 0.000000 -0.019284
    7 -1.055155 -7.027356 -7.666015 -0.070590 -6.210215 0.489182
    8 0.096944 -8.450418 -0.009364 -0.146160 -0.268260 0.357715
    9 0.447952 -2.798983 -0.200442 -0.766149 -0.010396 0.265094
    10 -0.032910 -1.480206 0.004936 -0.491695 0.000000 0.000002
    11 -0.027022 -1.076919 -0.020212 -1.394127 0.000000 0.000000
    12 -0.249534 -2.846962 -0.174215 -0.219877 -0.000125 -0.008396
    13 0.043235 -1.683940 0.096014 -1.114635 0.002823 -0.000167
    14 0.031729 -1.160831 0.058836 -0.912818 0.000642 0.008372
    15 -0.963866 -2.785142 -0.085346 0.070019 0.162276 -0.191556
    16 0.028479 -1.403069 0.006271 -0.596876 0.000000 0.000000
    17 0.021413 -0.957782 0.020047 -0.432482 0.000000 0.000000
    18 1.164474 -2.543938 -0.170328 -0.702366 -0.013294 0.477915
    19 0.024033 -1.129042 0.017806 -0.803472 0.000000 0.000001
    20 0.014896 -0.883989 -0.019845 -0.584376 0.000000 0.000000
    21 -0.586770 -1.264475 0.200164 -0.286511 -0.333680 -2.448923
    22 1.522835 0.058681 0.016850 -0.077529 -0.420656 0.144479
    23 1.117948 0.048424 -0.005764 -0.000243 -0.025198 0.065422
    24 -0.139399 -0.111697 0.014397 0.285382 -0.030687 1.580508
    25 -0.488517 -2.755600 -0.228261 -1.119640 -0.066262 -0.107576
    26 0.039888 -1.479789 0.029853 -1.451658 0.000000 0.000000
    27 0.028786 -1.075730 -0.023111 -0.870565 0.000000 0.000000
    28 0.250028 -2.820664 -0.238396 -0.916633 -0.083565 -0.024874
    29 -0.049759 -1.680545 0.100480 -1.550922 0.000000 -0.000002
    30 -0.034141 -1.148312 0.084779 -1.087312 0.000000 0.000000
    31 0.957766 -2.746776 -0.090301 -0.432128 -0.184437 0.072455
    32 -0.033419 -1.397128 -0.011255 -0.247848 0.000000 -0.000001
    33 -0.022361 -0.957434 0.018783 -0.956086 0.000000 0.000000
    34 -1.180680 -2.507215 -0.193861 -0.747365 0.130011 -0.054388
    35 -0.024966 -1.123935 0.017594 -1.414285 0.000000 0.000001
    36 -0.020057 -0.890966 0.010091 -0.846171 0.000000 0.000000
    37 0.583510 -1.197274 0.185377 0.631272 -1.323162 -0.918143
    38 1.535926 0.010244 0.005008 -0.124871 0.065208 -0.956765
    39 1.100770 0.004526 -0.010676 -0.014685 0.006889 -0.956472
    40 0.120152 -0.050266 -0.054488 0.287568 3.110905 1.561085
  time 16
    0 0.000000 0.000000 0.000000 0.000000 0.000000 -0.000063
    1 6.208814 4.861697 -6.974305 6.073625 -1.608730 0.168997
    2 -0.071918 -8.498732 -0.104137 -0.000320 0.289972 0.074741
    3 2.309492 -2.752047 1.804646 -0.057826 0.286025 -3.251375
    4 0.822732 1.600163 0.000001 0.000002 0.000000 -0.024500
    5 -0.135229 4.811259 0.000000 0.000000 0.000000 1.558216
    6 -0.114076 -2.997109 0.000000 0.000000 0.000000 -0.019284
    7 -1.055155 -7.027356 -7.666015 -0.076325 -6.210215 0.489182
    8 0.096944 -8.450418 -0.009364 -0.141910 -0.268260 0.357715
    9 0.447952 -2.798983 -0.200442 -0.766149 -0.010396 0.265094
    10 -0.032910 -1.480206 0.004936 -0.491695 0.000000 0.000002
    11 -0.027022 -1.076919 -0.020212 -1.394127 0.000000 0.000000
    12 -0.249534 -2.846962 -0.174215 -0.219877 -0.000125 -0.008396
    13 0.043235 -1.683940 0.096014 -1.114635 0.002823 -0.000167
    14 0.031729 -1.160831 0.058836 -0.912818 0.000642 0.008372
    15 -0.963866 -2.785142 -0.085346 0.070019 0.162276 -0.191556
    16 0.028479 -1.403069 0.006271 -0.596876 0.000000 0.000000
    17 0.021413 -0.957782 0.020047 -0.432482 0.000000 0.000000
    18 1.164474 -2.543938 -0.170328 -0.702366 -0.013294 0.477915
    19 0.024033 -1.129042 0.017806 -0.803472 0.000000 0.000001
    20 0.014896 -0.883989 -0.019845 -0.584376 0.000000 0.000000
    21 -0.586770 -1.264475 0.200164 -0.286511 -0.333680 -2.448923
    22 1.522835 0.058681 0.016850 -0.077529 -0.420656 0.144479
    23 1.117948 0.048424 -0.005764 -0.000243 -0.025198 0.065422
    24 -0.139399 -0.111697 0.014397 0.285382 -0.030687 1.580508
    25 -0.488517 -2.755600 -0.228261 -1.119640 -0.066262 -0.107576
    26 0.039888 -1.479789 0.029853 -1.451658 0.000000 0.000000
    27 0.028786 -1.075730 -0.023111 -0.870565 0.000000 0.000000
    28 0.250028 -2.820664 -0.238396 -0.916633 -0.083565 -0.024874
    29 -0.049759 -1.680545 0.100480 -1.550922 0.000000 -0.000002
    30 -0.034141 -1.148312 0.084779 -1.087312 0.000000 0.000000
    31 0.957766 -2.746776 -0.090301 -0.432128 -0.184437 0.072455
    32 -0.033419 -1.397128 -0.011255 -0.247848 0.000000 -0.000001
    33 -0.022361 -0.957434 0.018783 -0.956086 0.000000 0.000000
    34 -1.180680 -2.507215 -0.193861 -0.747365 0.130011 -0.054388
    35 -0.024966 -1.123935 0.017594 -1.414285 0.000000 0.000001
    36 -0.020057 -0.890966 0.010091 -0.846171 0.000000 0.000000
    37 0.583510 -1.197274 0.185377 0.631272 -1.323162 -0.918143
    38 1.535926 0.010244 0.005008 -0.124871 0.065208 -0.956765
    39 1.100770 0.004526 -0.010676 -0.014685 0.006889 -0.956472
    40 0.120152 -0.050266 -0.054488 0.287568 3.110905 1.561085
  time 17
    0 0.000000 0.000000 0.000000 0.000000 0.000000 -0.000063
    1 6.208814 4.861697 -6.974305 6.073625 -1.608730 0.168997
    2 -0.071918 -8.498732 -0.104137 0.000067 0.289514 0.084866
    3 2.309492 -2.752047 1.804646 -0.057826 0.286025 -3.251375
    4 0.822732 1.600163 0.000001 0.000002 0.000000 -0.024500
    5 -0.135229 4.811259 0.000000 0.000000 0.000000 1.558216
    6 -0.114076 -2.997109 0.000000 0.000000 0.000000 -0.019284
    7 -1.055155 -7.027356 -7.666015 -0.090089 -6.210215 0.489182
    8 0.096944 -8.450418 -0.009364 -0.138822 -0.268260 0.357715
    9 0.447952 -2.798983 -0.200442 -0.766149 -0.010396 0.265094
    10 -0.032910 -1.480206 0.004936 -0.491695 0.000000 0.000002
    11 -0.027022 -1.076919 -0.020212 -1.394127 0.000000 0.000000
    12 -0.249534 -2.846962 -0.174215 -0.219877 -0.000125 -0.008396
    13 0.043235 -1.683940 0.096014 -1.114635 0.002823 -0.000167
    14 0.031729 -1.160831 0.058836 -0.912818 0.000642 0.008372
    15 -0.963866 -2.785142 -0.085346 0.070019 0.162276 -0.191556
    16 0.028479 -1.403069 0.006271 -0.596876 0.000000 0.000000
    17 0.021413 -0.957782 0.020047 -0.432482 0.000000 0.000000
    18 1.164474 -2.543938 -0.170328 -0.702366 -0.013294 0.477915
    19 0.024033 -1.129042 0.017806 -0.803472 0.000000 0.000001
    20 0.014896 -0.883989 -0.019845 -0.584376 0.000000 0.000000
    21 -0.586770 -1.264475 0.200164 -0.286511 -0.333680 -2.448923
    22 1.522835 0.058681 0.016850 -0.077529 -0.420656 0.144479
    23 1.117948 0.048424 -0.005764 -0.000243 -0.025198 0.065422
    24 -0.139399 -0.111697 0.014397 0.285382 -0.030687 1.580508
    25 -0.488517 -2.755600 -0.228261 -1.119640 -0.066262 -0.107576
    26 0.039888 -1.479789 0.029853 -1.451658 0.000000 0.000000
    27 0.028786 -1.075730 -0.023111 -0.870565 0.000000 0.000000
    28 0.250028 -2.820664 -0.238396 -0.916633 -0.083565 -0.024874
    29 -0.049759 -1.680545 0.100480 -1.550922 0.000000 -0.000002
    30 -0.034141 -1.148312 0.084779 -1.087312 0.000000 0.000000
    31 0.957766 -2.746776 -0.090301 -0.432128 -0.184437 0.072455
    32 -0.033419 -1.397128 -0.011255 -0.247848 0.000000 -0.000001
    33 -0.022361 -0.957434 0.018783 -0.956086 0.000000 0.000000
    34 -1.180680 -2.507215 -0.193861 -0.747365 0.130011 -0.054388
    35 -0.024966 -1.123935 0.017594 -1.414285 0.000000 0.000001
    36 -0.020057 -0.890966 0.010091 -0.846171 0.000000 0.000000
    37 0.583510 -1.197274 0.185377 0.631272 -1.323162 -0.918143
    38 1.535926 0.010244 0.005008 -0.124871 0.065208 -0.956765
    39 1.100770 0.004526 -0.010676 -0.014685 0.006889 -0.956472
    40 0.120152 -0.050266 -0.054488 0.287568 3.110905 1.561085
  time 18
    0 0.000000 0.000000 0.000000 0.000000 0.000000 -0.000063
    1 6.208814 4.861697 -6.974305 6.073625 -1.608730 0.168997
    2 -0.071918 -8.498732 -0.104137 0.000429 0.289111 0.094991
    3 2.309492 -2.752047 1.804646 -0.057826 0.286025 -3.251375
    4 0.822732 1.600163 0.000001 0.000002 0.000000 -0.024500
    5 -0.135229 4.811259 0.000000 0.000000 0.000000 1.558216
    6 -0.114076 -2.997109 0.000000 0.000000 0.000000 -0.019284
    7 -1.055155 -7.027356 -7.666015 -0.106530 -6.210215 0.489182
    8 0.096944 -8.450418 -0.009364 -0.136750 -0.268260 0.357715
    9 0.447952 -2.798983 -0.200442 -0.766149 -0.010396 0.265094
    10 -0.032910 -1.480206 0.004936 -0.491695 0.000000 0.000002
    11 -0.027022 -1.076919 -0.020212 -1.394127 0.000000 0.000000
    12 -0.249534 -2.846962 -0.174215 -0.219877 -0.000125 -0.008396
    13 0.043235 -1.683940 0.096014 -1.114635 0.002823 -0.000167
    14 0.031729 -1.160831 0.058836 -0.912818 0.000642 0.008372
    15 -0.963866 -2.785142 -0.085346 0.070019 0.162276 -0.191556
    16 0.028479 -1.403069 0.006271 -0.596876 0.000000 0.000000
    17 0.021413 -0.957782 0.020047 -0.432482 0.000000 0.000000
    18 1.164474 -2.543938 -0.170328 -0.702366 -0.013294 0.477915
    19 0.024033 -1.129042 0.017806 -0.803472 0.000000 0.000001
    20 0.014896 -0.883989 -0.019845 -0.584376 0.000000 0.000000
    21 -0.586770 -1.264475 0.200164 -0.286511 -0.333680 -2.448923
    22 1.522835 0.058681 0.016850 -0.077529 -0.420656 0.144479
    23 1.117948 0.048424 -0.005764 -0.000243 -0.025198 0.065422
    24 -0.139399 -0.111697 0.014397 0.285382 -0.030687 1.580508
    25 -0.488517 -2.755600 -0.228261 -1.119640 -0.066262 -0.107576
    26 0.039888 -1.479789 0.029853 -1.451658 0.000000 0.000000
    27 0.028786 -1.075730 -0.023111 -0.870565 0.000000 0.000000
    28 0.250028 -2.820664 -0.238396 -0.916633 -0.083565 -0.024874
    29 -0.049759 -1.680545 0.100480 -1.550922 0.000000 -0.000002
    30 -0.034141 -1.148312 0.084779 -1.087312 0.000000 0.000000
    31 0.957766 -2.746776 -0.090301 -0.432128 -0.184437 0.072455
    32 -0.033419 -1.397128 -0.011255 -0.247848 0.000000 -0.000001
    33 -0.022361 -0.957434 0.018783 -0.956086 0.000000 0.000000
    34 -1.180680 -2.507215 -0.193861 -0.747365 0.130011 -0.054388
    35 -0.024966 -1.123935 0.017594 -1.414285 0.000000 0.000001
    36 -0.020057 -0.890966 0.010091 -0.846171 0.000000 0.000000
    37 0.583510 -1.197274 0.185377 0.631272 -1.323162 -0.918143
    38 1.535926 0.010244 0.005008 -0.124871 0.065208 -0.956765
    39 1.100770 0.004526 -0.010676 -0.014685 0.006889 -0.956472
    40 0.120152 -0.050266 -0.054488 0.287568 3.110905 1.561085
  time 19
    0 0.000000 0.000000 0.000000 0.000000 0.000000 -0.000063
    1 6.208814 4.861697 -6.974305 6.073625 -1.608730 0.168997
    2 -0.071918 -8.498732 -0.104137 0.000719 0.288763 0.102798
    3 2.309492 -2.752047 1.804646 -0.057826 0.286025 -3.251375
    4 0.822732 1.600163 0.000001 0.000002 0.000000 -0.024500
    5 -0.135229 4.811259 0.000000 0.000000 0.000000 1.558216
    6 -0.114076 -2.997109 0.000000 0.000000 0.000000 -0.019284
    7 -1.055155 -7.027356 -7.666015 -0.120358 -6.210215 0.489182
    8 0.096944 -8.450418 -0.009364 -0.135572 -0.268260 0.357715
    9 0.447952 -2.798983 -0.200442 -0.766149 -0.010396 0.265094
    10 -0.032910 -1.480206 0.004936 -0.491695 0.000000 0.000002
    11 -0.027022 -1.076919 -0.020212 -1.394127 0.000000 0.000000
    12 -0.249534 -2.846962 -0.174215 -0.219877 -0.000125 -0.008396
    13 0.043235 -1.683940 0.096014 -1.114635 0.002823 -0.000167
    14 0.031729 -1.160831 0.058836 -0.912818 0.000642 0.008372
    15 -0.963866 -2.785142 -0.085346 0.070019 0.162276 -0.191556
    16 0.028479 -1.403069 0.006271 -0.596876 0.000000 0.000000
    17 0.021413 -0.957782 0.020047 -0.432482 0.000000 0.000000
    18 1.164474 -2.543938 -0.170328 -0.702366 -0.013294 0.477915
    19 0.024033 -1.129042 0.017806 -0.803472 0.000000 0.000001
    20 0.014896 -0.883989 -0.019845 -0.584376 0.000000 0.000000
    21 -0.586770 -1.264475 0.200164 -0.286511 -0.333680 -2.448923
    22 1.522835 0.058681 0.016850 -0.077529 -0.420656 0.144479
    23 1.117948 0.048424 -0.005764 -0.000243 -0.025198 0.065422
    24 -0.139399 -0.111697 0.014397 0.285382 -0.030687 1.580508
    25 -0.488517 -2.755600 -0.228261 -1.119640 -0.066262 -0.107576
    26 0.039888 -1.479789 0.029853 -1.451658 0.000000 0.000000
    27 0.028786 -1.075730 -0.023111 -0.870565 0.000000 0.000000
    28 0.250028 -2.820664 -0.238396 -0.916633 -0.083565 -0.024874
    29 -0.049759 -1.680545 0.100480 -1.550922 0.000000 -0.000002
    30 -0.034141 -1.148312 0.084779 -1.087312 0.000000 0.000000
    31 0.957766 -2.746776 -0.090301 -0.432128 -0.184437 0.072455
    32 -0.033419 -1.397128 -0.011255 -0.247848 0.000000 -0.000001
    33 -0.022361 -0.957434 0.018783 -0.956086 0.000000 0.000000
    34 -1.180680 -2.507215 -0.193861 -0.747365 0.130011 -0.054388
    35 -0.024966 -1.123935 0.017594 -1.414285 0.000000 0.000001
    36 -0.020057 -0.890966 0.010091 -0.846171 0.000000 0.000000
    37 0.583510 -1.197274 0.185377 0.631272 -1.323162 -0.918177
    38 1.535926 0.010244 0.005008 -0.124871 0.065208 -0.956765
    39 1.100770 0.004526 -0.010676 -0.014685 0.006889 -0.956472
    40 0.120152 -0.050266 -0.054488 0.287568 3.110905 1.561085
  time 20
    0 0.000000 0.000000 0.000000 0.000000 0.000000 -0.000063
    1 6.208814 4.861697 -6.974305 6.073625 -1.608730 0.168997
    2 -0.071918 -8.498732 -0.104137 0.000791 0.288635 0.105900
    3 2.309492 -2.752047 1.804646 -0.057826 0.286025 -3.251375
    4 0.822732 1.600163 0.000001 0.000002 0.000000 -0.024500
    5 -0.135229 4.811259 0.000000 0.000000 0.000000 1.558216
    6 -0.114076 -2.997109 0.000000 0.000000 0.000000 -0.019284
    7 -1.055155 -7.027356 -7.666015 -0.126093 -6.210215 0.489182
    8 0.096944 -8.450418 -0.009364 -0.135215 -0.268260 0.357715
    9 0.447952 -2.798983 -0.200442 -0.766149 -0.010396 0.265094
    10 -0.032910 -1.480206 0.004936 -0.491695 0.000000 0.000002
    11 -0.027022 -1.076919 -0.020212 -1.394127 0.000000 0.000000
    12 -0.249534 -2.846962 -0.174215 -0.219877 -0.000125 -0.008396
    13 0.043235 -1.683940 0.096014 -1.114635 0.002823 -0.000167
    14 0.031729 -1.160831 0.058836 -0.912818 0.000642 0.008372
    15 -0.963866 -2.785142 -0.085346 0.070019 0.162276 -0.191556
    16 0.028479 -1.403069 0.006271 -0.596876 0.000000 0.000000
    17 0.021413 -0.957782 0.020047 -0.432482 0.000000 0.000000
    18 1.164474 -2.543938 -0.170328 -0.702366 -0.013294 0.477915
    19 0.024033 -1.129042 0.017806 -0.803472 0.000000 0.000001
    20 0.014896 -0.883989 -0.019845 -0.584376 0.000000 0.000000
    21 -0.586770 -1.264475 0.200164 -0.286511 -0.333680 -2.448923
    22 1.522835 0.058681 0.016850 -0.077529 -0.420656 0.144479
    23 1.117948 0.048424 -0.005764 -0.000243 -0.025198 0.065422
    24 -0.139399 -0.111697 0.014397 0.285382 -0.030687 1.580508
    25 -0.488517 -2.755600 -0.228261 -1.119640 -0.066262 -0.107576
    26 0.039888 -1.479789 0.029853 -1.451658 0.000000 0.000000
    27 0.028786 -1.075730 -0.023111 -0.870565 0.000000 0.000000
    28 0.250028 -2.820664 -0.238396 -0.916633 -0.083565 -0.024874
    29 -0.049759 -1.680545 0.100480 -1.550922 0.000000 -0.000002
    30 -0.034141 -1.148312 0.084779 -1.087312 0.000000 0.000000
    31 0.957766 -2.746776 -0.090301 -0.432128 -0.184437 0.072455
    32 -0.033419 -1.397128 -0.011255 -0.247848 0.000000 -0.000001
    33 -0.022361 -0.957434 0.018783 -0.956086 0.000000 0.000000
    34 -1.180680 -2.507215 -0.193861 -0.747365 0.130011 -0.054388
    35 -0.024966 -1.123935 0.017594 -1.414285 0.000000 0.000001
    36 -0.020057 -0.890966 0.010091 -0.846171 0.000000 0.000000
    37 0.583510 -1.197274 0.185377 0.631272 -1.323162 -0.918143
    38 1.535926 0.010244 0.005008 -0.124871 0.065208 -0.956765
    39 1.100770 0.004526 -0.010676 -0.014685 0.006889 -0.956472
    40 0.120152 -0.050266 -0.054488 0.287568 3.110905 1.561085
end
