// Created by Crowbar 0.56

$modelname "weapons/tfa_cso/c_m95tiger.mdl"

$Include "csonline_gmod.qci"

$bodygroup "weapon"
{
	studio "v_m95tiger_v_ref1"
}
$bodygroup "weapon"
{
	studio "v_m95tiger_v_ref2"
}
$bodygroup "weapon"
{
	studio "v_m95tiger_v_ref3"
}
$bodygroup "weapon"
{
	studio "v_m95tiger_v_refef"
}
$bodygroup "weapon"
{
	studio "v_m95tiger_v_ref_grip"
}

$CDMaterials "models\weapons\tfa_cso\m95tiger"

$attachment 0 "tiger_root" 0 0 27
$attachment 1 "tiger_root" -0.2 1 -10.614
$attachment 2 "tiger_root" -2.5 0 11
$attachment 3 "tiger_root" 0.05 1.47 -2.2

$sequence "idle" {
	"v_m95tiger_anims\idle"
	{ event 5004 1 "M95Tiger.Idle" }
	fps 10
	loop
	activity "ACT_VM_IDLE" 1
	snap
}
$sequence "shoot" {
	"v_m95tiger_anims\shoot"
	{ event 5001 0 "#I80 S0.13 R2 F0 P30 T999 A1 L0 O0 X0" }
	fps 30
	activity "ACT_VM_PRIMARYATTACK" 1
	snap
}
$sequence "reloadA" {
	"v_m95tiger_anims\reloadA"
	{ event 5004 15 "M95Tiger.ClipOut" }
	{ event 5004 38 "M95Tiger.ClipIn" }
	fps 30
	activity "ACT_VM_RELOAD" 250
	snap
}
$sequence "draw" {
	"v_m95tiger_anims\draw"
	{ event 5004 2 "M95Tiger.Draw" }
	fps 30
	activity "ACT_VM_DRAW" 1
	snap
}
$sequence "reloadB" {
	"v_m95tiger_anims\reloadB"
	{ event 5004 1  "M95Tiger.Point" }
	fps 30
	activity "ACT_VM_RELOAD" 1
	snap
}
$sequence "shoot_net" {
	"v_m95tiger_anims\shoot_net"
	{ event 5021 0 "#I59 S0.18 R2 F0 P30 T999 A1 L0 O0 X0" }
	{ event 5004 13 "M95Tiger.Net1" }
	{ event 5004 37 "M95Tiger.Net2" }
	fps 30
	activity "ACT_VM_SECONDARYATTACK" 1
	snap
}
