version 1
nodes
  0 "tiger_root" -1
  1 "megazine" 0
  2 "triger" 0
  3 "net" 0
  4 "grip" 0
  5 "root" -1
  6 "Bone01" 5
  7 "Bone_L_Upper" 6
  8 "Bone_Lefthand" 6
  9 "Bone13" 8
  10 "Bone14" 9
  11 "Bone15" 10
  12 "Bone17" 8
  13 "Bone18" 12
  14 "Bone19" 13
  15 "Bone21" 8
  16 "Bone22" 15
  17 "Bone23" 16
  18 "Bone09" 8
  19 "Bone10" 18
  20 "Bone11" 19
  21 "Bone05" 8
  22 "Bone06" 21
  23 "Bone07" 22
  24 "Bone_Se_Hand-L" 8
  25 "Bone04" 5
  26 "Bone_Righthand" 25
  27 "Bone39" 26
  28 "Bone40" 27
  29 "Bone41" 28
  30 "Bone35" 26
  31 "Bone36" 30
  32 "Bone37" 31
  33 "Bone31" 26
  34 "Bone32" 33
  35 "Bone33" 34
  36 "Bone43" 26
  37 "Bone44" 36
  38 "Bone45" 37
  39 "Bone27" 26
  40 "Bone28" 39
  41 "Bone29" 40
  42 "Bone_Se_Hand-R" 26
  43 "Bone_R_Upper" 25
end
skeleton
  time 0
    0 0.000000 0.000000 0.000000 1.570796 -1.570796 0.000000
    1 -7.317923 -0.000006 -10.727234 -1.570796 3.141590 0.000000
    2 -2.727010 -0.000002 -1.988255 1.570724 -0.000002 -3.141592
    3 -2.476966 0.000000 0.001082 -1.570796 -1.570796 0.000000
    4 -0.365479 -0.150272 -8.200390 1.570796 -3.141592 -1.161718
    5 0.001265 -0.569176 -20.601572 0.000000 0.000000 0.000000
    6 9.310103 -5.299614 -12.557959 3.138909 -0.000224 -1.566807
    7 1.257180 8.762585 -0.153713 -1.570562 0.002683 -1.566807
    8 -0.071921 -8.498736 -0.104134 -0.025046 0.287591 0.014898
    9 -0.488518 -2.755602 -0.228260 0.106454 0.010332 -0.264490
    10 0.039887 -1.479790 0.029854 -0.055395 0.000000 0.000001
    11 0.028786 -1.075731 -0.023109 0.002099 0.000000 0.000000
    12 0.250027 -2.820665 -0.238396 0.041826 -0.002921 0.008443
    13 -0.049759 -1.680544 0.100479 0.019826 0.000000 -0.000002
    14 -0.034142 -1.148312 0.084782 -0.040115 0.000000 0.000000
    15 0.957766 -2.746780 -0.090302 -0.017221 -0.162277 0.191558
    16 -0.033420 -1.397129 -0.011257 0.013931 0.000000 -0.000001
    17 -0.022360 -0.957436 0.018784 0.003845 0.000000 0.000000
    18 -1.180681 -2.507217 -0.193859 0.082999 0.013294 -0.477915
    19 -0.024967 -1.123934 0.017597 -0.018065 0.000000 0.000001
    20 -0.020057 -0.890968 0.010090 -0.060797 0.000000 0.000000
    21 0.583510 -1.197277 0.185379 0.158049 -0.404973 -0.364290
    22 1.535927 0.010246 0.005009 -0.002964 -0.012979 0.000887
    23 1.100771 0.004527 -0.010679 -0.002796 0.015973 0.003458
    24 0.120153 -0.050270 -0.054489 0.287569 3.110905 1.561085
    25 -9.310107 -5.231260 -12.513384 0.004984 -3.131565 -1.566847
    26 0.096944 -8.450418 -0.009365 -0.032965 -0.297907 -0.004663
    27 0.447953 -2.798986 -0.200443 0.106456 -0.010396 0.265094
    28 -0.032909 -1.480204 0.004940 -0.055403 0.000000 0.000002
    29 -0.027022 -1.076920 -0.020210 0.002094 0.000000 0.000000
    30 -0.249534 -2.846964 -0.174213 0.041903 -0.000125 -0.008396
    31 0.043235 -1.683941 0.096012 0.019757 0.002823 -0.000167
    32 0.031729 -1.160830 0.058838 -0.040181 0.000642 0.008372
    33 -0.963866 -2.785145 -0.085350 -0.017227 0.162276 -0.191556
    34 0.028479 -1.403067 0.006271 0.013941 0.000000 0.000000
    35 0.021413 -0.957781 0.020046 0.003851 0.000000 0.000000
    36 1.164475 -2.543940 -0.170330 0.083003 -0.013294 0.477915
    37 0.024032 -1.129042 0.017807 -0.018074 0.000000 0.000001
    38 0.014898 -0.883989 -0.019848 -0.060801 0.000000 0.000000
    39 -0.586770 -1.264477 0.200161 -0.152092 -0.410513 -2.814816
    40 1.522835 0.058681 0.016848 0.001410 0.008985 -0.046880
    41 1.117947 0.048424 -0.005766 -0.000243 -0.025198 0.065422
    42 -0.139399 -0.111698 0.014397 0.285382 -0.030687 1.580508
    43 -1.393470 8.839177 -0.239433 1.580804 -0.005023 -1.566847
end
triangles
$20@004m95tiger_01_v.bmp
  4 -2.698553 8.410389 -1.437057 -0.439982 0.705886 0.555105 0.383562 0.649706
  4 -2.752702 8.060389 -1.362438 -0.583130 -0.258372 0.770197 0.383562 0.673190
  4 -2.038281 8.100390 -1.074510 -0.344815 -0.252835 0.903979 0.365949 0.673190
$20@004m95tiger_01_v.bmp
  4 -2.698553 8.410389 -1.437057 -0.439982 0.705886 0.555105 0.383562 0.649706
  4 -2.955131 8.090389 -1.624588 -0.783896 -0.243753 0.571045 0.365949 0.673190
  4 -2.752702 8.060389 -1.362438 -0.583130 -0.258372 0.770197 0.383562 0.673190
$20@004m95tiger_01_v.bmp
  4 -2.698553 8.410389 -1.437057 -0.439982 0.705886 0.555105 0.383562 0.649706
  4 -2.912916 8.340389 -1.671682 -0.648845 0.665947 0.368124 0.365949 0.649706
  4 -2.955131 8.090389 -1.624588 -0.783896 -0.243753 0.571045 0.365949 0.673190
$20@004m95tiger_01_v.bmp
  4 -2.698553 8.410389 -1.437057 -0.439982 0.705886 0.555105 0.383562 0.649706
  4 -2.504287 8.510390 -1.734312 0.094259 0.964259 -0.247627 0.383562 0.616438
  4 -2.912916 8.340389 -1.671682 -0.648845 0.665947 0.368124 0.365949 0.649706
$20@004m95tiger_01_v.bmp
  4 -2.698553 8.410389 -1.437057 -0.439982 0.705886 0.555105 0.383562 0.649706
  4 -2.009218 8.300390 -1.116407 -0.204733 0.690758 0.693497 0.365949 0.649706
  4 -2.504287 8.510390 -1.734312 0.094259 0.964259 -0.247627 0.383562 0.616438
$20@004m95tiger_01_v.bmp
  4 -2.698553 8.410389 -1.437057 -0.439982 0.705886 0.555105 0.383562 0.649706
  4 -2.038281 8.100390 -1.074510 -0.344815 -0.252835 0.903979 0.365949 0.673190
  4 -2.009218 8.300390 -1.116407 -0.204733 0.690758 0.693497 0.365949 0.649706
$20@004m95tiger_01_v.bmp
  4 -2.607387 7.790390 -1.571922 -0.192041 -0.964258 0.182554 0.383562 0.632094
  4 -1.960267 7.950390 -1.204178 0.037895 -0.943594 0.328930 0.365949 0.632094
  4 -2.038281 8.100390 -1.074510 -0.344815 -0.252835 0.903979 0.365949 0.665362
$20@004m95tiger_01_v.bmp
  4 -2.607387 7.790390 -1.571922 -0.192041 -0.964258 0.182554 0.383562 0.632094
  4 -2.409142 7.890390 -1.878352 0.342202 -0.705887 -0.620179 0.383562 0.598826
  4 -1.960267 7.950390 -1.204178 0.037895 -0.943594 0.328930 0.365949 0.632094
$20@004m95tiger_01_v.bmp
  4 -2.607387 7.790390 -1.571922 -0.192041 -0.964258 0.182554 0.383562 0.632094
  4 -2.850812 7.900389 -1.764650 -0.414933 -0.909700 0.016650 0.365949 0.632094
  4 -2.409142 7.890390 -1.878352 0.342202 -0.705887 -0.620179 0.383562 0.598826
$20@004m95tiger_01_v.bmp
  4 -2.607387 7.790390 -1.571922 -0.192041 -0.964258 0.182554 0.383562 0.632094
  4 -2.955131 8.090389 -1.624588 -0.783896 -0.243753 0.571045 0.365949 0.665362
  4 -2.850812 7.900389 -1.764650 -0.414933 -0.909700 0.016650 0.365949 0.632094
$20@004m95tiger_01_v.bmp
  4 -2.607387 7.790390 -1.571922 -0.192041 -0.964258 0.182554 0.383562 0.632094
  4 -2.752702 8.060389 -1.362438 -0.583130 -0.258372 0.770197 0.383562 0.665362
  4 -2.955131 8.090389 -1.624588 -0.783896 -0.243753 0.571045 0.365949 0.665362
$20@004m95tiger_01_v.bmp
  4 -2.607387 7.790390 -1.571922 -0.192041 -0.964258 0.182554 0.383562 0.632094
  4 -2.038281 8.100390 -1.074510 -0.344815 -0.252835 0.903979 0.365949 0.665362
  4 -2.752702 8.060389 -1.362438 -0.583130 -0.258372 0.770197 0.383562 0.665362
$20@004m95tiger_01_v.bmp
  4 -1.150175 8.130390 -0.558693 -0.406210 -0.182921 0.895284 0.131115 0.964775
  4 -1.082555 8.010390 -0.714666 0.050771 -0.992358 -0.112466 0.131115 0.847358
  4 0.136484 8.130390 -0.207968 -0.257332 -0.194568 0.946532 0.115460 0.964775
$20@004m95tiger_01_v.bmp
  4 0.136484 8.130390 -0.207968 -0.257332 -0.194568 0.946532 0.115460 0.964775
  4 -1.082555 8.010390 -0.714666 0.050771 -0.992358 -0.112466 0.131115 0.847358
  4 0.172602 8.010390 -0.366699 0.049685 -0.980903 -0.188046 0.115460 0.847358
$20@004m95tiger_01_v.bmp
  4 -1.082555 8.010390 -0.714666 0.050771 -0.992358 -0.112466 0.131115 0.847358
  4 -1.034823 8.190390 -0.824764 0.404534 0.210560 -0.889953 0.131115 0.753425
  4 0.172602 8.010390 -0.366699 0.049685 -0.980903 -0.188046 0.115460 0.847358
$20@004m95tiger_01_v.bmp
  4 0.172602 8.010390 -0.366699 0.049685 -0.980903 -0.188046 0.115460 0.847358
  4 -1.034823 8.190390 -0.824764 0.404534 0.210560 -0.889953 0.131115 0.753425
  4 0.211159 8.190390 -0.480775 0.254263 0.195129 -0.947246 0.115460 0.753425
$20@004m95tiger_01_v.bmp
  4 -2.098209 8.130390 -1.187686 -0.538792 -0.194598 0.819656 0.131115 0.964775
  4 -2.007042 8.010390 -1.322551 0.108161 -0.981069 -0.160641 0.131115 0.847358
  4 -1.150175 8.130390 -0.558693 -0.406210 -0.182921 0.895284 0.115460 0.964775
$20@004m95tiger_01_v.bmp
  4 -1.150175 8.130390 -0.558693 -0.406210 -0.182921 0.895284 0.115460 0.964775
  4 -2.007042 8.010390 -1.322551 0.108161 -0.981069 -0.160641 0.131115 0.847358
  4 -1.082555 8.010390 -0.714666 0.050771 -0.992358 -0.112466 0.115460 0.847358
$20@004m95tiger_01_v.bmp
  4 -2.007042 8.010390 -1.322551 0.108161 -0.981069 -0.160641 0.131115 0.847358
  4 -1.944938 8.190390 -1.415519 0.541861 0.195009 -0.817532 0.131115 0.753425
  4 -1.082555 8.010390 -0.714666 0.050771 -0.992358 -0.112466 0.115460 0.847358
$20@004m95tiger_01_v.bmp
  4 -1.082555 8.010390 -0.714666 0.050771 -0.992358 -0.112466 0.115460 0.847358
  4 -1.944938 8.190390 -1.415519 0.541861 0.195009 -0.817532 0.131115 0.753425
  4 -1.034823 8.190390 -0.824764 0.404534 0.210560 -0.889953 0.115460 0.753425
$20@004m95tiger_01_v.bmp
  4 -1.818929 8.200390 -1.404487 0.700768 0.252836 -0.667082 0.365949 0.583170
  4 -2.354994 8.240390 -1.952971 0.485352 0.258373 -0.835271 0.383562 0.583170
  4 -1.902141 8.350390 -1.287972 0.318060 0.943593 -0.092035 0.365949 0.616438
$20@004m95tiger_01_v.bmp
  4 -1.902141 8.350390 -1.287972 0.318060 0.943593 -0.092035 0.365949 0.616438
  4 -2.354994 8.240390 -1.952971 0.485352 0.258373 -0.835271 0.383562 0.583170
  4 -2.504287 8.510390 -1.734312 0.094259 0.964259 -0.247627 0.383562 0.616438
$20@004m95tiger_01_v.bmp
  4 -2.354994 8.240390 -1.952971 0.485352 0.258373 -0.835271 0.383562 0.583170
  4 -2.776775 8.400390 -1.885143 -0.144831 0.909700 -0.389192 0.365949 0.616438
  4 -2.504287 8.510390 -1.734312 0.094259 0.964259 -0.247627 0.383562 0.616438
$20@004m95tiger_01_v.bmp
  4 -2.504287 8.510390 -1.734312 0.094259 0.964259 -0.247627 0.383562 0.616438
  4 -2.776775 8.400390 -1.885143 -0.144831 0.909700 -0.389192 0.365949 0.616438
  4 -2.912916 8.340389 -1.671682 -0.648845 0.665947 0.368124 0.365949 0.649706
$20@004m95tiger_01_v.bmp
  4 -1.960267 7.950390 -1.204178 0.037895 -0.943594 0.328930 0.365949 0.632094
  4 -2.409142 7.890390 -1.878352 0.342202 -0.705887 -0.620179 0.383562 0.598826
  4 -1.847992 8.010390 -1.362590 0.560687 -0.690757 -0.456601 0.365949 0.598826
$20@004m95tiger_01_v.bmp
  4 -1.847992 8.010390 -1.362590 0.560687 -0.690757 -0.456601 0.365949 0.598826
  4 -2.409142 7.890390 -1.878352 0.342202 -0.705887 -0.620179 0.383562 0.598826
  4 -2.354994 8.240390 -1.952971 0.485352 0.258373 -0.835271 0.383562 0.575342
$20@004m95tiger_01_v.bmp
  4 -2.409142 7.890390 -1.878352 0.342202 -0.705887 -0.620179 0.383562 0.598826
  4 -2.714671 7.970390 -1.978112 0.089082 -0.665946 -0.740662 0.365949 0.598826
  4 -2.354994 8.240390 -1.952971 0.485352 0.258373 -0.835271 0.383562 0.575342
$20@004m95tiger_01_v.bmp
  4 -2.354994 8.240390 -1.952971 0.485352 0.258373 -0.835271 0.383562 0.575342
  4 -2.714671 7.970390 -1.978112 0.089082 -0.665946 -0.740662 0.365949 0.598826
  4 -2.668478 8.220390 -2.034381 0.224132 0.243754 -0.943583 0.365949 0.575342
$20@004m95tiger_01_v.bmp
  4 0.136484 8.130390 -0.207968 -0.257332 -0.194568 0.946532 0.115460 0.972603
  4 0.165866 8.290390 -0.326021 -0.052658 0.980569 0.188977 0.115460 0.878669
  4 -1.102443 8.290390 -0.668791 -0.108242 0.964963 0.239020 0.131115 0.878669
$20@004m95tiger_01_v.bmp
  4 -1.102443 8.290390 -0.668791 -0.108242 0.964963 0.239020 0.131115 0.878669
  4 0.165866 8.290390 -0.326021 -0.052658 0.980569 0.188977 0.115460 0.878669
  4 -1.034823 8.190390 -0.824764 0.404534 0.210560 -0.889953 0.131115 0.761252
$20@004m95tiger_01_v.bmp
  4 0.165866 8.290390 -0.326021 -0.052658 0.980569 0.188977 0.115460 0.878669
  4 0.211159 8.190390 -0.480775 0.254263 0.195129 -0.947246 0.115460 0.761252
  4 -1.034823 8.190390 -0.824764 0.404534 0.210560 -0.889953 0.131115 0.761252
$20@004m95tiger_01_v.bmp
  4 -1.150175 8.130390 -0.558693 -0.406210 -0.182921 0.895284 0.115460 0.972603
  4 -1.102443 8.290390 -0.668791 -0.108242 0.964963 0.239020 0.115460 0.878669
  4 -2.036105 8.290390 -1.280654 -0.107555 0.980383 0.165171 0.131115 0.878669
$20@004m95tiger_01_v.bmp
  4 -2.036105 8.290390 -1.280654 -0.107555 0.980383 0.165171 0.131115 0.878669
  4 -1.102443 8.290390 -0.668791 -0.108242 0.964963 0.239020 0.115460 0.878669
  4 -1.944938 8.190390 -1.415519 0.541861 0.195009 -0.817532 0.131115 0.761252
$20@004m95tiger_01_v.bmp
  4 -1.102443 8.290390 -0.668791 -0.108242 0.964963 0.239020 0.115460 0.878669
  4 -1.034823 8.190390 -0.824764 0.404534 0.210560 -0.889953 0.115460 0.761252
  4 -1.944938 8.190390 -1.415519 0.541861 0.195009 -0.817532 0.131115 0.761252
$20@004m95tiger_01_v.bmp
  4 -1.902141 8.350390 -1.287972 0.832489 0.000002 0.554042 0.422701 0.700587
  4 -2.009218 8.300390 -1.116407 0.832489 0.000002 0.554042 0.414873 0.724070
  4 -1.818929 8.200390 -1.404487 0.832489 0.000002 0.554042 0.405088 0.681018
$20@004m95tiger_01_v.bmp
  4 -1.818929 8.200390 -1.404487 0.832489 0.000002 0.554042 0.405088 0.681018
  4 -2.009218 8.300390 -1.116407 0.832489 0.000002 0.554042 0.414873 0.724070
  4 -2.038281 8.100390 -1.074510 0.832489 0.000002 0.554042 0.397260 0.731898
$20@004m95tiger_01_v.bmp
  4 -1.818929 8.200390 -1.404487 0.832489 0.000002 0.554042 0.397260 0.679061
  4 -2.038281 8.100390 -1.074510 0.832489 0.000002 0.554042 0.405088 0.731898
  4 -1.847992 8.010390 -1.362590 0.832489 0.000002 0.554042 0.416830 0.688845
$20@004m95tiger_01_v.bmp
  4 -1.847992 8.010390 -1.362590 0.832489 0.000002 0.554042 0.416830 0.688845
  4 -2.038281 8.100390 -1.074510 0.832489 0.000002 0.554042 0.405088 0.731898
  4 -1.960267 7.950390 -1.204178 0.832489 0.000002 0.554042 0.422701 0.712329
$20@004m95tiger_01_v.bmp
  4 -2.776775 8.400390 -1.885143 -0.832488 0.000001 -0.554043 0.422701 0.700587
  4 -2.668478 8.220390 -2.034381 -0.832488 0.000001 -0.554043 0.405088 0.681018
  4 -2.912916 8.340389 -1.671682 -0.832488 0.000001 -0.554043 0.414873 0.724070
$20@004m95tiger_01_v.bmp
  4 -2.912916 8.340389 -1.671682 -0.832488 0.000001 -0.554043 0.414873 0.724070
  4 -2.668478 8.220390 -2.034381 -0.832488 0.000001 -0.554043 0.405088 0.681018
  4 -2.955131 8.090389 -1.624588 -0.832488 0.000001 -0.554043 0.397260 0.731898
$20@004m95tiger_01_v.bmp
  4 -2.850812 7.900389 -1.764650 -0.832488 0.000001 -0.554043 0.422701 0.712329
  4 -2.955131 8.090389 -1.624588 -0.832488 0.000001 -0.554043 0.405088 0.731898
  4 -2.714671 7.970390 -1.978112 -0.832488 0.000001 -0.554043 0.416830 0.688845
$20@004m95tiger_01_v.bmp
  4 -2.714671 7.970390 -1.978112 -0.832488 0.000001 -0.554043 0.416830 0.688845
  4 -2.955131 8.090389 -1.624588 -0.832488 0.000001 -0.554043 0.405088 0.731898
  4 -2.668478 8.220390 -2.034381 -0.832488 0.000001 -0.554043 0.397260 0.679061
$20@004m95tiger_01_v.bmp
  4 -1.150175 8.130390 -0.558693 -0.406210 -0.182921 0.895284 0.131115 0.972603
  4 0.136484 8.130390 -0.207968 -0.257332 -0.194568 0.946532 0.115460 0.972603
  4 -1.102443 8.290390 -0.668791 -0.108242 0.964963 0.239020 0.131115 0.878669
$20@004m95tiger_01_v.bmp
  4 -2.098209 8.130390 -1.187686 -0.538792 -0.194598 0.819656 0.131115 0.972603
  4 -1.150175 8.130390 -0.558693 -0.406210 -0.182921 0.895284 0.115460 0.972603
  4 -2.036105 8.290390 -1.280654 -0.107555 0.980383 0.165171 0.131115 0.878669
$20@004m95tiger_01_v.bmp
  4 -1.902141 8.350390 -1.287972 0.318060 0.943593 -0.092035 0.365949 0.616438
  4 -2.504287 8.510390 -1.734312 0.094259 0.964259 -0.247627 0.383562 0.616438
  4 -2.009218 8.300390 -1.116407 -0.204733 0.690758 0.693497 0.365949 0.649706
$20@004m95tiger_01_v.bmp
  4 -1.818929 8.200390 -1.404487 0.700768 0.252836 -0.667082 0.365949 0.575342
  4 -1.847992 8.010390 -1.362590 0.560687 -0.690757 -0.456601 0.365949 0.598826
  4 -2.354994 8.240390 -1.952971 0.485352 0.258373 -0.835271 0.383562 0.575342
$20@004m95tiger_01_v.bmp
  4 -2.668478 8.220390 -2.034381 0.224132 0.243754 -0.943583 0.365949 0.583170
  4 -2.776775 8.400390 -1.885143 -0.144831 0.909700 -0.389192 0.365949 0.616438
  4 -2.354994 8.240390 -1.952971 0.485352 0.258373 -0.835271 0.383562 0.583170
$20@004m95tiger_01_v.bmp
  4 -2.714671 7.970390 -1.978112 0.089082 -0.665946 -0.740662 0.365949 0.598826
  4 -2.409142 7.890390 -1.878352 0.342202 -0.705887 -0.620179 0.383562 0.598826
  4 -2.850812 7.900389 -1.764650 -0.414933 -0.909700 0.016650 0.365949 0.632094
end
