version 1
nodes
  0 "Bone01" -1
  1 "Bone_Lefthand" 0
  2 "bone_handle01" 1
  3 "bone_load01" 2
  4 "bone_R_blow01" 2
  5 "bone_R_blow02" 4
  6 "bone_R_blow03" 5
  7 "bone_L_blow01" 2
  8 "bone_L_blow02" 7
  9 "bone_L_blow03" 8
  10 "bone_megazine01" 2
  11 "bone_megazine02" 10
  12 "bone_megazine03" 2
  13 "bone_bullet" 2
  14 "Bone04" -1
  15 "Bone_Righthand" 14
  16 "Bone39" 15
  17 "Bone40" 16
  18 "Bone41" 17
  19 "Bone35" 15
  20 "Bone36" 19
  21 "Bone37" 20
  22 "Bone31" 15
  23 "Bone32" 22
  24 "Bone33" 23
  25 "Bone43" 15
  26 "Bone44" 25
  27 "Bone45" 26
  28 "Bone27" 15
  29 "Bone28" 28
  30 "Bone29" 29
  31 "Bone_Se_Hand-R" 15
  32 "Bone13" 1
  33 "Bone14" 32
  34 "Bone15" 33
  35 "Bone17" 1
  36 "Bone18" 35
  37 "Bone19" 36
  38 "Bone21" 1
  39 "Bone22" 38
  40 "Bone23" 39
  41 "Bone09" 1
  42 "Bone10" 41
  43 "Bone11" 42
  44 "Bone05" 1
  45 "Bone06" 44
  46 "Bone07" 45
  47 "Bone_Se_Hand-L" 1
end
skeleton
  time 0
    0 10.549371 -2.829804 -11.312838 4.178555 -0.770242 -4.800855
    1 -0.071918 -8.498731 -0.104137 0.317449 0.470589 -0.640812
    2 1.665510 -2.904478 0.631343 -0.234326 0.084943 -3.486589
    3 -1.699721 2.222293 0.000421 0.000000 0.000000 -1.282538
    4 -5.655031 16.263659 1.047437 0.005898 -1.121418 -1.279905
    5 7.696722 0.021893 -0.405259 -0.001707 0.561568 -0.000383
    6 6.499035 0.037859 -0.093995 -1.570615 1.505567 -3.138680
    7 -5.655030 16.263657 -1.043029 3.135696 1.121416 -1.279904
    8 7.721393 -0.021960 -0.393362 0.001706 0.561568 0.000382
    9 6.490693 -0.037835 -0.107306 1.570613 1.505567 3.138681
    10 -0.489117 10.226307 1.194557 0.000000 0.000000 -1.282132
    11 1.189389 -0.906793 -1.194556 -0.026444 0.000000 0.003685
    12 -2.647894 8.542626 -0.000005 0.000000 0.000000 -1.274576
    13 16.810589 -5.107452 0.000005 0.000000 0.000000 1.870417
    14 -0.722476 -15.453161 -14.470910 -1.156587 -5.590366 -0.110758
    15 0.096944 -8.450419 -0.009364 -0.005971 -0.540367 0.157854
    16 0.447952 -2.798982 -0.200442 -1.014454 0.150910 0.644033
    17 -0.032910 -1.480206 0.004936 -1.431586 0.000000 0.000002
    18 -0.027022 -1.076919 -0.020212 -0.473979 0.000000 0.000000
    19 -0.249534 -2.846962 -0.174215 -0.473064 0.210085 0.362128
    20 0.043235 -1.683939 0.096014 -1.793930 0.002823 -0.000167
    21 0.031729 -1.160831 0.058836 -0.335964 0.000642 0.008372
    22 -0.963866 -2.785142 -0.085346 -0.609796 0.267585 0.317848
    23 0.028479 -1.403068 0.006271 -1.150412 0.000000 0.000000
    24 0.021413 -0.957782 0.020047 -0.616019 0.000000 0.000000
    25 1.164474 -2.543938 -0.170328 -0.983933 0.070580 0.675847
    26 0.024032 -1.129043 0.017806 -1.337944 0.000000 0.000001
    27 0.014896 -0.883989 -0.019845 -0.672912 0.000000 0.000000
    28 -0.586770 -1.264475 0.200164 -0.186364 -1.053830 -3.148903
    29 1.522835 0.058681 0.016850 0.035028 0.111345 0.871431
    30 1.117948 0.048424 -0.005764 -0.015320 -0.019661 0.717971
    31 -0.057365 -0.119510 0.041742 0.574644 0.064102 1.500033
    32 -0.488517 -2.755600 -0.228261 -0.619222 -0.044186 -0.439105
    33 0.039888 -1.479789 0.029853 -2.158258 0.000000 0.000000
    34 0.028785 -1.075730 -0.023111 -0.647509 0.000000 0.000000
    35 0.250028 -2.820663 -0.238396 -0.535674 0.054401 -0.329163
    36 -0.049759 -1.680545 0.100480 -1.871489 0.000000 -0.000002
    37 -0.034141 -1.148312 0.084779 -1.387518 0.000000 0.000000
    38 0.938234 -2.778027 0.089392 0.136577 -0.026827 -0.329408
    39 -0.033419 -1.397129 -0.011255 -1.523781 -0.032275 -0.008522
    40 -0.022361 -0.957434 0.018783 -1.589597 0.000000 0.000000
    41 -1.180680 -2.507215 -0.193861 -0.379706 0.103249 -0.518986
    42 -0.024966 -1.123934 0.017594 -2.136747 0.000000 0.000001
    43 -0.020057 -0.890966 0.010091 -0.896554 0.000000 0.000000
    44 0.583510 -1.197274 0.185377 0.220453 -0.870262 -0.672925
    45 1.535926 0.010245 0.005008 -0.063786 0.310976 -1.032102
    46 1.100770 0.004526 -0.010676 -0.009999 0.012761 -0.488469
    47 0.006867 -0.061985 -0.085739 -2.852831 -0.015617 -1.424341
  time 1
    0 10.549371 -2.837617 -11.312838 4.178555 -0.770242 -4.800855
    1 -0.071918 -8.498731 -0.104137 0.317823 0.470215 -0.639800
    2 1.665510 -2.904478 0.631343 -0.234326 0.084943 -3.486589
    3 -1.551279 1.718371 0.000421 0.000000 0.000000 -1.282538
    4 -5.655031 16.263659 1.047437 0.145399 -1.337885 -1.279905
    5 7.696722 0.021893 -0.405259 -0.001707 0.396926 -0.000383
    6 6.499035 0.037859 -0.093995 -1.554124 0.977376 -3.097932
    7 -5.655030 16.263657 -1.043029 3.275197 1.337850 -1.279904
    8 7.721393 -0.021960 -0.393362 0.001706 0.396949 0.000382
    9 6.490693 -0.037835 -0.107306 -1.538189 1.288033 0.001212
    10 -0.489117 10.226307 1.194557 0.000000 0.000000 -1.282132
    11 1.189389 -0.891167 -1.175024 -0.100028 0.000000 0.003685
    12 -2.647894 8.542626 -0.000005 0.000000 0.000000 -1.274576
    13 16.810589 -5.107452 0.000005 0.000000 0.000000 1.870417
    14 -0.722476 -15.464881 -14.470910 -1.156587 -5.590366 -0.110758
    15 0.096944 -8.450419 -0.009364 -0.005971 -0.540367 0.157854
    16 0.447952 -2.798982 -0.200442 -1.014454 0.150910 0.644033
    17 -0.032910 -1.480206 0.004936 -1.431586 0.000000 0.000002
    18 -0.027022 -1.076919 -0.020212 -0.473979 0.000000 0.000000
    19 -0.249534 -2.846962 -0.174215 -0.473064 0.210085 0.362128
    20 0.043235 -1.683939 0.096014 -1.793930 0.002823 -0.000167
    21 0.031729 -1.160831 0.058836 -0.335964 0.000642 0.008372
    22 -0.963866 -2.785142 -0.085346 -0.609796 0.267585 0.317848
    23 0.028479 -1.403068 0.006271 -1.150412 0.000000 0.000000
    24 0.021413 -0.957782 0.020047 -0.616019 0.000000 0.000000
    25 1.164474 -2.543938 -0.170328 -0.983933 0.070580 0.675847
    26 0.024032 -1.129043 0.017806 -1.337944 0.000000 0.000001
    27 0.014896 -0.883989 -0.019845 -0.672912 0.000000 0.000000
    28 -0.586770 -1.264475 0.200164 -0.186364 -1.053830 -3.148903
    29 1.522835 0.058681 0.016850 0.035028 0.111345 0.871431
    30 1.117948 0.048424 -0.005764 -0.015320 -0.019661 0.717971
    31 -0.057365 -0.119510 0.041742 0.574644 0.064102 1.500033
    32 -0.488517 -2.755600 -0.228261 -0.619222 -0.044186 -0.439105
    33 0.039888 -1.479789 0.029853 -2.158258 0.000000 0.000000
    34 0.028785 -1.075730 -0.023111 -0.647509 0.000000 0.000000
    35 0.250028 -2.820663 -0.238396 -0.535674 0.054401 -0.329163
    36 -0.049759 -1.680545 0.100480 -1.871489 0.000000 -0.000002
    37 -0.034141 -1.148312 0.084779 -1.387518 0.000000 0.000000
    38 0.938234 -2.778027 0.089392 0.136577 -0.026827 -0.329408
    39 -0.033419 -1.397129 -0.011255 -1.523781 -0.032275 -0.008522
    40 -0.022361 -0.957434 0.018783 -1.589597 0.000000 0.000000
    41 -1.180680 -2.507215 -0.193861 -0.379706 0.103249 -0.518986
    42 -0.024966 -1.123934 0.017594 -2.136747 0.000000 0.000001
    43 -0.020057 -0.890966 0.010091 -0.896554 0.000000 0.000000
    44 0.583510 -1.197274 0.185377 0.220453 -0.870262 -0.672925
    45 1.535926 0.010245 0.005008 -0.063786 0.310976 -1.032102
    46 1.100770 0.004526 -0.010676 -0.009999 0.012761 -0.488469
    47 0.006867 -0.061985 -0.085739 -2.852831 -0.015617 -1.424341
  time 2
    0 10.549371 -2.841524 -11.312838 4.178555 -0.770242 -4.800855
    1 -0.071918 -8.498731 -0.104137 0.318647 0.469814 -0.638162
    2 1.665510 -2.904478 0.631343 -0.234326 0.084943 -3.486589
    3 -2.152860 3.769215 0.000421 0.000000 0.000000 -1.282538
    4 -5.655031 16.263659 1.047437 0.284899 -1.554351 -1.279905
    5 7.696722 0.021893 -0.405259 -0.001707 0.232261 -0.000383
    6 6.499035 0.037859 -0.093995 -1.532456 0.626416 -3.050665
    7 -5.655030 16.263657 -1.043029 3.414601 1.554316 -1.279904
    8 7.721393 -0.021960 -0.393362 0.001706 0.232262 0.000382
    9 6.490693 -0.037835 -0.107306 1.515388 1.000675 3.025930
    10 -0.489117 10.226307 1.194557 0.000000 0.000000 -1.282132
    11 1.189389 -0.867729 -1.120335 -0.279772 0.000000 0.003685
    12 -2.647894 8.542626 -0.000005 0.000000 0.000000 -1.274576
    13 16.810589 -5.107452 0.000005 0.000000 0.000000 1.870417
    14 -0.722476 -15.476600 -14.470910 -1.156587 -5.590366 -0.110758
    15 0.096944 -8.450419 -0.009364 -0.005971 -0.540367 0.157854
    16 0.447952 -2.798982 -0.200442 -1.014454 0.150910 0.644033
    17 -0.032910 -1.480206 0.004936 -1.431586 0.000000 0.000002
    18 -0.027022 -1.076919 -0.020212 -0.473979 0.000000 0.000000
    19 -0.249534 -2.846962 -0.174215 -0.473064 0.210085 0.362128
    20 0.043235 -1.683939 0.096014 -1.793930 0.002823 -0.000167
    21 0.031729 -1.160831 0.058836 -0.335964 0.000642 0.008372
    22 -0.963866 -2.785142 -0.085346 -0.609796 0.267585 0.317848
    23 0.028479 -1.403068 0.006271 -1.150412 0.000000 0.000000
    24 0.021413 -0.957782 0.020047 -0.616019 0.000000 0.000000
    25 1.164474 -2.543938 -0.170328 -0.983933 0.070580 0.675847
    26 0.024032 -1.129043 0.017806 -1.337944 0.000000 0.000001
    27 0.014896 -0.883989 -0.019845 -0.672912 0.000000 0.000000
    28 -0.586770 -1.264475 0.200164 -0.186364 -1.053830 -3.148903
    29 1.522835 0.058681 0.016850 0.035028 0.111345 0.871431
    30 1.117948 0.048424 -0.005764 -0.015320 -0.019661 0.717971
    31 -0.057365 -0.119510 0.041742 0.574644 0.064102 1.500033
    32 -0.488517 -2.755600 -0.228261 -0.619222 -0.044186 -0.439105
    33 0.039888 -1.479789 0.029853 -2.158258 0.000000 0.000000
    34 0.028785 -1.075730 -0.023111 -0.647509 0.000000 0.000000
    35 0.250028 -2.820663 -0.238396 -0.535674 0.054401 -0.329163
    36 -0.049759 -1.680545 0.100480 -1.871489 0.000000 -0.000002
    37 -0.034141 -1.148312 0.084779 -1.387518 0.000000 0.000000
    38 0.938234 -2.778027 0.089392 0.136577 -0.026827 -0.329408
    39 -0.033419 -1.397129 -0.011255 -1.523781 -0.032275 -0.008522
    40 -0.022361 -0.957434 0.018783 -1.589597 0.000000 0.000000
    41 -1.180680 -2.507215 -0.193861 -0.379706 0.103249 -0.518986
    42 -0.024966 -1.123934 0.017594 -2.136747 0.000000 0.000001
    43 -0.020057 -0.890966 0.010091 -0.896554 0.000000 0.000000
    44 0.583510 -1.197274 0.185377 0.220453 -0.870262 -0.672925
    45 1.535926 0.010245 0.005008 -0.063786 0.310976 -1.032102
    46 1.100770 0.004526 -0.010676 -0.009999 0.012761 -0.488469
    47 0.006867 -0.061985 -0.085739 -2.852831 -0.015617 -1.424341
  time 3
    0 10.549371 -2.786834 -11.312838 4.178555 -0.770242 -4.800855
    1 -0.071918 -8.498731 -0.104137 0.319938 0.470108 -0.636668
    2 1.665510 -2.904478 0.631343 -0.234326 0.084943 -3.486589
    3 -4.844348 12.831992 0.000421 0.000000 0.000000 -1.282538
    4 -5.655031 16.263659 1.047437 0.005898 -1.291256 -1.279905
    5 7.696722 0.021893 -0.405259 -0.001707 0.788339 -0.000383
    6 6.499035 0.037859 -0.093995 -1.544249 0.617965 -3.084989
    7 -5.655030 16.263657 -1.043029 3.135696 1.291254 -1.279904
    8 7.721393 -0.021960 -0.393362 0.001706 0.788315 0.000382
    9 6.490693 -0.037835 -0.107306 1.545589 0.539631 3.086812
    10 -0.489117 10.226307 1.194557 0.000000 0.000000 -1.282132
    11 1.189389 -0.836478 -1.046114 -0.503878 0.000000 0.003685
    12 -2.647894 8.542626 -0.000005 0.000000 0.000000 -1.274576
    13 16.810589 -5.107452 0.000005 0.000000 0.000000 1.870417
    14 -0.722476 -15.421911 -14.478723 -1.156587 -5.590366 -0.110758
    15 0.096944 -8.450419 -0.009364 -0.005971 -0.540367 0.157854
    16 0.447952 -2.798982 -0.200442 -1.014454 0.150910 0.644033
    17 -0.032910 -1.480206 0.004936 -1.431586 0.000000 0.000002
    18 -0.027022 -1.076919 -0.020212 -0.473979 0.000000 0.000000
    19 -0.249534 -2.846962 -0.174215 -0.473064 0.210085 0.362128
    20 0.043235 -1.683939 0.096014 -1.793930 0.002823 -0.000167
    21 0.031729 -1.160831 0.058836 -0.335964 0.000642 0.008372
    22 -0.963866 -2.785142 -0.085346 -0.609796 0.267585 0.317848
    23 0.028479 -1.403068 0.006271 -1.150412 0.000000 0.000000
    24 0.021413 -0.957782 0.020047 -0.616019 0.000000 0.000000
    25 1.164474 -2.543938 -0.170328 -0.983933 0.070580 0.675847
    26 0.024032 -1.129043 0.017806 -1.337944 0.000000 0.000001
    27 0.014896 -0.883989 -0.019845 -0.672912 0.000000 0.000000
    28 -0.586770 -1.264475 0.200164 -0.186364 -1.053830 -3.148903
    29 1.522835 0.058681 0.016850 0.031070 0.109620 0.876894
    30 1.117948 0.048424 -0.005764 -0.019322 -0.021950 0.714444
    31 -0.057365 -0.119510 0.041742 0.574644 0.064102 1.500033
    32 -0.488517 -2.755600 -0.228261 -0.619222 -0.044186 -0.439105
    33 0.039888 -1.479789 0.029853 -2.158258 0.000000 0.000000
    34 0.028785 -1.075730 -0.023111 -0.647509 0.000000 0.000000
    35 0.250028 -2.820663 -0.238396 -0.535674 0.054401 -0.329163
    36 -0.049759 -1.680545 0.100480 -1.871489 0.000000 -0.000002
    37 -0.034141 -1.148312 0.084779 -1.387518 0.000000 0.000000
    38 0.938234 -2.778027 0.089392 0.136577 -0.026827 -0.329408
    39 -0.033419 -1.397129 -0.011255 -1.523781 -0.032275 -0.008522
    40 -0.022361 -0.957434 0.018783 -1.589597 0.000000 0.000000
    41 -1.180680 -2.507215 -0.193861 -0.379706 0.103249 -0.518986
    42 -0.024966 -1.123934 0.017594 -2.136747 0.000000 0.000001
    43 -0.020057 -0.890966 0.010091 -0.896554 0.000000 0.000000
    44 0.583510 -1.197274 0.185377 0.220453 -0.870262 -0.672925
    45 1.535926 0.010245 0.005008 -0.063786 0.310976 -1.032102
    46 1.100770 0.004526 -0.010676 -0.009999 0.012761 -0.488469
    47 0.006867 -0.061985 -0.085739 -2.852831 -0.015617 -1.424341
  time 4
    0 10.549371 -2.693081 -11.312838 4.178555 -0.770242 -4.800855
    1 -0.071918 -8.498731 -0.104137 0.321368 0.470803 -0.635174
    2 1.665510 -2.904478 0.631343 -0.234326 0.084943 -3.486589
    3 -4.598247 12.019467 0.000421 0.000000 0.000000 -1.282538
    4 -5.655031 16.263659 1.047437 0.005898 -1.186083 -1.279905
    5 7.696722 0.021893 -0.405259 -0.001707 0.752912 -0.000383
    6 6.499035 0.037859 -0.093995 -1.570615 0.766114 -3.138680
    7 -5.655030 16.263657 -1.043029 3.135696 1.186081 -1.279904
    8 7.721393 -0.021960 -0.393362 0.001706 0.752865 0.000382
    9 6.490693 -0.037835 -0.107306 1.570613 0.726770 3.138681
    10 -0.489117 10.226307 1.194557 0.000000 0.000000 -1.282132
    11 1.189389 -0.805227 -0.987518 -0.710737 0.000000 0.003685
    12 -2.647894 8.542626 -0.000005 0.000000 0.000000 -1.274576
    13 16.810589 -5.107452 0.000005 0.000000 0.000000 1.870417
    14 -0.722476 -15.320345 -14.498255 -1.156587 -5.590366 -0.110758
    15 0.096944 -8.450419 -0.009364 -0.005971 -0.540367 0.157854
    16 0.447952 -2.798982 -0.200442 -1.014454 0.150910 0.644033
    17 -0.032910 -1.480206 0.004936 -1.431586 0.000000 0.000002
    18 -0.027022 -1.076919 -0.020212 -0.473979 0.000000 0.000000
    19 -0.249534 -2.846962 -0.174215 -0.473064 0.210085 0.362128
    20 0.043235 -1.683939 0.096014 -1.793930 0.002823 -0.000167
    21 0.031729 -1.160831 0.058836 -0.335964 0.000642 0.008372
    22 -0.963866 -2.785142 -0.085346 -0.609796 0.267585 0.317848
    23 0.028479 -1.403068 0.006271 -1.150412 0.000000 0.000000
    24 0.021413 -0.957782 0.020047 -0.616019 0.000000 0.000000
    25 1.164474 -2.543938 -0.170328 -0.983933 0.070580 0.675847
    26 0.024032 -1.129043 0.017806 -1.337944 0.000000 0.000001
    27 0.014896 -0.883989 -0.019845 -0.672912 0.000000 0.000000
    28 -0.586770 -1.264475 0.200164 -0.186364 -1.053830 -3.148903
    29 1.522835 0.058681 0.016850 0.020865 0.105113 0.890986
    30 1.117948 0.048424 -0.005764 -0.029821 -0.027811 0.705310
    31 -0.057365 -0.119510 0.041742 0.574644 0.064102 1.500033
    32 -0.488517 -2.755600 -0.228261 -0.619222 -0.044186 -0.439105
    33 0.039888 -1.479789 0.029853 -2.158258 0.000000 0.000000
    34 0.028785 -1.075730 -0.023111 -0.647509 0.000000 0.000000
    35 0.250028 -2.820663 -0.238396 -0.535674 0.054401 -0.329163
    36 -0.049759 -1.680545 0.100480 -1.871489 0.000000 -0.000002
    37 -0.034141 -1.148312 0.084779 -1.387518 0.000000 0.000000
    38 0.938234 -2.778027 0.089392 0.136577 -0.026827 -0.329408
    39 -0.033419 -1.397129 -0.011255 -1.523781 -0.032275 -0.008522
    40 -0.022361 -0.957434 0.018783 -1.589597 0.000000 0.000000
    41 -1.180680 -2.507215 -0.193861 -0.379706 0.103249 -0.518986
    42 -0.024966 -1.123934 0.017594 -2.136747 0.000000 0.000001
    43 -0.020057 -0.890966 0.010091 -0.896554 0.000000 0.000000
    44 0.583510 -1.197274 0.185377 0.220453 -0.870262 -0.672925
    45 1.535926 0.010245 0.005008 -0.063786 0.310976 -1.032102
    46 1.100770 0.004526 -0.010676 -0.009999 0.012761 -0.488469
    47 0.006867 -0.061985 -0.085739 -2.852831 -0.015617 -1.424341
  time 5
    0 10.549371 -2.638392 -11.312838 4.178555 -0.770242 -4.800855
    1 -0.071918 -8.498731 -0.104137 0.322053 0.471578 -0.634500
    2 1.665510 -2.904478 0.631343 -0.234326 0.084943 -3.486589
    3 -3.180235 7.214633 0.000421 0.000000 0.000000 -1.282538
    4 -5.655031 16.263659 1.047437 0.005898 -1.113388 -1.279905
    5 7.696722 0.021893 -0.405259 -0.001707 0.683633 -0.000383
    6 6.499035 0.037859 -0.093995 -1.570615 1.188713 -3.138680
    7 -5.655030 16.263657 -1.043029 3.135696 1.113418 -1.279904
    8 7.721393 -0.021960 -0.393362 0.001706 0.683656 0.000382
    9 6.490693 -0.037835 -0.107306 1.570613 1.206617 3.138681
    10 -0.489117 10.226307 1.194557 0.000000 0.000000 -1.282132
    11 1.189389 -0.781789 -0.964080 -0.838647 0.000000 0.003685
    12 -2.647894 8.542626 -0.000005 0.000000 0.000000 -1.274576
    13 16.810589 -5.107452 0.000005 0.000000 0.000000 1.870417
    14 -0.722476 -15.269562 -14.509974 -1.156587 -5.590366 -0.110758
    15 0.096944 -8.450419 -0.009364 -0.005971 -0.540367 0.157854
    16 0.447952 -2.798982 -0.200442 -1.014454 0.150910 0.644033
    17 -0.032910 -1.480206 0.004936 -1.431586 0.000000 0.000002
    18 -0.027022 -1.076919 -0.020212 -0.473979 0.000000 0.000000
    19 -0.249534 -2.846962 -0.174215 -0.473064 0.210085 0.362128
    20 0.043235 -1.683939 0.096014 -1.793930 0.002823 -0.000167
    21 0.031729 -1.160831 0.058836 -0.335964 0.000642 0.008372
    22 -0.963866 -2.785142 -0.085346 -0.609796 0.267585 0.317848
    23 0.028479 -1.403068 0.006271 -1.150412 0.000000 0.000000
    24 0.021413 -0.957782 0.020047 -0.616019 0.000000 0.000000
    25 1.164474 -2.543938 -0.170328 -0.983933 0.070580 0.675847
    26 0.024032 -1.129043 0.017806 -1.337944 0.000000 0.000001
    27 0.014896 -0.883989 -0.019845 -0.672912 0.000000 0.000000
    28 -0.586770 -1.264475 0.200164 -0.186364 -1.053830 -3.148903
    29 1.522835 0.058681 0.016850 0.006910 0.098977 0.910261
    30 1.117948 0.048424 -0.005764 -0.044394 -0.035840 0.692814
    31 -0.057365 -0.119510 0.041742 0.574644 0.064102 1.500033
    32 -0.488517 -2.755600 -0.228261 -0.619222 -0.044186 -0.439105
    33 0.039888 -1.479789 0.029853 -2.158258 0.000000 0.000000
    34 0.028785 -1.075730 -0.023111 -0.647509 0.000000 0.000000
    35 0.250028 -2.820663 -0.238396 -0.535674 0.054401 -0.329163
    36 -0.049759 -1.680545 0.100480 -1.871489 0.000000 -0.000002
    37 -0.034141 -1.148312 0.084779 -1.387518 0.000000 0.000000
    38 0.938234 -2.778027 0.089392 0.136577 -0.026827 -0.329408
    39 -0.033419 -1.397129 -0.011255 -1.523781 -0.032275 -0.008522
    40 -0.022361 -0.957434 0.018783 -1.589597 0.000000 0.000000
    41 -1.180680 -2.507215 -0.193861 -0.379706 0.103249 -0.518986
    42 -0.024966 -1.123934 0.017594 -2.136747 0.000000 0.000001
    43 -0.020057 -0.890966 0.010091 -0.896554 0.000000 0.000000
    44 0.583510 -1.197274 0.185377 0.220453 -0.870262 -0.672925
    45 1.535926 0.010245 0.005008 -0.063786 0.310976 -1.032102
    46 1.100770 0.004526 -0.010676 -0.009999 0.012761 -0.488469
    47 0.006867 -0.061985 -0.085739 -2.852831 -0.015617 -1.424341
  time 6
    0 10.549371 -2.650111 -11.312838 4.178555 -0.770242 -4.800855
    1 -0.071918 -8.498731 -0.104137 0.320280 0.472487 -0.637800
    2 1.665510 -2.904478 0.631343 -0.234326 0.084943 -3.486589
    3 -1.449713 1.378517 0.000421 0.000000 0.000000 -1.282538
    4 -5.655031 16.263659 1.047437 0.005898 -1.086220 -1.279905
    5 7.696722 0.021893 -0.405259 -0.001707 0.583884 -0.000383
    6 6.499035 0.037859 -0.093995 1.570977 1.474544 0.002912
    7 -5.655030 16.263657 -1.043029 3.135696 1.086250 -1.279904
    8 7.721393 -0.021960 -0.393362 0.001706 0.583907 0.000382
    9 6.490693 -0.037835 -0.107306 4.712205 1.445436 6.280273
    10 -0.489117 10.226307 1.194557 0.000000 0.000000 -1.282132
    11 1.189389 -0.773976 -0.956267 -0.902362 0.000000 0.003685
    12 -2.647894 8.542626 -0.000005 0.000000 0.000000 -1.274576
    13 16.810589 -5.107452 0.000005 0.000000 0.000000 1.870417
    14 -0.722476 -15.277375 -14.509974 -1.156587 -5.590366 -0.110758
    15 0.096944 -8.450419 -0.009364 -0.005971 -0.540367 0.157854
    16 0.447952 -2.798982 -0.200442 -1.014454 0.150910 0.644033
    17 -0.032910 -1.480206 0.004936 -1.431586 0.000000 0.000002
    18 -0.027022 -1.076919 -0.020212 -0.473979 0.000000 0.000000
    19 -0.249534 -2.846962 -0.174215 -0.473064 0.210085 0.362128
    20 0.043235 -1.683939 0.096014 -1.793930 0.002823 -0.000167
    21 0.031729 -1.160831 0.058836 -0.335964 0.000642 0.008372
    22 -0.963866 -2.785142 -0.085346 -0.609796 0.267585 0.317848
    23 0.028479 -1.403068 0.006271 -1.150412 0.000000 0.000000
    24 0.021413 -0.957782 0.020047 -0.616019 0.000000 0.000000
    25 1.164474 -2.543938 -0.170328 -0.983933 0.070580 0.675847
    26 0.024032 -1.129043 0.017806 -1.337944 0.000000 0.000001
    27 0.014896 -0.883989 -0.019845 -0.672912 0.000000 0.000000
    28 -0.586770 -1.264475 0.200164 -0.186364 -1.053830 -3.148903
    29 1.522835 0.058681 0.016850 -0.008286 0.092302 0.931275
    30 1.117948 0.048424 -0.005764 -0.060729 -0.044601 0.679224
    31 -0.057365 -0.119510 0.041742 0.574644 0.064102 1.500033
    32 -0.488517 -2.755600 -0.228261 -0.619222 -0.044186 -0.439105
    33 0.039888 -1.479789 0.029853 -2.158258 0.000000 0.000000
    34 0.028785 -1.075730 -0.023111 -0.647509 0.000000 0.000000
    35 0.250028 -2.820663 -0.238396 -0.535674 0.054401 -0.329163
    36 -0.049759 -1.680545 0.100480 -1.871489 0.000000 -0.000002
    37 -0.034141 -1.148312 0.084779 -1.387518 0.000000 0.000000
    38 0.938234 -2.778027 0.089392 0.136577 -0.026827 -0.329408
    39 -0.033419 -1.397129 -0.011255 -1.523781 -0.032275 -0.008522
    40 -0.022361 -0.957434 0.018783 -1.589597 0.000000 0.000000
    41 -1.180680 -2.507215 -0.193861 -0.379706 0.103249 -0.518986
    42 -0.024966 -1.123934 0.017594 -2.136747 0.000000 0.000001
    43 -0.020057 -0.890966 0.010091 -0.896554 0.000000 0.000000
    44 0.583510 -1.197274 0.185377 0.220453 -0.870262 -0.672925
    45 1.535926 0.010245 0.005008 -0.063786 0.310976 -1.032102
    46 1.100770 0.004526 -0.010676 -0.009999 0.012761 -0.488469
    47 0.006867 -0.061985 -0.085739 -2.852831 -0.015617 -1.424341
  time 7
    0 10.549371 -2.693081 -11.305026 4.178555 -0.770242 -4.800855
    1 -0.071918 -8.498731 -0.104137 0.316376 0.473583 -0.645076
    2 1.665510 -2.904478 0.631343 -0.234326 0.084943 -3.486589
    3 -1.617687 1.929315 0.000421 0.000000 0.000000 -1.282538
    4 -5.655031 16.263659 1.047437 0.005898 -1.103835 -1.279905
    5 7.696722 0.021893 -0.405259 -0.001707 0.517986 -0.000383
    6 6.499035 0.037859 -0.093995 -1.570615 1.505567 -3.138680
    7 -5.655030 16.263657 -1.043029 3.135696 1.103833 -1.279904
    8 7.721393 -0.021960 -0.393362 0.001706 0.517986 0.000382
    9 6.490693 -0.037835 -0.107306 1.570613 1.505567 3.138681
    10 -0.489117 10.226307 1.194557 0.000000 0.000000 -1.282132
    11 1.189389 -0.762257 -0.952361 -0.958221 0.000000 0.003685
    12 -2.647894 8.542626 -0.000005 0.000000 0.000000 -1.274576
    13 16.810589 -5.107452 0.000005 0.000000 0.000000 1.870417
    14 -0.722476 -15.300813 -14.506067 -1.156587 -5.590366 -0.110758
    15 0.096944 -8.450419 -0.009364 -0.005971 -0.540367 0.157854
    16 0.447952 -2.798982 -0.200442 -1.014454 0.150910 0.644033
    17 -0.032910 -1.480206 0.004936 -1.431586 0.000000 0.000002
    18 -0.027022 -1.076919 -0.020212 -0.473979 0.000000 0.000000
    19 -0.249534 -2.846962 -0.174215 -0.473064 0.210085 0.362128
    20 0.043235 -1.683939 0.096014 -1.793930 0.002823 -0.000167
    21 0.031729 -1.160831 0.058836 -0.335964 0.000642 0.008372
    22 -0.963866 -2.785142 -0.085346 -0.609796 0.267585 0.317848
    23 0.028479 -1.403068 0.006271 -1.150412 0.000000 0.000000
    24 0.021413 -0.957782 0.020047 -0.616019 0.000000 0.000000
    25 1.164474 -2.543938 -0.170328 -0.983933 0.070580 0.675847
    26 0.024032 -1.129043 0.017806 -1.337944 0.000000 0.000001
    27 0.014896 -0.883989 -0.019845 -0.672912 0.000000 0.000000
    28 -0.586770 -1.264475 0.200164 -0.186364 -1.053830 -3.148903
    29 1.522835 0.058681 0.016850 -0.022242 0.086166 0.950613
    30 1.117948 0.048424 -0.005764 -0.076465 -0.052655 0.666727
    31 -0.057365 -0.119510 0.041742 0.574644 0.064102 1.500033
    32 -0.488517 -2.755600 -0.228261 -0.619222 -0.044186 -0.439105
    33 0.039888 -1.479789 0.029853 -2.158258 0.000000 0.000000
    34 0.028785 -1.075730 -0.023111 -0.647509 0.000000 0.000000
    35 0.250028 -2.820663 -0.238396 -0.535674 0.054401 -0.329163
    36 -0.049759 -1.680545 0.100480 -1.871489 0.000000 -0.000002
    37 -0.034141 -1.148312 0.084779 -1.387518 0.000000 0.000000
    38 0.938234 -2.778027 0.089392 0.136577 -0.026827 -0.329408
    39 -0.033419 -1.397129 -0.011255 -1.523781 -0.032275 -0.008522
    40 -0.022361 -0.957434 0.018783 -1.589597 0.000000 0.000000
    41 -1.180680 -2.507215 -0.193861 -0.379706 0.103249 -0.518986
    42 -0.024966 -1.123934 0.017594 -2.136747 0.000000 0.000001
    43 -0.020057 -0.890966 0.010091 -0.896554 0.000000 0.000000
    44 0.583510 -1.197274 0.185377 0.220453 -0.870262 -0.672925
    45 1.535926 0.010245 0.005008 -0.063786 0.310976 -1.032102
    46 1.100770 0.004526 -0.010676 -0.009999 0.012761 -0.488469
    47 0.006867 -0.061985 -0.085739 -2.852831 -0.015617 -1.424341
  time 8
    0 10.549371 -2.755583 -11.301119 4.178555 -0.770242 -4.800855
    1 -0.071918 -8.498731 -0.104137 0.312458 0.474492 -0.652352
    2 1.665510 -2.904478 0.631343 -0.234326 0.084943 -3.486589
    3 -1.770036 2.464488 0.000421 0.000000 0.000000 -1.282538
    4 -5.655031 16.263659 1.047437 0.005898 -1.121418 -1.279905
    5 7.696722 0.021893 -0.405259 -0.001707 0.539777 -0.000383
    6 6.499035 0.037859 -0.093995 -1.570615 1.505567 -3.138680
    7 -5.655030 16.263657 -1.043029 3.135696 1.121416 -1.279904
    8 7.721393 -0.021960 -0.393362 0.001706 0.539777 0.000382
    9 6.490693 -0.037835 -0.107306 1.570613 1.505567 3.138681
    10 -0.489117 10.226307 1.194557 0.000000 0.000000 -1.282132
    11 1.189389 -0.754444 -0.952361 -1.006606 0.000000 0.003685
    12 -2.647894 8.542626 -0.000005 0.000000 0.000000 -1.274576
    13 16.810589 -5.107452 0.000005 0.000000 0.000000 1.870417
    14 -0.722476 -15.332064 -14.502161 -1.156587 -5.590366 -0.110758
    15 0.096944 -8.450419 -0.009364 -0.005971 -0.540367 0.157854
    16 0.447952 -2.798982 -0.200442 -1.014454 0.150910 0.644033
    17 -0.032910 -1.480206 0.004936 -1.431586 0.000000 0.000002
    18 -0.027022 -1.076919 -0.020212 -0.473979 0.000000 0.000000
    19 -0.249534 -2.846962 -0.174215 -0.473064 0.210085 0.362128
    20 0.043235 -1.683939 0.096014 -1.793930 0.002823 -0.000167
    21 0.031729 -1.160831 0.058836 -0.335964 0.000642 0.008372
    22 -0.963866 -2.785142 -0.085346 -0.609796 0.267585 0.317848
    23 0.028479 -1.403068 0.006271 -1.150412 0.000000 0.000000
    24 0.021413 -0.957782 0.020047 -0.616019 0.000000 0.000000
    25 1.164474 -2.543938 -0.170328 -0.983933 0.070580 0.675847
    26 0.024032 -1.129043 0.017806 -1.337944 0.000000 0.000001
    27 0.014896 -0.883989 -0.019845 -0.672912 0.000000 0.000000
    28 -0.586770 -1.264475 0.200164 -0.186364 -1.053830 -3.148903
    29 1.522835 0.058681 0.016850 -0.032446 0.081672 0.964705
    30 1.117948 0.048424 -0.005764 -0.089229 -0.058515 0.657594
    31 -0.057365 -0.119510 0.041742 0.574644 0.064102 1.500033
    32 -0.488517 -2.755600 -0.228261 -0.619222 -0.044186 -0.439105
    33 0.039888 -1.479789 0.029853 -2.158258 0.000000 0.000000
    34 0.028785 -1.075730 -0.023111 -0.647509 0.000000 0.000000
    35 0.250028 -2.820663 -0.238396 -0.535674 0.054401 -0.329163
    36 -0.049759 -1.680545 0.100480 -1.871489 0.000000 -0.000002
    37 -0.034141 -1.148312 0.084779 -1.387518 0.000000 0.000000
    38 0.938234 -2.778027 0.089392 0.136577 -0.026827 -0.329408
    39 -0.033419 -1.397129 -0.011255 -1.523781 -0.032275 -0.008522
    40 -0.022361 -0.957434 0.018783 -1.589597 0.000000 0.000000
    41 -1.180680 -2.507215 -0.193861 -0.379706 0.103249 -0.518986
    42 -0.024966 -1.123934 0.017594 -2.136747 0.000000 0.000001
    43 -0.020057 -0.890966 0.010091 -0.896554 0.000000 0.000000
    44 0.583510 -1.197274 0.185377 0.220453 -0.870262 -0.672925
    45 1.535926 0.010245 0.005008 -0.063786 0.310976 -1.032102
    46 1.100770 0.004526 -0.010676 -0.009999 0.012761 -0.488469
    47 0.006867 -0.061985 -0.085739 -2.852831 -0.015617 -1.424341
  time 9
    0 10.549371 -2.818085 -11.301119 4.178555 -0.770242 -4.800855
    1 -0.071918 -8.498731 -0.104137 0.310685 0.474893 -0.655652
    2 1.665510 -2.904478 0.631343 -0.234326 0.084943 -3.486589
    3 -1.730972 2.339484 0.000421 0.000000 0.000000 -1.282538
    4 -5.655031 16.263659 1.047437 0.005898 -1.121418 -1.279905
    5 7.696722 0.021893 -0.405259 -0.001707 0.561568 -0.000383
    6 6.499035 0.037859 -0.093995 -1.570615 1.505567 -3.138680
    7 -5.655030 16.263657 -1.043029 3.135696 1.121416 -1.279904
    8 7.721393 -0.021960 -0.393362 0.001706 0.561568 0.000382
    9 6.490693 -0.037835 -0.107306 1.570613 1.505567 3.138681
    10 -0.489117 10.226307 1.194557 0.000000 0.000000 -1.282132
    11 1.189389 -0.750538 -0.944548 -1.047997 0.000000 0.003685
    12 -2.647894 8.542626 -0.000005 0.000000 0.000000 -1.274576
    13 16.810589 -5.107452 0.000005 0.000000 0.000000 1.870417
    14 -0.722476 -15.375034 -14.490442 -1.156587 -5.590366 -0.110758
    15 0.096944 -8.450419 -0.009364 -0.005971 -0.540367 0.157854
    16 0.447952 -2.798982 -0.200442 -1.014454 0.150910 0.644033
    17 -0.032910 -1.480206 0.004936 -1.431586 0.000000 0.000002
    18 -0.027022 -1.076919 -0.020212 -0.473979 0.000000 0.000000
    19 -0.249534 -2.846962 -0.174215 -0.473064 0.210085 0.362128
    20 0.043235 -1.683939 0.096014 -1.793930 0.002823 -0.000167
    21 0.031729 -1.160831 0.058836 -0.335964 0.000642 0.008372
    22 -0.963866 -2.785142 -0.085346 -0.609796 0.267585 0.317848
    23 0.028479 -1.403068 0.006271 -1.150412 0.000000 0.000000
    24 0.021413 -0.957782 0.020047 -0.616019 0.000000 0.000000
    25 1.164474 -2.543938 -0.170328 -0.983933 0.070580 0.675847
    26 0.024032 -1.129043 0.017806 -1.337944 0.000000 0.000001
    27 0.014896 -0.883989 -0.019845 -0.672912 0.000000 0.000000
    28 -0.586770 -1.264475 0.200164 -0.186364 -1.053830 -3.148903
    29 1.522835 0.058681 0.016850 -0.036404 0.079934 0.970199
    30 1.117948 0.048424 -0.005764 -0.096683 -0.060804 0.654067
    31 -0.057365 -0.119510 0.041742 0.574644 0.064102 1.500033
    32 -0.488517 -2.755600 -0.228261 -0.619222 -0.044186 -0.439105
    33 0.039888 -1.479789 0.029853 -2.158258 0.000000 0.000000
    34 0.028785 -1.075730 -0.023111 -0.647509 0.000000 0.000000
    35 0.250028 -2.820663 -0.238396 -0.535674 0.054401 -0.329163
    36 -0.049759 -1.680545 0.100480 -1.871489 0.000000 -0.000002
    37 -0.034141 -1.148312 0.084779 -1.387518 0.000000 0.000000
    38 0.938234 -2.778027 0.089392 0.136577 -0.026827 -0.329408
    39 -0.033419 -1.397129 -0.011255 -1.523781 -0.032275 -0.008522
    40 -0.022361 -0.957434 0.018783 -1.589597 0.000000 0.000000
    41 -1.180680 -2.507215 -0.193861 -0.379706 0.103249 -0.518986
    42 -0.024966 -1.123934 0.017594 -2.136747 0.000000 0.000001
    43 -0.020057 -0.890966 0.010091 -0.896554 0.000000 0.000000
    44 0.583510 -1.197274 0.185377 0.220453 -0.870262 -0.672925
    45 1.535926 0.010245 0.005008 -0.063786 0.310976 -1.032102
    46 1.100770 0.004526 -0.010676 -0.009999 0.012761 -0.488469
    47 0.006867 -0.061985 -0.085739 -2.852831 -0.015617 -1.424341
  time 10
    0 10.549371 -2.876681 -11.297213 4.178555 -0.770242 -4.800855
    1 -0.071918 -8.498731 -0.104137 0.310949 0.474706 -0.655074
    2 1.665510 -2.904478 0.631343 -0.234326 0.084943 -3.486589
    3 -1.699721 2.222293 0.000421 0.000000 0.000000 -1.282538
    4 -5.655031 16.263659 1.047437 0.005898 -1.121418 -1.279905
    5 7.696722 0.021893 -0.405259 -0.001707 0.561568 -0.000383
    6 6.499035 0.037859 -0.093995 -1.570615 1.505567 -3.138680
    7 -5.655030 16.263657 -1.043029 3.135696 1.121416 -1.279904
    8 7.721393 -0.021960 -0.393362 0.001706 0.561568 0.000382
    9 6.490693 -0.037835 -0.107306 1.570613 1.505567 3.138681
    10 -0.489117 10.226307 1.194557 0.000000 0.000000 -1.282132
    11 1.189389 -0.738819 -0.944548 -1.082777 0.000000 0.003685
    12 -2.647894 8.542626 -0.000005 0.000000 0.000000 -1.274576
    13 16.810589 -5.107452 0.000005 0.000000 0.000000 1.870417
    14 -0.722476 -15.425817 -14.474816 -1.156587 -5.590366 -0.110758
    15 0.096944 -8.450419 -0.009364 -0.005971 -0.540367 0.157854
    16 0.447952 -2.798982 -0.200442 -1.014454 0.150910 0.644033
    17 -0.032910 -1.480206 0.004936 -1.431586 0.000000 0.000002
    18 -0.027022 -1.076919 -0.020212 -0.473979 0.000000 0.000000
    19 -0.249534 -2.846962 -0.174215 -0.473064 0.210085 0.362128
    20 0.043235 -1.683939 0.096014 -1.793930 0.002823 -0.000167
    21 0.031729 -1.160831 0.058836 -0.335964 0.000642 0.008372
    22 -0.963866 -2.785142 -0.085346 -0.609796 0.267585 0.317848
    23 0.028479 -1.403068 0.006271 -1.150412 0.000000 0.000000
    24 0.021413 -0.957782 0.020047 -0.616019 0.000000 0.000000
    25 1.164474 -2.543938 -0.170328 -0.983933 0.070580 0.675847
    26 0.024032 -1.129043 0.017806 -1.337944 0.000000 0.000001
    27 0.014896 -0.883989 -0.019845 -0.672912 0.000000 0.000000
    28 -0.586770 -1.264475 0.200164 -0.186364 -1.053830 -3.148903
    29 1.522835 0.058681 0.016850 -0.036404 0.079934 0.970199
    30 1.117948 0.048424 -0.005764 -0.100075 -0.060049 0.665852
    31 -0.057365 -0.119510 0.041742 0.574644 0.064102 1.500033
    32 -0.488517 -2.755600 -0.228261 -0.619222 -0.044186 -0.439105
    33 0.039888 -1.479789 0.029853 -2.158258 0.000000 0.000000
    34 0.028785 -1.075730 -0.023111 -0.647509 0.000000 0.000000
    35 0.250028 -2.820663 -0.238396 -0.535674 0.054401 -0.329163
    36 -0.049759 -1.680545 0.100480 -1.871489 0.000000 -0.000002
    37 -0.034141 -1.148312 0.084779 -1.387518 0.000000 0.000000
    38 0.938234 -2.778027 0.089392 0.136577 -0.026827 -0.329408
    39 -0.033419 -1.397129 -0.011255 -1.523781 -0.032275 -0.008522
    40 -0.022361 -0.957434 0.018783 -1.589597 0.000000 0.000000
    41 -1.180680 -2.507215 -0.193861 -0.379706 0.103249 -0.518986
    42 -0.024966 -1.123934 0.017594 -2.136747 0.000000 0.000001
    43 -0.020057 -0.890966 0.010091 -0.896554 0.000000 0.000000
    44 0.583510 -1.197274 0.185377 0.220453 -0.870262 -0.672925
    45 1.535926 0.010245 0.005008 -0.063786 0.310976 -1.032102
    46 1.100770 0.004526 -0.010676 -0.009999 0.012761 -0.488469
    47 0.006867 -0.061985 -0.085739 -2.852831 -0.015617 -1.424341
  time 11
    0 10.549371 -2.919651 -11.297213 4.178555 -0.770242 -4.800855
    1 -0.071918 -8.498731 -0.104137 0.311602 0.474305 -0.653629
    2 1.665510 -2.904478 0.631343 -0.234326 0.084943 -3.486589
    3 -1.699721 2.222293 0.000421 0.000000 0.000000 -1.282538
    4 -5.655031 16.263659 1.047437 0.005898 -1.121418 -1.279905
    5 7.696722 0.021893 -0.405259 -0.001707 0.561568 -0.000383
    6 6.499035 0.037859 -0.093995 -1.570615 1.505567 -3.138680
    7 -5.655030 16.263657 -1.043029 3.135696 1.121416 -1.279904
    8 7.721393 -0.021960 -0.393362 0.001706 0.561568 0.000382
    9 6.490693 -0.037835 -0.107306 1.570613 1.505567 3.138681
    10 -0.489117 10.226307 1.194557 0.000000 0.000000 -1.282132
    11 1.189389 -0.738819 -0.940642 -1.111425 0.000000 0.003685
    12 -2.647894 8.542626 -0.000005 0.000000 0.000000 -1.274576
    13 16.810589 -5.107452 0.000005 0.000000 0.000000 1.870417
    14 -0.722476 -15.488319 -14.451378 -1.156587 -5.590366 -0.110758
    15 0.096944 -8.450419 -0.009364 -0.005971 -0.540367 0.157854
    16 0.447952 -2.798982 -0.200442 -1.014454 0.150910 0.644033
    17 -0.032910 -1.480206 0.004936 -1.431586 0.000000 0.000002
    18 -0.027022 -1.076919 -0.020212 -0.473979 0.000000 0.000000
    19 -0.249534 -2.846962 -0.174215 -0.473064 0.210085 0.362128
    20 0.043235 -1.683939 0.096014 -1.793930 0.002823 -0.000167
    21 0.031729 -1.160831 0.058836 -0.335964 0.000642 0.008372
    22 -0.963866 -2.785142 -0.085346 -0.609796 0.267585 0.317848
    23 0.028479 -1.403068 0.006271 -1.150412 0.000000 0.000000
    24 0.021413 -0.957782 0.020047 -0.616019 0.000000 0.000000
    25 1.164474 -2.543938 -0.170328 -0.983933 0.070580 0.675847
    26 0.024032 -1.129043 0.017806 -1.337944 0.000000 0.000001
    27 0.014896 -0.883989 -0.019845 -0.672912 0.000000 0.000000
    28 -0.586770 -1.264475 0.200164 -0.186364 -1.053830 -3.148903
    29 1.522835 0.058681 0.016850 -0.036404 0.079934 0.970199
    30 1.117948 0.048424 -0.005764 -0.102412 -0.058036 0.695302
    31 -0.057365 -0.119510 0.041742 0.574644 0.064102 1.500033
    32 -0.488517 -2.755600 -0.228261 -0.619222 -0.044186 -0.439105
    33 0.039888 -1.479789 0.029853 -2.158258 0.000000 0.000000
    34 0.028785 -1.075730 -0.023111 -0.647509 0.000000 0.000000
    35 0.250028 -2.820663 -0.238396 -0.535674 0.054401 -0.329163
    36 -0.049759 -1.680545 0.100480 -1.871489 0.000000 -0.000002
    37 -0.034141 -1.148312 0.084779 -1.387518 0.000000 0.000000
    38 0.938234 -2.778027 0.089392 0.136577 -0.026827 -0.329408
    39 -0.033419 -1.397129 -0.011255 -1.523781 -0.032275 -0.008522
    40 -0.022361 -0.957434 0.018783 -1.589597 0.000000 0.000000
    41 -1.180680 -2.507215 -0.193861 -0.379706 0.103249 -0.518986
    42 -0.024966 -1.123934 0.017594 -2.136747 0.000000 0.000001
    43 -0.020057 -0.890966 0.010091 -0.896554 0.000000 0.000000
    44 0.583510 -1.197274 0.185377 0.220453 -0.870262 -0.672925
    45 1.535926 0.010245 0.005008 -0.063786 0.310976 -1.032102
    46 1.100770 0.004526 -0.010676 -0.009999 0.012761 -0.488469
    47 0.006867 -0.061985 -0.085739 -2.852831 -0.015617 -1.424341
  time 12
    0 10.549371 -2.935276 -11.293306 4.178555 -0.770242 -4.800855
    1 -0.071918 -8.498731 -0.104137 0.312504 0.473744 -0.651677
    2 1.665510 -2.904478 0.631343 -0.234326 0.084943 -3.486589
    3 -1.699721 2.222293 0.000421 0.000000 0.000000 -1.282538
    4 -5.655031 16.263659 1.047437 0.005898 -1.121418 -1.279905
    5 7.696722 0.021893 -0.405259 -0.001707 0.561568 -0.000383
    6 6.499035 0.037859 -0.093995 -1.570615 1.505567 -3.138680
    7 -5.655030 16.263657 -1.043029 3.135696 1.121416 -1.279904
    8 7.721393 -0.021960 -0.393362 0.001706 0.561568 0.000382
    9 6.490693 -0.037835 -0.107306 1.570613 1.505567 3.138681
    10 -0.489117 10.226307 1.194557 0.000000 0.000000 -1.282132
    11 1.189389 -0.731006 -0.940642 -1.134420 0.000000 0.003685
    12 -2.647894 8.542626 -0.000005 0.000000 0.000000 -1.274576
    13 16.810589 -5.107452 0.000005 0.000000 0.000000 1.870417
    14 -0.722476 -15.550821 -14.431846 -1.156587 -5.590366 -0.110758
    15 0.096944 -8.450419 -0.009364 -0.005971 -0.540367 0.157854
    16 0.447952 -2.798982 -0.200442 -1.014454 0.150910 0.644033
    17 -0.032910 -1.480206 0.004936 -1.431586 0.000000 0.000002
    18 -0.027022 -1.076919 -0.020212 -0.473979 0.000000 0.000000
    19 -0.249534 -2.846962 -0.174215 -0.473064 0.210085 0.362128
    20 0.043235 -1.683939 0.096014 -1.793930 0.002823 -0.000167
    21 0.031729 -1.160831 0.058836 -0.335964 0.000642 0.008372
    22 -0.963866 -2.785142 -0.085346 -0.609796 0.267585 0.317848
    23 0.028479 -1.403068 0.006271 -1.150412 0.000000 0.000000
    24 0.021413 -0.957782 0.020047 -0.616019 0.000000 0.000000
    25 1.164474 -2.543938 -0.170328 -0.983933 0.070580 0.675847
    26 0.024032 -1.129043 0.017806 -1.337944 0.000000 0.000001
    27 0.014896 -0.883989 -0.019845 -0.672912 0.000000 0.000000
    28 -0.586770 -1.264475 0.200164 -0.186364 -1.053830 -3.148903
    29 1.522835 0.058681 0.016850 -0.036404 0.079934 0.970199
    30 1.117948 0.048424 -0.005764 -0.103886 -0.055124 0.733612
    31 -0.057365 -0.119510 0.041742 0.574644 0.064102 1.500033
    32 -0.488517 -2.755600 -0.228261 -0.619222 -0.044186 -0.439105
    33 0.039888 -1.479789 0.029853 -2.158258 0.000000 0.000000
    34 0.028785 -1.075730 -0.023111 -0.647509 0.000000 0.000000
    35 0.250028 -2.820663 -0.238396 -0.535674 0.054401 -0.329163
    36 -0.049759 -1.680545 0.100480 -1.871489 0.000000 -0.000002
    37 -0.034141 -1.148312 0.084779 -1.387518 0.000000 0.000000
    38 0.938234 -2.778027 0.089392 0.136577 -0.026827 -0.329408
    39 -0.033419 -1.397129 -0.011255 -1.523781 -0.032275 -0.008522
    40 -0.022361 -0.957434 0.018783 -1.589597 0.000000 0.000000
    41 -1.180680 -2.507215 -0.193861 -0.379706 0.103249 -0.518986
    42 -0.024966 -1.123934 0.017594 -2.136747 0.000000 0.000001
    43 -0.020057 -0.890966 0.010091 -0.896554 0.000000 0.000000
    44 0.583510 -1.197274 0.185377 0.220453 -0.870262 -0.672925
    45 1.535926 0.010245 0.005008 -0.063786 0.310976 -1.032102
    46 1.100770 0.004526 -0.010676 -0.009999 0.012761 -0.488469
    47 0.006867 -0.061985 -0.085739 -2.852831 -0.015617 -1.424341
  time 13
    0 10.549371 -2.927464 -11.297213 4.178555 -0.770242 -4.800855
    1 -0.071918 -8.498731 -0.104137 0.313437 0.473156 -0.649629
    2 1.665510 -2.904478 0.631343 -0.234326 0.084943 -3.486589
    3 -1.699721 2.222293 0.000421 0.000000 0.000000 -1.282538
    4 -5.655031 16.263659 1.047437 0.005898 -1.121418 -1.279905
    5 7.696722 0.021893 -0.405259 -0.001707 0.561568 -0.000383
    6 6.499035 0.037859 -0.093995 -1.570615 1.505567 -3.138680
    7 -5.655030 16.263657 -1.043029 3.135696 1.121416 -1.279904
    8 7.721393 -0.021960 -0.393362 0.001706 0.561568 0.000382
    9 6.490693 -0.037835 -0.107306 1.570613 1.505567 3.138681
    10 -0.489117 10.226307 1.194557 0.000000 0.000000 -1.282132
    11 1.189389 -0.727100 -0.940642 -1.152241 0.000000 0.003685
    12 -2.647894 8.542626 -0.000005 0.000000 0.000000 -1.274576
    13 16.810589 -5.107452 0.000005 0.000000 0.000000 1.870417
    14 -0.722476 -15.609416 -14.412314 -1.156587 -5.590366 -0.110758
    15 0.096944 -8.450419 -0.009364 -0.005971 -0.540367 0.157854
    16 0.447952 -2.798982 -0.200442 -1.014454 0.150910 0.644033
    17 -0.032910 -1.480206 0.004936 -1.431586 0.000000 0.000002
    18 -0.027022 -1.076919 -0.020212 -0.473979 0.000000 0.000000
    19 -0.249534 -2.846962 -0.174215 -0.473064 0.210085 0.362128
    20 0.043235 -1.683939 0.096014 -1.793930 0.002823 -0.000167
    21 0.031729 -1.160831 0.058836 -0.335964 0.000642 0.008372
    22 -0.963866 -2.785142 -0.085346 -0.609796 0.267585 0.317848
    23 0.028479 -1.403068 0.006271 -1.150412 0.000000 0.000000
    24 0.021413 -0.957782 0.020047 -0.616019 0.000000 0.000000
    25 1.164474 -2.543938 -0.170328 -0.983933 0.070580 0.675847
    26 0.024032 -1.129043 0.017806 -1.337944 0.000000 0.000001
    27 0.014896 -0.883989 -0.019845 -0.672912 0.000000 0.000000
    28 -0.586770 -1.264475 0.200164 -0.186364 -1.053830 -3.148903
    29 1.522835 0.058681 0.016850 -0.036404 0.079934 0.970199
    30 1.117948 0.048424 -0.005764 -0.104677 -0.051684 0.771922
    31 -0.057365 -0.119510 0.041742 0.574644 0.064102 1.500033
    32 -0.488517 -2.755600 -0.228261 -0.619222 -0.044186 -0.439105
    33 0.039888 -1.479789 0.029853 -2.158258 0.000000 0.000000
    34 0.028785 -1.075730 -0.023111 -0.647509 0.000000 0.000000
    35 0.250028 -2.820663 -0.238396 -0.535674 0.054401 -0.329163
    36 -0.049759 -1.680545 0.100480 -1.871489 0.000000 -0.000002
    37 -0.034141 -1.148312 0.084779 -1.387518 0.000000 0.000000
    38 0.938234 -2.778027 0.089392 0.136577 -0.026827 -0.329408
    39 -0.033419 -1.397129 -0.011255 -1.523781 -0.032275 -0.008522
    40 -0.022361 -0.957434 0.018783 -1.589597 0.000000 0.000000
    41 -1.180680 -2.507215 -0.193861 -0.379706 0.103249 -0.518986
    42 -0.024966 -1.123934 0.017594 -2.136747 0.000000 0.000001
    43 -0.020057 -0.890966 0.010091 -0.896554 0.000000 0.000000
    44 0.583510 -1.197274 0.185377 0.220453 -0.870262 -0.672925
    45 1.535926 0.010245 0.005008 -0.063786 0.310976 -1.032102
    46 1.100770 0.004526 -0.010676 -0.009999 0.012761 -0.488469
    47 0.006867 -0.061985 -0.085739 -2.852831 -0.015617 -1.424341
  time 14
    0 10.549371 -2.923557 -11.297213 4.178555 -0.770242 -4.800855
    1 -0.071918 -8.498731 -0.104137 0.314262 0.472648 -0.647823
    2 1.665510 -2.904478 0.631343 -0.234326 0.084943 -3.486589
    3 -1.699721 2.222293 0.000421 0.000000 0.000000 -1.282538
    4 -5.655031 16.263659 1.047437 0.005898 -1.121418 -1.279905
    5 7.696722 0.021893 -0.405259 -0.001707 0.561568 -0.000383
    6 6.499035 0.037859 -0.093995 -1.570615 1.505567 -3.138680
    7 -5.655030 16.263657 -1.043029 3.135696 1.121416 -1.279904
    8 7.721393 -0.021960 -0.393362 0.001706 0.561568 0.000382
    9 6.490693 -0.037835 -0.107306 1.570613 1.505567 3.138681
    10 -0.489117 10.226307 1.194557 0.000000 0.000000 -1.282132
    11 1.189389 -0.719287 -0.940642 -1.165272 0.000000 0.003685
    12 -2.647894 8.542626 -0.000005 0.000000 0.000000 -1.274576
    13 16.810589 -5.107452 0.000005 0.000000 0.000000 1.870417
    14 -0.722476 -15.652386 -14.396689 -1.156587 -5.590366 -0.110758
    15 0.096944 -8.450419 -0.009364 -0.005971 -0.540367 0.157854
    16 0.447952 -2.798982 -0.200442 -1.014454 0.150910 0.644033
    17 -0.032910 -1.480206 0.004936 -1.431586 0.000000 0.000002
    18 -0.027022 -1.076919 -0.020212 -0.473979 0.000000 0.000000
    19 -0.249534 -2.846962 -0.174215 -0.473064 0.210085 0.362128
    20 0.043235 -1.683939 0.096014 -1.793930 0.002823 -0.000167
    21 0.031729 -1.160831 0.058836 -0.335964 0.000642 0.008372
    22 -0.963866 -2.785142 -0.085346 -0.609796 0.267585 0.317848
    23 0.028479 -1.403068 0.006271 -1.150412 0.000000 0.000000
    24 0.021413 -0.957782 0.020047 -0.616019 0.000000 0.000000
    25 1.164474 -2.543938 -0.170328 -0.983933 0.070580 0.675847
    26 0.024032 -1.129043 0.017806 -1.337944 0.000000 0.000001
    27 0.014896 -0.883989 -0.019845 -0.672912 0.000000 0.000000
    28 -0.586770 -1.264475 0.200164 -0.186364 -1.053830 -3.148903
    29 1.522835 0.058681 0.016850 -0.036404 0.079934 0.970199
    30 1.117948 0.048424 -0.005764 -0.105000 -0.048089 0.801372
    31 -0.057365 -0.119510 0.041742 0.574644 0.064102 1.500033
    32 -0.488517 -2.755600 -0.228261 -0.619222 -0.044186 -0.439105
    33 0.039888 -1.479789 0.029853 -2.158258 0.000000 0.000000
    34 0.028785 -1.075730 -0.023111 -0.647509 0.000000 0.000000
    35 0.250028 -2.820663 -0.238396 -0.535674 0.054401 -0.329163
    36 -0.049759 -1.680545 0.100480 -1.871489 0.000000 -0.000002
    37 -0.034141 -1.148312 0.084779 -1.387518 0.000000 0.000000
    38 0.938234 -2.778027 0.089392 0.136577 -0.026827 -0.329408
    39 -0.033419 -1.397129 -0.011255 -1.523781 -0.032275 -0.008522
    40 -0.022361 -0.957434 0.018783 -1.589597 0.000000 0.000000
    41 -1.180680 -2.507215 -0.193861 -0.379706 0.103249 -0.518986
    42 -0.024966 -1.123934 0.017594 -2.136747 0.000000 0.000001
    43 -0.020057 -0.890966 0.010091 -0.896554 0.000000 0.000000
    44 0.583510 -1.197274 0.185377 0.220453 -0.870262 -0.672925
    45 1.535926 0.010245 0.005008 -0.063786 0.310976 -1.032102
    46 1.100770 0.004526 -0.010676 -0.009999 0.012761 -0.488469
    47 0.006867 -0.061985 -0.085739 -2.852831 -0.015617 -1.424341
  time 15
    0 10.549371 -2.911838 -11.301119 4.178555 -0.770242 -4.800855
    1 -0.071918 -8.498731 -0.104137 0.314790 0.472300 -0.646666
    2 1.665510 -2.904478 0.631343 -0.234326 0.084943 -3.486589
    3 -1.699721 2.222293 0.000421 0.000000 0.000000 -1.282538
    4 -5.655031 16.263659 1.047437 0.005898 -1.121418 -1.279905
    5 7.696722 0.021893 -0.405259 -0.001707 0.561568 -0.000383
    6 6.499035 0.037859 -0.093995 -1.570615 1.505567 -3.138680
    7 -5.655030 16.263657 -1.043029 3.135696 1.121416 -1.279904
    8 7.721393 -0.021960 -0.393362 0.001706 0.561568 0.000382
    9 6.490693 -0.037835 -0.107306 1.570613 1.505567 3.138681
    10 -0.489117 10.226307 1.194557 0.000000 0.000000 -1.282132
    11 1.189389 -0.719287 -0.940642 -1.174086 0.000000 0.003685
    12 -2.647894 8.542626 -0.000005 0.000000 0.000000 -1.274576
    13 16.810589 -5.107452 0.000005 0.000000 0.000000 1.870417
    14 -0.722476 -15.668012 -14.388876 -1.156587 -5.590366 -0.110758
    15 0.096944 -8.450419 -0.009364 -0.005971 -0.540367 0.157854
    16 0.447952 -2.798982 -0.200442 -1.014454 0.150910 0.644033
    17 -0.032910 -1.480206 0.004936 -1.431586 0.000000 0.000002
    18 -0.027022 -1.076919 -0.020212 -0.473979 0.000000 0.000000
    19 -0.249534 -2.846962 -0.174215 -0.473064 0.210085 0.362128
    20 0.043235 -1.683939 0.096014 -1.793930 0.002823 -0.000167
    21 0.031729 -1.160831 0.058836 -0.335964 0.000642 0.008372
    22 -0.963866 -2.785142 -0.085346 -0.609796 0.267585 0.317848
    23 0.028479 -1.403068 0.006271 -1.150412 0.000000 0.000000
    24 0.021413 -0.957782 0.020047 -0.616019 0.000000 0.000000
    25 1.164474 -2.543938 -0.170328 -0.983933 0.070580 0.675847
    26 0.024032 -1.129043 0.017806 -1.337944 0.000000 0.000001
    27 0.014896 -0.883989 -0.019845 -0.672912 0.000000 0.000000
    28 -0.586770 -1.264475 0.200164 -0.186364 -1.053830 -3.148903
    29 1.522835 0.058681 0.016850 -0.036404 0.079934 0.970199
    30 1.117948 0.048424 -0.005764 -0.105072 -0.044697 0.813157
    31 -0.057365 -0.119510 0.041742 0.574644 0.064102 1.500033
    32 -0.488517 -2.755600 -0.228261 -0.619222 -0.044186 -0.439105
    33 0.039888 -1.479789 0.029853 -2.158258 0.000000 0.000000
    34 0.028785 -1.075730 -0.023111 -0.647509 0.000000 0.000000
    35 0.250028 -2.820663 -0.238396 -0.535674 0.054401 -0.329163
    36 -0.049759 -1.680545 0.100480 -1.871489 0.000000 -0.000002
    37 -0.034141 -1.148312 0.084779 -1.387518 0.000000 0.000000
    38 0.938234 -2.778027 0.089392 0.136577 -0.026827 -0.329408
    39 -0.033419 -1.397129 -0.011255 -1.523781 -0.032275 -0.008522
    40 -0.022361 -0.957434 0.018783 -1.589597 0.000000 0.000000
    41 -1.180680 -2.507215 -0.193861 -0.379706 0.103249 -0.518986
    42 -0.024966 -1.123934 0.017594 -2.136747 0.000000 0.000001
    43 -0.020057 -0.890966 0.010091 -0.896554 0.000000 0.000000
    44 0.583510 -1.197274 0.185377 0.220453 -0.870262 -0.672925
    45 1.535926 0.010245 0.005008 -0.063786 0.310976 -1.032102
    46 1.100770 0.004526 -0.010676 -0.009999 0.012761 -0.488469
    47 0.006867 -0.061985 -0.085739 -2.852831 -0.015617 -1.424341
  time 16
    0 10.549371 -2.892306 -11.312838 4.178555 -0.770242 -4.800855
    1 -0.071918 -8.498731 -0.104137 0.315101 0.472113 -0.645967
    2 1.665510 -2.904478 0.631343 -0.234326 0.084943 -3.486589
    3 -1.699721 2.222293 0.000421 0.000000 0.000000 -1.282538
    4 -5.655031 16.263659 1.047437 0.005898 -1.121418 -1.279905
    5 7.696722 0.021893 -0.405259 -0.001707 0.561568 -0.000383
    6 6.499035 0.037859 -0.093995 -1.570615 1.505567 -3.138680
    7 -5.655030 16.263657 -1.043029 3.135696 1.121416 -1.279904
    8 7.721393 -0.021960 -0.393362 0.001706 0.561568 0.000382
    9 6.490693 -0.037835 -0.107306 1.570613 1.505567 3.138681
    10 -0.489117 10.226307 1.194557 0.000000 0.000000 -1.282132
    11 1.189389 -0.719287 -0.940642 -1.178973 0.000000 0.003685
    12 -2.647894 8.542626 -0.000005 0.000000 0.000000 -1.274576
    13 16.810589 -5.107452 0.000005 0.000000 0.000000 1.870417
    14 -0.722476 -15.668012 -14.400595 -1.156587 -5.590366 -0.110758
    15 0.096944 -8.450419 -0.009364 -0.005971 -0.540367 0.157854
    16 0.447952 -2.798982 -0.200442 -1.014454 0.150910 0.644033
    17 -0.032910 -1.480206 0.004936 -1.431586 0.000000 0.000002
    18 -0.027022 -1.076919 -0.020212 -0.473979 0.000000 0.000000
    19 -0.249534 -2.846962 -0.174215 -0.473064 0.210085 0.362128
    20 0.043235 -1.683939 0.096014 -1.793930 0.002823 -0.000167
    21 0.031729 -1.160831 0.058836 -0.335964 0.000642 0.008372
    22 -0.963866 -2.785142 -0.085346 -0.609796 0.267585 0.317848
    23 0.028479 -1.403068 0.006271 -1.150412 0.000000 0.000000
    24 0.021413 -0.957782 0.020047 -0.616019 0.000000 0.000000
    25 1.164474 -2.543938 -0.170328 -0.983933 0.070580 0.675847
    26 0.024032 -1.129043 0.017806 -1.337944 0.000000 0.000001
    27 0.014896 -0.883989 -0.019845 -0.672912 0.000000 0.000000
    28 -0.586770 -1.264475 0.200164 -0.186364 -1.053830 -3.148903
    29 1.522835 0.058681 0.016850 -0.032446 0.081672 0.964705
    30 1.117948 0.048424 -0.005764 -0.100111 -0.040982 0.807907
    31 -0.057365 -0.119510 0.041742 0.574644 0.064102 1.500033
    32 -0.488517 -2.755600 -0.228261 -0.619222 -0.044186 -0.439105
    33 0.039888 -1.479789 0.029853 -2.158258 0.000000 0.000000
    34 0.028785 -1.075730 -0.023111 -0.647509 0.000000 0.000000
    35 0.250028 -2.820663 -0.238396 -0.535674 0.054401 -0.329163
    36 -0.049759 -1.680545 0.100480 -1.871489 0.000000 -0.000002
    37 -0.034141 -1.148312 0.084779 -1.387518 0.000000 0.000000
    38 0.938234 -2.778027 0.073767 0.145781 -0.030111 -0.315274
    39 -0.033419 -1.397129 -0.011255 -1.165491 -0.032275 -0.008522
    40 -0.022361 -0.957434 0.018783 -1.567775 0.000000 0.000000
    41 -1.180680 -2.507215 -0.193861 -0.379706 0.103249 -0.518986
    42 -0.024966 -1.123934 0.017594 -2.136747 0.000000 0.000001
    43 -0.020057 -0.890966 0.010091 -0.896554 0.000000 0.000000
    44 0.583510 -1.197274 0.185377 0.220453 -0.870262 -0.672925
    45 1.535926 0.010245 0.005008 -0.063786 0.310976 -1.032102
    46 1.100770 0.004526 -0.010676 -0.009999 0.012761 -0.488469
    47 0.006867 -0.061985 -0.085739 -2.852831 -0.015617 -1.424341
  time 17
    0 10.549371 -2.880587 -11.316745 4.178555 -0.770242 -4.800855
    1 -0.071918 -8.498731 -0.104137 0.315412 0.471926 -0.645317
    2 1.665510 -2.904478 0.631343 -0.234326 0.084943 -3.486589
    3 -1.699721 2.222293 0.000421 0.000000 0.000000 -1.282538
    4 -5.655031 16.263659 1.047437 0.005898 -1.121418 -1.279905
    5 7.696722 0.021893 -0.405259 -0.001707 0.561568 -0.000383
    6 6.499035 0.037859 -0.093995 -1.570615 1.505567 -3.138680
    7 -5.655030 16.263657 -1.043029 3.135696 1.121416 -1.279904
    8 7.721393 -0.021960 -0.393362 0.001706 0.561568 0.000382
    9 6.490693 -0.037835 -0.107306 1.570613 1.505567 3.138681
    10 -0.489117 10.226307 1.194557 0.000000 0.000000 -1.282132
    11 1.189389 -0.719287 -0.940642 -1.180506 0.000000 0.003685
    12 -2.647894 8.542626 -0.000005 0.000000 0.000000 -1.274576
    13 16.810589 -5.107452 0.000005 0.000000 0.000000 1.870417
    14 -0.722476 -15.656293 -14.420127 -1.156587 -5.590366 -0.110758
    15 0.096944 -8.450419 -0.009364 -0.005971 -0.540367 0.157854
    16 0.447952 -2.798982 -0.200442 -1.014454 0.150910 0.644033
    17 -0.032910 -1.480206 0.004936 -1.431586 0.000000 0.000002
    18 -0.027022 -1.076919 -0.020212 -0.473979 0.000000 0.000000
    19 -0.249534 -2.846962 -0.174215 -0.473064 0.210085 0.362128
    20 0.043235 -1.683939 0.096014 -1.793930 0.002823 -0.000167
    21 0.031729 -1.160831 0.058836 -0.335964 0.000642 0.008372
    22 -0.963866 -2.785142 -0.085346 -0.609796 0.267585 0.317848
    23 0.028479 -1.403068 0.006271 -1.150412 0.000000 0.000000
    24 0.021413 -0.957782 0.020047 -0.616019 0.000000 0.000000
    25 1.164474 -2.543938 -0.170328 -0.983933 0.070580 0.675847
    26 0.024032 -1.129043 0.017806 -1.337944 0.000000 0.000001
    27 0.014896 -0.883989 -0.019845 -0.672912 0.000000 0.000000
    28 -0.586770 -1.264475 0.200164 -0.186364 -1.053830 -3.148903
    29 1.522835 0.058681 0.016850 -0.022242 0.086166 0.950613
    30 1.117948 0.048424 -0.005764 -0.087275 -0.036487 0.794289
    31 -0.057365 -0.119510 0.041742 0.574644 0.064102 1.500033
    32 -0.488517 -2.755600 -0.228261 -0.619222 -0.044186 -0.439105
    33 0.039888 -1.479789 0.029853 -2.158258 0.000000 0.000000
    34 0.028785 -1.075730 -0.023111 -0.647509 0.000000 0.000000
    35 0.250028 -2.820663 -0.238396 -0.535674 0.054401 -0.329163
    36 -0.049759 -1.680545 0.100480 -1.871489 0.000000 -0.000002
    37 -0.034141 -1.148312 0.084779 -1.387518 0.000000 0.000000
    38 0.949953 -2.766308 0.022984 0.167737 -0.037937 -0.281601
    39 -0.033419 -1.397129 -0.011255 -0.500204 -0.032275 -0.008522
    40 -0.022361 -0.957434 0.018783 -1.466671 0.000000 0.000000
    41 -1.180680 -2.507215 -0.193861 -0.379706 0.103249 -0.518986
    42 -0.024966 -1.123934 0.017594 -2.136747 0.000000 0.000001
    43 -0.020057 -0.890966 0.010091 -0.896554 0.000000 0.000000
    44 0.583510 -1.197274 0.185377 0.220453 -0.870262 -0.672925
    45 1.535926 0.010245 0.005008 -0.063786 0.310976 -1.032102
    46 1.100770 0.004526 -0.010676 -0.009999 0.012761 -0.488469
    47 0.006867 -0.061985 -0.085739 -2.852831 -0.015617 -1.424341
  time 18
    0 10.549371 -2.861055 -11.320651 4.178555 -0.770242 -4.800855
    1 -0.071918 -8.498731 -0.104137 0.315692 0.471739 -0.644691
    2 1.665510 -2.904478 0.631343 -0.234326 0.084943 -3.486589
    3 -1.699721 2.222293 0.000421 0.000000 0.000000 -1.282538
    4 -5.655031 16.263659 1.047437 0.005898 -1.121418 -1.279905
    5 7.696722 0.021893 -0.405259 -0.001707 0.561568 -0.000383
    6 6.499035 0.037859 -0.093995 -1.570615 1.505567 -3.138680
    7 -5.655030 16.263657 -1.043029 3.135696 1.121416 -1.279904
    8 7.721393 -0.021960 -0.393362 0.001706 0.561568 0.000382
    9 6.490693 -0.037835 -0.107306 1.570613 1.505567 3.138681
    10 -0.489117 10.226307 1.194557 0.000000 0.000000 -1.282132
    11 1.189389 -0.719287 -0.940642 -1.180506 0.000000 0.003685
    12 -2.647894 8.542626 -0.000005 0.000000 0.000000 -1.274576
    13 16.810589 -5.107452 0.000005 0.000000 0.000000 1.870417
    14 -0.722476 -15.644574 -14.451378 -1.156587 -5.590366 -0.110758
    15 0.096944 -8.450419 -0.009364 -0.005971 -0.540367 0.157854
    16 0.447952 -2.798982 -0.200442 -1.014454 0.150910 0.644033
    17 -0.032910 -1.480206 0.004936 -1.431586 0.000000 0.000002
    18 -0.027022 -1.076919 -0.020212 -0.473979 0.000000 0.000000
    19 -0.249534 -2.846962 -0.174215 -0.473064 0.210085 0.362128
    20 0.043235 -1.683939 0.096014 -1.793930 0.002823 -0.000167
    21 0.031729 -1.160831 0.058836 -0.335964 0.000642 0.008372
    22 -0.963866 -2.785142 -0.085346 -0.609796 0.267585 0.317848
    23 0.028479 -1.403068 0.006271 -1.150412 0.000000 0.000000
    24 0.021413 -0.957782 0.020047 -0.616019 0.000000 0.000000
    25 1.164474 -2.543938 -0.170328 -0.983933 0.070580 0.675847
    26 0.024032 -1.129043 0.017806 -1.337944 0.000000 0.000001
    27 0.014896 -0.883989 -0.019845 -0.672912 0.000000 0.000000
    28 -0.586770 -1.264475 0.200164 -0.186364 -1.053830 -3.148903
    29 1.522835 0.058681 0.016850 -0.008286 0.092302 0.931275
    30 1.117948 0.048424 -0.005764 -0.069754 -0.031742 0.775695
    31 -0.057365 -0.119510 0.041742 0.574644 0.064102 1.500033
    32 -0.488517 -2.755600 -0.228261 -0.619222 -0.044186 -0.439105
    33 0.039888 -1.479789 0.029853 -2.158258 0.000000 0.000000
    34 0.028785 -1.075730 -0.023111 -0.647509 0.000000 0.000000
    35 0.250028 -2.820663 -0.238396 -0.535674 0.054401 -0.329163
    36 -0.049759 -1.680545 0.100480 -1.871489 0.000000 -0.000002
    37 -0.034141 -1.148312 0.084779 -1.387518 0.000000 0.000000
    38 0.949953 -2.754589 -0.027799 0.193959 -0.047273 -0.241409
    39 -0.033419 -1.397129 -0.011255 -0.141961 -0.032275 -0.008522
    40 -0.022361 -0.957434 0.018783 -1.232441 0.000000 0.000000
    41 -1.180680 -2.507215 -0.193861 -0.379706 0.103249 -0.518986
    42 -0.024966 -1.123934 0.017594 -2.136747 0.000000 0.000001
    43 -0.020057 -0.890966 0.010091 -0.896554 0.000000 0.000000
    44 0.583510 -1.197274 0.185377 0.220453 -0.870262 -0.672925
    45 1.535926 0.010245 0.005008 -0.063786 0.310976 -1.032102
    46 1.100770 0.004526 -0.010676 -0.009999 0.012761 -0.488469
    47 0.006867 -0.061985 -0.085739 -2.852831 -0.015617 -1.424341
  time 19
    0 10.549371 -2.849336 -11.324557 4.178555 -0.770242 -4.800855
    1 -0.071918 -8.498731 -0.104137 0.315957 0.471578 -0.644112
    2 1.665510 -2.904478 0.631343 -0.234326 0.084943 -3.486589
    3 -1.699721 2.222293 0.000421 0.000000 0.000000 -1.282538
    4 -5.655031 16.263659 1.047437 0.005898 -1.121418 -1.279905
    5 7.696722 0.021893 -0.405259 -0.001707 0.561568 -0.000383
    6 6.499035 0.037859 -0.093995 -1.570615 1.505567 -3.138680
    7 -5.655030 16.263657 -1.043029 3.135696 1.121416 -1.279904
    8 7.721393 -0.021960 -0.393362 0.001706 0.561568 0.000382
    9 6.490693 -0.037835 -0.107306 1.570613 1.505567 3.138681
    10 -0.489117 10.226307 1.194557 0.000000 0.000000 -1.282132
    11 1.189389 -0.719287 -0.940642 -1.180506 0.000000 0.003685
    12 -2.647894 8.542626 -0.000005 0.000000 0.000000 -1.274576
    13 16.810589 -5.107452 0.000005 0.000000 0.000000 1.870417
    14 -0.722476 -15.628948 -14.482629 -1.156587 -5.590366 -0.110758
    15 0.096944 -8.450419 -0.009364 -0.005971 -0.540367 0.157854
    16 0.447952 -2.798982 -0.200442 -1.014454 0.150910 0.644033
    17 -0.032910 -1.480206 0.004936 -1.431586 0.000000 0.000002
    18 -0.027022 -1.076919 -0.020212 -0.473979 0.000000 0.000000
    19 -0.249534 -2.846962 -0.174215 -0.473064 0.210085 0.362128
    20 0.043235 -1.683939 0.096014 -1.793930 0.002823 -0.000167
    21 0.031729 -1.160831 0.058836 -0.335964 0.000642 0.008372
    22 -0.963866 -2.785142 -0.085346 -0.609796 0.267585 0.317848
    23 0.028479 -1.403068 0.006271 -1.150412 0.000000 0.000000
    24 0.021413 -0.957782 0.020047 -0.616019 0.000000 0.000000
    25 1.164474 -2.543938 -0.170328 -0.983933 0.070580 0.675847
    26 0.024032 -1.129043 0.017806 -1.337944 0.000000 0.000001
    27 0.014896 -0.883989 -0.019845 -0.672912 0.000000 0.000000
    28 -0.586770 -1.264475 0.200164 -0.186364 -1.053830 -3.148903
    29 1.522835 0.058681 0.016850 0.006910 0.098977 0.910261
    30 1.117948 0.048424 -0.005764 -0.050638 -0.027175 0.755433
    31 -0.057365 -0.119510 0.041742 0.574644 0.064102 1.500033
    32 -0.488517 -2.755600 -0.228261 -0.619222 -0.044186 -0.439105
    33 0.039888 -1.479789 0.029853 -2.158258 0.000000 0.000000
    34 0.028785 -1.075730 -0.023111 -0.647509 0.000000 0.000000
    35 0.250028 -2.820663 -0.238396 -0.535674 0.054401 -0.329163
    36 -0.049759 -1.680545 0.100480 -1.871489 0.000000 -0.000002
    37 -0.034141 -1.148312 0.084779 -1.387518 0.000000 0.000000
    38 0.957766 -2.746776 -0.078582 0.215915 -0.055087 -0.207736
    39 -0.033419 -1.397129 -0.011255 -0.162985 -0.032275 -0.008522
    40 -0.022361 -0.957434 0.018783 -0.534522 0.000000 0.000000
    41 -1.180680 -2.507215 -0.193861 -0.379706 0.103249 -0.518986
    42 -0.024966 -1.123934 0.017594 -2.136747 0.000000 0.000001
    43 -0.020057 -0.890966 0.010091 -0.896554 0.000000 0.000000
    44 0.583510 -1.197274 0.185377 0.220453 -0.870262 -0.672925
    45 1.535926 0.010245 0.005008 -0.063786 0.310976 -1.032102
    46 1.100770 0.004526 -0.010676 -0.009999 0.012761 -0.488469
    47 0.006867 -0.061985 -0.085739 -2.852831 -0.015617 -1.424341
  time 20
    0 10.549371 -2.837617 -11.328464 4.178555 -0.770242 -4.800855
    1 -0.071918 -8.498731 -0.104137 0.316190 0.471418 -0.643582
    2 1.665510 -2.904478 0.631343 -0.234326 0.084943 -3.486589
    3 -1.699721 2.222293 0.000421 0.000000 0.000000 -1.282538
    4 -5.655031 16.263659 1.047437 0.005898 -1.121418 -1.279905
    5 7.696722 0.021893 -0.405259 -0.001707 0.561568 -0.000383
    6 6.499035 0.037859 -0.093995 -1.570615 1.505567 -3.138680
    7 -5.655030 16.263657 -1.043029 3.135696 1.121416 -1.279904
    8 7.721393 -0.021960 -0.393362 0.001706 0.561568 0.000382
    9 6.490693 -0.037835 -0.107306 1.570613 1.505567 3.138681
    10 -0.489117 10.226307 1.194557 0.000000 0.000000 -1.282132
    11 1.189389 -0.719287 -0.940642 -1.180506 0.000000 0.003685
    12 -2.647894 8.542626 -0.000005 0.000000 0.000000 -1.274576
    13 16.810589 -5.107452 0.000005 0.000000 0.000000 1.870417
    14 -0.722476 -15.613323 -14.509974 -1.156587 -5.590366 -0.110758
    15 0.096944 -8.450419 -0.009364 -0.005971 -0.540367 0.157854
    16 0.447952 -2.798982 -0.200442 -1.014454 0.150910 0.644033
    17 -0.032910 -1.480206 0.004936 -1.431586 0.000000 0.000002
    18 -0.027022 -1.076919 -0.020212 -0.473979 0.000000 0.000000
    19 -0.249534 -2.846962 -0.174215 -0.473064 0.210085 0.362128
    20 0.043235 -1.683939 0.096014 -1.793930 0.002823 -0.000167
    21 0.031729 -1.160831 0.058836 -0.335964 0.000642 0.008372
    22 -0.963866 -2.785142 -0.085346 -0.609796 0.267585 0.317848
    23 0.028479 -1.403068 0.006271 -1.150412 0.000000 0.000000
    24 0.021413 -0.957782 0.020047 -0.616019 0.000000 0.000000
    25 1.164474 -2.543938 -0.170328 -0.983933 0.070580 0.675847
    26 0.024032 -1.129043 0.017806 -1.337944 0.000000 0.000001
    27 0.014896 -0.883989 -0.019845 -0.672912 0.000000 0.000000
    28 -0.586770 -1.264475 0.200164 -0.186364 -1.053830 -3.148903
    29 1.522835 0.058681 0.016850 0.020865 0.105113 0.890986
    30 1.117948 0.048424 -0.005764 -0.033117 -0.023340 0.736839
    31 -0.057365 -0.119510 0.041742 0.574644 0.064102 1.500033
    32 -0.488517 -2.755600 -0.228261 -0.619222 -0.044186 -0.439105
    33 0.039888 -1.479789 0.029853 -2.158258 0.000000 0.000000
    34 0.028785 -1.075730 -0.023111 -0.647509 0.000000 0.000000
    35 0.250028 -2.820663 -0.238396 -0.535674 0.054401 -0.329163
    36 -0.049759 -1.680545 0.100480 -1.871489 0.000000 -0.000002
    37 -0.034141 -1.148312 0.084779 -1.387518 0.000000 0.000000
    38 0.957766 -2.746776 -0.090301 0.225131 -0.058371 -0.193618
    39 -0.033419 -1.397129 -0.011255 -0.184008 -0.032275 -0.008522
    40 -0.022361 -0.957434 0.018783 0.003845 0.000000 0.000000
    41 -1.180680 -2.507215 -0.193861 -0.379706 0.103249 -0.518986
    42 -0.024966 -1.123934 0.017594 -2.136747 0.000000 0.000001
    43 -0.020057 -0.890966 0.010091 -0.896554 0.000000 0.000000
    44 0.583510 -1.197274 0.185377 0.220453 -0.870262 -0.672925
    45 1.535926 0.010245 0.005008 -0.063786 0.310976 -1.032102
    46 1.100770 0.004526 -0.010676 -0.009999 0.012761 -0.488469
    47 0.006867 -0.061985 -0.085739 -2.852831 -0.015617 -1.424341
  time 21
    0 10.549371 -2.829804 -11.328464 4.178555 -0.770242 -4.800855
    1 -0.071918 -8.498731 -0.104137 0.316423 0.471258 -0.643076
    2 1.665510 -2.904478 0.631343 -0.234326 0.084943 -3.486589
    3 -1.699721 2.222293 0.000421 0.000000 0.000000 -1.282538
    4 -5.655031 16.263659 1.047437 0.005898 -1.121418 -1.279905
    5 7.696722 0.021893 -0.405259 -0.001707 0.561568 -0.000383
    6 6.499035 0.037859 -0.093995 -1.570615 1.505567 -3.138680
    7 -5.655030 16.263657 -1.043029 3.135696 1.121416 -1.279904
    8 7.721393 -0.021960 -0.393362 0.001706 0.561568 0.000382
    9 6.490693 -0.037835 -0.107306 1.570613 1.505567 3.138681
    10 -0.489117 10.226307 1.194557 0.000000 0.000000 -1.282132
    11 1.189389 -0.719287 -0.940642 -1.180506 0.000000 0.003685
    12 -2.647894 8.542626 -0.000005 0.000000 0.000000 -1.274576
    13 16.810589 -5.107452 0.000005 0.000000 0.000000 1.870417
    14 -0.722476 -15.593791 -14.533412 -1.156587 -5.590366 -0.110758
    15 0.096944 -8.450419 -0.009364 -0.005971 -0.540367 0.157854
    16 0.447952 -2.798982 -0.200442 -1.014454 0.150910 0.644033
    17 -0.032910 -1.480206 0.004936 -1.431586 0.000000 0.000002
    18 -0.027022 -1.076919 -0.020212 -0.473979 0.000000 0.000000
    19 -0.249534 -2.846962 -0.174215 -0.473064 0.210085 0.362128
    20 0.043235 -1.683939 0.096014 -1.793930 0.002823 -0.000167
    21 0.031729 -1.160831 0.058836 -0.335964 0.000642 0.008372
    22 -0.963866 -2.785142 -0.085346 -0.609796 0.267585 0.317848
    23 0.028479 -1.403068 0.006271 -1.150412 0.000000 0.000000
    24 0.021413 -0.957782 0.020047 -0.616019 0.000000 0.000000
    25 1.164474 -2.543938 -0.170328 -0.983933 0.070580 0.675847
    26 0.024032 -1.129043 0.017806 -1.337944 0.000000 0.000001
    27 0.014896 -0.883989 -0.019845 -0.672912 0.000000 0.000000
    28 -0.586770 -1.264475 0.200164 -0.186364 -1.053830 -3.148903
    29 1.522835 0.058681 0.016850 0.031070 0.109620 0.876894
    30 1.117948 0.048424 -0.005764 -0.020281 -0.020680 0.723248
    31 -0.057365 -0.119510 0.041742 0.574644 0.064102 1.500033
    32 -0.488517 -2.755600 -0.228261 -0.619222 -0.044186 -0.439105
    33 0.039888 -1.479789 0.029853 -2.158258 0.000000 0.000000
    34 0.028785 -1.075730 -0.023111 -0.647509 0.000000 0.000000
    35 0.250028 -2.820663 -0.238396 -0.535674 0.054401 -0.329163
    36 -0.049759 -1.680545 0.100480 -1.871489 0.000000 -0.000002
    37 -0.034141 -1.148312 0.084779 -1.387518 0.000000 0.000000
    38 0.957766 -2.746776 -0.090301 0.225131 -0.058371 -0.193618
    39 -0.033419 -1.397129 -0.011255 -0.184008 -0.032275 -0.008522
    40 -0.022361 -0.957434 0.018783 0.003845 0.000000 0.000000
    41 -1.180680 -2.507215 -0.193861 -0.379706 0.103249 -0.518986
    42 -0.024966 -1.123934 0.017594 -2.136747 0.000000 0.000001
    43 -0.020057 -0.890966 0.010091 -0.896554 0.000000 0.000000
    44 0.583510 -1.197274 0.185377 0.220453 -0.870262 -0.672925
    45 1.535926 0.010245 0.005008 -0.063786 0.310976 -1.032102
    46 1.100770 0.004526 -0.010676 -0.009999 0.012761 -0.488469
    47 0.006867 -0.061985 -0.085739 -2.852831 -0.015617 -1.424341
  time 22
    0 10.549371 -2.825898 -11.332370 4.178555 -0.770242 -4.800855
    1 -0.071918 -8.498731 -0.104137 0.316625 0.471124 -0.642619
    2 1.665510 -2.904478 0.631343 -0.234326 0.084943 -3.486589
    3 -1.699721 2.222293 0.000421 0.000000 0.000000 -1.282538
    4 -5.655031 16.263659 1.047437 0.005898 -1.121418 -1.279905
    5 7.696722 0.021893 -0.405259 -0.001707 0.561568 -0.000383
    6 6.499035 0.037859 -0.093995 -1.570615 1.505567 -3.138680
    7 -5.655030 16.263657 -1.043029 3.135696 1.121416 -1.279904
    8 7.721393 -0.021960 -0.393362 0.001706 0.561568 0.000382
    9 6.490693 -0.037835 -0.107306 1.570613 1.505567 3.138681
    10 -0.489117 10.226307 1.194557 0.000000 0.000000 -1.282132
    11 1.189389 -0.719287 -0.940642 -1.180506 0.000000 0.003685
    12 -2.647894 8.542626 -0.000005 0.000000 0.000000 -1.274576
    13 16.810589 -5.107452 0.000005 0.000000 0.000000 1.870417
    14 -0.722476 -15.582072 -14.537318 -1.156587 -5.590366 -0.110758
    15 0.096944 -8.450419 -0.009364 -0.005971 -0.540367 0.157854
    16 0.447952 -2.798982 -0.200442 -1.014454 0.150910 0.644033
    17 -0.032910 -1.480206 0.004936 -1.431586 0.000000 0.000002
    18 -0.027022 -1.076919 -0.020212 -0.473979 0.000000 0.000000
    19 -0.249534 -2.846962 -0.174215 -0.473064 0.210085 0.362128
    20 0.043235 -1.683939 0.096014 -1.793930 0.002823 -0.000167
    21 0.031729 -1.160831 0.058836 -0.335964 0.000642 0.008372
    22 -0.963866 -2.785142 -0.085346 -0.609796 0.267585 0.317848
    23 0.028479 -1.403068 0.006271 -1.150412 0.000000 0.000000
    24 0.021413 -0.957782 0.020047 -0.616019 0.000000 0.000000
    25 1.164474 -2.543938 -0.170328 -0.983933 0.070580 0.675847
    26 0.024032 -1.129043 0.017806 -1.337944 0.000000 0.000001
    27 0.014896 -0.883989 -0.019845 -0.672912 0.000000 0.000000
    28 -0.586770 -1.264475 0.200164 -0.186364 -1.053830 -3.148903
    29 1.522835 0.058681 0.016850 0.035028 0.111345 0.871431
    30 1.117948 0.048424 -0.005764 -0.015320 -0.019661 0.717971
    31 -0.057365 -0.119510 0.041742 0.574644 0.064102 1.500033
    32 -0.488517 -2.755600 -0.228261 -0.619222 -0.044186 -0.439105
    33 0.039888 -1.479789 0.029853 -2.158258 0.000000 0.000000
    34 0.028785 -1.075730 -0.023111 -0.647509 0.000000 0.000000
    35 0.250028 -2.820663 -0.238396 -0.535674 0.054401 -0.329163
    36 -0.049759 -1.680545 0.100480 -1.871489 0.000000 -0.000002
    37 -0.034141 -1.148312 0.084779 -1.387518 0.000000 0.000000
    38 0.957766 -2.746776 -0.090301 0.225131 -0.058371 -0.193618
    39 -0.033419 -1.397129 -0.011255 -0.184008 -0.032275 -0.008522
    40 -0.022361 -0.957434 0.018783 0.003845 0.000000 0.000000
    41 -1.180680 -2.507215 -0.193861 -0.379706 0.103249 -0.518986
    42 -0.024966 -1.123934 0.017594 -2.136747 0.000000 0.000001
    43 -0.020057 -0.890966 0.010091 -0.896554 0.000000 0.000000
    44 0.583510 -1.197274 0.185377 0.220453 -0.870262 -0.672925
    45 1.535926 0.010245 0.005008 -0.063786 0.310976 -1.032102
    46 1.100770 0.004526 -0.010676 -0.009999 0.012761 -0.488469
    47 0.006867 -0.061985 -0.085739 -2.852831 -0.015617 -1.424341
  time 23
    0 10.549371 -2.825898 -11.328464 4.178555 -0.770242 -4.800855
    1 -0.071918 -8.498731 -0.104137 0.316812 0.471017 -0.642209
    2 1.665510 -2.904478 0.631343 -0.234326 0.084943 -3.486589
    3 -1.699721 2.222293 0.000421 0.000000 0.000000 -1.282538
    4 -5.655031 16.263659 1.047437 0.005898 -1.121418 -1.279905
    5 7.696722 0.021893 -0.405259 -0.001707 0.561568 -0.000383
    6 6.499035 0.037859 -0.093995 -1.570615 1.505567 -3.138680
    7 -5.655030 16.263657 -1.043029 3.135696 1.121416 -1.279904
    8 7.721393 -0.021960 -0.393362 0.001706 0.561568 0.000382
    9 6.490693 -0.037835 -0.107306 1.570613 1.505567 3.138681
    10 -0.489117 10.226307 1.194557 0.000000 0.000000 -1.282132
    11 1.189389 -0.719287 -0.940642 -1.180506 0.000000 0.003685
    12 -2.647894 8.542626 -0.000005 0.000000 0.000000 -1.274576
    13 16.810589 -5.107452 0.000005 0.000000 0.000000 1.870417
    14 -0.722476 -15.566446 -14.537318 -1.156587 -5.590366 -0.110758
    15 0.096944 -8.450419 -0.009364 -0.005971 -0.540367 0.157854
    16 0.447952 -2.798982 -0.200442 -1.014454 0.150910 0.644033
    17 -0.032910 -1.480206 0.004936 -1.431586 0.000000 0.000002
    18 -0.027022 -1.076919 -0.020212 -0.473979 0.000000 0.000000
    19 -0.249534 -2.846962 -0.174215 -0.473064 0.210085 0.362128
    20 0.043235 -1.683939 0.096014 -1.793930 0.002823 -0.000167
    21 0.031729 -1.160831 0.058836 -0.335964 0.000642 0.008372
    22 -0.963866 -2.785142 -0.085346 -0.609796 0.267585 0.317848
    23 0.028479 -1.403068 0.006271 -1.150412 0.000000 0.000000
    24 0.021413 -0.957782 0.020047 -0.616019 0.000000 0.000000
    25 1.164474 -2.543938 -0.170328 -0.983933 0.070580 0.675847
    26 0.024032 -1.129043 0.017806 -1.337944 0.000000 0.000001
    27 0.014896 -0.883989 -0.019845 -0.672912 0.000000 0.000000
    28 -0.586770 -1.264475 0.200164 -0.186364 -1.053830 -3.148903
    29 1.522835 0.058681 0.016850 0.035028 0.111345 0.871431
    30 1.117948 0.048424 -0.005764 -0.015320 -0.019661 0.717971
    31 -0.057365 -0.119510 0.041742 0.574644 0.064102 1.500033
    32 -0.488517 -2.755600 -0.228261 -0.619222 -0.044186 -0.439105
    33 0.039888 -1.479789 0.029853 -2.158258 0.000000 0.000000
    34 0.028785 -1.075730 -0.023111 -0.647509 0.000000 0.000000
    35 0.250028 -2.820663 -0.238396 -0.535674 0.054401 -0.329163
    36 -0.049759 -1.680545 0.100480 -1.871489 0.000000 -0.000002
    37 -0.034141 -1.148312 0.084779 -1.387518 0.000000 0.000000
    38 0.957766 -2.746776 -0.090301 0.225131 -0.058371 -0.193618
    39 -0.033419 -1.397129 -0.011255 -0.184008 -0.032275 -0.008522
    40 -0.022361 -0.957434 0.018783 0.003845 0.000000 0.000000
    41 -1.180680 -2.507215 -0.193861 -0.379706 0.103249 -0.518986
    42 -0.024966 -1.123934 0.017594 -2.136747 0.000000 0.000001
    43 -0.020057 -0.890966 0.010091 -0.896554 0.000000 0.000000
    44 0.583510 -1.197274 0.185377 0.220453 -0.870262 -0.672925
    45 1.535926 0.010245 0.005008 -0.063786 0.310976 -1.032102
    46 1.100770 0.004526 -0.010676 -0.009999 0.012761 -0.488469
    47 0.006867 -0.061985 -0.085739 -2.852831 -0.015617 -1.424341
  time 24
    0 10.549371 -2.825898 -11.328464 4.178555 -0.770242 -4.800855
    1 -0.071918 -8.498731 -0.104137 0.316983 0.470910 -0.641848
    2 1.665510 -2.904478 0.631343 -0.234326 0.084943 -3.486589
    3 -1.699721 2.222293 0.000421 0.000000 0.000000 -1.282538
    4 -5.655031 16.263659 1.047437 0.005898 -1.121418 -1.279905
    5 7.696722 0.021893 -0.405259 -0.001707 0.561568 -0.000383
    6 6.499035 0.037859 -0.093995 -1.570615 1.505567 -3.138680
    7 -5.655030 16.263657 -1.043029 3.135696 1.121416 -1.279904
    8 7.721393 -0.021960 -0.393362 0.001706 0.561568 0.000382
    9 6.490693 -0.037835 -0.107306 1.570613 1.505567 3.138681
    10 -0.489117 10.226307 1.194557 0.000000 0.000000 -1.282132
    11 1.189389 -0.719287 -0.940642 -1.180506 0.000000 0.003685
    12 -2.647894 8.542626 -0.000005 0.000000 0.000000 -1.274576
    13 16.810589 -5.107452 0.000005 0.000000 0.000000 1.870417
    14 -0.722476 -15.546914 -14.529506 -1.156587 -5.590366 -0.110758
    15 0.096944 -8.450419 -0.009364 -0.005971 -0.540367 0.157854
    16 0.447952 -2.798982 -0.200442 -1.014454 0.150910 0.644033
    17 -0.032910 -1.480206 0.004936 -1.431586 0.000000 0.000002
    18 -0.027022 -1.076919 -0.020212 -0.473979 0.000000 0.000000
    19 -0.249534 -2.846962 -0.174215 -0.473064 0.210085 0.362128
    20 0.043235 -1.683939 0.096014 -1.793930 0.002823 -0.000167
    21 0.031729 -1.160831 0.058836 -0.335964 0.000642 0.008372
    22 -0.963866 -2.785142 -0.085346 -0.609796 0.267585 0.317848
    23 0.028479 -1.403068 0.006271 -1.150412 0.000000 0.000000
    24 0.021413 -0.957782 0.020047 -0.616019 0.000000 0.000000
    25 1.164474 -2.543938 -0.170328 -0.983933 0.070580 0.675847
    26 0.024032 -1.129043 0.017806 -1.337944 0.000000 0.000001
    27 0.014896 -0.883989 -0.019845 -0.672912 0.000000 0.000000
    28 -0.586770 -1.264475 0.200164 -0.186364 -1.053830 -3.148903
    29 1.522835 0.058681 0.016850 0.035028 0.111345 0.871431
    30 1.117948 0.048424 -0.005764 -0.015320 -0.019661 0.717971
    31 -0.057365 -0.119510 0.041742 0.574644 0.064102 1.500033
    32 -0.488517 -2.755600 -0.228261 -0.619222 -0.044186 -0.439105
    33 0.039888 -1.479789 0.029853 -2.158258 0.000000 0.000000
    34 0.028785 -1.075730 -0.023111 -0.647509 0.000000 0.000000
    35 0.250028 -2.820663 -0.238396 -0.535674 0.054401 -0.329163
    36 -0.049759 -1.680545 0.100480 -1.871489 0.000000 -0.000002
    37 -0.034141 -1.148312 0.084779 -1.387518 0.000000 0.000000
    38 0.957766 -2.746776 -0.090301 0.225131 -0.058371 -0.193618
    39 -0.033419 -1.397129 -0.011255 -0.184008 -0.032275 -0.008522
    40 -0.022361 -0.957434 0.018783 0.003845 0.000000 0.000000
    41 -1.180680 -2.507215 -0.193861 -0.379706 0.103249 -0.518986
    42 -0.024966 -1.123934 0.017594 -2.136747 0.000000 0.000001
    43 -0.020057 -0.890966 0.010091 -0.896554 0.000000 0.000000
    44 0.583510 -1.197274 0.185377 0.220453 -0.870262 -0.672925
    45 1.535926 0.010245 0.005008 -0.063786 0.310976 -1.032102
    46 1.100770 0.004526 -0.010676 -0.009999 0.012761 -0.488469
    47 0.006867 -0.061985 -0.085739 -2.852831 -0.015617 -1.424341
  time 25
    0 10.549371 -2.825898 -11.324557 4.178555 -0.770242 -4.800855
    1 -0.071918 -8.498731 -0.104137 0.317123 0.470803 -0.641535
    2 1.665510 -2.904478 0.631343 -0.234326 0.084943 -3.486589
    3 -1.699721 2.222293 0.000421 0.000000 0.000000 -1.282538
    4 -5.655031 16.263659 1.047437 0.005898 -1.121418 -1.279905
    5 7.696722 0.021893 -0.405259 -0.001707 0.561568 -0.000383
    6 6.499035 0.037859 -0.093995 -1.570615 1.505567 -3.138680
    7 -5.655030 16.263657 -1.043029 3.135696 1.121416 -1.279904
    8 7.721393 -0.021960 -0.393362 0.001706 0.561568 0.000382
    9 6.490693 -0.037835 -0.107306 1.570613 1.505567 3.138681
    10 -0.489117 10.226307 1.194557 0.000000 0.000000 -1.282132
    11 1.189389 -0.719287 -0.940642 -1.180506 0.000000 0.003685
    12 -2.647894 8.542626 -0.000005 0.000000 0.000000 -1.274576
    13 16.810589 -5.107452 0.000005 0.000000 0.000000 1.870417
    14 -0.722476 -15.527382 -14.513880 -1.156587 -5.590366 -0.110758
    15 0.096944 -8.450419 -0.009364 -0.005971 -0.540367 0.157854
    16 0.447952 -2.798982 -0.200442 -1.014454 0.150910 0.644033
    17 -0.032910 -1.480206 0.004936 -1.431586 0.000000 0.000002
    18 -0.027022 -1.076919 -0.020212 -0.473979 0.000000 0.000000
    19 -0.249534 -2.846962 -0.174215 -0.473064 0.210085 0.362128
    20 0.043235 -1.683939 0.096014 -1.793930 0.002823 -0.000167
    21 0.031729 -1.160831 0.058836 -0.335964 0.000642 0.008372
    22 -0.963866 -2.785142 -0.085346 -0.609796 0.267585 0.317848
    23 0.028479 -1.403068 0.006271 -1.150412 0.000000 0.000000
    24 0.021413 -0.957782 0.020047 -0.616019 0.000000 0.000000
    25 1.164474 -2.543938 -0.170328 -0.983933 0.070580 0.675847
    26 0.024032 -1.129043 0.017806 -1.337944 0.000000 0.000001
    27 0.014896 -0.883989 -0.019845 -0.672912 0.000000 0.000000
    28 -0.586770 -1.264475 0.200164 -0.186364 -1.053830 -3.148903
    29 1.522835 0.058681 0.016850 0.035028 0.111345 0.871431
    30 1.117948 0.048424 -0.005764 -0.015320 -0.019661 0.717971
    31 -0.057365 -0.119510 0.041742 0.574644 0.064102 1.500033
    32 -0.488517 -2.755600 -0.228261 -0.619222 -0.044186 -0.439105
    33 0.039888 -1.479789 0.029853 -2.158258 0.000000 0.000000
    34 0.028785 -1.075730 -0.023111 -0.647509 0.000000 0.000000
    35 0.250028 -2.820663 -0.238396 -0.535674 0.054401 -0.329163
    36 -0.049759 -1.680545 0.100480 -1.871489 0.000000 -0.000002
    37 -0.034141 -1.148312 0.084779 -1.387518 0.000000 0.000000
    38 0.957766 -2.746776 -0.090301 0.225131 -0.058371 -0.193618
    39 -0.033419 -1.397129 -0.011255 -0.184008 -0.032275 -0.008522
    40 -0.022361 -0.957434 0.018783 0.003845 0.000000 0.000000
    41 -1.180680 -2.507215 -0.193861 -0.379706 0.103249 -0.518986
    42 -0.024966 -1.123934 0.017594 -2.136747 0.000000 0.000001
    43 -0.020057 -0.890966 0.010091 -0.896554 0.000000 0.000000
    44 0.583510 -1.197274 0.185377 0.220453 -0.870262 -0.672925
    45 1.535926 0.010245 0.005008 -0.063786 0.310976 -1.032102
    46 1.100770 0.004526 -0.010676 -0.009999 0.012761 -0.488469
    47 0.006867 -0.061985 -0.085739 -2.852831 -0.015617 -1.424341
  time 26
    0 10.549371 -2.825898 -11.320651 4.178555 -0.770242 -4.800855
    1 -0.071918 -8.498731 -0.104137 0.317232 0.470750 -0.641270
    2 1.665510 -2.904478 0.631343 -0.234326 0.084943 -3.486589
    3 -1.699721 2.222293 0.000421 0.000000 0.000000 -1.282538
    4 -5.655031 16.263659 1.047437 0.005898 -1.121418 -1.279905
    5 7.696722 0.021893 -0.405259 -0.001707 0.561568 -0.000383
    6 6.499035 0.037859 -0.093995 -1.570615 1.505567 -3.138680
    7 -5.655030 16.263657 -1.043029 3.135696 1.121416 -1.279904
    8 7.721393 -0.021960 -0.393362 0.001706 0.561568 0.000382
    9 6.490693 -0.037835 -0.107306 1.570613 1.505567 3.138681
    10 -0.489117 10.226307 1.194557 0.000000 0.000000 -1.282132
    11 1.189389 -0.719287 -0.940642 -1.180506 0.000000 0.003685
    12 -2.647894 8.542626 -0.000005 0.000000 0.000000 -1.274576
    13 16.810589 -5.107452 0.000005 0.000000 0.000000 1.870417
    14 -0.722476 -15.503944 -14.506067 -1.156587 -5.590366 -0.110758
    15 0.096944 -8.450419 -0.009364 -0.005971 -0.540367 0.157854
    16 0.447952 -2.798982 -0.200442 -1.014454 0.150910 0.644033
    17 -0.032910 -1.480206 0.004936 -1.431586 0.000000 0.000002
    18 -0.027022 -1.076919 -0.020212 -0.473979 0.000000 0.000000
    19 -0.249534 -2.846962 -0.174215 -0.473064 0.210085 0.362128
    20 0.043235 -1.683939 0.096014 -1.793930 0.002823 -0.000167
    21 0.031729 -1.160831 0.058836 -0.335964 0.000642 0.008372
    22 -0.963866 -2.785142 -0.085346 -0.609796 0.267585 0.317848
    23 0.028479 -1.403068 0.006271 -1.150412 0.000000 0.000000
    24 0.021413 -0.957782 0.020047 -0.616019 0.000000 0.000000
    25 1.164474 -2.543938 -0.170328 -0.983933 0.070580 0.675847
    26 0.024032 -1.129043 0.017806 -1.337944 0.000000 0.000001
    27 0.014896 -0.883989 -0.019845 -0.672912 0.000000 0.000000
    28 -0.586770 -1.264475 0.200164 -0.186364 -1.053830 -3.148903
    29 1.522835 0.058681 0.016850 0.035028 0.111345 0.871431
    30 1.117948 0.048424 -0.005764 -0.015320 -0.019661 0.717971
    31 -0.057365 -0.119510 0.041742 0.574644 0.064102 1.500033
    32 -0.488517 -2.755600 -0.228261 -0.619222 -0.044186 -0.439105
    33 0.039888 -1.479789 0.029853 -2.158258 0.000000 0.000000
    34 0.028785 -1.075730 -0.023111 -0.647509 0.000000 0.000000
    35 0.250028 -2.820663 -0.238396 -0.535674 0.054401 -0.329163
    36 -0.049759 -1.680545 0.100480 -1.871489 0.000000 -0.000002
    37 -0.034141 -1.148312 0.084779 -1.387518 0.000000 0.000000
    38 0.957766 -2.746776 -0.090301 0.225131 -0.058371 -0.193618
    39 -0.033419 -1.397129 -0.011255 -0.184008 -0.032275 -0.008522
    40 -0.022361 -0.957434 0.018783 0.003845 0.000000 0.000000
    41 -1.180680 -2.507215 -0.193861 -0.379706 0.103249 -0.518986
    42 -0.024966 -1.123934 0.017594 -2.136747 0.000000 0.000001
    43 -0.020057 -0.890966 0.010091 -0.896554 0.000000 0.000000
    44 0.583510 -1.197274 0.185377 0.220453 -0.870262 -0.672925
    45 1.535926 0.010245 0.005008 -0.063786 0.310976 -1.032102
    46 1.100770 0.004526 -0.010676 -0.009999 0.012761 -0.488469
    47 0.006867 -0.061985 -0.085739 -2.852831 -0.015617 -1.424341
  time 27
    0 10.549371 -2.825898 -11.320651 4.178555 -0.770242 -4.800855
    1 -0.071918 -8.498731 -0.104137 0.317325 0.470670 -0.641077
    2 1.665510 -2.904478 0.631343 -0.234326 0.084943 -3.486589
    3 -1.699721 2.222293 0.000421 0.000000 0.000000 -1.282538
    4 -5.655031 16.263659 1.047437 0.005898 -1.121418 -1.279905
    5 7.696722 0.021893 -0.405259 -0.001707 0.561568 -0.000383
    6 6.499035 0.037859 -0.093995 -1.570615 1.505567 -3.138680
    7 -5.655030 16.263657 -1.043029 3.135696 1.121416 -1.279904
    8 7.721393 -0.021960 -0.393362 0.001706 0.561568 0.000382
    9 6.490693 -0.037835 -0.107306 1.570613 1.505567 3.138681
    10 -0.489117 10.226307 1.194557 0.000000 0.000000 -1.282132
    11 1.189389 -0.719287 -0.940642 -1.180506 0.000000 0.003685
    12 -2.647894 8.542626 -0.000005 0.000000 0.000000 -1.274576
    13 16.810589 -5.107452 0.000005 0.000000 0.000000 1.870417
    14 -0.722476 -15.488319 -14.490442 -1.156587 -5.590366 -0.110758
    15 0.096944 -8.450419 -0.009364 -0.005971 -0.540367 0.157854
    16 0.447952 -2.798982 -0.200442 -1.014454 0.150910 0.644033
    17 -0.032910 -1.480206 0.004936 -1.431586 0.000000 0.000002
    18 -0.027022 -1.076919 -0.020212 -0.473979 0.000000 0.000000
    19 -0.249534 -2.846962 -0.174215 -0.473064 0.210085 0.362128
    20 0.043235 -1.683939 0.096014 -1.793930 0.002823 -0.000167
    21 0.031729 -1.160831 0.058836 -0.335964 0.000642 0.008372
    22 -0.963866 -2.785142 -0.085346 -0.609796 0.267585 0.317848
    23 0.028479 -1.403068 0.006271 -1.150412 0.000000 0.000000
    24 0.021413 -0.957782 0.020047 -0.616019 0.000000 0.000000
    25 1.164474 -2.543938 -0.170328 -0.983933 0.070580 0.675847
    26 0.024032 -1.129043 0.017806 -1.337944 0.000000 0.000001
    27 0.014896 -0.883989 -0.019845 -0.672912 0.000000 0.000000
    28 -0.586770 -1.264475 0.200164 -0.186364 -1.053830 -3.148903
    29 1.522835 0.058681 0.016850 0.035028 0.111345 0.871431
    30 1.117948 0.048424 -0.005764 -0.015320 -0.019661 0.717971
    31 -0.057365 -0.119510 0.041742 0.574644 0.064102 1.500033
    32 -0.488517 -2.755600 -0.228261 -0.619222 -0.044186 -0.439105
    33 0.039888 -1.479789 0.029853 -2.158258 0.000000 0.000000
    34 0.028785 -1.075730 -0.023111 -0.647509 0.000000 0.000000
    35 0.250028 -2.820663 -0.238396 -0.535674 0.054401 -0.329163
    36 -0.049759 -1.680545 0.100480 -1.871489 0.000000 -0.000002
    37 -0.034141 -1.148312 0.084779 -1.387518 0.000000 0.000000
    38 0.957766 -2.746776 -0.090301 0.225131 -0.058371 -0.193618
    39 -0.033419 -1.397129 -0.011255 -0.184008 -0.032275 -0.008522
    40 -0.022361 -0.957434 0.018783 0.003845 0.000000 0.000000
    41 -1.180680 -2.507215 -0.193861 -0.379706 0.103249 -0.518986
    42 -0.024966 -1.123934 0.017594 -2.136747 0.000000 0.000001
    43 -0.020057 -0.890966 0.010091 -0.896554 0.000000 0.000000
    44 0.583510 -1.197274 0.185377 0.220453 -0.870262 -0.672925
    45 1.535926 0.010245 0.005008 -0.063786 0.310976 -1.032102
    46 1.100770 0.004526 -0.010676 -0.009999 0.012761 -0.488469
    47 0.006867 -0.061985 -0.085739 -2.852831 -0.015617 -1.424341
  time 28
    0 10.549371 -2.829804 -11.316745 4.178555 -0.770242 -4.800855
    1 -0.071918 -8.498731 -0.104137 0.317403 0.470643 -0.640932
    2 1.665510 -2.904478 0.631343 -0.234326 0.084943 -3.486589
    3 -1.699721 2.222293 0.000421 0.000000 0.000000 -1.282538
    4 -5.655031 16.263659 1.047437 0.005898 -1.121418 -1.279905
    5 7.696722 0.021893 -0.405259 -0.001707 0.561568 -0.000383
    6 6.499035 0.037859 -0.093995 -1.570615 1.505567 -3.138680
    7 -5.655030 16.263657 -1.043029 3.135696 1.121416 -1.279904
    8 7.721393 -0.021960 -0.393362 0.001706 0.561568 0.000382
    9 6.490693 -0.037835 -0.107306 1.570613 1.505567 3.138681
    10 -0.489117 10.226307 1.194557 0.000000 0.000000 -1.282132
    11 1.189389 -0.719287 -0.940642 -1.180506 0.000000 0.003685
    12 -2.647894 8.542626 -0.000005 0.000000 0.000000 -1.274576
    13 16.810589 -5.107452 0.000005 0.000000 0.000000 1.870417
    14 -0.722476 -15.472693 -14.482629 -1.156587 -5.590366 -0.110758
    15 0.096944 -8.450419 -0.009364 -0.005971 -0.540367 0.157854
    16 0.447952 -2.798982 -0.200442 -1.014454 0.150910 0.644033
    17 -0.032910 -1.480206 0.004936 -1.431586 0.000000 0.000002
    18 -0.027022 -1.076919 -0.020212 -0.473979 0.000000 0.000000
    19 -0.249534 -2.846962 -0.174215 -0.473064 0.210085 0.362128
    20 0.043235 -1.683939 0.096014 -1.793930 0.002823 -0.000167
    21 0.031729 -1.160831 0.058836 -0.335964 0.000642 0.008372
    22 -0.963866 -2.785142 -0.085346 -0.609796 0.267585 0.317848
    23 0.028479 -1.403068 0.006271 -1.150412 0.000000 0.000000
    24 0.021413 -0.957782 0.020047 -0.616019 0.000000 0.000000
    25 1.164474 -2.543938 -0.170328 -0.983933 0.070580 0.675847
    26 0.024032 -1.129043 0.017806 -1.337944 0.000000 0.000001
    27 0.014896 -0.883989 -0.019845 -0.672912 0.000000 0.000000
    28 -0.586770 -1.264475 0.200164 -0.186364 -1.053830 -3.148903
    29 1.522835 0.058681 0.016850 0.035028 0.111345 0.871431
    30 1.117948 0.048424 -0.005764 -0.015320 -0.019661 0.717971
    31 -0.057365 -0.119510 0.041742 0.574644 0.064102 1.500033
    32 -0.488517 -2.755600 -0.228261 -0.619222 -0.044186 -0.439105
    33 0.039888 -1.479789 0.029853 -2.158258 0.000000 0.000000
    34 0.028785 -1.075730 -0.023111 -0.647509 0.000000 0.000000
    35 0.250028 -2.820663 -0.238396 -0.535674 0.054401 -0.329163
    36 -0.049759 -1.680545 0.100480 -1.871489 0.000000 -0.000002
    37 -0.034141 -1.148312 0.084779 -1.387518 0.000000 0.000000
    38 0.957766 -2.746776 -0.090301 0.225131 -0.058371 -0.193618
    39 -0.033419 -1.397129 -0.011255 -0.184008 -0.032275 -0.008522
    40 -0.022361 -0.957434 0.018783 0.003845 0.000000 0.000000
    41 -1.180680 -2.507215 -0.193861 -0.379706 0.103249 -0.518986
    42 -0.024966 -1.123934 0.017594 -2.136747 0.000000 0.000001
    43 -0.020057 -0.890966 0.010091 -0.896554 0.000000 0.000000
    44 0.583510 -1.197274 0.185377 0.220453 -0.870262 -0.672925
    45 1.535926 0.010245 0.005008 -0.063786 0.310976 -1.032102
    46 1.100770 0.004526 -0.010676 -0.009999 0.012761 -0.488469
    47 0.006867 -0.061985 -0.085739 -2.852831 -0.015617 -1.424341
  time 29
    0 10.549371 -2.829804 -11.312838 4.178555 -0.770242 -4.800855
    1 -0.071918 -8.498731 -0.104137 0.317434 0.470616 -0.640836
    2 1.665510 -2.904478 0.631343 -0.234326 0.084943 -3.486589
    3 -1.699721 2.222293 0.000421 0.000000 0.000000 -1.282538
    4 -5.655031 16.263659 1.047437 0.005898 -1.121418 -1.279905
    5 7.696722 0.021893 -0.405259 -0.001707 0.561568 -0.000383
    6 6.499035 0.037859 -0.093995 -1.570615 1.505567 -3.138680
    7 -5.655030 16.263657 -1.043029 3.135696 1.121416 -1.279904
    8 7.721393 -0.021960 -0.393362 0.001706 0.561568 0.000382
    9 6.490693 -0.037835 -0.107306 1.570613 1.505567 3.138681
    10 -0.489117 10.226307 1.194557 0.000000 0.000000 -1.282132
    11 1.189389 -0.719287 -0.940642 -1.180506 0.000000 0.003685
    12 -2.647894 8.542626 -0.000005 0.000000 0.000000 -1.274576
    13 16.810589 -5.107452 0.000005 0.000000 0.000000 1.870417
    14 -0.722476 -15.457068 -14.470910 -1.156587 -5.590366 -0.110758
    15 0.096944 -8.450419 -0.009364 -0.005971 -0.540367 0.157854
    16 0.447952 -2.798982 -0.200442 -1.014454 0.150910 0.644033
    17 -0.032910 -1.480206 0.004936 -1.431586 0.000000 0.000002
    18 -0.027022 -1.076919 -0.020212 -0.473979 0.000000 0.000000
    19 -0.249534 -2.846962 -0.174215 -0.473064 0.210085 0.362128
    20 0.043235 -1.683939 0.096014 -1.793930 0.002823 -0.000167
    21 0.031729 -1.160831 0.058836 -0.335964 0.000642 0.008372
    22 -0.963866 -2.785142 -0.085346 -0.609796 0.267585 0.317848
    23 0.028479 -1.403068 0.006271 -1.150412 0.000000 0.000000
    24 0.021413 -0.957782 0.020047 -0.616019 0.000000 0.000000
    25 1.164474 -2.543938 -0.170328 -0.983933 0.070580 0.675847
    26 0.024032 -1.129043 0.017806 -1.337944 0.000000 0.000001
    27 0.014896 -0.883989 -0.019845 -0.672912 0.000000 0.000000
    28 -0.586770 -1.264475 0.200164 -0.186364 -1.053830 -3.148903
    29 1.522835 0.058681 0.016850 0.035028 0.111345 0.871431
    30 1.117948 0.048424 -0.005764 -0.015320 -0.019661 0.717971
    31 -0.057365 -0.119510 0.041742 0.574644 0.064102 1.500033
    32 -0.488517 -2.755600 -0.228261 -0.619222 -0.044186 -0.439105
    33 0.039888 -1.479789 0.029853 -2.158258 0.000000 0.000000
    34 0.028785 -1.075730 -0.023111 -0.647509 0.000000 0.000000
    35 0.250028 -2.820663 -0.238396 -0.535674 0.054401 -0.329163
    36 -0.049759 -1.680545 0.100480 -1.871489 0.000000 -0.000002
    37 -0.034141 -1.148312 0.084779 -1.387518 0.000000 0.000000
    38 0.957766 -2.746776 -0.090301 0.225131 -0.058371 -0.193618
    39 -0.033419 -1.397129 -0.011255 -0.184008 -0.032275 -0.008522
    40 -0.022361 -0.957434 0.018783 0.003845 0.000000 0.000000
    41 -1.180680 -2.507215 -0.193861 -0.379706 0.103249 -0.518986
    42 -0.024966 -1.123934 0.017594 -2.136747 0.000000 0.000001
    43 -0.020057 -0.890966 0.010091 -0.896554 0.000000 0.000000
    44 0.583510 -1.197274 0.185377 0.220453 -0.870262 -0.672925
    45 1.535926 0.010245 0.005008 -0.063786 0.310976 -1.032102
    46 1.100770 0.004526 -0.010676 -0.009999 0.012761 -0.488469
    47 0.006867 -0.061985 -0.085739 -2.852831 -0.015617 -1.424341
  time 30
    0 10.549371 -2.829804 -11.312838 4.178555 -0.770242 -4.800855
    1 -0.071918 -8.498731 -0.104137 0.317449 0.470589 -0.640812
    2 1.665510 -2.904478 0.631343 -0.234326 0.084943 -3.486589
    3 -1.699721 2.222293 0.000421 0.000000 0.000000 -1.282538
    4 -5.655031 16.263659 1.047437 0.005898 -1.121418 -1.279905
    5 7.696722 0.021893 -0.405259 -0.001707 0.561568 -0.000383
    6 6.499035 0.037859 -0.093995 -1.570615 1.505567 -3.138680
    7 -5.655030 16.263657 -1.043029 3.135696 1.121416 -1.279904
    8 7.721393 -0.021960 -0.393362 0.001706 0.561568 0.000382
    9 6.490693 -0.037835 -0.107306 1.570613 1.505567 3.138681
    10 -0.489117 10.226307 1.194557 0.000000 0.000000 -1.282132
    11 1.189389 -0.719287 -0.940642 -1.180506 0.000000 0.003685
    12 -2.647894 8.542626 -0.000005 0.000000 0.000000 -1.274576
    13 16.810589 -5.107452 0.000005 0.000000 0.000000 1.870417
    14 -0.722476 -15.453161 -14.470910 -1.156587 -5.590366 -0.110758
    15 0.096944 -8.450419 -0.009364 -0.005971 -0.540367 0.157854
    16 0.447952 -2.798982 -0.200442 -1.014454 0.150910 0.644033
    17 -0.032910 -1.480206 0.004936 -1.431586 0.000000 0.000002
    18 -0.027022 -1.076919 -0.020212 -0.473979 0.000000 0.000000
    19 -0.249534 -2.846962 -0.174215 -0.473064 0.210085 0.362128
    20 0.043235 -1.683939 0.096014 -1.793930 0.002823 -0.000167
    21 0.031729 -1.160831 0.058836 -0.335964 0.000642 0.008372
    22 -0.963866 -2.785142 -0.085346 -0.609796 0.267585 0.317848
    23 0.028479 -1.403068 0.006271 -1.150412 0.000000 0.000000
    24 0.021413 -0.957782 0.020047 -0.616019 0.000000 0.000000
    25 1.164474 -2.543938 -0.170328 -0.983933 0.070580 0.675847
    26 0.024032 -1.129043 0.017806 -1.337944 0.000000 0.000001
    27 0.014896 -0.883989 -0.019845 -0.672912 0.000000 0.000000
    28 -0.586770 -1.264475 0.200164 -0.186364 -1.053830 -3.148903
    29 1.522835 0.058681 0.016850 0.035028 0.111345 0.871431
    30 1.117948 0.048424 -0.005764 -0.015320 -0.019661 0.717971
    31 -0.057365 -0.119510 0.041742 0.574644 0.064102 1.500033
    32 -0.488517 -2.755600 -0.228261 -0.619222 -0.044186 -0.439105
    33 0.039888 -1.479789 0.029853 -2.158258 0.000000 0.000000
    34 0.028785 -1.075730 -0.023111 -0.647509 0.000000 0.000000
    35 0.250028 -2.820663 -0.238396 -0.535674 0.054401 -0.329163
    36 -0.049759 -1.680545 0.100480 -1.871489 0.000000 -0.000002
    37 -0.034141 -1.148312 0.084779 -1.387518 0.000000 0.000000
    38 0.957766 -2.746776 -0.090301 0.225131 -0.058371 -0.193618
    39 -0.033419 -1.397129 -0.011255 -0.184008 -0.032275 -0.008522
    40 -0.022361 -0.957434 0.018783 0.003845 0.000000 0.000000
    41 -1.180680 -2.507215 -0.193861 -0.379706 0.103249 -0.518986
    42 -0.024966 -1.123934 0.017594 -2.136747 0.000000 0.000001
    43 -0.020057 -0.890966 0.010091 -0.896554 0.000000 0.000000
    44 0.583510 -1.197274 0.185377 0.220453 -0.870262 -0.672925
    45 1.535926 0.010245 0.005008 -0.063786 0.310976 -1.032102
    46 1.100770 0.004526 -0.010676 -0.009999 0.012761 -0.488469
    47 0.006867 -0.061985 -0.085739 -2.852831 -0.015617 -1.424341
end
