// Created by Crowbar 0.58

$modelname "weapons/tfa_cso/w_holybomb_refined.mdl"

$bodygroup "studio"
{
	studio "v_holybomb_holy_water_set"
}

$collisionmodel "v_holybomb_holy_water_set.smd"
{
	$mass 6
	$surfaceprop "glass"
}

$CDMaterials "models\weapons\tfa_cso\holybomb_refined"

$sequence "idle" {
	"anims\idle"
	fps 30
}
