// Created by Crowbar 0.49.0.0

$modelname "weapons/tfa_cso/c_mp5g.mdl"

$Include "csonline_gmod.qci"

$bodygroup "weapon"
{
	studio "v_mp5g_f_mp5_gold_template"
}

$CDMaterials "models\weapons\tfa_cso\mp5g\"

$attachment 0 "Bone 04" 3.4 -13.7 2.5
//$attachment 1 "Bone54" 0 -1.5 0


$sequence "idle1" {
	"v_mp5g_anims\idle1"
	fps 12
	loop
	activity "ACT_VM_IDLE" 1
	snap
}
$sequence "reload" {
	"v_mp5g_anims\reload"
	{ event 5004 15 "MP5.ClipOut" }
	{ event 5004 46 "MP5.ClipIn" }
	{ event 5004 77 "MP5.SlideBack" }
	fps 38
	activity "ACT_VM_RELOAD" 1
	snap
}
$sequence "draw" {
	"v_mp5g_anims\draw"
	{ event 5004 13 "MP5.SlideBack" }
	fps 35
	activity "ACT_VM_DRAW" 1
	snap
}
$sequence "shoot1" {
	"v_mp5g_anims\shoot1"
	{ event 5001 0 "11" }
	fps 30
	activity "ACT_VM_PRIMARYATTACK" 1
	snap
}
$sequence "shoot2" {
	"v_mp5g_anims\shoot2"
	{ event 5001 0 "11" }
	fps 30
	activity "ACT_VM_PRIMARYATTACK" 2
	snap
}
$sequence "shoot3" {
	"v_mp5g_anims\shoot3"
	{ event 5001 0 "11" }
	fps 30
	activity "ACT_VM_PRIMARYATTACK" 3
	snap
}
