// Created by Crowbar 0.34.0.0

$ModelName "weapons/tfa_cso/w_dualuzi_v6_a.mdl"

$BodyGroup "studio"
{
	studio "v_dualuzi_l_nostock"
}

$collisionmodel "v_dualuzi_l_nostock.smd"
{
	$mass 9
}

$CDMaterials "models\weapons\tfa_cso\dualuzi_v6"

$Sequence "idle" {
	"anims\idle.smd"
	fps 30
}