version 1
nodes
  0 "Bone62" -1
  1 "Bone77" 0
  2 "Bone78" 0
  3 "Bone79" 0
  4 "Bone80" 0
  5 "Bone81" 0
  6 "Bone82" 0
  7 "Bone83" 0
  8 "Bone84" 0
  9 "Bone85" 0
  10 "Bone86" 0
  11 "Bone87" 0
  12 "Bone63" 0
  13 "Bone64" 12
  14 "Bone65" 13
  15 "Bone66" 0
  16 "Bone67" 15
  17 "Bone68" 16
  18 "Bone69" 0
  19 "Bone70" 18
  20 "Bone71" 19
  21 "Bone72" 0
  22 "Bone73" 21
  23 "Bone74" 22
  24 "Bone75" 0
  25 "Bone76" 24
  26 "Bone02" -1
  27 "Bone58" 26
  28 "Bone59" 26
  29 "Bone60" 26
  30 "Bone61" 26
  31 "Bone55" 26
  32 "Bone56" 26
  33 "Bone57" 26
  34 "Bone24" 26
  35 "Bone30" 26
  36 "Bone26" 26
  37 "Bone25" 26
  38 "Bone46" 26
  39 "Bone47" 38
  40 "Bone48" 39
  41 "Bone49" 26
  42 "Bone50" 41
  43 "Bone51" 42
  44 "Bone52" 26
  45 "Bone53" 44
  46 "Bone54" 45
  47 "Bone03" 26
  48 "Bone08" 47
  49 "Bone12" 48
  50 "Bone16" 26
  51 "Bone20" 50
  52 "fxBone2" -1
  53 "fxBone1" 52
  54 "fxBone3" 52
  55 "fxBone04" -1
  56 "fxBone05" 55
  57 "fxBone06" 55
  58 "root" -1
  59 "Bone01" 58
  60 "Bone_L_Upper" 59
  61 "Bone_Lefthand" 59
  62 "Bone13" 61
  63 "Bone14" 62
  64 "Bone15" 63
  65 "Bone17" 61
  66 "Bone18" 65
  67 "Bone19" 66
  68 "Bone21" 61
  69 "Bone22" 68
  70 "Bone23" 69
  71 "Bone09" 61
  72 "Bone10" 71
  73 "Bone11" 72
  74 "Bone05" 61
  75 "Bone06" 74
  76 "Bone07" 75
  77 "Bone_Se_Hand-L" 61
  78 "Bone04" 58
  79 "Bone_Righthand" 78
  80 "Bone39" 79
  81 "Bone40" 80
  82 "Bone41" 81
  83 "Bone35" 79
  84 "Bone36" 83
  85 "Bone37" 84
  86 "Bone31" 79
  87 "Bone32" 86
  88 "Bone33" 87
  89 "Bone43" 79
  90 "Bone44" 89
  91 "Bone45" 90
  92 "Bone27" 79
  93 "Bone28" 92
  94 "Bone29" 93
  95 "Bone_Se_Hand-R" 79
  96 "Bone_R_Upper" 78
end
skeleton
  time 0
    0 18.355686 -13.940726 -10.641126 2.830068 -0.278598 1.181046
    1 -7.809490 -1.757525 -1.949344 -3.141592 -1.570796 0.000000
    2 -8.865441 -1.757526 -2.211071 -3.141592 -1.570796 0.000000
    3 -9.921391 -1.757527 -1.924490 -3.141592 -1.570796 0.000000
    4 -6.753541 -1.757525 -2.190123 -3.141592 -1.570796 0.000000
    5 -7.809490 1.734272 -1.947574 -3.141592 -1.570787 0.000000
    6 -8.865444 1.734271 -2.216756 -3.141592 -1.570460 0.000000
    7 -9.921392 1.734272 -1.924493 -3.141592 -1.570460 0.000000
    8 -6.753543 1.734273 -2.197582 -3.141592 -1.570796 0.000000
    9 -9.637810 1.376173 -1.689589 -0.000009 0.026443 -0.087419
    10 -9.711139 0.016490 -2.086287 0.000000 0.027495 0.000000
    11 -9.935177 -1.392093 -1.839816 0.000484 0.036128 0.087180
    12 -10.522499 0.651438 -0.485178 -0.033717 0.626860 -0.108316
    13 -1.840176 0.000000 -0.000001 -3.118130 0.363594 -0.036551
    14 -1.363451 -0.000003 -0.000002 -0.041820 -0.002904 -0.012262
    15 -10.624813 -0.522614 -0.513186 0.030688 0.432585 0.084993
    16 -2.024570 -0.000001 0.000001 3.134565 0.420271 -0.034209
    17 -1.496357 -0.000004 0.000001 -0.024381 0.137445 -0.009562
    18 -10.205732 -1.718646 -0.278646 0.135955 0.114308 0.200143
    19 -1.940091 0.000000 0.000000 3.128593 0.470495 -0.039476
    20 -1.490944 -0.000002 -0.000002 -0.016435 0.085022 -0.034313
    21 -10.223785 1.706234 -0.389283 -0.240080 0.871224 -0.383043
    22 -1.630686 -0.000001 0.000002 -3.080090 0.235317 -0.039619
    23 -1.201394 -0.000003 0.000002 -0.047868 -0.112276 -0.043343
    24 -7.228352 -2.509135 0.913229 0.349165 0.773237 1.188956
    25 -1.979008 0.000000 0.000000 0.043004 0.029347 -0.224024
    26 -11.304855 -6.388627 -10.548074 0.060857 -0.214447 -1.359333
    27 7.356795 1.757692 2.071305 -3.141592 -1.570796 0.000000
    28 8.351534 1.757692 2.411158 -3.141592 -1.570796 0.000000
    29 9.346272 1.757692 2.071136 -3.141592 -1.570796 0.000000
    30 6.362056 1.757692 2.374778 -3.141592 -1.570796 0.000000
    31 7.356794 -1.734436 2.076856 -3.141592 -1.570796 0.000000
    32 8.351538 -1.734434 2.412539 -3.141592 -1.570451 0.000000
    33 9.346275 -1.734434 2.067917 -3.141592 -1.570451 0.000000
    34 6.362056 -1.734434 2.391881 -3.141592 -1.570796 0.000000
    35 8.883690 -1.354861 1.819263 0.000000 0.026231 -0.087266
    36 8.957221 -0.016489 2.237257 0.000000 0.027274 0.000000
    37 7.042898 1.185814 1.946397 0.000471 0.035840 0.087028
    38 9.912537 -0.651499 0.519172 -0.063802 1.694096 -0.141678
    39 1.809620 0.000001 0.000000 -3.097531 1.036443 -0.007360
    40 1.397991 0.000004 -0.000001 0.120711 -1.857053 -0.127097
    41 10.008919 0.522663 0.549143 -0.625422 1.598771 -0.554131
    42 1.952822 0.000000 0.000000 3.134577 1.178460 -0.034150
    43 1.519086 0.000004 -0.000001 0.077487 -1.845299 -0.080524
    44 9.614133 1.718808 0.298168 0.119214 1.405300 0.291478
    45 1.836339 0.000000 0.000001 3.078965 1.374806 -0.094970
    46 1.460696 0.000003 -0.000001 0.040513 -1.938166 -0.070260
    47 9.631138 -1.706394 0.416558 0.056692 1.767305 -0.014059
    48 1.655844 0.000000 0.000000 -2.930154 1.277166 0.148606
    49 1.248022 0.000003 -0.000001 0.154148 -1.825589 -0.197176
    50 6.809342 2.509372 -0.977215 -0.018241 1.037110 -0.021508
    51 2.030345 0.000000 0.000000 0.016601 0.049311 -0.871677
    52 33.779381 0.176438 87.257599 0.851007 2.933696 -3.052625
    53 3.527313 -6.710968 6.526821 0.545479 0.112379 0.080744
    54 4.697630 2.065727 0.557423 0.284446 0.013779 -0.047092
    55 32.213318 -5.260166 86.515594 1.732938 0.175478 -0.013561
    56 7.701118 1.002495 3.476966 0.522406 0.085813 -0.083577
    57 4.721035 0.884865 -3.720435 0.338608 -0.074897 -0.038818
    58 4.212220 -4.368586 -9.628581 -0.240135 -0.110702 -0.198773
    59 16.353287 -2.498747 -2.850631 5.772891 -2.775594 -0.049092
    60 7.624562 3.403046 -0.329500 1.565984 -3.122694 0.501407
    61 -0.071921 -8.549519 -0.104134 0.329494 0.246771 0.241119
    62 -0.488518 -2.755602 -0.228260 -2.984776 0.029867 -0.214526
    63 0.039887 -1.554011 0.049386 -2.627524 0.011230 0.050240
    64 0.028786 -1.329645 -0.062173 -2.430617 0.004758 0.050096
    65 0.250027 -2.820665 -0.238396 -2.356696 -0.022384 -0.042815
    66 -0.049759 -1.618042 -0.024525 -2.331130 -0.020170 -0.050409
    67 -0.034142 -1.222533 0.057437 -2.417134 -0.021956 -0.050012
    68 0.957766 -2.746780 -0.090302 -2.572482 -0.225424 0.116654
    69 -0.033420 -1.416661 -0.038602 -2.571948 -0.063183 -0.073826
    70 -0.022360 -1.004312 -0.008561 -2.563615 -0.063351 -0.073358
    71 -1.180681 -2.507217 -0.193859 -2.930635 -0.054587 -0.538617
    72 -0.024967 -1.123934 0.017597 -2.465460 -0.051342 -0.068803
    73 -0.020057 -0.890968 0.060873 -2.419788 -0.046165 -0.070625
    74 0.583510 -1.146494 0.177566 0.614395 -0.342581 -1.638450
    75 1.157009 -0.325702 0.110481 0.339663 -0.313121 -1.969017
    76 0.870295 -0.214230 0.059636 0.259463 -0.306712 -1.729442
    77 0.120153 -0.050270 -0.054489 -5.995616 3.110905 -4.722100
    78 -16.568141 -1.903033 -0.595051 -0.029975 -3.062403 0.445748
    79 0.096944 -8.540265 -0.009365 0.347797 -0.262097 -0.229350
    80 0.447953 -2.798986 -0.200443 -2.984914 -0.013188 0.208203
    81 -0.032909 -1.480204 0.055723 -2.611575 0.006052 -0.054192
    82 -0.027022 -1.147235 0.018854 -2.351948 0.013914 -0.050743
    83 -0.249534 -2.846964 -0.174213 -2.357742 -0.022476 0.018186
    84 0.043235 -1.676128 0.045229 -2.429657 -0.023028 0.026607
    85 0.031729 -1.141298 0.031493 -2.342119 -0.020655 0.018523
    86 -0.963866 -2.785145 -0.085350 -2.588320 0.076191 -0.202043
    87 0.028479 -1.446037 -0.024980 -2.601102 -0.086709 -0.010055
    88 0.021413 -0.949968 -0.011205 -2.577638 -0.086265 -0.010283
    89 1.164475 -2.543940 -0.170330 -2.929876 0.088767 0.524379
    90 0.024032 -1.179825 0.009994 -2.496092 0.087008 0.061062
    91 0.014898 -0.903521 0.011403 -2.295674 0.073861 0.069019
    92 -0.586770 -1.264477 0.200161 -0.492910 -0.107135 -1.627252
    93 1.616588 0.058681 0.016848 -0.044994 0.001387 1.901043
    94 1.117947 0.040611 -0.005766 -0.049068 -0.021770 1.797547
    95 -0.139399 -0.111698 0.014397 0.285382 -0.030687 1.580508
    96 -8.225710 0.198288 -0.477722 1.564986 -0.037004 -0.102073
  time 1
    0 22.097988 -8.221802 -12.098201 -0.152164 -2.753590 -1.130601
    1 -7.809490 -1.757525 -1.957157 -3.141592 -1.570796 0.000000
    2 -8.865441 -1.757526 -2.211071 -3.141592 -1.570796 0.000000
    3 -9.921391 -1.757527 -1.924490 -3.141592 -1.570796 0.000000
    4 -6.753541 -1.757525 -2.178404 -3.141592 -1.570796 0.000000
    5 -7.809490 1.734272 -1.947574 -3.141592 -1.570787 0.000000
    6 -8.865444 1.734271 -2.216756 -3.141592 -1.570460 0.000000
    7 -9.921392 1.734272 -1.916680 -3.141592 -1.570460 0.000000
    8 -6.753543 1.734273 -2.197582 -3.141592 -1.570796 0.000000
    9 -9.770626 1.383986 -1.701308 -0.000009 0.026443 -0.087419
    10 -9.851768 0.016490 -2.086287 0.000000 0.027495 0.000000
    11 -10.067993 -1.399906 -1.839816 0.000484 0.036128 0.087180
    12 -10.522499 0.651438 -0.485178 -0.040477 0.646459 -0.115303
    13 -1.840176 0.000000 -0.000001 -3.118058 0.368533 -0.036419
    14 -1.359545 -0.000003 -0.000002 -0.041880 -0.012993 -0.011806
    15 -10.624813 -0.522614 -0.513186 0.032557 0.452485 0.087186
    16 -2.024570 -0.000001 0.000001 3.134565 0.418115 -0.034209
    17 -1.496357 -0.000004 0.000001 -0.024381 0.131534 -0.009394
    18 -10.205732 -1.718646 -0.278646 0.137249 0.129755 0.202887
    19 -1.940091 0.000000 0.000000 3.128509 0.477755 -0.039608
    20 -1.487038 -0.000002 -0.000002 -0.016435 0.086132 -0.034313
    21 -10.223785 1.706234 -0.389283 -0.260217 0.883225 -0.404299
    22 -1.622873 -0.000001 0.000002 -3.079479 0.247933 -0.038529
    23 -1.201394 -0.000003 0.000002 -0.048455 -0.133976 -0.042012
    24 -7.228352 -2.509135 0.913229 0.347684 0.779073 1.183354
    25 -1.979008 0.000000 0.000000 0.042860 0.029490 -0.228164
    26 -10.425922 -1.318159 -10.091028 -0.050462 -0.006538 -1.594404
    27 7.356795 1.757692 2.071305 -3.141592 -1.570796 0.000000
    28 8.351534 1.757692 2.411158 -3.141592 -1.570796 0.000000
    29 9.346272 1.757692 2.071136 -3.141592 -1.570796 0.000000
    30 6.362056 1.757692 2.374778 -3.141592 -1.570796 0.000000
    31 7.356794 -1.734436 2.076856 -3.141592 -1.570796 0.000000
    32 8.351538 -1.734434 2.412539 -3.141592 -1.570451 0.000000
    33 9.346275 -1.734434 2.067917 -3.141592 -1.570451 0.000000
    34 6.362056 -1.734434 2.391881 -3.141592 -1.570796 0.000000
    35 8.883690 -1.354861 1.819263 0.000000 0.026231 -0.087266
    36 8.957221 -0.016489 2.237257 0.000000 0.027274 0.000000
    37 4.925646 1.006121 1.922959 0.000471 0.035840 0.087028
    38 9.912537 -0.651499 0.519172 -0.061082 1.674528 -0.139030
    39 1.809620 0.000001 0.000000 -3.098166 1.017867 -0.008235
    40 1.397991 0.000004 -0.000001 0.115354 -1.807162 -0.122890
    41 10.008919 0.522663 0.549143 -0.611868 1.584269 -0.540777
    42 1.952822 0.000000 0.000000 3.134577 1.161111 -0.034150
    43 1.519086 0.000004 -0.000001 0.075414 -1.812625 -0.078907
    44 9.614133 1.718808 0.298168 0.118530 1.382781 0.291130
    45 1.836339 0.000000 0.000001 3.079948 1.360459 -0.093879
    46 1.460696 0.000003 -0.000001 0.039326 -1.901743 -0.069457
    47 9.631138 -1.706394 0.416558 0.050043 1.748330 -0.023250
    48 1.655844 0.000000 0.000000 -2.933905 1.265000 0.144483
    49 1.248022 0.000003 -0.000001 0.147413 -1.782453 -0.191483
    50 6.809342 2.509372 -0.977215 -0.015353 1.035983 -0.002970
    51 2.030345 0.000000 0.000000 0.016937 0.049143 -0.865029
    52 33.779381 0.176438 87.257599 0.851007 2.933696 -3.052625
    53 3.527313 -6.710968 6.526821 0.545479 0.112379 0.080744
    54 4.697630 2.065727 0.557423 0.284446 0.013779 -0.047092
    55 32.213318 -5.260166 86.515594 1.732938 0.175478 -0.013561
    56 7.701118 1.002495 3.476966 0.522406 0.085813 -0.083577
    57 4.721035 0.884865 -3.720435 0.338608 -0.074897 -0.038818
    58 4.157531 -4.079514 -9.628581 -0.240135 -0.110702 -0.198773
    59 16.091560 2.993608 -2.577185 5.629135 -2.885858 0.871564
    60 7.636281 3.379608 -0.329500 1.565984 -3.122694 0.498475
    61 -0.071921 -8.549519 -0.104134 0.329494 0.246771 0.241119
    62 -0.488518 -2.755602 -0.228260 -2.984776 0.029867 -0.214526
    63 0.039887 -1.554011 0.049386 -2.627524 0.011230 0.050240
    64 0.028786 -1.329645 -0.062173 -2.430617 0.004758 0.050096
    65 0.250027 -2.820665 -0.238396 -2.356696 -0.022384 -0.042815
    66 -0.049759 -1.618042 -0.024525 -2.331130 -0.020170 -0.050409
    67 -0.034142 -1.222533 0.057437 -2.417279 -0.021956 -0.050012
    68 0.957766 -2.746780 -0.090302 -2.572482 -0.225424 0.116654
    69 -0.033420 -1.416661 -0.038602 -2.571948 -0.063183 -0.073826
    70 -0.022360 -1.004312 -0.008561 -2.563615 -0.063351 -0.073358
    71 -1.180681 -2.507217 -0.193859 -2.930635 -0.054587 -0.538617
    72 -0.024967 -1.123934 0.017597 -2.465460 -0.051342 -0.068803
    73 -0.020057 -0.890968 0.060873 -2.419788 -0.046165 -0.070625
    74 0.583510 -1.146494 0.177566 0.614395 -0.342581 -1.638450
    75 1.157009 -0.325702 0.110481 0.339663 -0.313121 -1.969017
    76 0.870295 -0.214230 0.059636 0.259463 -0.306712 -1.729442
    77 0.120153 -0.050270 -0.054489 -5.995616 3.110905 -4.722100
    78 -15.771242 2.956490 1.811272 -0.255865 -2.755244 0.304109
    79 0.096944 -8.540265 -0.009365 0.347797 -0.262085 -0.229362
    80 0.447953 -2.798986 -0.200443 -2.984914 -0.013188 0.208203
    81 -0.032909 -1.480204 0.055723 -2.611575 0.006052 -0.054192
    82 -0.027022 -1.147235 0.018854 -2.351948 0.013914 -0.050743
    83 -0.249534 -2.846964 -0.174213 -2.357742 -0.022476 0.018186
    84 0.043235 -1.676128 0.045229 -2.429657 -0.023028 0.026607
    85 0.031729 -1.141298 0.031493 -2.342119 -0.020655 0.018523
    86 -0.963866 -2.785145 -0.085350 -2.588320 0.076191 -0.202043
    87 0.028479 -1.446037 -0.024980 -2.601102 -0.086709 -0.010055
    88 0.021413 -0.949968 -0.011205 -2.577638 -0.086265 -0.010283
    89 1.164475 -2.543940 -0.170330 -2.929876 0.088767 0.524379
    90 0.024032 -1.179825 0.009994 -2.496092 0.087008 0.061062
    91 0.014898 -0.903521 0.011403 -2.295674 0.073861 0.069019
    92 -0.586770 -1.264477 0.200161 -0.492910 -0.107135 -1.627252
    93 1.616588 0.058681 0.016848 -0.044994 0.001387 1.901043
    94 1.117947 0.040611 -0.005766 -0.049068 -0.021770 1.797547
    95 -0.139399 -0.111698 0.014397 0.285382 -0.030687 1.580508
    96 -5.698289 -5.223752 -0.450377 1.545430 -0.037004 0.641435
  time 2
    0 21.851887 -3.952140 -12.770097 -0.110751 -2.655537 -0.644326
    1 -7.809490 -1.757525 -1.972782 -3.141592 -1.570796 0.000000
    2 -8.865441 -1.757526 -2.214977 -3.141592 -1.570796 0.000000
    3 -9.921391 -1.757527 -1.924490 -3.141592 -1.570796 0.000000
    4 -6.753541 -1.757525 -2.170591 -3.141592 -1.570796 0.000000
    5 -7.809490 1.734272 -1.947574 -3.141592 -1.570787 0.000000
    6 -8.865444 1.734271 -2.228475 -3.141592 -1.570796 0.000000
    7 -9.921392 1.734272 -1.912774 -3.141592 -1.570460 0.000000
    8 -6.753543 1.734273 -2.197582 -3.141592 -1.570796 0.000000
    9 -9.895630 1.395705 -1.701308 -0.000009 0.026443 -0.087419
    10 -9.980679 0.016490 -2.086287 0.000000 0.027495 0.000000
    11 -10.192997 -1.411625 -1.839816 0.000484 0.036128 0.087180
    12 -10.522499 0.651438 -0.485178 -0.047200 0.665967 -0.122290
    13 -1.828457 0.000000 -0.000001 -3.117986 0.373553 -0.036300
    14 -1.359545 -0.000003 -0.000002 -0.041940 -0.022961 -0.011399
    15 -10.624813 -0.522614 -0.513186 0.034475 0.472344 0.089391
    16 -2.016757 -0.000001 0.000001 3.134565 0.415960 -0.034209
    17 -1.496357 -0.000004 0.000001 -0.024393 0.125543 -0.009250
    18 -10.205732 -1.718646 -0.278646 0.138519 0.145201 0.205643
    19 -1.940091 0.000000 0.000000 3.128425 0.485066 -0.039740
    20 -1.479225 -0.000002 -0.000002 -0.016435 0.087191 -0.034327
    21 -10.223785 1.706234 -0.389283 -0.280336 0.895251 -0.425464
    22 -1.622873 -0.000001 0.000002 -3.078868 0.260577 -0.037414
    23 -1.193581 -0.000003 0.000002 -0.048994 -0.155303 -0.040742
    24 -7.228352 -2.509135 0.913229 0.346235 0.784958 1.177825
    25 -1.979008 0.000000 0.000000 0.042716 0.029646 -0.232322
    26 -11.250166 -1.814268 -8.708174 0.012736 0.020247 -1.620566
    27 7.356795 1.757692 2.071305 -3.141592 -1.570796 0.000000
    28 8.351534 1.757692 2.411158 -3.141592 -1.570796 0.000000
    29 9.346272 1.757692 2.071136 -3.141592 -1.570796 0.000000
    30 6.362056 1.757692 2.374778 -3.141592 -1.570796 0.000000
    31 7.356794 -1.734436 2.076856 -3.141592 -1.570796 0.000000
    32 8.351538 -1.734434 2.412539 -3.141592 -1.570787 0.000000
    33 9.346275 -1.734434 2.067917 -3.141592 -1.570451 0.000000
    34 6.362056 -1.734434 2.391881 -3.141592 -1.570796 0.000000
    35 4.645279 -0.983756 1.721604 0.000000 0.026231 -0.087266
    36 4.707091 -0.016489 2.139598 0.000000 0.027274 0.000000
    37 2.812300 0.818615 1.891708 0.000471 0.035840 0.087028
    38 9.912537 -0.651499 0.519172 -0.058313 1.654941 -0.136405
    39 1.809620 0.000001 0.000000 -3.098826 0.999291 -0.009110
    40 1.397991 0.000004 -0.000001 0.110009 -1.757092 -0.118720
    41 10.008919 0.522663 0.549143 -0.598270 1.569688 -0.527380
    42 1.952822 0.000000 0.000000 3.134577 1.143786 -0.034150
    43 1.519086 0.000004 -0.000001 0.073329 -1.779950 -0.077277
    44 9.614133 1.718808 0.298168 0.117871 1.360177 0.290819
    45 1.836339 0.000000 0.000001 3.080955 1.346112 -0.092812
    46 1.460696 0.000003 -0.000001 0.038176 -1.865321 -0.068630
    47 9.631138 -1.706394 0.416558 0.043374 1.729278 -0.032422
    48 1.655844 0.000000 0.000000 -2.937668 1.252909 0.140324
    49 1.248022 0.000003 -0.000001 0.140654 -1.739554 -0.185839
    50 6.809342 2.509372 -0.977215 -0.012514 1.034905 0.015513
    51 2.030345 0.000000 0.000000 0.017212 0.048987 -0.858381
    52 33.779381 0.176438 87.257599 0.851007 2.933696 -3.052625
    53 3.527313 -6.710968 6.526821 0.545479 0.112379 0.080744
    54 4.697630 2.065727 0.557423 0.284446 0.013779 -0.047092
    55 32.213318 -5.260166 86.515594 1.732938 0.175478 -0.013561
    56 7.701118 1.002495 3.476966 0.522406 0.085813 -0.083577
    57 4.721035 0.884865 -3.720435 0.338608 -0.074897 -0.038818
    58 4.095029 -3.782630 -9.628581 -0.240135 -0.110702 -0.198773
    59 14.122750 5.466340 -2.112327 5.610834 -2.985829 1.372544
    60 7.636281 3.363982 -0.329500 1.565984 -3.122599 0.496773
    61 -0.071921 -8.549519 -0.104134 0.329494 0.246771 0.241119
    62 -0.488518 -2.755602 -0.228260 -2.984776 0.029867 -0.214526
    63 0.039887 -1.554011 0.049386 -2.627524 0.011230 0.050240
    64 0.028786 -1.329645 -0.062173 -2.430617 0.004758 0.050096
    65 0.250027 -2.820665 -0.238396 -2.356696 -0.022384 -0.042815
    66 -0.049759 -1.618042 -0.024525 -2.331130 -0.020170 -0.050409
    67 -0.034142 -1.222533 0.057437 -2.417134 -0.021956 -0.050012
    68 0.957766 -2.746780 -0.090302 -2.572482 -0.225424 0.116654
    69 -0.033420 -1.416661 -0.038602 -2.571948 -0.063183 -0.073826
    70 -0.022360 -1.004312 -0.008561 -2.563615 -0.063351 -0.073358
    71 -1.180681 -2.507217 -0.193859 -2.930635 -0.054587 -0.538617
    72 -0.024967 -1.123934 0.017597 -2.465460 -0.051342 -0.068803
    73 -0.020057 -0.890968 0.060873 -2.419788 -0.046165 -0.070625
    74 0.583510 -1.146494 0.177566 0.614395 -0.342581 -1.638450
    75 1.157009 -0.325702 0.110481 0.339663 -0.313121 -1.969017
    76 0.870295 -0.214230 0.059636 0.259463 -0.306712 -1.729442
    77 0.120153 -0.050270 -0.054489 -5.995616 3.110905 -4.722100
    78 -16.138441 1.706452 3.119906 -0.297423 -2.669082 0.316685
    79 0.096944 -8.540265 -0.009365 0.347797 -0.262085 -0.229362
    80 0.447953 -2.798986 -0.200443 -2.984914 -0.013188 0.208203
    81 -0.032909 -1.480204 0.055723 -2.611575 0.006052 -0.054192
    82 -0.027022 -1.147235 0.018854 -2.351948 0.013914 -0.050743
    83 -0.249534 -2.846964 -0.174213 -2.357742 -0.022476 0.018186
    84 0.043235 -1.676128 0.045229 -2.429657 -0.023028 0.026607
    85 0.031729 -1.141298 0.031493 -2.342119 -0.020655 0.018523
    86 -0.963866 -2.785145 -0.085350 -2.588320 0.076191 -0.202043
    87 0.028479 -1.446037 -0.024980 -2.601102 -0.086709 -0.010055
    88 0.021413 -0.949968 -0.011205 -2.577638 -0.086265 -0.010283
    89 1.164475 -2.543940 -0.170330 -2.929876 0.088767 0.524379
    90 0.024032 -1.179825 0.009994 -2.496092 0.087008 0.061062
    91 0.014898 -0.903521 0.011403 -2.295674 0.073861 0.069019
    92 -0.586770 -1.264477 0.200161 -0.492910 -0.107135 -1.627252
    93 1.616588 0.058681 0.016848 -0.044994 0.001387 1.901043
    94 1.117947 0.040611 -0.005766 -0.049068 -0.021770 1.797547
    95 -0.139399 -0.111698 0.014397 0.285382 -0.030687 1.580508
    96 -6.795979 -3.930744 -0.469909 1.550798 -0.038536 0.435184
  time 3
    0 21.680006 -3.307589 -12.824786 -0.096247 -2.646486 -0.599511
    1 -7.809490 -1.757525 -1.988408 -3.141592 -1.570460 0.000000
    2 -8.865441 -1.757526 -2.222790 -3.141592 -1.570460 0.000000
    3 -9.921391 -1.757527 -1.924490 -3.141592 -1.570460 0.000000
    4 -6.753541 -1.757525 -2.158872 -3.141592 -1.570460 0.000000
    5 -7.809490 1.734272 -1.947574 -3.141592 -1.570451 0.000000
    6 -8.865444 1.734271 -2.228475 -3.141592 -1.570796 0.000000
    7 -9.921392 1.734272 -1.904961 -3.141592 -1.570460 0.000000
    8 -6.753543 1.734273 -2.197582 -3.141592 -1.570460 0.000000
    9 -10.028446 1.407424 -1.701308 -0.000009 0.026443 -0.087419
    10 -10.109589 0.016490 -2.086287 0.000000 0.027495 0.000000
    11 -10.325814 -1.423344 -1.839816 0.000484 0.036128 0.087180
    12 -10.522499 0.651438 -0.485178 -0.053935 0.685536 -0.129265
    13 -1.828457 0.000000 -0.000001 -3.117926 0.378573 -0.036168
    14 -1.351732 -0.000003 -0.000002 -0.042000 -0.032748 -0.010943
    15 -10.624813 -0.522614 -0.513186 0.036344 0.492203 0.091560
    16 -2.016757 -0.000001 0.000001 3.134565 0.413822 -0.034209
    17 -1.488544 -0.000004 0.000001 -0.024393 0.119632 -0.009119
    18 -10.205732 -1.718646 -0.278646 0.139826 0.160611 0.208436
    19 -1.936185 0.000000 0.000000 3.128365 0.492300 -0.039908
    20 -1.479225 -0.000002 -0.000002 -0.016448 0.088250 -0.034368
    21 -10.223785 1.706234 -0.389283 -0.300526 0.907353 -0.446720
    22 -1.618967 -0.000001 0.000002 -3.078233 0.273248 -0.036275
    23 -1.189675 -0.000003 0.000002 -0.049557 -0.176381 -0.039472
    24 -7.228352 -2.509135 0.913229 0.344755 0.790830 1.172223
    25 -1.979008 0.000000 0.000000 0.042560 0.029838 -0.236463
    26 -12.078316 -4.451067 -7.165158 0.109449 -0.022574 -1.568009
    27 7.356795 1.757692 2.071305 -3.141592 -1.570460 0.000000
    28 8.351534 1.757692 2.411158 -3.141592 -1.570460 0.000000
    29 9.346272 1.757692 2.071136 -3.141592 -1.570460 0.000000
    30 6.362056 1.757692 2.374778 -3.141592 -1.570460 0.000000
    31 7.356794 -1.734436 2.076856 -3.141592 -1.570460 0.000000
    32 8.351538 -1.734434 2.412539 -3.141592 -1.570787 0.000000
    33 9.346275 -1.734434 2.067917 -3.141592 -1.570451 0.000000
    34 6.362056 -1.734434 2.391881 -3.141592 -1.570460 0.000000
    35 0.422494 -0.612651 1.620038 0.000000 0.026231 -0.087266
    36 0.460868 -0.016489 2.045845 0.000000 0.027274 0.000000
    37 0.695048 0.638922 1.860457 0.000471 0.035840 0.087028
    38 9.912537 -0.651499 0.519172 -0.055593 1.635334 -0.133732
    39 1.809620 0.000001 0.000000 -3.099449 0.980715 -0.009985
    40 1.397991 0.000004 -0.000001 0.104676 -1.707261 -0.114513
    41 10.008919 0.522663 0.549143 -0.584650 1.555265 -0.513983
    42 1.952822 0.000000 0.000000 3.134577 1.126438 -0.034150
    43 1.519086 0.000004 -0.000001 0.071219 -1.747276 -0.075635
    44 9.614133 1.718808 0.298168 0.117224 1.337615 0.290519
    45 1.836339 0.000000 0.000001 3.081926 1.331766 -0.091770
    46 1.460696 0.000003 -0.000001 0.036989 -1.828899 -0.067815
    47 9.631138 -1.706394 0.416558 0.036825 1.710264 -0.041674
    48 1.655844 0.000000 0.000000 -2.941444 1.240769 0.136177
    49 1.248022 0.000003 -0.000001 0.133870 -1.696478 -0.180182
    50 6.809342 2.509372 -0.977215 -0.009626 1.033778 0.034051
    51 2.030345 0.000000 0.000000 0.017548 0.048856 -0.851704
    52 33.779381 0.176438 87.257599 0.851007 2.933696 -3.052625
    53 3.527313 -6.710968 6.526821 0.545479 0.112379 0.080744
    54 4.697630 2.065727 0.557423 0.284446 0.013779 -0.047092
    55 32.213318 -5.260166 86.515594 1.732938 0.175478 -0.013561
    56 7.701118 1.002495 3.476966 0.522406 0.085813 -0.083577
    57 4.721035 0.884865 -3.720435 0.338608 -0.074897 -0.038818
    58 4.032527 -3.489653 -9.628581 -0.240135 -0.110702 -0.198773
    59 13.903994 5.638220 -2.057638 5.611782 -2.995264 1.416770
    60 7.636281 3.363982 -0.329500 1.565984 -3.122599 0.496773
    61 -0.071921 -8.549519 -0.104134 0.329494 0.246771 0.241119
    62 -0.488518 -2.755602 -0.228260 -2.984776 0.029867 -0.214526
    63 0.039887 -1.554011 0.049386 -2.627524 0.011230 0.050240
    64 0.028786 -1.329645 -0.062173 -2.430617 0.004758 0.050096
    65 0.250027 -2.820665 -0.238396 -2.356696 -0.022384 -0.042815
    66 -0.049759 -1.618042 -0.024525 -2.331130 -0.020170 -0.050409
    67 -0.034142 -1.222533 0.057437 -2.417279 -0.021956 -0.050012
    68 0.957766 -2.746780 -0.090302 -2.572482 -0.225424 0.116654
    69 -0.033420 -1.416661 -0.038602 -2.571948 -0.063183 -0.073826
    70 -0.022360 -1.004312 -0.008561 -2.563615 -0.063351 -0.073358
    71 -1.180681 -2.507217 -0.193859 -2.930635 -0.054587 -0.538617
    72 -0.024967 -1.123934 0.017597 -2.465460 -0.051342 -0.068803
    73 -0.020057 -0.890968 0.060873 -2.419788 -0.046165 -0.070625
    74 0.583510 -1.146494 0.177566 0.614395 -0.342581 -1.638450
    75 1.157009 -0.325702 0.110481 0.339663 -0.313121 -1.969017
    76 0.870295 -0.214230 0.059636 0.259463 -0.306712 -1.729442
    77 0.120153 -0.050270 -0.054489 -5.995616 3.110905 -4.722100
    78 -16.341572 -1.625681 3.776176 -0.260174 -2.625667 0.365940
    79 0.096944 -8.540265 -0.009365 0.347797 -0.262085 -0.229362
    80 0.447953 -2.798986 -0.200443 -2.984914 -0.013188 0.208203
    81 -0.032909 -1.480204 0.055723 -2.611575 0.006052 -0.054192
    82 -0.027022 -1.147235 0.018854 -2.351948 0.013914 -0.050743
    83 -0.249534 -2.846964 -0.174213 -2.357742 -0.022476 0.018186
    84 0.043235 -1.676128 0.045229 -2.429657 -0.023028 0.026607
    85 0.031729 -1.141298 0.031493 -2.342119 -0.020655 0.018523
    86 -0.963866 -2.785145 -0.085350 -2.588320 0.076191 -0.202043
    87 0.028479 -1.446037 -0.024980 -2.601102 -0.086709 -0.010055
    88 0.021413 -0.949968 -0.011205 -2.577638 -0.086265 -0.010283
    89 1.164475 -2.543940 -0.170330 -2.929876 0.088767 0.524379
    90 0.024032 -1.179825 0.009994 -2.496092 0.087008 0.061062
    91 0.014898 -0.903521 0.011403 -2.295606 0.073861 0.069019
    92 -0.586770 -1.264477 0.200161 -0.492910 -0.107135 -1.627252
    93 1.616588 0.058681 0.016848 -0.044994 0.001387 1.901043
    94 1.117947 0.040611 -0.005766 -0.049068 -0.021770 1.797547
    95 -0.139399 -0.111698 0.014397 0.285382 -0.030687 1.580508
    96 -8.213991 0.049846 -0.477722 1.564411 -0.037004 -0.083710
end
