version 1
nodes
  0 "root" -1
  1 "Bone01" 0
  2 "L_dualsmg" 1
  3 "l_dualsmg_po" 2
  4 "l_dualsmg_ro" 3
  5 "l_ro001" 4
  6 "l_ro005" 5
  7 "l_ro009" 6
  8 "l_ro002" 4
  9 "l_ro006" 8
  10 "l_ro012" 9
  11 "l_ro003" 4
  12 "l_ro007" 11
  13 "l_ro010" 12
  14 "l_ro004" 4
  15 "l_ro008" 14
  16 "l_ro011" 15
  17 "l_bone001" 2
  18 "l_bone002" 2
  19 "l_bone003" 2
  20 "l_bone004" 2
  21 "l_bone005" 2
  22 "l_bone006" 2
  23 "Bone_Lefthand" 1
  24 "Bone13" 23
  25 "Bone14" 24
  26 "Bone15" 25
  27 "Bone17" 23
  28 "Bone18" 27
  29 "Bone19" 28
  30 "Bone21" 23
  31 "Bone22" 30
  32 "Bone23" 31
  33 "Bone09" 23
  34 "Bone10" 33
  35 "Bone11" 34
  36 "Bone05" 23
  37 "Bone06" 36
  38 "Bone07" 37
  39 "Bone04" 0
  40 "R_dualsmg" 39
  41 "r_dualsmg_po" 40
  42 "r_dualsmg_ro" 41
  43 "l_ro013" 42
  44 "l_ro014" 43
  45 "l_ro015" 44
  46 "l_ro016" 42
  47 "l_ro017" 46
  48 "l_ro018" 47
  49 "l_ro019" 42
  50 "l_ro020" 49
  51 "l_ro021" 50
  52 "l_ro022" 42
  53 "l_ro023" 52
  54 "l_ro024" 53
  55 "l_bone007" 40
  56 "l_bone008" 40
  57 "l_bone009" 40
  58 "l_bone010" 40
  59 "l_bone011" 40
  60 "l_bone012" 40
  61 "Bone_Righthand" 39
  62 "Bone39" 61
  63 "Bone40" 62
  64 "Bone41" 63
  65 "Bone35" 61
  66 "Bone36" 65
  67 "Bone37" 66
  68 "Bone31" 61
  69 "Bone32" 68
  70 "Bone33" 69
  71 "Bone43" 61
  72 "Bone44" 71
  73 "Bone45" 72
  74 "Bone27" 61
  75 "Bone28" 74
  76 "Bone29" 75
  77 "dual_spark_point002" 43
  78 "dual_spark_bone006" 77
  79 "dual_spark_bone007" 77
  80 "dual_spark_bone008" 77
  81 "dual_spark_bone009" 77
  82 "dual_spark_bone010" 77
  83 "dual_spark_point003" 46
  84 "dual_spark_bone011" 83
  85 "dual_spark_bone015" 83
  86 "dual_spark_bone014" 83
  87 "dual_spark_bone013" 83
  88 "dual_spark_bone012" 83
  89 "dual_spark_point004" 49
  90 "dual_spark_bone016" 89
  91 "dual_spark_bone017" 89
  92 "dual_spark_bone018" 89
  93 "dual_spark_bone019" 89
  94 "dual_spark_bone020" 89
  95 "dual_spark_point001" 52
  96 "dual_spark_bone005" 95
  97 "dual_spark_bone001" 95
  98 "dual_spark_bone002" 95
  99 "dual_spark_bone003" 95
  100 "dual_spark_bone004" 95
  101 "muzzle_boneR" 39
  102 "dual_spark_point008" 5
  103 "dual_spark_bone040" 102
  104 "dual_spark_bone039" 102
  105 "dual_spark_bone038" 102
  106 "dual_spark_bone037" 102
  107 "dual_spark_bone036" 102
  108 "dual_spark_point005" 8
  109 "dual_spark_bone021" 108
  110 "dual_spark_bone022" 108
  111 "dual_spark_bone023" 108
  112 "dual_spark_bone024" 108
  113 "dual_spark_bone025" 108
  114 "dual_spark_point007" 11
  115 "dual_spark_bone035" 114
  116 "dual_spark_bone034" 114
  117 "dual_spark_bone033" 114
  118 "dual_spark_bone032" 114
  119 "dual_spark_bone031" 114
  120 "dual_spark_point006" 14
  121 "dual_spark_bone026" 120
  122 "dual_spark_bone027" 120
  123 "dual_spark_bone028" 120
  124 "dual_spark_bone029" 120
  125 "dual_spark_bone030" 120
  126 "muzzle_boneL" 1
end
skeleton
  time 0
    0 0.185351 2.923437 -3.419765 -0.100763 0.000000 0.000000
    1 7.660971 -8.235101 -2.673931 -0.041229 3.119535 -0.000903
    2 0.000034 0.000000 -0.000003 -1.566392 0.002684 -1.566806
    3 3.768928 0.000001 0.000008 0.000001 0.000000 0.000000
    4 1.365127 -0.000360 0.000046 0.000000 -0.344895 1.570796
    5 2.211438 2.203716 3.830348 -0.523596 0.000000 -1.570796
    6 2.894973 -0.000005 0.000050 0.000000 0.000000 0.000000
    7 5.811542 0.000001 0.289690 0.000000 0.000000 0.000000
    8 -2.833348 2.221491 3.190190 0.785402 0.000000 -1.570796
    9 2.894968 0.000044 0.000023 0.000001 0.000000 0.000001
    10 5.811540 0.000015 0.289681 0.000000 0.000000 0.000000
    11 -2.810163 2.152451 -2.855317 2.356198 0.000000 -1.570796
    12 2.894950 0.000033 -0.000051 0.000000 0.000000 0.000000
    13 5.811539 0.000000 0.289669 0.000000 0.000000 0.000000
    14 2.167562 2.044026 -3.511129 -2.617991 0.000000 -1.570796
    15 2.894952 -0.000048 -0.000035 0.000000 0.000000 0.000000
    16 5.811539 -0.000012 0.289675 0.000000 0.000000 0.000000
    17 1.665445 -0.233929 2.804113 -3.020862 0.173288 0.020916
    18 1.099737 2.418327 1.369669 2.160697 0.024308 0.120928
    19 1.129868 2.374418 -1.125080 -0.972625 0.023302 -3.020468
    20 1.669814 -0.280567 -2.476648 0.129184 0.173108 -3.119221
    21 4.327000 2.496208 0.164996 3.141592 0.000000 -0.261799
    22 0.641356 1.916879 0.164990 0.000000 -3.141592 0.785399
    23 0.070587 -8.505347 -0.306871 0.136619 -0.135662 0.032772
    24 -0.527918 -2.733873 -0.063856 -0.221847 0.026695 -0.029274
    25 0.039023 -1.451686 0.013995 -0.526393 -0.009248 0.008444
    26 0.025244 -0.948033 -0.061938 -0.315951 -0.006975 0.004856
    27 0.456622 -2.776106 -0.038286 -0.179721 0.038067 0.093738
    28 -0.049151 -1.656674 0.095379 -0.467474 0.007437 -0.012101
    29 -0.027948 -0.906203 0.027498 -0.601590 0.007736 -0.014358
    30 1.409608 -2.548073 0.115848 -0.216027 0.060279 0.112645
    31 -0.037107 -1.549642 -0.024853 -0.579124 0.008413 -0.028305
    32 -0.026187 -1.095485 0.020049 -0.068909 0.001874 -0.003162
    33 -1.496458 -2.737234 0.167309 -0.146833 0.032754 0.018045
    34 -0.025802 -1.157453 0.017412 -0.449838 0.007015 -0.018251
    35 -0.020426 -0.887742 0.022147 -0.648643 0.007991 -0.025208
    36 1.224889 -0.454768 0.270563 -0.543097 -0.273984 0.000018
    37 2.121862 -0.218390 0.046884 0.021933 -0.170517 -0.578614
    38 1.018224 -0.108397 0.024555 0.009675 -0.131543 -0.533765
    39 -7.738361 -8.232780 -2.577250 -0.039582 -3.022552 0.011834
    40 -0.068710 -0.004778 0.044121 1.564953 0.005023 1.574747
    41 -3.702137 -0.000001 -0.000004 0.000001 0.000000 0.000000
    42 -1.340933 0.000367 -0.000044 0.000000 -0.345362 1.570797
    43 -2.262832 -2.482079 -3.867558 -0.523642 0.000000 -1.570796
    44 -2.843667 0.000005 -0.000045 0.000000 0.000000 0.000000
    45 -5.811942 0.000000 -0.289840 0.000000 0.000000 0.000000
    46 2.901485 -2.499534 -3.220698 0.785365 0.000000 -1.570796
    47 -2.843664 -0.000040 -0.000023 0.000001 0.000000 0.000001
    48 -5.811941 0.000000 -0.293816 0.000000 0.000000 0.000000
    49 2.877943 -2.431710 2.885145 2.356161 0.000000 -1.570796
    50 -2.843645 -0.000032 0.000049 0.000000 0.000000 0.000000
    51 -5.811940 0.000001 -0.290602 0.000000 0.000000 0.000000
    52 -2.218278 -2.325211 3.547690 -2.617999 0.000000 -1.570796
    53 -2.843648 0.000043 0.000033 0.000000 0.000000 0.000000
    54 -5.811938 0.000001 -0.292631 0.000000 0.000000 0.000000
    55 -0.981191 0.232152 -2.755962 -3.020844 0.173314 0.020925
    56 -1.066912 -2.556329 -1.451075 2.160724 0.024306 0.120984
    57 -1.068944 -2.534675 1.056196 -0.980197 0.023761 -3.020501
    58 -0.983219 0.277497 2.415553 0.129204 0.173133 -3.119211
    59 -4.438777 -2.487371 -0.164989 3.141592 0.000000 -0.261933
    60 -0.629991 -1.950258 -0.164988 0.000000 -3.141592 0.785399
    61 0.149881 -8.464746 -0.068508 -0.232112 -0.055838 -0.194425
    62 0.315456 -2.793945 -0.198869 -0.235039 -0.033005 0.035235
    63 -0.033247 -1.491348 0.009707 -0.510004 0.011788 -0.005098
    64 -0.025028 -1.006834 -0.025194 -0.236863 0.006591 -0.001649
    65 -0.669087 -2.836143 -0.173296 -0.156027 -0.011595 -0.095288
    66 0.042955 -1.666431 0.090047 -0.565091 -0.008489 -0.001639
    67 0.028073 -0.955362 0.047537 -0.525812 -0.004918 0.005596
    68 -1.622063 -2.608063 -0.019164 -0.204617 0.029253 -0.110052
    69 0.030245 -1.540858 -0.012677 -0.606073 -0.012195 -0.024766
    70 0.022623 -1.134684 0.021706 -0.080828 -0.000775 -0.003750
    71 1.283998 -2.797358 0.032295 -0.150343 -0.047106 -0.006100
    72 0.023369 -1.132146 0.004689 -0.481351 -0.001251 0.025788
    73 0.015120 -0.894543 -0.018988 -0.525605 -0.001703 0.025846
    74 -1.459226 -0.441063 0.143204 0.777132 -0.251250 -3.094120
    75 1.792526 0.051476 0.020219 -0.009803 -0.003467 0.551105
    76 1.179478 0.044847 -0.004566 -0.015580 -0.033931 0.621679
    77 -0.657602 1.153317 -0.034141 -1.507943 1.985014 -1.564372
    78 -0.399903 -1.045372 -0.749260 -0.001353 0.084054 1.221671
    79 -0.401813 -1.048120 -0.748879 -0.000164 0.088496 1.221703
    80 -0.401718 -1.047540 -0.749276 -0.000024 0.087707 1.221696
    81 -0.401390 -1.046728 -0.749628 -0.000077 0.086507 1.221684
    82 -0.400646 -1.045837 -0.749623 -0.000623 0.085007 1.221674
    83 -0.300121 1.007199 0.017219 -1.144034 1.435126 -1.211443
    84 0.153482 -0.683594 -0.463020 0.061383 -0.107004 -1.470549
    85 0.153481 -0.683594 -0.463020 0.061349 -0.106995 -1.470519
    86 0.153481 -0.683594 -0.463020 0.061202 -0.106974 -1.470364
    87 0.153481 -0.683595 -0.463019 0.061880 -0.107124 -1.471025
    88 0.153481 -0.683594 -0.463020 0.061577 -0.106849 -1.470733
    89 -0.309559 1.159035 0.031710 1.507536 0.807674 1.574826
    90 -0.777517 -0.768079 -1.015001 -0.000616 -0.002300 0.785353
    91 -0.780867 -0.772455 -1.008759 -0.001347 0.003253 0.785392
    92 -0.780716 -0.771289 -1.009834 -0.000617 0.002300 0.785390
    93 -0.780058 -0.769866 -1.011521 -0.000070 0.000799 0.785378
    94 -0.778613 -0.768536 -1.013755 -0.000156 -0.001191 0.785361
    95 -0.610501 1.172297 -0.050472 -1.537141 2.684231 -1.502709
    96 -0.820027 -0.561338 -0.764206 -0.087156 0.000089 0.523572
    97 -0.820045 -0.561394 -0.764145 -0.087124 0.000152 0.523633
    98 -0.819891 -0.561385 -0.764326 -0.087263 -0.000035 0.523600
    99 -0.819904 -0.561405 -0.764298 -0.087286 -0.000009 0.523592
    100 -0.820005 -0.561348 -0.764224 -0.087178 0.000072 0.523573
    101 8.326232 -7.925354 -1.108150 -0.013252 2.893770 0.583100
    102 0.031021 -0.964479 0.075244 -0.752135 -1.589537 0.751179
    103 0.044948 0.698909 -0.349932 0.191381 0.090714 -1.576776
    104 0.044946 0.698910 -0.349932 0.191029 0.091077 -1.576649
    105 0.044947 0.698909 -0.349931 0.190163 0.091203 -1.576231
    106 0.044947 0.698909 -0.349930 0.188774 0.091420 -1.575295
    107 0.044947 0.698910 -0.349931 0.191423 0.090717 -1.576808
    108 0.326581 -0.948627 0.045079 -1.553256 -1.534912 1.561092
    109 0.133442 0.900405 -1.137933 0.000000 0.000000 -1.570797
    110 0.133442 0.900395 -1.137933 0.000002 0.000000 -1.570796
    111 0.133440 0.900397 -1.137932 0.000002 0.000000 -1.570796
    112 0.133439 0.900399 -1.137933 0.000001 -0.000001 -1.570796
    113 0.133438 0.900398 -1.137930 0.000001 0.000000 -1.570796
    114 0.216887 -0.862409 0.042655 1.474513 -1.408097 -1.485234
    115 0.013643 0.782533 -1.422429 -0.017073 -0.018279 1.652477
    116 0.013641 0.782534 -1.422430 -0.017073 -0.018279 1.652477
    117 0.013643 0.782533 -1.422430 -0.017073 -0.018279 1.652477
    118 0.013643 0.782533 -1.422428 -0.017073 -0.018279 1.652477
    119 0.013643 0.782533 -1.422429 -0.017073 -0.018279 1.652477
    120 -0.092209 -1.226791 0.042591 1.567706 -0.995170 -1.577827
    121 -0.720552 0.911055 -1.496215 -0.000002 0.000000 2.094396
    122 -0.720549 0.911053 -1.496217 0.000000 0.000001 2.094396
    123 -0.720897 0.931442 -1.474504 0.011588 0.000427 2.094470
    124 -0.720550 0.911058 -1.496212 0.000000 0.000000 2.094395
    125 -0.720551 0.911057 -1.496211 0.000000 0.000000 2.094395
    126 -3.950249 -9.051538 -4.405101 -0.065825 2.628743 -0.324829
end
triangles
$0b_y19s2_lmg_ef.bmp
  97 -9.731759 -11.059131 -1.002924 0.980195 -0.157415 0.120163 0.516634 1.000000
  98 -9.721610 -11.061309 -1.019682 -0.295469 -0.141117 0.944872 0.516634 0.749511
  98 -9.545228 -8.008811 -1.300653 0.687475 -0.021488 -0.725890 0.984344 0.749511
$0b_y19s2_lmg_ef.bmp
  98 -9.545228 -8.008811 -1.300653 0.687475 -0.021488 -0.725890 0.984344 0.749511
  98 -9.721610 -11.061309 -1.019682 -0.295469 -0.141117 0.944872 0.516634 0.749511
  99 -9.550162 -8.007771 -1.292039 0.612277 -0.231429 0.756014 0.984344 0.499022
$0b_y19s2_lmg_ef.bmp
  98 -9.721610 -11.061309 -1.019682 -0.295469 -0.141117 0.944872 0.516634 0.749511
  99 -9.726651 -11.060261 -1.011048 0.017742 0.188109 -0.981988 0.516634 0.499022
  99 -9.550162 -8.007771 -1.292039 0.612277 -0.231429 0.756014 0.984344 0.499022
$0b_y19s2_lmg_ef.bmp
  99 -9.550162 -8.007771 -1.292039 0.612277 -0.231429 0.756014 0.984344 0.499022
  99 -9.726651 -11.060261 -1.011048 0.017742 0.188109 -0.981988 0.516634 0.499022
  100 -9.550138 -8.007687 -1.291972 -0.689560 -0.043442 0.722925 0.984344 0.248532
$0b_y19s2_lmg_ef.bmp
  99 -9.726651 -11.060261 -1.011048 0.017742 0.188109 -0.981988 0.516634 0.499022
  100 -9.726682 -11.060211 -1.011392 0.269338 0.149304 -0.951402 0.516634 0.248532
  100 -9.550138 -8.007687 -1.291972 -0.689560 -0.043442 0.722925 0.984344 0.248532
$0b_y19s2_lmg_ef.bmp
  100 -9.550138 -8.007687 -1.291972 -0.689560 -0.043442 0.722925 0.984344 0.248532
  100 -9.726682 -11.060211 -1.011392 0.269338 0.149304 -0.951402 0.516634 0.248532
  96 -9.550135 -8.007666 -1.291959 -0.979897 0.157688 -0.122215 0.984344 0.000000
$0b_y19s2_lmg_ef.bmp
  100 -9.726682 -11.060211 -1.011392 0.269338 0.149304 -0.951402 0.516634 0.248532
  96 -9.731649 -11.059184 -1.002839 -0.979897 0.157688 -0.122215 0.516634 0.000000
  96 -9.550135 -8.007666 -1.291959 -0.979897 0.157688 -0.122215 0.984344 0.000000
$0b_y19s2_lmg_ef.bmp
  97 -8.340663 -9.639414 -0.393289 0.053305 0.977036 -0.206297 0.516634 1.000000
  98 -8.330663 -9.641332 -0.410313 -0.695281 -0.419061 0.583929 0.516634 0.749511
  98 -10.935034 -9.538400 -1.896468 0.783521 0.157097 -0.601178 0.984344 0.749511
$0b_y19s2_lmg_ef.bmp
  98 -10.935034 -9.538400 -1.896468 0.783521 0.157097 -0.601178 0.984344 0.749511
  98 -8.330663 -9.641332 -0.410313 -0.695281 -0.419061 0.583929 0.516634 0.749511
  99 -10.940016 -9.537318 -1.887854 -0.803308 0.178553 0.568168 0.984344 0.499022
$0b_y19s2_lmg_ef.bmp
  98 -8.330663 -9.641332 -0.410313 -0.695281 -0.419061 0.583929 0.516634 0.749511
  99 -8.335660 -9.640327 -0.401678 0.267614 -0.962932 -0.033816 0.516634 0.499022
  99 -10.940016 -9.537318 -1.887854 -0.803308 0.178553 0.568168 0.984344 0.499022
$0b_y19s2_lmg_ef.bmp
  99 -10.940016 -9.537318 -1.887854 -0.803308 0.178553 0.568168 0.984344 0.499022
  99 -8.335660 -9.640327 -0.401678 0.267614 -0.962932 -0.033816 0.516634 0.499022
  100 -10.940003 -9.537131 -1.888022 -0.777624 -0.164340 0.606872 0.984344 0.248532
$0b_y19s2_lmg_ef.bmp
  99 -8.335660 -9.640327 -0.401678 0.267614 -0.962932 -0.033816 0.516634 0.499022
  100 -8.335682 -9.640381 -0.401802 0.687753 0.429129 -0.585529 0.516634 0.248532
  100 -10.940003 -9.537131 -1.888022 -0.777624 -0.164340 0.606872 0.984344 0.248532
$0b_y19s2_lmg_ef.bmp
  100 -10.940003 -9.537131 -1.888022 -0.777624 -0.164340 0.606872 0.984344 0.248532
  100 -8.335682 -9.640381 -0.401802 0.687753 0.429129 -0.585529 0.516634 0.248532
  96 -10.944962 -9.536076 -1.879429 -0.045692 -0.978539 0.200932 0.984344 0.000000
$0b_y19s2_lmg_ef.bmp
  100 -8.335682 -9.640381 -0.401802 0.687753 0.429129 -0.585529 0.516634 0.248532
  96 -8.335686 -9.640390 -0.401831 -0.045692 -0.978539 0.200932 0.516634 0.000000
  96 -10.944962 -9.536076 -1.879429 -0.045692 -0.978539 0.200932 0.984344 0.000000
$0b_y19s2_lmg_ef.bmp
  79 -2.939424 -11.224149 -4.513559 0.461907 0.064390 -0.884588 0.516634 1.000000
  80 -2.959781 -11.224331 -4.515477 0.918382 -0.105563 0.381354 0.516634 0.749511
  80 -2.910808 -8.172285 -4.847315 -0.936525 0.084471 -0.340274 0.984344 0.749511
$0b_y19s2_lmg_ef.bmp
  80 -2.910808 -8.172285 -4.847315 -0.936525 0.084471 -0.340274 0.984344 0.749511
  80 -2.959781 -11.224331 -4.515477 0.918382 -0.105563 0.381354 0.516634 0.749511
  81 -2.910853 -8.172503 -4.846562 -0.997763 0.066586 0.006011 0.984344 0.499022
$0b_y19s2_lmg_ef.bmp
  80 -2.959781 -11.224331 -4.515477 0.918382 -0.105563 0.381354 0.516634 0.749511
  81 -2.939677 -11.225333 -4.518383 0.842575 -0.112476 0.526703 0.516634 0.499022
  81 -2.910853 -8.172503 -4.846562 -0.997763 0.066586 0.006011 0.984344 0.499022
$0b_y19s2_lmg_ef.bmp
  81 -2.910853 -8.172503 -4.846562 -0.997763 0.066586 0.006011 0.984344 0.499022
  81 -2.939677 -11.225333 -4.518383 0.842575 -0.112476 0.526703 0.516634 0.499022
  82 -2.911197 -8.172328 -4.845621 -0.956058 0.028102 0.291829 0.984344 0.248532
$0b_y19s2_lmg_ef.bmp
  81 -2.939677 -11.225333 -4.518383 0.842575 -0.112476 0.526703 0.516634 0.499022
  82 -2.948355 -11.225475 -4.522024 0.828459 -0.117216 0.547646 0.516634 0.248532
  82 -2.911197 -8.172328 -4.845621 -0.956058 0.028102 0.291829 0.984344 0.248532
$0b_y19s2_lmg_ef.bmp
  82 -2.911197 -8.172328 -4.845621 -0.956058 0.028102 0.291829 0.984344 0.248532
  82 -2.948355 -11.225475 -4.522024 0.828459 -0.117216 0.547646 0.516634 0.248532
  78 -2.911641 -8.171855 -4.845022 -0.521586 -0.061868 0.850953 0.984344 0.000000
$0b_y19s2_lmg_ef.bmp
  82 -2.948355 -11.225475 -4.522024 0.828459 -0.117216 0.547646 0.516634 0.248532
  78 -2.936566 -11.225515 -4.524335 0.370345 -0.129685 0.919797 0.516634 0.000000
  78 -2.911641 -8.171855 -4.845022 -0.521586 -0.061868 0.850953 0.984344 0.000000
$0b_y19s2_lmg_ef.bmp
  79 -2.922822 -9.849741 -6.147947 0.038152 0.982219 -0.183823 0.516634 1.000000
  80 -2.942930 -9.848637 -6.148780 0.652681 -0.757032 0.030150 0.516634 0.749511
  80 -2.938988 -9.616559 -3.197624 -0.800322 0.599290 0.018319 0.984344 0.749511
$0b_y19s2_lmg_ef.bmp
  80 -2.938988 -9.616559 -3.197624 -0.800322 0.599290 0.018319 0.984344 0.749511
  80 -2.942930 -9.848637 -6.148780 0.652681 -0.757032 0.030150 0.516634 0.749511
  81 -2.929008 -9.618949 -3.198604 -0.496804 -0.836564 0.230968 0.984344 0.499022
$0b_y19s2_lmg_ef.bmp
  80 -2.942930 -9.848637 -6.148780 0.652681 -0.757032 0.030150 0.516634 0.749511
  81 -2.932848 -9.847487 -6.150037 0.917498 -0.390377 -0.076182 0.516634 0.499022
  81 -2.929008 -9.618949 -3.198604 -0.496804 -0.836564 0.230968 0.984344 0.499022
$0b_y19s2_lmg_ef.bmp
  81 -2.929008 -9.618949 -3.198604 -0.496804 -0.836564 0.230968 0.984344 0.499022
  81 -2.932848 -9.847487 -6.150037 0.917498 -0.390377 -0.076182 0.516634 0.499022
  82 -2.928547 -9.621254 -3.199835 -0.970376 -0.157370 0.183319 0.984344 0.248532
$0b_y19s2_lmg_ef.bmp
  81 -2.932848 -9.847487 -6.150037 0.917498 -0.390377 -0.076182 0.516634 0.499022
  82 -2.932294 -9.845366 -6.151607 0.694396 -0.719371 0.017896 0.516634 0.248532
  82 -2.928547 -9.621254 -3.199835 -0.970376 -0.157370 0.183319 0.984344 0.248532
$0b_y19s2_lmg_ef.bmp
  82 -2.928547 -9.621254 -3.199835 -0.970376 -0.157370 0.183319 0.984344 0.248532
  82 -2.932294 -9.845366 -6.151607 0.694396 -0.719371 0.017896 0.516634 0.248532
  78 -2.917868 -9.622542 -3.200617 -0.167760 -0.965243 0.200404 0.984344 0.000000
$0b_y19s2_lmg_ef.bmp
  82 -2.932294 -9.845366 -6.151607 0.694396 -0.719371 0.017896 0.516634 0.248532
  78 -2.921581 -9.843841 -6.152601 0.288469 -0.949402 0.124183 0.516634 0.000000
  78 -2.917868 -9.622542 -3.200617 -0.167760 -0.965243 0.200404 0.984344 0.000000
$0b_y19s2_lmg_ef.bmp
  88 -6.008853 -10.763561 -9.228081 0.999339 0.033268 -0.014632 0.516634 1.000000
  87 -6.001429 -10.762227 -9.247081 -0.342589 0.664137 0.664496 0.516634 0.749511
  87 -6.276518 -7.704731 -9.182731 0.165076 -0.586935 0.792626 0.984344 0.749511
$0b_y19s2_lmg_ef.bmp
  87 -6.276518 -7.704731 -9.182731 0.165076 -0.586935 0.792626 0.984344 0.749511
  87 -6.001429 -10.762227 -9.247081 -0.342589 0.664137 0.664496 0.516634 0.749511
  86 -6.282804 -7.705933 -9.164694 -0.055142 0.184174 -0.981346 0.984344 0.499022
$0b_y19s2_lmg_ef.bmp
  87 -6.001429 -10.762227 -9.247081 -0.342589 0.664137 0.664496 0.516634 0.749511
  86 -6.005456 -10.762935 -9.236891 -0.047217 -0.215034 0.975464 0.516634 0.499022
  86 -6.282804 -7.705933 -9.164694 -0.055142 0.184174 -0.981346 0.984344 0.499022
$0b_y19s2_lmg_ef.bmp
  86 -6.282804 -7.705933 -9.164694 -0.055142 0.184174 -0.981346 0.984344 0.499022
  86 -6.005456 -10.762935 -9.236891 -0.047217 -0.215034 0.975464 0.516634 0.499022
  85 -6.279496 -7.705316 -9.173914 0.005200 0.216710 -0.976222 0.984344 0.248532
$0b_y19s2_lmg_ef.bmp
  86 -6.005456 -10.762935 -9.236891 -0.047217 -0.215034 0.975464 0.516634 0.499022
  85 -6.005341 -10.762922 -9.237071 0.068295 -0.218115 0.973530 0.516634 0.248532
  85 -6.279496 -7.705316 -9.173914 0.005200 0.216710 -0.976222 0.984344 0.248532
$0b_y19s2_lmg_ef.bmp
  85 -6.279496 -7.705316 -9.173914 0.005200 0.216710 -0.976222 0.984344 0.248532
  85 -6.005341 -10.762922 -9.237071 0.068295 -0.218115 0.973530 0.516634 0.248532
  84 -6.282936 -7.705950 -9.164500 -0.999512 -0.030993 0.003845 0.984344 0.000000
$0b_y19s2_lmg_ef.bmp
  85 -6.005341 -10.762922 -9.237071 0.068295 -0.218115 0.973530 0.516634 0.248532
  84 -6.008719 -10.763548 -9.227734 -0.999512 -0.030993 0.003845 0.516634 0.000000
  84 -6.282936 -7.705950 -9.164500 -0.999512 -0.030993 0.003845 0.984344 0.000000
$0b_y19s2_lmg_ef.bmp
  88 -4.729238 -9.243276 -8.691873 -0.094096 0.994057 -0.054743 0.516634 1.000000
  87 -4.725919 -9.242215 -8.700878 0.623628 0.212423 -0.752306 0.516634 0.749511
  87 -7.541528 -9.394686 -9.725963 0.858540 -0.352155 -0.372687 0.984344 0.749511
$0b_y19s2_lmg_ef.bmp
  87 -7.541528 -9.394686 -9.725963 0.858540 -0.352155 -0.372687 0.984344 0.749511
  87 -4.725919 -9.242215 -8.700878 0.623628 0.212423 -0.752306 0.516634 0.749511
  86 -7.545353 -9.395101 -9.715583 0.744426 0.001818 -0.667702 0.984344 0.499022
$0b_y19s2_lmg_ef.bmp
  87 -4.725919 -9.242215 -8.700878 0.623628 0.212423 -0.752306 0.516634 0.749511
  86 -4.725647 -9.242455 -8.701701 -0.730520 0.206610 0.650886 0.516634 0.499022
  86 -7.545353 -9.395101 -9.715583 0.744426 0.001818 -0.667702 0.984344 0.499022
$0b_y19s2_lmg_ef.bmp
  86 -7.545353 -9.395101 -9.715583 0.744426 0.001818 -0.667702 0.984344 0.499022
  86 -4.725647 -9.242455 -8.701701 -0.730520 0.206610 0.650886 0.516634 0.499022
  85 -7.545262 -9.395132 -9.715817 0.708105 0.179203 -0.682988 0.984344 0.248532
$0b_y19s2_lmg_ef.bmp
  86 -4.725647 -9.242455 -8.701701 -0.730520 0.206610 0.650886 0.516634 0.499022
  85 -4.725713 -9.242421 -8.701506 -0.714054 -0.141782 0.685583 0.516634 0.248532
  85 -7.545262 -9.395132 -9.715817 0.708105 0.179203 -0.682988 0.984344 0.248532
$0b_y19s2_lmg_ef.bmp
  85 -7.545262 -9.395132 -9.715817 0.708105 0.179203 -0.682988 0.984344 0.248532
  85 -4.725713 -9.242421 -8.701506 -0.714054 -0.141782 0.685583 0.516634 0.248532
  84 -7.548653 -9.395776 -9.706485 0.105047 -0.993467 0.044602 0.984344 0.000000
$0b_y19s2_lmg_ef.bmp
  85 -4.725713 -9.242421 -8.701506 -0.714054 -0.141782 0.685583 0.516634 0.248532
  84 -4.725725 -9.242407 -8.701470 0.105047 -0.993467 0.044602 0.516634 0.000000
  84 -7.548653 -9.395776 -9.706485 0.105047 -0.993467 0.044602 0.984344 0.000000
$0b_y19s2_lmg_ef.bmp
  91 -11.329839 -11.156316 -6.204900 -0.771533 -0.079826 0.631162 0.516634 1.000000
  92 -11.310118 -11.157801 -6.195028 -0.756386 0.195470 -0.624237 0.516634 0.749511
  92 -11.261082 -8.087791 -6.235505 -0.279512 -0.204681 0.938072 0.984344 0.749511
$0b_y19s2_lmg_ef.bmp
  92 -11.261082 -8.087791 -6.235505 -0.279512 -0.204681 0.938072 0.984344 0.749511
  92 -11.310118 -11.157801 -6.195028 -0.756386 0.195470 -0.624237 0.516634 0.749511
  93 -11.279903 -8.088975 -6.243024 0.909145 0.021777 -0.415910 0.984344 0.499022
$0b_y19s2_lmg_ef.bmp
  92 -11.310118 -11.157801 -6.195028 -0.756386 0.195470 -0.624237 0.516634 0.749511
  93 -11.328937 -11.158916 -6.197641 -0.661713 0.213591 -0.718689 0.516634 0.499022
  93 -11.279903 -8.088975 -6.243024 0.909145 0.021777 -0.415910 0.984344 0.499022
$0b_y19s2_lmg_ef.bmp
  93 -11.279903 -8.088975 -6.243024 0.909145 0.021777 -0.415910 0.984344 0.499022
  93 -11.328937 -11.158916 -6.197641 -0.661713 0.213591 -0.718689 0.516634 0.499022
  94 -11.279635 -8.091195 -6.243794 0.264685 -0.231059 0.936244 0.984344 0.248532
$0b_y19s2_lmg_ef.bmp
  93 -11.328937 -11.158916 -6.197641 -0.661713 0.213591 -0.718689 0.516634 0.499022
  94 -11.321613 -11.161239 -6.189338 -0.616484 0.213496 -0.757870 0.516634 0.248532
  94 -11.279635 -8.091195 -6.243794 0.264685 -0.231059 0.936244 0.984344 0.248532
$0b_y19s2_lmg_ef.bmp
  94 -11.279635 -8.091195 -6.243794 0.264685 -0.231059 0.936244 0.984344 0.248532
  94 -11.321613 -11.161239 -6.189338 -0.616484 0.213496 -0.757870 0.516634 0.248532
  90 -11.279328 -8.092448 -6.244160 0.760722 0.079096 -0.644240 0.984344 0.000000
$0b_y19s2_lmg_ef.bmp
  94 -11.321613 -11.161239 -6.189338 -0.616484 0.213496 -0.757870 0.516634 0.248532
  90 -11.333190 -11.162173 -6.190410 0.211902 0.190206 -0.958603 0.516634 0.000000
  90 -11.279328 -8.092448 -6.244160 0.760722 0.079096 -0.644240 0.984344 0.000000
$0b_y19s2_lmg_ef.bmp
  91 -11.827279 -9.685117 -4.822574 -0.015375 0.995824 -0.089993 0.516634 1.000000
  92 -11.808060 -9.685198 -4.814377 -0.244508 -0.965131 0.093477 0.516634 0.749511
  92 -10.768599 -9.650353 -7.607352 0.969593 0.242720 -0.031257 0.984344 0.749511
$0b_y19s2_lmg_ef.bmp
  92 -10.768599 -9.650353 -7.607352 0.969593 0.242720 -0.031257 0.984344 0.749511
  92 -11.808060 -9.685198 -4.814377 -0.244508 -0.965131 0.093477 0.516634 0.749511
  93 -10.787452 -9.653726 -7.612384 0.833033 -0.551726 0.040663 0.984344 0.499022
$0b_y19s2_lmg_ef.bmp
  92 -11.808060 -9.685198 -4.814377 -0.244508 -0.965131 0.093477 0.516634 0.749511
  93 -11.826847 -9.684110 -4.819333 -0.969952 0.242943 -0.013140 0.516634 0.499022
  93 -10.787452 -9.653726 -7.612384 0.833033 -0.551726 0.040663 0.984344 0.499022
$0b_y19s2_lmg_ef.bmp
  93 -10.787452 -9.653726 -7.612384 0.833033 -0.551726 0.040663 0.984344 0.499022
  93 -11.826847 -9.684110 -4.819333 -0.969952 0.242943 -0.013140 0.516634 0.499022
  94 -10.779023 -9.659068 -7.606864 0.904854 -0.424714 0.029295 0.984344 0.248532
$0b_y19s2_lmg_ef.bmp
  93 -11.826847 -9.684110 -4.819333 -0.969952 0.242943 -0.013140 0.516634 0.499022
  94 -11.827753 -9.683290 -4.817154 -0.223732 -0.970245 0.092563 0.516634 0.248532
  94 -10.779023 -9.659068 -7.606864 0.904854 -0.424714 0.029295 0.984344 0.248532
$0b_y19s2_lmg_ef.bmp
  94 -10.779023 -9.659068 -7.606864 0.904854 -0.424714 0.029295 0.984344 0.248532
  94 -11.827753 -9.683290 -4.817154 -0.223732 -0.970245 0.092563 0.516634 0.248532
  90 -10.789402 -9.661697 -7.609272 0.383654 -0.919958 0.080538 0.984344 0.000000
$0b_y19s2_lmg_ef.bmp
  94 -11.827753 -9.683290 -4.817154 -0.223732 -0.970245 0.092563 0.516634 0.248532
  90 -11.828716 -9.682835 -4.816105 -0.066699 -0.993446 0.092824 0.516634 0.000000
  90 -10.789402 -9.661697 -7.609272 0.383654 -0.919958 0.080538 0.984344 0.000000
$0b_y19s2_lmg_ef.bmp
  110 5.839557 -11.793793 -8.809525 0.974366 -0.198118 -0.106587 0.516634 1.000000
  111 5.830859 -11.794882 -8.827499 -0.159596 -0.166836 -0.972983 0.516634 0.749511
  111 5.863937 -8.781610 -9.026246 0.363799 -0.240103 -0.900000 0.984344 0.749511
$0b_y19s2_lmg_ef.bmp
  111 5.863937 -8.781610 -9.026246 0.363799 -0.240103 -0.900000 0.984344 0.749511
  111 5.830859 -11.794882 -8.827499 -0.159596 -0.166836 -0.972983 0.516634 0.749511
  112 5.872631 -8.780521 -9.008268 0.974860 -0.197537 -0.103083 0.984344 0.499022
$0b_y19s2_lmg_ef.bmp
  111 5.830859 -11.794882 -8.827499 -0.159596 -0.166836 -0.972983 0.516634 0.749511
  112 5.839557 -11.793792 -8.809520 -0.967882 0.207157 0.142445 0.516634 0.499022
  112 5.872631 -8.780521 -9.008268 0.974860 -0.197537 -0.103083 0.984344 0.499022
$0b_y19s2_lmg_ef.bmp
  112 5.872631 -8.780521 -9.008268 0.974860 -0.197537 -0.103083 0.984344 0.499022
  112 5.839557 -11.793792 -8.809520 -0.967882 0.207157 0.142445 0.516634 0.499022
  113 5.868285 -8.781063 -9.017257 -0.751108 0.258750 0.607360 0.984344 0.248532
$0b_y19s2_lmg_ef.bmp
  112 5.839557 -11.793792 -8.809520 -0.967882 0.207157 0.142445 0.516634 0.499022
  113 5.835208 -11.794335 -8.818507 -0.229615 -0.151884 -0.961357 0.516634 0.248532
  113 5.868285 -8.781063 -9.017257 -0.751108 0.258750 0.607360 0.984344 0.248532
$0b_y19s2_lmg_ef.bmp
  113 5.868285 -8.781063 -9.017257 -0.751108 0.258750 0.607360 0.984344 0.248532
  113 5.835208 -11.794335 -8.818507 -0.229615 -0.151884 -0.961357 0.516634 0.248532
  109 5.872625 -8.780521 -9.008270 -0.974281 0.198223 0.107169 0.984344 0.000000
$0b_y19s2_lmg_ef.bmp
  113 5.835208 -11.794335 -8.818507 -0.229615 -0.151884 -0.961357 0.516634 0.248532
  109 5.839550 -11.793792 -8.809518 -0.974281 0.198223 0.107169 0.516634 0.000000
  109 5.872625 -8.780521 -9.008270 -0.974281 0.198223 0.107169 0.984344 0.000000
$0b_y19s2_lmg_ef.bmp
  110 7.214964 -10.415083 -9.558601 -0.052640 0.998513 -0.014164 0.516634 1.000000
  111 7.206265 -10.416172 -9.576575 0.132325 0.958179 0.253738 0.516634 0.749511
  111 4.486997 -10.300009 -8.267956 -0.072427 -0.982293 -0.172783 0.984344 0.749511
$0b_y19s2_lmg_ef.bmp
  111 4.486997 -10.300009 -8.267956 -0.072427 -0.982293 -0.172783 0.984344 0.749511
  111 7.206265 -10.416172 -9.576575 0.132325 0.958179 0.253738 0.516634 0.749511
  112 4.495693 -10.298921 -8.249978 0.484034 0.461690 0.743339 0.984344 0.499022
$0b_y19s2_lmg_ef.bmp
  111 7.206265 -10.416172 -9.576575 0.132325 0.958179 0.253738 0.516634 0.749511
  112 7.214962 -10.415081 -9.558597 0.296425 0.821385 0.487298 0.516634 0.499022
  112 4.495693 -10.298921 -8.249978 0.484034 0.461690 0.743339 0.984344 0.499022
$0b_y19s2_lmg_ef.bmp
  112 4.495693 -10.298921 -8.249978 0.484034 0.461690 0.743339 0.984344 0.499022
  112 7.214962 -10.415081 -9.558597 0.296425 0.821385 0.487298 0.516634 0.499022
  113 4.491346 -10.299461 -8.258966 0.232783 -0.925543 0.298633 0.984344 0.248532
$0b_y19s2_lmg_ef.bmp
  112 7.214962 -10.415081 -9.558597 0.296425 0.821385 0.487298 0.516634 0.499022
  113 7.210614 -10.415624 -9.567585 0.329234 0.779674 0.532648 0.516634 0.248532
  113 4.491346 -10.299461 -8.258966 0.232783 -0.925543 0.298633 0.984344 0.248532
$0b_y19s2_lmg_ef.bmp
  113 4.491346 -10.299461 -8.258966 0.232783 -0.925543 0.298633 0.984344 0.248532
  113 7.210614 -10.415624 -9.567585 0.329234 0.779674 0.532648 0.516634 0.248532
  109 4.495686 -10.298919 -8.249979 0.051387 -0.998603 0.012314 0.984344 0.000000
$0b_y19s2_lmg_ef.bmp
  113 7.210614 -10.415624 -9.567585 0.329234 0.779674 0.532648 0.516634 0.248532
  109 7.214956 -10.415082 -9.558595 0.051387 -0.998603 0.012314 0.516634 0.000000
  109 4.495686 -10.298919 -8.249979 0.051387 -0.998603 0.012314 0.984344 0.000000
$0b_y19s2_lmg_ef.bmp
  122 10.183364 -11.496290 -1.573639 0.935372 -0.087862 0.342578 0.516634 1.000000
  123 10.180399 -11.476503 -1.608855 0.223964 -0.277533 -0.934246 0.516634 0.749511
  123 10.239943 -8.462113 -1.782948 0.849319 -0.159456 -0.503221 0.984344 0.749511
$0b_y19s2_lmg_ef.bmp
  123 10.239943 -8.462113 -1.782948 0.849319 -0.159456 -0.503221 0.984344 0.749511
  123 10.180399 -11.476503 -1.608855 0.223964 -0.277533 -0.934246 0.516634 0.749511
  124 10.221427 -8.483270 -1.775353 0.160817 -0.193708 -0.967789 0.984344 0.499022
$0b_y19s2_lmg_ef.bmp
  123 10.180399 -11.476503 -1.608855 0.223964 -0.277533 -0.934246 0.516634 0.749511
  124 10.183371 -11.496286 -1.573642 0.335327 -0.219573 -0.916157 0.516634 0.499022
  124 10.221427 -8.483270 -1.775353 0.160817 -0.193708 -0.967789 0.984344 0.499022
$0b_y19s2_lmg_ef.bmp
  124 10.221427 -8.483270 -1.775353 0.160817 -0.193708 -0.967789 0.984344 0.499022
  124 10.183371 -11.496286 -1.573642 0.335327 -0.219573 -0.916157 0.516634 0.499022
  125 10.215585 -8.483738 -1.783457 0.349527 -0.228776 -0.908566 0.984344 0.248532
$0b_y19s2_lmg_ef.bmp
  124 10.183371 -11.496286 -1.573642 0.335327 -0.219573 -0.916157 0.516634 0.499022
  125 10.177528 -11.496753 -1.581746 -0.615193 -0.055453 -0.786424 0.516634 0.248532
  125 10.215585 -8.483738 -1.783457 0.349527 -0.228776 -0.908566 0.984344 0.248532
$0b_y19s2_lmg_ef.bmp
  125 10.215585 -8.483738 -1.783457 0.349527 -0.228776 -0.908566 0.984344 0.248532
  125 10.177528 -11.496753 -1.581746 -0.615193 -0.055453 -0.786424 0.516634 0.248532
  121 10.221423 -8.483273 -1.775356 -0.863573 0.214932 0.456121 0.984344 0.000000
$0b_y19s2_lmg_ef.bmp
  125 10.177528 -11.496753 -1.581746 -0.615193 -0.055453 -0.786424 0.516634 0.248532
  121 10.183369 -11.496289 -1.573641 -0.863573 0.214932 0.456121 0.516634 0.000000
  121 10.221423 -8.483273 -1.775356 -0.863573 0.214932 0.456121 0.984344 0.000000
$0b_y19s2_lmg_ef.bmp
  122 11.426745 -10.153905 -2.547552 0.488975 0.605006 0.628387 0.516634 1.000000
  123 11.433808 -10.134119 -2.569829 -0.109201 0.987619 -0.112619 0.516634 0.749511
  123 8.982985 -9.984163 -0.811598 -0.342369 0.846583 -0.407531 0.984344 0.749511
$0b_y19s2_lmg_ef.bmp
  123 8.982985 -9.984163 -0.811598 -0.342369 0.846583 -0.407531 0.984344 0.749511
  123 11.433808 -10.134119 -2.569829 -0.109201 0.987619 -0.112619 0.516634 0.749511
  124 8.975779 -10.005240 -0.789419 -0.220087 0.942326 -0.252157 0.984344 0.499022
$0b_y19s2_lmg_ef.bmp
  123 11.433808 -10.134119 -2.569829 -0.109201 0.987619 -0.112619 0.516634 0.749511
  124 11.426751 -10.153899 -2.547553 -0.604649 0.263874 -0.751512 0.516634 0.499022
  124 8.975779 -10.005240 -0.789419 -0.220087 0.942326 -0.252157 0.984344 0.499022
$0b_y19s2_lmg_ef.bmp
  124 8.975779 -10.005240 -0.789419 -0.220087 0.942326 -0.252157 0.984344 0.499022
  124 11.426751 -10.153899 -2.547553 -0.604649 0.263874 -0.751512 0.516634 0.499022
  125 8.969937 -10.005708 -0.797523 -0.221032 -0.927728 -0.300775 0.984344 0.248532
$0b_y19s2_lmg_ef.bmp
  124 11.426751 -10.153899 -2.547553 -0.604649 0.263874 -0.751512 0.516634 0.499022
  125 11.420909 -10.154367 -2.555657 0.391093 -0.790962 0.470559 0.516634 0.248532
  125 8.969937 -10.005708 -0.797523 -0.221032 -0.927728 -0.300775 0.984344 0.248532
$0b_y19s2_lmg_ef.bmp
  125 8.969937 -10.005708 -0.797523 -0.221032 -0.927728 -0.300775 0.984344 0.248532
  125 11.420909 -10.154367 -2.555657 0.391093 -0.790962 0.470559 0.516634 0.248532
  121 8.975777 -10.005243 -0.789418 0.038300 -0.999006 0.022821 0.984344 0.000000
$0b_y19s2_lmg_ef.bmp
  125 11.420909 -10.154367 -2.555657 0.391093 -0.790962 0.470559 0.516634 0.248532
  121 11.426747 -10.153902 -2.547556 0.038300 -0.999006 0.022821 0.516634 0.000000
  121 8.975777 -10.005243 -0.789418 0.038300 -0.999006 0.022821 0.984344 0.000000
$0b_y19s2_lmg_ef.bmp
  118 11.689913 -11.929467 -6.420664 -0.522959 -0.085056 -0.848103 0.516634 1.000000
  117 11.671014 -11.929033 -6.414132 0.708670 0.007532 0.705499 0.516634 0.749511
  117 11.684146 -8.913496 -6.577736 -0.732498 0.299507 0.611345 0.984344 0.749511
$0b_y19s2_lmg_ef.bmp
  117 11.684146 -8.913496 -6.577736 -0.732498 0.299507 0.611345 0.984344 0.749511
  117 11.671014 -11.929033 -6.414132 0.708670 0.007532 0.705499 0.516634 0.749511
  116 11.703042 -8.913933 -6.584269 0.964883 -0.147486 0.217369 0.984344 0.499022
$0b_y19s2_lmg_ef.bmp
  117 11.671014 -11.929033 -6.414132 0.708670 0.007532 0.705499 0.516634 0.749511
  116 11.689910 -11.929469 -6.420665 0.146232 0.187380 0.971342 0.516634 0.499022
  116 11.703042 -8.913933 -6.584269 0.964883 -0.147486 0.217369 0.984344 0.499022
$0b_y19s2_lmg_ef.bmp
  116 11.703042 -8.913933 -6.584269 0.964883 -0.147486 0.217369 0.984344 0.499022
  116 11.689910 -11.929469 -6.420665 0.146232 0.187380 0.971342 0.516634 0.499022
  115 11.693595 -8.913713 -6.581002 0.458210 -0.274790 -0.845301 0.984344 0.248532
$0b_y19s2_lmg_ef.bmp
  116 11.689910 -11.929469 -6.420665 0.146232 0.187380 0.971342 0.516634 0.499022
  115 11.680463 -11.929250 -6.417398 -0.683538 -0.030408 -0.729281 0.516634 0.248532
  115 11.693595 -8.913713 -6.581002 0.458210 -0.274790 -0.845301 0.984344 0.248532
$0b_y19s2_lmg_ef.bmp
  115 11.693595 -8.913713 -6.581002 0.458210 -0.274790 -0.845301 0.984344 0.248532
  115 11.680463 -11.929250 -6.417398 -0.683538 -0.030408 -0.729281 0.516634 0.248532
  119 11.703044 -8.913932 -6.584268 0.522882 0.085087 0.848148 0.984344 0.000000
$0b_y19s2_lmg_ef.bmp
  115 11.680463 -11.929250 -6.417398 -0.683538 -0.030408 -0.729281 0.516634 0.248532
  119 11.689913 -11.929468 -6.420664 0.522882 0.085087 0.848148 0.516634 0.000000
  119 11.703044 -8.913932 -6.584268 0.522882 0.085087 0.848148 0.984344 0.000000
$0b_y19s2_lmg_ef.bmp
  118 11.201957 -10.566747 -7.923526 -0.081461 0.996521 0.017624 0.516634 1.000000
  117 11.183059 -10.566312 -7.916994 -0.948732 0.315262 -0.022754 0.516634 0.749511
  117 12.171492 -10.416010 -5.067291 -0.400302 -0.856702 0.325301 0.984344 0.749511
$0b_y19s2_lmg_ef.bmp
  117 12.171492 -10.416010 -5.067291 -0.400302 -0.856702 0.325301 0.984344 0.749511
  117 11.183059 -10.566312 -7.916994 -0.948732 0.315262 -0.022754 0.516634 0.749511
  116 12.190388 -10.416446 -5.073823 0.459153 -0.887300 0.043327 0.984344 0.499022
$0b_y19s2_lmg_ef.bmp
  117 11.183059 -10.566312 -7.916994 -0.948732 0.315262 -0.022754 0.516634 0.749511
  116 11.201955 -10.566749 -7.923526 0.938267 -0.334389 0.088541 0.516634 0.499022
  116 12.190388 -10.416446 -5.073823 0.459153 -0.887300 0.043327 0.984344 0.499022
$0b_y19s2_lmg_ef.bmp
  116 12.190388 -10.416446 -5.073823 0.459153 -0.887300 0.043327 0.984344 0.499022
  116 11.201955 -10.566749 -7.923526 0.938267 -0.334389 0.088541 0.516634 0.499022
  115 12.180941 -10.416227 -5.070557 -0.181824 0.983220 0.014797 0.984344 0.248532
$0b_y19s2_lmg_ef.bmp
  116 11.201955 -10.566749 -7.923526 0.938267 -0.334389 0.088541 0.516634 0.499022
  115 11.192508 -10.566530 -7.920260 0.988791 0.103445 0.107666 0.516634 0.248532
  115 12.180941 -10.416227 -5.070557 -0.181824 0.983220 0.014797 0.984344 0.248532
$0b_y19s2_lmg_ef.bmp
  115 12.180941 -10.416227 -5.070557 -0.181824 0.983220 0.014797 0.984344 0.248532
  115 11.192508 -10.566530 -7.920260 0.988791 0.103445 0.107666 0.516634 0.248532
  119 12.190391 -10.416445 -5.073823 0.081399 -0.996526 -0.017628 0.984344 0.000000
$0b_y19s2_lmg_ef.bmp
  115 11.192508 -10.566530 -7.920260 0.988791 0.103445 0.107666 0.516634 0.248532
  119 11.201957 -10.566748 -7.923526 0.081399 -0.996526 -0.017628 0.516634 0.000000
  119 12.190391 -10.416445 -5.073823 0.081399 -0.996526 -0.017628 0.984344 0.000000
$0b_y19s2_lmg_ef.bmp
  106 2.970970 -10.401983 -4.329703 -0.376013 -0.207479 -0.903087 0.516634 1.000000
  105 2.949065 -10.397317 -4.328068 0.725498 -0.574418 -0.379074 0.516634 0.749511
  105 3.530962 -7.481525 -4.857170 -0.819599 0.529790 0.218128 0.984344 0.749511
$0b_y19s2_lmg_ef.bmp
  105 3.530962 -7.481525 -4.857170 -0.819599 0.529790 0.218128 0.984344 0.749511
  105 2.949065 -10.397317 -4.328068 0.725498 -0.574418 -0.379074 0.516634 0.749511
  104 3.552977 -7.484484 -4.849248 -0.730741 0.570100 0.375504 0.984344 0.499022
$0b_y19s2_lmg_ef.bmp
  105 2.949065 -10.397317 -4.328068 0.725498 -0.574418 -0.379074 0.516634 0.749511
  104 2.965659 -10.402803 -4.340058 0.580078 0.054761 0.812718 0.516634 0.499022
  104 3.552977 -7.484484 -4.849248 -0.730741 0.570100 0.375504 0.984344 0.499022
$0b_y19s2_lmg_ef.bmp
  104 3.552977 -7.484484 -4.849248 -0.730741 0.570100 0.375504 0.984344 0.499022
  104 2.965659 -10.402803 -4.340058 0.580078 0.054761 0.812718 0.516634 0.499022
  103 3.543805 -7.482381 -4.847788 -0.744838 0.556830 0.367638 0.984344 0.248532
$0b_y19s2_lmg_ef.bmp
  104 2.965659 -10.402803 -4.340058 0.580078 0.054761 0.812718 0.516634 0.499022
  103 2.964987 -10.402766 -4.340617 0.611889 0.027217 0.790475 0.516634 0.248532
  103 3.543805 -7.482381 -4.847788 -0.744838 0.556830 0.367638 0.984344 0.248532
$0b_y19s2_lmg_ef.bmp
  103 3.543805 -7.482381 -4.847788 -0.744838 0.556830 0.367638 0.984344 0.248532
  103 2.964987 -10.402766 -4.340617 0.611889 0.027217 0.790475 0.516634 0.248532
  107 3.543866 -7.482392 -4.847789 0.430199 0.166673 0.887214 0.984344 0.000000
$0b_y19s2_lmg_ef.bmp
  103 2.964987 -10.402766 -4.340617 0.611889 0.027217 0.790475 0.516634 0.248532
  107 2.964915 -10.402749 -4.340614 0.430199 0.166673 0.887214 0.516634 0.000000
  107 3.543866 -7.482392 -4.847789 0.430199 0.166673 0.887214 0.984344 0.000000
$0b_y19s2_lmg_ef.bmp
  106 3.033769 -9.227597 -6.061631 0.020926 0.994465 -0.102960 0.516634 1.000000
  105 3.014069 -9.224507 -6.069702 -0.707369 -0.686093 -0.170017 0.516634 0.749511
  105 3.446689 -8.750884 -3.098015 0.340063 -0.913680 0.222588 0.984344 0.749511
$0b_y19s2_lmg_ef.bmp
  105 3.446689 -8.750884 -3.098015 0.340063 -0.913680 0.222588 0.984344 0.749511
  105 3.014069 -9.224507 -6.069702 -0.707369 -0.686093 -0.170017 0.516634 0.749511
  104 3.456952 -8.751643 -3.089137 0.771313 0.603047 0.203495 0.984344 0.499022
$0b_y19s2_lmg_ef.bmp
  105 3.014069 -9.224507 -6.069702 -0.707369 -0.686093 -0.170017 0.516634 0.749511
  104 3.032606 -9.230046 -6.081655 -0.145568 -0.987604 0.058729 0.516634 0.499022
  104 3.456952 -8.751643 -3.089137 0.771313 0.603047 0.203495 0.984344 0.499022
$0b_y19s2_lmg_ef.bmp
  104 3.456952 -8.751643 -3.089137 0.771313 0.603047 0.203495 0.984344 0.499022
  104 3.032606 -9.230046 -6.081655 -0.145568 -0.987604 0.058729 0.516634 0.499022
  103 3.446960 -8.750048 -3.088089 0.172667 0.983793 -0.048355 0.984344 0.248532
$0b_y19s2_lmg_ef.bmp
  104 3.032606 -9.230046 -6.081655 -0.145568 -0.987604 0.058729 0.516634 0.499022
  103 3.042433 -9.231629 -6.082840 -0.099009 -0.992158 0.076292 0.516634 0.248532
  103 3.446960 -8.750048 -3.088089 0.172667 0.983793 -0.048355 0.984344 0.248532
$0b_y19s2_lmg_ef.bmp
  103 3.446960 -8.750048 -3.088089 0.172667 0.983793 -0.048355 0.984344 0.248532
  103 3.042433 -9.231629 -6.082840 -0.099009 -0.992158 0.076292 0.516634 0.248532
  107 3.445564 -8.751543 -3.097877 -0.012017 -0.994046 0.108294 0.984344 0.000000
$0b_y19s2_lmg_ef.bmp
  103 3.042433 -9.231629 -6.082840 -0.099009 -0.992158 0.076292 0.516634 0.248532
  107 3.043814 -9.230128 -6.073050 -0.080964 -0.993254 0.083019 0.516634 0.000000
  107 3.445564 -8.751543 -3.097877 -0.012017 -0.994046 0.108294 0.984344 0.000000
$0b_y19s2_lmg_ef.bmp
  98 -9.545228 -8.008811 -1.300653 0.687475 -0.021488 -0.725890 0.984344 0.749511
  97 -9.555102 -8.006589 -1.283245 0.980195 -0.157415 0.120163 0.984344 1.000000
  97 -9.731759 -11.059131 -1.002924 0.980195 -0.157415 0.120163 0.516634 1.000000
$0b_y19s2_lmg_ef.bmp
  98 -10.935034 -9.538400 -1.896468 0.783521 0.157097 -0.601178 0.984344 0.749511
  97 -10.945065 -9.535922 -1.879350 0.053305 0.977036 -0.206297 0.984344 1.000000
  97 -8.340663 -9.639414 -0.393289 0.053305 0.977036 -0.206297 0.516634 1.000000
$0b_y19s2_lmg_ef.bmp
  80 -2.910808 -8.172285 -4.847315 -0.936525 0.084471 -0.340274 0.984344 0.749511
  79 -2.900886 -8.172167 -4.847806 0.293381 0.080983 -0.952559 0.984344 1.000000
  79 -2.939424 -11.224149 -4.513559 0.461907 0.064390 -0.884588 0.516634 1.000000
$0b_y19s2_lmg_ef.bmp
  80 -2.938988 -9.616559 -3.197624 -0.800322 0.599290 0.018319 0.984344 0.749511
  79 -2.918808 -9.615335 -3.196975 -0.064322 0.983685 -0.168006 0.984344 1.000000
  79 -2.922822 -9.849741 -6.147947 0.038152 0.982219 -0.183823 0.516634 1.000000
$0b_y19s2_lmg_ef.bmp
  87 -6.276518 -7.704731 -9.182731 0.165076 -0.586935 0.792626 0.984344 0.749511
  88 -6.282831 -7.705955 -9.164197 0.999339 0.033268 -0.014632 0.984344 1.000000
  88 -6.008853 -10.763561 -9.228081 0.999339 0.033268 -0.014632 0.516634 1.000000
$0b_y19s2_lmg_ef.bmp
  87 -7.541528 -9.394686 -9.725963 0.858540 -0.352155 -0.372687 0.984344 0.749511
  88 -7.548593 -9.395554 -9.706784 -0.094096 0.994057 -0.054743 0.984344 1.000000
  88 -4.729238 -9.243276 -8.691873 -0.094096 0.994057 -0.054743 0.516634 1.000000
$0b_y19s2_lmg_ef.bmp
  92 -11.261082 -8.087791 -6.235505 -0.279512 -0.204681 0.938072 0.984344 0.749511
  91 -11.289090 -8.086038 -6.245283 -0.707088 -0.101915 0.699743 0.984344 1.000000
  91 -11.329839 -11.156316 -6.204900 -0.771533 -0.079826 0.631162 0.516634 1.000000
$0b_y19s2_lmg_ef.bmp
  92 -10.768599 -9.650353 -7.607352 0.969593 0.242720 -0.031257 0.984344 0.749511
  91 -10.787748 -9.647447 -7.615486 0.090053 0.991831 -0.090345 0.984344 1.000000
  91 -11.827279 -9.685117 -4.822574 -0.015375 0.995824 -0.089993 0.516634 1.000000
$0b_y19s2_lmg_ef.bmp
  111 5.863937 -8.781610 -9.026246 0.363799 -0.240103 -0.900000 0.984344 0.749511
  110 5.872635 -8.780521 -9.008272 0.974366 -0.198118 -0.106587 0.984344 1.000000
  110 5.839557 -11.793793 -8.809525 0.974366 -0.198118 -0.106587 0.516634 1.000000
$0b_y19s2_lmg_ef.bmp
  111 4.486997 -10.300009 -8.267956 -0.072427 -0.982293 -0.172783 0.984344 0.749511
  110 4.495695 -10.298920 -8.249982 -0.052640 0.998513 -0.014164 0.984344 1.000000
  110 7.214964 -10.415083 -9.558601 -0.052640 0.998513 -0.014164 0.516634 1.000000
$0b_y19s2_lmg_ef.bmp
  123 10.239943 -8.462113 -1.782948 0.849319 -0.159456 -0.503221 0.984344 0.749511
  122 10.221423 -8.483275 -1.775351 0.574330 0.063216 0.816180 0.984344 1.000000
  122 10.183364 -11.496290 -1.573639 0.935372 -0.087862 0.342578 0.516634 1.000000
$0b_y19s2_lmg_ef.bmp
  123 8.982985 -9.984163 -0.811598 -0.342369 0.846583 -0.407531 0.984344 0.749511
  122 8.975775 -10.005244 -0.789415 0.488975 0.605006 0.628387 0.984344 1.000000
  122 11.426745 -10.153905 -2.547552 0.488975 0.605006 0.628387 0.516634 1.000000
$0b_y19s2_lmg_ef.bmp
  117 11.684146 -8.913496 -6.577736 -0.732498 0.299507 0.611345 0.984344 0.749511
  118 11.703044 -8.913931 -6.584268 -0.522959 -0.085056 -0.848103 0.984344 1.000000
  118 11.689913 -11.929467 -6.420664 -0.522959 -0.085056 -0.848103 0.516634 1.000000
$0b_y19s2_lmg_ef.bmp
  117 12.171492 -10.416010 -5.067291 -0.400302 -0.856702 0.325301 0.984344 0.749511
  118 12.190391 -10.416444 -5.073823 -0.081461 0.996521 0.017624 0.984344 1.000000
  118 11.201957 -10.566747 -7.923526 -0.081461 0.996521 0.017624 0.516634 1.000000
$0b_y19s2_lmg_ef.bmp
  105 3.530962 -7.481525 -4.857170 -0.819599 0.529790 0.218128 0.984344 0.749511
  106 3.548381 -7.485425 -4.859503 -0.493158 -0.127154 -0.860597 0.984344 1.000000
  106 2.970970 -10.401983 -4.329703 -0.376013 -0.207479 -0.903087 0.516634 1.000000
$0b_y19s2_lmg_ef.bmp
  105 3.446689 -8.750884 -3.098015 0.340063 -0.913680 0.222588 0.984344 0.749511
  106 3.466462 -8.756385 -3.110032 0.117171 0.990796 -0.067784 0.984344 1.000000
  106 3.033769 -9.227597 -6.061631 0.020926 0.994465 -0.102960 0.516634 1.000000
$0b_y19s2_lmg_ef2.bmp
  77 -2.695997 -8.586087 -5.591623 -0.469856 -0.511118 0.719718 0.000000 1.000000
  77 -3.080858 -8.469304 -5.749240 -0.469856 -0.511118 0.719718 0.000000 0.000000
  77 -2.679573 -9.148192 -5.982223 -0.469856 -0.511118 0.719718 1.000000 1.000000
$0b_y19s2_lmg_ef2.bmp
  77 -2.679573 -9.148192 -5.982223 -0.469856 -0.511118 0.719718 1.000000 1.000000
  77 -3.080858 -8.469304 -5.749240 -0.469856 -0.511118 0.719718 0.000000 0.000000
  77 -3.055040 -9.031605 -6.143259 -0.469856 -0.511118 0.719718 1.000000 0.000000
$0b_y19s2_lmg_ef2.bmp
  77 -2.714309 -8.528791 -3.977969 0.384950 0.620425 0.683290 0.000000 1.000000
  77 -3.144460 -8.369911 -3.852961 0.384950 0.620425 0.683290 0.000000 0.000000
  77 -2.755099 -9.095817 -3.443256 0.384950 0.620425 0.683290 1.000000 1.000000
$0b_y19s2_lmg_ef2.bmp
  77 -2.755099 -9.095817 -3.443256 0.384950 0.620425 0.683290 1.000000 1.000000
  77 -3.144460 -8.369911 -3.852961 0.384950 0.620425 0.683290 0.000000 0.000000
  77 -3.179467 -8.947106 -3.331022 0.384950 0.620425 0.683290 1.000000 0.000000
$0b_y19s2_lmg_ef2.bmp
  83 -6.614107 -8.776848 -9.419051 0.492072 -0.586917 0.642957 0.000000 1.000000
  83 -6.830526 -8.673031 -9.124289 0.492072 -0.586917 0.642957 0.000000 0.000000
  83 -7.028371 -9.258926 -9.530348 0.492072 -0.586917 0.642957 1.000000 1.000000
$0b_y19s2_lmg_ef2.bmp
  83 -7.028371 -9.258926 -9.530348 0.492072 -0.586917 0.642957 1.000000 1.000000
  83 -6.830526 -8.673031 -9.124289 0.492072 -0.586917 0.642957 0.000000 0.000000
  83 -7.235807 -9.155540 -9.231214 0.492072 -0.586917 0.642957 1.000000 0.000000
$0b_y19s2_lmg_ef2.bmp
  83 -5.045380 -8.726327 -9.000553 0.770320 0.566773 -0.292191 0.000000 1.000000
  83 -5.008512 -8.584254 -8.604881 0.770320 0.566773 -0.292191 0.000000 0.000000
  83 -4.591676 -9.297915 -8.822677 0.770320 0.566773 -0.292191 1.000000 1.000000
$0b_y19s2_lmg_ef2.bmp
  83 -4.591676 -9.297915 -8.822677 0.770320 0.566773 -0.292191 1.000000 1.000000
  83 -5.008512 -8.584254 -8.604881 0.770320 0.566773 -0.292191 0.000000 0.000000
  83 -4.558387 -9.135836 -8.417680 0.770320 0.566773 -0.292191 1.000000 0.000000
$0b_y19s2_lmg_ef2.bmp
  89 -11.509592 -8.466333 -5.283455 -0.512748 0.594590 0.619316 0.000000 1.000000
  89 -11.847284 -8.597822 -5.481128 -0.512748 0.594590 0.619316 0.000000 0.000000
  89 -11.579868 -8.967010 -4.772687 -0.512748 0.594590 0.619316 1.000000 1.000000
$0b_y19s2_lmg_ef2.bmp
  89 -11.579868 -8.967010 -4.772687 -0.512748 0.594590 0.619316 1.000000 1.000000
  89 -11.847284 -8.597822 -5.481128 -0.512748 0.594590 0.619316 0.000000 0.000000
  89 -11.940363 -9.117981 -4.971058 -0.512748 0.594590 0.619316 1.000000 0.000000
$0b_y19s2_lmg_ef2.bmp
  89 -10.759410 -9.024371 -7.483823 -0.216434 0.481371 -0.849376 0.000000 1.000000
  89 -11.153634 -9.165656 -7.423604 -0.216434 0.481371 -0.849376 0.000000 0.000000
  89 -10.897300 -8.492819 -7.069651 -0.216434 0.481371 -0.849376 1.000000 1.000000
$0b_y19s2_lmg_ef2.bmp
  89 -10.897300 -8.492819 -7.069651 -0.216434 0.481371 -0.849376 1.000000 1.000000
  89 -11.153634 -9.165656 -7.423604 -0.216434 0.481371 -0.849376 0.000000 0.000000
  89 -11.286457 -8.624161 -7.022679 -0.216434 0.481371 -0.849376 1.000000 0.000000
$0b_y19s2_lmg_ef2.bmp
  95 -10.361695 -8.269509 -1.490159 -0.845999 0.523118 0.103120 0.000000 1.000000
  95 -10.261783 -8.093250 -2.065268 -0.845999 0.523118 0.103120 0.000000 0.000000
  95 -10.882327 -9.047450 -1.776429 -0.845999 0.523118 0.103120 1.000000 1.000000
$0b_y19s2_lmg_ef2.bmp
  95 -10.882327 -9.047450 -1.776429 -0.845999 0.523118 0.103120 1.000000 1.000000
  95 -10.261783 -8.093250 -2.065268 -0.845999 0.523118 0.103120 0.000000 0.000000
  95 -10.791072 -8.870964 -2.346539 -0.845999 0.523118 0.103120 1.000000 0.000000
$0b_y19s2_lmg_ef2.bmp
  95 -8.707507 -8.289613 -1.024803 0.329673 0.633681 0.699831 0.000000 1.000000
  95 -9.035229 -8.390904 -0.767629 0.329673 0.633681 0.699831 0.000000 0.000000
  95 -8.331287 -8.828468 -0.728840 0.329673 0.633681 0.699831 1.000000 1.000000
$0b_y19s2_lmg_ef2.bmp
  95 -8.331287 -8.828468 -0.728840 0.329673 0.633681 0.699831 1.000000 1.000000
  95 -9.035229 -8.390904 -0.767629 0.329673 0.633681 0.699831 0.000000 0.000000
  95 -8.664256 -8.939651 -0.480304 0.329673 0.633681 0.699831 1.000000 0.000000
$0b_y19s2_lmg_ef2.bmp
  102 3.274069 -8.897622 -3.650724 -0.459619 0.578313 0.674021 0.000000 1.000000
  102 3.379320 -9.409541 -3.158931 -0.459619 0.578313 0.674021 1.000000 1.000000
  102 3.662535 -8.749264 -3.572722 -0.459619 0.578313 0.674021 0.000000 0.000000
$0b_y19s2_lmg_ef2.bmp
  102 3.662535 -8.749264 -3.572722 -0.459619 0.578313 0.674021 0.000000 0.000000
  102 3.379320 -9.409541 -3.158931 -0.459619 0.578313 0.674021 1.000000 1.000000
  102 3.767786 -9.261184 -3.080929 -0.459619 0.578313 0.674021 1.000000 0.000000
$0b_y19s2_lmg_ef2.bmp
  102 3.098798 -8.976292 -5.260193 0.488242 -0.590502 0.642594 0.000000 1.000000
  102 3.043003 -9.583802 -5.690912 0.488242 -0.590502 0.642594 1.000000 1.000000
  102 3.480481 -8.864298 -5.442060 0.488242 -0.590502 0.642594 0.000000 0.000000
$0b_y19s2_lmg_ef2.bmp
  102 3.480481 -8.864298 -5.442060 0.488242 -0.590502 0.642594 0.000000 0.000000
  102 3.043003 -9.583802 -5.690912 0.488242 -0.590502 0.642594 1.000000 1.000000
  102 3.421907 -9.473009 -5.892548 0.488242 -0.590502 0.642594 1.000000 0.000000
$0b_y19s2_lmg_ef2.bmp
  108 5.124661 -9.179874 -8.774090 -0.770043 0.612950 -0.176992 0.000000 1.000000
  108 4.682722 -9.682273 -8.563174 -0.770043 0.612950 -0.176992 1.000000 1.000000
  108 5.129571 -9.024000 -8.385401 -0.770043 0.612950 -0.176992 0.000000 0.000000
$0b_y19s2_lmg_ef2.bmp
  108 5.129571 -9.024000 -8.385401 -0.770043 0.612950 -0.176992 0.000000 0.000000
  108 4.682722 -9.682273 -8.563174 -0.770043 0.612950 -0.176992 1.000000 1.000000
  108 4.687632 -9.526399 -8.174485 -0.770043 0.612950 -0.176992 1.000000 0.000000
$0b_y19s2_lmg_ef2.bmp
  108 6.582422 -9.237762 -9.409135 -0.487057 -0.531634 0.692922 0.000000 1.000000
  108 6.967950 -9.771123 -9.529941 -0.487057 -0.531634 0.692922 1.000000 1.000000
  108 6.834685 -9.101706 -9.127795 -0.487057 -0.531634 0.692922 0.000000 0.000000
$0b_y19s2_lmg_ef2.bmp
  108 6.834685 -9.101706 -9.127795 -0.487057 -0.531634 0.692922 0.000000 0.000000
  108 6.967950 -9.771123 -9.529941 -0.487057 -0.531634 0.692922 1.000000 1.000000
  108 7.229217 -9.635452 -9.252934 -0.487057 -0.531634 0.692922 1.000000 0.000000
$0b_y19s2_lmg_ef2.bmp
  114 10.890847 -9.608065 -7.839502 0.183473 0.562500 -0.806183 0.000000 1.000000
  114 11.052005 -9.048385 -7.445944 0.183473 0.562500 -0.806183 1.000000 1.000000
  114 11.299015 -9.724621 -7.843173 0.183473 0.562500 -0.806183 0.000000 0.000000
$0b_y19s2_lmg_ef2.bmp
  114 11.299015 -9.724621 -7.843173 0.183473 0.562500 -0.806183 0.000000 0.000000
  114 11.052005 -9.048385 -7.445944 0.183473 0.562500 -0.806183 1.000000 1.000000
  114 11.460173 -9.164942 -7.449616 0.183473 0.562500 -0.806183 1.000000 0.000000
$0b_y19s2_lmg_ef2.bmp
  114 11.790021 -8.895101 -5.711575 0.713972 0.591887 0.374051 0.000000 1.000000
  114 11.906772 -9.407938 -5.186344 0.713972 0.591887 0.374051 1.000000 1.000000
  114 12.106199 -9.068276 -5.946185 0.713972 0.591887 0.374051 0.000000 0.000000
$0b_y19s2_lmg_ef2.bmp
  114 12.106199 -9.068276 -5.946185 0.713972 0.591887 0.374051 0.000000 0.000000
  114 11.906772 -9.407938 -5.186344 0.713972 0.591887 0.374051 1.000000 1.000000
  114 12.230139 -9.582154 -5.433088 0.713972 0.591887 0.374051 1.000000 0.000000
$0b_y19s2_lmg_ef2.bmp
  120 11.053205 -8.815195 -2.028197 0.860824 0.491791 -0.130859 0.000000 1.000000
  120 11.421844 -9.415876 -2.247486 0.860824 0.491791 -0.130859 1.000000 1.000000
  120 10.963073 -8.711921 -2.448924 0.860824 0.491791 -0.130859 0.000000 0.000000
$0b_y19s2_lmg_ef2.bmp
  120 10.963073 -8.711921 -2.448924 0.860824 0.491791 -0.130859 0.000000 0.000000
  120 11.421844 -9.415876 -2.247486 0.860824 0.491791 -0.130859 1.000000 1.000000
  120 11.330711 -9.313255 -2.678141 0.860824 0.491791 -0.130859 1.000000 0.000000
$0b_y19s2_lmg_ef2.bmp
  120 9.380245 -8.654839 -1.296016 -0.455084 0.572157 0.682301 0.000000 1.000000
  120 9.017635 -9.231160 -0.989965 -0.455084 0.572157 0.682301 1.000000 1.000000
  120 9.736194 -8.752010 -1.033417 -0.455084 0.572157 0.682301 0.000000 0.000000
$0b_y19s2_lmg_ef2.bmp
  120 9.736194 -8.752010 -1.033417 -0.455084 0.572157 0.682301 0.000000 0.000000
  120 9.017635 -9.231160 -0.989965 -0.455084 0.572157 0.682301 1.000000 1.000000
  120 9.383533 -9.328523 -0.728356 -0.455084 0.572157 0.682301 1.000000 0.000000
$0b_y19s2_lmg_ef2.bmp
  101 9.264578 6.922573 -1.904939 0.570435 0.816020 -0.093361 0.000000 1.000000
  101 9.247848 6.932929 -1.908525 0.570435 0.816020 -0.093361 0.000000 0.000000
  101 9.262946 6.926690 -1.885435 0.570435 0.816020 -0.093361 1.000000 1.000000
$0b_y19s2_lmg_ef2.bmp
  101 9.262946 6.926690 -1.885435 0.570435 0.816020 -0.093361 1.000000 1.000000
  101 9.247848 6.932929 -1.908525 0.570435 0.816020 -0.093361 0.000000 0.000000
  101 9.246216 6.937045 -1.889021 0.570435 0.816020 -0.093361 1.000000 0.000000
$0b_y19s2_lmg_ef2.bmp
  126 -6.984528 11.073971 -6.645885 -0.270649 0.959715 -0.075471 0.000000 1.000000
  126 -7.000822 11.067814 -6.655711 -0.270649 0.959715 -0.075471 0.000000 0.000000
  126 -6.994609 11.073118 -6.628632 -0.270649 0.959715 -0.075471 1.000000 1.000000
$0b_y19s2_lmg_ef2.bmp
  126 -6.994609 11.073118 -6.628632 -0.270649 0.959715 -0.075471 1.000000 1.000000
  126 -7.000822 11.067814 -6.655711 -0.270649 0.959715 -0.075471 0.000000 0.000000
  126 -7.010904 11.066961 -6.638459 -0.270649 0.959715 -0.075471 1.000000 0.000000
end
