// Created by Crowbar 0.34.0.0

$ModelName "weapons/tfa_cso/w_stg44.mdl"

$BodyGroup "studio"
{
	studio "v_stg44_stg44_set"
}

$collisionmodel "v_stg44_stg44_set.smd"
{
	$mass 9
}

$CDMaterials "models\weapons\tfa_cso\stg44"

$attachment "0" "root" -0.10 -14.60 0.20 rotate -0 0 0

$Sequence "idle" {
	"anims\idle.smd"
	fps 30
}