version 1
nodes
  0 "gunkata_root" -1
  1 "slide" 0
  2 "gunkata_knife" 0
  3 "kata_triger" 0
  4 "kata_2" 0
  5 "gunkata_megazine" 0
  6 "gunkata_root001" -1
  7 "slide001" 6
  8 "gunkata_knife001" 6
  9 "kata_triger001" 6
  10 "kata_005" 6
  11 "gunkata_megazine001" 6
  12 "fx01" -1
  13 "fx02" -1
  14 "trail01" -1
  15 "trail02" 14
  16 "root" -1
  17 "Bone01" 16
  18 "Bone_L_Upper" 17
  19 "Bone_Lefthand" 17
  20 "Bone13" 19
  21 "Bone14" 20
  22 "Bone15" 21
  23 "Bone17" 19
  24 "Bone18" 23
  25 "Bone19" 24
  26 "Bone21" 19
  27 "Bone22" 26
  28 "Bone23" 27
  29 "Bone09" 19
  30 "Bone10" 29
  31 "Bone11" 30
  32 "Bone05" 19
  33 "Bone06" 32
  34 "Bone07" 33
  35 "Bone_Se_Hand-L" 19
  36 "Bone04" 16
  37 "Bone_Righthand" 36
  38 "Bone39" 37
  39 "Bone40" 38
  40 "Bone41" 39
  41 "Bone35" 37
  42 "Bone36" 41
  43 "Bone37" 42
  44 "Bone31" 37
  45 "Bone32" 44
  46 "Bone33" 45
  47 "Bone43" 37
  48 "Bone44" 47
  49 "Bone45" 48
  50 "Bone27" 37
  51 "Bone28" 50
  52 "Bone29" 51
  53 "Bone_Se_Hand-R" 37
  54 "Bone_R_Upper" 36
end
skeleton
  time 0
    0 0.000000 0.000000 0.000000 1.570796 -1.570796 0.000000
    1 3.096915 -0.000001 -3.559005 -3.141592 -1.570451 0.000000
    2 -3.157606 0.000000 -1.771385 0.000000 0.000000 0.000000
    3 1.347458 0.000000 -0.036606 0.000001 -3.141592 0.000000
    4 2.980681 -0.000001 -3.026972 0.000000 0.000000 0.000000
    5 -2.772562 0.000000 -3.715392 0.000000 -0.478942 0.000000
    6 -10.000000 0.000000 0.000000 1.570796 -1.570796 0.000000
    7 3.096915 -0.000002 -3.559005 -3.141592 -1.570451 0.000000
    8 -3.157606 0.000001 -1.771385 0.000000 0.000000 0.000000
    9 1.347458 0.000000 -0.036606 0.000001 -3.141592 0.000000
    10 2.980681 -0.000001 -3.026972 0.000000 0.000000 0.000000
    11 -2.772562 -0.000001 -3.715392 0.000000 -0.478942 0.000000
    12 -2.190114 12.446608 0.000000 0.000001 3.141592 0.000000
    13 -2.190114 12.446608 0.000000 0.000001 3.141592 0.000000
    14 19.098476 35.886223 -5.245475 0.986223 -1.014512 -1.333072
    15 0.000002 40.432781 -0.000010 0.000000 0.000000 0.000000
    16 0.001265 -0.569176 -20.601572 0.000000 0.000000 0.000000
    17 9.310103 -5.299614 -12.557959 3.138909 -0.000224 -1.566807
    18 1.257180 8.762585 -0.153713 -1.570562 0.002683 -1.566807
    19 -0.071921 -8.498736 -0.104134 -0.025046 0.287591 0.014898
    20 -0.488518 -2.755602 -0.228260 0.106454 0.010332 -0.264490
    21 0.039887 -1.479790 0.029854 -0.055395 0.000000 0.000001
    22 0.028786 -1.075731 -0.023109 0.002099 0.000000 0.000000
    23 0.250027 -2.820665 -0.238396 0.041826 -0.002921 0.008443
    24 -0.049759 -1.680544 0.100479 0.019826 0.000000 -0.000002
    25 -0.034142 -1.148312 0.084782 -0.040115 0.000000 0.000000
    26 0.957766 -2.746780 -0.090302 -0.017221 -0.162277 0.191558
    27 -0.033420 -1.397129 -0.011257 0.013931 0.000000 -0.000001
    28 -0.022360 -0.957436 0.018784 0.003845 0.000000 0.000000
    29 -1.180681 -2.507217 -0.193859 0.082999 0.013294 -0.477915
    30 -0.024967 -1.123934 0.017597 -0.018065 0.000000 0.000001
    31 -0.020057 -0.890968 0.010090 -0.060797 0.000000 0.000000
    32 0.583510 -1.197277 0.185379 0.158049 -0.404973 -0.364290
    33 1.535927 0.010246 0.005009 -0.002964 -0.012979 0.000887
    34 1.100771 0.004527 -0.010679 -0.002796 0.015973 0.003458
    35 0.120153 -0.050270 -0.054489 0.287569 3.110905 1.561085
    36 -9.310107 -5.231260 -12.513384 0.004984 -3.131565 -1.566847
    37 0.096944 -8.450418 -0.009365 -0.032965 -0.297907 -0.004663
    38 0.447953 -2.798986 -0.200443 0.106456 -0.010396 0.265094
    39 -0.032909 -1.480204 0.004940 -0.055403 0.000000 0.000002
    40 -0.027022 -1.076920 -0.020210 0.002094 0.000000 0.000000
    41 -0.249534 -2.846964 -0.174213 0.041903 -0.000125 -0.008396
    42 0.043235 -1.683941 0.096012 0.019757 0.002823 -0.000167
    43 0.031729 -1.160830 0.058838 -0.040181 0.000642 0.008372
    44 -0.963866 -2.785145 -0.085350 -0.017227 0.162276 -0.191556
    45 0.028479 -1.403067 0.006271 0.013941 0.000000 0.000000
    46 0.021413 -0.957781 0.020046 0.003851 0.000000 0.000000
    47 1.164475 -2.543940 -0.170330 0.083003 -0.013294 0.477915
    48 0.024032 -1.129042 0.017807 -0.018074 0.000000 0.000001
    49 0.014898 -0.883989 -0.019848 -0.060801 0.000000 0.000000
    50 -0.586770 -1.264477 0.200161 -0.152092 -0.410513 -2.814816
    51 1.522835 0.058681 0.016848 0.001410 0.008985 -0.046880
    52 1.117947 0.048424 -0.005766 -0.000243 -0.025198 0.065422
    53 -0.139399 -0.111698 0.014397 0.285382 -0.030687 1.580508
    54 -1.393470 8.839177 -0.239433 1.580804 -0.005023 -1.566847
end
triangles
$0b_gunkatafx01.bmp
  12 -2.190114 13.246607 -0.790001 -1.000000 0.000000 0.000000 0.000000 1.000000
  12 -2.190114 11.656607 -0.799999 -1.000000 0.000000 0.000000 0.000000 0.000000
  12 -2.190114 13.236608 0.799999 -1.000000 0.000000 0.000000 1.000000 1.000000
$0b_gunkatafx01.bmp
  12 -2.190114 13.236608 0.799999 -1.000000 0.000000 0.000000 1.000000 1.000000
  12 -2.190114 11.656607 -0.799999 -1.000000 0.000000 0.000000 0.000000 0.000000
  12 -2.190114 11.646608 0.790001 -1.000000 0.000000 0.000000 1.000000 0.000000
$0b_gunkatafx02.bmp
  13 -2.190114 13.446607 -0.990001 -1.000000 0.000000 0.000000 0.000000 1.000000
  13 -2.190114 11.456607 -0.999999 -1.000000 0.000000 0.000000 0.000000 0.000000
  13 -2.190114 13.436609 0.999999 -1.000000 0.000000 0.000000 1.000000 1.000000
$0b_gunkatafx02.bmp
  13 -2.190114 13.436609 0.999999 -1.000000 0.000000 0.000000 1.000000 1.000000
  13 -2.190114 11.456607 -0.999999 -1.000000 0.000000 0.000000 0.000000 0.000000
  13 -2.190114 11.446609 0.990001 -1.000000 0.000000 0.000000 1.000000 0.000000
end
