version 1
nodes
  0 "Bone01" -1
  1 "Bone_Lefthand" 0
  2 "Bone52" 1
  3 "Bone53" 2
  4 "Bone54" 3
  5 "Bone56" 3
  6 "Bone57" 5
  7 "Bone02" 6
  8 "Bone03" 7
  9 "Bone25" 8
  10 "Bone47" 9
  11 "Bone48" 10
  12 "Bone49" 11
  13 "Bone50" 12
  14 "Bone51" 13
  15 "Bone58" 3
  16 "Bone 04" 1
  17 "Bone17" 16
  18 "Bone18" 17
  19 "Bone19" 18
  20 "Bone21" 16
  21 "Bone22" 20
  22 "Bone23" 21
  23 "Bone05" 16
  24 "Bone06" 23
  25 "Bone07" 24
  26 "Bone04" -1
  27 "Bone_Righthand" 26
  28 "Bone26" 27
  29 "Bone35" 28
  30 "Bone36" 29
  31 "Bone37" 30
  32 "Bone31" 28
  33 "Bone32" 32
  34 "Bone33" 33
  35 "Bone39" 28
  36 "Bone40" 35
  37 "Bone41" 36
  38 "Bone43" 28
  39 "Bone44" 38
  40 "Bone45" 39
  41 "Bone27" 28
  42 "Bone28" 41
  43 "Bone29" 42
  44 "Bone09" 16
  45 "Bone10" 44
  46 "Bone11" 45
  47 "Bone13" 16
  48 "Bone14" 47
  49 "Bone15" 48
end
skeleton
  time 0
    0 8.083127 5.864956 -7.397159 0.870837 -1.203721 -0.568221
    1 0.000000 -8.563281 0.000000 0.347509 -0.125220 -0.169570
    2 -0.725000 -3.341000 0.707000 -1.247039 1.437607 -1.233845
    3 0.000001 1.851472 0.849855 0.000000 0.000000 0.000000
    4 0.000000 -2.655797 1.578303 0.000000 0.000000 0.000000
    5 0.004569 -5.341948 1.579176 0.000000 0.000000 0.000000
    6 0.000000 0.030354 -1.365839 0.000000 0.000000 0.000000
    7 -1.703881 0.381351 1.509396 0.000000 0.000014 0.000000
    8 0.306899 0.000000 0.000000 0.000000 -0.811579 0.000000
    9 0.311222 0.000001 0.000000 0.000000 -0.305433 0.000000
    10 0.293932 -0.000001 0.000000 0.000000 -0.139626 0.000000
    11 0.298254 0.000000 0.000000 0.000000 -0.095991 0.000000
    12 0.306899 0.000000 0.000000 0.000000 0.296708 0.000000
    13 0.298254 -0.000001 0.000000 0.000000 0.471239 0.000000
    14 0.306899 0.000000 0.000000 0.000000 0.401426 0.000000
    15 0.600744 -5.369449 3.607356 0.000000 0.000000 0.000000
    16 -0.003480 -0.404829 0.000000 0.000000 0.000000 0.000000
    17 0.105981 -2.607135 -0.278958 -0.890118 0.000000 -0.148353
    18 0.000000 -1.250579 0.000000 -1.213004 0.000000 0.000000
    19 0.000000 -0.932634 0.000000 -1.483530 0.000000 0.000000
    20 0.763063 -2.490557 -0.278958 -0.349065 0.000000 0.130900
    21 -0.012322 -1.280917 0.000000 -0.200713 0.000000 0.000000
    22 -0.001697 -0.749371 0.000000 -0.724295 0.000000 0.000000
    23 0.354566 0.016267 0.318133 0.342077 -0.443527 -1.083976
    24 1.887165 0.012878 0.000000 -0.301502 -0.049640 -0.559682
    25 1.001874 -0.000270 0.000000 0.000000 0.000000 -0.715584
    26 4.000609 -8.900424 -10.776014 0.141338 0.643704 1.405448
    27 0.089928 -8.543161 -0.000001 0.162661 -0.696867 0.411523
    28 0.000000 -0.359712 0.000000 0.000000 0.000000 0.000000
    29 -0.170479 -2.636146 -0.277655 -1.483539 0.000000 0.000000
    30 0.010598 -1.261177 0.000001 -0.340297 0.000000 0.000000
    31 -0.000001 -0.943233 -0.000002 -0.532326 0.000000 0.000000
    32 -0.827563 -2.508972 -0.277656 -1.265405 0.000000 0.000000
    33 -0.000001 -1.292971 0.000000 -0.558504 0.000000 0.000000
    34 -0.000001 -0.752466 0.000000 -0.445059 0.000000 0.000000
    35 0.444214 -2.561959 -0.277655 -1.605179 -0.046226 -0.024599
    36 0.021022 -1.208186 0.000001 -0.427606 0.000000 0.000000
    37 0.010597 -0.741867 -0.000001 -0.453786 0.000000 0.000000
    38 1.047445 -2.222820 -0.277655 -1.508123 -0.078971 -0.038609
    39 0.000000 -0.996223 -0.000002 -0.689433 0.000000 0.000000
    40 -0.000001 -0.614690 -0.000001 -0.523599 0.000000 0.000000
    41 -0.308254 -0.007813 0.307166 -0.124628 -0.088654 -2.592079
    42 1.978378 0.019542 0.000001 -0.084829 -0.061467 -0.075917
    43 0.982426 0.003185 0.000000 0.000000 0.000000 0.314179
    44 -1.122644 -2.197476 -0.281120 -1.064647 0.000001 -0.087266
    45 0.007812 -0.964973 0.000001 -0.715574 0.000000 0.000000
    46 -0.007812 -0.630317 0.000000 -1.396260 0.000000 0.000000
    47 -0.515544 -2.501512 -0.280215 -1.003564 0.000003 -0.122182
    48 -0.013191 -1.208188 0.000000 -1.090831 0.000000 0.000000
    49 -0.002946 -0.761399 0.000001 -1.343903 0.000000 0.000000
  time 1
    0 7.887809 5.864956 -7.330751 0.848395 -1.206981 -0.549801
    1 0.000000 -8.563281 0.000000 0.365582 -0.121756 -0.187103
    2 -0.725000 -3.341000 0.707000 -1.247039 1.437607 -1.233845
    3 0.000001 1.851472 0.849855 0.000000 0.000000 0.000000
    4 0.000000 -2.655797 1.578303 0.000000 0.000000 0.000000
    5 0.004569 -5.341948 1.579176 0.000000 0.000000 0.000000
    6 0.000000 0.030354 -1.365839 0.000000 0.000000 0.000000
    7 -1.703881 0.381351 1.509396 0.000000 0.000014 0.000000
    8 0.306899 0.000000 0.000000 0.000000 -0.811579 0.000000
    9 0.311222 0.000001 0.000000 0.000000 -0.305433 0.000000
    10 0.293932 -0.000001 0.000000 0.000000 -0.139626 0.000000
    11 0.298254 0.000000 0.000000 0.000000 -0.095991 0.000000
    12 0.306899 0.000000 0.000000 0.000000 0.296708 0.000000
    13 0.298254 -0.000001 0.000000 0.000000 0.471239 0.000000
    14 0.306899 0.000000 0.000000 0.000000 0.401426 0.000000
    15 0.600744 -5.369449 3.607356 0.000000 0.000000 0.000000
    16 -0.003480 -0.404829 0.000000 0.000000 0.000000 0.000000
    17 0.105981 -2.607135 -0.278958 -0.890118 0.000000 -0.148353
    18 0.000000 -1.250579 0.000000 -1.213004 0.000000 0.000000
    19 0.000000 -0.932634 0.000000 -1.483530 0.000000 0.000000
    20 0.763063 -2.490557 -0.278958 -0.349065 0.000000 0.130900
    21 -0.012322 -1.280917 0.000000 -0.200713 0.000000 0.000000
    22 -0.001697 -0.749371 0.000000 -0.724295 0.000000 0.000000
    23 0.354566 0.016267 0.318133 0.342077 -0.443527 -1.083976
    24 1.887165 0.012878 0.000000 -0.301502 -0.049640 -0.559682
    25 1.001874 -0.000270 0.000000 0.000000 0.000000 -0.715584
    26 3.961545 -8.841828 -10.608040 0.138301 0.625303 1.390895
    27 0.089928 -8.543161 -0.000001 0.160544 -0.697241 0.414780
    28 0.000000 -0.359712 0.000000 0.000000 0.000000 0.000000
    29 -0.170479 -2.636146 -0.277655 -1.483539 0.000000 0.000000
    30 0.010598 -1.261177 0.000001 -0.340297 0.000000 0.000000
    31 -0.000001 -0.943233 -0.000002 -0.532326 0.000000 0.000000
    32 -0.827563 -2.508972 -0.277656 -1.265405 0.000000 0.000000
    33 -0.000001 -1.292971 0.000000 -0.558504 0.000000 0.000000
    34 -0.000001 -0.752466 0.000000 -0.445059 0.000000 0.000000
    35 0.444214 -2.561959 -0.277655 -1.605179 -0.046226 -0.024599
    36 0.021022 -1.208186 0.000001 -0.427606 0.000000 0.000000
    37 0.010597 -0.741867 -0.000001 -0.453786 0.000000 0.000000
    38 1.047445 -2.222820 -0.277655 -1.508123 -0.078971 -0.038609
    39 0.000000 -0.996223 -0.000002 -0.689433 0.000000 0.000000
    40 -0.000001 -0.614690 -0.000001 -0.523599 0.000000 0.000000
    41 -0.308254 -0.007813 0.307166 -0.124628 -0.088654 -2.592079
    42 1.978378 0.019542 0.000001 -0.084829 -0.061467 -0.075917
    43 0.982426 0.003185 0.000000 0.000000 0.000000 0.314179
    44 -1.122644 -2.197476 -0.281120 -1.064647 0.000001 -0.087266
    45 0.007812 -0.964973 0.000001 -0.715574 0.000000 0.000000
    46 -0.007812 -0.630317 0.000000 -1.396260 0.000000 0.000000
    47 -0.515544 -2.501512 -0.280215 -1.003564 0.000003 -0.122182
    48 -0.013191 -1.208188 0.000000 -1.090831 0.000000 0.000000
    49 -0.002946 -0.761399 0.000001 -1.343903 0.000000 0.000000
  time 2
    0 7.704210 5.864956 -7.268249 0.775695 -1.215622 -0.488744
    1 0.000000 -8.563281 0.000000 0.386639 -0.116627 -0.207094
    2 -0.725000 -3.341000 0.707000 -1.247039 1.437607 -1.233845
    3 0.000001 1.851472 0.849855 0.000000 0.000000 0.000000
    4 0.000000 -2.655797 1.578303 0.000000 0.000000 0.000000
    5 0.004569 -5.341948 1.579176 0.000000 0.000000 0.000000
    6 0.000000 0.030354 -1.365839 0.000000 0.000000 0.000000
    7 -1.703881 0.381351 1.509396 0.000000 0.000014 0.000000
    8 0.306899 0.000000 0.000000 0.000000 -0.811579 0.000000
    9 0.311222 0.000001 0.000000 0.000000 -0.305433 0.000000
    10 0.293932 -0.000001 0.000000 0.000000 -0.139626 0.000000
    11 0.298254 0.000000 0.000000 0.000000 -0.095991 0.000000
    12 0.306899 0.000000 0.000000 0.000000 0.296708 0.000000
    13 0.298254 -0.000001 0.000000 0.000000 0.471239 0.000000
    14 0.306899 0.000000 0.000000 0.000000 0.401426 0.000000
    15 0.600744 -5.369449 3.607356 0.000000 0.000000 0.000000
    16 -0.003480 -0.404829 0.000000 0.000000 0.000000 0.000000
    17 0.105981 -2.607135 -0.278958 -0.890118 0.000000 -0.148353
    18 0.000000 -1.250579 0.000000 -1.213004 0.000000 0.000000
    19 0.000000 -0.932634 0.000000 -1.483530 0.000000 0.000000
    20 0.763063 -2.490557 -0.278958 -0.349065 0.000000 0.130900
    21 -0.012322 -1.280917 0.000000 -0.200713 0.000000 0.000000
    22 -0.001697 -0.749371 0.000000 -0.724295 0.000000 0.000000
    23 0.354566 0.016267 0.318133 0.342077 -0.443527 -1.083976
    24 1.887165 0.012878 0.000000 -0.301502 -0.049640 -0.559682
    25 1.001874 -0.000270 0.000000 0.000000 0.000000 -0.715584
    26 3.883418 -8.783233 -10.358033 0.139019 0.601764 1.380621
    27 0.089928 -8.543161 -0.000001 0.158321 -0.697661 0.418259
    28 0.000000 -0.359712 0.000000 0.000000 0.000000 0.000000
    29 -0.170479 -2.636146 -0.277655 -1.483539 0.000000 0.000000
    30 0.010598 -1.261177 0.000001 -0.340297 0.000000 0.000000
    31 -0.000001 -0.943233 -0.000002 -0.532326 0.000000 0.000000
    32 -0.827563 -2.508972 -0.277656 -1.265405 0.000000 0.000000
    33 -0.000001 -1.292971 0.000000 -0.558504 0.000000 0.000000
    34 -0.000001 -0.752466 0.000000 -0.445059 0.000000 0.000000
    35 0.444214 -2.561959 -0.277655 -1.605179 -0.046226 -0.024599
    36 0.021022 -1.208186 0.000001 -0.427606 0.000000 0.000000
    37 0.010597 -0.741867 -0.000001 -0.453786 0.000000 0.000000
    38 1.047445 -2.222820 -0.277655 -1.508123 -0.078971 -0.038609
    39 0.000000 -0.996223 -0.000002 -0.689433 0.000000 0.000000
    40 -0.000001 -0.614690 -0.000001 -0.523599 0.000000 0.000000
    41 -0.308254 -0.007813 0.307166 -0.124628 -0.088654 -2.592079
    42 1.978378 0.019542 0.000001 -0.084829 -0.061467 -0.075917
    43 0.982426 0.003185 0.000000 0.000000 0.000000 0.314179
    44 -1.122644 -2.197476 -0.281120 -1.064647 0.000001 -0.087266
    45 0.007812 -0.964973 0.000001 -0.715574 0.000000 0.000000
    46 -0.007812 -0.630317 0.000000 -1.396260 0.000000 0.000000
    47 -0.515544 -2.501512 -0.280215 -1.003564 0.000003 -0.122182
    48 -0.013191 -1.208188 0.000000 -1.090831 0.000000 0.000000
    49 -0.002946 -0.761399 0.000001 -1.343903 0.000000 0.000000
  time 3
    0 7.540142 5.864956 -7.209653 0.659416 -1.224478 -0.388626
    1 0.000000 -8.563281 0.000000 0.408199 -0.110815 -0.227456
    2 -0.725000 -3.341000 0.707000 -1.247039 1.437607 -1.233845
    3 0.000001 1.851472 0.849855 0.000000 0.000000 0.000000
    4 0.000000 -2.655797 1.578303 0.000000 0.000000 0.000000
    5 0.004569 -5.341948 1.579176 0.000000 0.000000 0.000000
    6 0.000000 0.030354 -1.365839 0.000000 0.000000 0.000000
    7 -1.703881 0.381351 1.509396 0.000000 0.000014 0.000000
    8 0.306899 0.000000 0.000000 0.000000 -0.811579 0.000000
    9 0.311222 0.000001 0.000000 0.000000 -0.305433 0.000000
    10 0.293932 -0.000001 0.000000 0.000000 -0.139626 0.000000
    11 0.298254 0.000000 0.000000 0.000000 -0.095991 0.000000
    12 0.306899 0.000000 0.000000 0.000000 0.296708 0.000000
    13 0.298254 -0.000001 0.000000 0.000000 0.471239 0.000000
    14 0.306899 0.000000 0.000000 0.000000 0.401426 0.000000
    15 0.600744 -5.369449 3.607356 0.000000 0.000000 0.000000
    16 -0.003480 -0.404829 0.000000 0.000000 0.000000 0.000000
    17 0.105981 -2.607135 -0.278958 -0.890118 0.000000 -0.148353
    18 0.000000 -1.250579 0.000000 -1.213004 0.000000 0.000000
    19 0.000000 -0.932634 0.000000 -1.483530 0.000000 0.000000
    20 0.763063 -2.490557 -0.278958 -0.349065 0.000000 0.130900
    21 -0.012322 -1.280917 0.000000 -0.200713 0.000000 0.000000
    22 -0.001697 -0.749371 0.000000 -0.724295 0.000000 0.000000
    23 0.354566 0.016267 0.318133 0.342077 -0.443527 -1.083976
    24 1.887165 0.012878 0.000000 -0.301502 -0.049640 -0.559682
    25 1.001874 -0.000270 0.000000 0.000000 0.000000 -0.715584
    26 3.774040 -8.728544 -10.025991 0.140841 0.576905 1.371376
    27 0.089928 -8.543161 -0.000001 0.155972 -0.698128 0.421959
    28 0.000000 -0.359712 0.000000 0.000000 0.000000 0.000000
    29 -0.170479 -2.636146 -0.277655 -1.483539 0.000000 0.000000
    30 0.010598 -1.261177 0.000001 -0.340297 0.000000 0.000000
    31 -0.000001 -0.943233 -0.000002 -0.532326 0.000000 0.000000
    32 -0.827563 -2.508972 -0.277656 -1.265405 0.000000 0.000000
    33 -0.000001 -1.292971 0.000000 -0.558504 0.000000 0.000000
    34 -0.000001 -0.752466 0.000000 -0.445059 0.000000 0.000000
    35 0.444214 -2.561959 -0.277655 -1.605179 -0.046226 -0.024599
    36 0.021022 -1.208186 0.000001 -0.427606 0.000000 0.000000
    37 0.010597 -0.741867 -0.000001 -0.453786 0.000000 0.000000
    38 1.047445 -2.222820 -0.277655 -1.508123 -0.078971 -0.038609
    39 0.000000 -0.996223 -0.000002 -0.689433 0.000000 0.000000
    40 -0.000001 -0.614690 -0.000001 -0.523599 0.000000 0.000000
    41 -0.308254 -0.007813 0.307166 -0.124628 -0.088654 -2.592079
    42 1.978378 0.019542 0.000001 -0.084829 -0.061467 -0.075917
    43 0.982426 0.003185 0.000000 0.000000 0.000000 0.314179
    44 -1.122644 -2.197476 -0.281120 -1.064647 0.000001 -0.087266
    45 0.007812 -0.964973 0.000001 -0.715574 0.000000 0.000000
    46 -0.007812 -0.630317 0.000000 -1.396260 0.000000 0.000000
    47 -0.515544 -2.501512 -0.280215 -1.003564 0.000003 -0.122182
    48 -0.013191 -1.208188 0.000000 -1.090831 0.000000 0.000000
    49 -0.002946 -0.761399 0.000001 -1.343903 0.000000 0.000000
  time 4
    0 7.387794 5.864956 -7.154964 0.532644 -1.228493 -0.277780
    1 0.000000 -8.563281 0.000000 0.427878 -0.105397 -0.246235
    2 -0.725000 -3.341000 0.707000 -1.247039 1.437607 -1.233845
    3 0.000001 1.851472 0.849855 0.000000 0.000000 0.000000
    4 0.000000 -2.655797 1.578303 0.000000 0.000000 0.000000
    5 0.004569 -5.341948 1.579176 0.000000 0.000000 0.000000
    6 0.000000 0.030354 -1.365839 0.000000 0.000000 0.000000
    7 -1.703881 0.381351 1.509396 0.000000 0.000014 0.000000
    8 0.306899 0.000000 0.000000 0.000000 -0.811579 0.000000
    9 0.311222 0.000001 0.000000 0.000000 -0.305433 0.000000
    10 0.293932 -0.000001 0.000000 0.000000 -0.139626 0.000000
    11 0.298254 0.000000 0.000000 0.000000 -0.095991 0.000000
    12 0.306899 0.000000 0.000000 0.000000 0.296708 0.000000
    13 0.298254 -0.000001 0.000000 0.000000 0.471239 0.000000
    14 0.306899 0.000000 0.000000 0.000000 0.401426 0.000000
    15 0.600744 -5.369449 3.607356 0.000000 0.000000 0.000000
    16 -0.003480 -0.404829 0.000000 0.000000 0.000000 0.000000
    17 0.105981 -2.607135 -0.278958 -0.890118 0.000000 -0.148353
    18 0.000000 -1.250579 0.000000 -1.213004 0.000000 0.000000
    19 0.000000 -0.932634 0.000000 -1.483530 0.000000 0.000000
    20 0.763063 -2.490557 -0.278958 -0.349065 0.000000 0.130900
    21 -0.012322 -1.280917 0.000000 -0.200713 0.000000 0.000000
    22 -0.001697 -0.749371 0.000000 -0.724295 0.000000 0.000000
    23 0.354566 0.016267 0.318133 0.342077 -0.443527 -1.083976
    24 1.887165 0.012878 0.000000 -0.301502 -0.049640 -0.559682
    25 1.001874 -0.000270 0.000000 0.000000 0.000000 -0.715584
    26 3.609972 -8.693386 -9.533789 0.141228 0.554616 1.360332
    27 0.089928 -8.543161 -0.000001 0.153474 -0.698595 0.425792
    28 0.000000 -0.359712 0.000000 0.000000 0.000000 0.000000
    29 -0.170479 -2.636146 -0.277655 -1.483539 0.000000 0.000000
    30 0.010598 -1.261177 0.000001 -0.340297 0.000000 0.000000
    31 -0.000001 -0.943233 -0.000002 -0.532326 0.000000 0.000000
    32 -0.827563 -2.508972 -0.277656 -1.265405 0.000000 0.000000
    33 -0.000001 -1.292971 0.000000 -0.558504 0.000000 0.000000
    34 -0.000001 -0.752466 0.000000 -0.445059 0.000000 0.000000
    35 0.444214 -2.561959 -0.277655 -1.605179 -0.046226 -0.024599
    36 0.021022 -1.208186 0.000001 -0.427606 0.000000 0.000000
    37 0.010597 -0.741867 -0.000001 -0.453786 0.000000 0.000000
    38 1.047445 -2.222820 -0.277655 -1.508123 -0.078971 -0.038609
    39 0.000000 -0.996223 -0.000002 -0.689433 0.000000 0.000000
    40 -0.000001 -0.614690 -0.000001 -0.523599 0.000000 0.000000
    41 -0.308254 -0.007813 0.307166 -0.124628 -0.088654 -2.592079
    42 1.978378 0.019542 0.000001 -0.084829 -0.061467 -0.075917
    43 0.982426 0.003185 0.000000 0.000000 0.000000 0.314179
    44 -1.122644 -2.197476 -0.281120 -1.064647 0.000001 -0.087266
    45 0.007812 -0.964973 0.000001 -0.715574 0.000000 0.000000
    46 -0.007812 -0.630317 0.000000 -1.396260 0.000000 0.000000
    47 -0.515544 -2.501512 -0.280215 -1.003564 0.000003 -0.122182
    48 -0.013191 -1.208188 0.000000 -1.090831 0.000000 0.000000
    49 -0.002946 -0.761399 0.000001 -1.343903 0.000000 0.000000
  time 5
    0 7.254977 5.864956 -7.111994 0.402659 -1.227331 -0.163414
    1 0.000000 -8.563281 0.000000 0.443350 -0.101658 -0.261600
    2 -0.725000 -3.341000 0.707000 -1.247039 1.437607 -1.233845
    3 0.000001 1.851472 0.849855 0.000000 0.000000 0.000000
    4 0.000000 -2.655797 1.578303 0.000000 0.000000 0.000000
    5 0.004569 -5.341948 1.579176 0.000000 0.000000 0.000000
    6 0.000000 0.030354 -1.365839 0.000000 0.000000 0.000000
    7 -1.703881 0.381351 1.509396 0.000000 0.000014 0.000000
    8 0.306899 0.000000 0.000000 0.000000 -0.811579 0.000000
    9 0.311222 0.000001 0.000000 0.000000 -0.305433 0.000000
    10 0.293932 -0.000001 0.000000 0.000000 -0.139626 0.000000
    11 0.298254 0.000000 0.000000 0.000000 -0.095991 0.000000
    12 0.306899 0.000000 0.000000 0.000000 0.296708 0.000000
    13 0.298254 -0.000001 0.000000 0.000000 0.471239 0.000000
    14 0.306899 0.000000 0.000000 0.000000 0.401426 0.000000
    15 0.600744 -5.369449 3.607356 0.000000 0.000000 0.000000
    16 -0.003480 -0.404829 0.000000 0.000000 0.000000 0.000000
    17 0.105981 -2.607135 -0.278958 -0.890118 0.000000 -0.148353
    18 0.000000 -1.250579 0.000000 -1.213004 0.000000 0.000000
    19 0.000000 -0.932634 0.000000 -1.483530 0.000000 0.000000
    20 0.763063 -2.490557 -0.278958 -0.349065 0.000000 0.130900
    21 -0.012322 -1.280917 0.000000 -0.200713 0.000000 0.000000
    22 -0.001697 -0.749371 0.000000 -0.724295 0.000000 0.000000
    23 0.354566 0.016267 0.318133 0.342077 -0.443527 -1.083976
    24 1.887165 0.012878 0.000000 -0.301502 -0.049640 -0.559682
    25 1.001874 -0.000270 0.000000 0.000000 0.000000 -0.715584
    26 3.402935 -8.669948 -8.916582 0.137915 0.538645 1.344580
    27 0.089928 -8.543161 -0.000001 0.150933 -0.699015 0.429780
    28 0.000000 -0.359712 0.000000 0.000000 0.000000 0.000000
    29 -0.170479 -2.636146 -0.277655 -1.483539 0.000000 0.000000
    30 0.010598 -1.261177 0.000001 -0.340297 0.000000 0.000000
    31 -0.000001 -0.943233 -0.000002 -0.532326 0.000000 0.000000
    32 -0.827563 -2.508972 -0.277656 -1.265405 0.000000 0.000000
    33 -0.000001 -1.292971 0.000000 -0.558504 0.000000 0.000000
    34 -0.000001 -0.752466 0.000000 -0.445059 0.000000 0.000000
    35 0.444214 -2.561959 -0.277655 -1.605179 -0.046226 -0.024599
    36 0.021022 -1.208186 0.000001 -0.427606 0.000000 0.000000
    37 0.010597 -0.741867 -0.000001 -0.453786 0.000000 0.000000
    38 1.047445 -2.222820 -0.277655 -1.508123 -0.078971 -0.038609
    39 0.000000 -0.996223 -0.000002 -0.689433 0.000000 0.000000
    40 -0.000001 -0.614690 -0.000001 -0.523599 0.000000 0.000000
    41 -0.308254 -0.007813 0.307166 -0.124628 -0.088654 -2.592079
    42 1.978378 0.019542 0.000001 -0.084829 -0.061467 -0.075917
    43 0.982426 0.003185 0.000000 0.000000 0.000000 0.314179
    44 -1.122644 -2.197476 -0.281120 -1.064647 0.000001 -0.087266
    45 0.007812 -0.964973 0.000001 -0.715574 0.000000 0.000000
    46 -0.007812 -0.630317 0.000000 -1.396260 0.000000 0.000000
    47 -0.515544 -2.501512 -0.280215 -1.003564 0.000003 -0.122182
    48 -0.013191 -1.208188 0.000000 -1.090831 0.000000 0.000000
    49 -0.002946 -0.761399 0.000001 -1.343903 0.000000 0.000000
  time 6
    0 7.133880 5.864956 -7.069024 0.275937 -1.221398 -0.052460
    1 0.000000 -8.563281 0.000000 0.452326 -0.100999 -0.271667
    2 -0.725000 -3.341000 0.707000 -1.247039 1.437607 -1.233845
    3 0.000001 1.851472 0.849855 0.000000 0.000000 0.000000
    4 0.000000 -2.655797 1.578303 0.000000 0.000000 0.000000
    5 0.004569 -5.341948 1.579176 0.000000 0.000000 0.000000
    6 0.000000 0.030354 -1.365839 0.000000 0.000000 0.000000
    7 -1.703881 0.381351 1.509396 0.000000 0.000014 0.000000
    8 0.306899 0.000000 0.000000 0.000000 -0.811579 0.000000
    9 0.311222 0.000001 0.000000 0.000000 -0.305433 0.000000
    10 0.293932 -0.000001 0.000000 0.000000 -0.139626 0.000000
    11 0.298254 0.000000 0.000000 0.000000 -0.095991 0.000000
    12 0.306899 0.000000 0.000000 0.000000 0.296708 0.000000
    13 0.298254 -0.000001 0.000000 0.000000 0.471239 0.000000
    14 0.306899 0.000000 0.000000 0.000000 0.401426 0.000000
    15 0.600744 -5.369449 3.607356 0.000000 0.000000 0.000000
    16 -0.003480 -0.404829 0.000000 0.000000 0.000000 0.000000
    17 0.105981 -2.607135 -0.278958 -0.890118 0.000000 -0.148353
    18 0.000000 -1.250579 0.000000 -1.213004 0.000000 0.000000
    19 0.000000 -0.932634 0.000000 -1.483530 0.000000 0.000000
    20 0.763063 -2.490557 -0.278958 -0.349065 0.000000 0.130900
    21 -0.012322 -1.280917 0.000000 -0.200713 0.000000 0.000000
    22 -0.001697 -0.749371 0.000000 -0.724295 0.000000 0.000000
    23 0.354566 0.016267 0.318133 0.342077 -0.443527 -1.083976
    24 1.887165 0.012878 0.000000 -0.301502 -0.049640 -0.559682
    25 1.001874 -0.000270 0.000000 0.000000 0.000000 -0.715584
    26 3.180272 -8.626978 -8.307189 0.128196 0.532673 1.321636
    27 0.089928 -8.543161 -0.000001 0.148287 -0.699529 0.433857
    28 0.000000 -0.359712 0.000000 0.000000 0.000000 0.000000
    29 -0.170479 -2.636146 -0.277655 -1.483539 0.000000 0.000000
    30 0.010598 -1.261177 0.000001 -0.340297 0.000000 0.000000
    31 -0.000001 -0.943233 -0.000002 -0.532326 0.000000 0.000000
    32 -0.827563 -2.508972 -0.277656 -1.265405 0.000000 0.000000
    33 -0.000001 -1.292971 0.000000 -0.558504 0.000000 0.000000
    34 -0.000001 -0.752466 0.000000 -0.445059 0.000000 0.000000
    35 0.444214 -2.561959 -0.277655 -1.605179 -0.046226 -0.024599
    36 0.021022 -1.208186 0.000001 -0.427606 0.000000 0.000000
    37 0.010597 -0.741867 -0.000001 -0.453786 0.000000 0.000000
    38 1.047445 -2.222820 -0.277655 -1.508123 -0.078971 -0.038609
    39 0.000000 -0.996223 -0.000002 -0.689433 0.000000 0.000000
    40 -0.000001 -0.614690 -0.000001 -0.523599 0.000000 0.000000
    41 -0.308254 -0.007813 0.307166 -0.124628 -0.088654 -2.592079
    42 1.978378 0.019542 0.000001 -0.084829 -0.061467 -0.075917
    43 0.982426 0.003185 0.000000 0.000000 0.000000 0.314179
    44 -1.122644 -2.197476 -0.281120 -1.064647 0.000001 -0.087266
    45 0.007812 -0.964973 0.000001 -0.715574 0.000000 0.000000
    46 -0.007812 -0.630317 0.000000 -1.396260 0.000000 0.000000
    47 -0.515544 -2.501512 -0.280215 -1.003564 0.000003 -0.122182
    48 -0.013191 -1.208188 0.000000 -1.090831 0.000000 0.000000
    49 -0.002946 -0.761399 0.000001 -1.343903 0.000000 0.000000
  time 7
    0 7.032314 5.864956 -7.033867 0.157650 -1.211895 0.049717
    1 0.000000 -8.563281 0.000000 0.453357 -0.103576 -0.274675
    2 -0.725000 -3.341000 0.707000 -1.247039 1.437607 -1.233845
    3 0.000001 1.851472 0.849855 0.000000 0.000000 0.000000
    4 0.000000 -2.655797 1.578303 0.000000 0.000000 0.000000
    5 0.004569 -5.341948 1.579176 0.000000 0.000000 0.000000
    6 0.000000 0.030354 -1.365839 0.000000 0.000000 0.000000
    7 -1.703881 0.381351 1.509396 0.000000 0.000014 0.000000
    8 0.306899 0.000000 0.000000 0.000000 -0.811579 0.000000
    9 0.311222 0.000001 0.000000 0.000000 -0.305433 0.000000
    10 0.293932 -0.000001 0.000000 0.000000 -0.139626 0.000000
    11 0.298254 0.000000 0.000000 0.000000 -0.095991 0.000000
    12 0.306899 0.000000 0.000000 0.000000 0.296708 0.000000
    13 0.298254 -0.000001 0.000000 0.000000 0.471239 0.000000
    14 0.306899 0.000000 0.000000 0.000000 0.401426 0.000000
    15 0.600744 -5.369449 3.607356 0.000000 0.000000 0.000000
    16 -0.003480 -0.404829 0.000000 0.000000 0.000000 0.000000
    17 0.105981 -2.607135 -0.278958 -0.890118 0.000000 -0.148353
    18 0.000000 -1.250579 0.000000 -1.213004 0.000000 0.000000
    19 0.000000 -0.932634 0.000000 -1.483530 0.000000 0.000000
    20 0.763063 -2.490557 -0.278958 -0.349065 0.000000 0.130900
    21 -0.012322 -1.280917 0.000000 -0.200713 0.000000 0.000000
    22 -0.001697 -0.749371 0.000000 -0.724295 0.000000 0.000000
    23 0.354566 0.016267 0.318133 0.342077 -0.443527 -1.083976
    24 1.887165 0.012878 0.000000 -0.301502 -0.049640 -0.559682
    25 1.001874 -0.000270 0.000000 0.000000 0.000000 -0.715584
    26 2.965421 -8.525413 -7.834518 0.109366 0.540103 1.287906
    27 0.089928 -8.543161 -0.000001 0.145599 -0.699996 0.438022
    28 0.000000 -0.359712 0.000000 0.000000 0.000000 0.000000
    29 -0.170479 -2.636146 -0.277655 -1.483539 0.000000 0.000000
    30 0.010598 -1.261177 0.000001 -0.340297 0.000000 0.000000
    31 -0.000001 -0.943233 -0.000002 -0.532326 0.000000 0.000000
    32 -0.827563 -2.508972 -0.277656 -1.265405 0.000000 0.000000
    33 -0.000001 -1.292971 0.000000 -0.558504 0.000000 0.000000
    34 -0.000001 -0.752466 0.000000 -0.445059 0.000000 0.000000
    35 0.444214 -2.561959 -0.277655 -1.605179 -0.046226 -0.024599
    36 0.021022 -1.208186 0.000001 -0.427606 0.000000 0.000000
    37 0.010597 -0.741867 -0.000001 -0.453786 0.000000 0.000000
    38 1.047445 -2.222820 -0.277655 -1.508123 -0.078971 -0.038609
    39 0.000000 -0.996223 -0.000002 -0.689433 0.000000 0.000000
    40 -0.000001 -0.614690 -0.000001 -0.523599 0.000000 0.000000
    41 -0.308254 -0.007813 0.307166 -0.124628 -0.088654 -2.592079
    42 1.978378 0.019542 0.000001 -0.084829 -0.061467 -0.075917
    43 0.982426 0.003185 0.000000 0.000000 0.000000 0.314179
    44 -1.122644 -2.197476 -0.281120 -1.064647 0.000001 -0.087266
    45 0.007812 -0.964973 0.000001 -0.715574 0.000000 0.000000
    46 -0.007812 -0.630317 0.000000 -1.396260 0.000000 0.000000
    47 -0.515544 -2.501512 -0.280215 -1.003564 0.000003 -0.122182
    48 -0.013191 -1.208188 0.000000 -1.090831 0.000000 0.000000
    49 -0.002946 -0.761399 0.000001 -1.343903 0.000000 0.000000
  time 8
    0 6.946374 5.864956 -7.006522 0.050961 -1.200365 0.139758
    1 0.000000 -8.563281 0.000000 0.452806 -0.104618 -0.274759
    2 -0.725000 -3.341000 0.707000 -1.247039 1.437607 -1.233845
    3 0.000001 1.851472 0.849855 0.000000 0.000000 0.000000
    4 0.000000 -2.655797 1.578303 0.000000 0.000000 0.000000
    5 0.004569 -5.341948 1.579176 0.000000 0.000000 0.000000
    6 0.000000 0.030354 -1.365839 0.000000 0.000000 0.000000
    7 -1.703881 0.381351 1.509396 0.000000 0.000014 0.000000
    8 0.306899 0.000000 0.000000 0.000000 -0.811579 0.000000
    9 0.311222 0.000001 0.000000 0.000000 -0.305433 0.000000
    10 0.293932 -0.000001 0.000000 0.000000 -0.139626 0.000000
    11 0.298254 0.000000 0.000000 0.000000 -0.095991 0.000000
    12 0.306899 0.000000 0.000000 0.000000 0.296708 0.000000
    13 0.298254 -0.000001 0.000000 0.000000 0.471239 0.000000
    14 0.306899 0.000000 0.000000 0.000000 0.401426 0.000000
    15 0.600744 -5.369449 3.607356 0.000000 0.000000 0.000000
    16 -0.003480 -0.404829 0.000000 0.000000 0.000000 0.000000
    17 0.105981 -2.607135 -0.278958 -0.890118 0.000000 -0.148353
    18 0.000000 -1.250579 0.000000 -1.213004 0.000000 0.000000
    19 0.000000 -0.932634 0.000000 -1.483530 0.000000 0.000000
    20 0.763063 -2.490557 -0.278958 -0.349065 0.000000 0.130900
    21 -0.012322 -1.280917 0.000000 -0.200713 0.000000 0.000000
    22 -0.001697 -0.749371 0.000000 -0.724295 0.000000 0.000000
    23 0.354566 0.016267 0.318133 0.342077 -0.443527 -1.083976
    24 1.887165 0.012878 0.000000 -0.301502 -0.049640 -0.559682
    25 1.001874 -0.000270 0.000000 0.000000 0.000000 -0.715584
    26 2.766196 -8.345720 -7.561072 0.082860 0.556143 1.245273
    27 0.089928 -8.543161 -0.000001 0.142889 -0.700463 0.442232
    28 0.000000 -0.359712 0.000000 0.000000 0.000000 0.000000
    29 -0.170479 -2.636146 -0.277655 -1.483539 0.000000 0.000000
    30 0.010598 -1.261177 0.000001 -0.340297 0.000000 0.000000
    31 -0.000001 -0.943233 -0.000002 -0.532326 0.000000 0.000000
    32 -0.827563 -2.508972 -0.277656 -1.265405 0.000000 0.000000
    33 -0.000001 -1.292971 0.000000 -0.558504 0.000000 0.000000
    34 -0.000001 -0.752466 0.000000 -0.445059 0.000000 0.000000
    35 0.444214 -2.561959 -0.277655 -1.605179 -0.046226 -0.024599
    36 0.021022 -1.208186 0.000001 -0.427606 0.000000 0.000000
    37 0.010597 -0.741867 -0.000001 -0.453786 0.000000 0.000000
    38 1.047445 -2.222820 -0.277655 -1.508123 -0.078971 -0.038609
    39 0.000000 -0.996223 -0.000002 -0.689433 0.000000 0.000000
    40 -0.000001 -0.614690 -0.000001 -0.523599 0.000000 0.000000
    41 -0.308254 -0.007813 0.307166 -0.124628 -0.088654 -2.592079
    42 1.978378 0.019542 0.000001 -0.084829 -0.061467 -0.075917
    43 0.982426 0.003185 0.000000 0.000000 0.000000 0.314179
    44 -1.122644 -2.197476 -0.281120 -1.064647 0.000001 -0.087266
    45 0.007812 -0.964973 0.000001 -0.715574 0.000000 0.000000
    46 -0.007812 -0.630317 0.000000 -1.396260 0.000000 0.000000
    47 -0.515544 -2.501512 -0.280215 -1.003564 0.000003 -0.122182
    48 -0.013191 -1.208188 0.000000 -1.090831 0.000000 0.000000
    49 -0.002946 -0.761399 0.000001 -1.343903 0.000000 0.000000
  time 9
    0 6.872153 5.864956 -6.975271 -0.043076 -1.188692 0.216364
    1 0.000000 -8.563281 0.000000 0.450529 -0.108202 -0.274603
    2 -0.725000 -3.341000 0.707000 -1.247039 1.437607 -1.233845
    3 0.000001 1.851472 0.849855 0.000000 0.000000 0.000000
    4 0.000000 -2.655797 1.578303 0.000000 0.000000 0.000000
    5 0.004569 -5.341948 1.579176 0.000000 0.000000 0.000000
    6 0.000000 0.030354 -1.365839 0.000000 0.000000 0.000000
    7 -1.703881 0.381351 1.509396 0.000000 0.000014 0.000000
    8 0.306899 0.000000 0.000000 0.000000 -0.811579 0.000000
    9 0.311222 0.000001 0.000000 0.000000 -0.305433 0.000000
    10 0.293932 -0.000001 0.000000 0.000000 -0.139626 0.000000
    11 0.298254 0.000000 0.000000 0.000000 -0.095991 0.000000
    12 0.306899 0.000000 0.000000 0.000000 0.296708 0.000000
    13 0.298254 -0.000001 0.000000 0.000000 0.471239 0.000000
    14 0.306899 0.000000 0.000000 0.000000 0.401426 0.000000
    15 0.600744 -5.369449 3.607356 0.000000 0.000000 0.000000
    16 -0.003480 -0.404829 0.000000 0.000000 0.000000 0.000000
    17 0.105981 -2.607135 -0.278958 -0.890118 0.000000 -0.148353
    18 0.000000 -1.250579 0.000000 -1.213004 0.000000 0.000000
    19 0.000000 -0.932634 0.000000 -1.483530 0.000000 0.000000
    20 0.763063 -2.490557 -0.278958 -0.349065 0.000000 0.130900
    21 -0.012322 -1.280917 0.000000 -0.200713 0.000000 0.000000
    22 -0.001697 -0.749371 0.000000 -0.724295 0.000000 0.000000
    23 0.354566 0.016267 0.318133 0.342077 -0.443527 -1.083976
    24 1.887165 0.012878 0.000000 -0.301502 -0.049640 -0.559682
    25 1.001874 -0.000270 0.000000 0.000000 0.000000 -0.715584
    26 2.563065 -8.119150 -7.377473 0.052709 0.573711 1.197674
    27 0.089928 -8.543161 -0.000001 0.140180 -0.700884 0.446442
    28 0.000000 -0.359712 0.000000 0.000000 0.000000 0.000000
    29 -0.170479 -2.636146 -0.277655 -1.483539 0.000000 0.000000
    30 0.010598 -1.261177 0.000001 -0.340297 0.000000 0.000000
    31 -0.000001 -0.943233 -0.000002 -0.532326 0.000000 0.000000
    32 -0.827563 -2.508972 -0.277656 -1.265405 0.000000 0.000000
    33 -0.000001 -1.292971 0.000000 -0.558504 0.000000 0.000000
    34 -0.000001 -0.752466 0.000000 -0.445059 0.000000 0.000000
    35 0.444214 -2.561959 -0.277655 -1.605179 -0.046226 -0.024599
    36 0.021022 -1.208186 0.000001 -0.427606 0.000000 0.000000
    37 0.010597 -0.741867 -0.000001 -0.453786 0.000000 0.000000
    38 1.047445 -2.222820 -0.277655 -1.508123 -0.078971 -0.038609
    39 0.000000 -0.996223 -0.000002 -0.689433 0.000000 0.000000
    40 -0.000001 -0.614690 -0.000001 -0.523599 0.000000 0.000000
    41 -0.308254 -0.007813 0.307166 -0.124628 -0.088654 -2.592079
    42 1.978378 0.019542 0.000001 -0.084829 -0.061467 -0.075917
    43 0.982426 0.003185 0.000000 0.000000 0.000000 0.314179
    44 -1.122644 -2.197476 -0.281120 -1.064647 0.000001 -0.087266
    45 0.007812 -0.964973 0.000001 -0.715574 0.000000 0.000000
    46 -0.007812 -0.630317 0.000000 -1.396260 0.000000 0.000000
    47 -0.515544 -2.501512 -0.280215 -1.003564 0.000003 -0.122182
    48 -0.013191 -1.208188 0.000000 -1.090831 0.000000 0.000000
    49 -0.002946 -0.761399 0.000001 -1.343903 0.000000 0.000000
  time 10
    0 6.817464 5.864956 -6.955739 -0.124763 -1.178757 0.279534
    1 0.000000 -8.563281 0.000000 0.444944 -0.115477 -0.273117
    2 -0.725000 -3.341000 0.707000 -1.247039 1.437607 -1.233845
    3 0.000001 1.851472 0.849855 0.000000 0.000000 0.000000
    4 0.000000 -2.655797 1.578303 0.000000 0.000000 0.000000
    5 0.004569 -5.341948 1.579176 0.000000 0.000000 0.000000
    6 0.000000 0.030354 -1.365839 0.000000 0.000000 0.000000
    7 -1.703881 0.381351 1.509396 0.000000 -0.046145 0.000000
    8 0.306899 0.000000 0.000000 0.000000 -0.856909 0.000000
    9 0.311222 0.000001 0.000000 0.000000 -0.323312 0.000000
    10 0.293932 -0.000001 0.000000 0.000000 -0.068944 0.000000
    11 0.298254 0.000000 0.000000 0.000000 -0.041714 0.000000
    12 0.306899 0.000000 0.000000 0.000000 0.317988 0.000000
    13 0.298254 -0.000001 0.000000 0.000000 0.494562 0.000000
    14 0.306899 0.000000 0.000000 0.000000 0.384006 0.000000
    15 0.600744 -5.369449 3.607356 0.000000 0.000000 0.000000
    16 -0.003480 -0.404829 0.000000 0.000000 0.000000 0.000000
    17 0.105981 -2.607135 -0.278958 -0.890118 0.000000 -0.148353
    18 0.000000 -1.250579 0.000000 -1.213004 0.000000 0.000000
    19 0.000000 -0.932634 0.000000 -1.483530 0.000000 0.000000
    20 0.763063 -2.490557 -0.278958 -0.349065 0.000000 0.130900
    21 -0.012322 -1.280917 0.000000 -0.200713 0.000000 0.000000
    22 -0.001697 -0.749371 0.000000 -0.724295 0.000000 0.000000
    23 0.354566 0.016267 0.318133 0.342077 -0.443527 -1.083976
    24 1.887165 0.012878 0.000000 -0.301502 -0.049640 -0.559682
    25 1.001874 -0.000270 0.000000 0.000000 0.000000 -0.715584
    26 2.359934 -7.884768 -7.201686 0.018859 0.592112 1.145452
    27 0.089928 -8.543161 -0.000001 0.137470 -0.701351 0.450652
    28 0.000000 -0.359712 0.000000 0.000000 0.000000 0.000000
    29 -0.170479 -2.636146 -0.277655 -1.483539 0.000000 0.000000
    30 0.010598 -1.261177 0.000001 -0.340297 0.000000 0.000000
    31 -0.000001 -0.943233 -0.000002 -0.532326 0.000000 0.000000
    32 -0.827563 -2.508972 -0.277656 -1.265405 0.000000 0.000000
    33 -0.000001 -1.292971 0.000000 -0.558504 0.000000 0.000000
    34 -0.000001 -0.752466 0.000000 -0.445059 0.000000 0.000000
    35 0.444214 -2.561959 -0.277655 -1.605179 -0.046226 -0.024599
    36 0.021022 -1.208186 0.000001 -0.427606 0.000000 0.000000
    37 0.010597 -0.741867 -0.000001 -0.453786 0.000000 0.000000
    38 1.047445 -2.222820 -0.277655 -1.508123 -0.078971 -0.038609
    39 0.000000 -0.996223 -0.000002 -0.689433 0.000000 0.000000
    40 -0.000001 -0.614690 -0.000001 -0.523599 0.000000 0.000000
    41 -0.308254 -0.007813 0.307166 -0.124628 -0.088654 -2.592079
    42 1.978378 0.019542 0.000001 -0.084829 -0.061467 -0.075917
    43 0.982426 0.003185 0.000000 0.000000 0.000000 0.314179
    44 -1.122644 -2.197476 -0.281120 -1.064647 0.000001 -0.087266
    45 0.007812 -0.964973 0.000001 -0.715574 0.000000 0.000000
    46 -0.007812 -0.630317 0.000000 -1.396260 0.000000 0.000000
    47 -0.515544 -2.501512 -0.280215 -1.003564 0.000003 -0.122182
    48 -0.013191 -1.208188 0.000000 -1.090831 0.000000 0.000000
    49 -0.002946 -0.761399 0.000001 -1.343903 0.000000 0.000000
  time 11
    0 6.778400 5.864956 -6.944020 -0.195002 -1.172381 0.330135
    1 0.000000 -8.563281 0.000000 0.435943 -0.125580 -0.269629
    2 -0.725000 -3.341000 0.707000 -1.247039 1.437607 -1.233845
    3 0.000001 1.851472 0.849855 0.000000 0.000000 0.000000
    4 0.000000 -2.655797 1.578303 0.000000 0.000000 0.000000
    5 0.004569 -5.341948 1.579176 0.000000 0.000000 0.000000
    6 0.000000 0.030354 -1.365839 0.000000 0.000000 0.000000
    7 -1.703881 0.381351 1.509396 0.000000 -0.099016 0.000000
    8 0.306899 0.000000 0.000000 0.000000 -0.909528 0.000000
    9 0.311222 0.000001 0.000000 0.000000 -0.345227 0.000000
    10 0.293932 -0.000001 0.000000 0.000000 0.011384 0.000000
    11 0.298254 0.000000 0.000000 0.000000 0.020226 0.000000
    12 0.306899 0.000000 0.000000 0.000000 0.342758 0.000000
    13 0.298254 -0.000001 0.000000 0.000000 0.520800 0.000000
    14 0.306899 0.000000 0.000000 0.000000 0.363314 0.000000
    15 0.600744 -5.369449 3.607356 0.000000 0.000000 0.000000
    16 -0.003480 -0.404829 0.000000 0.000000 0.000000 0.000000
    17 0.105981 -2.607135 -0.278958 -0.890118 0.000000 -0.148353
    18 0.000000 -1.250579 0.000000 -1.213004 0.000000 0.000000
    19 0.000000 -0.932634 0.000000 -1.483530 0.000000 0.000000
    20 0.763063 -2.490557 -0.278958 -0.349065 0.000000 0.130900
    21 -0.012322 -1.280917 0.000000 -0.200713 0.000000 0.000000
    22 -0.001697 -0.749371 0.000000 -0.724295 0.000000 0.000000
    23 0.354566 0.016267 0.318133 0.342077 -0.443527 -1.083976
    24 1.887165 0.012878 0.000000 -0.301502 -0.049640 -0.559682
    25 1.001874 -0.000270 0.000000 0.000000 0.000000 -0.715584
    26 2.176335 -7.638667 -6.971210 -0.018801 0.610791 1.088778
    27 0.089928 -8.543161 -0.000001 0.134803 -0.701818 0.454795
    28 0.000000 -0.359712 0.000000 0.000000 0.000000 0.000000
    29 -0.170479 -2.636146 -0.277655 -1.483539 0.000000 0.000000
    30 0.010598 -1.261177 0.000001 -0.340297 0.000000 0.000000
    31 -0.000001 -0.943233 -0.000002 -0.532326 0.000000 0.000000
    32 -0.827563 -2.508972 -0.277656 -1.265405 0.000000 0.000000
    33 -0.000001 -1.292971 0.000000 -0.558504 0.000000 0.000000
    34 -0.000001 -0.752466 0.000000 -0.445059 0.000000 0.000000
    35 0.444214 -2.561959 -0.277655 -1.605179 -0.046226 -0.024599
    36 0.021022 -1.208186 0.000001 -0.427606 0.000000 0.000000
    37 0.010597 -0.741867 -0.000001 -0.453786 0.000000 0.000000
    38 1.047445 -2.222820 -0.277655 -1.508123 -0.078971 -0.038609
    39 0.000000 -0.996223 -0.000002 -0.689433 0.000000 0.000000
    40 -0.000001 -0.614690 -0.000001 -0.523599 0.000000 0.000000
    41 -0.308254 -0.007813 0.307166 -0.124628 -0.088654 -2.592079
    42 1.978378 0.019542 0.000001 -0.084829 -0.061467 -0.075917
    43 0.982426 0.003185 0.000000 0.000000 0.000000 0.314179
    44 -1.122644 -2.197476 -0.281120 -1.064647 0.000001 -0.087266
    45 0.007812 -0.964973 0.000001 -0.715574 0.000000 0.000000
    46 -0.007812 -0.630317 0.000000 -1.396260 0.000000 0.000000
    47 -0.515544 -2.501512 -0.280215 -1.003564 0.000003 -0.122182
    48 -0.013191 -1.208188 0.000000 -1.090831 0.000000 0.000000
    49 -0.002946 -0.761399 0.000001 -1.343903 0.000000 0.000000
  time 12
    0 6.754962 5.864956 -6.940114 -0.255049 -1.171327 0.369034
    1 0.000000 -8.563281 0.000000 0.424666 -0.137145 -0.264452
    2 -0.725000 -3.341000 0.707000 -1.247039 1.437607 -1.233845
    3 0.000001 1.851472 0.849855 0.000000 0.000000 0.000000
    4 0.000000 -2.655797 1.578303 0.000000 0.000000 0.000000
    5 0.004569 -5.341948 1.579176 0.000000 0.000000 0.000000
    6 0.000000 0.030354 -1.365839 0.000000 0.000000 0.000000
    7 -1.703881 0.381351 1.509396 0.000000 -0.153603 0.000000
    8 0.306899 0.000000 0.000000 0.000000 -0.963952 0.000000
    9 0.311222 0.000001 0.000000 0.000000 -0.368083 0.000000
    10 0.293932 -0.000001 0.000000 0.000000 0.094051 0.000000
    11 0.298254 0.000000 0.000000 0.000000 0.084064 0.000000
    12 0.306899 0.000000 0.000000 0.000000 0.368401 0.000000
    13 0.298254 -0.000001 0.000000 0.000000 0.547698 0.000000
    14 0.306899 0.000000 0.000000 0.000000 0.341793 0.000000
    15 0.600744 -5.369449 3.607356 0.000000 0.000000 0.000000
    16 -0.003480 -0.404829 0.000000 0.000000 0.000000 0.000000
    17 0.105981 -2.607135 -0.278958 -0.890118 0.000000 -0.148353
    18 0.000000 -1.250579 0.000000 -1.213004 0.000000 0.000000
    19 0.000000 -0.932634 0.000000 -1.483530 0.000000 0.000000
    20 0.763063 -2.490557 -0.278958 -0.349065 0.000000 0.130900
    21 -0.012322 -1.280917 0.000000 -0.200713 0.000000 0.000000
    22 -0.001697 -0.749371 0.000000 -0.724295 0.000000 0.000000
    23 0.354566 0.016267 0.318133 0.342077 -0.443527 -1.083976
    24 1.887165 0.012878 0.000000 -0.301502 -0.049640 -0.559682
    25 1.001874 -0.000270 0.000000 0.000000 0.000000 -0.715584
    26 1.992735 -7.384753 -6.744641 -0.060161 0.629192 1.027910
    27 0.089928 -8.543161 -0.000001 0.132178 -0.702191 0.458872
    28 0.000000 -0.359712 0.000000 0.000000 0.000000 0.000000
    29 -0.170479 -2.636146 -0.277655 -1.483539 0.000000 0.000000
    30 0.010598 -1.261177 0.000001 -0.340297 0.000000 0.000000
    31 -0.000001 -0.943233 -0.000002 -0.532326 0.000000 0.000000
    32 -0.827563 -2.508972 -0.277656 -1.265405 0.000000 0.000000
    33 -0.000001 -1.292971 0.000000 -0.558504 0.000000 0.000000
    34 -0.000001 -0.752466 0.000000 -0.445059 0.000000 0.000000
    35 0.444214 -2.561959 -0.277655 -1.605179 -0.046226 -0.024599
    36 0.021022 -1.208186 0.000001 -0.427606 0.000000 0.000000
    37 0.010597 -0.741867 -0.000001 -0.453786 0.000000 0.000000
    38 1.047445 -2.222820 -0.277655 -1.508123 -0.078971 -0.038609
    39 0.000000 -0.996223 -0.000002 -0.689433 0.000000 0.000000
    40 -0.000001 -0.614690 -0.000001 -0.523599 0.000000 0.000000
    41 -0.308254 -0.007813 0.307166 -0.124628 -0.088654 -2.592079
    42 1.978378 0.019542 0.000001 -0.084829 -0.061467 -0.075917
    43 0.982426 0.003185 0.000000 0.000000 0.000000 0.314179
    44 -1.122644 -2.197476 -0.281120 -1.064647 0.000001 -0.087266
    45 0.007812 -0.964973 0.000001 -0.715574 0.000000 0.000000
    46 -0.007812 -0.630317 0.000000 -1.396260 0.000000 0.000000
    47 -0.515544 -2.501512 -0.280215 -1.003564 0.000003 -0.122182
    48 -0.013191 -1.208188 0.000000 -1.090831 0.000000 0.000000
    49 -0.002946 -0.761399 0.000001 -1.343903 0.000000 0.000000
  time 13
    0 6.747149 5.864956 -6.936208 -0.304553 -1.176588 0.397043
    1 0.000000 -8.563281 0.000000 0.411495 -0.149717 -0.257765
    2 -0.725000 -3.341000 0.707000 -1.247039 1.437607 -1.233845
    3 0.000001 1.851472 0.849855 0.000000 0.000000 0.000000
    4 0.000000 -2.655797 1.578303 0.000000 0.000000 0.000000
    5 0.004569 -5.341948 1.579176 0.000000 0.000000 0.000000
    6 0.000000 0.030354 -1.365839 0.000000 0.000000 0.000000
    7 -1.703881 0.381351 1.509396 0.000000 -0.204808 0.000000
    8 0.306899 0.000000 0.000000 0.000000 -1.014696 0.000000
    9 0.311222 0.000001 0.000000 0.000000 -0.388958 0.000000
    10 0.293932 -0.000001 0.000000 0.000000 0.171894 0.000000
    11 0.298254 0.000000 0.000000 0.000000 0.144071 0.000000
    12 0.306899 0.000000 0.000000 0.000000 0.392332 0.000000
    13 0.298254 -0.000001 0.000000 0.000000 0.573242 0.000000
    14 0.306899 0.000000 0.000000 0.000000 0.321909 0.000000
    15 0.600744 -5.369449 3.607356 0.000000 0.000000 0.000000
    16 -0.003480 -0.404829 0.000000 0.000000 0.000000 0.000000
    17 0.105981 -2.607135 -0.278958 -0.890118 0.000000 -0.148353
    18 0.000000 -1.250579 0.000000 -1.213004 0.000000 0.000000
    19 0.000000 -0.932634 0.000000 -1.483530 0.000000 0.000000
    20 0.763063 -2.490557 -0.278958 -0.349065 0.000000 0.130900
    21 -0.012322 -1.280917 0.000000 -0.200713 0.000000 0.000000
    22 -0.001697 -0.749371 0.000000 -0.724295 0.000000 0.000000
    23 0.354566 0.016267 0.318133 0.342077 -0.443527 -1.083976
    24 1.887165 0.012878 0.000000 -0.301502 -0.049640 -0.559682
    25 1.001874 -0.000270 0.000000 0.000000 0.000000 -0.715584
    26 1.750540 -7.142558 -6.607918 -0.105111 0.646690 0.963275
    27 0.089928 -8.543161 -0.000001 0.129595 -0.702612 0.462860
    28 0.000000 -0.359712 0.000000 0.000000 0.000000 0.000000
    29 -0.170479 -2.636146 -0.277655 -1.483539 0.000000 0.000000
    30 0.010598 -1.261177 0.000001 -0.340297 0.000000 0.000000
    31 -0.000001 -0.943233 -0.000002 -0.532326 0.000000 0.000000
    32 -0.827563 -2.508972 -0.277656 -1.265405 0.000000 0.000000
    33 -0.000001 -1.292971 0.000000 -0.558504 0.000000 0.000000
    34 -0.000001 -0.752466 0.000000 -0.445059 0.000000 0.000000
    35 0.444214 -2.561959 -0.277655 -1.605179 -0.046226 -0.024599
    36 0.021022 -1.208186 0.000001 -0.427606 0.000000 0.000000
    37 0.010597 -0.741867 -0.000001 -0.453786 0.000000 0.000000
    38 1.047445 -2.222820 -0.277655 -1.508123 -0.078971 -0.038609
    39 0.000000 -0.996223 -0.000002 -0.689433 0.000000 0.000000
    40 -0.000001 -0.614690 -0.000001 -0.523599 0.000000 0.000000
    41 -0.308254 -0.007813 0.307166 -0.124628 -0.088654 -2.592079
    42 1.978378 0.019542 0.000001 -0.084829 -0.061467 -0.075917
    43 0.982426 0.003185 0.000000 0.000000 0.000000 0.314179
    44 -1.122644 -2.197476 -0.281120 -1.064647 0.000001 -0.087266
    45 0.007812 -0.964973 0.000001 -0.715574 0.000000 0.000000
    46 -0.007812 -0.630317 0.000000 -1.396260 0.000000 0.000000
    47 -0.515544 -2.501512 -0.280215 -1.003564 0.000003 -0.122182
    48 -0.013191 -1.208188 0.000000 -1.090831 0.000000 0.000000
    49 -0.002946 -0.761399 0.000001 -1.343903 0.000000 0.000000
  time 14
    0 6.731524 5.864956 -7.026054 -0.350643 -1.187818 0.419905
    1 0.000000 -8.563281 0.000000 0.396874 -0.162828 -0.249795
    2 -0.725000 -3.341000 0.707000 -1.247039 1.437607 -1.233845
    3 0.000001 1.851472 0.849855 0.000000 0.000000 0.000000
    4 0.000000 -2.655797 1.578303 0.000000 0.000000 0.000000
    5 0.004569 -5.341948 1.579176 0.000000 0.000000 0.000000
    6 0.000000 0.030354 -1.365839 0.000000 0.000000 0.000000
    7 -1.703881 0.381351 1.509396 0.000000 -0.247635 0.000000
    8 0.306899 0.000000 0.000000 0.000000 -1.056452 0.000000
    9 0.311222 0.000001 0.000000 0.000000 -0.404880 0.000000
    10 0.293932 -0.000001 0.000000 0.000000 0.237899 0.000000
    11 0.298254 0.000000 0.000000 0.000000 0.194619 0.000000
    12 0.306899 0.000000 0.000000 0.000000 0.411900 0.000000
    13 0.298254 -0.000001 0.000000 0.000000 0.595107 0.000000
    14 0.306899 0.000000 0.000000 0.000000 0.306147 0.000000
    15 0.600744 -5.369449 3.607356 0.000000 0.000000 0.000000
    16 -0.003480 -0.404829 0.000000 0.000000 0.000000 0.000000
    17 0.105981 -2.607135 -0.278958 -0.890118 0.000000 -0.148353
    18 0.000000 -1.250579 0.000000 -1.213004 0.000000 0.000000
    19 0.000000 -0.932634 0.000000 -1.483530 0.000000 0.000000
    20 0.763063 -2.490557 -0.278958 -0.349065 0.000000 0.130900
    21 -0.012322 -1.280917 0.000000 -0.200713 0.000000 0.000000
    22 -0.001697 -0.749371 0.000000 -0.724295 0.000000 0.000000
    23 0.354566 0.016267 0.318133 0.342077 -0.443527 -1.083976
    24 1.887165 0.012878 0.000000 -0.301502 -0.049640 -0.559682
    25 1.001874 -0.000270 0.000000 0.000000 0.000000 -0.715584
    26 1.426312 -6.919895 -6.600105 -0.153428 0.662800 0.895472
    27 0.089928 -8.543161 -0.000001 0.127140 -0.702985 0.466671
    28 0.000000 -0.359712 0.000000 0.000000 0.000000 0.000000
    29 -0.170479 -2.636146 -0.277655 -1.483539 0.000000 0.000000
    30 0.010598 -1.261177 0.000001 -0.340297 0.000000 0.000000
    31 -0.000001 -0.943233 -0.000002 -0.532326 0.000000 0.000000
    32 -0.827563 -2.508972 -0.277656 -1.265405 0.000000 0.000000
    33 -0.000001 -1.292971 0.000000 -0.558504 0.000000 0.000000
    34 -0.000001 -0.752466 0.000000 -0.445059 0.000000 0.000000
    35 0.444214 -2.561959 -0.277655 -1.605179 -0.046226 -0.024599
    36 0.021022 -1.208186 0.000001 -0.427606 0.000000 0.000000
    37 0.010597 -0.741867 -0.000001 -0.453786 0.000000 0.000000
    38 1.047445 -2.222820 -0.277655 -1.508123 -0.078971 -0.038609
    39 0.000000 -0.996223 -0.000002 -0.689433 0.000000 0.000000
    40 -0.000001 -0.614690 -0.000001 -0.523599 0.000000 0.000000
    41 -0.308254 -0.007813 0.307166 -0.124628 -0.088654 -2.592079
    42 1.978378 0.019542 0.000001 -0.084829 -0.061467 -0.075917
    43 0.982426 0.003185 0.000000 0.000000 0.000000 0.314179
    44 -1.122644 -2.197476 -0.281120 -1.064647 0.000001 -0.087266
    45 0.007812 -0.964973 0.000001 -0.715574 0.000000 0.000000
    46 -0.007812 -0.630317 0.000000 -1.396260 0.000000 0.000000
    47 -0.515544 -2.501512 -0.280215 -1.003564 0.000003 -0.122182
    48 -0.013191 -1.208188 0.000000 -1.090831 0.000000 0.000000
    49 -0.002946 -0.761399 0.000001 -1.343903 0.000000 0.000000
  time 15
    0 6.719805 5.864956 -7.100275 -0.394975 -1.204105 0.439734
    1 0.000000 -8.563281 0.000000 0.381234 -0.176071 -0.240770
    2 -0.725000 -3.341000 0.707000 -1.247039 1.437607 -1.233845
    3 0.000001 1.851472 0.849855 0.000000 0.000000 0.000000
    4 0.000000 -2.655797 1.578303 0.000000 0.000000 0.000000
    5 0.004569 -5.341948 1.579176 0.000000 0.000000 0.000000
    6 0.000000 0.030354 -1.365839 0.000000 0.000000 0.000000
    7 -1.703881 0.381351 1.509396 0.000000 -0.277035 0.000000
    8 0.306899 0.000000 0.000000 0.000000 -1.083593 0.000000
    9 0.311222 0.000001 0.000000 0.000000 -0.412953 0.000000
    10 0.293932 -0.000001 0.000000 0.000000 0.284757 0.000000
    11 0.298254 0.000000 0.000000 0.000000 0.229877 0.000000
    12 0.306899 0.000000 0.000000 0.000000 0.424520 0.000000
    13 0.298254 -0.000001 0.000000 0.000000 0.611315 0.000000
    14 0.306899 0.000000 0.000000 0.000000 0.296929 0.000000
    15 0.600744 -5.369449 3.607356 0.000000 0.000000 0.000000
    16 -0.003480 -0.404829 0.000000 0.000000 0.000000 0.000000
    17 0.105981 -2.607135 -0.278958 -0.890118 0.000000 -0.148353
    18 0.000000 -1.250579 0.000000 -1.213004 0.000000 0.000000
    19 0.000000 -0.932634 0.000000 -1.483530 0.000000 0.000000
    20 0.763063 -2.490557 -0.278958 -0.349065 0.000000 0.130900
    21 -0.012322 -1.280917 0.000000 -0.200713 0.000000 0.000000
    22 -0.001697 -0.749371 0.000000 -0.724295 0.000000 0.000000
    23 0.354566 0.016267 0.318133 0.342077 -0.443527 -1.083976
    24 1.887165 0.012878 0.000000 -0.301502 -0.049640 -0.559682
    25 1.001874 -0.000270 0.000000 0.000000 0.000000 -0.715584
    26 1.043488 -6.712857 -6.689952 -0.204728 0.677034 0.825015
    27 0.089928 -8.543161 -0.000001 0.124769 -0.703359 0.470327
    28 0.000000 -0.359712 0.000000 0.000000 0.000000 0.000000
    29 -0.170479 -2.636146 -0.277655 -1.483539 0.000000 0.000000
    30 0.010598 -1.261177 0.000001 -0.340297 0.000000 0.000000
    31 -0.000001 -0.943233 -0.000002 -0.532326 0.000000 0.000000
    32 -0.827563 -2.508972 -0.277656 -1.265405 0.000000 0.000000
    33 -0.000001 -1.292971 0.000000 -0.558504 0.000000 0.000000
    34 -0.000001 -0.752466 0.000000 -0.445059 0.000000 0.000000
    35 0.444214 -2.561959 -0.277655 -1.605179 -0.046226 -0.024599
    36 0.021022 -1.208186 0.000001 -0.427606 0.000000 0.000000
    37 0.010597 -0.741867 -0.000001 -0.453786 0.000000 0.000000
    38 1.047445 -2.222820 -0.277655 -1.508123 -0.078971 -0.038609
    39 0.000000 -0.996223 -0.000002 -0.689433 0.000000 0.000000
    40 -0.000001 -0.614690 -0.000001 -0.523599 0.000000 0.000000
    41 -0.308254 -0.007813 0.307166 -0.124628 -0.088654 -2.592079
    42 1.978378 0.019542 0.000001 -0.084829 -0.061467 -0.075917
    43 0.982426 0.003185 0.000000 0.000000 0.000000 0.314179
    44 -1.122644 -2.197476 -0.281120 -1.064647 0.000001 -0.087266
    45 0.007812 -0.964973 0.000001 -0.715574 0.000000 0.000000
    46 -0.007812 -0.630317 0.000000 -1.396260 0.000000 0.000000
    47 -0.515544 -2.501512 -0.280215 -1.003564 0.000003 -0.122182
    48 -0.013191 -1.208188 0.000000 -1.090831 0.000000 0.000000
    49 -0.002946 -0.761399 0.000001 -1.343903 0.000000 0.000000
  time 16
    0 6.708085 5.864956 -7.174496 -0.438856 -1.224442 0.458154
    1 0.000000 -8.563281 0.000000 0.365018 -0.189014 -0.230967
    2 -0.725000 -3.341000 0.707000 -1.247039 1.437607 -1.233845
    3 0.000001 1.851472 0.849855 0.000000 0.000000 0.000000
    4 0.000000 -2.655797 1.578303 0.000000 0.000000 0.000000
    5 0.004569 -5.341948 1.579176 0.000000 0.000000 0.000000
    6 0.000000 0.030354 -1.365839 0.000000 0.000000 0.000000
    7 -1.703881 0.381351 1.509396 0.000000 -0.287962 0.000000
    8 0.306899 0.000000 0.000000 0.000000 -1.090776 0.000000
    9 0.311222 0.000001 0.000000 0.000000 -0.410105 0.000000
    10 0.293932 -0.000001 0.000000 0.000000 0.305424 0.000000
    11 0.298254 0.000000 0.000000 0.000000 0.244320 0.000000
    12 0.306899 0.000000 0.000000 0.000000 0.427574 0.000000
    13 0.298254 -0.000001 0.000000 0.000000 0.619575 0.000000
    14 0.306899 0.000000 0.000000 0.000000 0.296722 0.000000
    15 0.600744 -5.369449 3.607356 0.000000 0.000000 0.000000
    16 -0.003480 -0.404829 0.000000 0.000000 0.000000 0.000000
    17 0.105981 -2.607135 -0.278958 -0.890118 0.000000 -0.148353
    18 0.000000 -1.250579 0.000000 -1.213004 0.000000 0.000000
    19 0.000000 -0.932634 0.000000 -1.483530 0.000000 0.000000
    20 0.763063 -2.490557 -0.278958 -0.349065 0.000000 0.130900
    21 -0.012322 -1.280917 0.000000 -0.200713 0.000000 0.000000
    22 -0.001697 -0.749371 0.000000 -0.724295 0.000000 0.000000
    23 0.354566 0.016267 0.318133 0.342077 -0.443527 -1.083976
    24 1.887165 0.012878 0.000000 -0.301502 -0.049640 -0.559682
    25 1.001874 -0.000270 0.000000 0.000000 0.000000 -0.715584
    26 0.645038 -6.513632 -6.842300 -0.258458 0.688908 0.752675
    27 0.089928 -8.543161 -0.000001 0.122525 -0.703686 0.473783
    28 0.000000 -0.359712 0.000000 0.000000 0.000000 0.000000
    29 -0.170479 -2.636146 -0.277655 -1.483539 0.000000 0.000000
    30 0.010598 -1.261177 0.000001 -0.340297 0.000000 0.000000
    31 -0.000001 -0.943233 -0.000002 -0.532326 0.000000 0.000000
    32 -0.827563 -2.508972 -0.277656 -1.265405 0.000000 0.000000
    33 -0.000001 -1.292971 0.000000 -0.558504 0.000000 0.000000
    34 -0.000001 -0.752466 0.000000 -0.445059 0.000000 0.000000
    35 0.444214 -2.561959 -0.277655 -1.605179 -0.046226 -0.024599
    36 0.021022 -1.208186 0.000001 -0.427606 0.000000 0.000000
    37 0.010597 -0.741867 -0.000001 -0.453786 0.000000 0.000000
    38 1.047445 -2.222820 -0.277655 -1.508123 -0.078971 -0.038609
    39 0.000000 -0.996223 -0.000002 -0.689433 0.000000 0.000000
    40 -0.000001 -0.614690 -0.000001 -0.523599 0.000000 0.000000
    41 -0.308254 -0.007813 0.307166 -0.124628 -0.088654 -2.592079
    42 1.978378 0.019542 0.000001 -0.084829 -0.061467 -0.075917
    43 0.982426 0.003185 0.000000 0.000000 0.000000 0.314179
    44 -1.122644 -2.197476 -0.281120 -1.064647 0.000001 -0.087266
    45 0.007812 -0.964973 0.000001 -0.715574 0.000000 0.000000
    46 -0.007812 -0.630317 0.000000 -1.396260 0.000000 0.000000
    47 -0.515544 -2.501512 -0.280215 -1.003564 0.000003 -0.122182
    48 -0.013191 -1.208188 0.000000 -1.090831 0.000000 0.000000
    49 -0.002946 -0.761399 0.000001 -1.343903 0.000000 0.000000
  time 17
    0 6.696366 5.864956 -7.229185 -0.483490 -1.247824 0.476791
    1 0.000000 -8.563281 0.000000 0.348731 -0.201238 -0.220684
    2 -0.725000 -3.341000 0.707000 -1.247039 1.437607 -1.233845
    3 0.000001 1.851472 0.849855 0.000000 0.000000 0.000000
    4 0.000000 -2.655797 1.578303 0.000000 0.000000 0.000000
    5 0.004569 -5.341948 1.579176 0.000000 0.000000 0.000000
    6 0.000000 0.030354 -1.365839 0.000000 0.000000 0.000000
    7 -1.703881 0.381351 1.509396 0.000000 -0.285071 0.000000
    8 0.306899 0.000000 0.000000 0.000000 -1.078851 0.000000
    9 0.311222 0.000001 0.000000 0.000000 -0.395966 0.000000
    10 0.293932 -0.000001 0.000000 0.000000 0.302413 0.000000
    11 0.298254 0.000000 0.000000 0.000000 0.239607 0.000000
    12 0.306899 0.000000 0.000000 0.000000 0.421432 0.000000
    13 0.298254 -0.000001 0.000000 0.000000 0.620998 0.000000
    14 0.306899 0.000000 0.000000 0.000000 0.305587 0.000000
    15 0.600744 -5.369449 3.607356 0.000000 0.000000 0.000000
    16 -0.003480 -0.404829 0.000000 0.000000 0.000000 0.000000
    17 0.105981 -2.607135 -0.278958 -0.890118 0.000000 -0.148353
    18 0.000000 -1.250579 0.000000 -1.213004 0.000000 0.000000
    19 0.000000 -0.932634 0.000000 -1.483530 0.000000 0.000000
    20 0.763063 -2.490557 -0.278958 -0.349065 0.000000 0.130900
    21 -0.012322 -1.280917 0.000000 -0.200713 0.000000 0.000000
    22 -0.001697 -0.749371 0.000000 -0.724295 0.000000 0.000000
    23 0.354566 0.016267 0.318133 0.342077 -0.443527 -1.083976
    24 1.887165 0.012878 0.000000 -0.301502 -0.049640 -0.559682
    25 1.001874 -0.000270 0.000000 0.000000 0.000000 -0.715584
    26 0.238776 -6.330033 -7.064963 -0.314010 0.698282 0.679222
    27 0.089928 -8.543161 -0.000001 0.120429 -0.703966 0.476996
    28 0.000000 -0.359712 0.000000 0.000000 0.000000 0.000000
    29 -0.170479 -2.636146 -0.277655 -1.483539 0.000000 0.000000
    30 0.010598 -1.261177 0.000001 -0.340297 0.000000 0.000000
    31 -0.000001 -0.943233 -0.000002 -0.532326 0.000000 0.000000
    32 -0.827563 -2.508972 -0.277656 -1.265405 0.000000 0.000000
    33 -0.000001 -1.292971 0.000000 -0.558504 0.000000 0.000000
    34 -0.000001 -0.752466 0.000000 -0.445059 0.000000 0.000000
    35 0.444214 -2.561959 -0.277655 -1.605179 -0.046226 -0.024599
    36 0.021022 -1.208186 0.000001 -0.427606 0.000000 0.000000
    37 0.010597 -0.741867 -0.000001 -0.453786 0.000000 0.000000
    38 1.047445 -2.222820 -0.277655 -1.508123 -0.078971 -0.038609
    39 0.000000 -0.996223 -0.000002 -0.689433 0.000000 0.000000
    40 -0.000001 -0.614690 -0.000001 -0.523599 0.000000 0.000000
    41 -0.308254 -0.007813 0.307166 -0.124628 -0.088654 -2.592079
    42 1.978378 0.019542 0.000001 -0.084829 -0.061467 -0.075917
    43 0.982426 0.003185 0.000000 0.000000 0.000000 0.314179
    44 -1.122644 -2.197476 -0.281120 -1.064647 0.000001 -0.087266
    45 0.007812 -0.964973 0.000001 -0.715574 0.000000 0.000000
    46 -0.007812 -0.630317 0.000000 -1.396260 0.000000 0.000000
    47 -0.515544 -2.501512 -0.280215 -1.003564 0.000003 -0.122182
    48 -0.013191 -1.208188 0.000000 -1.090831 0.000000 0.000000
    49 -0.002946 -0.761399 0.000001 -1.343903 0.000000 0.000000
  time 18
    0 6.688554 5.864956 -7.279968 -0.530031 -1.273160 0.497161
    1 0.000000 -8.563281 0.000000 0.332888 -0.212408 -0.210258
    2 -0.725000 -3.341000 0.707000 -1.247039 1.437607 -1.233845
    3 0.000001 1.851472 0.849855 0.000000 0.000000 0.000000
    4 0.000000 -2.655797 1.578303 0.000000 0.000000 0.000000
    5 0.004569 -5.341948 1.579176 0.000000 0.000000 0.000000
    6 0.000000 0.030354 -1.365839 0.000000 0.000000 0.000000
    7 -1.703881 0.381351 1.509396 0.000000 -0.277035 0.000000
    8 0.306899 0.000000 0.000000 0.000000 -1.054081 0.000000
    9 0.311222 0.000001 0.000000 0.000000 -0.373456 0.000000
    10 0.293932 -0.000001 0.000000 0.000000 0.284962 0.000000
    11 0.298254 0.000000 0.000000 0.000000 0.222927 0.000000
    12 0.306899 0.000000 0.000000 0.000000 0.409114 0.000000
    13 0.298254 -0.000001 0.000000 0.000000 0.618464 0.000000
    14 0.306899 0.000000 0.000000 0.000000 0.320873 0.000000
    15 0.600744 -5.369449 3.607356 0.000000 0.000000 0.000000
    16 -0.003480 -0.404829 0.000000 0.000000 0.000000 0.000000
    17 0.105981 -2.607135 -0.278958 -0.890118 0.000000 -0.148353
    18 0.000000 -1.250579 0.000000 -1.213004 0.000000 0.000000
    19 0.000000 -0.932634 0.000000 -1.483530 0.000000 0.000000
    20 0.763063 -2.490557 -0.278958 -0.349065 0.000000 0.130900
    21 -0.012322 -1.280917 0.000000 -0.200713 0.000000 0.000000
    22 -0.001697 -0.749371 0.000000 -0.724295 0.000000 0.000000
    23 0.354566 0.016267 0.318133 0.342077 -0.443527 -1.083976
    24 1.887165 0.012878 0.000000 -0.301502 -0.049640 -0.559682
    25 1.001874 -0.000270 0.000000 0.000000 0.000000 -0.715584
    26 -0.179206 -6.154246 -7.354035 -0.370500 0.704948 0.605684
    27 0.089928 -8.543161 -0.000001 0.118524 -0.704246 0.479965
    28 0.000000 -0.359712 0.000000 0.000000 0.000000 0.000000
    29 -0.170479 -2.636146 -0.277655 -1.483539 0.000000 0.000000
    30 0.010598 -1.261177 0.000001 -0.340297 0.000000 0.000000
    31 -0.000001 -0.943233 -0.000002 -0.532326 0.000000 0.000000
    32 -0.827563 -2.508972 -0.277656 -1.265405 0.000000 0.000000
    33 -0.000001 -1.292971 0.000000 -0.558504 0.000000 0.000000
    34 -0.000001 -0.752466 0.000000 -0.445059 0.000000 0.000000
    35 0.444214 -2.561959 -0.277655 -1.605179 -0.046226 -0.024599
    36 0.021022 -1.208186 0.000001 -0.427606 0.000000 0.000000
    37 0.010597 -0.741867 -0.000001 -0.453786 0.000000 0.000000
    38 1.047445 -2.222820 -0.277655 -1.508123 -0.078971 -0.038609
    39 0.000000 -0.996223 -0.000002 -0.689433 0.000000 0.000000
    40 -0.000001 -0.614690 -0.000001 -0.523599 0.000000 0.000000
    41 -0.308254 -0.007813 0.307166 -0.124628 -0.088654 -2.592079
    42 1.978378 0.019542 0.000001 -0.084829 -0.061467 -0.075917
    43 0.982426 0.003185 0.000000 0.000000 0.000000 0.314179
    44 -1.122644 -2.197476 -0.281120 -1.064647 0.000001 -0.087266
    45 0.007812 -0.964973 0.000001 -0.715574 0.000000 0.000000
    46 -0.007812 -0.630317 0.000000 -1.396260 0.000000 0.000000
    47 -0.515544 -2.501512 -0.280215 -1.003564 0.000003 -0.122182
    48 -0.013191 -1.208188 0.000000 -1.090831 0.000000 0.000000
    49 -0.002946 -0.761399 0.000001 -1.343903 0.000000 0.000000
  time 19
    0 6.680741 5.864956 -7.322938 -0.579786 -1.299298 0.520836
    1 0.000000 -8.563281 0.000000 0.317943 -0.222103 -0.200011
    2 -0.725000 -3.341000 0.707000 -1.247039 1.437607 -1.233845
    3 0.000001 1.851472 0.849855 0.000000 0.000000 0.000000
    4 0.000000 -2.655797 1.578303 0.000000 0.000000 0.000000
    5 0.004569 -5.341948 1.579176 0.000000 0.000000 0.000000
    6 0.000000 0.030354 -1.365839 0.000000 0.000000 0.000000
    7 -1.703881 0.381351 1.509396 0.000000 -0.264295 0.000000
    8 0.306899 0.000000 0.000000 0.000000 -1.019296 0.000000
    9 0.311222 0.000001 0.000000 0.000000 -0.344732 0.000000
    10 0.293932 -0.000001 0.000000 0.000000 0.255701 0.000000
    11 0.298254 0.000000 0.000000 0.000000 0.196687 0.000000
    12 0.306899 0.000000 0.000000 0.000000 0.391963 0.000000
    13 0.298254 -0.000001 0.000000 0.000000 0.612634 0.000000
    14 0.306899 0.000000 0.000000 0.000000 0.341027 0.000000
    15 0.600744 -5.369449 3.607356 0.000000 0.000000 0.000000
    16 -0.003480 -0.404829 0.000000 0.000000 0.000000 0.000000
    17 0.105981 -2.607135 -0.278958 -0.890118 0.000000 -0.148353
    18 0.000000 -1.250579 0.000000 -1.213004 0.000000 0.000000
    19 0.000000 -0.932634 0.000000 -1.483530 0.000000 0.000000
    20 0.763063 -2.490557 -0.278958 -0.349065 0.000000 0.130900
    21 -0.012322 -1.280917 0.000000 -0.200713 0.000000 0.000000
    22 -0.001697 -0.749371 0.000000 -0.724295 0.000000 0.000000
    23 0.354566 0.016267 0.318133 0.342077 -0.443527 -1.083976
    24 1.887165 0.012878 0.000000 -0.301502 -0.049640 -0.559682
    25 1.001874 -0.000270 0.000000 0.000000 0.000000 -0.715584
    26 -0.585468 -6.001898 -7.674357 -0.427156 0.708837 0.533087
    27 0.089928 -8.543161 -0.000001 0.116788 -0.704480 0.482624
    28 0.000000 -0.359712 0.000000 0.000000 0.000000 0.000000
    29 -0.170479 -2.636146 -0.277655 -1.483539 0.000000 0.000000
    30 0.010598 -1.261177 0.000001 -0.340297 0.000000 0.000000
    31 -0.000001 -0.943233 -0.000002 -0.532326 0.000000 0.000000
    32 -0.827563 -2.508972 -0.277656 -1.265405 0.000000 0.000000
    33 -0.000001 -1.292971 0.000000 -0.558504 0.000000 0.000000
    34 -0.000001 -0.752466 0.000000 -0.445059 0.000000 0.000000
    35 0.444214 -2.561959 -0.277655 -1.605179 -0.046226 -0.024599
    36 0.021022 -1.208186 0.000001 -0.427606 0.000000 0.000000
    37 0.010597 -0.741867 -0.000001 -0.453786 0.000000 0.000000
    38 1.047445 -2.222820 -0.277655 -1.508123 -0.078971 -0.038609
    39 0.000000 -0.996223 -0.000002 -0.689433 0.000000 0.000000
    40 -0.000001 -0.614690 -0.000001 -0.523599 0.000000 0.000000
    41 -0.308254 -0.007813 0.307166 -0.124628 -0.088654 -2.592079
    42 1.978378 0.019542 0.000001 -0.084829 -0.061467 -0.075917
    43 0.982426 0.003185 0.000000 0.000000 0.000000 0.314179
    44 -1.122644 -2.197476 -0.281120 -1.064647 0.000001 -0.087266
    45 0.007812 -0.964973 0.000001 -0.715574 0.000000 0.000000
    46 -0.007812 -0.630317 0.000000 -1.396260 0.000000 0.000000
    47 -0.515544 -2.501512 -0.280215 -1.003564 0.000003 -0.122182
    48 -0.013191 -1.208188 0.000000 -1.090831 0.000000 0.000000
    49 -0.002946 -0.761399 0.000001 -1.343903 0.000000 0.000000
  time 20
    0 6.676834 5.864956 -7.354189 -0.633959 -1.325125 0.549496
    1 0.000000 -8.563281 0.000000 0.304472 -0.230037 -0.190303
    2 -0.725000 -3.341000 0.707000 -1.247039 1.437607 -1.233845
    3 0.000001 1.851472 0.849855 0.000000 0.000000 0.000000
    4 0.000000 -2.655797 1.578303 0.000000 0.000000 0.000000
    5 0.004569 -5.341948 1.579176 0.000000 0.000000 0.000000
    6 0.000000 0.030354 -1.365839 0.000000 0.000000 0.000000
    7 -1.703881 0.381351 1.509396 0.000000 -0.247635 0.000000
    8 0.306899 0.000000 0.000000 0.000000 -0.977328 0.000000
    9 0.311222 0.000001 0.000000 0.000000 -0.311847 0.000000
    10 0.293932 -0.000001 0.000000 0.000000 0.217349 0.000000
    11 0.298254 0.000000 0.000000 0.000000 0.163124 0.000000
    12 0.306899 0.000000 0.000000 0.000000 0.371388 0.000000
    13 0.298254 -0.000001 0.000000 0.000000 0.604200 0.000000
    14 0.306899 0.000000 0.000000 0.000000 0.364536 0.000000
    15 0.600744 -5.369449 3.607356 0.000000 0.000000 0.000000
    16 -0.003480 -0.404829 0.000000 0.000000 0.000000 0.000000
    17 0.105981 -2.607135 -0.278958 -0.890118 0.000000 -0.148353
    18 0.000000 -1.250579 0.000000 -1.213004 0.000000 0.000000
    19 0.000000 -0.932634 0.000000 -1.483530 0.000000 0.000000
    20 0.763063 -2.490557 -0.278958 -0.349065 0.000000 0.130900
    21 -0.012322 -1.280917 0.000000 -0.200713 0.000000 0.000000
    22 -0.001697 -0.749371 0.000000 -0.724295 0.000000 0.000000
    23 0.354566 0.016267 0.318133 0.342077 -0.443527 -1.083976
    24 1.887165 0.012878 0.000000 -0.301502 -0.049640 -0.559682
    25 1.001874 -0.000270 0.000000 0.000000 0.000000 -0.715584
    26 -0.987824 -5.865175 -8.014211 -0.483150 0.710087 0.462459
    27 0.089928 -8.543161 -0.000001 0.115285 -0.704713 0.484972
    28 0.000000 -0.359712 0.000000 0.000000 0.000000 0.000000
    29 -0.170479 -2.636146 -0.277655 -1.483539 0.000000 0.000000
    30 0.010598 -1.261177 0.000001 -0.340297 0.000000 0.000000
    31 -0.000001 -0.943233 -0.000002 -0.532326 0.000000 0.000000
    32 -0.827563 -2.508972 -0.277656 -1.265405 0.000000 0.000000
    33 -0.000001 -1.292971 0.000000 -0.558504 0.000000 0.000000
    34 -0.000001 -0.752466 0.000000 -0.445059 0.000000 0.000000
    35 0.444214 -2.561959 -0.277655 -1.605179 -0.046226 -0.024599
    36 0.021022 -1.208186 0.000001 -0.427606 0.000000 0.000000
    37 0.010597 -0.741867 -0.000001 -0.453786 0.000000 0.000000
    38 1.047445 -2.222820 -0.277655 -1.508123 -0.078971 -0.038609
    39 0.000000 -0.996223 -0.000002 -0.689433 0.000000 0.000000
    40 -0.000001 -0.614690 -0.000001 -0.523599 0.000000 0.000000
    41 -0.308254 -0.007813 0.307166 -0.124628 -0.088654 -2.592079
    42 1.978378 0.019542 0.000001 -0.084829 -0.061467 -0.075917
    43 0.982426 0.003185 0.000000 0.000000 0.000000 0.314179
    44 -1.122644 -2.197476 -0.281120 -1.064647 0.000001 -0.087266
    45 0.007812 -0.964973 0.000001 -0.715574 0.000000 0.000000
    46 -0.007812 -0.630317 0.000000 -1.396260 0.000000 0.000000
    47 -0.515544 -2.501512 -0.280215 -1.003564 0.000003 -0.122182
    48 -0.013191 -1.208188 0.000000 -1.090831 0.000000 0.000000
    49 -0.002946 -0.761399 0.000001 -1.343903 0.000000 0.000000
  time 21
    0 6.672928 5.864956 -7.377627 -0.693755 -1.349442 0.584548
    1 0.000000 -8.563281 0.000000 0.293027 -0.235862 -0.181567
    2 -0.725000 -3.341000 0.707000 -1.247039 1.437607 -1.233845
    3 0.000001 1.851472 0.849855 0.000000 0.000000 0.000000
    4 0.000000 -2.655797 1.578303 0.000000 0.000000 0.000000
    5 0.004569 -5.341948 1.579176 0.000000 0.000000 0.000000
    6 0.000000 0.030354 -1.365839 0.000000 0.000000 0.000000
    7 -1.703881 0.381351 1.509396 0.000000 -0.227544 0.000000
    8 0.306899 0.000000 0.000000 0.000000 -0.931043 0.000000
    9 0.311222 0.000001 0.000000 0.000000 -0.277080 0.000000
    10 0.293932 -0.000001 0.000000 0.000000 0.172654 0.000000
    11 0.298254 0.000000 0.000000 0.000000 0.124577 0.000000
    12 0.306899 0.000000 0.000000 0.000000 0.348766 0.000000
    13 0.298254 -0.000001 0.000000 0.000000 0.593684 0.000000
    14 0.306899 0.000000 0.000000 0.000000 0.389785 0.000000
    15 0.600744 -5.369449 3.607356 0.000000 0.000000 0.000000
    16 -0.003480 -0.404829 0.000000 0.000000 0.000000 0.000000
    17 0.105981 -2.607135 -0.278958 -0.890118 0.000000 -0.148353
    18 0.000000 -1.250579 0.000000 -1.213004 0.000000 0.000000
    19 0.000000 -0.932634 0.000000 -1.483530 0.000000 0.000000
    20 0.763063 -2.490557 -0.278958 -0.349065 0.000000 0.130900
    21 -0.012322 -1.280917 0.000000 -0.200713 0.000000 0.000000
    22 -0.001697 -0.749371 0.000000 -0.724295 0.000000 0.000000
    23 0.354566 0.016267 0.318133 0.342077 -0.443527 -1.083976
    24 1.887165 0.012878 0.000000 -0.301502 -0.049640 -0.559682
    25 1.001874 -0.000270 0.000000 0.000000 0.000000 -0.715584
    26 -1.378461 -5.747984 -8.389223 -0.537763 0.708906 0.394913
    27 0.089928 -8.543161 -0.000001 0.113994 -0.704854 0.486966
    28 0.000000 -0.359712 0.000000 0.000000 0.000000 0.000000
    29 -0.170479 -2.636146 -0.277655 -1.483539 0.000000 0.000000
    30 0.010598 -1.261177 0.000001 -0.340297 0.000000 0.000000
    31 -0.000001 -0.943233 -0.000002 -0.532326 0.000000 0.000000
    32 -0.827563 -2.508972 -0.277656 -1.265405 0.000000 0.000000
    33 -0.000001 -1.292971 0.000000 -0.558504 0.000000 0.000000
    34 -0.000001 -0.752466 0.000000 -0.445059 0.000000 0.000000
    35 0.444214 -2.561959 -0.277655 -1.605179 -0.046226 -0.024599
    36 0.021022 -1.208186 0.000001 -0.427606 0.000000 0.000000
    37 0.010597 -0.741867 -0.000001 -0.453786 0.000000 0.000000
    38 1.047445 -2.222820 -0.277655 -1.508123 -0.078971 -0.038609
    39 0.000000 -0.996223 -0.000002 -0.689433 0.000000 0.000000
    40 -0.000001 -0.614690 -0.000001 -0.523599 0.000000 0.000000
    41 -0.308254 -0.007813 0.307166 -0.124628 -0.088654 -2.592079
    42 1.978378 0.019542 0.000001 -0.084829 -0.061467 -0.075917
    43 0.982426 0.003185 0.000000 0.000000 0.000000 0.314179
    44 -1.122644 -2.197476 -0.281120 -1.064647 0.000001 -0.087266
    45 0.007812 -0.964973 0.000001 -0.715574 0.000000 0.000000
    46 -0.007812 -0.630317 0.000000 -1.396260 0.000000 0.000000
    47 -0.515544 -2.501512 -0.280215 -1.003564 0.000003 -0.122182
    48 -0.013191 -1.208188 0.000000 -1.090831 0.000000 0.000000
    49 -0.002946 -0.761399 0.000001 -1.343903 0.000000 0.000000
  time 22
    0 6.669022 5.864956 -7.393253 -0.759526 -1.371074 0.626751
    1 0.000000 -8.563281 0.000000 0.284170 -0.239229 -0.174148
    2 -0.725000 -3.341000 0.707000 -1.247039 1.437607 -1.233845
    3 0.000001 1.851472 0.849855 0.000000 0.000000 0.000000
    4 0.000000 -2.655797 1.578303 0.000000 0.000000 0.000000
    5 0.004569 -5.341948 1.579176 0.000000 0.000000 0.000000
    6 0.000000 0.030354 -1.365839 0.000000 0.000000 0.000000
    7 -1.703881 0.381351 1.509396 0.000000 -0.204808 0.000000
    8 0.306899 0.000000 0.000000 0.000000 -0.883201 0.000000
    9 0.311222 0.000001 0.000000 0.000000 -0.242436 0.000000
    10 0.293932 -0.000001 0.000000 0.000000 0.124247 0.000000
    11 0.298254 0.000000 0.000000 0.000000 0.083386 0.000000
    12 0.306899 0.000000 0.000000 0.000000 0.325506 0.000000
    13 0.298254 -0.000001 0.000000 0.000000 0.581745 0.000000
    14 0.306899 0.000000 0.000000 0.000000 0.415242 0.000000
    15 0.600744 -5.369449 3.607356 0.000000 0.000000 0.000000
    16 -0.003480 -0.404829 0.000000 0.000000 0.000000 0.000000
    17 0.105981 -2.607135 -0.278958 -0.890118 0.000000 -0.148353
    18 0.000000 -1.250579 0.000000 -1.213004 0.000000 0.000000
    19 0.000000 -0.932634 0.000000 -1.483530 0.000000 0.000000
    20 0.763063 -2.490557 -0.278958 -0.349065 0.000000 0.130900
    21 -0.012322 -1.280917 0.000000 -0.200713 0.000000 0.000000
    22 -0.001697 -0.749371 0.000000 -0.724295 0.000000 0.000000
    23 0.354566 0.016267 0.318133 0.342077 -0.443527 -1.083976
    24 1.887165 0.012878 0.000000 -0.301502 -0.049640 -0.559682
    25 1.001874 -0.000270 0.000000 0.000000 0.000000 -0.715584
    26 -1.675345 -5.677669 -8.760328 -0.590001 0.705643 0.331219
    27 0.089928 -8.543161 -0.000001 0.112956 -0.704994 0.488539
    28 0.000000 -0.359712 0.000000 0.000000 0.000000 0.000000
    29 -0.170479 -2.636146 -0.277655 -1.483539 0.000000 0.000000
    30 0.010598 -1.261177 0.000001 -0.340297 0.000000 0.000000
    31 -0.000001 -0.943233 -0.000002 -0.532326 0.000000 0.000000
    32 -0.827563 -2.508972 -0.277656 -1.265405 0.000000 0.000000
    33 -0.000001 -1.292971 0.000000 -0.558504 0.000000 0.000000
    34 -0.000001 -0.752466 0.000000 -0.445059 0.000000 0.000000
    35 0.444214 -2.561959 -0.277655 -1.605179 -0.046226 -0.024599
    36 0.021022 -1.208186 0.000001 -0.427606 0.000000 0.000000
    37 0.010597 -0.741867 -0.000001 -0.453786 0.000000 0.000000
    38 1.047445 -2.222820 -0.277655 -1.508123 -0.078971 -0.038609
    39 0.000000 -0.996223 -0.000002 -0.689433 0.000000 0.000000
    40 -0.000001 -0.614690 -0.000001 -0.523599 0.000000 0.000000
    41 -0.308254 -0.007813 0.307166 -0.124628 -0.088654 -2.592079
    42 1.978378 0.019542 0.000001 -0.084829 -0.061467 -0.075917
    43 0.982426 0.003185 0.000000 0.000000 0.000000 0.314179
    44 -1.122644 -2.197476 -0.281120 -1.064647 0.000001 -0.087266
    45 0.007812 -0.964973 0.000001 -0.715574 0.000000 0.000000
    46 -0.007812 -0.630317 0.000000 -1.396260 0.000000 0.000000
    47 -0.515544 -2.501512 -0.280215 -1.003564 0.000003 -0.122182
    48 -0.013191 -1.208188 0.000000 -1.090831 0.000000 0.000000
    49 -0.002946 -0.761399 0.000001 -1.343903 0.000000 0.000000
  time 23
    0 6.669022 5.864956 -7.397159 -0.830318 -1.388859 0.675402
    1 0.000000 -8.563281 0.000000 0.280779 -0.239937 -0.170948
    2 -0.725000 -3.341000 0.707000 -1.247039 1.437607 -1.233845
    3 0.000001 1.851472 0.849855 0.000000 0.000000 0.000000
    4 0.000000 -2.655797 1.578303 0.000000 0.000000 0.000000
    5 0.004569 -5.341948 1.579176 0.000000 0.000000 0.000000
    6 0.000000 0.030354 -1.365839 0.000000 0.000000 0.000000
    7 -1.703881 0.381351 1.509396 0.000000 -0.179916 0.000000
    8 0.306899 0.000000 0.000000 0.000000 -0.836668 0.000000
    9 0.311222 0.000001 0.000000 0.000000 -0.210096 0.000000
    10 0.293932 -0.000001 0.000000 0.000000 0.074875 0.000000
    11 0.298254 0.000000 0.000000 0.000000 0.041855 0.000000
    12 0.306899 0.000000 0.000000 0.000000 0.302884 0.000000
    13 0.298254 -0.000001 0.000000 0.000000 0.568973 0.000000
    14 0.306899 0.000000 0.000000 0.000000 0.439455 0.000000
    15 0.600744 -5.369449 3.607356 0.000000 0.000000 0.000000
    16 -0.003480 -0.404829 0.000000 0.000000 0.000000 0.000000
    17 0.105981 -2.607135 -0.278958 -0.890118 0.000000 -0.148353
    18 0.000000 -1.250579 0.000000 -1.213004 0.000000 0.000000
    19 0.000000 -0.932634 0.000000 -1.483530 0.000000 0.000000
    20 0.763063 -2.490557 -0.278958 -0.349065 0.000000 0.130900
    21 -0.012322 -1.280917 0.000000 -0.200713 0.000000 0.000000
    22 -0.001697 -0.749371 0.000000 -0.724295 0.000000 0.000000
    23 0.354566 0.016267 0.318133 0.342077 -0.443527 -1.083976
    24 1.887165 0.012878 0.000000 -0.301502 -0.049640 -0.559682
    25 1.001874 -0.000270 0.000000 0.000000 0.000000 -0.715584
    26 -1.843319 -5.646418 -9.143152 -0.639479 0.700782 0.272234
    27 0.089928 -8.543161 -0.000001 0.112194 -0.705087 0.489736
    28 0.000000 -0.359712 0.000000 0.000000 0.000000 0.000000
    29 -0.170479 -2.636146 -0.277655 -1.483539 0.000000 0.000000
    30 0.010598 -1.261177 0.000001 -0.340297 0.000000 0.000000
    31 -0.000001 -0.943233 -0.000002 -0.532326 0.000000 0.000000
    32 -0.827563 -2.508972 -0.277656 -1.265405 0.000000 0.000000
    33 -0.000001 -1.292971 0.000000 -0.558504 0.000000 0.000000
    34 -0.000001 -0.752466 0.000000 -0.445059 0.000000 0.000000
    35 0.444214 -2.561959 -0.277655 -1.605179 -0.046226 -0.024599
    36 0.021022 -1.208186 0.000001 -0.427606 0.000000 0.000000
    37 0.010597 -0.741867 -0.000001 -0.453786 0.000000 0.000000
    38 1.047445 -2.222820 -0.277655 -1.508123 -0.078971 -0.038609
    39 0.000000 -0.996223 -0.000002 -0.689433 0.000000 0.000000
    40 -0.000001 -0.614690 -0.000001 -0.523599 0.000000 0.000000
    41 -0.308254 -0.007813 0.307166 -0.124628 -0.088654 -2.592079
    42 1.978378 0.019542 0.000001 -0.084829 -0.061467 -0.075917
    43 0.982426 0.003185 0.000000 0.000000 0.000000 0.314179
    44 -1.122644 -2.197476 -0.281120 -1.064647 0.000001 -0.087266
    45 0.007812 -0.964973 0.000001 -0.715574 0.000000 0.000000
    46 -0.007812 -0.630317 0.000000 -1.396260 0.000000 0.000000
    47 -0.515544 -2.501512 -0.280215 -1.003564 0.000003 -0.122182
    48 -0.013191 -1.208188 0.000000 -1.090831 0.000000 0.000000
    49 -0.002946 -0.761399 0.000001 -1.343903 0.000000 0.000000
  time 24
    0 6.786213 5.864956 -7.397159 -0.902465 -1.401731 0.727086
    1 0.000000 -8.563281 0.000000 0.279341 -0.239181 -0.169007
    2 -0.725000 -3.341000 0.707000 -1.247039 1.437607 -1.233845
    3 0.000001 1.851472 0.849855 0.000000 0.000000 0.000000
    4 0.000000 -2.655797 1.578303 0.000000 0.000000 0.000000
    5 0.004569 -5.341948 1.579176 0.000000 0.000000 0.000000
    6 0.000000 0.030354 -1.365839 0.000000 0.000000 0.000000
    7 -1.703881 0.381351 1.509396 0.000000 -0.153603 0.000000
    8 0.306899 0.000000 0.000000 0.000000 -0.794346 0.000000
    9 0.311222 0.000001 0.000000 0.000000 -0.182213 0.000000
    10 0.293932 -0.000001 0.000000 0.000000 0.027169 0.000000
    11 0.298254 0.000000 0.000000 0.000000 0.002393 0.000000
    12 0.306899 0.000000 0.000000 0.000000 0.282376 0.000000
    13 0.298254 -0.000001 0.000000 0.000000 0.556097 0.000000
    14 0.306899 0.000000 0.000000 0.000000 0.460769 0.000000
    15 0.600744 -5.369449 3.607356 0.000000 0.000000 0.000000
    16 -0.003480 -0.404829 0.000000 0.000000 0.000000 0.000000
    17 0.105981 -2.607135 -0.278958 -0.890118 0.000000 -0.148353
    18 0.000000 -1.250579 0.000000 -1.213004 0.000000 0.000000
    19 0.000000 -0.932634 0.000000 -1.483530 0.000000 0.000000
    20 0.763063 -2.490557 -0.278958 -0.349065 0.000000 0.130900
    21 -0.012322 -1.280917 0.000000 -0.200713 0.000000 0.000000
    22 -0.001697 -0.749371 0.000000 -0.724295 0.000000 0.000000
    23 0.354566 0.016267 0.318133 0.342077 -0.443527 -1.083976
    24 1.887165 0.012878 0.000000 -0.301502 -0.049640 -0.559682
    25 1.001874 -0.000270 0.000000 0.000000 0.000000 -0.715584
    26 -1.937072 -5.673763 -9.471287 -0.685533 0.694741 0.218900
    27 0.089928 -8.543161 -0.000001 0.111729 -0.705134 0.490467
    28 0.000000 -0.359712 0.000000 0.000000 0.000000 0.000000
    29 -0.170479 -2.636146 -0.277655 -1.483539 0.000000 0.000000
    30 0.010598 -1.261177 0.000001 -0.340297 0.000000 0.000000
    31 -0.000001 -0.943233 -0.000002 -0.532326 0.000000 0.000000
    32 -0.827563 -2.508972 -0.277656 -1.265405 0.000000 0.000000
    33 -0.000001 -1.292971 0.000000 -0.558504 0.000000 0.000000
    34 -0.000001 -0.752466 0.000000 -0.445059 0.000000 0.000000
    35 0.444214 -2.561959 -0.277655 -1.605179 -0.046226 -0.024599
    36 0.021022 -1.208186 0.000001 -0.427606 0.000000 0.000000
    37 0.010597 -0.741867 -0.000001 -0.453786 0.000000 0.000000
    38 1.047445 -2.222820 -0.277655 -1.508123 -0.078971 -0.038609
    39 0.000000 -0.996223 -0.000002 -0.689433 0.000000 0.000000
    40 -0.000001 -0.614690 -0.000001 -0.523599 0.000000 0.000000
    41 -0.308254 -0.007813 0.307166 -0.124628 -0.088654 -2.592079
    42 1.978378 0.019542 0.000001 -0.084829 -0.061467 -0.075917
    43 0.982426 0.003185 0.000000 0.000000 0.000000 0.314179
    44 -1.122644 -2.197476 -0.281120 -1.064647 0.000001 -0.087266
    45 0.007812 -0.964973 0.000001 -0.715574 0.000000 0.000000
    46 -0.007812 -0.630317 0.000000 -1.396260 0.000000 0.000000
    47 -0.515544 -2.501512 -0.280215 -1.003564 0.000003 -0.122182
    48 -0.013191 -1.208188 0.000000 -1.090831 0.000000 0.000000
    49 -0.002946 -0.761399 0.000001 -1.343903 0.000000 0.000000
  time 25
    0 6.883872 5.864956 -7.397159 -0.944287 -1.406740 0.757371
    1 0.000000 -8.563281 0.000000 0.282265 -0.229917 -0.166478
    2 -0.725000 -3.341000 0.707000 -1.247039 1.437607 -1.233845
    3 0.000001 1.851472 0.849855 0.000000 0.000000 0.000000
    4 0.000000 -2.655797 1.578303 0.000000 0.000000 0.000000
    5 0.004569 -5.341948 1.579176 0.000000 0.000000 0.000000
    6 0.000000 0.030354 -1.365839 0.000000 0.000000 0.000000
    7 -1.703881 0.381351 1.509396 0.000000 -0.126407 0.000000
    8 0.306899 0.000000 0.000000 0.000000 -0.758818 0.000000
    9 0.311222 0.000001 0.000000 0.000000 -0.160917 0.000000
    10 0.293932 -0.000001 0.000000 0.000000 -0.016152 0.000000
    11 0.298254 0.000000 0.000000 0.000000 -0.032696 0.000000
    12 0.306899 0.000000 0.000000 0.000000 0.265359 0.000000
    13 0.298254 -0.000001 0.000000 0.000000 0.543672 0.000000
    14 0.306899 0.000000 0.000000 0.000000 0.477712 0.000000
    15 0.600744 -5.369449 3.607356 0.000000 0.000000 0.000000
    16 -0.003480 -0.404829 0.000000 0.000000 0.000000 0.000000
    17 0.105981 -2.607135 -0.278958 -0.890118 0.000000 -0.148353
    18 0.000000 -1.250579 0.000000 -1.213004 0.000000 0.000000
    19 0.000000 -0.932634 0.000000 -1.483530 0.000000 0.000000
    20 0.763063 -2.490557 -0.278958 -0.349065 0.000000 0.130900
    21 -0.012322 -1.280917 0.000000 -0.200713 0.000000 0.000000
    22 -0.001697 -0.749371 0.000000 -0.724295 0.000000 0.000000
    23 0.354566 0.016267 0.318133 0.342077 -0.443527 -1.083976
    24 1.887165 0.012878 0.000000 -0.301502 -0.049640 -0.559682
    25 1.001874 -0.000270 0.000000 0.000000 0.000000 -0.715584
    26 -1.929259 -5.759703 -9.690043 -0.727776 0.688283 0.171729
    27 0.089928 -8.543161 -0.000001 0.111559 -0.705181 0.490711
    28 0.000000 -0.359712 0.000000 0.000000 0.000000 0.000000
    29 -0.170479 -2.636146 -0.277655 -1.483539 0.000000 0.000000
    30 0.010598 -1.261177 0.000001 -0.340297 0.000000 0.000000
    31 -0.000001 -0.943233 -0.000002 -0.532326 0.000000 0.000000
    32 -0.827563 -2.508972 -0.277656 -1.265405 0.000000 0.000000
    33 -0.000001 -1.292971 0.000000 -0.558504 0.000000 0.000000
    34 -0.000001 -0.752466 0.000000 -0.445059 0.000000 0.000000
    35 0.444214 -2.561959 -0.277655 -1.605179 -0.046226 -0.024599
    36 0.021022 -1.208186 0.000001 -0.427606 0.000000 0.000000
    37 0.010597 -0.741867 -0.000001 -0.453786 0.000000 0.000000
    38 1.047445 -2.222820 -0.277655 -1.508123 -0.078971 -0.038609
    39 0.000000 -0.996223 -0.000002 -0.689433 0.000000 0.000000
    40 -0.000001 -0.614690 -0.000001 -0.523599 0.000000 0.000000
    41 -0.308254 -0.007813 0.307166 -0.124628 -0.088654 -2.592079
    42 1.978378 0.019542 0.000001 -0.084829 -0.061467 -0.075917
    43 0.982426 0.003185 0.000000 0.000000 0.000000 0.314179
    44 -1.122644 -2.197476 -0.281120 -1.064647 0.000001 -0.087266
    45 0.007812 -0.964973 0.000001 -0.715574 0.000000 0.000000
    46 -0.007812 -0.630317 0.000000 -1.396260 0.000000 0.000000
    47 -0.515544 -2.501512 -0.280215 -1.003564 0.000003 -0.122182
    48 -0.013191 -1.208188 0.000000 -1.090831 0.000000 0.000000
    49 -0.002946 -0.761399 0.000001 -1.343903 0.000000 0.000000
  time 26
    0 6.961999 5.864956 -7.397159 -0.967533 -1.407567 0.771728
    1 0.000000 -8.563281 0.000000 0.292560 -0.211941 -0.166394
    2 -0.725000 -3.341000 0.707000 -1.247039 1.437607 -1.233845
    3 0.000001 1.851472 0.849855 0.000000 0.000000 0.000000
    4 0.000000 -2.655797 1.578303 0.000000 0.000000 0.000000
    5 0.004569 -5.341948 1.579176 0.000000 0.000000 0.000000
    6 0.000000 0.030354 -1.365839 0.000000 0.000000 0.000000
    7 -1.703881 0.381351 1.509396 0.000000 -0.099016 0.000000
    8 0.306899 0.000000 0.000000 0.000000 -0.733092 0.000000
    9 0.311222 0.000001 0.000000 0.000000 -0.148387 0.000000
    10 0.293932 -0.000001 0.000000 0.000000 -0.052399 0.000000
    11 0.298254 0.000000 0.000000 0.000000 -0.061140 0.000000
    12 0.306899 0.000000 0.000000 0.000000 0.253108 0.000000
    13 0.298254 -0.000001 0.000000 0.000000 0.532323 0.000000
    14 0.306899 0.000000 0.000000 0.000000 0.488690 0.000000
    15 0.600744 -5.369449 3.607356 0.000000 0.000000 0.000000
    16 -0.003480 -0.404829 0.000000 0.000000 0.000000 0.000000
    17 0.105981 -2.607135 -0.278958 -0.890118 0.000000 -0.148353
    18 0.000000 -1.250579 0.000000 -1.213004 0.000000 0.000000
    19 0.000000 -0.932634 0.000000 -1.483530 0.000000 0.000000
    20 0.763063 -2.490557 -0.278958 -0.349065 0.000000 0.130900
    21 -0.012322 -1.280917 0.000000 -0.200713 0.000000 0.000000
    22 -0.001697 -0.749371 0.000000 -0.724295 0.000000 0.000000
    23 0.354566 0.016267 0.318133 0.342077 -0.443527 -1.083976
    24 1.887165 0.012878 0.000000 -0.301502 -0.049640 -0.559682
    25 1.001874 -0.000270 0.000000 0.000000 0.000000 -0.715584
    26 -1.858945 -5.912052 -9.807235 -0.758921 0.690644 0.151953
    27 0.089928 -8.543161 -0.000001 0.115285 -0.704713 0.484972
    28 0.000000 -0.359712 0.000000 0.000000 0.000000 0.000000
    29 -0.170479 -2.636146 -0.277655 -1.483539 0.000000 0.000000
    30 0.010598 -1.261177 0.000001 -0.340297 0.000000 0.000000
    31 -0.000001 -0.943233 -0.000002 -0.532326 0.000000 0.000000
    32 -0.827563 -2.508972 -0.277656 -1.265405 0.000000 0.000000
    33 -0.000001 -1.292971 0.000000 -0.558504 0.000000 0.000000
    34 -0.000001 -0.752466 0.000000 -0.445059 0.000000 0.000000
    35 0.444214 -2.561959 -0.277655 -1.605179 -0.046226 -0.024599
    36 0.021022 -1.208186 0.000001 -0.427606 0.000000 0.000000
    37 0.010597 -0.741867 -0.000001 -0.453786 0.000000 0.000000
    38 1.047445 -2.222820 -0.277655 -1.508123 -0.078971 -0.038609
    39 0.000000 -0.996223 -0.000002 -0.689433 0.000000 0.000000
    40 -0.000001 -0.614690 -0.000001 -0.523599 0.000000 0.000000
    41 -0.308254 -0.007813 0.307166 -0.124628 -0.088654 -2.592079
    42 1.978378 0.019542 0.000001 -0.084829 -0.061467 -0.075917
    43 0.982426 0.003185 0.000000 0.000000 0.000000 0.314179
    44 -1.122644 -2.197476 -0.281120 -1.064647 0.000001 -0.087266
    45 0.007812 -0.964973 0.000001 -0.715574 0.000000 0.000000
    46 -0.007812 -0.630317 0.000000 -1.396260 0.000000 0.000000
    47 -0.515544 -2.501512 -0.280215 -1.003564 0.000003 -0.122182
    48 -0.013191 -1.208188 0.000000 -1.090831 0.000000 0.000000
    49 -0.002946 -0.761399 0.000001 -1.343903 0.000000 0.000000
  time 27
    0 7.024501 5.864956 -7.397159 -0.940823 -1.396637 0.736892
    1 0.000000 -8.563281 0.000000 0.307397 -0.188607 -0.167640
    2 -0.725000 -3.341000 0.707000 -1.247039 1.437607 -1.233845
    3 0.000001 1.851472 0.849855 0.000000 0.000000 0.000000
    4 0.000000 -2.655797 1.578303 0.000000 0.000000 0.000000
    5 0.004569 -5.341948 1.579176 0.000000 0.000000 0.000000
    6 0.000000 0.030354 -1.365839 0.000000 0.000000 0.000000
    7 -1.703881 0.381351 1.509396 0.000000 -0.072066 0.000000
    8 0.306899 0.000000 0.000000 0.000000 -0.730438 0.000000
    9 0.311222 0.000001 0.000000 0.000000 -0.161338 0.000000
    10 0.293932 -0.000001 0.000000 0.000000 -0.079789 0.000000
    11 0.298254 0.000000 0.000000 0.000000 -0.078599 0.000000
    12 0.306899 0.000000 0.000000 0.000000 0.252639 0.000000
    13 0.298254 -0.000001 0.000000 0.000000 0.519655 0.000000
    14 0.306899 0.000000 0.000000 0.000000 0.483346 0.000000
    15 0.600744 -5.369449 3.607356 0.000000 0.000000 0.000000
    16 -0.003480 -0.404829 0.000000 0.000000 0.000000 0.000000
    17 0.105981 -2.607135 -0.278958 -0.890118 0.000000 -0.148353
    18 0.000000 -1.250579 0.000000 -1.213004 0.000000 0.000000
    19 0.000000 -0.932634 0.000000 -1.483530 0.000000 0.000000
    20 0.763063 -2.490557 -0.278958 -0.349065 0.000000 0.130900
    21 -0.012322 -1.280917 0.000000 -0.200713 0.000000 0.000000
    22 -0.001697 -0.749371 0.000000 -0.724295 0.000000 0.000000
    23 0.354566 0.016267 0.318133 0.342077 -0.443527 -1.083976
    24 1.887165 0.012878 0.000000 -0.301502 -0.049640 -0.559682
    25 1.001874 -0.000270 0.000000 0.000000 0.000000 -0.715584
    26 -1.847226 -6.122995 -9.822860 -0.775984 0.707587 0.169503
    27 0.089928 -8.543161 -0.000001 0.124769 -0.703359 0.470327
    28 0.000000 -0.359712 0.000000 0.000000 0.000000 0.000000
    29 -0.170479 -2.636146 -0.277655 -1.483539 0.000000 0.000000
    30 0.010598 -1.261177 0.000001 -0.340297 0.000000 0.000000
    31 -0.000001 -0.943233 -0.000002 -0.532326 0.000000 0.000000
    32 -0.827563 -2.508972 -0.277656 -1.265405 0.000000 0.000000
    33 -0.000001 -1.292971 0.000000 -0.558504 0.000000 0.000000
    34 -0.000001 -0.752466 0.000000 -0.445059 0.000000 0.000000
    35 0.444214 -2.561959 -0.277655 -1.605179 -0.046226 -0.024599
    36 0.021022 -1.208186 0.000001 -0.427606 0.000000 0.000000
    37 0.010597 -0.741867 -0.000001 -0.453786 0.000000 0.000000
    38 1.047445 -2.222820 -0.277655 -1.508123 -0.078971 -0.038609
    39 0.000000 -0.996223 -0.000002 -0.689433 0.000000 0.000000
    40 -0.000001 -0.614690 -0.000001 -0.523599 0.000000 0.000000
    41 -0.308254 -0.007813 0.307166 -0.124628 -0.088654 -2.592079
    42 1.978378 0.019542 0.000001 -0.084829 -0.061467 -0.075917
    43 0.982426 0.003185 0.000000 0.000000 0.000000 0.314179
    44 -1.122644 -2.197476 -0.281120 -1.064647 0.000001 -0.087266
    45 0.007812 -0.964973 0.000001 -0.715574 0.000000 0.000000
    46 -0.007812 -0.630317 0.000000 -1.396260 0.000000 0.000000
    47 -0.515544 -2.501512 -0.280215 -1.003564 0.000003 -0.122182
    48 -0.013191 -1.208188 0.000000 -1.090831 0.000000 0.000000
    49 -0.002946 -0.761399 0.000001 -1.343903 0.000000 0.000000
  time 28
    0 7.071378 5.864956 -7.397159 -0.872642 -1.375137 0.667167
    1 0.000000 -8.563281 0.000000 0.323887 -0.163139 -0.169091
    2 -0.725000 -3.341000 0.707000 -1.247039 1.437607 -1.233845
    3 0.000001 1.851472 0.849855 0.000000 0.000000 0.000000
    4 0.000000 -2.655797 1.578303 0.000000 0.000000 0.000000
    5 0.004569 -5.341948 1.579176 0.000000 0.000000 0.000000
    6 0.000000 0.030354 -1.365839 0.000000 0.000000 0.000000
    7 -1.703881 0.381351 1.509396 0.000000 -0.046145 0.000000
    8 0.306899 0.000000 0.000000 0.000000 -0.752519 0.000000
    9 0.311222 0.000001 0.000000 0.000000 -0.203534 0.000000
    10 0.293932 -0.000001 0.000000 0.000000 -0.101011 0.000000
    11 0.298254 0.000000 0.000000 0.000000 -0.086397 0.000000
    12 0.306899 0.000000 0.000000 0.000000 0.264822 0.000000
    13 0.298254 -0.000001 0.000000 0.000000 0.504071 0.000000
    14 0.306899 0.000000 0.000000 0.000000 0.459671 0.000000
    15 0.600744 -5.369449 3.607356 0.000000 0.000000 0.000000
    16 -0.003480 -0.404829 0.000000 0.000000 0.000000 0.000000
    17 0.105981 -2.607135 -0.278958 -0.890118 0.000000 -0.148353
    18 0.000000 -1.250579 0.000000 -1.213004 0.000000 0.000000
    19 0.000000 -0.932634 0.000000 -1.483530 0.000000 0.000000
    20 0.763063 -2.490557 -0.278958 -0.349065 0.000000 0.130900
    21 -0.012322 -1.280917 0.000000 -0.200713 0.000000 0.000000
    22 -0.001697 -0.749371 0.000000 -0.724295 0.000000 0.000000
    23 0.354566 0.016267 0.318133 0.342077 -0.443527 -1.083976
    24 1.887165 0.012878 0.000000 -0.301502 -0.049640 -0.559682
    25 1.001874 -0.000270 0.000000 0.000000 0.000000 -0.715584
    26 -1.929259 -6.396441 -9.744733 -0.784046 0.733348 0.209055
    27 0.089928 -8.543161 -0.000001 0.137470 -0.701351 0.450652
    28 0.000000 -0.359712 0.000000 0.000000 0.000000 0.000000
    29 -0.170479 -2.636146 -0.277655 -1.483539 0.000000 0.000000
    30 0.010598 -1.261177 0.000001 -0.340297 0.000000 0.000000
    31 -0.000001 -0.943233 -0.000002 -0.532326 0.000000 0.000000
    32 -0.827563 -2.508972 -0.277656 -1.265405 0.000000 0.000000
    33 -0.000001 -1.292971 0.000000 -0.558504 0.000000 0.000000
    34 -0.000001 -0.752466 0.000000 -0.445059 0.000000 0.000000
    35 0.444214 -2.561959 -0.277655 -1.605179 -0.046226 -0.024599
    36 0.021022 -1.208186 0.000001 -0.427606 0.000000 0.000000
    37 0.010597 -0.741867 -0.000001 -0.453786 0.000000 0.000000
    38 1.047445 -2.222820 -0.277655 -1.508123 -0.078971 -0.038609
    39 0.000000 -0.996223 -0.000002 -0.689433 0.000000 0.000000
    40 -0.000001 -0.614690 -0.000001 -0.523599 0.000000 0.000000
    41 -0.308254 -0.007813 0.307166 -0.124628 -0.088654 -2.592079
    42 1.978378 0.019542 0.000001 -0.084829 -0.061467 -0.075917
    43 0.982426 0.003185 0.000000 0.000000 0.000000 0.314179
    44 -1.122644 -2.197476 -0.281120 -1.064647 0.000001 -0.087266
    45 0.007812 -0.964973 0.000001 -0.715574 0.000000 0.000000
    46 -0.007812 -0.630317 0.000000 -1.396260 0.000000 0.000000
    47 -0.515544 -2.501512 -0.280215 -1.003564 0.000003 -0.122182
    48 -0.013191 -1.208188 0.000000 -1.090831 0.000000 0.000000
    49 -0.002946 -0.761399 0.000001 -1.343903 0.000000 0.000000
  time 29
    0 7.094816 5.864956 -7.397159 -0.808377 -1.349801 0.603293
    1 0.000000 -8.563281 0.000000 0.339336 -0.138823 -0.169786
    2 -0.725000 -3.341000 0.707000 -1.247039 1.437607 -1.233845
    3 0.000001 1.851472 0.849855 0.000000 0.000000 0.000000
    4 0.000000 -2.655797 1.578303 0.000000 0.000000 0.000000
    5 0.004569 -5.341948 1.579176 0.000000 0.000000 0.000000
    6 0.000000 0.030354 -1.365839 0.000000 0.000000 0.000000
    7 -1.703881 0.381351 1.509396 0.000000 -0.021889 0.000000
    8 0.306899 0.000000 0.000000 0.000000 -0.784579 0.000000
    9 0.311222 0.000001 0.000000 0.000000 -0.257443 0.000000
    10 0.293932 -0.000001 0.000000 0.000000 -0.119690 0.000000
    11 0.298254 0.000000 0.000000 0.000000 -0.090228 0.000000
    12 0.306899 0.000000 0.000000 0.000000 0.282041 0.000000
    13 0.298254 -0.000001 0.000000 0.000000 0.487378 0.000000
    14 0.306899 0.000000 0.000000 0.000000 0.428726 0.000000
    15 0.600744 -5.369449 3.607356 0.000000 0.000000 0.000000
    16 -0.003480 -0.404829 0.000000 0.000000 0.000000 0.000000
    17 0.105981 -2.607135 -0.278958 -0.890118 0.000000 -0.148353
    18 0.000000 -1.250579 0.000000 -1.213004 0.000000 0.000000
    19 0.000000 -0.932634 0.000000 -1.483530 0.000000 0.000000
    20 0.763063 -2.490557 -0.278958 -0.349065 0.000000 0.130900
    21 -0.012322 -1.280917 0.000000 -0.200713 0.000000 0.000000
    22 -0.001697 -0.749371 0.000000 -0.724295 0.000000 0.000000
    23 0.354566 0.016267 0.318133 0.342077 -0.443527 -1.083976
    24 1.887165 0.012878 0.000000 -0.301502 -0.049640 -0.559682
    25 1.001874 -0.000270 0.000000 0.000000 0.000000 -0.715584
    26 -2.073795 -6.736295 -9.561133 -0.788463 0.761471 0.254856
    27 0.089928 -8.543161 -0.000001 0.150933 -0.699015 0.429780
    28 0.000000 -0.359712 0.000000 0.000000 0.000000 0.000000
    29 -0.170479 -2.636146 -0.277655 -1.483539 0.000000 0.000000
    30 0.010598 -1.261177 0.000001 -0.340297 0.000000 0.000000
    31 -0.000001 -0.943233 -0.000002 -0.532326 0.000000 0.000000
    32 -0.827563 -2.508972 -0.277656 -1.265405 0.000000 0.000000
    33 -0.000001 -1.292971 0.000000 -0.558504 0.000000 0.000000
    34 -0.000001 -0.752466 0.000000 -0.445059 0.000000 0.000000
    35 0.444214 -2.561959 -0.277655 -1.605179 -0.046226 -0.024599
    36 0.021022 -1.208186 0.000001 -0.427606 0.000000 0.000000
    37 0.010597 -0.741867 -0.000001 -0.453786 0.000000 0.000000
    38 1.047445 -2.222820 -0.277655 -1.508123 -0.078971 -0.038609
    39 0.000000 -0.996223 -0.000002 -0.689433 0.000000 0.000000
    40 -0.000001 -0.614690 -0.000001 -0.523599 0.000000 0.000000
    41 -0.308254 -0.007813 0.307166 -0.124628 -0.088654 -2.592079
    42 1.978378 0.019542 0.000001 -0.084829 -0.061467 -0.075917
    43 0.982426 0.003185 0.000000 0.000000 0.000000 0.314179
    44 -1.122644 -2.197476 -0.281120 -1.064647 0.000001 -0.087266
    45 0.007812 -0.964973 0.000001 -0.715574 0.000000 0.000000
    46 -0.007812 -0.630317 0.000000 -1.396260 0.000000 0.000000
    47 -0.515544 -2.501512 -0.280215 -1.003564 0.000003 -0.122182
    48 -0.013191 -1.208188 0.000000 -1.090831 0.000000 0.000000
    49 -0.002946 -0.761399 0.000001 -1.343903 0.000000 0.000000
  time 30
    0 7.106535 5.864956 -7.397159 -0.774287 -1.331381 0.567320
    1 0.000000 -8.563281 0.000000 0.347509 -0.125220 -0.169570
    2 -0.725000 -3.341000 0.707000 -1.247039 1.437607 -1.233845
    3 0.000001 1.851472 0.849855 0.000000 0.000000 0.000000
    4 0.000000 -2.655797 1.578303 0.000000 0.000000 0.000000
    5 0.004569 -5.341948 1.579176 0.000000 0.000000 0.000000
    6 0.000000 0.030354 -1.365839 0.000000 0.000000 0.000000
    7 -1.703881 0.381351 1.509396 0.000000 0.000014 0.000000
    8 0.306899 0.000000 0.000000 0.000000 -0.811579 0.000000
    9 0.311222 0.000001 0.000000 0.000000 -0.305433 0.000000
    10 0.293932 -0.000001 0.000000 0.000000 -0.139626 0.000000
    11 0.298254 0.000000 0.000000 0.000000 -0.095991 0.000000
    12 0.306899 0.000000 0.000000 0.000000 0.296708 0.000000
    13 0.298254 -0.000001 0.000000 0.000000 0.471239 0.000000
    14 0.306899 0.000000 0.000000 0.000000 0.401426 0.000000
    15 0.600744 -5.369449 3.607356 0.000000 0.000000 0.000000
    16 -0.003480 -0.404829 0.000000 0.000000 0.000000 0.000000
    17 0.105981 -2.607135 -0.278958 -0.890118 0.000000 -0.148353
    18 0.000000 -1.250579 0.000000 -1.213004 0.000000 0.000000
    19 0.000000 -0.932634 0.000000 -1.483530 0.000000 0.000000
    20 0.763063 -2.490557 -0.278958 -0.349065 0.000000 0.130900
    21 -0.012322 -1.280917 0.000000 -0.200713 0.000000 0.000000
    22 -0.001697 -0.749371 0.000000 -0.724295 0.000000 0.000000
    23 0.354566 0.016267 0.318133 0.342077 -0.443527 -1.083976
    24 1.887165 0.012878 0.000000 -0.301502 -0.049640 -0.559682
    25 1.001874 -0.000270 0.000000 0.000000 0.000000 -0.715584
    26 -2.273020 -7.130839 -9.283781 -0.796360 0.785496 0.290127
    27 0.089928 -8.543161 -0.000001 0.162661 -0.696867 0.411523
    28 0.000000 -0.359712 0.000000 0.000000 0.000000 0.000000
    29 -0.170479 -2.636146 -0.277655 -1.483539 0.000000 0.000000
    30 0.010598 -1.261177 0.000001 -0.340297 0.000000 0.000000
    31 -0.000001 -0.943233 -0.000002 -0.532326 0.000000 0.000000
    32 -0.827563 -2.508972 -0.277656 -1.265405 0.000000 0.000000
    33 -0.000001 -1.292971 0.000000 -0.558504 0.000000 0.000000
    34 -0.000001 -0.752466 0.000000 -0.445059 0.000000 0.000000
    35 0.444214 -2.561959 -0.277655 -1.605179 -0.046226 -0.024599
    36 0.021022 -1.208186 0.000001 -0.427606 0.000000 0.000000
    37 0.010597 -0.741867 -0.000001 -0.453786 0.000000 0.000000
    38 1.047445 -2.222820 -0.277655 -1.508123 -0.078971 -0.038609
    39 0.000000 -0.996223 -0.000002 -0.689433 0.000000 0.000000
    40 -0.000001 -0.614690 -0.000001 -0.523599 0.000000 0.000000
    41 -0.308254 -0.007813 0.307166 -0.124628 -0.088654 -2.592079
    42 1.978378 0.019542 0.000001 -0.084829 -0.061467 -0.075917
    43 0.982426 0.003185 0.000000 0.000000 0.000000 0.314179
    44 -1.122644 -2.197476 -0.281120 -1.064647 0.000001 -0.087266
    45 0.007812 -0.964973 0.000001 -0.715574 0.000000 0.000000
    46 -0.007812 -0.630317 0.000000 -1.396260 0.000000 0.000000
    47 -0.515544 -2.501512 -0.280215 -1.003564 0.000003 -0.122182
    48 -0.013191 -1.208188 0.000000 -1.090831 0.000000 0.000000
    49 -0.002946 -0.761399 0.000001 -1.343903 0.000000 0.000000
end
