// Created by Crowbar 0.49.0.0

$modelname "weapons/tfa_cso/c_ddeagle.mdl"

$bodygroup "weapon"
{
	studio "v_DDeagle-PV"
}
$bodygroup "hands"
{
	studio "v_ddeagle_f_elite_Male_hand_Low"
}

$CDMaterials "models\weapons\tfa_cso\ddeagle\"

$attachment 0 "Bone52_R" 0 -5.75 0
$attachment 1 "Bone52_L" 0 -5.5 0
//$attachment 2 "Bone52_R" 0 -2.25 0
//$attachment 3 "Bone52_L" 0 -2 0

$definebone "Bone01" "" -8.649357 0.000000 0.000000 72.000549 -114.016629 -136.162200 0.000000 0.000000 0.000000 -0.000000 0.000001 0.000000
$definebone "Bone02" "Bone01" 0.026864 -9.077099 -0.000000 -23.609302 15.067876 11.824070 0.000000 0.000000 0.000000 -0.000003 0.000001 -0.000003
$definebone "Bone02_R" "Bone02" -1.097280 -3.834857 3.219483 -77.767961 -44.033243 38.853368 0.000000 0.000000 0.000000 0.000002 -0.000000 -0.000004
$definebone "Bone03_R" "Bone02_R" 0.000000 2.617617 0.665016 0.000002 -0.000000 -0.000004 0.000000 0.000000 0.000000 0.000002 -0.000000 -0.000004
$definebone "Bone52_R" "Bone03_R" -0.000000 -1.655466 2.278033 0.000002 -0.000000 -0.000004 0.000000 0.000000 0.000000 0.000002 -0.000000 -0.000004
$definebone "Bone24" "" 9.799456 0.000000 0.000000 -75.930811 104.851772 -126.386505 0.000000 0.000000 0.000000 -0.000000 -0.000001 0.000002
$definebone "Bone25" "Bone24" -0.244754 -8.933565 0.000000 16.680176 -14.390582 11.892599 0.000000 0.000000 0.000000 -0.000003 -0.000001 0.000001
$definebone "Bone02_L" "Bone25" 2.873638 -0.740242 -1.485046 78.759124 49.124490 44.048874 -0.000001 0.000000 0.000000 0.000002 -0.000002 -0.000002
$definebone "Bone03_L" "Bone02_L" 0.000000 2.617617 0.665016 0.000002 -0.000002 -0.000002 0.000000 0.000000 0.000000 0.000002 -0.000002 -0.000002
$definebone "Bone52_L" "Bone03_L" 0.000002 -1.655466 2.278034 0.000002 -0.000002 -0.000002 0.000000 0.000000 0.000000 0.000002 -0.000002 -0.000002
$definebone "Bone25_R" "Bone03_R" 0.000000 -2.886455 1.471524 0.000002 -0.000000 -0.000004 0.000000 0.000000 0.000000 0.000002 -0.000000 -0.000004
$definebone "Bone48_R" "Bone03_R" 0.000000 -1.796960 1.330032 0.000002 -0.000000 -0.000004 0.000000 0.000000 0.000000 0.000002 -0.000000 -0.000004
$definebone "Bone50_R" "Bone03_R" -0.000000 -0.778212 1.774023 0.000002 -0.000000 -39.000039 0.000000 0.000000 -0.000000 0.000001 0.000001 -0.000006
$definebone "Bone54_R" "Bone03_R" -0.000000 -1.598868 0.580120 0.000002 -0.000000 -0.000004 0.000000 0.000000 0.000000 0.000002 -0.000000 -0.000004
$definebone "Bone48_L" "Bone03_L" 0.000000 -1.796959 1.330032 0.000002 -0.000002 -0.000002 0.000000 0.000000 0.000000 0.000002 -0.000002 -0.000002
$definebone "Bone25_L" "Bone03_L" -0.000001 -2.886454 1.471524 0.000002 -0.000002 -0.000002 0.000000 0.000000 0.000000 0.000002 -0.000002 -0.000002
$definebone "Bone50_L" "Bone03_L" 0.000001 -0.778212 1.774024 0.000002 -0.000002 -39.000039 0.000000 0.000000 -0.000000 0.000003 0.000000 -0.000004
$definebone "Bone54_L" "Bone03_L" 0.000000 -1.598868 0.580120 0.000002 -0.000002 -0.000002 0.000000 0.000000 0.000000 0.000002 -0.000002 -0.000002
$definebone "Bone03" "Bone02" 0.000000 -0.456722 -0.000001 -0.163583 -0.011228 0.275821 0.000000 -0.000000 0.000000 -0.000003 0.000002 -0.000002
$definebone "Bone04" "Bone03" -0.421911 0.233314 0.477534 -21.517488 -119.836353 -12.192366 0.000000 0.000000 -0.000000 -0.000003 0.000001 0.000001
$definebone "Bone05" "Bone04" 1.827485 -0.104694 -0.000000 -0.000005 30.000015 -0.000002 0.000000 0.000000 -0.000000 -0.000005 0.000000 -0.000002
$definebone "Bone06" "Bone05" 1.069448 0.056463 -0.000000 -0.000002 48.600000 -0.000005 0.000001 0.000000 0.000000 -0.000002 -0.000001 -0.000005
$definebone "Bone07" "Bone03" -1.090122 -1.829638 -0.122573 -8.085466 -99.948365 0.853825 0.000000 -0.000000 0.000000 -0.000002 -0.000001 0.000003
$definebone "Bone08" "Bone07" 1.390343 -0.000583 0.000000 -40.944833 0.093337 0.062516 0.000000 0.000000 0.000000 0.000007 0.000002 0.000005
$definebone "Bone09" "Bone08" 0.964941 -0.010943 -0.000001 -57.881633 0.000008 0.000009 0.000000 -0.000000 0.000001 0.000002 0.000004 0.000001
$definebone "Bone11" "Bone03" -0.348493 -1.994085 -0.122574 -14.904526 -82.358962 -4.524130 0.000000 0.000000 0.000000 -0.000002 -0.000002 0.000002
$definebone "Bone12" "Bone11" 1.546318 0.004627 0.000000 -87.000068 179.999952 179.999911 0.000000 0.000000 0.000000 0.000002 0.000002 0.000002
$definebone "Bone13" "Bone12" 1.135737 0.008475 0.000001 -63.599977 1.200008 0.000002 0.000000 0.000000 0.000000 -0.000003 0.000002 -0.000001
$definebone "Bone15" "Bone03" 0.310263 -1.738958 -0.122574 -10.467256 -82.423705 -3.233084 0.000000 0.000000 0.000000 -0.000003 -0.000001 0.000003
$definebone "Bone16" "Bone15" 1.569656 0.049779 0.000001 -85.800148 -0.599961 0.000041 0.000000 0.000000 0.000000 -0.000000 0.000003 0.000002
$definebone "Bone17" "Bone16" 1.096338 0.003406 0.000001 -69.599990 0.300007 0.000003 0.000000 -0.000000 0.000000 -0.000000 0.000002 -0.000003
$definebone "Bone19" "Bone03" 0.956485 -1.335291 -0.122574 -15.299981 -82.800021 0.000004 0.000000 0.000000 0.000000 -0.000003 -0.000001 0.000003
$definebone "Bone20" "Bone19" 1.346261 0.018204 -0.000000 -35.100028 -0.052826 -0.157215 0.000000 0.000000 0.000000 0.000002 0.000001 0.000004
$definebone "Bone21" "Bone20" 0.874448 -0.001050 0.000000 -79.799956 0.000017 0.000022 0.000000 0.000000 0.000000 0.000002 0.000003 -0.000001
$definebone "Bone26" "Bone25" -0.017482 -0.437064 0.000000 -0.000003 -0.000001 0.000001 0.000000 -0.000000 0.000000 -0.000003 -0.000001 0.000001
$definebone "Bone27" "Bone26" 0.472028 0.192309 0.472822 -28.251632 -60.064315 17.020806 0.000000 0.000000 0.000000 -0.000000 0.000007 -0.000002
$definebone "Bone28" "Bone27" 1.857548 0.010603 0.000000 -0.000002 -26.100002 -0.000003 0.000000 0.000000 0.000000 -0.000002 0.000001 -0.000003
$definebone "Bone29" "Bone28" 0.996041 -0.010017 0.000000 -0.000004 -49.200005 0.000000 0.000000 0.000000 0.000001 -0.000004 -0.000005 0.000000
$definebone "Bone31" "Bone26" 1.137759 -1.867485 -0.137079 -3.000005 -87.299975 0.000002 0.000000 0.000000 0.000000 0.000003 0.000001 0.000003
$definebone "Bone32" "Bone31" 1.365644 0.014869 0.000000 -21.600735 -0.160598 -0.039131 0.000000 0.000000 -0.000001 0.000003 0.000002 0.000001
$definebone "Bone33" "Bone32" 0.938013 -0.005664 0.000002 -35.100018 0.600005 0.000002 -0.000000 0.000000 0.000000 0.000007 0.000003 0.000000
$definebone "Bone35" "Bone26" 0.409682 -2.071858 -0.137080 -16.068027 -100.281767 3.906370 0.000000 -0.000000 0.000000 -0.000000 -0.000002 0.000002
$definebone "Bone36" "Bone35" 1.470906 0.007359 0.000000 -87.299845 -179.400071 179.999966 0.000000 0.000000 -0.000000 -0.000000 0.000003 0.000001
$definebone "Bone37" "Bone36" 1.152099 0.010338 -0.000001 -63.000033 0.300007 0.000004 0.000000 0.000000 0.000000 0.000001 0.000003 -0.000001
$definebone "Bone39" "Bone26" -0.292848 -1.816394 -0.137080 -12.859579 -98.816036 1.029493 -0.000000 0.000000 0.000000 0.000002 -0.000000 0.000002
$definebone "Bone40" "Bone39" 1.511617 -0.004263 -0.000001 -88.500046 2.099350 0.000750 0.000000 0.000000 0.000000 -0.000002 0.000002 -0.000000
$definebone "Bone41" "Bone40" 1.099636 -0.010806 0.000000 -64.799979 0.600003 -0.000002 -0.000001 0.000000 0.000000 0.000001 0.000001 -0.000001
$definebone "Bone43" "Bone26" -0.957059 -1.356554 -0.137080 -13.499973 -96.600002 0.000002 -0.000000 0.000000 0.000000 0.000002 0.000001 0.000002
$definebone "Bone44" "Bone43" 1.351391 -0.010799 -0.000001 -43.199987 0.299602 0.000001 -0.000000 0.000000 0.000000 -0.000000 0.000002 -0.000001
$definebone "Bone45" "Bone44" 0.859052 0.017735 -0.000001 -78.600015 -0.599999 -0.000004 0.000000 0.000000 0.000000 0.000002 0.000001 -0.000003

$sequence "idle" {
	"v_ddeagle_anims\idle"
	fps 16
	activity "ACT_VM_IDLE" 1
	snap
	loop
}
$sequence "idle_leftempty" {
	"v_ddeagle_anims\idle_leftempty"
	fps 16
}
$sequence "shoot_left1" {
	"v_ddeagle_anims\shoot_left1"
	{ event 5011 0 "21" }
	fps 40
	activity "ACT_VM_PRIMARYATTACK" 1
	snap
}
$sequence "shoot_left2" {
	"v_ddeagle_anims\shoot_left2"
	{ event 5011 0 "21" }
	fps 40
	activity "ACT_VM_PRIMARYATTACK" 2
	snap
}
$sequence "shoot_left3" {
	"v_ddeagle_anims\shoot_left3"
	{ event 5011 0 "21" }
	fps 40
	activity "ACT_VM_PRIMARYATTACK" 3
	snap
}
$sequence "shoot_left4" {
	"v_ddeagle_anims\shoot_left4"
	{ event 5011 0 "21" }
	fps 40
	activity "ACT_VM_PRIMARYATTACK" 4
	snap
}
$sequence "shoot_left5" {
	"v_ddeagle_anims\shoot_left5"
	{ event 5011 0 "21" }
	fps 40
	activity "ACT_VM_PRIMARYATTACK" 5
	snap
}
$sequence "shoot_leftlast" {
	"v_ddeagle_anims\shoot_leftlast"
	{ event 5001 0 "21" }
	fps 40
}
$sequence "shoot_right1" {
	"v_ddeagle_anims\shoot_right1"
	{ event 5001 0 "21" }
	fps 40
	activity "ACT_VM_SECONDARYATTACK" 1
	snap
}
$sequence "shoot_right2" {
	"v_ddeagle_anims\shoot_right2"
	{ event 5001 0 "21" }
	fps 40
	activity "ACT_VM_SECONDARYATTACK" 2
	snap
}
$sequence "shoot_right3" {
	"v_ddeagle_anims\shoot_right3"
	{ event 5001 0 "21" }
	fps 40
	activity "ACT_VM_SECONDARYATTACK" 3
	snap
}
$sequence "shoot_right4" {
	"v_ddeagle_anims\shoot_right4"
	{ event 5001 0 "21" }
	fps 40
	activity "ACT_VM_SECONDARYATTACK" 4
	snap
}
$sequence "shoot_right5" {
	"v_ddeagle_anims\shoot_right5"
	{ event 5001 0 "21" }
	fps 40
	activity "ACT_VM_SECONDARYATTACK" 5
	snap
}
$sequence "shoot_rightlast" {
	"v_ddeagle_anims\shoot_rightlast"
	{ event 5011 0 "21" }
	fps 40
}
$sequence "reload" {
	"v_ddeagle_anims\reload"
	{ event 5004 1 "DDE.ClipOff" }
	{ event 5004 6 "DDE.Twirl" }
	{ event 5004 19 "DDE.ClipOut" }
	{ event 5004 46 "DDE.ClipIn" }
	{ event 5004 76 "DDE.ClipOut" }
	{ event 5004 82 "DDE.Load" }
	{ event 5004 111 "DDE.ClipIn" }
	{ event 5004 125 "DDE.Load" }
	fps 30
	activity "ACT_VM_RELOAD" 1
	snap
}
$sequence "draw" {
	"v_ddeagle_anims\draw"
	{ event 5004 1 "DDE.Twirl" }
	fps 30
	activity "ACT_VM_DRAW" 1
	snap
}
