version 1
nodes
  0 "root" -1
  1 "Bone01" 0
  2 "Bone_Lefthand" 1
  3 "Bone02" 2
  4 "Bone12" 3
  5 "Bone16" 3
  6 "Bone08" 3
  7 "Bone_L_Upper" 1
  8 "Bone13" 2
  9 "Bone14" 8
  10 "Bone15" 9
  11 "Bone17" 2
  12 "Bone18" 11
  13 "Bone19" 12
  14 "Bone21" 2
  15 "Bone22" 14
  16 "Bone23" 15
  17 "Bone09" 2
  18 "Bone10" 17
  19 "Bone11" 18
  20 "Bone05" 2
  21 "Bone06" 20
  22 "Bone07" 21
  23 "Bone_Se_Hand-L" 2
  24 "Bone04" 0
  25 "Bone_Righthand" 24
  26 "Bone39" 25
  27 "Bone40" 26
  28 "Bone41" 27
  29 "Bone35" 25
  30 "Bone36" 29
  31 "Bone37" 30
  32 "Bone31" 25
  33 "Bone32" 32
  34 "Bone33" 33
  35 "Bone43" 25
  36 "Bone44" 35
  37 "Bone45" 36
  38 "Bone27" 25
  39 "Bone28" 38
  40 "Bone29" 39
  41 "Bone_Se_Hand-R" 25
  42 "Bone_R_Upper" 24
end
skeleton
  time 0
    0 -0.996124 1.625050 3.535264 0.000000 0.000000 0.000000
    1 6.363109 2.507889 -15.977050 -0.970288 -0.785684 0.775480
    2 -0.071920 -8.498730 -0.104137 0.176040 0.231264 0.147197
    3 2.815887 -5.283123 1.386549 0.209716 0.049969 -1.630727
    4 3.633989 -0.389699 -0.017558 -1.570797 -1.570796 0.000000
    5 11.822113 -1.093859 -0.000002 0.000001 0.000000 -1.570796
    6 -3.086881 -7.904548 -4.382994 0.264078 -0.455082 0.474819
    7 1.257180 8.762585 -0.153713 -1.570562 0.002683 -1.566807
    8 -0.488518 -2.755602 -0.228260 -0.871614 -0.202550 -0.209553
    9 0.039887 -1.479790 0.029854 -1.516144 0.000000 0.000001
    10 0.028786 -1.075731 -0.023109 -1.298153 0.000000 0.000000
    11 0.250027 -2.820665 -0.238396 -0.797118 -0.167505 -0.114926
    12 -0.049759 -1.680544 0.100479 -1.644607 0.000000 -0.000002
    13 -0.034142 -1.148312 0.084782 -1.481046 0.000000 0.000000
    14 0.957766 -2.746780 -0.090302 -0.175885 -0.162672 0.097910
    15 -0.033420 -1.397129 -0.011257 -0.521018 0.000000 -0.000001
    16 -0.022360 -0.957436 0.018784 -0.975516 0.000000 0.000000
    17 -1.180681 -2.507217 -0.193859 -0.671429 -0.081504 -0.261329
    18 -0.024967 -1.123934 0.017597 -1.276708 0.000000 0.000001
    19 -0.020057 -0.890968 0.010090 -1.435733 0.000000 0.000000
    20 0.583510 -1.197277 0.185379 0.135458 -1.044822 -1.384612
    21 1.535927 0.010246 0.005009 -0.002964 -0.012979 -0.506650
    22 1.100771 0.004527 -0.010679 -0.015488 -0.004772 -1.694062
    23 0.120153 -0.050270 -0.054489 0.287569 3.110905 1.561085
    24 0.190183 -14.989370 -22.876981 1.325327 -2.488162 0.884064
    25 0.096944 -8.450418 -0.009365 0.468189 -1.052155 -0.376374
    26 0.447953 -2.798986 -0.200443 -0.895114 0.080411 0.181993
    27 -0.032909 -1.480204 0.004940 -1.562664 0.000000 0.000002
    28 -0.027022 -1.076920 -0.020210 -1.353433 0.000000 0.000000
    29 -0.249534 -2.846964 -0.174213 -0.563520 0.059570 0.201886
    30 0.043235 -1.683941 0.096012 -1.740205 0.002823 -0.000167
    31 0.031729 -1.160830 0.058838 -1.701368 0.000642 0.008372
    32 -0.963866 -2.785145 -0.085350 -0.272004 0.220066 0.176802
    33 0.028479 -1.403067 0.006271 -0.226231 0.000000 0.000000
    34 0.021413 -0.957781 0.020046 -0.625539 0.000000 0.000000
    35 1.164475 -2.543940 -0.170330 -1.110644 -0.190570 0.231620
    36 0.024032 -1.129042 0.017807 -1.303248 0.000000 0.000001
    37 0.014898 -0.883989 -0.019848 -1.545343 0.000000 0.000000
    38 -0.586770 -1.264477 0.200161 0.250695 -0.573527 -2.508811
    39 1.522835 0.058681 0.016848 0.001410 0.008985 0.551176
    40 1.117947 0.048424 -0.005766 0.001255 -0.025174 0.005128
    41 -0.139399 -0.111698 0.014397 0.808194 0.214002 1.504562
    42 -1.393470 8.839177 -0.239433 1.580804 -0.005023 -1.566847
  time 1
    0 -0.996124 1.625050 3.535264 0.000000 0.000000 0.000000
    1 6.324046 2.371166 -16.160649 -0.976788 -0.781123 0.780072
    2 -0.071920 -8.498730 -0.104137 0.176939 0.250343 0.154675
    3 2.815887 -5.283123 1.386549 0.209716 0.049969 -1.630727
    4 3.633989 -0.389699 -0.017558 -1.570797 -1.570796 0.000000
    5 11.822113 -1.093859 -0.000002 0.000001 0.000000 -1.570796
    6 -1.773376 -5.897092 -2.297396 0.493423 -0.299387 0.625056
    7 1.257180 8.762585 -0.153713 -1.570562 0.002683 -1.566807
    8 -0.488518 -2.755602 -0.228260 -0.871614 -0.202550 -0.209553
    9 0.039887 -1.479790 0.029854 -1.516144 0.000000 0.000001
    10 0.028786 -1.075731 -0.023109 -1.298153 0.000000 0.000000
    11 0.250027 -2.820665 -0.238396 -0.797118 -0.167505 -0.114926
    12 -0.049759 -1.680544 0.100479 -1.644607 0.000000 -0.000002
    13 -0.034142 -1.148312 0.084782 -1.481046 0.000000 0.000000
    14 0.957766 -2.746780 -0.090302 -0.175885 -0.162672 0.097910
    15 -0.033420 -1.397129 -0.011257 -0.521018 0.000000 -0.000001
    16 -0.022360 -0.957436 0.018784 -0.975516 0.000000 0.000000
    17 -1.180681 -2.507217 -0.193859 -0.671429 -0.081504 -0.261329
    18 -0.024967 -1.123934 0.017597 -1.276708 0.000000 0.000001
    19 -0.020057 -0.890968 0.010090 -1.435733 0.000000 0.000000
    20 0.583510 -1.197277 0.185379 0.135458 -1.044822 -1.384612
    21 1.535927 0.010246 0.005009 -0.002964 -0.012979 -0.506650
    22 1.100771 0.004527 -0.010679 -0.015488 -0.004772 -1.694062
    23 0.120153 -0.050270 -0.054489 0.287569 3.110905 1.561085
    24 1.104273 -16.438633 -19.396406 1.487791 -2.400611 0.808291
    25 0.096944 -8.450418 -0.009365 1.032771 -1.260237 -0.909995
    26 0.447953 -2.798986 -0.200443 -0.895114 0.080411 0.181993
    27 -0.032909 -1.480204 0.004940 -1.562664 0.000000 0.000002
    28 -0.027022 -1.076920 -0.020210 -1.353433 0.000000 0.000000
    29 -0.249534 -2.846964 -0.174213 -0.563520 0.059570 0.201886
    30 0.043235 -1.683941 0.096012 -1.740205 0.002823 -0.000167
    31 0.031729 -1.160830 0.058838 -1.701368 0.000642 0.008372
    32 -0.963866 -2.785145 -0.085350 -0.272004 0.220066 0.176802
    33 0.028479 -1.403067 0.006271 -0.226231 0.000000 0.000000
    34 0.021413 -0.957781 0.020046 -0.625539 0.000000 0.000000
    35 1.164475 -2.543940 -0.170330 -1.110644 -0.190570 0.231620
    36 0.024032 -1.129042 0.017807 -1.303248 0.000000 0.000001
    37 0.014898 -0.883989 -0.019848 -1.545343 0.000000 0.000000
    38 -0.586770 -1.264477 0.200161 0.250695 -0.573527 -2.508811
    39 1.522835 0.058681 0.016848 0.001410 0.008985 0.551176
    40 1.117947 0.048424 -0.005766 0.001255 -0.025174 0.005128
    41 -0.139399 -0.111698 0.014397 0.808194 0.214002 1.504562
    42 -1.393470 8.839177 -0.239433 1.580804 -0.005023 -1.566847
  time 2
    0 -0.996124 1.625050 3.535264 0.000000 0.000000 0.000000
    1 6.261544 2.171941 -16.422376 -0.986208 -0.774477 0.786672
    2 -0.071920 -8.498730 -0.104137 0.176939 0.267661 0.160751
    3 2.815887 -5.283123 1.386549 0.209716 0.049969 -1.630727
    4 3.633989 -0.389699 -0.017558 -1.570797 -1.570796 0.000000
    5 11.822113 -1.093859 -0.000002 0.000001 0.000000 -1.570796
    6 0.074435 -3.352430 -0.586554 0.625127 -0.076284 0.626463
    7 1.257180 8.762585 -0.153713 -1.570562 0.002683 -1.566807
    8 -0.488518 -2.755602 -0.228260 -0.871614 -0.202550 -0.209553
    9 0.039887 -1.479790 0.029854 -1.516144 0.000000 0.000001
    10 0.028786 -1.075731 -0.023109 -1.298153 0.000000 0.000000
    11 0.250027 -2.820665 -0.238396 -0.797118 -0.167505 -0.114926
    12 -0.049759 -1.680544 0.100479 -1.644607 0.000000 -0.000002
    13 -0.034142 -1.148312 0.084782 -1.481002 0.000000 0.000000
    14 0.957766 -2.746780 -0.090302 -0.175885 -0.162672 0.097910
    15 -0.033420 -1.397129 -0.011257 -0.521018 0.000000 -0.000001
    16 -0.022360 -0.957436 0.018784 -0.975516 0.000000 0.000000
    17 -1.180681 -2.507217 -0.193859 -0.671429 -0.081504 -0.261329
    18 -0.024967 -1.123934 0.017597 -1.276708 0.000000 0.000001
    19 -0.020057 -0.890968 0.010090 -1.435733 0.000000 0.000000
    20 0.583510 -1.197277 0.185379 0.135458 -1.044822 -1.384612
    21 1.535927 0.010246 0.005009 -0.002964 -0.012979 -0.506650
    22 1.100771 0.004527 -0.010679 -0.015488 -0.004772 -1.694062
    23 0.120153 -0.050270 -0.054489 0.287569 3.110905 1.561085
    24 1.491004 -16.219876 -16.392408 1.495713 -2.388775 0.738848
    25 0.096944 -8.450418 -0.009365 -1.339139 -1.815674 1.530872
    26 0.447953 -2.798986 -0.200443 -0.895114 0.080411 0.181993
    27 -0.032909 -1.480204 0.004940 -1.562664 0.000000 0.000002
    28 -0.027022 -1.076920 -0.020210 -1.353433 0.000000 0.000000
    29 -0.249534 -2.846964 -0.174213 -0.563520 0.059570 0.201886
    30 0.043235 -1.683941 0.096012 -1.740205 0.002823 -0.000167
    31 0.031729 -1.160830 0.058838 -1.701368 0.000642 0.008372
    32 -0.963866 -2.785145 -0.085350 -0.272004 0.220066 0.176802
    33 0.028479 -1.403067 0.006271 -0.226231 0.000000 0.000000
    34 0.021413 -0.957781 0.020046 -0.625539 0.000000 0.000000
    35 1.164475 -2.543940 -0.170330 -1.110644 -0.190570 0.231620
    36 0.024032 -1.129042 0.017807 -1.303248 0.000000 0.000001
    37 0.014898 -0.883989 -0.019848 -1.545343 0.000000 0.000000
    38 -0.586770 -1.264477 0.200161 0.250695 -0.573527 -2.508811
    39 1.522835 0.058681 0.016848 0.001410 0.008985 0.551176
    40 1.117947 0.048424 -0.005766 0.001255 -0.025174 0.005128
    41 -0.139399 -0.111698 0.014397 0.808194 0.214002 1.504562
    42 -1.393470 8.839177 -0.239433 1.580804 -0.005023 -1.566847
  time 3
    0 -0.996124 1.625050 3.535264 0.000000 0.000000 0.000000
    1 6.210761 1.988342 -16.668477 -0.994404 -0.768548 0.792412
    2 -0.071920 -8.498730 -0.104137 0.177849 0.278219 0.165149
    3 2.815887 -5.283123 1.386549 0.209716 0.049969 -1.630727
    4 3.633989 -0.389699 -0.017558 -1.570797 -1.570796 0.000000
    5 11.822113 -1.093859 -0.000002 0.000001 0.000000 -1.570796
    6 0.831370 -2.263880 -0.276973 0.568109 0.044122 0.600674
    7 1.257180 8.762585 -0.153713 -1.570562 0.002683 -1.566807
    8 -0.488518 -2.755602 -0.228260 -0.871614 -0.202550 -0.209553
    9 0.039887 -1.479790 0.029854 -1.516144 0.000000 0.000001
    10 0.028786 -1.075731 -0.023109 -1.298153 0.000000 0.000000
    11 0.250027 -2.820665 -0.238396 -0.797118 -0.167505 -0.114926
    12 -0.049759 -1.680544 0.100479 -1.644607 0.000000 -0.000002
    13 -0.034142 -1.148312 0.084782 -1.481046 0.000000 0.000000
    14 0.957766 -2.746780 -0.090302 -0.175885 -0.162672 0.097910
    15 -0.033420 -1.397129 -0.011257 -0.521018 0.000000 -0.000001
    16 -0.022360 -0.957436 0.018784 -0.975516 0.000000 0.000000
    17 -1.180681 -2.507217 -0.193859 -0.671429 -0.081504 -0.261329
    18 -0.024967 -1.123934 0.017597 -1.276708 0.000000 0.000001
    19 -0.020057 -0.890968 0.010090 -1.435733 0.000000 0.000000
    20 0.583510 -1.197277 0.185379 0.135458 -1.044822 -1.384612
    21 1.535927 0.010246 0.005009 -0.002964 -0.012979 -0.506650
    22 1.100771 0.004527 -0.010679 -0.015488 -0.004772 -1.694062
    23 0.120153 -0.050270 -0.054489 0.287569 3.110905 1.561085
    24 1.373813 -15.688610 -15.599416 1.565437 -2.418539 0.556501
    25 0.096944 -8.450418 -0.009365 1.666435 -1.406794 -1.496850
    26 0.447953 -2.798986 -0.200443 -1.027451 0.080411 0.181993
    27 -0.032909 -1.480204 0.004940 -1.562664 0.000000 0.000002
    28 -0.027022 -1.076920 -0.020210 -1.353433 0.000000 0.000000
    29 -0.249534 -2.846964 -0.174213 -0.647013 0.059570 0.201886
    30 0.043235 -1.683941 0.096012 -1.740205 0.002823 -0.000167
    31 0.031729 -1.160830 0.058838 -1.701368 0.000642 0.008372
    32 -0.963866 -2.785145 -0.085350 -0.315018 0.159004 0.108922
    33 0.028479 -1.403067 0.006271 -0.546175 0.000000 0.000000
    34 0.021413 -0.957781 0.020046 -0.625539 0.000000 0.000000
    35 1.164475 -2.543940 -0.170330 -1.231503 -0.190570 0.231620
    36 0.024032 -1.129042 0.017807 -1.303248 0.000000 0.000001
    37 0.014898 -0.883989 -0.019848 -1.545343 0.000000 0.000000
    38 -0.586770 -1.264477 0.200161 0.276736 -0.475062 -2.549485
    39 1.522835 0.058681 0.016848 0.001410 0.008985 0.627270
    40 1.117947 0.048424 -0.005766 0.002849 -0.024958 -0.059254
    41 -0.139399 -0.111698 0.014397 0.808194 0.214002 1.504562
    42 -1.393470 8.839177 -0.239433 1.580804 -0.005023 -1.566847
  time 4
    0 -0.996124 1.625050 3.535264 0.000000 0.000000 0.000000
    1 6.187323 1.902402 -16.797388 -0.997513 -0.766202 0.794516
    2 -0.071920 -8.498730 -0.104137 0.181433 0.276997 0.167630
    3 2.815887 -5.283123 1.386549 0.209716 0.049969 -1.630727
    4 3.633989 -0.389699 -0.017558 -1.570797 -1.570796 0.000000
    5 11.822113 -1.093859 -0.000002 0.000001 0.000000 -1.570796
    6 1.454728 -1.783222 -0.195504 0.491951 0.148919 0.511939
    7 1.257180 8.762585 -0.153713 -1.570562 0.002683 -1.566807
    8 -0.488518 -2.755602 -0.228260 -0.871614 -0.202550 -0.209553
    9 0.039887 -1.479790 0.029854 -1.516144 0.000000 0.000001
    10 0.028786 -1.075731 -0.023109 -1.298153 0.000000 0.000000
    11 0.250027 -2.820665 -0.238396 -0.797118 -0.167505 -0.114926
    12 -0.049759 -1.680544 0.100479 -1.644607 0.000000 -0.000002
    13 -0.034142 -1.148312 0.084782 -1.481046 0.000000 0.000000
    14 0.957766 -2.746780 -0.090302 -0.175885 -0.162672 0.097910
    15 -0.033420 -1.397129 -0.011257 -0.521018 0.000000 -0.000001
    16 -0.022360 -0.957436 0.018784 -0.975516 0.000000 0.000000
    17 -1.180681 -2.507217 -0.193859 -0.671429 -0.081504 -0.261329
    18 -0.024967 -1.123934 0.017597 -1.276708 0.000000 0.000001
    19 -0.020057 -0.890968 0.010090 -1.435733 0.000000 0.000000
    20 0.583510 -1.197277 0.185379 0.135458 -1.044822 -1.384612
    21 1.535927 0.010246 0.005009 -0.002964 -0.012979 -0.506650
    22 1.100771 0.004527 -0.010679 -0.015488 -0.004772 -1.694062
    23 0.120153 -0.050270 -0.054489 0.287569 3.110905 1.561085
    24 1.037865 -14.758894 -15.595509 -1.537683 -0.661170 -2.779217
    25 0.096944 -8.450418 -0.009365 0.494431 -1.439460 -0.369251
    26 0.447953 -2.798986 -0.200443 -1.273206 0.080411 0.181993
    27 -0.032909 -1.480204 0.004940 -1.562664 0.000000 0.000002
    28 -0.027022 -1.076920 -0.020210 -1.353433 0.000000 0.000000
    29 -0.249534 -2.846964 -0.174213 -0.802027 0.059570 0.201886
    30 0.043235 -1.683941 0.096012 -1.740205 0.002823 -0.000167
    31 0.031729 -1.160830 0.058838 -1.701368 0.000642 0.008372
    32 -0.963866 -2.785145 -0.085350 -0.413495 0.045594 -0.017168
    33 0.028479 -1.403067 0.006271 -1.140396 0.000000 0.000000
    34 0.021413 -0.957781 0.020046 -0.625539 0.000000 0.000000
    35 1.164475 -2.543940 -0.170330 -1.455948 -0.190570 0.231620
    36 0.024032 -1.129042 0.017807 -1.303248 0.000000 0.000001
    37 0.014898 -0.883989 -0.019848 -1.545343 0.000000 0.000000
    38 -0.586770 -1.264477 0.200161 0.330327 -0.292225 -2.635368
    39 1.522835 0.058681 0.016848 0.001410 0.008985 0.768493
    40 1.117947 0.048424 -0.005766 0.005809 -0.024515 -0.178800
    41 -0.139399 -0.111698 0.014397 0.808194 0.214002 1.504562
    42 -1.393470 8.839177 -0.239433 1.580804 -0.005023 -1.566847
  time 5
    0 -0.996124 1.625050 3.535264 0.000000 0.000000 0.000000
    1 6.214667 1.996155 -16.703635 -0.989788 -0.771936 0.789159
    2 -0.071920 -8.498730 -0.104137 0.192650 0.247922 0.167091
    3 2.815887 -5.283123 1.386549 0.209716 0.049969 -1.630727
    4 3.633989 -0.389699 -0.017558 -1.570797 -1.570796 0.000000
    5 11.822113 -1.093859 -0.000002 0.000001 0.000000 -1.570796
    6 2.256188 -1.415660 -0.065154 0.375037 0.235430 0.363695
    7 1.257180 8.762585 -0.153713 -1.570562 0.002683 -1.566807
    8 -0.488518 -2.755602 -0.228260 -0.871614 -0.202550 -0.209553
    9 0.039887 -1.479790 0.029854 -1.516144 0.000000 0.000001
    10 0.028786 -1.075731 -0.023109 -1.298153 0.000000 0.000000
    11 0.250027 -2.820665 -0.238396 -0.797118 -0.167505 -0.114926
    12 -0.049759 -1.680544 0.100479 -1.644607 0.000000 -0.000002
    13 -0.034142 -1.148312 0.084782 -1.481046 0.000000 0.000000
    14 0.957766 -2.746780 -0.090302 -0.175885 -0.162672 0.097910
    15 -0.033420 -1.397129 -0.011257 -0.521018 0.000000 -0.000001
    16 -0.022360 -0.957436 0.018784 -0.975516 0.000000 0.000000
    17 -1.180681 -2.507217 -0.193859 -0.671429 -0.081504 -0.261329
    18 -0.024967 -1.123934 0.017597 -1.276708 0.000000 0.000001
    19 -0.020057 -0.890968 0.010090 -1.435733 0.000000 0.000000
    20 0.583510 -1.197277 0.185379 0.135458 -1.044822 -1.384612
    21 1.535927 0.010246 0.005009 -0.002964 -0.012979 -0.506650
    22 1.100771 0.004527 -0.010679 -0.015488 -0.004772 -1.694062
    23 0.120153 -0.050270 -0.054489 0.287569 3.110905 1.561085
    24 0.967550 -13.606515 -15.536914 1.565736 -2.550823 0.246417
    25 0.096944 -8.450418 -0.009365 -0.226311 -1.344772 0.313672
    26 0.447953 -2.798986 -0.200443 -1.405543 0.080411 0.181993
    27 -0.032909 -1.480204 0.004940 -1.562664 0.000000 0.000002
    28 -0.027022 -1.076920 -0.020210 -1.353433 0.000000 0.000000
    29 -0.249534 -2.846964 -0.174213 -0.885520 0.059570 0.201886
    30 0.043235 -1.683941 0.096012 -1.740205 0.002823 -0.000167
    31 0.031729 -1.160830 0.058838 -1.701368 0.000642 0.008372
    32 -0.963866 -2.785145 -0.085350 -0.521621 -0.015467 -0.085073
    33 0.028479 -1.403067 0.006271 -1.460385 0.000000 0.000000
    34 0.021413 -0.957781 0.020046 -0.625539 0.000000 0.000000
    35 1.164475 -2.543940 -0.170330 -1.576807 -0.190570 0.231620
    36 0.024032 -1.129042 0.017807 -1.303248 0.000000 0.000001
    37 0.014898 -0.883989 -0.019848 -1.545343 0.000000 0.000000
    38 -0.586770 -1.264477 0.200161 0.374682 -0.193772 -2.712344
    39 1.522835 0.058681 0.016848 0.001410 0.008985 0.844559
    40 1.117947 0.048424 -0.005766 0.007403 -0.024083 -0.243157
    41 -0.139399 -0.111698 0.014397 0.808194 0.214002 1.504562
    42 -1.393470 8.839177 -0.239433 1.580804 -0.005023 -1.566847
  time 6
    0 -0.996124 1.625050 3.535264 0.000000 0.000000 0.000000
    1 6.284982 2.214911 -16.465346 -0.975281 -0.782231 0.778924
    2 -0.071920 -8.498730 -0.104137 0.207451 0.200955 0.162573
    3 2.815887 -5.283123 1.386549 0.209716 0.049969 -1.630727
    4 3.633989 -0.389699 -0.017558 -1.570797 -1.570796 0.000000
    5 11.822113 -1.093859 -0.000002 0.000001 0.000000 -1.570796
    6 3.859109 -0.652261 -0.130329 0.155864 0.235275 -0.102060
    7 1.257180 8.762585 -0.153713 -1.570562 0.002683 -1.566807
    8 -0.488518 -2.755602 -0.228260 -0.871614 -0.202550 -0.209553
    9 0.039887 -1.479790 0.029854 -1.516144 0.000000 0.000001
    10 0.028786 -1.075731 -0.023109 -1.298153 0.000000 0.000000
    11 0.250027 -2.820665 -0.238396 -0.797118 -0.167505 -0.114926
    12 -0.049759 -1.680544 0.100479 -1.644607 0.000000 -0.000002
    13 -0.034142 -1.148312 0.084782 -1.481046 0.000000 0.000000
    14 0.957766 -2.746780 -0.090302 -0.175885 -0.162672 0.097910
    15 -0.033420 -1.397129 -0.011257 -0.521018 0.000000 -0.000001
    16 -0.022360 -0.957436 0.018784 -0.975516 0.000000 0.000000
    17 -1.180681 -2.507217 -0.193859 -0.671429 -0.081504 -0.261329
    18 -0.024967 -1.123934 0.017597 -1.276708 0.000000 0.000001
    19 -0.020057 -0.890968 0.010090 -1.435733 0.000000 0.000000
    20 0.583510 -1.197277 0.185379 0.135458 -1.044822 -1.384612
    21 1.535927 0.010246 0.005009 -0.002964 -0.012979 -0.506650
    22 1.100771 0.004527 -0.010679 -0.015488 -0.004772 -1.694062
    23 0.120153 -0.050270 -0.054489 0.287569 3.110905 1.561085
    24 1.549599 -12.000998 -14.865018 1.417544 -2.628365 0.247173
    25 0.096944 -8.450418 -0.009365 -0.672853 -1.225143 0.734401
    26 0.447953 -2.798986 -0.200443 -1.405543 0.080411 0.181993
    27 -0.032909 -1.480204 0.004940 -1.562664 0.000000 0.000002
    28 -0.027022 -1.076920 -0.020210 -1.353433 0.000000 0.000000
    29 -0.249534 -2.846964 -0.174213 -0.885520 0.059570 0.201886
    30 0.043235 -1.683941 0.096012 -1.740205 0.002823 -0.000167
    31 0.031729 -1.160830 0.058838 -1.701368 0.000642 0.008372
    32 -0.963866 -2.785145 -0.085350 -0.652308 0.019216 -0.057640
    33 0.028479 -1.403067 0.006271 -1.460385 0.000000 0.000000
    34 0.021413 -0.957781 0.020046 -0.625539 0.000000 0.000000
    35 1.164475 -2.543940 -0.170330 -1.576807 -0.190570 0.231620
    36 0.024032 -1.129042 0.017807 -1.303248 0.000000 0.000001
    37 0.014898 -0.883989 -0.019848 -1.545343 0.000000 0.000000
    38 -0.586770 -1.264477 0.200161 0.397519 -0.252508 -2.768596
    39 1.522835 0.058681 0.016848 0.001410 0.008985 0.842655
    40 1.117947 0.048424 -0.005766 0.003077 -0.023796 -0.067619
    41 -0.139399 -0.111698 0.014397 0.808194 0.214002 1.504562
    42 -1.393470 8.839177 -0.239433 1.580804 -0.005023 -1.566847
  time 7
    0 -0.996124 1.625050 3.535264 0.000000 0.000000 0.000000
    1 6.363109 2.437574 -16.242683 -0.965955 -0.788682 0.772419
    2 -0.071920 -8.498730 -0.104137 0.214343 0.170022 0.155142
    3 2.815887 -5.283123 1.386549 0.209716 0.049969 -1.630727
    4 3.633989 -0.389699 -0.017558 -1.570797 -1.570796 0.000000
    5 11.822113 -1.093859 -0.000002 0.000001 0.000000 -1.570796
    6 3.859109 -0.652261 -0.130329 0.155864 0.235275 -0.102060
    7 1.257180 8.762585 -0.153713 -1.570562 0.002683 -1.566807
    8 -0.488518 -2.755602 -0.228260 -0.871614 -0.202550 -0.209553
    9 0.039887 -1.479790 0.029854 -1.516144 0.000000 0.000001
    10 0.028786 -1.075731 -0.023109 -1.298153 0.000000 0.000000
    11 0.250027 -2.820665 -0.238396 -0.797118 -0.167505 -0.114926
    12 -0.049759 -1.680544 0.100479 -1.644607 0.000000 -0.000002
    13 -0.034142 -1.148312 0.084782 -1.481002 0.000000 0.000000
    14 0.957766 -2.746780 -0.090302 -0.175885 -0.162672 0.097910
    15 -0.033420 -1.397129 -0.011257 -0.521018 0.000000 -0.000001
    16 -0.022360 -0.957436 0.018784 -0.975516 0.000000 0.000000
    17 -1.180681 -2.507217 -0.193859 -0.671429 -0.081504 -0.261329
    18 -0.024967 -1.123934 0.017597 -1.276708 0.000000 0.000001
    19 -0.020057 -0.890968 0.010090 -1.435733 0.000000 0.000000
    20 0.583510 -1.197277 0.185379 0.135458 -1.044822 -1.384612
    21 1.535927 0.010246 0.005009 -0.002964 -0.012979 -0.506650
    22 1.100771 0.004527 -0.010679 -0.015488 -0.004772 -1.694062
    23 0.120153 -0.050270 -0.054489 0.287569 3.110905 1.561085
    24 2.393375 -10.168911 -14.142340 1.225486 -2.719397 0.292051
    25 0.096944 -8.450418 -0.009365 -0.920810 -1.084766 0.962808
    26 0.447953 -2.798986 -0.200443 -1.405543 0.080411 0.181993
    27 -0.032909 -1.480204 0.004940 -1.562664 0.000000 0.000002
    28 -0.027022 -1.076920 -0.020210 -1.353433 0.000000 0.000000
    29 -0.249534 -2.846964 -0.174213 -0.885520 0.059570 0.201886
    30 0.043235 -1.683941 0.096012 -1.740205 0.002823 -0.000167
    31 0.031729 -1.160830 0.058838 -1.701368 0.000642 0.008372
    32 -0.963866 -2.785145 -0.085350 -0.792644 0.091100 0.001576
    33 0.028479 -1.403067 0.006271 -1.460385 0.000000 0.000000
    34 0.021413 -0.957781 0.020046 -0.625539 0.000000 0.000000
    35 1.164475 -2.543940 -0.170330 -1.576807 -0.190570 0.231620
    36 0.024032 -1.129042 0.017807 -1.303248 0.000000 0.000001
    37 0.014898 -0.883989 -0.019848 -1.545343 0.000000 0.000000
    38 -0.586770 -1.264477 0.200161 0.411120 -0.373684 -2.815903
    39 1.522835 0.058681 0.016848 0.001410 0.008985 0.830766
    40 1.117947 0.048424 -0.005766 -0.004977 -0.023532 0.258877
    41 -0.139399 -0.111698 0.014397 0.808194 0.214002 1.504562
    42 -1.393470 8.839177 -0.239433 1.580804 -0.005023 -1.566847
  time 8
    0 -0.996124 1.625050 3.535264 0.000000 0.000000 0.000000
    1 6.452956 2.660237 -16.078616 -0.964070 -0.789920 0.771080
    2 -0.071920 -8.498730 -0.104137 0.208458 0.165960 0.144021
    3 2.815887 -5.283123 1.386549 0.209716 0.049969 -1.630727
    4 3.633989 -0.389699 -0.017558 -1.570797 -1.570796 0.000000
    5 11.822113 -1.093859 -0.000002 0.000001 0.000000 -1.570796
    6 3.859109 -0.652261 -0.130329 0.155864 0.235275 -0.102060
    7 1.257180 8.762585 -0.153713 -1.570562 0.002683 -1.566807
    8 -0.488518 -2.755602 -0.228260 -0.871614 -0.202550 -0.209553
    9 0.039887 -1.479790 0.029854 -1.516144 0.000000 0.000001
    10 0.028786 -1.075731 -0.023109 -1.298153 0.000000 0.000000
    11 0.250027 -2.820665 -0.238396 -0.797118 -0.167505 -0.114926
    12 -0.049759 -1.680544 0.100479 -1.644607 0.000000 -0.000002
    13 -0.034142 -1.148312 0.084782 -1.481046 0.000000 0.000000
    14 0.957766 -2.746780 -0.090302 -0.175885 -0.162672 0.097910
    15 -0.033420 -1.397129 -0.011257 -0.521018 0.000000 -0.000001
    16 -0.022360 -0.957436 0.018784 -0.975516 0.000000 0.000000
    17 -1.180681 -2.507217 -0.193859 -0.671429 -0.081504 -0.261329
    18 -0.024967 -1.123934 0.017597 -1.276708 0.000000 0.000001
    19 -0.020057 -0.890968 0.010090 -1.435733 0.000000 0.000000
    20 0.583510 -1.197277 0.185379 0.135458 -1.044822 -1.384612
    21 1.535927 0.010246 0.005009 -0.002964 -0.012979 -0.506650
    22 1.100771 0.004527 -0.010679 -0.015488 -0.004772 -1.694062
    23 0.120153 -0.050270 -0.054489 0.287569 3.110905 1.561085
    24 2.826982 -8.907153 -14.224374 1.095455 -2.790152 0.315010
    25 0.096944 -8.450418 -0.009365 -0.982061 -1.076048 1.023729
    26 0.447953 -2.798986 -0.200443 -1.405543 0.080411 0.181993
    27 -0.032909 -1.480204 0.004940 -1.562664 0.000000 0.000002
    28 -0.027022 -1.076920 -0.020210 -1.353433 0.000000 0.000000
    29 -0.249534 -2.846964 -0.174213 -0.885520 0.059570 0.201886
    30 0.043235 -1.683941 0.096012 -1.740205 0.002823 -0.000167
    31 0.031729 -1.160830 0.058838 -1.701368 0.000642 0.008372
    32 -0.963866 -2.785145 -0.085350 -0.858218 0.151945 0.058095
    33 0.028479 -1.403067 0.006271 -1.460385 0.000000 0.000000
    34 0.021413 -0.957781 0.020046 -0.625539 0.000000 0.000000
    35 1.164475 -2.543940 -0.170330 -1.576807 -0.190570 0.231620
    36 0.024032 -1.129042 0.017807 -1.303248 0.000000 0.000001
    37 0.014898 -0.883989 -0.019848 -1.545343 0.000000 0.000000
    38 -0.586770 -1.264477 0.200161 0.415625 -0.474631 -2.835803
    39 1.522835 0.058681 0.016848 0.001410 0.008985 0.799779
    40 1.117947 0.048424 -0.005766 -0.009339 -0.023400 0.436201
    41 -0.139399 -0.111698 0.014397 0.808194 0.214002 1.504562
    42 -1.393470 8.839177 -0.239433 1.580804 -0.005023 -1.566847
  time 9
    0 -0.996124 1.625050 3.535264 0.000000 0.000000 0.000000
    1 6.554521 2.906339 -15.914548 -0.963505 -0.790376 0.770698
    2 -0.071920 -8.498730 -0.104137 0.196162 0.172779 0.129975
    3 2.815887 -5.283123 1.386549 0.209716 0.049969 -1.630727
    4 3.633989 -0.389699 -0.017558 -1.570797 -1.570796 0.000000
    5 11.822113 -1.093859 -0.000002 0.000001 0.000000 -1.570796
    6 3.859109 -0.652261 -0.130329 0.155864 0.235275 -0.102060
    7 1.257180 8.762585 -0.153713 -1.570562 0.002683 -1.566807
    8 -0.488518 -2.755602 -0.228260 -0.871614 -0.202550 -0.209553
    9 0.039887 -1.479790 0.029854 -1.516144 0.000000 0.000001
    10 0.028786 -1.075731 -0.023109 -1.298153 0.000000 0.000000
    11 0.250027 -2.820665 -0.238396 -0.797118 -0.167505 -0.114926
    12 -0.049759 -1.680544 0.100479 -1.644607 0.000000 -0.000002
    13 -0.034142 -1.148312 0.084782 -1.481046 0.000000 0.000000
    14 0.957766 -2.746780 -0.090302 -0.175885 -0.162672 0.097910
    15 -0.033420 -1.397129 -0.011257 -0.521018 0.000000 -0.000001
    16 -0.022360 -0.957436 0.018784 -0.975516 0.000000 0.000000
    17 -1.180681 -2.507217 -0.193859 -0.671429 -0.081504 -0.261329
    18 -0.024967 -1.123934 0.017597 -1.276708 0.000000 0.000001
    19 -0.020057 -0.890968 0.010090 -1.435733 0.000000 0.000000
    20 0.583510 -1.197277 0.185379 0.135458 -1.044822 -1.384612
    21 1.535927 0.010246 0.005009 -0.002964 -0.012979 -0.506650
    22 1.100771 0.004527 -0.010679 -0.015488 -0.004772 -1.694062
    23 0.120153 -0.050270 -0.054489 0.287569 3.110905 1.561085
    24 2.690259 -8.239164 -15.275187 1.031710 -2.833231 0.297720
    25 0.096944 -8.450418 -0.009365 -0.668600 -1.332081 0.750569
    26 0.447953 -2.798986 -0.200443 -1.273206 0.080411 0.181993
    27 -0.032909 -1.480204 0.004940 -1.562664 0.000000 0.000002
    28 -0.027022 -1.076920 -0.020210 -1.353433 0.000000 0.000000
    29 -0.249534 -2.846964 -0.174213 -0.802027 0.059570 0.201886
    30 0.043235 -1.683941 0.096012 -1.740205 0.002823 -0.000167
    31 0.031729 -1.160830 0.058838 -1.701368 0.000642 0.008372
    32 -0.963866 -2.785145 -0.085350 -0.706230 0.187036 0.108263
    33 0.028479 -1.403067 0.006271 -1.415887 0.000000 0.000000
    34 0.021413 -0.957781 0.020046 -0.625539 0.000000 0.000000
    35 1.164475 -2.543940 -0.170330 -1.455948 -0.190570 0.231620
    36 0.024032 -1.129042 0.017807 -1.303248 0.000000 0.000001
    37 0.014898 -0.883989 -0.019848 -1.545343 0.000000 0.000000
    38 -0.586770 -1.264477 0.200161 0.372863 -0.528393 -2.751044
    39 1.522835 0.058681 0.016848 0.001410 0.008985 0.705948
    40 1.117947 0.048424 -0.005766 -0.009387 -0.023388 0.438227
    41 -0.139399 -0.111698 0.014397 0.808194 0.214002 1.504562
    42 -1.393470 8.839177 -0.239433 1.580804 -0.005023 -1.566847
  time 10
    0 -0.996124 1.625050 3.535264 0.000000 0.000000 0.000000
    1 6.640461 3.109470 -15.785638 -0.963882 -0.790115 0.770889
    2 -0.071920 -8.498730 -0.104137 0.182727 0.184272 0.117559
    3 2.815887 -5.283123 1.386549 0.209716 0.049969 -1.630727
    4 3.633989 -0.389699 -0.017558 -1.570797 -1.570796 0.000000
    5 11.822113 -1.093859 -0.000002 0.000001 0.000000 -1.570796
    6 3.859109 -0.652261 -0.130329 0.155864 0.235275 -0.102060
    7 1.257180 8.762585 -0.153713 -1.570562 0.002683 -1.566807
    8 -0.488518 -2.755602 -0.228260 -0.871614 -0.202550 -0.209553
    9 0.039887 -1.479790 0.029854 -1.516144 0.000000 0.000001
    10 0.028786 -1.075731 -0.023109 -1.298153 0.000000 0.000000
    11 0.250027 -2.820665 -0.238396 -0.797118 -0.167505 -0.114926
    12 -0.049759 -1.680544 0.100479 -1.644607 0.000000 -0.000002
    13 -0.034142 -1.148312 0.084782 -1.481046 0.000000 0.000000
    14 0.957766 -2.746780 -0.090302 -0.175885 -0.162672 0.097910
    15 -0.033420 -1.397129 -0.011257 -0.521018 0.000000 -0.000001
    16 -0.022360 -0.957436 0.018784 -0.975516 0.000000 0.000000
    17 -1.180681 -2.507217 -0.193859 -0.671429 -0.081504 -0.261329
    18 -0.024967 -1.123934 0.017597 -1.276708 0.000000 0.000001
    19 -0.020057 -0.890968 0.010090 -1.435733 0.000000 0.000000
    20 0.583510 -1.197277 0.185379 0.135458 -1.044822 -1.384612
    21 1.535927 0.010246 0.005009 -0.002964 -0.012979 -0.506650
    22 1.100771 0.004527 -0.010679 -0.015488 -0.004772 -1.694062
    23 0.120153 -0.050270 -0.054489 0.287569 3.110905 1.561085
    24 2.342592 -7.696179 -16.771326 0.982313 -2.869957 0.264085
    25 0.096944 -8.450418 -0.009365 1.438756 -1.315196 -1.299232
    26 0.447953 -2.798986 -0.200443 -1.027451 0.080411 0.181993
    27 -0.032909 -1.480204 0.004940 -1.562664 0.000000 0.000002
    28 -0.027022 -1.076920 -0.020210 -1.353433 0.000000 0.000000
    29 -0.249534 -2.846964 -0.174213 -0.647013 0.059570 0.201886
    30 0.043235 -1.683941 0.096012 -1.740205 0.002823 -0.000167
    31 0.031729 -1.160830 0.058838 -1.701368 0.000642 0.008372
    32 -0.963866 -2.785145 -0.085350 -0.423992 0.211113 0.155721
    33 0.028479 -1.403067 0.006271 -1.299716 0.000000 0.000000
    34 0.021413 -0.957781 0.020046 -0.625539 0.000000 0.000000
    35 1.164475 -2.543940 -0.170330 -1.231503 -0.190570 0.231620
    36 0.024032 -1.129042 0.017807 -1.303248 0.000000 0.000001
    37 0.014898 -0.883989 -0.019848 -1.545343 0.000000 0.000000
    38 -0.586770 -1.264477 0.200161 0.293456 -0.561950 -2.593582
    39 1.522835 0.058681 0.016848 0.001410 0.008985 0.577348
    40 1.117947 0.048424 -0.005766 -0.009411 -0.023376 0.439137
    41 -0.139399 -0.111698 0.014397 0.808194 0.214002 1.504562
    42 -1.393470 8.839177 -0.239433 1.580804 -0.005023 -1.566847
  time 11
    0 -0.996124 1.625050 3.535264 0.000000 0.000000 0.000000
    1 6.679525 3.199316 -15.711417 -0.964918 -0.789398 0.771654
    2 -0.071920 -8.498730 -0.104137 0.173679 0.194447 0.111578
    3 2.815887 -5.283123 1.386549 0.209716 0.049969 -1.630727
    4 3.633989 -0.389699 -0.017558 -1.570797 -1.570796 0.000000
    5 11.822113 -1.093859 -0.000002 0.000001 0.000000 -1.570796
    6 3.859109 -0.652261 -0.130329 0.155864 0.235275 -0.102060
    7 1.257180 8.762585 -0.153713 -1.570562 0.002683 -1.566807
    8 -0.488518 -2.755602 -0.228260 -0.871614 -0.202550 -0.209553
    9 0.039887 -1.479790 0.029854 -1.516144 0.000000 0.000001
    10 0.028786 -1.075731 -0.023109 -1.298153 0.000000 0.000000
    11 0.250027 -2.820665 -0.238396 -0.797118 -0.167505 -0.114926
    12 -0.049759 -1.680544 0.100479 -1.644607 0.000000 -0.000002
    13 -0.034142 -1.148312 0.084782 -1.481046 0.000000 0.000000
    14 0.957766 -2.746780 -0.090302 -0.175885 -0.162672 0.097910
    15 -0.033420 -1.397129 -0.011257 -0.521018 0.000000 -0.000001
    16 -0.022360 -0.957436 0.018784 -0.975516 0.000000 0.000000
    17 -1.180681 -2.507217 -0.193859 -0.671429 -0.081504 -0.261329
    18 -0.024967 -1.123934 0.017597 -1.276708 0.000000 0.000001
    19 -0.020057 -0.890968 0.010090 -1.435733 0.000000 0.000000
    20 0.583510 -1.197277 0.185379 0.135458 -1.044822 -1.384612
    21 1.535927 0.010246 0.005009 -0.002964 -0.012979 -0.506650
    22 1.100771 0.004527 -0.010679 -0.015488 -0.004772 -1.694062
    23 0.120153 -0.050270 -0.054489 0.287569 3.110905 1.561085
    24 1.873828 -7.399295 -18.470597 0.952346 -2.894499 0.236969
    25 0.096944 -8.450418 -0.009365 -1.360091 -2.106028 1.526795
    26 0.447953 -2.798986 -0.200443 -0.895114 0.080411 0.181993
    27 -0.032909 -1.480204 0.004940 -1.562664 0.000000 0.000002
    28 -0.027022 -1.076920 -0.020210 -1.353433 0.000000 0.000000
    29 -0.249534 -2.846964 -0.174213 -0.563520 0.059570 0.201886
    30 0.043235 -1.683941 0.096012 -1.740205 0.002823 -0.000167
    31 0.031729 -1.160830 0.058838 -1.701368 0.000642 0.008372
    32 -0.963866 -2.785145 -0.085350 -0.272004 0.220066 0.176802
    33 0.028479 -1.403067 0.006271 -1.137696 0.000000 0.000000
    34 0.021413 -0.957781 0.020046 -0.625539 0.000000 0.000000
    35 1.164475 -2.543940 -0.170330 -1.110644 -0.190570 0.231620
    36 0.024032 -1.129042 0.017807 -1.303248 0.000000 0.000001
    37 0.014898 -0.883989 -0.019848 -1.545343 0.000000 0.000000
    38 -0.586770 -1.264477 0.200161 0.250695 -0.573527 -2.508811
    39 1.522835 0.058681 0.016848 0.001410 0.008985 0.512572
    40 1.117947 0.048424 -0.005766 -0.009411 -0.023376 0.439365
    41 -0.139399 -0.111698 0.014397 0.808194 0.214002 1.504562
    42 -1.393470 8.839177 -0.239433 1.580804 -0.005023 -1.566847
  time 12
    0 -0.996124 1.625050 3.535264 0.000000 0.000000 0.000000
    1 6.640461 3.125095 -15.723136 -0.966426 -0.788421 0.772706
    2 -0.071920 -8.498730 -0.104137 0.171090 0.202920 0.115018
    3 2.815887 -5.283123 1.386549 0.209716 0.049969 -1.630727
    4 3.633989 -0.389699 -0.017558 -1.570797 -1.570796 0.000000
    5 11.822113 -1.093859 -0.000002 0.000001 0.000000 -1.570796
    6 3.859109 -0.652261 -0.130329 0.155864 0.235275 -0.102060
    7 1.257180 8.762585 -0.153713 -1.570562 0.002683 -1.566807
    8 -0.488518 -2.755602 -0.228260 -0.871614 -0.202550 -0.209553
    9 0.039887 -1.479790 0.029854 -1.516144 0.000000 0.000001
    10 0.028786 -1.075731 -0.023109 -1.298153 0.000000 0.000000
    11 0.250027 -2.820665 -0.238396 -0.797118 -0.167505 -0.114926
    12 -0.049759 -1.680544 0.100479 -1.644607 0.000000 -0.000002
    13 -0.034142 -1.148312 0.084782 -1.481002 0.000000 0.000000
    14 0.957766 -2.746780 -0.090302 -0.175885 -0.162672 0.097910
    15 -0.033420 -1.397129 -0.011257 -0.521018 0.000000 -0.000001
    16 -0.022360 -0.957436 0.018784 -0.975516 0.000000 0.000000
    17 -1.180681 -2.507217 -0.193859 -0.671429 -0.081504 -0.261329
    18 -0.024967 -1.123934 0.017597 -1.276708 0.000000 0.000001
    19 -0.020057 -0.890968 0.010090 -1.435733 0.000000 0.000000
    20 0.583510 -1.197277 0.185379 0.135458 -1.044822 -1.384612
    21 1.535927 0.010246 0.005009 -0.002964 -0.012979 -0.506650
    22 1.100771 0.004527 -0.010679 -0.015488 -0.004772 -1.694062
    23 0.120153 -0.050270 -0.054489 0.287569 3.110905 1.561085
    24 1.373813 -7.477422 -20.154242 0.948534 -2.902767 0.238859
    25 0.096944 -8.450418 -0.009365 -1.156788 -2.033081 1.252417
    26 0.447953 -2.798986 -0.200443 -0.895114 0.080411 0.181993
    27 -0.032909 -1.480204 0.004940 -1.562664 0.000000 0.000002
    28 -0.027022 -1.076920 -0.020210 -1.353433 0.000000 0.000000
    29 -0.249534 -2.846964 -0.174213 -0.563520 0.059570 0.201886
    30 0.043235 -1.683941 0.096012 -1.740205 0.002823 -0.000167
    31 0.031729 -1.160830 0.058838 -1.701368 0.000642 0.008372
    32 -0.963866 -2.785145 -0.085350 -0.272004 0.220066 0.176802
    33 0.028479 -1.403067 0.006271 -0.896130 0.000000 0.000000
    34 0.021413 -0.957781 0.020046 -0.625539 0.000000 0.000000
    35 1.164475 -2.543940 -0.170330 -1.110644 -0.190570 0.231620
    36 0.024032 -1.129042 0.017807 -1.303248 0.000000 0.000001
    37 0.014898 -0.883989 -0.019848 -1.545343 0.000000 0.000000
    38 -0.586770 -1.264477 0.200161 0.250695 -0.573527 -2.508811
    39 1.522835 0.058681 0.016848 0.001410 0.008985 0.518584
    40 1.117947 0.048424 -0.005766 -0.008033 -0.023664 0.382858
    41 -0.139399 -0.111698 0.014397 0.808194 0.214002 1.504562
    42 -1.393470 8.839177 -0.239433 1.580804 -0.005023 -1.566847
  time 13
    0 -0.996124 1.625050 3.535264 0.000000 0.000000 0.000000
    1 6.554521 2.933683 -15.797357 -0.967933 -0.787313 0.773854
    2 -0.071920 -8.498730 -0.104137 0.171977 0.212556 0.124821
    3 2.815887 -5.283123 1.386549 0.209716 0.049969 -1.630727
    4 3.633989 -0.389699 -0.017558 -1.570797 -1.570796 0.000000
    5 11.822113 -1.093859 -0.000002 0.000001 0.000000 -1.570796
    6 3.859109 -0.652261 -0.130329 0.155864 0.235275 -0.102060
    7 1.257180 8.762585 -0.153713 -1.570562 0.002683 -1.566807
    8 -0.488518 -2.755602 -0.228260 -0.871614 -0.202550 -0.209553
    9 0.039887 -1.479790 0.029854 -1.516144 0.000000 0.000001
    10 0.028786 -1.075731 -0.023109 -1.298153 0.000000 0.000000
    11 0.250027 -2.820665 -0.238396 -0.797118 -0.167505 -0.114926
    12 -0.049759 -1.680544 0.100479 -1.644607 0.000000 -0.000002
    13 -0.034142 -1.148312 0.084782 -1.481002 0.000000 0.000000
    14 0.957766 -2.746780 -0.090302 -0.175885 -0.162672 0.097910
    15 -0.033420 -1.397129 -0.011257 -0.521018 0.000000 -0.000001
    16 -0.022360 -0.957436 0.018784 -0.975516 0.000000 0.000000
    17 -1.180681 -2.507217 -0.193859 -0.671429 -0.081504 -0.261329
    18 -0.024967 -1.123934 0.017597 -1.276708 0.000000 0.000001
    19 -0.020057 -0.890968 0.010090 -1.435733 0.000000 0.000000
    20 0.583510 -1.197277 0.185379 0.135458 -1.044822 -1.384612
    21 1.535927 0.010246 0.005009 -0.002964 -0.012979 -0.506650
    22 1.100771 0.004527 -0.010679 -0.015488 -0.004772 -1.694062
    23 0.120153 -0.050270 -0.054489 0.287569 3.110905 1.561085
    24 0.940206 -8.059471 -21.591786 0.977081 -2.888755 0.291390
    25 0.096944 -8.450418 -0.009365 -0.886529 -1.863625 0.902637
    26 0.447953 -2.798986 -0.200443 -0.895114 0.080411 0.181993
    27 -0.032909 -1.480204 0.004940 -1.562664 0.000000 0.000002
    28 -0.027022 -1.076920 -0.020210 -1.353433 0.000000 0.000000
    29 -0.249534 -2.846964 -0.174213 -0.563520 0.059570 0.201886
    30 0.043235 -1.683941 0.096012 -1.740205 0.002823 -0.000167
    31 0.031729 -1.160830 0.058838 -1.701368 0.000642 0.008372
    32 -0.963866 -2.785145 -0.085350 -0.272004 0.220066 0.176802
    33 0.028479 -1.403067 0.006271 -0.593823 0.000000 0.000000
    34 0.021413 -0.957781 0.020046 -0.625539 0.000000 0.000000
    35 1.164475 -2.543940 -0.170330 -1.110644 -0.190570 0.231620
    36 0.024032 -1.129042 0.017807 -1.303248 0.000000 0.000001
    37 0.014898 -0.883989 -0.019848 -1.545343 0.000000 0.000000
    38 -0.586770 -1.264477 0.200161 0.250695 -0.573527 -2.508811
    39 1.522835 0.058681 0.016848 0.001410 0.008985 0.531860
    40 1.117947 0.048424 -0.005766 -0.004809 -0.024275 0.252454
    41 -0.139399 -0.111698 0.014397 0.808194 0.214002 1.504562
    42 -1.393470 8.839177 -0.239433 1.580804 -0.005023 -1.566847
  time 14
    0 -0.996124 1.625050 3.535264 0.000000 0.000000 0.000000
    1 6.452956 2.703207 -15.895016 -0.969346 -0.786336 0.774811
    2 -0.071920 -8.498730 -0.104137 0.174314 0.222347 0.136926
    3 2.815887 -5.283123 1.386549 0.209716 0.049969 -1.630727
    4 3.633989 -0.389699 -0.017558 -1.570797 -1.570796 0.000000
    5 11.822113 -1.093859 -0.000002 0.000001 0.000000 -1.570796
    6 3.859109 -0.652261 -0.130329 0.155864 0.235275 -0.102060
    7 1.257180 8.762585 -0.153713 -1.570562 0.002683 -1.566807
    8 -0.488518 -2.755602 -0.228260 -0.871614 -0.202550 -0.209553
    9 0.039887 -1.479790 0.029854 -1.516144 0.000000 0.000001
    10 0.028786 -1.075731 -0.023109 -1.298153 0.000000 0.000000
    11 0.250027 -2.820665 -0.238396 -0.797118 -0.167505 -0.114926
    12 -0.049759 -1.680544 0.100479 -1.644607 0.000000 -0.000002
    13 -0.034142 -1.148312 0.084782 -1.481002 0.000000 0.000000
    14 0.957766 -2.746780 -0.090302 -0.175885 -0.162672 0.097910
    15 -0.033420 -1.397129 -0.011257 -0.521018 0.000000 -0.000001
    16 -0.022360 -0.957436 0.018784 -0.975516 0.000000 0.000000
    17 -1.180681 -2.507217 -0.193859 -0.671429 -0.081504 -0.261329
    18 -0.024967 -1.123934 0.017597 -1.276708 0.000000 0.000001
    19 -0.020057 -0.890968 0.010090 -1.435733 0.000000 0.000000
    20 0.583510 -1.197277 0.185379 0.135458 -1.044822 -1.384612
    21 1.535927 0.010246 0.005009 -0.002964 -0.012979 -0.506650
    22 1.100771 0.004527 -0.010679 -0.015488 -0.004772 -1.694062
    23 0.120153 -0.050270 -0.054489 0.287569 3.110905 1.561085
    24 0.463629 -11.645518 -22.810573 1.199405 -2.689111 0.573980
    25 0.096944 -8.450418 -0.009365 -1.421082 -1.779973 1.451628
    26 0.447953 -2.798986 -0.200443 -0.895114 0.080411 0.181993
    27 -0.032909 -1.480204 0.004940 -1.562664 0.000000 0.000002
    28 -0.027022 -1.076920 -0.020210 -1.353433 0.000000 0.000000
    29 -0.249534 -2.846964 -0.174213 -0.563520 0.059570 0.201886
    30 0.043235 -1.683941 0.096012 -1.740205 0.002823 -0.000167
    31 0.031729 -1.160830 0.058838 -1.701368 0.000642 0.008372
    32 -0.963866 -2.785145 -0.085350 -0.272004 0.220066 0.176802
    33 0.028479 -1.403067 0.006271 -0.335609 0.000000 0.000000
    34 0.021413 -0.957781 0.020046 -0.625539 0.000000 0.000000
    35 1.164475 -2.543940 -0.170330 -1.110644 -0.190570 0.231620
    36 0.024032 -1.129042 0.017807 -1.303248 0.000000 0.000001
    37 0.014898 -0.883989 -0.019848 -1.545343 0.000000 0.000000
    38 -0.586770 -1.264477 0.200161 0.250695 -0.573527 -2.508811
    39 1.522835 0.058681 0.016848 0.001410 0.008985 0.545191
    40 1.117947 0.048424 -0.005766 -0.001238 -0.024886 0.106949
    41 -0.139399 -0.111698 0.014397 0.808194 0.214002 1.504562
    42 -1.393470 8.839177 -0.239433 1.580804 -0.005023 -1.566847
  time 15
    0 -0.996124 1.625050 3.535264 0.000000 0.000000 0.000000
    1 6.363109 2.507889 -15.977050 -0.970288 -0.785684 0.775480
    2 -0.071920 -8.498730 -0.104137 0.176040 0.231264 0.147197
    3 2.815887 -5.283123 1.386549 0.209716 0.049969 -1.630727
    4 3.633989 -0.389699 -0.017558 -1.570797 -1.570796 0.000000
    5 11.822113 -1.093859 -0.000002 0.000001 0.000000 -1.570796
    6 3.859109 -0.652261 -0.130329 0.155864 0.235275 -0.102060
    7 1.257180 8.762585 -0.153713 -1.570562 0.002683 -1.566807
    8 -0.488518 -2.755602 -0.228260 -0.871614 -0.202550 -0.209553
    9 0.039887 -1.479790 0.029854 -1.516144 0.000000 0.000001
    10 0.028786 -1.075731 -0.023109 -1.298153 0.000000 0.000000
    11 0.250027 -2.820665 -0.238396 -0.797118 -0.167505 -0.114926
    12 -0.049759 -1.680544 0.100479 -1.644607 0.000000 -0.000002
    13 -0.034142 -1.148312 0.084782 -1.481046 0.000000 0.000000
    14 0.957766 -2.746780 -0.090302 -0.175885 -0.162672 0.097910
    15 -0.033420 -1.397129 -0.011257 -0.521018 0.000000 -0.000001
    16 -0.022360 -0.957436 0.018784 -0.975516 0.000000 0.000000
    17 -1.180681 -2.507217 -0.193859 -0.671429 -0.081504 -0.261329
    18 -0.024967 -1.123934 0.017597 -1.276708 0.000000 0.000001
    19 -0.020057 -0.890968 0.010090 -1.435733 0.000000 0.000000
    20 0.583510 -1.197277 0.185379 0.135458 -1.044822 -1.384612
    21 1.535927 0.010246 0.005009 -0.002964 -0.012979 -0.506650
    22 1.100771 0.004527 -0.010679 -0.015488 -0.004772 -1.694062
    23 0.120153 -0.050270 -0.054489 0.287569 3.110905 1.561085
    24 0.190183 -14.989370 -22.876981 1.325327 -2.488162 0.884064
    25 0.096944 -8.450418 -0.009365 0.925103 -1.286889 -0.867819
    26 0.447953 -2.798986 -0.200443 -0.895114 0.080411 0.181993
    27 -0.032909 -1.480204 0.004940 -1.562664 0.000000 0.000002
    28 -0.027022 -1.076920 -0.020210 -1.353433 0.000000 0.000000
    29 -0.249534 -2.846964 -0.174213 -0.563520 0.059570 0.201886
    30 0.043235 -1.683941 0.096012 -1.740205 0.002823 -0.000167
    31 0.031729 -1.160830 0.058838 -1.701368 0.000642 0.008372
    32 -0.963866 -2.785145 -0.085350 -0.272004 0.220066 0.176802
    33 0.028479 -1.403067 0.006271 -0.226231 0.000000 0.000000
    34 0.021413 -0.957781 0.020046 -0.625539 0.000000 0.000000
    35 1.164475 -2.543940 -0.170330 -1.110644 -0.190570 0.231620
    36 0.024032 -1.129042 0.017807 -1.303248 0.000000 0.000001
    37 0.014898 -0.883989 -0.019848 -1.545343 0.000000 0.000000
    38 -0.586770 -1.264477 0.200161 0.250695 -0.573527 -2.508811
    39 1.522835 0.058681 0.016848 0.001410 0.008985 0.551176
    40 1.117947 0.048424 -0.005766 0.001255 -0.025174 0.005128
    41 -0.139399 -0.111698 0.014397 0.808194 0.214002 1.504562
    42 -1.393470 8.839177 -0.239433 1.580804 -0.005023 -1.566847
end
