// Created by Crowbar 0.68

$modelname "weapons/tfa_cso/c_herochainsaw.mdl"

$include "csonline_gmod.qci"

$bodygroup "weapon"
{
	studio "v_ref01"
}
$bodygroup "weapon"
{
	studio "v_ref02"
}

$cdmaterials "models/weapons/tfa_cso/herochainsaw"

$sequence "idle1" {
	"v_herochainsaw_anims\idle1"
	{ event 5004 1 "HeroChainsaw.Idle" }
	fps 30
	loop
	activity "ACT_VM_IDLE" 1
	snap
}
$sequence "draw" {
	"v_herochainsaw_anims\draw"
	{ event 5004 2 "HeroChainsaw.Draw" }
	fps 30
	activity "ACT_VM_DRAW" 1
	snap
}
$sequence "draw_empty" {
	"v_herochainsaw_anims\draw_empty"
	{ event 5004 2 "HeroChainsaw.Draw" }
	fps 30
}
$sequence "attack1_start" {
	"v_herochainsaw_anims\attack1_start"
	fps 30
}
$sequence "attack1_loop" {
	"v_herochainsaw_anims\attack1_loop"
	fps 30
	loop
}
$sequence "attack1_end" {
	"v_herochainsaw_anims\attack1_end"
	fps 30
}
$sequence "slash1" {
	"v_herochainsaw_anims\slash1"
	{ event 5004 2 "HeroChainsaw.Slash1" }
	fps 30
	activity "ACT_VM_HITCENTER" 1
	snap
}
$sequence "slash2" {
	"v_herochainsaw_anims\slash2"
	{ event 5004 1 "HeroChainsaw.Slash2" }
	fps 30
	activity "ACT_VM_HITCENTER" 1
	snap
}
$sequence "slash3" {
	"v_herochainsaw_anims\slash3"
	fps 30
}
$sequence "slash4" {
	"v_herochainsaw_anims\slash4"
	fps 30
}
$sequence "empty" {
	"v_herochainsaw_anims\empty"
	{ event 5004 1 "HeroChainsaw.Idle" }
	fps 30
	loop
}
