version 1
nodes
  0 "Bone01" -1
  1 "Bone_Lefthand" 0
  2 "Bone02" 1
  3 "Bone03" 2
  4 "Bone52" 3
  5 "Bone25" 3
  6 "Bone50" 3
  7 "Bone48" 3
  8 "Bone 04" 1
  9 "Bone13" 8
  10 "Bone14" 9
  11 "Bone15" 10
  12 "Bone17" 8
  13 "Bone18" 12
  14 "Bone19" 13
  15 "Bone21" 8
  16 "Bone22" 15
  17 "Bone23" 16
  18 "Bone05" 8
  19 "Bone06" 18
  20 "Bone07" 19
  21 "Bone09" 8
  22 "Bone10" 21
  23 "Bone11" 22
  24 "Bone04" -1
  25 "Bone_Righthand" 24
  26 "Bone26" 25
  27 "Bone35" 26
  28 "Bone36" 27
  29 "Bone37" 28
  30 "Bone31" 26
  31 "Bone32" 30
  32 "Bone33" 31
  33 "Bone39" 26
  34 "Bone40" 33
  35 "Bone41" 34
  36 "Bone43" 26
  37 "Bone44" 36
  38 "Bone45" 37
  39 "Bone27" 26
  40 "Bone28" 39
  41 "Bone29" 40
end
skeleton
  time 0
    0 8.106566 4.665702 -7.194028 -0.784661 -1.331349 0.567278
    1 -0.001748 -8.563255 -0.000751 0.347509 -0.125173 -0.169614
    2 -0.219101 -3.426991 0.819250 -1.247037 1.437605 -1.233844
    3 0.000000 2.338130 0.839328 0.000000 0.000000 0.000000
    4 0.000001 -5.493101 2.360611 0.000000 0.000000 0.000000
    5 0.000001 -3.357312 1.408873 0.261779 0.000000 0.000000
    6 0.000001 -6.122600 1.221523 0.000000 0.000000 0.000000
    7 0.000000 -2.229289 1.941594 0.000000 0.000000 0.000000
    8 -0.003479 -0.404829 0.000000 0.000000 0.000000 0.000000
    9 -0.519310 -2.501155 -0.278957 -1.003564 0.000000 -0.122173
    10 -0.010598 -1.208185 0.000000 -1.148417 0.000000 0.000000
    11 0.000000 -0.763066 0.000000 -0.841249 0.000000 0.000000
    12 0.105980 -2.607135 -0.278957 -0.795871 0.000000 -0.148353
    13 0.000000 -1.250579 0.000000 -1.296776 0.000000 0.000000
    14 0.000000 -0.932634 0.000000 -0.886645 0.000000 0.000000
    15 0.763063 -2.490556 -0.278957 -0.226523 0.039309 0.239193
    16 -0.012323 -1.280918 0.000000 -0.788863 0.000000 0.000000
    17 -0.001696 -0.749371 0.000000 -0.933738 0.000000 0.000000
    18 0.354566 0.016267 0.318133 0.834772 -0.606745 -1.212439
    19 1.887166 0.012878 0.000000 -0.305433 0.000000 -0.401426
    20 1.001874 -0.000270 0.000000 0.000000 0.000000 -0.488692
    21 -1.123360 -2.195093 -0.278957 -0.933751 0.000000 -0.087266
    22 0.010772 -0.963792 0.000000 -0.610865 0.000000 0.000000
    23 -0.010412 -0.631916 0.000000 -1.370074 0.000000 0.000000
    24 1.688039 -7.423816 -8.272033 -0.497140 0.471883 0.200013
    25 0.089930 -8.543161 -0.000001 0.082474 -0.537511 0.530890
    26 0.000000 -0.359712 0.000000 0.000000 0.000000 0.000000
    27 -0.170479 -2.636147 -0.277657 -1.692969 0.000000 0.000000
    28 0.010599 -1.261176 0.000002 -0.253073 0.000000 0.000000
    29 -0.000001 -0.943233 -0.000002 -0.532326 0.000000 0.000000
    30 -0.827563 -2.508972 -0.277657 -1.396263 0.000000 0.000000
    31 0.000000 -1.292971 0.000001 -0.445059 0.000000 0.000000
    32 0.000000 -0.752465 0.000000 -0.445059 0.000000 0.000000
    33 0.444213 -2.561959 -0.277657 -1.727307 -0.046226 -0.024599
    34 0.021022 -1.208186 0.000001 -0.427606 0.000000 0.000000
    35 0.010597 -0.741867 -0.000001 -0.453786 0.000000 0.000000
    36 1.047445 -2.222820 -0.277657 -1.508123 -0.078971 -0.038609
    37 0.000000 -0.996224 -0.000002 -0.863938 0.000000 0.000000
    38 -0.000001 -0.614690 0.000000 -0.523599 0.000000 0.000000
    39 -0.308253 -0.007813 0.307166 -0.179973 -0.326092 -2.616278
    40 1.978376 0.019542 -0.000001 -0.084829 -0.033819 0.254889
    41 0.982425 0.003186 0.000001 0.000000 0.000000 0.326398
  time 1
    0 8.106566 4.665702 -7.194028 -0.784661 -1.331349 0.567278
    1 -0.001748 -8.563255 -0.000751 0.363723 -0.131774 -0.146921
    2 -0.219101 -3.426991 0.819250 -1.247037 1.437605 -1.233844
    3 0.000000 2.338130 0.839328 0.000000 0.000000 0.000000
    4 0.000001 -5.493101 2.360611 0.000000 0.000000 0.000000
    5 0.000001 -3.357312 1.408873 0.268790 0.000000 0.000000
    6 0.000001 -6.122600 1.221523 0.000000 0.000000 0.000000
    7 0.000000 -2.229289 1.941594 0.000000 0.000000 0.000000
    8 -0.003479 -0.404829 0.000000 0.000000 0.000000 0.000000
    9 -0.519310 -2.501155 -0.278957 -1.003564 0.000000 -0.122173
    10 -0.010598 -1.208185 0.000000 -1.148417 0.000000 0.000000
    11 0.000000 -0.763066 0.000000 -0.841249 0.000000 0.000000
    12 0.105980 -2.607135 -0.278957 -0.795871 0.000000 -0.148353
    13 0.000000 -1.250579 0.000000 -1.296776 0.000000 0.000000
    14 0.000000 -0.932634 0.000000 -0.886645 0.000000 0.000000
    15 0.763063 -2.490556 -0.278957 -0.223299 0.039309 0.239193
    16 -0.012323 -1.280918 0.000000 -0.801354 0.000000 0.000000
    17 -0.001696 -0.749371 0.000000 -0.942859 0.000000 0.000000
    18 0.354566 0.016267 0.318133 0.834772 -0.606745 -1.212439
    19 1.887166 0.012878 0.000000 -0.305433 0.000000 -0.401426
    20 1.001874 -0.000270 0.000000 0.000000 0.000000 -0.488692
    21 -1.123360 -2.195093 -0.278957 -0.933751 0.000000 -0.087266
    22 0.010772 -0.963792 0.000000 -0.610865 0.000000 0.000000
    23 -0.010412 -0.631916 0.000000 -1.370074 0.000000 0.000000
    24 1.856013 -7.587884 -8.350160 -0.547276 0.461179 0.179964
    25 0.089930 -8.543161 -0.000001 0.125299 -0.532867 0.491593
    26 0.000000 -0.359712 0.000000 0.000000 0.000000 0.000000
    27 -0.170479 -2.636147 -0.277657 -1.692969 0.000000 0.000000
    28 0.010599 -1.261176 0.000002 -0.253073 0.000000 0.000000
    29 -0.000001 -0.943233 -0.000002 -0.532326 0.000000 0.000000
    30 -0.827563 -2.508972 -0.277657 -1.396263 0.000000 0.000000
    31 0.000000 -1.292971 0.000001 -0.445059 0.000000 0.000000
    32 0.000000 -0.752465 0.000000 -0.445059 0.000000 0.000000
    33 0.444213 -2.561959 -0.277657 -1.727307 -0.046226 -0.024599
    34 0.021022 -1.208186 0.000001 -0.427606 0.000000 0.000000
    35 0.010597 -0.741867 -0.000001 -0.453786 0.000000 0.000000
    36 1.047445 -2.222820 -0.277657 -1.508123 -0.078971 -0.038609
    37 0.000000 -0.996224 -0.000002 -0.863938 0.000000 0.000000
    38 -0.000001 -0.614690 0.000000 -0.523599 0.000000 0.000000
    39 -0.308253 -0.007813 0.307166 -0.179973 -0.326092 -2.616278
    40 1.978376 0.019542 -0.000001 -0.084829 -0.033819 0.254889
    41 0.982425 0.003186 0.000001 0.000000 0.000000 0.326398
  time 2
    0 8.735491 5.298533 -7.049492 -0.869110 -1.320976 0.624735
    1 -0.001748 -8.563255 -0.000751 0.374220 -0.135685 -0.133985
    2 -0.219101 -3.426991 0.819250 -1.247037 1.437605 -1.233844
    3 0.000000 2.338130 0.839328 0.000000 0.000000 0.000000
    4 0.000001 -5.493101 2.360611 0.000000 0.000000 0.000000
    5 0.000001 -3.357312 1.408873 0.280475 0.000000 0.000000
    6 0.000001 -6.122600 1.221523 0.000000 0.000000 0.000000
    7 0.000000 -2.229289 1.941594 0.000000 0.000000 0.000000
    8 -0.003479 -0.404829 0.000000 0.000000 0.000000 0.000000
    9 -0.519310 -2.501155 -0.278957 -1.003564 0.000000 -0.122173
    10 -0.010598 -1.208185 0.000000 -1.148417 0.000000 0.000000
    11 0.000000 -0.763066 0.000000 -0.841249 0.000000 0.000000
    12 0.105980 -2.607135 -0.278957 -0.795871 0.000000 -0.148353
    13 0.000000 -1.250579 0.000000 -1.296776 0.000000 0.000000
    14 0.000000 -0.932634 0.000000 -0.886645 0.000000 0.000000
    15 0.763063 -2.490556 -0.278957 -0.217918 0.039309 0.239193
    16 -0.012323 -1.280918 0.000000 -0.822157 0.000000 0.000000
    17 -0.001696 -0.749371 0.000000 -0.958043 0.000000 0.000000
    18 0.354566 0.016267 0.318133 0.834772 -0.606745 -1.212439
    19 1.887166 0.012878 0.000000 -0.305433 0.000000 -0.401426
    20 1.001874 -0.000270 0.000000 0.000000 0.000000 -0.488692
    21 -1.123360 -2.195093 -0.278957 -0.933751 0.000000 -0.087266
    22 0.010772 -0.963792 0.000000 -0.610865 0.000000 0.000000
    23 -0.010412 -0.631916 0.000000 -1.370074 0.000000 0.000000
    24 1.195837 -7.228498 -7.506384 -0.546747 0.510591 0.267444
    25 0.089930 -8.543161 -0.000001 0.167754 -0.526782 0.452673
    26 0.000000 -0.359712 0.000000 0.000000 0.000000 0.000000
    27 -0.170479 -2.636147 -0.277657 -1.692969 0.000000 0.000000
    28 0.010599 -1.261176 0.000002 -0.253073 0.000000 0.000000
    29 -0.000001 -0.943233 -0.000002 -0.532326 0.000000 0.000000
    30 -0.827563 -2.508972 -0.277657 -1.396263 0.000000 0.000000
    31 0.000000 -1.292971 0.000001 -0.445059 0.000000 0.000000
    32 0.000000 -0.752465 0.000000 -0.445059 0.000000 0.000000
    33 0.444213 -2.561959 -0.277657 -1.727307 -0.046226 -0.024599
    34 0.021022 -1.208186 0.000001 -0.427606 0.000000 0.000000
    35 0.010597 -0.741867 -0.000001 -0.453786 0.000000 0.000000
    36 1.047445 -2.222820 -0.277657 -1.508123 -0.078971 -0.038609
    37 0.000000 -0.996224 -0.000002 -0.863938 0.000000 0.000000
    38 -0.000001 -0.614690 0.000000 -0.523599 0.000000 0.000000
    39 -0.308253 -0.007813 0.307166 -0.179973 -0.326092 -2.616278
    40 1.978376 0.019542 -0.000001 -0.084829 -0.033819 0.254889
    41 0.982425 0.003186 0.000001 0.000000 0.000000 0.326398
  time 3
    0 9.180817 5.747766 -6.951833 -0.915497 -1.315030 0.653675
    1 -0.001748 -8.563255 -0.000751 0.374132 -0.133390 -0.141204
    2 -0.219101 -3.426991 0.819250 -1.247037 1.437605 -1.233844
    3 0.000000 2.338130 0.839328 0.000000 0.000000 0.000000
    4 0.000001 -5.493101 2.360611 0.000000 0.000000 0.000000
    5 0.000001 -3.357312 1.408873 0.282824 0.000000 0.000000
    6 0.000001 -6.122600 1.221523 0.000000 0.000000 0.000000
    7 0.000000 -2.229289 1.941594 0.000000 0.000000 0.000000
    8 -0.003479 -0.404829 0.000000 0.000000 0.000000 0.000000
    9 -0.519310 -2.501155 -0.278957 -1.003564 0.000000 -0.122173
    10 -0.010598 -1.208185 0.000000 -1.148417 0.000000 0.000000
    11 0.000000 -0.763066 0.000000 -0.841249 0.000000 0.000000
    12 0.105980 -2.607135 -0.278957 -0.795871 0.000000 -0.148353
    13 0.000000 -1.250579 0.000000 -1.296776 0.000000 0.000000
    14 0.000000 -0.932634 0.000000 -0.886645 0.000000 0.000000
    15 0.763063 -2.490556 -0.278957 -0.216839 0.039309 0.239193
    16 -0.012323 -1.280918 0.000000 -0.826336 0.000000 0.000000
    17 -0.001696 -0.749371 0.000000 -0.961087 0.000000 0.000000
    18 0.354566 0.016267 0.318133 0.834772 -0.606745 -1.212439
    19 1.887166 0.012878 0.000000 -0.305433 0.000000 -0.401426
    20 1.001874 -0.000270 0.000000 0.000000 0.000000 -0.488692
    21 -1.123360 -2.195093 -0.278957 -0.933751 0.000000 -0.087266
    22 0.010772 -0.963792 0.000000 -0.610865 0.000000 0.000000
    23 -0.010412 -0.631916 0.000000 -1.370074 0.000000 0.000000
    24 0.520035 -6.986303 -7.037620 -0.529656 0.547530 0.336955
    25 0.089930 -8.543161 -0.000001 0.196348 -0.523156 0.435209
    26 0.000000 -0.359712 0.000000 0.000000 0.000000 0.000000
    27 -0.170479 -2.636147 -0.277657 -1.692969 0.000000 0.000000
    28 0.010599 -1.261176 0.000002 -0.253073 0.000000 0.000000
    29 -0.000001 -0.943233 -0.000002 -0.532326 0.000000 0.000000
    30 -0.827563 -2.508972 -0.277657 -1.396263 0.000000 0.000000
    31 0.000000 -1.292971 0.000001 -0.445059 0.000000 0.000000
    32 0.000000 -0.752465 0.000000 -0.445059 0.000000 0.000000
    33 0.444213 -2.561959 -0.277657 -1.727307 -0.046226 -0.024599
    34 0.021022 -1.208186 0.000001 -0.427606 0.000000 0.000000
    35 0.010597 -0.741867 -0.000001 -0.453786 0.000000 0.000000
    36 1.047445 -2.222820 -0.277657 -1.508123 -0.078971 -0.038609
    37 0.000000 -0.996224 -0.000002 -0.863938 0.000000 0.000000
    38 -0.000001 -0.614690 0.000000 -0.523599 0.000000 0.000000
    39 -0.308253 -0.007813 0.307166 -0.179973 -0.326092 -2.616278
    40 1.978376 0.019542 -0.000001 -0.084829 -0.033819 0.254889
    41 0.982425 0.003186 0.000001 0.000000 0.000000 0.326398
  time 4
    0 9.356604 5.915740 -6.936208 -0.848603 -1.327208 0.599264
    1 -0.001748 -8.563255 -0.000751 0.370731 -0.128948 -0.155319
    2 -0.219101 -3.426991 0.819250 -1.247037 1.437605 -1.233844
    3 0.000000 2.338130 0.839328 0.000000 0.000000 0.000000
    4 0.000001 -4.762610 2.360611 0.000000 0.000000 0.000000
    5 0.000001 -3.357312 1.408873 0.261779 0.000000 0.000000
    6 0.000001 -6.122600 1.221523 0.000000 0.000000 0.000000
    7 0.000000 -2.229289 1.941594 0.000000 0.000000 0.000000
    8 -0.003479 -0.404829 0.000000 0.000000 0.000000 0.000000
    9 -0.519310 -2.501155 -0.278957 -1.003564 0.000000 -0.122173
    10 -0.010598 -1.208185 0.000000 -1.148417 0.000000 0.000000
    11 0.000000 -0.763066 0.000000 -0.841249 0.000000 0.000000
    12 0.105980 -2.607135 -0.278957 -0.795871 0.000000 -0.148353
    13 0.000000 -1.250579 0.000000 -1.296776 0.000000 0.000000
    14 0.000000 -0.932634 0.000000 -0.886645 0.000000 0.000000
    15 0.763063 -2.490556 -0.278957 -0.226523 0.039309 0.239193
    16 -0.012323 -1.280918 0.000000 -0.788863 0.000000 0.000000
    17 -0.001696 -0.749371 0.000000 -0.933738 0.000000 0.000000
    18 0.354566 0.016267 0.318133 0.834772 -0.606745 -1.212439
    19 1.887166 0.012878 0.000000 -0.305433 0.000000 -0.401426
    20 1.001874 -0.000270 0.000000 0.000000 0.000000 -0.488692
    21 -1.123360 -2.195093 -0.278957 -0.933751 0.000000 -0.087266
    22 0.010772 -0.963792 0.000000 -0.610865 0.000000 0.000000
    23 -0.010412 -0.631916 0.000000 -1.370074 0.000000 0.000000
    24 1.156773 -6.759734 -7.537635 -0.512415 0.529101 0.305084
    25 0.089930 -8.543161 -0.000001 0.203344 -0.526484 0.458744
    26 0.000000 -0.359712 0.000000 0.000000 0.000000 0.000000
    27 -0.170479 -2.636147 -0.277657 -1.692969 0.000000 0.000000
    28 0.010599 -1.261176 0.000002 -0.253073 0.000000 0.000000
    29 -0.000001 -0.943233 -0.000002 -0.532326 0.000000 0.000000
    30 -0.827563 -2.508972 -0.277657 -1.396263 0.000000 0.000000
    31 0.000000 -1.292971 0.000001 -0.445059 0.000000 0.000000
    32 0.000000 -0.752465 0.000000 -0.445059 0.000000 0.000000
    33 0.444213 -2.561959 -0.277657 -1.727307 -0.046226 -0.024599
    34 0.021022 -1.208186 0.000001 -0.427606 0.000000 0.000000
    35 0.010597 -0.741867 -0.000001 -0.453786 0.000000 0.000000
    36 1.047445 -2.222820 -0.277657 -1.508123 -0.078971 -0.038609
    37 0.000000 -0.996224 -0.000002 -0.863938 0.000000 0.000000
    38 -0.000001 -0.614690 0.000000 -0.523599 0.000000 0.000000
    39 -0.308253 -0.007813 0.307166 -0.179973 -0.326092 -2.616278
    40 1.978376 0.019542 -0.000001 -0.084829 -0.033819 0.254889
    41 0.982425 0.003186 0.000001 0.000000 0.000000 0.326398
  time 5
    0 9.243319 5.782923 -7.002616 -0.763624 -1.338525 0.534700
    1 -0.001748 -8.563255 -0.000751 0.365307 -0.124408 -0.170150
    2 -0.219101 -3.426991 0.819250 -1.247037 1.437605 -1.233844
    3 0.000000 2.338130 0.839328 0.000000 0.000000 0.000000
    4 0.000001 -4.024306 2.360611 0.000000 0.000000 0.000000
    5 0.000001 -3.357312 1.408873 0.180919 0.000000 0.000000
    6 0.000001 -6.122600 1.221523 0.000000 0.000000 0.000000
    7 0.000000 -2.229289 1.941594 0.000000 0.000000 0.000000
    8 -0.003479 -0.404829 0.000000 0.000000 0.000000 0.000000
    9 -0.519310 -2.501155 -0.278957 -1.003564 0.000000 -0.122173
    10 -0.010598 -1.208185 0.000000 -1.148417 0.000000 0.000000
    11 0.000000 -0.763066 0.000000 -0.841249 0.000000 0.000000
    12 0.105980 -2.607135 -0.278957 -0.795871 0.000000 -0.148353
    13 0.000000 -1.250579 0.000000 -1.296776 0.000000 0.000000
    14 0.000000 -0.932634 0.000000 -0.886645 0.000000 0.000000
    15 0.763063 -2.490556 -0.278957 -0.260907 0.039309 0.239193
    16 -0.012323 -1.280918 0.000000 -0.655720 0.000000 0.000000
    17 -0.001696 -0.749371 0.000000 -0.836495 0.000000 0.000000
    18 0.354566 0.016267 0.318133 0.834772 -0.606745 -1.212439
    19 1.887166 0.012878 0.000000 -0.305433 0.000000 -0.401426
    20 1.001874 -0.000270 0.000000 0.000000 0.000000 -0.488692
    21 -1.123360 -2.195093 -0.278957 -0.933751 0.000000 -0.087266
    22 0.010772 -0.963792 0.000000 -0.610865 0.000000 0.000000
    23 -0.010412 -0.631916 0.000000 -1.370074 0.000000 0.000000
    24 1.910702 -6.619104 -8.025931 -0.492829 0.493370 0.239923
    25 0.089930 -8.543161 -0.000001 0.196600 -0.533413 0.503504
    26 0.000000 -0.359712 0.000000 0.000000 0.000000 0.000000
    27 -0.170479 -2.636147 -0.277657 -1.692969 0.000000 0.000000
    28 0.010599 -1.261176 0.000002 -0.253073 0.000000 0.000000
    29 -0.000001 -0.943233 -0.000002 -0.532326 0.000000 0.000000
    30 -0.827563 -2.508972 -0.277657 -1.396263 0.000000 0.000000
    31 0.000000 -1.292971 0.000001 -0.445059 0.000000 0.000000
    32 0.000000 -0.752465 0.000000 -0.445059 0.000000 0.000000
    33 0.444213 -2.561959 -0.277657 -1.727307 -0.046226 -0.024599
    34 0.021022 -1.208186 0.000001 -0.427606 0.000000 0.000000
    35 0.010597 -0.741867 -0.000001 -0.453786 0.000000 0.000000
    36 1.047445 -2.222820 -0.277657 -1.508123 -0.078971 -0.038609
    37 0.000000 -0.996224 -0.000002 -0.863938 0.000000 0.000000
    38 -0.000001 -0.614690 0.000000 -0.523599 0.000000 0.000000
    39 -0.308253 -0.007813 0.307166 -0.179973 -0.326092 -2.616278
    40 1.978376 0.019542 -0.000001 -0.084829 -0.033819 0.254889
    41 0.982425 0.003186 0.000001 0.000000 0.000000 0.326398
  time 6
    0 8.950341 5.466507 -7.123713 -0.754544 -1.336885 0.539185
    1 -0.001748 -8.563255 -0.000751 0.359179 -0.121644 -0.179477
    2 -0.219101 -3.426991 0.819250 -1.247037 1.437605 -1.233844
    3 0.000000 2.338130 0.839328 0.000000 0.000000 0.000000
    4 0.000001 -4.762610 2.360611 0.000000 0.000000 0.000000
    5 0.000001 -3.357312 1.408873 0.066814 0.000000 0.000000
    6 0.000001 -6.122600 1.221523 0.000000 0.000000 0.000000
    7 0.000000 -2.229289 1.941594 0.000000 0.000000 0.000000
    8 -0.003479 -0.404829 0.000000 0.000000 0.000000 0.000000
    9 -0.519310 -2.501155 -0.278957 -1.003564 0.000000 -0.122173
    10 -0.010598 -1.208185 0.000000 -1.148417 0.000000 0.000000
    11 0.000000 -0.763066 0.000000 -0.841249 0.000000 0.000000
    12 0.105980 -2.607135 -0.278957 -0.795871 0.000000 -0.148353
    13 0.000000 -1.250579 0.000000 -1.296776 0.000000 0.000000
    14 0.000000 -0.932634 0.000000 -0.886645 0.000000 0.000000
    15 0.763063 -2.490556 -0.278957 -0.310619 0.039309 0.239193
    16 -0.012323 -1.280918 0.000000 -0.463410 0.000000 0.000000
    17 -0.001696 -0.749371 0.000000 -0.696048 0.000000 0.000000
    18 0.354566 0.016267 0.318133 0.834772 -0.606745 -1.212439
    19 1.887166 0.012878 0.000000 -0.305433 0.000000 -0.401426
    20 1.001874 -0.000270 0.000000 0.000000 0.000000 -0.488692
    21 -1.123360 -2.195093 -0.278957 -0.933751 0.000000 -0.087266
    22 0.010772 -0.963792 0.000000 -0.610865 0.000000 0.000000
    23 -0.010412 -0.631916 0.000000 -1.370074 0.000000 0.000000
    24 2.410718 -6.705044 -8.346254 -0.481411 0.471883 0.200013
    25 0.089930 -8.543161 -0.000001 0.187205 -0.537511 0.530890
    26 0.000000 -0.359712 0.000000 0.000000 0.000000 0.000000
    27 -0.170479 -2.636147 -0.277657 -1.692969 0.000000 0.000000
    28 0.010599 -1.261176 0.000002 -0.253073 0.000000 0.000000
    29 -0.000001 -0.943233 -0.000002 -0.532326 0.000000 0.000000
    30 -0.827563 -2.508972 -0.277657 -1.396263 0.000000 0.000000
    31 0.000000 -1.292971 0.000001 -0.445059 0.000000 0.000000
    32 0.000000 -0.752465 0.000000 -0.445059 0.000000 0.000000
    33 0.444213 -2.561959 -0.277657 -1.727307 -0.046226 -0.024599
    34 0.021022 -1.208186 0.000001 -0.427606 0.000000 0.000000
    35 0.010597 -0.741867 -0.000001 -0.453786 0.000000 0.000000
    36 1.047445 -2.222820 -0.277657 -1.508123 -0.078971 -0.038609
    37 0.000000 -0.996224 -0.000002 -0.863938 0.000000 0.000000
    38 -0.000001 -0.614690 0.000000 -0.523599 0.000000 0.000000
    39 -0.308253 -0.007813 0.307166 -0.179973 -0.326092 -2.616278
    40 1.978376 0.019542 -0.000001 -0.084829 -0.033819 0.254889
    41 0.982425 0.003186 0.000001 0.000000 0.000000 0.326398
  time 7
    0 8.575330 5.064151 -7.268249 -0.768467 -1.331431 0.565078
    1 -0.001748 -8.563255 -0.000751 0.350881 -0.121472 -0.180585
    2 -0.219101 -3.426991 0.819250 -1.247037 1.437605 -1.233844
    3 0.000000 2.338130 0.839328 0.000000 0.000000 0.000000
    4 0.000001 -5.493101 2.360611 0.000000 0.000000 0.000000
    5 0.000001 -3.357312 1.408873 0.000000 0.000000 0.000000
    6 0.000001 -6.122600 1.221523 0.000000 0.000000 0.000000
    7 0.000000 -2.229289 1.941594 0.000000 0.000000 0.000000
    8 -0.003479 -0.404829 0.000000 0.000000 0.000000 0.000000
    9 -0.519310 -2.501155 -0.278957 -1.003564 0.000000 -0.122173
    10 -0.010598 -1.208185 0.000000 -1.148417 0.000000 0.000000
    11 0.000000 -0.763066 0.000000 -0.841249 0.000000 0.000000
    12 0.105980 -2.607135 -0.278957 -0.795871 0.000000 -0.148353
    13 0.000000 -1.250579 0.000000 -1.296776 0.000000 0.000000
    14 0.000000 -0.932634 0.000000 -0.886645 0.000000 0.000000
    15 0.763063 -2.490556 -0.278957 -0.346932 0.039309 0.239193
    16 -0.012323 -1.280918 0.000000 -0.322892 0.000000 0.000000
    17 -0.001696 -0.749371 0.000000 -0.593412 0.000000 0.000000
    18 0.354566 0.016267 0.318133 0.834772 -0.606745 -1.212439
    19 1.887166 0.012878 0.000000 -0.305433 0.000000 -0.401426
    20 1.001874 -0.000270 0.000000 0.000000 0.000000 -0.488692
    21 -1.123360 -2.195093 -0.278957 -0.933751 0.000000 -0.087266
    22 0.010772 -0.963792 0.000000 -0.610865 0.000000 0.000000
    23 -0.010412 -0.631916 0.000000 -1.370074 0.000000 0.000000
    24 2.289620 -7.154277 -8.354066 -0.479672 0.468261 0.193109
    25 0.089930 -8.543161 -0.000001 0.180355 -0.538182 0.535762
    26 0.000000 -0.359712 0.000000 0.000000 0.000000 0.000000
    27 -0.170479 -2.636147 -0.277657 -1.692969 0.000000 0.000000
    28 0.010599 -1.261176 0.000002 -0.253073 0.000000 0.000000
    29 -0.000001 -0.943233 -0.000002 -0.532326 0.000000 0.000000
    30 -0.827563 -2.508972 -0.277657 -1.396263 0.000000 0.000000
    31 0.000000 -1.292971 0.000001 -0.445059 0.000000 0.000000
    32 0.000000 -0.752465 0.000000 -0.445059 0.000000 0.000000
    33 0.444213 -2.561959 -0.277657 -1.727307 -0.046226 -0.024599
    34 0.021022 -1.208186 0.000001 -0.427606 0.000000 0.000000
    35 0.010597 -0.741867 -0.000001 -0.453786 0.000000 0.000000
    36 1.047445 -2.222820 -0.277657 -1.508123 -0.078971 -0.038609
    37 0.000000 -0.996224 -0.000002 -0.863938 0.000000 0.000000
    38 -0.000001 -0.614690 0.000000 -0.523599 0.000000 0.000000
    39 -0.308253 -0.007813 0.307166 -0.179973 -0.326092 -2.616278
    40 1.978376 0.019542 -0.000001 -0.084829 -0.033819 0.254889
    41 0.982425 0.003186 0.000001 0.000000 0.000000 0.326398
  time 8
    0 8.227663 4.693046 -7.393253 -0.778758 -1.327700 0.582764
    1 -0.001748 -8.563255 -0.000751 0.340355 -0.122718 -0.177118
    2 -0.219101 -3.426991 0.819250 -1.247037 1.437605 -1.233844
    3 0.000000 2.338130 0.839328 0.000000 0.000000 0.000000
    4 0.000001 -5.493101 2.360611 0.000000 0.000000 0.000000
    5 0.000001 -3.357312 1.408873 -0.013926 0.000000 0.000000
    6 0.000001 -6.122600 1.221523 0.000000 0.000000 0.000000
    7 0.000000 -2.229289 1.941594 0.000000 0.000000 0.000000
    8 -0.003479 -0.404829 0.000000 0.000000 0.000000 0.000000
    9 -0.519310 -2.501155 -0.278957 -1.003564 0.000000 -0.122173
    10 -0.010598 -1.208185 0.000000 -1.148417 0.000000 0.000000
    11 0.000000 -0.763066 0.000000 -0.841249 0.000000 0.000000
    12 0.105980 -2.607135 -0.278957 -0.795871 0.000000 -0.148353
    13 0.000000 -1.250579 0.000000 -1.296776 0.000000 0.000000
    14 0.000000 -0.932634 0.000000 -0.886645 0.000000 0.000000
    15 0.763063 -2.490556 -0.278957 -0.355837 0.039309 0.239193
    16 -0.012323 -1.280918 0.000000 -0.288385 0.000000 0.000000
    17 -0.001696 -0.749371 0.000000 -0.568208 0.000000 0.000000
    18 0.354566 0.016267 0.318133 0.834772 -0.606745 -1.212439
    19 1.887166 0.012878 0.000000 -0.305433 0.000000 -0.401426
    20 1.001874 -0.000270 0.000000 0.000000 0.000000 -0.488692
    21 -1.123360 -2.195093 -0.278957 -0.933751 0.000000 -0.087266
    22 0.010772 -0.963792 0.000000 -0.610865 0.000000 0.000000
    23 -0.010412 -0.631916 0.000000 -1.370074 0.000000 0.000000
    24 2.090395 -7.435535 -8.369692 -0.478764 0.465686 0.188192
    25 0.089930 -8.543161 -0.000001 0.173292 -0.538653 0.539201
    26 0.000000 -0.359712 0.000000 0.000000 0.000000 0.000000
    27 -0.170479 -2.636147 -0.277657 -1.692969 0.000000 0.000000
    28 0.010599 -1.261176 0.000002 -0.253073 0.000000 0.000000
    29 -0.000001 -0.943233 -0.000002 -0.532326 0.000000 0.000000
    30 -0.827563 -2.508972 -0.277657 -1.396263 0.000000 0.000000
    31 0.000000 -1.292971 0.000001 -0.445059 0.000000 0.000000
    32 0.000000 -0.752465 0.000000 -0.445059 0.000000 0.000000
    33 0.444213 -2.561959 -0.277657 -1.727307 -0.046226 -0.024599
    34 0.021022 -1.208186 0.000001 -0.427606 0.000000 0.000000
    35 0.010597 -0.741867 -0.000001 -0.453786 0.000000 0.000000
    36 1.047445 -2.222820 -0.277657 -1.508123 -0.078971 -0.038609
    37 0.000000 -0.996224 -0.000002 -0.863938 0.000000 0.000000
    38 -0.000001 -0.614690 0.000000 -0.523599 0.000000 0.000000
    39 -0.308253 -0.007813 0.307166 -0.179973 -0.326092 -2.616278
    40 1.978376 0.019542 -0.000001 -0.084829 -0.033819 0.254889
    41 0.982425 0.003186 0.000001 0.000000 0.000000 0.326398
  time 9
    0 8.005000 4.454758 -7.475287 -0.777699 -1.327618 0.583102
    1 -0.001748 -8.563255 -0.000751 0.331060 -0.124285 -0.172401
    2 -0.219101 -3.426991 0.819250 -1.247037 1.437605 -1.233844
    3 0.000000 2.338130 0.839328 0.000000 0.000000 0.000000
    4 0.000001 -5.493101 2.360611 0.000000 0.000000 0.000000
    5 0.000001 -3.357312 1.408873 -0.023430 0.000000 0.000000
    6 0.000001 -6.122600 1.221523 0.000000 0.000000 0.000000
    7 0.000000 -2.229289 1.941594 0.000000 0.000000 0.000000
    8 -0.003479 -0.404829 0.000000 0.000000 0.000000 0.000000
    9 -0.519310 -2.501155 -0.278957 -1.003564 0.000000 -0.122173
    10 -0.010598 -1.208185 0.000000 -1.148417 0.000000 0.000000
    11 0.000000 -0.763066 0.000000 -0.841249 0.000000 0.000000
    12 0.105980 -2.607135 -0.278957 -0.795871 0.000000 -0.148353
    13 0.000000 -1.250579 0.000000 -1.296776 0.000000 0.000000
    14 0.000000 -0.932634 0.000000 -0.886645 0.000000 0.000000
    15 0.763063 -2.490556 -0.278957 -0.351378 0.039309 0.239193
    16 -0.012323 -1.280918 0.000000 -0.305638 0.000000 0.000000
    17 -0.001696 -0.749371 0.000000 -0.580816 0.000000 0.000000
    18 0.354566 0.016267 0.318133 0.834772 -0.606745 -1.212439
    19 1.887166 0.012878 0.000000 -0.305433 0.000000 -0.401426
    20 1.001874 -0.000270 0.000000 0.000000 0.000000 -0.488692
    21 -1.123360 -2.195093 -0.278957 -0.933751 0.000000 -0.087266
    22 0.010772 -0.963792 0.000000 -0.610865 0.000000 0.000000
    23 -0.010412 -0.631916 0.000000 -1.370074 0.000000 0.000000
    24 1.832575 -7.583977 -8.393130 -0.478613 0.464077 0.185165
    25 0.089930 -8.543161 -0.000001 0.166084 -0.538927 0.541386
    26 0.000000 -0.359712 0.000000 0.000000 0.000000 0.000000
    27 -0.170479 -2.636147 -0.277657 -1.692969 0.000000 0.000000
    28 0.010599 -1.261176 0.000002 -0.253073 0.000000 0.000000
    29 -0.000001 -0.943233 -0.000002 -0.532326 0.000000 0.000000
    30 -0.827563 -2.508972 -0.277657 -1.396263 0.000000 0.000000
    31 0.000000 -1.292971 0.000001 -0.445059 0.000000 0.000000
    32 0.000000 -0.752465 0.000000 -0.445059 0.000000 0.000000
    33 0.444213 -2.561959 -0.277657 -1.727307 -0.046226 -0.024599
    34 0.021022 -1.208186 0.000001 -0.427606 0.000000 0.000000
    35 0.010597 -0.741867 -0.000001 -0.453786 0.000000 0.000000
    36 1.047445 -2.222820 -0.277657 -1.508123 -0.078971 -0.038609
    37 0.000000 -0.996224 -0.000002 -0.863938 0.000000 0.000000
    38 -0.000001 -0.614690 0.000000 -0.523599 0.000000 0.000000
    39 -0.308253 -0.007813 0.307166 -0.179973 -0.326092 -2.616278
    40 1.978376 0.019542 -0.000001 -0.084829 -0.033819 0.254889
    41 0.982425 0.003186 0.000001 0.000000 0.000000 0.326398
  time 10
    0 7.891715 4.337567 -7.522163 -0.774445 -1.328889 0.577940
    1 -0.001748 -8.563255 -0.000751 0.326603 -0.125173 -0.169614
    2 -0.219101 -3.426991 0.819250 -1.247037 1.437605 -1.233844
    3 0.000000 2.338130 0.839328 0.000000 0.000000 0.000000
    4 0.000001 -5.493101 2.360611 0.000000 0.000000 0.000000
    5 0.000001 -3.357312 1.408873 -0.029039 0.000000 0.000000
    6 0.000001 -6.122600 1.221523 0.000000 0.000000 0.000000
    7 0.000000 -2.229289 1.941594 0.000000 0.000000 0.000000
    8 -0.003479 -0.404829 0.000000 0.000000 0.000000 0.000000
    9 -0.519310 -2.501155 -0.278957 -1.003564 0.000000 -0.122173
    10 -0.010598 -1.208185 0.000000 -1.148417 0.000000 0.000000
    11 0.000000 -0.763066 0.000000 -0.841249 0.000000 0.000000
    12 0.105980 -2.607135 -0.278957 -0.795871 0.000000 -0.148353
    13 0.000000 -1.250579 0.000000 -1.296776 0.000000 0.000000
    14 0.000000 -0.932634 0.000000 -0.886645 0.000000 0.000000
    15 0.763063 -2.490556 -0.278957 -0.346932 0.039309 0.239193
    16 -0.012323 -1.280918 0.000000 -0.322892 0.000000 0.000000
    17 -0.001696 -0.749371 0.000000 -0.593412 0.000000 0.000000
    18 0.354566 0.016267 0.318133 0.834772 -0.606745 -1.212439
    19 1.887166 0.012878 0.000000 -0.305433 0.000000 -0.401426
    20 1.001874 -0.000270 0.000000 0.000000 0.000000 -0.488692
    21 -1.123360 -2.195093 -0.278957 -0.933751 0.000000 -0.087266
    22 0.010772 -0.963792 0.000000 -0.610865 0.000000 0.000000
    23 -0.010412 -0.631916 0.000000 -1.370074 0.000000 0.000000
    24 1.613818 -7.697262 -8.424381 -0.479067 0.463191 0.183652
    25 0.089930 -8.543161 -0.000001 0.158743 -0.539026 0.542461
    26 0.000000 -0.359712 0.000000 0.000000 0.000000 0.000000
    27 -0.170479 -2.636147 -0.277657 -1.692969 0.000000 0.000000
    28 0.010599 -1.261176 0.000002 -0.253073 0.000000 0.000000
    29 -0.000001 -0.943233 -0.000002 -0.532326 0.000000 0.000000
    30 -0.827563 -2.508972 -0.277657 -1.396263 0.000000 0.000000
    31 0.000000 -1.292971 0.000001 -0.445059 0.000000 0.000000
    32 0.000000 -0.752465 0.000000 -0.445059 0.000000 0.000000
    33 0.444213 -2.561959 -0.277657 -1.727307 -0.046226 -0.024599
    34 0.021022 -1.208186 0.000001 -0.427606 0.000000 0.000000
    35 0.010597 -0.741867 -0.000001 -0.453786 0.000000 0.000000
    36 1.047445 -2.222820 -0.277657 -1.508123 -0.078971 -0.038609
    37 0.000000 -0.996224 -0.000002 -0.863938 0.000000 0.000000
    38 -0.000001 -0.614690 0.000000 -0.523599 0.000000 0.000000
    39 -0.308253 -0.007813 0.307166 -0.179973 -0.326092 -2.616278
    40 1.978376 0.019542 -0.000001 -0.084829 -0.033819 0.254889
    41 0.982425 0.003186 0.000001 0.000000 0.000000 0.326398
  time 11
    0 7.805775 4.247720 -7.545601 -0.770964 -1.330447 0.571340
    1 -0.001748 -8.563255 -0.000751 0.326339 -0.125358 -0.169113
    2 -0.219101 -3.426991 0.819250 -1.247037 1.437605 -1.233844
    3 0.000000 2.338130 0.839328 0.000000 0.000000 0.000000
    4 0.000001 -5.493101 2.360611 0.000000 0.000000 0.000000
    5 0.000001 -3.357312 1.408873 -0.031364 0.000000 0.000000
    6 0.000001 -6.122600 1.221523 0.000000 0.000000 0.000000
    7 0.000000 -2.229289 1.941594 0.000000 0.000000 0.000000
    8 -0.003479 -0.404829 0.000000 0.000000 0.000000 0.000000
    9 -0.519310 -2.501155 -0.278957 -1.003564 0.000000 -0.122173
    10 -0.010598 -1.208185 0.000000 -1.148417 0.000000 0.000000
    11 0.000000 -0.763066 0.000000 -0.841249 0.000000 0.000000
    12 0.105980 -2.607135 -0.278957 -0.795871 0.000000 -0.148353
    13 0.000000 -1.250579 0.000000 -1.296776 0.000000 0.000000
    14 0.000000 -0.932634 0.000000 -0.886645 0.000000 0.000000
    15 0.763063 -2.490556 -0.278957 -0.346932 0.039309 0.239193
    16 -0.012323 -1.280918 0.000000 -0.322892 0.000000 0.000000
    17 -0.001696 -0.749371 0.000000 -0.593412 0.000000 0.000000
    18 0.354566 0.016267 0.318133 0.834772 -0.606745 -1.212439
    19 1.887166 0.012878 0.000000 -0.305433 0.000000 -0.401426
    20 1.001874 -0.000270 0.000000 0.000000 0.000000 -0.488692
    21 -1.123360 -2.195093 -0.278957 -0.933751 0.000000 -0.087266
    22 0.010772 -0.963792 0.000000 -0.610865 0.000000 0.000000
    23 -0.010412 -0.631916 0.000000 -1.370074 0.000000 0.000000
    24 1.449751 -7.810547 -8.463445 -0.480125 0.463111 0.183463
    25 0.089930 -8.543161 -0.000001 0.151270 -0.539001 0.542622
    26 0.000000 -0.359712 0.000000 0.000000 0.000000 0.000000
    27 -0.170479 -2.636147 -0.277657 -1.692969 0.000000 0.000000
    28 0.010599 -1.261176 0.000002 -0.253073 0.000000 0.000000
    29 -0.000001 -0.943233 -0.000002 -0.532326 0.000000 0.000000
    30 -0.827563 -2.508972 -0.277657 -1.396263 0.000000 0.000000
    31 0.000000 -1.292971 0.000001 -0.445059 0.000000 0.000000
    32 0.000000 -0.752465 0.000000 -0.445059 0.000000 0.000000
    33 0.444213 -2.561959 -0.277657 -1.727307 -0.046226 -0.024599
    34 0.021022 -1.208186 0.000001 -0.427606 0.000000 0.000000
    35 0.010597 -0.741867 -0.000001 -0.453786 0.000000 0.000000
    36 1.047445 -2.222820 -0.277657 -1.508123 -0.078971 -0.038609
    37 0.000000 -0.996224 -0.000002 -0.863938 0.000000 0.000000
    38 -0.000001 -0.614690 0.000000 -0.523599 0.000000 0.000000
    39 -0.308253 -0.007813 0.307166 -0.179973 -0.326092 -2.616278
    40 1.978376 0.019542 -0.000001 -0.084829 -0.033819 0.254889
    41 0.982425 0.003186 0.000001 0.000000 0.000000 0.326398
  time 12
    0 7.743273 4.181312 -7.565133 -0.769073 -1.331349 0.567278
    1 -0.001748 -8.563255 -0.000751 0.327043 -0.125469 -0.168756
    2 -0.219101 -3.426991 0.819250 -1.247037 1.437605 -1.233844
    3 0.000000 2.338130 0.839328 0.000000 0.000000 0.000000
    4 0.000001 -5.493101 2.360611 0.000000 0.000000 0.000000
    5 0.000001 -3.357312 1.408873 -0.030968 0.000000 0.000000
    6 0.000001 -6.122600 1.221523 0.000000 0.000000 0.000000
    7 0.000000 -2.229289 1.941594 0.000000 0.000000 0.000000
    8 -0.003479 -0.404829 0.000000 0.000000 0.000000 0.000000
    9 -0.519310 -2.501155 -0.278957 -1.003564 0.000000 -0.122173
    10 -0.010598 -1.208185 0.000000 -1.148417 0.000000 0.000000
    11 0.000000 -0.763066 0.000000 -0.841249 0.000000 0.000000
    12 0.105980 -2.607135 -0.278957 -0.795871 0.000000 -0.148353
    13 0.000000 -1.250579 0.000000 -1.296776 0.000000 0.000000
    14 0.000000 -0.932634 0.000000 -0.886645 0.000000 0.000000
    15 0.763063 -2.490556 -0.278957 -0.346932 0.039309 0.239193
    16 -0.012323 -1.280918 0.000000 -0.322892 0.000000 0.000000
    17 -0.001696 -0.749371 0.000000 -0.593412 0.000000 0.000000
    18 0.354566 0.016267 0.318133 0.834772 -0.606745 -1.212439
    19 1.887166 0.012878 0.000000 -0.305433 0.000000 -0.401426
    20 1.001874 -0.000270 0.000000 0.000000 0.000000 -0.488692
    21 -1.123360 -2.195093 -0.278957 -0.933751 0.000000 -0.087266
    22 0.010772 -0.963792 0.000000 -0.610865 0.000000 0.000000
    23 -0.010412 -0.631916 0.000000 -1.370074 0.000000 0.000000
    24 1.316934 -7.892581 -8.506415 -0.481638 0.463594 0.184314
    25 0.089930 -8.543161 -0.000001 0.143704 -0.538902 0.542031
    26 0.000000 -0.359712 0.000000 0.000000 0.000000 0.000000
    27 -0.170479 -2.636147 -0.277657 -1.692969 0.000000 0.000000
    28 0.010599 -1.261176 0.000002 -0.253073 0.000000 0.000000
    29 -0.000001 -0.943233 -0.000002 -0.532326 0.000000 0.000000
    30 -0.827563 -2.508972 -0.277657 -1.396263 0.000000 0.000000
    31 0.000000 -1.292971 0.000001 -0.445059 0.000000 0.000000
    32 0.000000 -0.752465 0.000000 -0.445059 0.000000 0.000000
    33 0.444213 -2.561959 -0.277657 -1.727307 -0.046226 -0.024599
    34 0.021022 -1.208186 0.000001 -0.427606 0.000000 0.000000
    35 0.010597 -0.741867 -0.000001 -0.453786 0.000000 0.000000
    36 1.047445 -2.222820 -0.277657 -1.508123 -0.078971 -0.038609
    37 0.000000 -0.996224 -0.000002 -0.863938 0.000000 0.000000
    38 -0.000001 -0.614690 0.000000 -0.523599 0.000000 0.000000
    39 -0.308253 -0.007813 0.307166 -0.179973 -0.326092 -2.616278
    40 1.978376 0.019542 -0.000001 -0.084829 -0.033819 0.254889
    41 0.982425 0.003186 0.000001 0.000000 0.000000 0.326398
  time 13
    0 7.704210 4.146155 -7.565133 -0.768921 -1.331554 0.566263
    1 -0.001748 -8.563255 -0.000751 0.328568 -0.125518 -0.168613
    2 -0.219101 -3.426991 0.819250 -1.247037 1.437605 -1.233844
    3 0.000000 2.338130 0.839328 0.000000 0.000000 0.000000
    4 0.000001 -5.493101 2.360611 0.000000 0.000000 0.000000
    5 0.000001 -3.357312 1.408873 -0.028451 0.000000 0.000000
    6 0.000001 -6.122600 1.221523 0.000000 0.000000 0.000000
    7 0.000000 -2.229289 1.941594 0.000000 0.000000 0.000000
    8 -0.003479 -0.404829 0.000000 0.000000 0.000000 0.000000
    9 -0.519310 -2.501155 -0.278957 -1.003564 0.000000 -0.122173
    10 -0.010598 -1.208185 0.000000 -1.148417 0.000000 0.000000
    11 0.000000 -0.763066 0.000000 -0.841249 0.000000 0.000000
    12 0.105980 -2.607135 -0.278957 -0.795871 0.000000 -0.148353
    13 0.000000 -1.250579 0.000000 -1.296776 0.000000 0.000000
    14 0.000000 -0.932634 0.000000 -0.886645 0.000000 0.000000
    15 0.763063 -2.490556 -0.278957 -0.346932 0.039309 0.239193
    16 -0.012323 -1.280918 0.000000 -0.322892 0.000000 0.000000
    17 -0.001696 -0.749371 0.000000 -0.593412 0.000000 0.000000
    18 0.354566 0.016267 0.318133 0.834772 -0.606745 -1.212439
    19 1.887166 0.012878 0.000000 -0.305433 0.000000 -0.401426
    20 1.001874 -0.000270 0.000000 0.000000 0.000000 -0.488692
    21 -1.123360 -2.195093 -0.278957 -0.933751 0.000000 -0.087266
    22 0.010772 -0.963792 0.000000 -0.610865 0.000000 0.000000
    23 -0.010412 -0.631916 0.000000 -1.370074 0.000000 0.000000
    24 1.234901 -7.943363 -8.541572 -0.483453 0.464398 0.186016
    25 0.089930 -8.543161 -0.000001 0.136085 -0.538728 0.540831
    26 0.000000 -0.359712 0.000000 0.000000 0.000000 0.000000
    27 -0.170479 -2.636147 -0.277657 -1.692969 0.000000 0.000000
    28 0.010599 -1.261176 0.000002 -0.253073 0.000000 0.000000
    29 -0.000001 -0.943233 -0.000002 -0.532326 0.000000 0.000000
    30 -0.827563 -2.508972 -0.277657 -1.396263 0.000000 0.000000
    31 0.000000 -1.292971 0.000001 -0.445059 0.000000 0.000000
    32 0.000000 -0.752465 0.000000 -0.445059 0.000000 0.000000
    33 0.444213 -2.561959 -0.277657 -1.727307 -0.046226 -0.024599
    34 0.021022 -1.208186 0.000001 -0.427606 0.000000 0.000000
    35 0.010597 -0.741867 -0.000001 -0.453786 0.000000 0.000000
    36 1.047445 -2.222820 -0.277657 -1.508123 -0.078971 -0.038609
    37 0.000000 -0.996224 -0.000002 -0.863938 0.000000 0.000000
    38 -0.000001 -0.614690 0.000000 -0.523599 0.000000 0.000000
    39 -0.308253 -0.007813 0.307166 -0.179973 -0.326092 -2.616278
    40 1.978376 0.019542 -0.000001 -0.084829 -0.033819 0.254889
    41 0.982425 0.003186 0.000001 0.000000 0.000000 0.326398
  time 14
    0 7.688584 4.138342 -7.553414 -0.769148 -1.331677 0.565840
    1 -0.001748 -8.563255 -0.000751 0.330767 -0.125506 -0.168649
    2 -0.219101 -3.426991 0.819250 -1.247037 1.437605 -1.233844
    3 0.000000 2.338130 0.839328 0.000000 0.000000 0.000000
    4 0.000001 -5.493101 2.360611 0.000000 0.000000 0.000000
    5 0.000001 -3.357312 1.408873 -0.024389 0.000000 0.000000
    6 0.000001 -6.122600 1.221523 0.000000 0.000000 0.000000
    7 0.000000 -2.229289 1.941594 0.000000 0.000000 0.000000
    8 -0.003479 -0.404829 0.000000 0.000000 0.000000 0.000000
    9 -0.519310 -2.501155 -0.278957 -1.003564 0.000000 -0.122173
    10 -0.010598 -1.208185 0.000000 -1.148417 0.000000 0.000000
    11 0.000000 -0.763066 0.000000 -0.841249 0.000000 0.000000
    12 0.105980 -2.607135 -0.278957 -0.795871 0.000000 -0.148353
    13 0.000000 -1.250579 0.000000 -1.296776 0.000000 0.000000
    14 0.000000 -0.932634 0.000000 -0.886645 0.000000 0.000000
    15 0.763063 -2.490556 -0.278957 -0.346932 0.039309 0.239193
    16 -0.012323 -1.280918 0.000000 -0.322892 0.000000 0.000000
    17 -0.001696 -0.749371 0.000000 -0.593412 0.000000 0.000000
    18 0.354566 0.016267 0.318133 0.834772 -0.606745 -1.212439
    19 1.887166 0.012878 0.000000 -0.305433 0.000000 -0.401426
    20 1.001874 -0.000270 0.000000 0.000000 0.000000 -0.488692
    21 -1.123360 -2.195093 -0.278957 -0.933751 0.000000 -0.087266
    22 0.010772 -0.963792 0.000000 -0.610865 0.000000 0.000000
    23 -0.010412 -0.631916 0.000000 -1.370074 0.000000 0.000000
    24 1.207556 -7.974614 -8.561104 -0.485494 0.465686 0.188192
    25 0.089930 -8.543161 -0.000001 0.128413 -0.538480 0.539237
    26 0.000000 -0.359712 0.000000 0.000000 0.000000 0.000000
    27 -0.170479 -2.636147 -0.277657 -1.692969 0.000000 0.000000
    28 0.010599 -1.261176 0.000002 -0.253073 0.000000 0.000000
    29 -0.000001 -0.943233 -0.000002 -0.532326 0.000000 0.000000
    30 -0.827563 -2.508972 -0.277657 -1.396263 0.000000 0.000000
    31 0.000000 -1.292971 0.000001 -0.445059 0.000000 0.000000
    32 0.000000 -0.752465 0.000000 -0.445059 0.000000 0.000000
    33 0.444213 -2.561959 -0.277657 -1.727307 -0.046226 -0.024599
    34 0.021022 -1.208186 0.000001 -0.427606 0.000000 0.000000
    35 0.010597 -0.741867 -0.000001 -0.453786 0.000000 0.000000
    36 1.047445 -2.222820 -0.277657 -1.508123 -0.078971 -0.038609
    37 0.000000 -0.996224 -0.000002 -0.863938 0.000000 0.000000
    38 -0.000001 -0.614690 0.000000 -0.523599 0.000000 0.000000
    39 -0.308253 -0.007813 0.307166 -0.179973 -0.326092 -2.616278
    40 1.978376 0.019542 -0.000001 -0.084829 -0.033819 0.254889
    41 0.982425 0.003186 0.000001 0.000000 0.000000 0.326398
  time 15
    0 7.696397 4.157874 -7.529976 -0.769754 -1.331718 0.565755
    1 -0.001748 -8.563255 -0.000751 0.333406 -0.125469 -0.168792
    2 -0.219101 -3.426991 0.819250 -1.247037 1.437605 -1.233844
    3 0.000000 2.338130 0.839328 0.000000 0.000000 0.000000
    4 0.000001 -5.493101 2.360611 0.000000 0.000000 0.000000
    5 0.000001 -3.357312 1.408873 -0.019343 0.000000 0.000000
    6 0.000001 -6.122600 1.221523 0.000000 0.000000 0.000000
    7 0.000000 -2.229289 1.941594 0.000000 0.000000 0.000000
    8 -0.003479 -0.404829 0.000000 0.000000 0.000000 0.000000
    9 -0.519310 -2.501155 -0.278957 -1.003564 0.000000 -0.122173
    10 -0.010598 -1.208185 0.000000 -1.148417 0.000000 0.000000
    11 0.000000 -0.763066 0.000000 -0.841249 0.000000 0.000000
    12 0.105980 -2.607135 -0.278957 -0.795871 0.000000 -0.148353
    13 0.000000 -1.250579 0.000000 -1.296776 0.000000 0.000000
    14 0.000000 -0.932634 0.000000 -0.886645 0.000000 0.000000
    15 0.763063 -2.490556 -0.278957 -0.346932 0.039309 0.239193
    16 -0.012323 -1.280918 0.000000 -0.322892 0.000000 0.000000
    17 -0.001696 -0.749371 0.000000 -0.593412 0.000000 0.000000
    18 0.354566 0.016267 0.318133 0.834772 -0.606745 -1.212439
    19 1.887166 0.012878 0.000000 -0.305433 0.000000 -0.401426
    20 1.001874 -0.000270 0.000000 0.000000 0.000000 -0.488692
    21 -1.123360 -2.195093 -0.278957 -0.933751 0.000000 -0.087266
    22 0.010772 -0.963792 0.000000 -0.610865 0.000000 0.000000
    23 -0.010412 -0.631916 0.000000 -1.370074 0.000000 0.000000
    24 1.230994 -7.978521 -8.568917 -0.487687 0.467054 0.190745
    25 0.089930 -8.543161 -0.000001 0.120688 -0.538256 0.537410
    26 0.000000 -0.359712 0.000000 0.000000 0.000000 0.000000
    27 -0.170479 -2.636147 -0.277657 -1.692969 0.000000 0.000000
    28 0.010599 -1.261176 0.000002 -0.253073 0.000000 0.000000
    29 -0.000001 -0.943233 -0.000002 -0.532326 0.000000 0.000000
    30 -0.827563 -2.508972 -0.277657 -1.396263 0.000000 0.000000
    31 0.000000 -1.292971 0.000001 -0.445059 0.000000 0.000000
    32 0.000000 -0.752465 0.000000 -0.445059 0.000000 0.000000
    33 0.444213 -2.561959 -0.277657 -1.727307 -0.046226 -0.024599
    34 0.021022 -1.208186 0.000001 -0.427606 0.000000 0.000000
    35 0.010597 -0.741867 -0.000001 -0.453786 0.000000 0.000000
    36 1.047445 -2.222820 -0.277657 -1.508123 -0.078971 -0.038609
    37 0.000000 -0.996224 -0.000002 -0.863938 0.000000 0.000000
    38 -0.000001 -0.614690 0.000000 -0.523599 0.000000 0.000000
    39 -0.308253 -0.007813 0.307166 -0.179973 -0.326092 -2.616278
    40 1.978376 0.019542 -0.000001 -0.084829 -0.033819 0.254889
    41 0.982425 0.003186 0.000001 0.000000 0.000000 0.326398
  time 16
    0 7.731554 4.204750 -7.490912 -0.770662 -1.331636 0.565924
    1 -0.001748 -8.563255 -0.000751 0.336338 -0.125395 -0.169006
    2 -0.219101 -3.426991 0.819250 -1.247037 1.437605 -1.233844
    3 0.000000 2.338130 0.839328 0.000000 0.000000 0.000000
    4 0.000001 -5.493101 2.360611 0.000000 0.000000 0.000000
    5 0.000001 -3.357312 1.408873 -0.013926 0.000000 0.000000
    6 0.000001 -6.122600 1.221523 0.000000 0.000000 0.000000
    7 0.000000 -2.229289 1.941594 0.000000 0.000000 0.000000
    8 -0.003479 -0.404829 0.000000 0.000000 0.000000 0.000000
    9 -0.519310 -2.501155 -0.278957 -1.003564 0.000000 -0.122173
    10 -0.010598 -1.208185 0.000000 -1.148417 0.000000 0.000000
    11 0.000000 -0.763066 0.000000 -0.841249 0.000000 0.000000
    12 0.105980 -2.607135 -0.278957 -0.795871 0.000000 -0.148353
    13 0.000000 -1.250579 0.000000 -1.296776 0.000000 0.000000
    14 0.000000 -0.932634 0.000000 -0.886645 0.000000 0.000000
    15 0.763063 -2.490556 -0.278957 -0.346932 0.039309 0.239193
    16 -0.012323 -1.280918 0.000000 -0.322892 0.000000 0.000000
    17 -0.001696 -0.749371 0.000000 -0.593412 0.000000 0.000000
    18 0.354566 0.016267 0.318133 0.834772 -0.606745 -1.212439
    19 1.887166 0.012878 0.000000 -0.305433 0.000000 -0.401426
    20 1.001874 -0.000270 0.000000 0.000000 0.000000 -0.488692
    21 -1.123360 -2.195093 -0.278957 -0.933751 0.000000 -0.087266
    22 0.010772 -0.963792 0.000000 -0.610865 0.000000 0.000000
    23 -0.010412 -0.631916 0.000000 -1.370074 0.000000 0.000000
    24 1.277871 -7.943363 -8.553291 -0.489880 0.468422 0.193488
    25 0.089930 -8.543161 -0.000001 0.112976 -0.538008 0.535547
    26 0.000000 -0.359712 0.000000 0.000000 0.000000 0.000000
    27 -0.170479 -2.636147 -0.277657 -1.692969 0.000000 0.000000
    28 0.010599 -1.261176 0.000002 -0.253073 0.000000 0.000000
    29 -0.000001 -0.943233 -0.000002 -0.532326 0.000000 0.000000
    30 -0.827563 -2.508972 -0.277657 -1.396263 0.000000 0.000000
    31 0.000000 -1.292971 0.000001 -0.445059 0.000000 0.000000
    32 0.000000 -0.752465 0.000000 -0.445059 0.000000 0.000000
    33 0.444213 -2.561959 -0.277657 -1.727307 -0.046226 -0.024599
    34 0.021022 -1.208186 0.000001 -0.427606 0.000000 0.000000
    35 0.010597 -0.741867 -0.000001 -0.453786 0.000000 0.000000
    36 1.047445 -2.222820 -0.277657 -1.508123 -0.078971 -0.038609
    37 0.000000 -0.996224 -0.000002 -0.863938 0.000000 0.000000
    38 -0.000001 -0.614690 0.000000 -0.523599 0.000000 0.000000
    39 -0.308253 -0.007813 0.307166 -0.179973 -0.326092 -2.616278
    40 1.978376 0.019542 -0.000001 -0.084829 -0.033819 0.254889
    41 0.982425 0.003186 0.000001 0.000000 0.000000 0.326398
  time 17
    0 7.786243 4.278971 -7.436223 -0.771645 -1.331554 0.566347
    1 -0.001748 -8.563255 -0.000751 0.339416 -0.125321 -0.169221
    2 -0.219101 -3.426991 0.819250 -1.247037 1.437605 -1.233844
    3 0.000000 2.338130 0.839328 0.000000 0.000000 0.000000
    4 0.000001 -5.493101 2.360611 0.000000 0.000000 0.000000
    5 0.000001 -3.357312 1.408873 -0.008713 0.000000 0.000000
    6 0.000001 -6.122600 1.221523 0.000000 0.000000 0.000000
    7 0.000000 -2.229289 1.941594 0.000000 0.000000 0.000000
    8 -0.003479 -0.404829 0.000000 0.000000 0.000000 0.000000
    9 -0.519310 -2.501155 -0.278957 -1.003564 0.000000 -0.122173
    10 -0.010598 -1.208185 0.000000 -1.148417 0.000000 0.000000
    11 0.000000 -0.763066 0.000000 -0.841249 0.000000 0.000000
    12 0.105980 -2.607135 -0.278957 -0.795871 0.000000 -0.148353
    13 0.000000 -1.250579 0.000000 -1.296776 0.000000 0.000000
    14 0.000000 -0.932634 0.000000 -0.886645 0.000000 0.000000
    15 0.763063 -2.490556 -0.278957 -0.346932 0.039309 0.239193
    16 -0.012323 -1.280918 0.000000 -0.322892 0.000000 0.000000
    17 -0.001696 -0.749371 0.000000 -0.593412 0.000000 0.000000
    18 0.354566 0.016267 0.318133 0.834772 -0.606745 -1.212439
    19 1.887166 0.012878 0.000000 -0.305433 0.000000 -0.401426
    20 1.001874 -0.000270 0.000000 0.000000 0.000000 -0.488692
    21 -1.123360 -2.195093 -0.278957 -0.933751 0.000000 -0.087266
    22 0.010772 -0.963792 0.000000 -0.610865 0.000000 0.000000
    23 -0.010412 -0.631916 0.000000 -1.370074 0.000000 0.000000
    24 1.340373 -7.869142 -8.522040 -0.492073 0.469710 0.195947
    25 0.089930 -8.543161 -0.000001 0.105278 -0.537809 0.533774
    26 0.000000 -0.359712 0.000000 0.000000 0.000000 0.000000
    27 -0.170479 -2.636147 -0.277657 -1.692969 0.000000 0.000000
    28 0.010599 -1.261176 0.000002 -0.253073 0.000000 0.000000
    29 -0.000001 -0.943233 -0.000002 -0.532326 0.000000 0.000000
    30 -0.827563 -2.508972 -0.277657 -1.396263 0.000000 0.000000
    31 0.000000 -1.292971 0.000001 -0.445059 0.000000 0.000000
    32 0.000000 -0.752465 0.000000 -0.445059 0.000000 0.000000
    33 0.444213 -2.561959 -0.277657 -1.727307 -0.046226 -0.024599
    34 0.021022 -1.208186 0.000001 -0.427606 0.000000 0.000000
    35 0.010597 -0.741867 -0.000001 -0.453786 0.000000 0.000000
    36 1.047445 -2.222820 -0.277657 -1.508123 -0.078971 -0.038609
    37 0.000000 -0.996224 -0.000002 -0.863938 0.000000 0.000000
    38 -0.000001 -0.614690 0.000000 -0.523599 0.000000 0.000000
    39 -0.308253 -0.007813 0.307166 -0.179973 -0.326092 -2.616278
    40 1.978376 0.019542 -0.000001 -0.084829 -0.033819 0.254889
    41 0.982425 0.003186 0.000001 0.000000 0.000000 0.326398
  time 18
    0 7.868277 4.380537 -7.365908 -0.772629 -1.331431 0.566771
    1 -0.001748 -8.563255 -0.000751 0.342407 -0.125235 -0.169399
    2 -0.219101 -3.426991 0.819250 -1.247037 1.437605 -1.233844
    3 0.000000 2.338130 0.839328 0.000000 0.000000 0.000000
    4 0.000001 -5.493101 2.360611 0.000000 0.000000 0.000000
    5 0.000001 -3.357312 1.408873 -0.004255 0.000000 0.000000
    6 0.000001 -6.122600 1.221523 0.000000 0.000000 0.000000
    7 0.000000 -2.229289 1.941594 0.000000 0.000000 0.000000
    8 -0.003479 -0.404829 0.000000 0.000000 0.000000 0.000000
    9 -0.519310 -2.501155 -0.278957 -1.003564 0.000000 -0.122173
    10 -0.010598 -1.208185 0.000000 -1.148417 0.000000 0.000000
    11 0.000000 -0.763066 0.000000 -0.841249 0.000000 0.000000
    12 0.105980 -2.607135 -0.278957 -0.795871 0.000000 -0.148353
    13 0.000000 -1.250579 0.000000 -1.296776 0.000000 0.000000
    14 0.000000 -0.932634 0.000000 -0.886645 0.000000 0.000000
    15 0.763063 -2.490556 -0.278957 -0.346932 0.039309 0.239193
    16 -0.012323 -1.280918 0.000000 -0.322892 0.000000 0.000000
    17 -0.001696 -0.749371 0.000000 -0.593412 0.000000 0.000000
    18 0.354566 0.016267 0.318133 0.834772 -0.606745 -1.212439
    19 1.887166 0.012878 0.000000 -0.305433 0.000000 -0.401426
    20 1.001874 -0.000270 0.000000 0.000000 0.000000 -0.488692
    21 -1.123360 -2.195093 -0.278957 -0.933751 0.000000 -0.087266
    22 0.010772 -0.963792 0.000000 -0.610865 0.000000 0.000000
    23 -0.010412 -0.631916 0.000000 -1.370074 0.000000 0.000000
    24 1.434125 -7.755858 -8.467351 -0.494115 0.470836 0.198027
    25 0.089930 -8.543161 -0.000001 0.097606 -0.537635 0.532287
    26 0.000000 -0.359712 0.000000 0.000000 0.000000 0.000000
    27 -0.170479 -2.636147 -0.277657 -1.692969 0.000000 0.000000
    28 0.010599 -1.261176 0.000002 -0.253073 0.000000 0.000000
    29 -0.000001 -0.943233 -0.000002 -0.532326 0.000000 0.000000
    30 -0.827563 -2.508972 -0.277657 -1.396263 0.000000 0.000000
    31 0.000000 -1.292971 0.000001 -0.445059 0.000000 0.000000
    32 0.000000 -0.752465 0.000000 -0.445059 0.000000 0.000000
    33 0.444213 -2.561959 -0.277657 -1.727307 -0.046226 -0.024599
    34 0.021022 -1.208186 0.000001 -0.427606 0.000000 0.000000
    35 0.010597 -0.741867 -0.000001 -0.453786 0.000000 0.000000
    36 1.047445 -2.222820 -0.277657 -1.508123 -0.078971 -0.038609
    37 0.000000 -0.996224 -0.000002 -0.863938 0.000000 0.000000
    38 -0.000001 -0.614690 0.000000 -0.523599 0.000000 0.000000
    39 -0.308253 -0.007813 0.307166 -0.179973 -0.326092 -2.616278
    40 1.978376 0.019542 -0.000001 -0.084829 -0.033819 0.254889
    41 0.982425 0.003186 0.000001 0.000000 0.000000 0.326398
  time 19
    0 7.973749 4.509447 -7.287781 -0.773537 -1.331349 0.567109
    1 -0.001748 -8.563255 -0.000751 0.345163 -0.125198 -0.169542
    2 -0.219101 -3.426991 0.819250 -1.247037 1.437605 -1.233844
    3 0.000000 2.338130 0.839328 0.000000 0.000000 0.000000
    4 0.000001 -5.493101 2.360611 0.000000 0.000000 0.000000
    5 0.000001 -3.357312 1.408873 -0.001151 0.000000 0.000000
    6 0.000001 -6.122600 1.221523 0.000000 0.000000 0.000000
    7 0.000000 -2.229289 1.941594 0.000000 0.000000 0.000000
    8 -0.003479 -0.404829 0.000000 0.000000 0.000000 0.000000
    9 -0.519310 -2.501155 -0.278957 -1.003564 0.000000 -0.122173
    10 -0.010598 -1.208185 0.000000 -1.148417 0.000000 0.000000
    11 0.000000 -0.763066 0.000000 -0.841249 0.000000 0.000000
    12 0.105980 -2.607135 -0.278957 -0.795871 0.000000 -0.148353
    13 0.000000 -1.250579 0.000000 -1.296776 0.000000 0.000000
    14 0.000000 -0.932634 0.000000 -0.886645 0.000000 0.000000
    15 0.763063 -2.490556 -0.278957 -0.346932 0.039309 0.239193
    16 -0.012323 -1.280918 0.000000 -0.322892 0.000000 0.000000
    17 -0.001696 -0.749371 0.000000 -0.593412 0.000000 0.000000
    18 0.354566 0.016267 0.318133 0.834772 -0.606745 -1.212439
    19 1.887166 0.012878 0.000000 -0.305433 0.000000 -0.401426
    20 1.001874 -0.000270 0.000000 0.000000 0.000000 -0.488692
    21 -1.123360 -2.195093 -0.278957 -0.933751 0.000000 -0.087266
    22 0.010772 -0.963792 0.000000 -0.610865 0.000000 0.000000
    23 -0.010412 -0.631916 0.000000 -1.370074 0.000000 0.000000
    24 1.547410 -7.607416 -8.397036 -0.495779 0.471641 0.199446
    25 0.089930 -8.543161 -0.000001 0.090013 -0.537511 0.531248
    26 0.000000 -0.359712 0.000000 0.000000 0.000000 0.000000
    27 -0.170479 -2.636147 -0.277657 -1.692969 0.000000 0.000000
    28 0.010599 -1.261176 0.000002 -0.253073 0.000000 0.000000
    29 -0.000001 -0.943233 -0.000002 -0.532326 0.000000 0.000000
    30 -0.827563 -2.508972 -0.277657 -1.396263 0.000000 0.000000
    31 0.000000 -1.292971 0.000001 -0.445059 0.000000 0.000000
    32 0.000000 -0.752465 0.000000 -0.445059 0.000000 0.000000
    33 0.444213 -2.561959 -0.277657 -1.727307 -0.046226 -0.024599
    34 0.021022 -1.208186 0.000001 -0.427606 0.000000 0.000000
    35 0.010597 -0.741867 -0.000001 -0.453786 0.000000 0.000000
    36 1.047445 -2.222820 -0.277657 -1.508123 -0.078971 -0.038609
    37 0.000000 -0.996224 -0.000002 -0.863938 0.000000 0.000000
    38 -0.000001 -0.614690 0.000000 -0.523599 0.000000 0.000000
    39 -0.308253 -0.007813 0.307166 -0.179973 -0.326092 -2.616278
    40 1.978376 0.019542 -0.000001 -0.084829 -0.033819 0.254889
    41 0.982425 0.003186 0.000001 0.000000 0.000000 0.326398
  time 20
    0 8.106566 4.665702 -7.194028 -0.774218 -1.331349 0.567278
    1 -0.001748 -8.563255 -0.000751 0.347509 -0.125173 -0.169614
    2 -0.219101 -3.426991 0.819250 -1.247037 1.437605 -1.233844
    3 0.000000 2.338130 0.839328 0.000000 0.000000 0.000000
    4 0.000001 -5.493101 2.360611 0.000000 0.000000 0.000000
    5 0.000001 -3.357312 1.408873 0.000000 0.000000 0.000000
    6 0.000001 -6.122600 1.221523 0.000000 0.000000 0.000000
    7 0.000000 -2.229289 1.941594 0.000000 0.000000 0.000000
    8 -0.003479 -0.404829 0.000000 0.000000 0.000000 0.000000
    9 -0.519310 -2.501155 -0.278957 -1.003564 0.000000 -0.122173
    10 -0.010598 -1.208185 0.000000 -1.148417 0.000000 0.000000
    11 0.000000 -0.763066 0.000000 -0.841249 0.000000 0.000000
    12 0.105980 -2.607135 -0.278957 -0.795871 0.000000 -0.148353
    13 0.000000 -1.250579 0.000000 -1.296776 0.000000 0.000000
    14 0.000000 -0.932634 0.000000 -0.886645 0.000000 0.000000
    15 0.763063 -2.490556 -0.278957 -0.346932 0.039309 0.239193
    16 -0.012323 -1.280918 0.000000 -0.322892 0.000000 0.000000
    17 -0.001696 -0.749371 0.000000 -0.593412 0.000000 0.000000
    18 0.354566 0.016267 0.318133 0.834772 -0.606745 -1.212439
    19 1.887166 0.012878 0.000000 -0.305433 0.000000 -0.401426
    20 1.001874 -0.000270 0.000000 0.000000 0.000000 -0.488692
    21 -1.123360 -2.195093 -0.278957 -0.933751 0.000000 -0.087266
    22 0.010772 -0.963792 0.000000 -0.610865 0.000000 0.000000
    23 -0.010412 -0.631916 0.000000 -1.370074 0.000000 0.000000
    24 1.688039 -7.423816 -8.307190 -0.497140 0.471883 0.200013
    25 0.089930 -8.543161 -0.000001 0.082474 -0.537511 0.530890
    26 0.000000 -0.359712 0.000000 0.000000 0.000000 0.000000
    27 -0.170479 -2.636147 -0.277657 -1.692969 0.000000 0.000000
    28 0.010599 -1.261176 0.000002 -0.253073 0.000000 0.000000
    29 -0.000001 -0.943233 -0.000002 -0.532326 0.000000 0.000000
    30 -0.827563 -2.508972 -0.277657 -1.396263 0.000000 0.000000
    31 0.000000 -1.292971 0.000001 -0.445059 0.000000 0.000000
    32 0.000000 -0.752465 0.000000 -0.445059 0.000000 0.000000
    33 0.444213 -2.561959 -0.277657 -1.727307 -0.046226 -0.024599
    34 0.021022 -1.208186 0.000001 -0.427606 0.000000 0.000000
    35 0.010597 -0.741867 -0.000001 -0.453786 0.000000 0.000000
    36 1.047445 -2.222820 -0.277657 -1.508123 -0.078971 -0.038609
    37 0.000000 -0.996224 -0.000002 -0.863938 0.000000 0.000000
    38 -0.000001 -0.614690 0.000000 -0.523599 0.000000 0.000000
    39 -0.308253 -0.007813 0.307166 -0.179973 -0.326092 -2.616278
    40 1.978376 0.019542 -0.000001 -0.084829 -0.033819 0.254889
    41 0.982425 0.003186 0.000001 0.000000 0.000000 0.326398
end
