version 1
nodes
  0 "Bip01" -1
  1 "Bip01 Pelvis" 0
  2 "Bip01 Spine" 1
  3 "Bip01 Spine1" 2
  4 "Bip01 Spine2" 3
  5 "Bip01 Spine3" 4
  6 "Bip01 Neck" 5
  7 "Bip01 Head" 6
  8 "Bip01 L Clavicle" 6
  9 "Bip01 L UpperArm" 8
  10 "Bip01 L Forearm" 9
  11 "Bip01 L Hand" 10
  12 "Bip01 L Finger0" 11
  13 "Bip01 L Finger01" 12
  14 "Bip01 L Finger1" 11
  15 "Bip01 L Finger11" 14
  16 "lflash" 11
  17 "gunslinger_p00" 16
  18 "Plane002" 16
  19 "Bip01 R Clavicle" 6
  20 "Bip01 R UpperArm" 19
  21 "Bip01 R Forearm" 20
  22 "Bip01 R Hand" 21
  23 "Bip01 R Finger0" 22
  24 "Bip01 R Finger01" 23
  25 "Bip01 R Finger1" 22
  26 "Bip01 R Finger11" 25
  27 "rflash" 22
  28 "gunslinger_p" 27
  29 "Plane003" 27
  30 "Bip01 L Thigh" 1
  31 "Bip01 L Calf" 30
  32 "Bip01 L Foot" 31
  33 "Bip01 L Toe0" 32
  34 "Bip01 R Thigh" 31
  35 "Bip01 R Calf" 34
  36 "Bip01 R Foot" 35
  37 "Bip01 R Toe0" 36
end
skeleton
  time 0
    0 0.001961 3.074313 -3.268696 -0.024495 -0.296862 -1.846147
    1 -2.276896 0.000003 -1.238186 -1.570795 -1.570796 0.000000
    2 1.797775 0.711858 0.000057 -0.017789 0.000738 0.195348
    3 4.119244 -0.003217 0.000058 -0.017784 0.000738 0.194626
    4 4.119232 -0.003217 0.000058 -0.017784 0.000738 0.194628
    5 4.119236 -0.003218 0.000058 -0.017784 0.000738 0.194603
    6 4.119686 -0.003366 -0.000021 0.005760 -0.065509 0.312238
    7 4.443600 0.000000 0.000000 0.219105 -0.171775 -0.144717
    8 0.113434 0.013493 1.728975 -0.716466 -1.430391 -2.749616
    9 5.849109 0.000000 0.000000 -0.307729 -0.487664 -1.360596
    10 9.697663 0.000000 -0.000004 0.000000 0.000000 -0.039620
    11 10.762129 0.000001 0.000004 -1.572372 0.008375 0.001413
    12 0.867323 -0.222958 -0.645012 1.880709 0.522696 0.904654
    13 2.270588 -0.000002 0.000004 0.000000 0.000000 0.307301
    14 3.240425 -0.290821 -0.028107 -0.000597 0.000527 0.723045
    15 2.011148 0.000000 -0.000001 0.000000 0.000000 1.745329
    16 14.442871 0.913799 -4.104937 0.000001 0.000000 0.000000
    17 -11.669996 0.000000 6.586209 0.000000 0.000000 -1.570796
    18 15.510132 -0.000004 0.000009 0.000000 0.000000 -1.570796
    19 -0.113422 -0.006416 -1.728975 0.567883 1.302030 -2.895411
    20 5.849108 0.000002 -0.000004 0.800242 0.203459 -1.804707
    21 9.697662 0.000004 0.000000 0.000000 0.000000 -0.366957
    22 10.762133 -0.000004 0.000000 1.545025 -0.096928 0.040259
    23 0.867320 -0.222958 0.645016 -1.880709 -0.522696 0.904654
    24 2.270591 -0.000004 -0.000004 0.000000 0.000000 0.307301
    25 3.240422 -0.290825 0.028111 0.000597 -0.000527 0.723045
    26 2.011154 0.000000 -0.000004 0.000000 0.000000 1.745329
    27 14.688067 1.140224 3.090294 0.000001 0.000000 0.000000
    28 -11.427858 -0.000004 -5.355434 0.000000 0.000001 1.570797
    29 16.527199 0.000011 -0.000008 0.000000 0.000000 -1.570796
    30 -0.000006 0.000007 3.619081 -2.621011 -0.149445 1.520684
    31 16.573921 0.000002 0.000000 0.000000 0.000000 -1.764397
    32 15.128182 0.000001 0.000000 0.040688 -0.415392 -0.178546
    33 5.758665 4.244732 -0.000001 0.000000 0.000000 1.570796
    34 -0.097061 -18.003553 6.212975 -0.408115 -0.940203 0.460946
    35 16.573921 -0.000001 -0.000001 0.000000 0.000000 -2.578645
    36 15.128182 0.000000 0.000002 -0.527769 0.427117 0.576642
    37 5.758665 4.244732 -0.000001 0.000000 0.000000 1.570796
end
