version 1
nodes
  0 "blackhole_root" -1
  1 "triger" 0
  2 "bone_up" 0
  3 "bone_up001" 2
  4 "bone_up002" 2
  5 "blackhole_up02" 2
  6 "bone_up003" 2
  7 "bone_up004" 2
  8 "bone_up005" 2
  9 "bone_sideR" 0
  10 "bone_sideR001" 9
  11 "bone_sideR002" 10
  12 "bone_sideR003" 11
  13 "bone_sideR004" 12
  14 "bone_sideL" 0
  15 "bone_sideL001" 14
  16 "bone_sideL002" 15
  17 "bone_sideL003" 16
  18 "bone_sideL004" 17
  19 "bullet10" -1
  20 "bullet09" -1
  21 "bullet08" -1
  22 "bullet07" -1
  23 "bullet06" -1
  24 "bullet05" -1
  25 "bullet04" -1
  26 "bullet03" -1
  27 "bullet02" -1
  28 "bullet01" -1
  29 "blackhole_ef_root" 2
  30 "blackhole_point" 29
  31 "blackhole_ring" 2
  32 "blackhole_bone021" 31
  33 "blackhole_bone022" 31
  34 "blackhole_bone023" 31
  35 "blackhole_bone024" 31
  36 "blackhole_light_point001" 0
  37 "epic_light_bone001" 36
  38 "epic_light_bone002" 36
  39 "epic_light_bone003" 36
  40 "epic_light_bone004" 36
  41 "blackhole_light_point002" 0
  42 "epic_light_bone009" 41
  43 "epic_light_bone010" 41
  44 "epic_light_bone011" 41
  45 "epic_light_bone012" 41
  46 "epic_light_bone013" -1
  47 "epic_light_bone014" -1
  48 "epic_light_bone015" -1
  49 "epic_light_bone016" -1
  50 "blackhole_bone005" -1
  51 "blackhole_bone006" -1
  52 "blackhole_bone007" -1
  53 "blackhole_bone008" -1
  54 "blackhole_bone009" -1
  55 "blackhole_bone010" -1
  56 "blackhole_bone011" -1
  57 "blackhole_bone012" -1
  58 "blackhole_bone001" -1
  59 "blackhole_bone002" -1
  60 "blackhole_bone003" -1
  61 "blackhole_bone004" -1
  62 "blackhole_bone013" -1
  63 "blackhole_bone014" -1
  64 "blackhole_bone015" -1
  65 "blackhole_bone016" -1
  66 "root" -1
  67 "Bone01" 66
  68 "Bone_Lefthand" 67
  69 "Bone_L_Upper" 67
  70 "Bone13" 68
  71 "Bone14" 70
  72 "Bone15" 71
  73 "Bone17" 68
  74 "Bone18" 73
  75 "Bone19" 74
  76 "Bone21" 68
  77 "Bone22" 76
  78 "Bone23" 77
  79 "Bone09" 68
  80 "Bone10" 79
  81 "Bone11" 80
  82 "Bone05" 68
  83 "Bone06" 82
  84 "Bone07" 83
  85 "Bone_Se_Hand-L" 68
  86 "Bone04" 66
  87 "Bone_Righthand" 86
  88 "Bone39" 87
  89 "Bone40" 88
  90 "Bone41" 89
  91 "Bone35" 87
  92 "Bone36" 91
  93 "Bone37" 92
  94 "Bone31" 87
  95 "Bone32" 94
  96 "Bone33" 95
  97 "Bone43" 87
  98 "Bone44" 97
  99 "Bone45" 98
  100 "Bone27" 87
  101 "Bone28" 100
  102 "Bone29" 101
  103 "Bone_Se_Hand-R" 87
  104 "Bone_R_Upper" 86
end
skeleton
  time 0
    0 4.126845 -8.745754 -4.663397 -0.000001 0.000000 0.000000
    1 0.000000 0.000000 0.000000 -0.000001 0.000000 0.000000
    2 -0.002492 -0.142656 2.350765 0.000000 -0.000001 -1.570796
    3 3.648263 -0.591012 1.154949 0.000000 0.000000 0.000000
    4 3.648263 0.586283 1.154949 0.000000 0.000000 0.000000
    5 1.638022 0.000147 0.712517 -0.754163 -0.927911 3.141592
    6 4.372977 0.004415 1.090625 0.000000 -2.454739 0.000000
    7 6.174504 0.004415 1.090623 0.000000 -2.454739 0.000000
    8 7.727387 0.004416 1.090620 0.000000 -2.454739 0.000000
    9 -0.673043 -2.146850 1.946830 0.000000 -0.000001 -1.570796
    10 1.752687 -0.302546 -0.187691 0.000000 0.000000 -0.261799
    11 2.180661 0.017721 -0.000003 0.000000 0.000000 0.181871
    12 2.344187 0.424479 -0.000003 0.000000 0.000000 0.683907
    13 1.295493 0.069205 -0.000001 0.000000 0.000000 0.203881
    14 0.664876 -2.146850 1.946829 0.000000 -0.000001 -1.570796
    15 1.750699 0.314426 -0.000002 0.000001 0.000001 0.349066
    16 2.187375 -0.186664 0.000000 0.000000 0.000000 -0.261799
    17 2.370612 -0.473120 0.000000 0.000000 0.000000 -0.650928
    18 1.352086 -0.060991 0.000000 0.000000 0.000000 -0.464585
    19 2.806042 -13.862007 -3.833325 -0.000003 0.000000 0.312869
    20 1.978666 -14.997706 -3.833321 -0.000003 0.000001 0.941187
    21 1.976869 -16.387247 -3.833313 -0.000002 0.000002 1.569505
    22 2.804875 -17.530001 -3.833306 0.000000 0.000002 2.197823
    23 4.134062 -17.963785 -3.833300 0.000001 0.000002 2.826142
    24 5.458872 -17.535221 -3.833297 0.000002 0.000001 -2.828725
    25 6.286481 -16.399204 -3.833295 0.000003 -0.000001 -2.200407
    26 6.288280 -15.006500 -3.833295 0.000002 -0.000002 -1.572088
    27 5.454827 -13.856229 -3.833296 0.000000 -0.000002 -0.943769
    28 4.124171 -13.421969 -3.833298 -0.000001 -0.000002 -0.315451
    29 62.659779 -0.000038 -0.000030 0.000000 -0.031816 -3.084804
    30 62.659782 -0.000041 -0.000031 0.000000 0.000000 0.000000
    31 -5.601693 0.000114 -17.397480 -0.754163 -0.927911 3.141592
    32 0.000002 -0.000001 0.000000 -1.570798 -0.000001 0.000000
    33 0.000004 -0.000001 0.000001 -1.570798 -0.000001 0.000000
    34 0.000002 -0.000002 0.000000 -1.570798 -0.000001 0.000000
    35 0.000004 0.000000 0.000000 -1.570798 -0.000001 0.000000
    36 0.005538 53.554955 2.472684 0.000000 0.000000 0.000000
    37 0.000000 0.000000 0.000000 0.000000 0.000000 0.000000
    38 0.000000 0.000000 0.000000 0.000000 0.000000 0.000000
    39 0.000000 0.000000 0.000000 0.000000 0.000000 0.000000
    40 0.000000 0.000000 0.000000 0.000000 0.000000 0.000000
    41 0.005538 53.554955 2.472684 0.000000 0.000000 0.000000
    42 0.000000 0.000000 0.000000 0.000000 0.000000 0.000000
    43 0.000000 0.000000 0.000000 0.000000 0.000000 0.000000
    44 0.000000 0.000000 0.000000 0.000000 0.000000 0.000000
    45 0.000000 0.000000 0.000000 0.000000 0.000000 0.000000
    46 4.132409 44.809200 -2.190780 0.000000 0.000000 0.000000
    47 4.132409 44.809200 -2.190780 0.000000 0.000000 0.000000
    48 4.132409 44.809200 -2.190780 0.000000 0.000000 0.000000
    49 4.132409 44.809200 -2.190780 0.000000 0.000000 0.000000
    50 -5.073610 51.823044 1.621407 -1.539110 0.002855 -0.033000
    51 -5.073610 51.823044 1.621407 -1.539110 0.002855 -0.033000
    52 -5.073610 51.823044 1.621407 -1.539110 0.002855 -0.033000
    53 -5.073610 51.823044 1.621407 -1.539110 0.002855 -0.033000
    54 -5.073610 51.823044 1.621407 -1.539110 0.002855 -0.033000
    55 -5.073610 51.823044 1.621407 -1.539110 0.002855 -0.033000
    56 -5.073610 51.823044 1.621407 -1.539110 0.002855 -0.033000
    57 -5.073610 51.823044 1.621407 -1.539110 0.002855 -0.033000
    58 -5.073610 51.823048 1.621407 -1.539110 0.002855 -0.033000
    59 -5.073610 51.823044 1.621407 -1.539110 0.002855 -0.033000
    60 -5.073610 51.823051 1.621407 -1.539110 0.002855 -0.033000
    61 -5.073609 51.823040 1.621406 -1.539110 0.002855 -0.033000
    62 -5.073610 51.823048 1.621407 -1.539110 0.002855 -0.033000
    63 -5.073610 51.823048 1.621407 -1.539110 0.002855 -0.033000
    64 -5.073610 51.823048 1.621407 -1.539110 0.002855 -0.033000
    65 -5.073610 51.823044 1.621407 -1.539110 0.002855 -0.033000
    66 0.000000 1.629157 0.541027 0.000000 0.000000 0.000000
    67 9.310103 0.168160 -0.149879 3.138909 -0.000224 -1.566807
    68 -0.071918 -8.498730 -0.104137 -0.025046 0.287591 0.014898
    69 1.257180 8.762585 -0.153713 -1.570562 0.002683 -1.566807
    70 -0.488518 -2.755602 -0.228260 0.106454 0.010332 -0.264490
    71 0.039887 -1.479790 0.029854 -0.055395 0.000000 0.000001
    72 0.028786 -1.075731 -0.023109 0.002099 0.000000 0.000000
    73 0.250027 -2.820665 -0.238396 0.041826 -0.002921 0.008443
    74 -0.049759 -1.680544 0.100479 0.019826 0.000000 -0.000002
    75 -0.034142 -1.148312 0.084782 -0.040115 0.000000 0.000000
    76 0.957766 -2.746780 -0.090302 -0.017221 -0.162277 0.191558
    77 -0.033420 -1.397129 -0.011257 0.013931 0.000000 -0.000001
    78 -0.022360 -0.957436 0.018784 0.003845 0.000000 0.000000
    79 -1.180681 -2.507217 -0.193859 0.082999 0.013294 -0.477915
    80 -0.024967 -1.123934 0.017597 -0.018065 0.000000 0.000001
    81 -0.020057 -0.890968 0.010090 -0.060797 0.000000 0.000000
    82 0.583510 -1.197277 0.185379 0.158049 -0.404973 -0.364290
    83 1.535927 0.010246 0.005009 -0.002964 -0.012979 0.000887
    84 1.100771 0.004527 -0.010679 -0.002796 0.015973 0.003458
    85 0.120153 -0.050270 -0.054489 0.287569 3.110905 1.561085
    86 -9.310107 -5.231260 -12.513384 0.004984 -3.131565 -1.566847
    87 0.096944 -8.450418 -0.009365 -0.032965 -0.297907 -0.004663
    88 0.447953 -2.798986 -0.200443 0.106456 -0.010396 0.265094
    89 -0.032909 -1.480204 0.004940 -0.055403 0.000000 0.000002
    90 -0.027022 -1.076920 -0.020210 0.002094 0.000000 0.000000
    91 -0.249534 -2.846964 -0.174213 0.041903 -0.000125 -0.008396
    92 0.043235 -1.683941 0.096012 0.019757 0.002823 -0.000167
    93 0.031729 -1.160830 0.058838 -0.040181 0.000642 0.008372
    94 -0.963866 -2.785145 -0.085350 -0.017227 0.162276 -0.191556
    95 0.028479 -1.403067 0.006271 0.013941 0.000000 0.000000
    96 0.021413 -0.957781 0.020046 0.003851 0.000000 0.000000
    97 1.164475 -2.543940 -0.170330 0.083003 -0.013294 0.477915
    98 0.024032 -1.129042 0.017807 -0.018074 0.000000 0.000001
    99 0.014898 -0.883989 -0.019848 -0.060801 0.000000 0.000000
    100 -0.586770 -1.264477 0.200161 -0.152092 -0.410513 -2.814816
    101 1.522835 0.058681 0.016848 0.001410 0.008985 -0.046880
    102 1.117947 0.048424 -0.005766 -0.000243 -0.025198 0.065422
    103 -0.139399 -0.111698 0.014397 0.285382 -0.030687 1.580508
    104 -1.393470 8.839177 -0.239433 1.580804 -0.005023 -1.566847
end
triangles
$0b_voidpistolex_ef03.bmp
  59 -5.073610 51.823044 1.621407 -0.985211 0.171009 0.010727 0.000000 1.000000
  61 -5.073609 51.823040 1.621406 -0.999976 -0.006834 0.001298 0.996078 1.000000
  58 -5.073610 51.823048 1.621407 -0.985445 0.169660 0.010655 0.000000 0.000000
$0b_voidpistolex_ef03.bmp
  58 -5.073610 51.823048 1.621407 -0.985445 0.169660 0.010655 0.000000 0.000000
  61 -5.073609 51.823040 1.621406 -0.999976 -0.006834 0.001298 0.996078 1.000000
  60 -5.073610 51.823051 1.621407 -0.999971 -0.007556 0.001259 0.996078 0.000000
$0b_voidpistolex_ef03.bmp
  63 -5.073610 51.823048 1.621407 -0.973776 0.227385 0.007448 0.000000 1.000000
  65 -5.073610 51.823044 1.621407 -0.931737 0.362903 0.012920 0.996078 1.000000
  62 -5.073610 51.823048 1.621407 -0.973728 0.227592 0.007456 0.000000 0.000000
$0b_voidpistolex_ef03.bmp
  62 -5.073610 51.823048 1.621407 -0.973728 0.227592 0.007456 0.000000 0.000000
  65 -5.073610 51.823044 1.621407 -0.931737 0.362903 0.012920 0.996078 1.000000
  64 -5.073610 51.823048 1.621407 -0.931562 0.363352 0.012938 0.996078 0.000000
blackhole_black.bmp
  63 -5.073610 51.823048 1.621407 -0.827516 0.560996 0.022365 0.000000 1.000000
  65 -5.073610 51.823044 1.621407 -1.000000 0.000951 0.000038 0.497065 1.000000
  62 -5.073610 51.823048 1.621407 -0.827949 0.560358 0.022340 0.000000 0.499018
blackhole_black.bmp
  62 -5.073610 51.823048 1.621407 -0.827949 0.560358 0.022340 0.000000 0.499018
  65 -5.073610 51.823044 1.621407 -1.000000 0.000951 0.000038 0.497065 1.000000
  64 -5.073610 51.823048 1.621407 -1.000000 0.000000 0.000000 0.497065 0.499018
blackhole_black.bmp
  59 -5.063615 51.822714 1.621378 -0.938996 0.343400 0.019034 0.000000 1.000000
  61 -5.063614 51.822710 1.621377 -0.999997 -0.002272 0.000710 0.499022 1.000000
  58 -5.063615 51.822718 1.621378 -0.940117 0.340330 0.018872 0.000000 0.497053
blackhole_black.bmp
  58 -5.063615 51.822718 1.621378 -0.940117 0.340330 0.018872 0.000000 0.497053
  61 -5.063614 51.822710 1.621377 -0.999997 -0.002272 0.000710 0.499022 1.000000
  60 -5.063615 51.822722 1.621378 -0.999995 -0.003016 0.000670 0.499022 0.497053
blackhole_black.bmp
  59 -5.063615 51.822714 1.621378 -0.938996 0.343400 0.019034 0.000000 1.000000
  61 -5.063614 51.822710 1.621377 -0.999997 -0.002272 0.000710 0.499022 1.000000
  58 -5.063615 51.822718 1.621378 -0.940117 0.340330 0.018872 0.000000 0.497053
blackhole_black.bmp
  58 -5.063615 51.822718 1.621378 -0.940117 0.340330 0.018872 0.000000 0.497053
  61 -5.063614 51.822710 1.621377 -0.999997 -0.002272 0.000710 0.499022 1.000000
  60 -5.063615 51.822722 1.621378 -0.999995 -0.003016 0.000670 0.499022 0.497053
end
