// Created by Crowbar 0.49.0.0

$modelname "weapons/tfa_cso/w_missile_v7.mdl"

$bodygroup "body"
{
	studio "missile_vulcanus7_missile"
}

$collisionmodel "missile_vulcanus7_missile.smd"
{
	$mass 9
}

$CDMaterials "models\weapons\tfa_cso\katyusha"

$sequence "idle1" {
	"missile_vulcanus7_anims\idle1"
	fps 1
	loop
}
