// Created by Crowbar 0.68

$modelname "weapons/tfa_cso/w_rocketpistol_left.mdl"

$bodygroup "studio"
{
	studio "w_rocketpistol_left"
}

$collisionmodel "w_rocketpistol_left.smd"
{
	$mass 9
}

$cdmaterials "models/weapons/tfa_cso/rocketpistol"

$sequence "idle" {
	"anims\idle"
	fps 30
}
