version 1
nodes
  0 "thanatos3_knife_bone" -1
  1 "ef_Bone08" 0
  2 "ef_Bone07" 0
  3 "ef_Bone02" 0
  4 "ef_Bone01" 0
  5 "ef_Bone03" 0
  6 "ef_Bone04" 0
  7 "ef_Bone05" 0
  8 "ef_Bone06" 0
  9 "ef_Bone09" 0
  10 "ef_Bone10" 0
  11 "ef_Bone11" 0
end
skeleton
  time 0
    0 0.000000 0.000000 0.000000 3.141592 0.000000 0.325632
    1 -1.988138 -0.380566 0.000000 0.000000 3.141592 0.151115
    2 0.694816 -0.430732 0.000000 -3.141592 0.000000 -1.010823
    3 3.122448 1.272976 0.000000 -3.141592 0.000000 0.325648
    4 -0.012854 0.492716 0.000000 0.000000 3.141592 -1.245148
    5 3.508852 -0.866344 0.000000 -3.141592 0.000000 -0.311062
    6 2.386558 -2.575184 0.000000 -3.141592 0.000000 -0.842592
    7 0.388020 -3.400994 0.000000 -3.141592 0.000000 -1.467113
    8 -1.605722 -3.044004 0.000000 0.000000 3.141592 1.081200
    9 -1.821388 1.095208 0.000000 0.000000 3.141592 -0.459750
    10 -0.529776 1.984538 0.000000 0.000000 3.141592 -1.332415
    11 0.937928 1.668310 0.000000 -3.141592 0.000000 1.111046
  time 1
    0 0.000000 0.000000 0.000000 3.141592 0.000000 -1.349814
    1 -1.988138 -0.380566 0.000000 0.000000 3.141592 0.151115
    2 0.694816 -0.430732 0.000000 -3.141592 0.000000 -1.010823
    3 3.122448 1.272976 0.000000 -3.141592 0.000000 0.325648
    4 -0.012854 0.492716 0.000000 0.000000 3.141592 -1.245148
    5 3.508852 -0.866344 0.000000 -3.141592 0.000000 -0.311062
    6 2.386558 -2.575184 0.000000 -3.141592 0.000000 -0.842592
    7 0.388020 -3.400994 0.000000 -3.141592 0.000000 -1.467113
    8 -1.605722 -3.044004 0.000000 0.000000 3.141592 1.081200
    9 -1.821388 1.095208 0.000000 0.000000 3.141592 -0.459750
    10 -0.529776 1.984538 0.000000 0.000000 3.141592 -1.332415
    11 0.937928 1.668310 0.000000 -3.141592 0.000000 1.111046
  time 2
    0 0.000000 0.000000 0.000000 0.000000 -3.141592 0.116141
    1 -1.988138 -0.380566 0.000000 0.000000 3.141592 0.151115
    2 0.694816 -0.430732 0.000000 -3.141592 0.000000 -1.010823
    3 3.122448 1.272976 0.000000 -3.141592 0.000000 0.325648
    4 -0.012854 0.492716 0.000000 0.000000 3.141592 -1.245148
    5 3.508852 -0.866344 0.000000 -3.141592 0.000000 -0.311062
    6 2.386558 -2.575184 0.000000 -3.141592 0.000000 -0.842592
    7 0.388020 -3.400994 0.000000 -3.141592 0.000000 -1.467113
    8 -1.605722 -3.044004 0.000000 0.000000 3.141592 1.081200
    9 -1.821388 1.095208 0.000000 0.000000 3.141592 -0.459750
    10 -0.529776 1.984538 0.000000 0.000000 3.141592 -1.332415
    11 0.937928 1.668310 0.000000 -3.141592 0.000000 1.111046
  time 3
    0 0.000000 0.000000 0.000000 0.000000 -3.141592 -1.559304
    1 -1.988138 -0.380566 0.000000 0.000000 3.141592 0.151115
    2 0.694816 -0.430732 0.000000 -3.141592 0.000000 -1.010823
    3 3.122448 1.272976 0.000000 -3.141592 0.000000 0.325648
    4 -0.012854 0.492716 0.000000 0.000000 3.141592 -1.245148
    5 3.508852 -0.866344 0.000000 -3.141592 0.000000 -0.311062
    6 2.386558 -2.575184 0.000000 -3.141592 0.000000 -0.842592
    7 0.388020 -3.400994 0.000000 -3.141592 0.000000 -1.467113
    8 -1.605722 -3.044004 0.000000 0.000000 3.141592 1.081200
    9 -1.821388 1.095208 0.000000 0.000000 3.141592 -0.459750
    10 -0.529776 1.984538 0.000000 0.000000 3.141592 -1.332415
    11 0.937928 1.668310 0.000000 -3.141592 0.000000 1.111046
  time 4
    0 0.000000 0.000000 0.000000 3.141592 0.000000 -0.093270
    1 -1.988138 -0.380566 0.000000 0.000000 3.141592 0.151115
    2 0.694816 -0.430732 0.000000 -3.141592 0.000000 -1.010823
    3 3.122448 1.272976 0.000000 -3.141592 0.000000 0.325648
    4 -0.012854 0.492716 0.000000 0.000000 3.141592 -1.245148
    5 3.508852 -0.866344 0.000000 -3.141592 0.000000 -0.311062
    6 2.386558 -2.575184 0.000000 -3.141592 0.000000 -0.842592
    7 0.388020 -3.400994 0.000000 -3.141592 0.000000 -1.467113
    8 -1.605722 -3.044004 0.000000 0.000000 3.141592 1.081200
    9 -1.821388 1.095208 0.000000 0.000000 3.141592 -0.459750
    10 -0.529776 1.984538 0.000000 0.000000 3.141592 -1.332415
    11 0.937928 1.668310 0.000000 -3.141592 0.000000 1.111046
  time 5
    0 0.000000 0.000000 0.000000 0.000000 -3.141592 1.372845
    1 -1.988138 -0.380566 0.000000 0.000000 3.141592 0.151115
    2 0.694816 -0.430732 0.000000 -3.141592 0.000000 -1.010823
    3 3.122448 1.272976 0.000000 -3.141592 0.000000 0.325648
    4 -0.012854 0.492716 0.000000 0.000000 3.141592 -1.245148
    5 3.508852 -0.866344 0.000000 -3.141592 0.000000 -0.311062
    6 2.386558 -2.575184 0.000000 -3.141592 0.000000 -0.842592
    7 0.388020 -3.400994 0.000000 -3.141592 0.000000 -1.467113
    8 -1.605722 -3.044004 0.000000 0.000000 3.141592 1.081200
    9 -1.821388 1.095208 0.000000 0.000000 3.141592 -0.459750
    10 -0.529776 1.984538 0.000000 0.000000 3.141592 -1.332415
    11 0.937928 1.668310 0.000000 -3.141592 0.000000 1.111046
  time 6
    0 0.000000 0.000000 0.000000 0.000000 -3.141592 -0.302680
    1 -1.988138 -0.380566 0.000000 0.000000 3.141592 0.151115
    2 0.694816 -0.430732 0.000000 -3.141592 0.000000 -1.010823
    3 3.122448 1.272976 0.000000 -3.141592 0.000000 0.325648
    4 -0.012854 0.492716 0.000000 0.000000 3.141592 -1.245148
    5 3.508852 -0.866344 0.000000 -3.141592 0.000000 -0.311062
    6 2.386558 -2.575184 0.000000 -3.141592 0.000000 -0.842592
    7 0.388020 -3.400994 0.000000 -3.141592 0.000000 -1.467113
    8 -1.605722 -3.044004 0.000000 0.000000 3.141592 1.081200
    9 -1.821388 1.095208 0.000000 0.000000 3.141592 -0.459750
    10 -0.529776 1.984538 0.000000 0.000000 3.141592 -1.332415
    11 0.937928 1.668310 0.000000 -3.141592 0.000000 1.111046
  time 7
    0 0.000000 0.000000 0.000000 3.141592 0.000000 1.163354
    1 -1.988138 -0.380566 0.000000 0.000000 3.141592 0.151115
    2 0.694816 -0.430732 0.000000 -3.141592 0.000000 -1.010823
    3 3.122448 1.272976 0.000000 -3.141592 0.000000 0.325648
    4 -0.012854 0.492716 0.000000 0.000000 3.141592 -1.245148
    5 3.508852 -0.866344 0.000000 -3.141592 0.000000 -0.311062
    6 2.386558 -2.575184 0.000000 -3.141592 0.000000 -0.842592
    7 0.388020 -3.400994 0.000000 -3.141592 0.000000 -1.467113
    8 -1.605722 -3.044004 0.000000 0.000000 3.141592 1.081200
    9 -1.821388 1.095208 0.000000 0.000000 3.141592 -0.459750
    10 -0.529776 1.984538 0.000000 0.000000 3.141592 -1.332415
    11 0.937928 1.668310 0.000000 -3.141592 0.000000 1.111046
  time 8
    0 0.000000 0.000000 0.000000 3.141592 0.000000 -0.512171
    1 -1.988138 -0.380566 0.000000 0.000000 3.141592 0.151115
    2 0.694816 -0.430732 0.000000 -3.141592 0.000000 -1.010823
    3 3.122448 1.272976 0.000000 -3.141592 0.000000 0.325648
    4 -0.012854 0.492716 0.000000 0.000000 3.141592 -1.245148
    5 3.508852 -0.866344 0.000000 -3.141592 0.000000 -0.311062
    6 2.386558 -2.575184 0.000000 -3.141592 0.000000 -0.842592
    7 0.388020 -3.400994 0.000000 -3.141592 0.000000 -1.467113
    8 -1.605722 -3.044004 0.000000 0.000000 3.141592 1.081200
    9 -1.821388 1.095208 0.000000 0.000000 3.141592 -0.459750
    10 -0.529776 1.984538 0.000000 0.000000 3.141592 -1.332415
    11 0.937928 1.668310 0.000000 -3.141592 0.000000 1.111046
  time 9
    0 0.000000 0.000000 0.000000 0.000000 3.141592 0.953944
    1 -1.988138 -0.380566 0.000000 0.000000 3.141592 0.151115
    2 0.694816 -0.430732 0.000000 -3.141592 0.000000 -1.010823
    3 3.122448 1.272976 0.000000 -3.141592 0.000000 0.325648
    4 -0.012854 0.492716 0.000000 0.000000 3.141592 -1.245148
    5 3.508852 -0.866344 0.000000 -3.141592 0.000000 -0.311062
    6 2.386558 -2.575184 0.000000 -3.141592 0.000000 -0.842592
    7 0.388020 -3.400994 0.000000 -3.141592 0.000000 -1.467113
    8 -1.605722 -3.044004 0.000000 0.000000 3.141592 1.081200
    9 -1.821388 1.095208 0.000000 0.000000 3.141592 -0.459750
    10 -0.529776 1.984538 0.000000 0.000000 3.141592 -1.332415
    11 0.937928 1.668310 0.000000 -3.141592 0.000000 1.111046
  time 10
    0 0.000000 0.000000 0.000000 0.000000 -3.141592 -0.721582
    1 -1.988138 -0.380566 0.000000 0.000000 3.141592 0.151115
    2 0.694816 -0.430732 0.000000 -3.141592 0.000000 -1.010823
    3 3.122448 1.272976 0.000000 -3.141592 0.000000 0.325648
    4 -0.012854 0.492716 0.000000 0.000000 3.141592 -1.245148
    5 3.508852 -0.866344 0.000000 -3.141592 0.000000 -0.311062
    6 2.386558 -2.575184 0.000000 -3.141592 0.000000 -0.842592
    7 0.388020 -3.400994 0.000000 -3.141592 0.000000 -1.467113
    8 -1.605722 -3.044004 0.000000 0.000000 3.141592 1.081200
    9 -1.821388 1.095208 0.000000 0.000000 3.141592 -0.459750
    10 -0.529776 1.984538 0.000000 0.000000 3.141592 -1.332415
    11 0.937928 1.668310 0.000000 -3.141592 0.000000 1.111046
  time 11
    0 0.000000 0.000000 0.000000 3.141592 0.000000 0.744453
    1 -1.988138 -0.380566 0.000000 0.000000 3.141592 0.151115
    2 0.694816 -0.430732 0.000000 -3.141592 0.000000 -1.010823
    3 3.122448 1.272976 0.000000 -3.141592 0.000000 0.325648
    4 -0.012854 0.492716 0.000000 0.000000 3.141592 -1.245148
    5 3.508852 -0.866344 0.000000 -3.141592 0.000000 -0.311062
    6 2.386558 -2.575184 0.000000 -3.141592 0.000000 -0.842592
    7 0.388020 -3.400994 0.000000 -3.141592 0.000000 -1.467113
    8 -1.605722 -3.044004 0.000000 0.000000 3.141592 1.081200
    9 -1.821388 1.095208 0.000000 0.000000 3.141592 -0.459750
    10 -0.529776 1.984538 0.000000 0.000000 3.141592 -1.332415
    11 0.937928 1.668310 0.000000 -3.141592 0.000000 1.111046
  time 12
    0 0.000000 0.000000 0.000000 3.141592 0.000000 -0.930992
    1 -1.988138 -0.380566 0.000000 0.000000 3.141592 0.151115
    2 0.694816 -0.430732 0.000000 -3.141592 0.000000 -1.010823
    3 3.122448 1.272976 0.000000 -3.141592 0.000000 0.325648
    4 -0.012854 0.492716 0.000000 0.000000 3.141592 -1.245148
    5 3.508852 -0.866344 0.000000 -3.141592 0.000000 -0.311062
    6 2.386558 -2.575184 0.000000 -3.141592 0.000000 -0.842592
    7 0.388020 -3.400994 0.000000 -3.141592 0.000000 -1.467113
    8 -1.605722 -3.044004 0.000000 0.000000 3.141592 1.081200
    9 -1.821388 1.095208 0.000000 0.000000 3.141592 -0.459750
    10 -0.529776 1.984538 0.000000 0.000000 3.141592 -1.332415
    11 0.937928 1.668310 0.000000 -3.141592 0.000000 1.111046
  time 13
    0 0.000000 0.000000 0.000000 0.000000 3.141592 0.535042
    1 -1.988138 -0.380566 0.000000 0.000000 3.141592 0.151115
    2 0.694816 -0.430732 0.000000 -3.141592 0.000000 -1.010823
    3 3.122448 1.272976 0.000000 -3.141592 0.000000 0.325648
    4 -0.012854 0.492716 0.000000 0.000000 3.141592 -1.245148
    5 3.508852 -0.866344 0.000000 -3.141592 0.000000 -0.311062
    6 2.386558 -2.575184 0.000000 -3.141592 0.000000 -0.842592
    7 0.388020 -3.400994 0.000000 -3.141592 0.000000 -1.467113
    8 -1.605722 -3.044004 0.000000 0.000000 3.141592 1.081200
    9 -1.821388 1.095208 0.000000 0.000000 3.141592 -0.459750
    10 -0.529776 1.984538 0.000000 0.000000 3.141592 -1.332415
    11 0.937928 1.668310 0.000000 -3.141592 0.000000 1.111046
  time 14
    0 0.000000 0.000000 0.000000 0.000000 3.141592 -1.140483
    1 -1.988138 -0.380566 0.000000 0.000000 3.141592 0.151115
    2 0.694816 -0.430732 0.000000 -3.141592 0.000000 -1.010823
    3 3.122448 1.272976 0.000000 -3.141592 0.000000 0.325648
    4 -0.012854 0.492716 0.000000 0.000000 3.141592 -1.245148
    5 3.508852 -0.866344 0.000000 -3.141592 0.000000 -0.311062
    6 2.386558 -2.575184 0.000000 -3.141592 0.000000 -0.842592
    7 0.388020 -3.400994 0.000000 -3.141592 0.000000 -1.467113
    8 -1.605722 -3.044004 0.000000 0.000000 3.141592 1.081200
    9 -1.821388 1.095208 0.000000 0.000000 3.141592 -0.459750
    10 -0.529776 1.984538 0.000000 0.000000 3.141592 -1.332415
    11 0.937928 1.668310 0.000000 -3.141592 0.000000 1.111046
  time 15
    0 0.000000 0.000000 0.000000 3.141592 0.000000 0.325632
    1 -1.988138 -0.380566 0.000000 0.000000 3.141592 0.151115
    2 0.694816 -0.430732 0.000000 -3.141592 0.000000 -1.010823
    3 3.122448 1.272976 0.000000 -3.141592 0.000000 0.325648
    4 -0.012854 0.492716 0.000000 0.000000 3.141592 -1.245148
    5 3.508852 -0.866344 0.000000 -3.141592 0.000000 -0.311062
    6 2.386558 -2.575184 0.000000 -3.141592 0.000000 -0.842592
    7 0.388020 -3.400994 0.000000 -3.141592 0.000000 -1.467113
    8 -1.605722 -3.044004 0.000000 0.000000 3.141592 1.081200
    9 -1.821388 1.095208 0.000000 0.000000 3.141592 -0.459750
    10 -0.529776 1.984538 0.000000 0.000000 3.141592 -1.332415
    11 0.937928 1.668310 0.000000 -3.141592 0.000000 1.111046
end
