// Created by Crowbar 0.68

// Stored modelname (without quotes): "w_y21s1jetgunexb.mdl"
$modelname "w_y21s1jetgunmb.mdl"
$cd "."
$cdtexture "."
$cliptotextures
$scale 1.0

$bodygroup "studio"
{
	studio "w_ref_b"
}

$flags 0


$cbox 0 0 0 0 0 0

$bbox 0 0 0 0 0 0

$hbox 0 "y20s4weapon2_p" -23.559999 -1.58 -5.23 0 1.58 6.47
$hbox 0 "Object001" -9.52 -3.72 -4.36 9.52 3.72 4.36
$hbox 0 "Object002" -9.52 -3.72 -4.36 9.52 3.72 4.36

$sequence "idle" {
	"w_y21s1jetgunmb_anims\idle"
	fps 30
}
