version 1
nodes
  0 "Bone01" -1
  1 "Bone_Lefthand" 0
  2 "Bone02" 1
  3 "Bone03" 2
  4 "Bone52" 3
  5 "Bone25" 3
  6 "Bone54" 3
  7 "Bone56" 3
  8 "Bone58" 3
  9 "Bone 04" 1
  10 "Bone13" 9
  11 "Bone14" 10
  12 "Bone15" 11
  13 "Bone17" 9
  14 "Bone18" 13
  15 "Bone19" 14
  16 "Bone21" 9
  17 "Bone22" 16
  18 "Bone23" 17
  19 "Bone05" 9
  20 "Bone06" 19
  21 "Bone07" 20
  22 "Bone09" 9
  23 "Bone10" 22
  24 "Bone11" 23
  25 "Bone04" -1
  26 "Bone_Righthand" 25
  27 "Bone26" 26
  28 "Bone35" 27
  29 "Bone36" 28
  30 "Bone37" 29
  31 "Bone31" 27
  32 "Bone32" 31
  33 "Bone33" 32
  34 "Bone39" 27
  35 "Bone40" 34
  36 "Bone41" 35
  37 "Bone43" 27
  38 "Bone44" 37
  39 "Bone45" 38
  40 "Bone27" 27
  41 "Bone28" 40
  42 "Bone29" 41
end
skeleton
  time 0
    0 6.606519 0.165564 -6.694013 -0.777317 -1.332047 0.570072
    1 0.000000 -8.563282 0.000000 0.347157 -0.117018 -0.166597
    2 -0.251103 -3.675758 0.760353 -1.186398 1.434476 -1.173754
    3 -0.000001 2.696691 0.690915 0.000000 0.000000 0.000000
    4 0.000922 -0.883960 1.569311 0.000000 0.000000 0.000000
    5 0.000921 -3.415221 1.347101 0.000000 0.000000 0.000000
    6 0.000922 -2.222973 2.023392 0.000000 0.000000 0.000000
    7 -0.001984 -7.144151 2.100412 0.000000 0.000000 0.000000
    8 -0.002861 -1.798471 1.044055 0.000000 0.000000 0.000000
    9 -0.003480 -0.404829 0.000000 0.000000 0.000000 0.000000
    10 -0.519309 -2.501156 -0.278958 -1.003564 0.000000 -0.122173
    11 -0.010598 -1.208185 0.000000 -1.090831 0.000000 0.000000
    12 0.000000 -0.763066 0.000000 -1.223482 0.000000 0.000000
    13 0.105980 -2.607134 -0.278958 -0.890118 0.000000 -0.148353
    14 0.000000 -1.250578 0.000000 -1.213004 0.000000 0.000000
    15 0.000000 -0.932634 -0.000001 -1.279337 0.000000 0.000000
    16 0.763063 -2.490557 -0.278958 -0.349065 0.000000 0.130900
    17 -0.012322 -1.280917 0.000000 -0.322887 0.000000 0.000000
    18 -0.001697 -0.749371 0.000000 -0.593412 0.000000 0.000000
    19 0.354567 0.016266 0.318133 0.505409 -0.466262 -1.212439
    20 1.887165 0.012878 0.000000 -0.304966 -0.017306 -0.456358
    21 1.001874 -0.000270 0.000000 0.000000 0.000000 -0.572452
    22 -1.123359 -2.195094 -0.278958 -0.788809 0.052708 -0.017695
    23 0.010772 -0.963791 0.000001 -0.932004 0.000000 0.000000
    24 -0.010412 -0.631916 -0.000001 -1.061165 0.000000 0.000000
    25 -1.214393 -2.716641 -10.975239 -0.375302 0.000015 0.602068
    26 0.089929 -8.543163 0.000001 0.079772 -0.284688 0.455193
    27 0.000000 -0.359713 0.000000 0.000000 0.000000 0.000000
    28 -0.170479 -2.636147 -0.277655 -0.820322 0.000000 0.000000
    29 0.010599 -1.261177 0.000000 -0.668420 0.000000 0.000000
    30 -0.000001 -0.943233 -0.000001 -0.532326 0.000000 0.000000
    31 -0.827563 -2.508974 -0.277656 -1.005294 0.000000 0.000000
    32 -0.000001 -1.292971 0.000000 -0.287992 0.000000 0.000000
    33 0.000000 -0.752465 0.000000 -0.816766 0.000000 0.000000
    34 0.444213 -2.561960 -0.277656 -1.081577 -0.046226 -0.024599
    35 0.021022 -1.208186 0.000000 -0.427606 0.000000 0.000000
    36 0.010597 -0.741867 -0.000002 -0.453864 0.000000 0.000000
    37 1.047445 -2.222821 -0.277656 -1.019688 -0.066950 -0.041090
    38 0.000000 -0.996223 -0.000002 -0.584712 0.000000 0.000000
    39 -0.000001 -0.614690 0.000001 -0.523599 0.000000 0.000000
    40 -0.308254 -0.007814 0.307166 -0.318043 -0.539818 -2.424628
    41 1.978378 0.019543 0.000000 -0.000002 -0.000010 0.549778
    42 0.982426 0.003186 0.000000 0.000000 0.000000 0.593409
  time 1
    0 6.606519 0.165564 -6.694013 -0.777317 -1.332047 0.570072
    1 0.000000 -8.563282 0.000000 0.347157 -0.117018 -0.166597
    2 -0.251103 -3.675758 0.760353 -1.186398 1.434476 -1.173754
    3 -0.000001 2.696691 0.690915 0.000000 0.000000 0.000000
    4 0.000922 -0.883960 1.569311 0.000000 0.000000 0.000000
    5 0.000921 -3.415221 1.347101 0.000000 0.000000 0.000000
    6 0.000922 -2.222973 2.023392 0.000000 0.000000 0.000000
    7 -0.001984 -7.144151 2.100412 0.000000 0.000000 0.000000
    8 -0.002861 -1.798471 1.044055 0.000000 0.000000 0.000000
    9 -0.003480 -0.404829 0.000000 0.000000 0.000000 0.000000
    10 -0.519309 -2.501156 -0.278958 -1.003564 0.000000 -0.122173
    11 -0.010598 -1.208185 0.000000 -1.090831 0.000000 0.000000
    12 0.000000 -0.763066 0.000000 -1.223482 0.000000 0.000000
    13 0.105980 -2.607134 -0.278958 -0.890118 0.000000 -0.148353
    14 0.000000 -1.250578 0.000000 -1.213004 0.000000 0.000000
    15 0.000000 -0.932634 -0.000001 -1.279337 0.000000 0.000000
    16 0.763063 -2.490557 -0.278958 -0.349065 0.000000 0.130900
    17 -0.012322 -1.280917 0.000000 -0.322887 0.000000 0.000000
    18 -0.001697 -0.749371 0.000000 -0.593412 0.000000 0.000000
    19 0.354567 0.016266 0.318133 0.505409 -0.466262 -1.212439
    20 1.887165 0.012878 0.000000 -0.304966 -0.017306 -0.456358
    21 1.001874 -0.000270 0.000000 0.000000 0.000000 -0.572452
    22 -1.123359 -2.195094 -0.278958 -0.788809 0.052708 -0.017695
    23 0.010772 -0.963791 0.000001 -0.932004 0.000000 0.000000
    24 -0.010412 -0.631916 -0.000001 -1.061165 0.000000 0.000000
    25 -1.214393 -2.716641 -10.975239 -0.375302 0.000015 0.602068
    26 0.089929 -8.543163 0.000001 0.079772 -0.284688 0.455193
    27 0.000000 -0.359713 0.000000 0.000000 0.000000 0.000000
    28 -0.170479 -2.636147 -0.277655 -0.820322 0.000000 0.000000
    29 0.010599 -1.261177 0.000000 -0.668420 0.000000 0.000000
    30 -0.000001 -0.943233 -0.000001 -0.532326 0.000000 0.000000
    31 -0.827563 -2.508974 -0.277656 -1.005294 0.000000 0.000000
    32 -0.000001 -1.292971 0.000000 -0.287992 0.000000 0.000000
    33 0.000000 -0.752465 0.000000 -0.816766 0.000000 0.000000
    34 0.444213 -2.561960 -0.277656 -1.081577 -0.046226 -0.024599
    35 0.021022 -1.208186 0.000000 -0.427606 0.000000 0.000000
    36 0.010597 -0.741867 -0.000002 -0.453864 0.000000 0.000000
    37 1.047445 -2.222821 -0.277656 -1.019688 -0.066950 -0.041090
    38 0.000000 -0.996223 -0.000002 -0.584712 0.000000 0.000000
    39 -0.000001 -0.614690 0.000001 -0.523599 0.000000 0.000000
    40 -0.308254 -0.007814 0.307166 -0.318043 -0.539818 -2.424628
    41 1.978378 0.019543 0.000000 -0.000002 -0.000010 0.549778
    42 0.982426 0.003186 0.000000 0.000000 0.000000 0.593409
  time 2
    0 6.606519 0.165564 -6.694013 -0.777317 -1.332047 0.570072
    1 0.000000 -8.563282 0.000000 0.347157 -0.117018 -0.166597
    2 -0.251103 -3.675758 0.760353 -1.186398 1.434476 -1.173754
    3 -0.000001 2.696691 0.690915 0.000000 0.000000 0.000000
    4 0.000922 -0.883960 1.569311 0.000000 0.000000 0.000000
    5 0.000921 -3.415221 1.347101 0.000000 0.000000 0.000000
    6 0.000922 -2.222973 2.023392 0.000000 0.000000 0.000000
    7 -0.001984 -7.144151 2.100412 0.000000 0.000000 0.000000
    8 -0.002861 -1.798471 1.044055 0.000000 0.000000 0.000000
    9 -0.003480 -0.404829 0.000000 0.000000 0.000000 0.000000
    10 -0.519309 -2.501156 -0.278958 -1.003564 0.000000 -0.122173
    11 -0.010598 -1.208185 0.000000 -1.090831 0.000000 0.000000
    12 0.000000 -0.763066 0.000000 -1.223482 0.000000 0.000000
    13 0.105980 -2.607134 -0.278958 -0.890118 0.000000 -0.148353
    14 0.000000 -1.250578 0.000000 -1.213004 0.000000 0.000000
    15 0.000000 -0.932634 -0.000001 -1.279337 0.000000 0.000000
    16 0.763063 -2.490557 -0.278958 -0.349065 0.000000 0.130900
    17 -0.012322 -1.280917 0.000000 -0.322887 0.000000 0.000000
    18 -0.001697 -0.749371 0.000000 -0.593412 0.000000 0.000000
    19 0.354567 0.016266 0.318133 0.505409 -0.466262 -1.212439
    20 1.887165 0.012878 0.000000 -0.304966 -0.017306 -0.456358
    21 1.001874 -0.000270 0.000000 0.000000 0.000000 -0.572452
    22 -1.123359 -2.195094 -0.278958 -0.788809 0.052708 -0.017695
    23 0.010772 -0.963791 0.000001 -0.932004 0.000000 0.000000
    24 -0.010412 -0.631916 -0.000001 -1.061165 0.000000 0.000000
    25 -1.214393 -2.716641 -10.975239 -0.375302 0.000015 0.602068
    26 0.089929 -8.543163 0.000001 0.079772 -0.284688 0.455193
    27 0.000000 -0.359713 0.000000 0.000000 0.000000 0.000000
    28 -0.170479 -2.636147 -0.277655 -0.820322 0.000000 0.000000
    29 0.010599 -1.261177 0.000000 -0.668420 0.000000 0.000000
    30 -0.000001 -0.943233 -0.000001 -0.532326 0.000000 0.000000
    31 -0.827563 -2.508974 -0.277656 -1.005294 0.000000 0.000000
    32 -0.000001 -1.292971 0.000000 -0.287992 0.000000 0.000000
    33 0.000000 -0.752465 0.000000 -0.816766 0.000000 0.000000
    34 0.444213 -2.561960 -0.277656 -1.081577 -0.046226 -0.024599
    35 0.021022 -1.208186 0.000000 -0.427606 0.000000 0.000000
    36 0.010597 -0.741867 -0.000002 -0.453864 0.000000 0.000000
    37 1.047445 -2.222821 -0.277656 -1.019688 -0.066950 -0.041090
    38 0.000000 -0.996223 -0.000002 -0.584712 0.000000 0.000000
    39 -0.000001 -0.614690 0.000001 -0.523599 0.000000 0.000000
    40 -0.308254 -0.007814 0.307166 -0.318043 -0.539818 -2.424628
    41 1.978378 0.019543 0.000000 -0.000002 -0.000010 0.549778
    42 0.982426 0.003186 0.000000 0.000000 0.000000 0.593409
  time 3
    0 6.606519 0.165564 -6.694013 -0.777317 -1.332047 0.570072
    1 0.000000 -8.563282 0.000000 0.347157 -0.117018 -0.166597
    2 -0.251103 -3.675758 0.760353 -1.186398 1.434476 -1.173754
    3 -0.000001 2.696691 0.690915 0.000000 0.000000 0.000000
    4 0.000922 -0.883960 1.569311 0.000000 0.000000 0.000000
    5 0.000921 -3.415221 1.347101 0.000000 0.000000 0.000000
    6 0.000922 -2.222973 2.023392 0.000000 0.000000 0.000000
    7 -0.001984 -7.144151 2.100412 0.000000 0.000000 0.000000
    8 -0.002861 -1.798471 1.044055 0.000000 0.000000 0.000000
    9 -0.003480 -0.404829 0.000000 0.000000 0.000000 0.000000
    10 -0.519309 -2.501156 -0.278958 -1.003564 0.000000 -0.122173
    11 -0.010598 -1.208185 0.000000 -1.090831 0.000000 0.000000
    12 0.000000 -0.763066 0.000000 -1.223482 0.000000 0.000000
    13 0.105980 -2.607134 -0.278958 -0.890118 0.000000 -0.148353
    14 0.000000 -1.250578 0.000000 -1.213004 0.000000 0.000000
    15 0.000000 -0.932634 -0.000001 -1.279337 0.000000 0.000000
    16 0.763063 -2.490557 -0.278958 -0.349065 0.000000 0.130900
    17 -0.012322 -1.280917 0.000000 -0.322887 0.000000 0.000000
    18 -0.001697 -0.749371 0.000000 -0.593412 0.000000 0.000000
    19 0.354567 0.016266 0.318133 0.505409 -0.466262 -1.212439
    20 1.887165 0.012878 0.000000 -0.304966 -0.017306 -0.456358
    21 1.001874 -0.000270 0.000000 0.000000 0.000000 -0.572452
    22 -1.123359 -2.195094 -0.278958 -0.788809 0.052708 -0.017695
    23 0.010772 -0.963791 0.000001 -0.932004 0.000000 0.000000
    24 -0.010412 -0.631916 -0.000001 -1.061165 0.000000 0.000000
    25 -1.214393 -2.716641 -10.975239 -0.375302 0.000015 0.602068
    26 0.089929 -8.543163 0.000001 0.079772 -0.284688 0.455193
    27 0.000000 -0.359713 0.000000 0.000000 0.000000 0.000000
    28 -0.170479 -2.636147 -0.277655 -0.820322 0.000000 0.000000
    29 0.010599 -1.261177 0.000000 -0.668420 0.000000 0.000000
    30 -0.000001 -0.943233 -0.000001 -0.532326 0.000000 0.000000
    31 -0.827563 -2.508974 -0.277656 -1.005294 0.000000 0.000000
    32 -0.000001 -1.292971 0.000000 -0.287992 0.000000 0.000000
    33 0.000000 -0.752465 0.000000 -0.816766 0.000000 0.000000
    34 0.444213 -2.561960 -0.277656 -1.081577 -0.046226 -0.024599
    35 0.021022 -1.208186 0.000000 -0.427606 0.000000 0.000000
    36 0.010597 -0.741867 -0.000002 -0.453864 0.000000 0.000000
    37 1.047445 -2.222821 -0.277656 -1.019688 -0.066950 -0.041090
    38 0.000000 -0.996223 -0.000002 -0.584712 0.000000 0.000000
    39 -0.000001 -0.614690 0.000001 -0.523599 0.000000 0.000000
    40 -0.308254 -0.007814 0.307166 -0.318043 -0.539818 -2.424628
    41 1.978378 0.019543 0.000000 -0.000002 -0.000010 0.549778
    42 0.982426 0.003186 0.000000 0.000000 0.000000 0.593409
  time 4
    0 6.606519 0.165564 -6.694013 -0.777317 -1.332047 0.570072
    1 0.000000 -8.563282 0.000000 0.347157 -0.117018 -0.166597
    2 -0.251103 -3.675758 0.760353 -1.186398 1.434476 -1.173754
    3 -0.000001 2.696691 0.690915 0.000000 0.000000 0.000000
    4 0.000922 -0.883960 1.569311 0.000000 0.000000 0.000000
    5 0.000921 -3.415221 1.347101 0.000000 0.000000 0.000000
    6 0.000922 -2.222973 2.023392 0.000000 0.000000 0.000000
    7 -0.001984 -7.144151 2.100412 0.000000 0.000000 0.000000
    8 -0.002861 -1.798471 1.044055 0.000000 0.000000 0.000000
    9 -0.003480 -0.404829 0.000000 0.000000 0.000000 0.000000
    10 -0.519309 -2.501156 -0.278958 -1.003564 0.000000 -0.122173
    11 -0.010598 -1.208185 0.000000 -1.090831 0.000000 0.000000
    12 0.000000 -0.763066 0.000000 -1.223482 0.000000 0.000000
    13 0.105980 -2.607134 -0.278958 -0.890118 0.000000 -0.148353
    14 0.000000 -1.250578 0.000000 -1.213004 0.000000 0.000000
    15 0.000000 -0.932634 -0.000001 -1.279337 0.000000 0.000000
    16 0.763063 -2.490557 -0.278958 -0.349065 0.000000 0.130900
    17 -0.012322 -1.280917 0.000000 -0.322887 0.000000 0.000000
    18 -0.001697 -0.749371 0.000000 -0.593412 0.000000 0.000000
    19 0.354567 0.016266 0.318133 0.505409 -0.466262 -1.212439
    20 1.887165 0.012878 0.000000 -0.304966 -0.017306 -0.456358
    21 1.001874 -0.000270 0.000000 0.000000 0.000000 -0.572452
    22 -1.123359 -2.195094 -0.278958 -0.788809 0.052708 -0.017695
    23 0.010772 -0.963791 0.000001 -0.932004 0.000000 0.000000
    24 -0.010412 -0.631916 -0.000001 -1.061165 0.000000 0.000000
    25 -1.214393 -2.716641 -10.975239 -0.375302 0.000015 0.602068
    26 0.089929 -8.543163 0.000001 0.079772 -0.284688 0.455193
    27 0.000000 -0.359713 0.000000 0.000000 0.000000 0.000000
    28 -0.170479 -2.636147 -0.277655 -0.820322 0.000000 0.000000
    29 0.010599 -1.261177 0.000000 -0.668420 0.000000 0.000000
    30 -0.000001 -0.943233 -0.000001 -0.532326 0.000000 0.000000
    31 -0.827563 -2.508974 -0.277656 -1.005294 0.000000 0.000000
    32 -0.000001 -1.292971 0.000000 -0.287992 0.000000 0.000000
    33 0.000000 -0.752465 0.000000 -0.816766 0.000000 0.000000
    34 0.444213 -2.561960 -0.277656 -1.081577 -0.046226 -0.024599
    35 0.021022 -1.208186 0.000000 -0.427606 0.000000 0.000000
    36 0.010597 -0.741867 -0.000002 -0.453864 0.000000 0.000000
    37 1.047445 -2.222821 -0.277656 -1.019688 -0.066950 -0.041090
    38 0.000000 -0.996223 -0.000002 -0.584712 0.000000 0.000000
    39 -0.000001 -0.614690 0.000001 -0.523599 0.000000 0.000000
    40 -0.308254 -0.007814 0.307166 -0.318043 -0.539818 -2.424628
    41 1.978378 0.019543 0.000000 -0.000002 -0.000010 0.549778
    42 0.982426 0.003186 0.000000 0.000000 0.000000 0.593409
  time 5
    0 6.606519 0.165564 -6.694013 -0.777317 -1.332047 0.570072
    1 0.000000 -8.563282 0.000000 0.347157 -0.117018 -0.166597
    2 -0.251103 -3.675758 0.760353 -1.186398 1.434476 -1.173754
    3 -0.000001 2.696691 0.690915 0.000000 0.000000 0.000000
    4 0.000922 -0.883960 1.569311 0.000000 0.000000 0.000000
    5 0.000921 -3.415221 1.347101 0.000000 0.000000 0.000000
    6 0.000922 -2.222973 2.023392 0.000000 0.000000 0.000000
    7 -0.001984 -7.144151 2.100412 0.000000 0.000000 0.000000
    8 -0.002861 -1.798471 1.044055 0.000000 0.000000 0.000000
    9 -0.003480 -0.404829 0.000000 0.000000 0.000000 0.000000
    10 -0.519309 -2.501156 -0.278958 -1.003564 0.000000 -0.122173
    11 -0.010598 -1.208185 0.000000 -1.090831 0.000000 0.000000
    12 0.000000 -0.763066 0.000000 -1.223482 0.000000 0.000000
    13 0.105980 -2.607134 -0.278958 -0.890118 0.000000 -0.148353
    14 0.000000 -1.250578 0.000000 -1.213004 0.000000 0.000000
    15 0.000000 -0.932634 -0.000001 -1.279337 0.000000 0.000000
    16 0.763063 -2.490557 -0.278958 -0.349065 0.000000 0.130900
    17 -0.012322 -1.280917 0.000000 -0.322887 0.000000 0.000000
    18 -0.001697 -0.749371 0.000000 -0.593412 0.000000 0.000000
    19 0.354567 0.016266 0.318133 0.505409 -0.466262 -1.212439
    20 1.887165 0.012878 0.000000 -0.304966 -0.017306 -0.456358
    21 1.001874 -0.000270 0.000000 0.000000 0.000000 -0.572452
    22 -1.123359 -2.195094 -0.278958 -0.788809 0.052708 -0.017695
    23 0.010772 -0.963791 0.000001 -0.932004 0.000000 0.000000
    24 -0.010412 -0.631916 -0.000001 -1.061165 0.000000 0.000000
    25 -1.214393 -2.716641 -10.975239 -0.375302 0.000015 0.602068
    26 0.089929 -8.543163 0.000001 0.079772 -0.284688 0.455193
    27 0.000000 -0.359713 0.000000 0.000000 0.000000 0.000000
    28 -0.170479 -2.636147 -0.277655 -0.820322 0.000000 0.000000
    29 0.010599 -1.261177 0.000000 -0.668420 0.000000 0.000000
    30 -0.000001 -0.943233 -0.000001 -0.532326 0.000000 0.000000
    31 -0.827563 -2.508974 -0.277656 -1.005294 0.000000 0.000000
    32 -0.000001 -1.292971 0.000000 -0.287992 0.000000 0.000000
    33 0.000000 -0.752465 0.000000 -0.816766 0.000000 0.000000
    34 0.444213 -2.561960 -0.277656 -1.081577 -0.046226 -0.024599
    35 0.021022 -1.208186 0.000000 -0.427606 0.000000 0.000000
    36 0.010597 -0.741867 -0.000002 -0.453864 0.000000 0.000000
    37 1.047445 -2.222821 -0.277656 -1.019688 -0.066950 -0.041090
    38 0.000000 -0.996223 -0.000002 -0.584712 0.000000 0.000000
    39 -0.000001 -0.614690 0.000001 -0.523599 0.000000 0.000000
    40 -0.308254 -0.007814 0.307166 -0.318043 -0.539818 -2.424628
    41 1.978378 0.019543 0.000000 -0.000002 -0.000010 0.549778
    42 0.982426 0.003186 0.000000 0.000000 0.000000 0.593409
  time 6
    0 6.606519 0.165564 -6.694013 -0.777317 -1.332047 0.570072
    1 0.000000 -8.563282 0.000000 0.347157 -0.117018 -0.166597
    2 -0.251103 -3.675758 0.760353 -1.186398 1.434476 -1.173754
    3 -0.000001 2.696691 0.690915 0.000000 0.000000 0.000000
    4 0.000922 -0.883960 1.569311 0.000000 0.000000 0.000000
    5 0.000921 -3.415221 1.347101 0.000000 0.000000 0.000000
    6 0.000922 -2.222973 2.023392 0.000000 0.000000 0.000000
    7 -0.001984 -7.144151 2.100412 0.000000 0.000000 0.000000
    8 -0.002861 -1.798471 1.044055 0.000000 0.000000 0.000000
    9 -0.003480 -0.404829 0.000000 0.000000 0.000000 0.000000
    10 -0.519309 -2.501156 -0.278958 -1.003564 0.000000 -0.122173
    11 -0.010598 -1.208185 0.000000 -1.090831 0.000000 0.000000
    12 0.000000 -0.763066 0.000000 -1.223482 0.000000 0.000000
    13 0.105980 -2.607134 -0.278958 -0.890118 0.000000 -0.148353
    14 0.000000 -1.250578 0.000000 -1.213004 0.000000 0.000000
    15 0.000000 -0.932634 -0.000001 -1.279337 0.000000 0.000000
    16 0.763063 -2.490557 -0.278958 -0.349065 0.000000 0.130900
    17 -0.012322 -1.280917 0.000000 -0.322887 0.000000 0.000000
    18 -0.001697 -0.749371 0.000000 -0.593412 0.000000 0.000000
    19 0.354567 0.016266 0.318133 0.505409 -0.466262 -1.212439
    20 1.887165 0.012878 0.000000 -0.304966 -0.017306 -0.456358
    21 1.001874 -0.000270 0.000000 0.000000 0.000000 -0.572452
    22 -1.123359 -2.195094 -0.278958 -0.788809 0.052708 -0.017695
    23 0.010772 -0.963791 0.000001 -0.932004 0.000000 0.000000
    24 -0.010412 -0.631916 -0.000001 -1.061165 0.000000 0.000000
    25 -1.214393 -2.716641 -10.975239 -0.375302 0.000015 0.602068
    26 0.089929 -8.543163 0.000001 0.079772 -0.284688 0.455193
    27 0.000000 -0.359713 0.000000 0.000000 0.000000 0.000000
    28 -0.170479 -2.636147 -0.277655 -0.820322 0.000000 0.000000
    29 0.010599 -1.261177 0.000000 -0.668420 0.000000 0.000000
    30 -0.000001 -0.943233 -0.000001 -0.532326 0.000000 0.000000
    31 -0.827563 -2.508974 -0.277656 -1.005294 0.000000 0.000000
    32 -0.000001 -1.292971 0.000000 -0.287992 0.000000 0.000000
    33 0.000000 -0.752465 0.000000 -0.816766 0.000000 0.000000
    34 0.444213 -2.561960 -0.277656 -1.081577 -0.046226 -0.024599
    35 0.021022 -1.208186 0.000000 -0.427606 0.000000 0.000000
    36 0.010597 -0.741867 -0.000002 -0.453864 0.000000 0.000000
    37 1.047445 -2.222821 -0.277656 -1.019688 -0.066950 -0.041090
    38 0.000000 -0.996223 -0.000002 -0.584712 0.000000 0.000000
    39 -0.000001 -0.614690 0.000001 -0.523599 0.000000 0.000000
    40 -0.308254 -0.007814 0.307166 -0.318043 -0.539818 -2.424628
    41 1.978378 0.019543 0.000000 -0.000002 -0.000010 0.549778
    42 0.982426 0.003186 0.000000 0.000000 0.000000 0.593409
  time 7
    0 6.606519 0.165564 -6.694013 -0.777317 -1.332047 0.570072
    1 0.000000 -8.563282 0.000000 0.347157 -0.117018 -0.166597
    2 -0.251103 -3.675758 0.760353 -1.186398 1.434476 -1.173754
    3 -0.000001 2.696691 0.690915 0.000000 0.000000 0.000000
    4 0.000922 -0.883960 1.569311 0.000000 0.000000 0.000000
    5 0.000921 -3.415221 1.347101 0.000000 0.000000 0.000000
    6 0.000922 -2.222973 2.023392 0.000000 0.000000 0.000000
    7 -0.001984 -7.144151 2.100412 0.000000 0.000000 0.000000
    8 -0.002861 -1.798471 1.044055 0.000000 0.000000 0.000000
    9 -0.003480 -0.404829 0.000000 0.000000 0.000000 0.000000
    10 -0.519309 -2.501156 -0.278958 -1.003564 0.000000 -0.122173
    11 -0.010598 -1.208185 0.000000 -1.090831 0.000000 0.000000
    12 0.000000 -0.763066 0.000000 -1.223482 0.000000 0.000000
    13 0.105980 -2.607134 -0.278958 -0.890118 0.000000 -0.148353
    14 0.000000 -1.250578 0.000000 -1.213004 0.000000 0.000000
    15 0.000000 -0.932634 -0.000001 -1.279337 0.000000 0.000000
    16 0.763063 -2.490557 -0.278958 -0.349065 0.000000 0.130900
    17 -0.012322 -1.280917 0.000000 -0.322887 0.000000 0.000000
    18 -0.001697 -0.749371 0.000000 -0.593412 0.000000 0.000000
    19 0.354567 0.016266 0.318133 0.505409 -0.466262 -1.212439
    20 1.887165 0.012878 0.000000 -0.304966 -0.017306 -0.456358
    21 1.001874 -0.000270 0.000000 0.000000 0.000000 -0.572452
    22 -1.123359 -2.195094 -0.278958 -0.788809 0.052708 -0.017695
    23 0.010772 -0.963791 0.000001 -0.932004 0.000000 0.000000
    24 -0.010412 -0.631916 -0.000001 -1.061165 0.000000 0.000000
    25 -1.214393 -2.716641 -10.975239 -0.375302 0.000015 0.602068
    26 0.089929 -8.543163 0.000001 0.079772 -0.284688 0.455193
    27 0.000000 -0.359713 0.000000 0.000000 0.000000 0.000000
    28 -0.170479 -2.636147 -0.277655 -0.820322 0.000000 0.000000
    29 0.010599 -1.261177 0.000000 -0.668420 0.000000 0.000000
    30 -0.000001 -0.943233 -0.000001 -0.532326 0.000000 0.000000
    31 -0.827563 -2.508974 -0.277656 -1.005294 0.000000 0.000000
    32 -0.000001 -1.292971 0.000000 -0.287992 0.000000 0.000000
    33 0.000000 -0.752465 0.000000 -0.816766 0.000000 0.000000
    34 0.444213 -2.561960 -0.277656 -1.081577 -0.046226 -0.024599
    35 0.021022 -1.208186 0.000000 -0.427606 0.000000 0.000000
    36 0.010597 -0.741867 -0.000002 -0.453864 0.000000 0.000000
    37 1.047445 -2.222821 -0.277656 -1.019688 -0.066950 -0.041090
    38 0.000000 -0.996223 -0.000002 -0.584712 0.000000 0.000000
    39 -0.000001 -0.614690 0.000001 -0.523599 0.000000 0.000000
    40 -0.308254 -0.007814 0.307166 -0.318043 -0.539818 -2.424628
    41 1.978378 0.019543 0.000000 -0.000002 -0.000010 0.549778
    42 0.982426 0.003186 0.000000 0.000000 0.000000 0.593409
  time 8
    0 6.606519 0.165564 -6.694013 -0.777317 -1.332047 0.570072
    1 0.000000 -8.563282 0.000000 0.347157 -0.117018 -0.166597
    2 -0.251103 -3.675758 0.760353 -1.186398 1.434476 -1.173754
    3 -0.000001 2.696691 0.690915 0.000000 0.000000 0.000000
    4 0.000922 -0.883960 1.569311 0.000000 0.000000 0.000000
    5 0.000921 -3.415221 1.347101 0.000000 0.000000 0.000000
    6 0.000922 -2.222973 2.023392 0.000000 0.000000 0.000000
    7 -0.001984 -7.144151 2.100412 0.000000 0.000000 0.000000
    8 -0.002861 -1.798471 1.044055 0.000000 0.000000 0.000000
    9 -0.003480 -0.404829 0.000000 0.000000 0.000000 0.000000
    10 -0.519309 -2.501156 -0.278958 -1.003564 0.000000 -0.122173
    11 -0.010598 -1.208185 0.000000 -1.090831 0.000000 0.000000
    12 0.000000 -0.763066 0.000000 -1.223482 0.000000 0.000000
    13 0.105980 -2.607134 -0.278958 -0.890118 0.000000 -0.148353
    14 0.000000 -1.250578 0.000000 -1.213004 0.000000 0.000000
    15 0.000000 -0.932634 -0.000001 -1.279337 0.000000 0.000000
    16 0.763063 -2.490557 -0.278958 -0.349065 0.000000 0.130900
    17 -0.012322 -1.280917 0.000000 -0.322887 0.000000 0.000000
    18 -0.001697 -0.749371 0.000000 -0.593412 0.000000 0.000000
    19 0.354567 0.016266 0.318133 0.505409 -0.466262 -1.212439
    20 1.887165 0.012878 0.000000 -0.304966 -0.017306 -0.456358
    21 1.001874 -0.000270 0.000000 0.000000 0.000000 -0.572452
    22 -1.123359 -2.195094 -0.278958 -0.788809 0.052708 -0.017695
    23 0.010772 -0.963791 0.000001 -0.932004 0.000000 0.000000
    24 -0.010412 -0.631916 -0.000001 -1.061165 0.000000 0.000000
    25 -1.214393 -2.716641 -10.975239 -0.375302 0.000015 0.602068
    26 0.089929 -8.543163 0.000001 0.079772 -0.284688 0.455193
    27 0.000000 -0.359713 0.000000 0.000000 0.000000 0.000000
    28 -0.170479 -2.636147 -0.277655 -0.820322 0.000000 0.000000
    29 0.010599 -1.261177 0.000000 -0.668420 0.000000 0.000000
    30 -0.000001 -0.943233 -0.000001 -0.532326 0.000000 0.000000
    31 -0.827563 -2.508974 -0.277656 -1.005294 0.000000 0.000000
    32 -0.000001 -1.292971 0.000000 -0.287992 0.000000 0.000000
    33 0.000000 -0.752465 0.000000 -0.816766 0.000000 0.000000
    34 0.444213 -2.561960 -0.277656 -1.081577 -0.046226 -0.024599
    35 0.021022 -1.208186 0.000000 -0.427606 0.000000 0.000000
    36 0.010597 -0.741867 -0.000002 -0.453864 0.000000 0.000000
    37 1.047445 -2.222821 -0.277656 -1.019688 -0.066950 -0.041090
    38 0.000000 -0.996223 -0.000002 -0.584712 0.000000 0.000000
    39 -0.000001 -0.614690 0.000001 -0.523599 0.000000 0.000000
    40 -0.308254 -0.007814 0.307166 -0.318043 -0.539818 -2.424628
    41 1.978378 0.019543 0.000000 -0.000002 -0.000010 0.549778
    42 0.982426 0.003186 0.000000 0.000000 0.000000 0.593409
  time 9
    0 6.606519 0.165564 -6.694013 -0.777317 -1.332047 0.570072
    1 0.000000 -8.563282 0.000000 0.347157 -0.117018 -0.166597
    2 -0.251103 -3.675758 0.760353 -1.186398 1.434476 -1.173754
    3 -0.000001 2.696691 0.690915 0.000000 0.000000 0.000000
    4 0.000922 -0.883960 1.569311 0.000000 0.000000 0.000000
    5 0.000921 -3.415221 1.347101 0.000000 0.000000 0.000000
    6 0.000922 -2.222973 2.023392 0.000000 0.000000 0.000000
    7 -0.001984 -7.144151 2.100412 0.000000 0.000000 0.000000
    8 -0.002861 -1.798471 1.044055 0.000000 0.000000 0.000000
    9 -0.003480 -0.404829 0.000000 0.000000 0.000000 0.000000
    10 -0.519309 -2.501156 -0.278958 -1.003564 0.000000 -0.122173
    11 -0.010598 -1.208185 0.000000 -1.090831 0.000000 0.000000
    12 0.000000 -0.763066 0.000000 -1.223482 0.000000 0.000000
    13 0.105980 -2.607134 -0.278958 -0.890118 0.000000 -0.148353
    14 0.000000 -1.250578 0.000000 -1.213004 0.000000 0.000000
    15 0.000000 -0.932634 -0.000001 -1.279337 0.000000 0.000000
    16 0.763063 -2.490557 -0.278958 -0.349065 0.000000 0.130900
    17 -0.012322 -1.280917 0.000000 -0.322887 0.000000 0.000000
    18 -0.001697 -0.749371 0.000000 -0.593412 0.000000 0.000000
    19 0.354567 0.016266 0.318133 0.505409 -0.466262 -1.212439
    20 1.887165 0.012878 0.000000 -0.304966 -0.017306 -0.456358
    21 1.001874 -0.000270 0.000000 0.000000 0.000000 -0.572452
    22 -1.123359 -2.195094 -0.278958 -0.788809 0.052708 -0.017695
    23 0.010772 -0.963791 0.000001 -0.932004 0.000000 0.000000
    24 -0.010412 -0.631916 -0.000001 -1.061165 0.000000 0.000000
    25 -1.214393 -2.716641 -10.975239 -0.375302 0.000015 0.602068
    26 0.089929 -8.543163 0.000001 0.079772 -0.284688 0.455193
    27 0.000000 -0.359713 0.000000 0.000000 0.000000 0.000000
    28 -0.170479 -2.636147 -0.277655 -0.820322 0.000000 0.000000
    29 0.010599 -1.261177 0.000000 -0.668420 0.000000 0.000000
    30 -0.000001 -0.943233 -0.000001 -0.532326 0.000000 0.000000
    31 -0.827563 -2.508974 -0.277656 -1.005294 0.000000 0.000000
    32 -0.000001 -1.292971 0.000000 -0.287992 0.000000 0.000000
    33 0.000000 -0.752465 0.000000 -0.816766 0.000000 0.000000
    34 0.444213 -2.561960 -0.277656 -1.081577 -0.046226 -0.024599
    35 0.021022 -1.208186 0.000000 -0.427606 0.000000 0.000000
    36 0.010597 -0.741867 -0.000002 -0.453864 0.000000 0.000000
    37 1.047445 -2.222821 -0.277656 -1.019688 -0.066950 -0.041090
    38 0.000000 -0.996223 -0.000002 -0.584712 0.000000 0.000000
    39 -0.000001 -0.614690 0.000001 -0.523599 0.000000 0.000000
    40 -0.308254 -0.007814 0.307166 -0.318043 -0.539818 -2.424628
    41 1.978378 0.019543 0.000000 -0.000002 -0.000010 0.549778
    42 0.982426 0.003186 0.000000 0.000000 0.000000 0.593409
  time 10
    0 6.606519 0.165564 -6.694013 -0.777317 -1.332047 0.570072
    1 0.000000 -8.563282 0.000000 0.347157 -0.117018 -0.166597
    2 -0.251103 -3.675758 0.760353 -1.186398 1.434476 -1.173754
    3 -0.000001 2.696691 0.690915 0.000000 0.000000 0.000000
    4 0.000922 -0.883960 1.569311 0.000000 0.000000 0.000000
    5 0.000921 -3.415221 1.347101 0.000000 0.000000 0.000000
    6 0.000922 -2.222973 2.023392 0.000000 0.000000 0.000000
    7 -0.001984 -7.144151 2.100412 0.000000 0.000000 0.000000
    8 -0.002861 -1.798471 1.044055 0.000000 0.000000 0.000000
    9 -0.003480 -0.404829 0.000000 0.000000 0.000000 0.000000
    10 -0.519309 -2.501156 -0.278958 -1.003564 0.000000 -0.122173
    11 -0.010598 -1.208185 0.000000 -1.090831 0.000000 0.000000
    12 0.000000 -0.763066 0.000000 -1.223482 0.000000 0.000000
    13 0.105980 -2.607134 -0.278958 -0.890118 0.000000 -0.148353
    14 0.000000 -1.250578 0.000000 -1.213004 0.000000 0.000000
    15 0.000000 -0.932634 -0.000001 -1.279337 0.000000 0.000000
    16 0.763063 -2.490557 -0.278958 -0.349065 0.000000 0.130900
    17 -0.012322 -1.280917 0.000000 -0.322887 0.000000 0.000000
    18 -0.001697 -0.749371 0.000000 -0.593412 0.000000 0.000000
    19 0.354567 0.016266 0.318133 0.505409 -0.466262 -1.212439
    20 1.887165 0.012878 0.000000 -0.304966 -0.017306 -0.456358
    21 1.001874 -0.000270 0.000000 0.000000 0.000000 -0.572452
    22 -1.123359 -2.195094 -0.278958 -0.788809 0.052708 -0.017695
    23 0.010772 -0.963791 0.000001 -0.932004 0.000000 0.000000
    24 -0.010412 -0.631916 -0.000001 -1.061165 0.000000 0.000000
    25 -1.214393 -2.716641 -10.975239 -0.375302 0.000015 0.602068
    26 0.089929 -8.543163 0.000001 0.079772 -0.284688 0.455193
    27 0.000000 -0.359713 0.000000 0.000000 0.000000 0.000000
    28 -0.170479 -2.636147 -0.277655 -0.820322 0.000000 0.000000
    29 0.010599 -1.261177 0.000000 -0.668420 0.000000 0.000000
    30 -0.000001 -0.943233 -0.000001 -0.532326 0.000000 0.000000
    31 -0.827563 -2.508974 -0.277656 -1.005294 0.000000 0.000000
    32 -0.000001 -1.292971 0.000000 -0.287992 0.000000 0.000000
    33 0.000000 -0.752465 0.000000 -0.816766 0.000000 0.000000
    34 0.444213 -2.561960 -0.277656 -1.081577 -0.046226 -0.024599
    35 0.021022 -1.208186 0.000000 -0.427606 0.000000 0.000000
    36 0.010597 -0.741867 -0.000002 -0.453864 0.000000 0.000000
    37 1.047445 -2.222821 -0.277656 -1.019688 -0.066950 -0.041090
    38 0.000000 -0.996223 -0.000002 -0.584712 0.000000 0.000000
    39 -0.000001 -0.614690 0.000001 -0.523599 0.000000 0.000000
    40 -0.308254 -0.007814 0.307166 -0.318043 -0.539818 -2.424628
    41 1.978378 0.019543 0.000000 -0.000002 -0.000010 0.549778
    42 0.982426 0.003186 0.000000 0.000000 0.000000 0.593409
end
