// Created by Crowbar 0.58

$modelname "weapons/tfa_cso/w_magicknife.mdl"

$bodygroup "studio"
{
	studio "v_magicknife"
}

$collisionmodel "v_magicknife.smd"
{
	$mass 9
}

$CDMaterials "models\weapons\tfa_cso\magicknife"

$sequence "idle" {
	"anims\idle"
	fps 30
}
