// Created by Crowbar 0.68

$modelname "weapons/tfa_cso/c_thanatos5.mdl"

$include "csonline_gmod.qci"

$bodygroup "weapon"
{
	studio "v_thanatos5_1"
}
$bodygroup "weapon"
{
	studio "v_thanatos5_2"
}

$cdmaterials "models/weapons/tfa_cso/thanatos_5"

$attachment 0 "Bone02" 18 0 0
//$attachment 1 "Bone02" 6 0 0

$definebone "root" "" 0.001265 -0.569176 -20.601572 0.000000 0.000000 0.000000 0.000000 0.000000 0.000000 -0.000000 0.000000 0.000000
$definebone "Bone01" "root" 9.310103 -5.299614 -12.557959 -0.012834 -89.771431 179.846252 0.000000 -0.000001 -0.000004 0.000000 0.000000 -0.000000
$definebone "Bone_Lefthand" "Bone01" -0.071921 -8.498736 -0.104137 16.477753 0.853593 -1.435030 0.000000 0.000000 0.000000 0.000002 0.000000 -0.000000
$definebone "Bone02" "Bone_Lefthand" 3.978764 -3.341042 0.637661 7.089036 -87.640373 4.387764 0.000000 -0.000000 0.000004 0.000001 0.000000 -0.000004
$definebone "Bone73" "Bone02" 5.974371 0.481867 0.926151 -40.000027 -89.999985 -0.000001 0.000000 0.000000 0.000000 -0.000005 -0.000001 -0.000000
$definebone "Bone71" "Bone02" 16.182842 -2.913909 0.000004 0.000001 0.000000 -0.000004 0.000000 0.000000 0.000000 0.000001 0.000000 -0.000004
$definebone "Bone46" "Bone02" 15.746181 -1.574440 0.270889 -89.999985 89.999985 0.000000 0.000000 0.000000 0.000000 -0.000004 0.000000 0.000000
$definebone "Bone30" "Bone02" 13.010803 -1.574440 0.270889 -89.999985 89.999985 0.000000 0.000000 0.000000 0.000000 -0.000004 0.000000 0.000000
$definebone "Bone12" "Bone02" 10.282274 -1.574440 0.270889 -89.999985 89.999985 0.000000 0.000000 0.000000 0.000000 -0.000004 0.000000 0.000000
$definebone "Bone69" "Bone02" 6.495913 -1.977130 0.728153 -89.999985 -89.999985 0.000000 0.000004 0.000002 0.000000 0.000004 -0.000001 0.000000
$definebone "Dummy01" "Bone02" 5.842482 -4.303319 0.000000 -0.000004 -90.000038 -0.000001 0.000000 0.000000 -0.000004 -0.000004 -0.000000 -0.000001
$definebone "Bone08" "Dummy01" 0.000001 0.000000 -0.000004 -0.000004 -0.000000 -0.000001 0.000000 0.000000 0.000000 -0.000004 -0.000000 -0.000001
$definebone "Bone48" "Bone02" 17.552799 -2.907948 -1.999825 0.000001 0.000000 -0.000004 0.000000 -0.000000 0.000000 0.000001 0.000000 -0.000004
$definebone "Bone25" "Bone02" 17.552799 -2.907948 2.000175 0.000001 0.000000 -0.000004 0.000004 0.000000 0.000004 0.000001 0.000000 -0.000004
$definebone "Bone38" "Bone02" 14.663868 -5.303321 -0.000065 0.000001 0.000000 -0.000004 -0.000004 0.000000 0.000000 0.000001 0.000000 -0.000004
$definebone "Bone63" "Bone38" -1.428610 0.050815 0.000069 -0.000004 -89.999985 -0.000001 0.000000 0.000000 0.000000 -0.000004 -0.000000 -0.000001
$definebone "Bone65" "Bone63" 1.063093 0.532772 -1.000000 -0.000004 -0.000000 -0.000001 0.000000 0.000002 0.000000 -0.000004 -0.000000 -0.000001
$definebone "Bone16" "Bone63" 1.063092 0.532774 0.999996 -0.000004 -0.000000 -0.000001 0.000000 0.000002 0.000000 -0.000004 -0.000000 -0.000001
$definebone "Bone61" "Bone02" 0.701559 1.594201 0.000000 0.000004 89.999985 0.000000 0.000000 0.000000 0.000000 0.000004 0.000000 0.000000
$definebone "Bone47" "Bone02" 14.492668 1.629910 0.000000 0.000004 89.999985 0.000000 -0.000000 0.000000 -0.000004 0.000004 0.000000 0.000000
$definebone "Bone42" "Bone02" 10.952446 1.629910 0.000004 0.000004 89.999985 0.000000 0.000000 0.000000 0.000004 0.000004 0.000000 0.000000
$definebone "Bone34" "Bone02" 7.711960 1.629910 0.000000 0.000004 89.999985 0.000000 0.000000 0.000000 0.000000 0.000004 0.000000 0.000000
$definebone "Bone26" "Bone02" 4.384083 1.629910 0.000000 0.000004 89.999985 0.000000 -0.000000 0.000000 0.000000 0.000004 0.000000 0.000000
$definebone "Bone49" "Bone02" 4.384081 11.702248 0.000000 0.000004 89.999985 0.000000 0.000000 0.000000 0.000000 0.000004 0.000000 0.000000
$definebone "Bone51" "Bone02" 7.711960 11.702248 0.000004 0.000004 89.999985 0.000000 0.000000 0.000000 0.000000 0.000004 0.000000 0.000000
$definebone "Bone53" "Bone02" 10.952444 11.702250 0.000000 0.000004 89.999985 0.000000 0.000000 0.000000 0.000000 0.000004 0.000000 0.000000
$definebone "Bone55" "Bone02" 14.492668 11.702248 0.000004 0.000004 89.999985 0.000000 0.000001 -0.000004 0.000000 0.000004 0.000000 0.000000
$definebone "Bone24" "Bone02" 10.663872 5.696251 0.000000 0.000001 0.000000 -0.000004 0.000002 -0.000000 0.000000 0.000001 0.000000 -0.000004
$definebone "Bone67" "Bone24" -4.000000 0.558092 0.588501 0.000004 89.999985 0.000000 0.000000 0.000000 0.000000 0.000004 0.000000 0.000000
$definebone "Bone03" "Bone02" 4.270708 1.678819 0.499352 0.000004 90.000038 89.999985 -0.000000 0.000004 0.000000 -0.000000 -0.000004 -0.000001
$definebone "Bone59" "Bone03" 0.008214 0.211796 0.005791 0.000001 89.999992 -89.999985 0.000000 0.000000 0.000000 -0.000002 0.000001 0.000000
$definebone "Bone77" "Bone59" 5.052368 -0.000002 -1.063507 -0.000000 -89.999985 179.999969 0.000000 -0.000004 0.000000 -0.000000 0.000001 0.000002
$definebone "Bone20" "Bone02" 4.270706 1.678821 -0.500648 0.000004 90.000038 89.999985 0.000000 0.000000 0.000000 -0.000000 -0.000004 -0.000001
$definebone "Bone57" "Bone20" 0.008214 -0.210205 0.001682 -0.000001 -89.999977 -89.999985 0.000000 0.000000 -0.000000 -0.000005 -0.000001 -0.000000
$definebone "Bone79" "Bone57" 5.061295 0.000000 1.063506 -0.000000 -89.999985 0.000004 0.000000 0.000000 0.000000 -0.000000 0.000001 0.000004
$definebone "Bone75" "Bone08" -6.888770 0.781317 0.957672 -0.000035 90.000015 180.000000 0.000000 0.000000 0.000004 -0.000001 0.000000 -0.000003

$sequence "idleA" {
	"v_thanatos5_anims\idleA"
	fps 30
	activity "ACT_VM_IDLE" 1
	loop
}
$sequence "idleB" {
	"v_thanatos5_anims\idleB"
	fps 30
	activity "ACT_VM_IDLE_SILENCED" 1
	loop
}
$sequence "shootA1" {
	"v_thanatos5_anims\shootA1"
	{ event 5001 0 "21" }
	fps 30
	activity "ACT_VM_PRIMARYATTACK" 1
	snap
}
$sequence "shootA2" {
	"v_thanatos5_anims\shootA2"
	{ event 5001 0 "21" }
	fps 30
	activity "ACT_VM_PRIMARYATTACK" 1
	snap
}
$sequence "shootA3" {
	"v_thanatos5_anims\shootA3"
	{ event 5001 0 "21" }
	fps 30
	activity "ACT_VM_PRIMARYATTACK" 1
	snap
}
$sequence "shootB1_1" {
	"v_thanatos5_anims\shootB1_1"
	{ event 5001 0 "21" }
	fps 30
	activity "ACT_VM_PRIMARYATTACK_SILENCED" 1
	snap
}
$sequence "shootB1_2" {
	"v_thanatos5_anims\shootB1_2"
	{ event 5001 0 "21" }
	fps 30
	activity "ACT_VM_PRIMARYATTACK_SILENCED" 1
	snap
}
$sequence "shootB1_3" {
	"v_thanatos5_anims\shootB1_3"
	{ event 5001 0 "21" }
	fps 30
	activity "ACT_VM_PRIMARYATTACK_SILENCED" 1
	snap
}
$sequence "shootB2_1" {
	"v_thanatos5_anims\shootB2_1"
	{ event 5001 0 "21" }
	fps 30
	activity "ACT_VM_DETACH_SILENCER" 1
	snap
}
$sequence "reloadA" {
	"v_thanatos5_anims\reloadA"
	{ event 5004 8 "Thanatos5.Clipout" }
	{ event 5004 48 "Thanatos5.Clipin" }
	{ event 5004 66 "Thanatos5.Clipon" }
	fps 30
	activity "ACT_VM_RELOAD" 1
	snap
}
$sequence "reloadB" {
	"v_thanatos5_anims\reloadB"
	{ event 5004 8 "Thanatos5.Clipout" }
	{ event 5004 48 "Thanatos5.Clipin" }
	{ event 5004 66 "Thanatos5.Clipon" }
	fps 30
	activity "ACT_VM_RELOAD_SILENCED" 1
	snap
}
$sequence "changeA" {
	"v_thanatos5_anims\changeA"
	{ event 5004 23 "Thanatos5.Change1" }
	{ event 5004 39 "Thanatos5.Change2" }
	{ event 5004 81 "Thanatos5.Change3" }
	{ event 5004 109 "Thanatos5.Change4" }
	fps 30
	activity "ACT_VM_ATTACH_SILENCER" 1
	snap
}
$sequence "drawA" {
	"v_thanatos5_anims\drawA"
	fps 30
	activity "ACT_VM_DRAW" 1
	snap
}
$sequence "drawB" {
	"v_thanatos5_anims\drawB"
	fps 30
	activity "ACT_VM_DRAW_SILENCED" 1
	snap
}
