version 1
nodes
  0 "Bip01 L Clavicle" -1
  1 "Bip01 L UpperArm" 0
  2 "Bip01 L Forearm" 1
  3 "Bone_root" 2
  4 "Bone_glow5" 3
  5 "Bone_glow6" 3
  6 "Bone_circle" 3
  7 "Bone_circle2" 6
  8 "Bone_circle1" 6
  9 "Bone_circle6" 6
  10 "Bone_circle5" 6
  11 "Bone_circle4" 6
  12 "Bone_circle3" 6
  13 "Bone_glow3" 3
  14 "Bone_glow2" 3
  15 "Bone_reload" 3
  16 "Bone_glow52" 4
  17 "Bone_glow53" 4
  18 "Bone_glow51" 4
  19 "Bone_glow54" 4
  20 "Bone_glow56" 4
  21 "Bone_glow63" 5
  22 "Bone_glow62" 5
  23 "Bone_glow61" 5
  24 "Bone_glow64" 5
  25 "Bone_glow66" 5
  26 "Bone_glow32" 13
  27 "Bone_glow33" 13
  28 "Bone_glow36" 13
  29 "Bone_glow31" 13
  30 "Bone_glow34" 13
  31 "Bone_glow26" 14
  32 "Bone_glow22" 14
  33 "Bone_glow23" 14
  34 "Bone_glow24" 14
  35 "Bone_glow21" 14
  36 "Bone_glow11" 15
  37 "Bone_glow13" 15
  38 "Bone_glow42" 15
  39 "Bone_glow43" 15
  40 "Bone_glow41" 15
  41 "Bone_glow44" 15
  42 "Bip01 R Clavicle" -1
  43 "Bip01 R UpperArm" 42
  44 "Bip01 R Forearm" 43
  45 "Bone_root_R" 44
  46 "Bone_glow5(mirrored)" 45
  47 "Bone_reload_R" 45
  48 "Bone_glow2(mirrored)" 45
  49 "Bone_glow3(mirrored)" 45
  50 "Bone_circle_R" 45
  51 "Bone_circle2(mirrored)" 50
  52 "Bone_circle1(mirrored)" 50
  53 "Bone_circle6(mirrored)" 50
  54 "Bone_circle5(mirrored)" 50
  55 "Bone_circle4(mirrored)" 50
  56 "Bone_circle3(mirrored)" 50
  57 "Bone_glow6(mirrored)" 45
  58 "Bone_glow56(mirrored)" 46
  59 "Bone_glow54(mirrored)" 46
  60 "Bone_glow51(mirrored)" 46
  61 "Bone_glow53(mirrored)" 46
  62 "Bone_glow52(mirrored)" 46
  63 "Bone_glow11(mirrored)" 47
  64 "Bone_glow12(mirrored)" 47
  65 "Bone_glow14(mirrored)" 47
  66 "Bone_glow13(mirrored)" 47
  67 "Bone_glow42(mirrored)" 47
  68 "Bone_glow43(mirrored)" 47
  69 "Bone_glow41(mirrored)" 47
  70 "Bone_glow44(mirrored)" 47
  71 "Bone_glow26(mirrored)" 48
  72 "Bone_glow22(mirrored)" 48
  73 "Bone_glow23(mirrored)" 48
  74 "Bone_glow24(mirrored)" 48
  75 "Bone_glow21(mirrored)" 48
  76 "Bone_glow32(mirrored)" 49
  77 "Bone_glow33(mirrored)" 49
  78 "Bone_glow36(mirrored)" 49
  79 "Bone_glow31(mirrored)" 49
  80 "Bone_glow34(mirrored)" 49
  81 "Bone_glow63(mirrored)" 57
  82 "Bone_glow62(mirrored)" 57
  83 "Bone_glow61(mirrored)" 57
  84 "Bone_glow64(mirrored)" 57
  85 "Bone_glow66(mirrored)" 57
  86 "Bone_locket_L" 3
  87 "Bone_locket_R" 45
  88 "root" -1
  89 "Bone01" 88
  90 "Bone_L_Upper" 89
  91 "Bone_Lefthand" 89
  92 "Bone13" 91
  93 "Bone14" 92
  94 "Bone15" 93
  95 "Bone17" 91
  96 "Bone18" 95
  97 "Bone19" 96
  98 "Bone21" 91
  99 "Bone22" 98
  100 "Bone23" 99
  101 "Bone09" 91
  102 "Bone10" 101
  103 "Bone11" 102
  104 "Bone05" 91
  105 "Bone06" 104
  106 "Bone07" 105
  107 "Bone_Se_Hand-L" 91
  108 "Bone04" 88
  109 "Bone_Righthand" 108
  110 "Bone39" 109
  111 "Bone40" 110
  112 "Bone41" 111
  113 "Bone35" 109
  114 "Bone36" 113
  115 "Bone37" 114
  116 "Bone31" 109
  117 "Bone32" 116
  118 "Bone33" 117
  119 "Bone43" 109
  120 "Bone44" 119
  121 "Bone45" 120
  122 "Bone27" 109
  123 "Bone28" 122
  124 "Bone29" 123
  125 "Bone_Se_Hand-R" 109
  126 "Bone_R_Upper" 108
end
skeleton
  time 0
    0 2.700209 -2.880254 -8.550928 -0.140550 -0.000585 -0.004193
    1 4.065896 0.000000 -0.000002 -0.051939 0.003039 -1.328889
    2 5.727314 0.000000 0.000000 0.000000 0.000000 -0.403722
    3 1.722176 -0.143091 0.002272 -0.015850 0.014830 0.029402
    4 4.167305 -1.758000 -0.096329 1.570796 -2.735176 1.570796
    5 4.167303 -2.082506 -0.130313 -1.570796 1.170555 -1.570797
    6 3.266000 0.000002 2.349527 0.000000 0.000000 0.000000
    7 -0.066254 1.001840 0.682211 1.570797 -0.393450 1.570796
    8 -0.066251 -0.006353 1.086548 -3.141592 -1.570796 0.000000
    9 -0.066253 -0.993147 0.697837 1.570796 -2.748143 1.570796
    10 -0.066253 -1.238041 -0.749170 -1.570796 0.467378 -1.570796
    11 -0.066254 -0.006354 -1.531548 0.000000 1.570796 0.000000
    12 -0.066253 1.246734 -0.749170 -1.570796 2.674214 -1.570796
    13 4.167304 2.019271 -0.118594 1.570796 1.170555 1.570797
    14 4.167304 1.694767 -0.096330 -1.570796 -2.735176 -1.570796
    15 6.397595 0.000001 0.000000 0.000000 0.000000 0.000000
    16 -0.737056 -1.342415 0.669736 0.000000 0.000000 -0.378980
    17 1.065329 -0.552495 -1.712876 -3.141592 0.000000 -0.378982
    18 1.215111 -0.432143 1.555796 0.000000 0.000000 -0.378980
    19 1.447909 -0.484273 1.817302 0.000000 0.000000 0.952071
    20 -0.633725 -2.487024 -1.024671 -3.141592 0.000000 0.952072
    21 -0.219140 -0.585863 -1.686731 3.141592 0.000000 -0.461930
    22 0.313627 -0.134236 -0.025840 0.000000 0.000000 -0.461930
    23 -0.459848 -1.563493 1.504620 -0.000001 -0.000001 -0.461931
    24 3.183642 1.493244 4.380347 -0.000001 0.000001 1.162388
    25 0.142583 1.295621 -2.380212 3.141592 0.000000 1.162389
    26 -0.034778 -0.070758 -0.025842 0.000001 -0.000001 0.461930
    27 1.121578 0.217533 -2.145793 -3.141592 -0.000001 0.461930
    28 0.889240 -0.190571 -1.663447 -3.141592 0.000000 -1.162388
    29 1.121579 0.217529 2.601909 0.000001 -0.000001 0.461930
    30 0.823734 -0.094069 2.527809 0.000001 0.000001 -1.162388
    31 1.379455 -0.578719 -2.319656 3.141592 0.000000 -0.952072
    32 0.487700 1.093261 0.231217 0.000000 0.000000 0.378981
    33 1.336686 0.693575 -2.319656 3.141592 0.000000 0.378981
    34 1.300981 0.016212 2.473366 0.000000 0.000000 -0.952072
    35 1.319679 0.136504 2.316782 0.000000 0.000000 0.378981
    36 0.487517 1.397928 0.774834 0.000000 0.000000 -0.120625
    37 0.554394 0.844083 -1.394056 3.141592 0.000000 -0.120625
    38 0.975382 -2.023273 -1.692827 -3.141592 0.000000 0.120625
    39 0.450589 -2.649830 -0.973398 -3.141592 0.000000 -0.588002
    40 1.536596 -2.336307 0.223213 0.000000 0.000000 0.120625
    41 0.651762 -2.744554 0.615837 0.000000 0.000000 -0.588002
    42 -2.702306 -2.881645 -8.550927 0.140549 -3.141514 0.000477
    43 4.065896 0.000000 0.000000 0.076546 -0.009297 -1.332984
    44 5.727315 0.000000 0.000000 0.000000 0.000000 -0.403739
    45 1.723414 -0.175511 0.195543 3.141592 0.000000 0.037591
    46 4.167301 1.746282 -0.100235 -1.570796 -2.735176 -1.570796
    47 6.370247 0.000001 0.000000 0.000000 0.000000 0.000000
    48 4.167303 -1.702580 -0.096330 -1.570797 -0.406416 -1.570796
    49 4.167303 -2.023175 -0.126407 -1.570796 1.170555 -1.570796
    50 3.265999 -0.000001 2.349528 0.000000 0.000000 0.000000
    51 -0.066253 -1.005746 0.697836 -1.570796 -0.393449 -1.570796
    52 -0.066251 0.006352 1.102173 -3.141592 -1.570796 0.000000
    53 -0.066253 0.997053 0.697836 -1.570796 -2.748143 -1.570796
    54 -0.066253 1.238041 -0.749169 1.570796 0.467378 1.570797
    55 -0.066253 0.006354 -1.531549 0.000000 1.570796 0.000000
    56 -0.066253 -1.246733 -0.749170 -1.570796 0.467378 -1.570796
    57 4.167302 2.074692 -0.110781 1.570796 1.170556 1.570797
    58 1.216876 0.135612 -1.477553 3.141592 0.000000 -0.952072
    59 -1.761256 1.219729 4.203044 0.000000 0.000000 -0.952072
    60 -0.021695 0.770651 4.046457 0.000000 0.000000 0.378979
    61 -1.056089 -0.292325 -2.590041 3.141592 0.000000 0.378982
    62 0.040048 0.326424 0.590632 0.000000 0.000000 0.378979
    63 1.256126 -2.765132 0.524101 0.000000 0.000000 0.120625
    64 0.098153 -2.550985 0.615837 0.000000 0.000000 -0.588002
    65 -0.982940 -1.740619 -0.921683 -3.141592 0.000000 -0.588002
    66 0.599623 -2.115294 -0.577590 -3.141592 0.000000 0.120625
    67 0.208076 2.116280 -1.091202 3.141592 0.000000 -0.120625
    68 1.107038 2.717971 -0.815025 3.141592 0.000000 0.588003
    69 0.724972 2.679563 0.818810 0.000000 0.000000 -0.120623
    70 0.977455 3.062986 0.615837 0.000000 0.000000 0.588002
    71 -0.776410 -0.133204 -2.149397 -3.141592 0.000000 0.952070
    72 -2.184405 -2.030485 0.231215 0.000001 0.000000 -0.378981
    73 -1.614705 -0.850092 -1.977249 -3.141592 0.000000 -0.378982
    74 -0.006206 -0.506666 4.203042 0.000001 0.000000 0.952071
    75 -2.057160 -1.209801 4.046455 0.000001 0.000000 -0.378981
    76 -0.421078 -0.781727 -0.025838 0.000000 0.000000 -0.461930
    77 -0.574623 1.009408 -0.574120 3.141592 0.000000 -0.461930
    78 0.104473 0.378929 -1.228422 -3.141592 0.000000 1.162388
    79 -0.438478 0.430906 3.442117 -0.000001 -0.000001 -0.461931
    80 -1.447742 0.719807 3.671972 -0.000001 0.000001 1.162388
    81 0.160205 0.682918 -1.480127 -3.141592 -0.000001 0.461930
    82 -0.026455 -0.035077 -0.025838 0.000000 0.000000 0.461930
    83 -0.253195 0.528404 2.006952 0.000001 -0.000001 0.461930
    84 0.277656 -0.404937 2.009438 0.000001 0.000001 -1.162388
    85 0.346031 -1.202524 -2.848229 -3.141592 0.000000 -1.162389
    86 5.413674 0.000000 2.349528 1.570796 0.000000 0.000000
    87 5.520185 -0.000004 2.349524 -1.570796 0.000000 0.000000
    88 -0.002752 -1.622408 -8.698865 -0.140555 0.000000 0.000000
    89 7.938968 -7.549683 -0.213832 0.002191 -3.107923 -0.151589
    90 2.741600 8.371948 -0.181058 1.568480 3.142083 1.385645
    91 -0.064108 -8.545613 -0.510396 3.077770 -0.348854 -0.061276
    92 -0.488518 -2.755602 -0.228260 3.242492 0.031269 -0.215078
    93 0.039887 -1.550105 0.072824 3.080321 0.026078 0.046897
    94 0.032692 -1.341364 0.027674 3.137775 0.023442 0.048262
    95 0.250027 -2.820665 -0.238396 3.177825 -0.042470 -0.035145
    96 -0.049759 -1.668825 -0.051869 3.155800 -0.041347 -0.041888
    97 -0.034142 -1.234252 0.084782 3.095853 -0.042162 -0.041059
    98 0.957766 -2.746780 -0.090302 -3.153963 -0.247284 0.135866
    99 -0.033420 -1.428380 -0.034695 3.151284 -0.084312 -0.055657
    100 -0.022360 -1.012125 0.007065 3.141170 -0.085079 -0.054470
    101 -1.180681 -2.507217 -0.193859 3.219374 -0.058614 -0.534075
    102 -0.024967 -1.127840 0.025410 3.118854 -0.076294 -0.050059
    103 -0.020057 -0.863623 0.064779 3.076148 -0.075383 -0.051426
    104 0.657731 -1.123056 0.189285 0.377547 0.335078 2.757212
    105 0.907002 -0.067881 0.047979 0.541268 -0.077504 3.105925
    106 0.671070 -0.018911 0.016666 0.535001 -0.078645 3.116370
    107 0.120153 -0.050270 -0.054489 0.287569 3.110905 1.561085
    108 -8.005380 -7.539924 -0.204414 0.013786 -3.190038 0.159799
    109 0.085225 -8.559797 -0.400002 -3.107463 0.365561 0.038158
    110 0.447953 -2.798986 -0.200443 3.243295 -0.014770 0.208275
    111 -0.032909 -1.472391 0.055723 3.015873 -0.012212 -0.055618
    112 -0.027022 -1.135516 0.042292 -3.007710 -0.003392 -0.056759
    113 -0.249534 -2.846964 -0.174213 3.177907 -0.012062 0.026923
    114 0.043235 -1.687847 0.033510 3.105981 -0.012361 0.036350
    115 0.031729 -1.149111 0.023681 -3.089631 -0.016987 0.027224
    116 -0.963866 -2.785145 -0.085350 3.120762 0.073123 -0.176467
    117 0.028479 -1.457756 -0.013261 3.103721 -0.089022 0.015604
    118 0.021413 -0.957781 -0.019018 3.127447 -0.089093 0.015340
    119 1.164475 -2.543940 -0.170330 3.220681 0.091823 0.517632
    120 0.024032 -1.183731 0.017807 2.991457 0.109539 0.023838
    121 0.014898 -0.891802 0.023122 -3.090104 0.105225 0.038950
    122 -0.586770 -1.264477 0.200161 0.148374 0.421108 -5.840869
    123 1.612682 0.125089 0.016848 -0.048841 0.035459 -3.086641
    124 1.125760 0.028892 -0.005766 -0.043735 0.022033 -2.973140
    125 -0.139399 -0.111698 0.014397 0.285382 -0.030687 1.580508
    126 -2.893516 8.436821 -0.278497 1.581667 -0.009993 -1.377900
  time 1
    0 2.700209 -2.880254 -8.550928 -0.140550 -0.000716 -0.005151
    1 4.065896 0.000000 -0.000002 -0.029294 0.000265 -1.300067
    2 5.727314 0.000000 0.000000 0.000000 0.000000 -0.443033
    3 1.722176 -0.143091 0.002272 -0.015850 0.014830 0.029402
    4 4.167305 -1.758000 -0.096329 1.570796 -2.735176 1.570796
    5 4.167303 -2.082506 -0.130313 -1.570796 1.170555 -1.570797
    6 3.266000 0.000002 2.349527 0.000000 0.000000 0.000000
    7 -0.066254 1.001840 0.682211 1.570797 -0.393450 1.570796
    8 -0.066251 -0.006353 1.086548 -3.141592 -1.570796 0.000000
    9 -0.066253 -0.993147 0.697837 1.570796 -2.748143 1.570796
    10 -0.066253 -1.238041 -0.749170 -1.570796 0.467378 -1.570796
    11 -0.066254 -0.006354 -1.531548 0.000000 1.570796 0.000000
    12 -0.066253 1.246734 -0.749170 1.570796 0.467378 1.570796
    13 4.167304 2.019271 -0.118594 1.570796 1.170555 1.570797
    14 4.167304 1.694767 -0.096330 -1.570796 -2.735176 -1.570796
    15 6.397595 0.000001 0.000000 0.000000 0.000000 0.000000
    16 -0.737056 -1.342415 0.669736 0.000000 0.000000 -0.378980
    17 1.065329 -0.552495 -1.712876 -3.141592 0.000000 -0.378982
    18 1.215111 -0.432143 1.555796 0.000000 0.000000 -0.378980
    19 1.447909 -0.484273 1.817302 0.000000 0.000000 0.952071
    20 -0.633725 -2.487024 -1.024671 -3.141592 0.000000 0.952072
    21 -0.219140 -0.585863 -1.686731 3.141592 0.000000 -0.461930
    22 0.313627 -0.134236 -0.025840 0.000000 0.000000 -0.461930
    23 -0.459848 -1.563493 1.504620 -0.000001 -0.000001 -0.461931
    24 3.183642 1.493244 4.380347 -0.000001 0.000001 1.162388
    25 0.142583 1.295621 -2.380212 3.141592 0.000000 1.162389
    26 -0.034778 -0.070758 -0.025842 0.000001 -0.000001 0.461930
    27 1.121578 0.217533 -2.145793 -3.141592 -0.000001 0.461930
    28 0.889240 -0.190571 -1.663447 -3.141592 0.000000 -1.162388
    29 1.121579 0.217529 2.601909 0.000001 -0.000001 0.461930
    30 0.823734 -0.094069 2.527809 0.000001 0.000001 -1.162388
    31 1.379455 -0.578719 -2.319656 3.141592 0.000000 -0.952072
    32 0.487700 1.093261 0.231217 0.000000 0.000000 0.378981
    33 1.336686 0.693575 -2.319656 3.141592 0.000000 0.378981
    34 1.300981 0.016212 2.473366 0.000000 0.000000 -0.952072
    35 1.319679 0.136504 2.316782 0.000000 0.000000 0.378981
    36 0.487517 1.397928 0.774834 0.000000 0.000000 -0.120625
    37 0.554394 0.844083 -1.394056 3.141592 0.000000 -0.120625
    38 0.975382 -2.023273 -1.692827 -3.141592 0.000000 0.120625
    39 0.450589 -2.649830 -0.973398 -3.141592 0.000000 -0.588002
    40 1.536596 -2.336307 0.223213 0.000000 0.000000 0.120625
    41 0.651762 -2.744554 0.615837 0.000000 0.000000 -0.588002
    42 -2.702306 -2.881645 -8.550927 0.140549 -3.141514 0.000477
    43 4.065896 0.000000 0.000000 0.039419 0.002793 -1.314045
    44 5.727315 0.000000 0.000000 0.000000 0.000000 -0.433819
    45 1.723414 -0.175511 0.195543 3.141592 0.000000 0.037591
    46 4.167301 1.746282 -0.100235 -1.570796 -2.735176 -1.570796
    47 6.370247 0.000001 0.000000 0.000000 0.000000 0.000000
    48 4.167303 -1.702580 -0.096330 -1.570797 -0.406416 -1.570796
    49 4.167303 -2.023175 -0.126407 -1.570796 1.170555 -1.570796
    50 3.265999 -0.000001 2.349528 0.000000 0.000000 0.000000
    51 -0.066253 -1.005746 0.697836 1.570796 -2.748143 1.570796
    52 -0.066251 0.006352 1.102173 -3.141592 -1.570796 0.000000
    53 -0.066253 0.997053 0.697836 -1.570796 -2.748143 -1.570796
    54 -0.066253 1.238041 -0.749169 1.570796 0.467378 1.570797
    55 -0.066253 0.006354 -1.531549 0.000000 1.570796 0.000000
    56 -0.066253 -1.246733 -0.749170 -1.570796 0.467378 -1.570796
    57 4.167302 2.074692 -0.110781 1.570796 1.170556 1.570797
    58 1.216876 0.135612 -1.477553 3.141592 0.000000 -0.952072
    59 -1.761256 1.219729 4.203044 0.000000 0.000000 -0.952072
    60 -0.021695 0.770651 4.046457 0.000000 0.000000 0.378979
    61 -1.056089 -0.292325 -2.590041 3.141592 0.000000 0.378982
    62 0.040048 0.326424 0.590632 0.000000 0.000000 0.378979
    63 1.256126 -2.765132 0.524101 0.000000 0.000000 0.120625
    64 0.098153 -2.550985 0.615837 0.000000 0.000000 -0.588002
    65 -0.982940 -1.740619 -0.921683 -3.141592 0.000000 -0.588002
    66 0.599623 -2.115294 -0.577590 -3.141592 0.000000 0.120625
    67 0.208076 2.116280 -1.091202 3.141592 0.000000 -0.120625
    68 1.107038 2.717971 -0.815025 3.141592 0.000000 0.588003
    69 0.724972 2.679563 0.818810 0.000000 0.000000 -0.120623
    70 0.977455 3.062986 0.615837 0.000000 0.000000 0.588002
    71 -0.776410 -0.133204 -2.149397 -3.141592 0.000000 0.952070
    72 -2.184405 -2.030485 0.231215 0.000001 0.000000 -0.378981
    73 -1.614705 -0.850092 -1.977249 -3.141592 0.000000 -0.378982
    74 -0.006206 -0.506666 4.203042 0.000001 0.000000 0.952071
    75 -2.057160 -1.209801 4.046455 0.000001 0.000000 -0.378981
    76 -0.421078 -0.781727 -0.025838 0.000000 0.000000 -0.461930
    77 -0.574623 1.009408 -0.574120 3.141592 0.000000 -0.461930
    78 0.104473 0.378929 -1.228422 -3.141592 0.000000 1.162388
    79 -0.438478 0.430906 3.442117 -0.000001 -0.000001 -0.461931
    80 -1.447742 0.719807 3.671972 -0.000001 0.000001 1.162388
    81 0.160205 0.682918 -1.480127 -3.141592 -0.000001 0.461930
    82 -0.026455 -0.035077 -0.025838 0.000000 0.000000 0.461930
    83 -0.253195 0.528404 2.006952 0.000001 -0.000001 0.461930
    84 0.277656 -0.404937 2.009438 0.000001 0.000001 -1.162388
    85 0.346031 -1.202524 -2.848229 -3.141592 0.000000 -1.162389
    86 5.413674 0.000000 2.349528 1.570796 0.000000 0.000000
    87 5.520185 -0.000004 2.349524 -1.570796 0.000000 0.000000
    88 -0.002752 -1.622408 -8.698865 -0.140555 0.000000 0.000000
    89 8.091316 -7.510619 -0.202113 6.280325 -3.130341 -0.162930
    90 3.042391 8.258663 -0.188870 1.568001 3.142754 1.346358
    91 -0.064108 -8.541706 -0.510396 3.079389 -0.350626 -0.076520
    92 -0.488518 -2.755602 -0.228260 3.242492 0.031269 -0.215078
    93 0.039887 -1.550105 0.072824 3.080321 0.026078 0.046897
    94 0.032692 -1.341364 0.027674 3.137775 0.023442 0.048262
    95 0.250027 -2.820665 -0.238396 3.177825 -0.042470 -0.035145
    96 -0.049759 -1.668825 -0.051869 3.155800 -0.041347 -0.041888
    97 -0.034142 -1.234252 0.084782 3.095853 -0.042162 -0.041059
    98 0.957766 -2.746780 -0.090302 -3.153963 -0.247284 0.135866
    99 -0.033420 -1.428380 -0.034695 3.151284 -0.084312 -0.055657
    100 -0.022360 -1.012125 0.007065 3.141170 -0.085079 -0.054470
    101 -1.180681 -2.507217 -0.193859 3.219374 -0.058614 -0.534075
    102 -0.024967 -1.127840 0.025410 3.118854 -0.076294 -0.050059
    103 -0.020057 -0.863623 0.064779 3.076148 -0.075383 -0.051426
    104 0.657731 -1.123056 0.189285 0.377547 0.335078 2.757212
    105 0.907002 -0.067881 0.047979 0.541268 -0.077504 3.105925
    106 0.671070 -0.018911 0.016666 0.535001 -0.078645 3.116370
    107 0.120153 -0.050270 -0.054489 0.287569 3.110905 1.561085
    108 -8.106946 -7.512579 -0.138006 0.011632 -3.150573 0.171052
    109 0.085225 -8.559797 -0.400002 -3.111222 0.365155 0.048716
    110 0.447953 -2.798986 -0.200443 3.243295 -0.014770 0.208275
    111 -0.032909 -1.472391 0.055723 3.015873 -0.012212 -0.055618
    112 -0.027022 -1.135516 0.042292 -3.007710 -0.003392 -0.056759
    113 -0.249534 -2.846964 -0.174213 3.177907 -0.012062 0.026923
    114 0.043235 -1.687847 0.033510 3.105981 -0.012361 0.036350
    115 0.031729 -1.149111 0.023681 -3.089631 -0.016987 0.027224
    116 -0.963866 -2.785145 -0.085350 3.120762 0.073123 -0.176467
    117 0.028479 -1.457756 -0.013261 3.103721 -0.089022 0.015604
    118 0.021413 -0.957781 -0.019018 3.127447 -0.089093 0.015340
    119 1.164475 -2.543940 -0.170330 3.220681 0.091823 0.517632
    120 0.024032 -1.183731 0.017807 2.991457 0.109539 0.023838
    121 0.014898 -0.891802 0.023122 -3.090104 0.105225 0.038950
    122 -0.586770 -1.264477 0.200161 0.148374 0.421108 -5.840869
    123 1.612682 0.125089 0.016848 -0.048841 0.035459 -3.086641
    124 1.125760 0.028892 -0.005766 -0.043735 0.022033 -2.973140
    125 -0.139399 -0.111698 0.014397 0.285382 -0.030687 1.580508
    126 -3.123992 8.346975 -0.286309 1.581667 -0.010757 -1.347779
  time 2
    0 2.700209 -2.880254 -8.550928 -0.140550 -0.000644 -0.004644
    1 4.065896 0.000000 -0.000002 -0.052068 0.006894 -1.293605
    2 5.727314 0.000000 0.000000 0.000000 0.000000 -0.452445
    3 1.722176 -0.143091 0.002272 -0.015850 0.014830 0.029402
    4 4.167305 -1.758000 -0.096329 1.570796 -2.735176 1.570796
    5 4.167303 -2.082506 -0.130313 -1.570796 1.170555 -1.570797
    6 3.266000 0.000002 2.349527 0.000000 0.000000 0.000000
    7 -0.066254 1.001840 0.682211 1.570797 -0.393450 1.570796
    8 -0.066251 -0.006353 1.086548 -3.141592 -1.570796 0.000000
    9 -0.066253 -0.993147 0.697837 -1.570700 -0.393449 -1.570700
    10 -0.066253 -1.238041 -0.749170 -1.570796 0.467378 -1.570796
    11 -0.066254 -0.006354 -1.531548 0.000000 1.570796 0.000000
    12 -0.066253 1.246734 -0.749170 1.570796 0.467378 1.570796
    13 4.167304 2.019271 -0.118594 1.570796 1.170555 1.570797
    14 4.167304 1.694767 -0.096330 -1.570796 -2.735176 -1.570796
    15 6.397595 0.000001 0.000000 0.000000 0.000000 0.000000
    16 -0.737056 -1.342415 0.669736 0.000000 0.000000 -0.378980
    17 1.065329 -0.552495 -1.712876 -3.141592 0.000000 -0.378982
    18 1.215111 -0.432143 1.555796 0.000000 0.000000 -0.378980
    19 1.447909 -0.484273 1.817302 0.000000 0.000000 0.952071
    20 -0.633725 -2.487024 -1.024671 -3.141592 0.000000 0.952072
    21 -0.219140 -0.585863 -1.686731 3.141592 0.000000 -0.461930
    22 0.313627 -0.134236 -0.025840 0.000000 0.000000 -0.461930
    23 -0.459848 -1.563493 1.504620 -0.000001 -0.000001 -0.461931
    24 3.183642 1.493244 4.380347 -0.000001 0.000001 1.162388
    25 0.142583 1.295621 -2.380212 3.141592 0.000000 1.162389
    26 -0.034778 -0.070758 -0.025842 0.000001 -0.000001 0.461930
    27 1.121578 0.217533 -2.145793 -3.141592 -0.000001 0.461930
    28 0.889240 -0.190571 -1.663447 -3.141592 0.000000 -1.162388
    29 1.121579 0.217529 2.601909 0.000001 -0.000001 0.461930
    30 0.823734 -0.094069 2.527809 0.000001 0.000001 -1.162388
    31 1.379455 -0.578719 -2.319656 3.141592 0.000000 -0.952072
    32 0.487700 1.093261 0.231217 0.000000 0.000000 0.378981
    33 1.336686 0.693575 -2.319656 3.141592 0.000000 0.378981
    34 1.300981 0.016212 2.473366 0.000000 0.000000 -0.952072
    35 1.319679 0.136504 2.316782 0.000000 0.000000 0.378981
    36 0.487517 1.397928 0.774834 0.000000 0.000000 -0.120625
    37 0.554394 0.844083 -1.394056 3.141592 0.000000 -0.120625
    38 0.975382 -2.023273 -1.692827 -3.141592 0.000000 0.120625
    39 0.450589 -2.649830 -0.973398 -3.141592 0.000000 -0.588002
    40 1.536596 -2.336307 0.223213 0.000000 0.000000 0.120625
    41 0.651762 -2.744554 0.615837 0.000000 0.000000 -0.588002
    42 -2.702306 -2.881645 -8.550927 0.140549 -3.141514 0.000477
    43 4.065896 0.000000 0.000000 0.077301 -0.007384 -1.312581
    44 5.727315 0.000000 0.000000 0.000000 0.000000 -0.437248
    45 1.723414 -0.175511 0.195543 3.141592 0.000000 0.037591
    46 4.167301 1.746282 -0.100235 -1.570796 -2.735176 -1.570796
    47 6.370247 0.000001 0.000000 0.000000 0.000000 0.000000
    48 4.167303 -1.702580 -0.096330 -1.570797 -0.406416 -1.570796
    49 4.167303 -2.023175 -0.126407 -1.570796 1.170555 -1.570796
    50 3.265999 -0.000001 2.349528 0.000000 0.000000 0.000000
    51 -0.066253 -1.005746 0.697836 1.570796 -2.748143 1.570796
    52 -0.066251 0.006352 1.102173 -3.141592 -1.570796 0.000000
    53 -0.066253 0.997053 0.697836 -1.570796 -2.748143 -1.570796
    54 -0.066253 1.238041 -0.749169 1.570796 0.467378 1.570797
    55 -0.066253 0.006354 -1.531549 0.000000 1.570796 0.000000
    56 -0.066253 -1.246733 -0.749170 -1.570796 0.467378 -1.570796
    57 4.167302 2.074692 -0.110781 1.570796 1.170556 1.570797
    58 1.216876 0.135612 -1.477553 3.141592 0.000000 -0.952072
    59 -1.761256 1.219729 4.203044 0.000000 0.000000 -0.952072
    60 -0.021695 0.770651 4.046457 0.000000 0.000000 0.378979
    61 -1.056089 -0.292325 -2.590041 3.141592 0.000000 0.378982
    62 0.040048 0.326424 0.590632 0.000000 0.000000 0.378979
    63 1.256126 -2.765132 0.524101 0.000000 0.000000 0.120625
    64 0.098153 -2.550985 0.615837 0.000000 0.000000 -0.588002
    65 -0.982940 -1.740619 -0.921683 -3.141592 0.000000 -0.588002
    66 0.599623 -2.115294 -0.577590 -3.141592 0.000000 0.120625
    67 0.208076 2.116280 -1.091202 3.141592 0.000000 -0.120625
    68 1.107038 2.717971 -0.815025 3.141592 0.000000 0.588003
    69 0.724972 2.679563 0.818810 0.000000 0.000000 -0.120623
    70 0.977455 3.062986 0.615837 0.000000 0.000000 0.588002
    71 -0.776410 -0.133204 -2.149397 -3.141592 0.000000 0.952070
    72 -2.184405 -2.030485 0.231215 0.000001 0.000000 -0.378981
    73 -1.614705 -0.850092 -1.977249 -3.141592 0.000000 -0.378982
    74 -0.006206 -0.506666 4.203042 0.000001 0.000000 0.952071
    75 -2.057160 -1.209801 4.046455 0.000001 0.000000 -0.378981
    76 -0.421078 -0.781727 -0.025838 0.000000 0.000000 -0.461930
    77 -0.574623 1.009408 -0.574120 3.141592 0.000000 -0.461930
    78 0.104473 0.378929 -1.228422 -3.141592 0.000000 1.162388
    79 -0.438478 0.430906 3.442117 -0.000001 -0.000001 -0.461931
    80 -1.447742 0.719807 3.671972 -0.000001 0.000001 1.162388
    81 0.160205 0.682918 -1.480127 -3.141592 -0.000001 0.461930
    82 -0.026455 -0.035077 -0.025838 0.000000 0.000000 0.461930
    83 -0.253195 0.528404 2.006952 0.000001 -0.000001 0.461930
    84 0.277656 -0.404937 2.009438 0.000001 0.000001 -1.162388
    85 0.346031 -1.202524 -2.848229 -3.141592 0.000000 -1.162389
    86 5.413674 0.000000 2.349528 1.570796 0.000000 0.000000
    87 5.520185 -0.000004 2.349524 -1.570796 0.000000 0.000000
    88 -0.002752 -1.622408 -8.698865 -0.140555 0.000000 0.000000
    89 8.122567 -7.498900 -0.237270 0.001040 -3.107060 -0.165434
    90 3.112705 8.227412 -0.188870 1.567905 3.142946 1.336918
    91 -0.064108 -8.541706 -0.510396 3.079675 -0.349652 -0.077168
    92 -0.488518 -2.755602 -0.228260 3.242492 0.031269 -0.215078
    93 0.039887 -1.550105 0.072824 3.080321 0.026078 0.046897
    94 0.032692 -1.341364 0.027674 3.137775 0.023442 0.048262
    95 0.250027 -2.820665 -0.238396 3.177825 -0.042470 -0.035145
    96 -0.049759 -1.668825 -0.051869 3.155800 -0.041347 -0.041888
    97 -0.034142 -1.234252 0.084782 3.095853 -0.042162 -0.041059
    98 0.957766 -2.746780 -0.090302 -3.153963 -0.247284 0.135866
    99 -0.033420 -1.428380 -0.034695 3.151284 -0.084312 -0.055657
    100 -0.022360 -1.012125 0.007065 3.141170 -0.085079 -0.054470
    101 -1.180681 -2.507217 -0.193859 3.219374 -0.058614 -0.534075
    102 -0.024967 -1.127840 0.025410 3.118854 -0.076294 -0.050059
    103 -0.020057 -0.863623 0.064779 3.076148 -0.075383 -0.051426
    104 0.657731 -1.123056 0.189285 0.377547 0.335078 2.757212
    105 0.907002 -0.067881 0.047979 0.541268 -0.077504 3.105925
    106 0.671070 -0.018911 0.016666 0.535001 -0.078645 3.116370
    107 0.120153 -0.050270 -0.054489 0.287569 3.110905 1.561085
    108 -8.106946 -7.512579 -0.188789 0.018301 -3.189187 0.173061
    109 0.085225 -8.559797 -0.400002 -3.111692 0.365095 0.049915
    110 0.447953 -2.798986 -0.200443 3.243295 -0.014770 0.208275
    111 -0.032909 -1.472391 0.055723 3.015873 -0.012212 -0.055618
    112 -0.027022 -1.135516 0.042292 -3.007710 -0.003392 -0.056759
    113 -0.249534 -2.846964 -0.174213 3.177907 -0.012062 0.026923
    114 0.043235 -1.687847 0.033510 3.105981 -0.012361 0.036350
    115 0.031729 -1.149111 0.023681 -3.089631 -0.016987 0.027224
    116 -0.963866 -2.785145 -0.085350 3.120762 0.073123 -0.176467
    117 0.028479 -1.457756 -0.013261 3.103721 -0.089022 0.015604
    118 0.021413 -0.957781 -0.019018 3.127447 -0.089093 0.015340
    119 1.164475 -2.543940 -0.170330 3.220681 0.091823 0.517632
    120 0.024032 -1.183731 0.017807 2.991457 0.109539 0.023838
    121 0.014898 -0.891802 0.023122 -3.090104 0.105225 0.038950
    122 -0.586770 -1.264477 0.200161 0.148374 0.421108 -5.840869
    123 1.612682 0.125089 0.016848 -0.048841 0.035459 -3.086641
    124 1.125760 0.028892 -0.005766 -0.043735 0.022033 -2.973140
    125 -0.139399 -0.111698 0.014397 0.285382 -0.030687 1.580508
    126 -3.151336 8.335256 -0.286309 1.581667 -0.010853 -1.344337
  time 3
    0 2.700209 -2.880254 -8.550928 -0.140550 -0.000716 -0.005151
    1 4.065896 0.000000 -0.000002 -0.029294 0.000265 -1.300067
    2 5.727314 0.000000 0.000000 0.000000 0.000000 -0.443033
    3 1.722176 -0.143091 0.002272 -0.015850 0.014830 0.029402
    4 4.167305 -1.758000 -0.096329 1.570796 -2.735176 1.570796
    5 4.167303 -2.082506 -0.130313 -1.570796 1.170555 -1.570797
    6 3.266000 0.000002 2.349527 0.000000 0.000000 0.000000
    7 -0.066254 1.001840 0.682211 1.570797 -0.393450 1.570796
    8 -0.066251 -0.006353 1.086548 -3.141592 -1.570796 0.000000
    9 -0.066253 -0.993147 0.697837 1.570796 -2.748143 1.570796
    10 -0.066253 -1.238041 -0.749170 -1.570796 0.467378 -1.570796
    11 -0.066254 -0.006354 -1.531548 0.000000 1.570796 0.000000
    12 -0.066253 1.246734 -0.749170 1.570796 0.467378 1.570796
    13 4.167304 2.019271 -0.118594 1.570796 1.170555 1.570797
    14 4.167304 1.694767 -0.096330 -1.570796 -2.735176 -1.570796
    15 6.397595 0.000001 0.000000 0.000000 0.000000 0.000000
    16 -0.737056 -1.342415 0.669736 0.000000 0.000000 -0.378980
    17 1.065329 -0.552495 -1.712876 -3.141592 0.000000 -0.378982
    18 1.215111 -0.432143 1.555796 0.000000 0.000000 -0.378980
    19 1.447909 -0.484273 1.817302 0.000000 0.000000 0.952071
    20 -0.633725 -2.487024 -1.024671 -3.141592 0.000000 0.952072
    21 -0.219140 -0.585863 -1.686731 3.141592 0.000000 -0.461930
    22 0.313627 -0.134236 -0.025840 0.000000 0.000000 -0.461930
    23 -0.459848 -1.563493 1.504620 -0.000001 -0.000001 -0.461931
    24 3.183642 1.493244 4.380347 -0.000001 0.000001 1.162388
    25 0.142583 1.295621 -2.380212 3.141592 0.000000 1.162389
    26 -0.034778 -0.070758 -0.025842 0.000001 -0.000001 0.461930
    27 1.121578 0.217533 -2.145793 -3.141592 -0.000001 0.461930
    28 0.889240 -0.190571 -1.663447 -3.141592 0.000000 -1.162388
    29 1.121579 0.217529 2.601909 0.000001 -0.000001 0.461930
    30 0.823734 -0.094069 2.527809 0.000001 0.000001 -1.162388
    31 1.379455 -0.578719 -2.319656 3.141592 0.000000 -0.952072
    32 0.487700 1.093261 0.231217 0.000000 0.000000 0.378981
    33 1.336686 0.693575 -2.319656 3.141592 0.000000 0.378981
    34 1.300981 0.016212 2.473366 0.000000 0.000000 -0.952072
    35 1.319679 0.136504 2.316782 0.000000 0.000000 0.378981
    36 0.487517 1.397928 0.774834 0.000000 0.000000 -0.120625
    37 0.554394 0.844083 -1.394056 3.141592 0.000000 -0.120625
    38 0.975382 -2.023273 -1.692827 -3.141592 0.000000 0.120625
    39 0.450589 -2.649830 -0.973398 -3.141592 0.000000 -0.588002
    40 1.536596 -2.336307 0.223213 0.000000 0.000000 0.120625
    41 0.651762 -2.744554 0.615837 0.000000 0.000000 -0.588002
    42 -2.702306 -2.881645 -8.550927 0.140549 -3.141514 0.000477
    43 4.065896 0.000000 0.000000 0.039419 0.002793 -1.314045
    44 5.727315 0.000000 0.000000 0.000000 0.000000 -0.433819
    45 1.723414 -0.175511 0.195543 3.141592 0.000000 0.037591
    46 4.167301 1.746282 -0.100235 -1.570796 -2.735176 -1.570796
    47 6.370247 0.000001 0.000000 0.000000 0.000000 0.000000
    48 4.167303 -1.702580 -0.096330 -1.570797 -0.406416 -1.570796
    49 4.167303 -2.023175 -0.126407 -1.570796 1.170555 -1.570796
    50 3.265999 -0.000001 2.349528 0.000000 0.000000 0.000000
    51 -0.066253 -1.005746 0.697836 1.570796 -2.748143 1.570796
    52 -0.066251 0.006352 1.102173 -3.141592 -1.570796 0.000000
    53 -0.066253 0.997053 0.697836 -1.570796 -2.748143 -1.570796
    54 -0.066253 1.238041 -0.749169 1.570796 0.467378 1.570797
    55 -0.066253 0.006354 -1.531549 0.000000 1.570796 0.000000
    56 -0.066253 -1.246733 -0.749170 -1.570796 0.467378 -1.570796
    57 4.167302 2.074692 -0.110781 1.570796 1.170556 1.570797
    58 1.216876 0.135612 -1.477553 3.141592 0.000000 -0.952072
    59 -1.761256 1.219729 4.203044 0.000000 0.000000 -0.952072
    60 -0.021695 0.770651 4.046457 0.000000 0.000000 0.378979
    61 -1.056089 -0.292325 -2.590041 3.141592 0.000000 0.378982
    62 0.040048 0.326424 0.590632 0.000000 0.000000 0.378979
    63 1.256126 -2.765132 0.524101 0.000000 0.000000 0.120625
    64 0.098153 -2.550985 0.615837 0.000000 0.000000 -0.588002
    65 -0.982940 -1.740619 -0.921683 -3.141592 0.000000 -0.588002
    66 0.599623 -2.115294 -0.577590 -3.141592 0.000000 0.120625
    67 0.208076 2.116280 -1.091202 3.141592 0.000000 -0.120625
    68 1.107038 2.717971 -0.815025 3.141592 0.000000 0.588003
    69 0.724972 2.679563 0.818810 0.000000 0.000000 -0.120623
    70 0.977455 3.062986 0.615837 0.000000 0.000000 0.588002
    71 -0.776410 -0.133204 -2.149397 -3.141592 0.000000 0.952070
    72 -2.184405 -2.030485 0.231215 0.000001 0.000000 -0.378981
    73 -1.614705 -0.850092 -1.977249 -3.141592 0.000000 -0.378982
    74 -0.006206 -0.506666 4.203042 0.000001 0.000000 0.952071
    75 -2.057160 -1.209801 4.046455 0.000001 0.000000 -0.378981
    76 -0.421078 -0.781727 -0.025838 0.000000 0.000000 -0.461930
    77 -0.574623 1.009408 -0.574120 3.141592 0.000000 -0.461930
    78 0.104473 0.378929 -1.228422 -3.141592 0.000000 1.162388
    79 -0.438478 0.430906 3.442117 -0.000001 -0.000001 -0.461931
    80 -1.447742 0.719807 3.671972 -0.000001 0.000001 1.162388
    81 0.160205 0.682918 -1.480127 -3.141592 -0.000001 0.461930
    82 -0.026455 -0.035077 -0.025838 0.000000 0.000000 0.461930
    83 -0.253195 0.528404 2.006952 0.000001 -0.000001 0.461930
    84 0.277656 -0.404937 2.009438 0.000001 0.000001 -1.162388
    85 0.346031 -1.202524 -2.848229 -3.141592 0.000000 -1.162389
    86 5.413674 0.000000 2.349528 1.570796 0.000000 0.000000
    87 5.520185 -0.000004 2.349524 -1.570796 0.000000 0.000000
    88 -0.002752 -1.622408 -8.698865 -0.140555 0.000000 0.000000
    89 8.091316 -7.510619 -0.202113 6.280325 -3.130341 -0.162930
    90 3.042391 8.258663 -0.188870 1.568001 3.142754 1.346358
    91 -0.064108 -8.541706 -0.510396 3.079389 -0.350626 -0.076520
    92 -0.488518 -2.755602 -0.228260 3.242492 0.031269 -0.215078
    93 0.039887 -1.550105 0.072824 3.080321 0.026078 0.046897
    94 0.032692 -1.341364 0.027674 3.137775 0.023442 0.048262
    95 0.250027 -2.820665 -0.238396 3.177825 -0.042470 -0.035145
    96 -0.049759 -1.668825 -0.051869 3.155800 -0.041347 -0.041888
    97 -0.034142 -1.234252 0.084782 3.095853 -0.042162 -0.041059
    98 0.957766 -2.746780 -0.090302 -3.153963 -0.247284 0.135866
    99 -0.033420 -1.428380 -0.034695 3.151284 -0.084312 -0.055657
    100 -0.022360 -1.012125 0.007065 3.141170 -0.085079 -0.054470
    101 -1.180681 -2.507217 -0.193859 3.219374 -0.058614 -0.534075
    102 -0.024967 -1.127840 0.025410 3.118854 -0.076294 -0.050059
    103 -0.020057 -0.863623 0.064779 3.076148 -0.075383 -0.051426
    104 0.657731 -1.123056 0.189285 0.377547 0.335078 2.757212
    105 0.907002 -0.067881 0.047979 0.541268 -0.077504 3.105925
    106 0.671070 -0.018911 0.016666 0.535001 -0.078645 3.116370
    107 0.120153 -0.050270 -0.054489 0.287569 3.110905 1.561085
    108 -8.106946 -7.512579 -0.138006 0.011632 -3.150573 0.171052
    109 0.085225 -8.559797 -0.400002 -3.111222 0.365155 0.048716
    110 0.447953 -2.798986 -0.200443 3.243295 -0.014770 0.208275
    111 -0.032909 -1.472391 0.055723 3.015873 -0.012212 -0.055618
    112 -0.027022 -1.135516 0.042292 -3.007710 -0.003392 -0.056759
    113 -0.249534 -2.846964 -0.174213 3.177907 -0.012062 0.026923
    114 0.043235 -1.687847 0.033510 3.105981 -0.012361 0.036350
    115 0.031729 -1.149111 0.023681 -3.089631 -0.016987 0.027224
    116 -0.963866 -2.785145 -0.085350 3.120762 0.073123 -0.176467
    117 0.028479 -1.457756 -0.013261 3.103721 -0.089022 0.015604
    118 0.021413 -0.957781 -0.019018 3.127447 -0.089093 0.015340
    119 1.164475 -2.543940 -0.170330 3.220681 0.091823 0.517632
    120 0.024032 -1.183731 0.017807 2.991457 0.109539 0.023838
    121 0.014898 -0.891802 0.023122 -3.090104 0.105225 0.038950
    122 -0.586770 -1.264477 0.200161 0.148374 0.421108 -5.840869
    123 1.612682 0.125089 0.016848 -0.048841 0.035459 -3.086641
    124 1.125760 0.028892 -0.005766 -0.043735 0.022033 -2.973140
    125 -0.139399 -0.111698 0.014397 0.285382 -0.030687 1.580508
    126 -3.123992 8.346975 -0.286309 1.581667 -0.010757 -1.347779
  time 4
    0 2.700209 -2.880254 -8.550928 -0.140550 -0.000644 -0.004644
    1 4.065896 0.000000 -0.000002 -0.052068 0.006894 -1.293605
    2 5.727314 0.000000 0.000000 0.000000 0.000000 -0.452445
    3 1.722176 -0.143091 0.002272 -0.015850 0.014830 0.029402
    4 4.167305 -1.758000 -0.096329 1.570796 -2.735176 1.570796
    5 4.167303 -2.082506 -0.130313 -1.570796 1.170555 -1.570797
    6 3.266000 0.000002 2.349527 0.000000 0.000000 0.000000
    7 -0.066254 1.001840 0.682211 1.570797 -0.393450 1.570796
    8 -0.066251 -0.006353 1.086548 -3.141592 -1.570796 0.000000
    9 -0.066253 -0.993147 0.697837 -1.570700 -0.393449 -1.570700
    10 -0.066253 -1.238041 -0.749170 -1.570796 0.467378 -1.570796
    11 -0.066254 -0.006354 -1.531548 0.000000 1.570796 0.000000
    12 -0.066253 1.246734 -0.749170 1.570796 0.467378 1.570796
    13 4.167304 2.019271 -0.118594 1.570796 1.170555 1.570797
    14 4.167304 1.694767 -0.096330 -1.570796 -2.735176 -1.570796
    15 6.397595 0.000001 0.000000 0.000000 0.000000 0.000000
    16 -0.737056 -1.342415 0.669736 0.000000 0.000000 -0.378980
    17 1.065329 -0.552495 -1.712876 -3.141592 0.000000 -0.378982
    18 1.215111 -0.432143 1.555796 0.000000 0.000000 -0.378980
    19 1.447909 -0.484273 1.817302 0.000000 0.000000 0.952071
    20 -0.633725 -2.487024 -1.024671 -3.141592 0.000000 0.952072
    21 -0.219140 -0.585863 -1.686731 3.141592 0.000000 -0.461930
    22 0.313627 -0.134236 -0.025840 0.000000 0.000000 -0.461930
    23 -0.459848 -1.563493 1.504620 -0.000001 -0.000001 -0.461931
    24 3.183642 1.493244 4.380347 -0.000001 0.000001 1.162388
    25 0.142583 1.295621 -2.380212 3.141592 0.000000 1.162389
    26 -0.034778 -0.070758 -0.025842 0.000001 -0.000001 0.461930
    27 1.121578 0.217533 -2.145793 -3.141592 -0.000001 0.461930
    28 0.889240 -0.190571 -1.663447 -3.141592 0.000000 -1.162388
    29 1.121579 0.217529 2.601909 0.000001 -0.000001 0.461930
    30 0.823734 -0.094069 2.527809 0.000001 0.000001 -1.162388
    31 1.379455 -0.578719 -2.319656 3.141592 0.000000 -0.952072
    32 0.487700 1.093261 0.231217 0.000000 0.000000 0.378981
    33 1.336686 0.693575 -2.319656 3.141592 0.000000 0.378981
    34 1.300981 0.016212 2.473366 0.000000 0.000000 -0.952072
    35 1.319679 0.136504 2.316782 0.000000 0.000000 0.378981
    36 0.487517 1.397928 0.774834 0.000000 0.000000 -0.120625
    37 0.554394 0.844083 -1.394056 3.141592 0.000000 -0.120625
    38 0.975382 -2.023273 -1.692827 -3.141592 0.000000 0.120625
    39 0.450589 -2.649830 -0.973398 -3.141592 0.000000 -0.588002
    40 1.536596 -2.336307 0.223213 0.000000 0.000000 0.120625
    41 0.651762 -2.744554 0.615837 0.000000 0.000000 -0.588002
    42 -2.702306 -2.881645 -8.550927 0.140549 -3.141514 0.000477
    43 4.065896 0.000000 0.000000 0.077301 -0.007384 -1.312581
    44 5.727315 0.000000 0.000000 0.000000 0.000000 -0.437248
    45 1.723414 -0.175511 0.195543 3.141592 0.000000 0.037591
    46 4.167301 1.746282 -0.100235 -1.570796 -2.735176 -1.570796
    47 6.370247 0.000001 0.000000 0.000000 0.000000 0.000000
    48 4.167303 -1.702580 -0.096330 -1.570797 -0.406416 -1.570796
    49 4.167303 -2.023175 -0.126407 -1.570796 1.170555 -1.570796
    50 3.265999 -0.000001 2.349528 0.000000 0.000000 0.000000
    51 -0.066253 -1.005746 0.697836 1.570796 -2.748143 1.570796
    52 -0.066251 0.006352 1.102173 -3.141592 -1.570796 0.000000
    53 -0.066253 0.997053 0.697836 -1.570796 -2.748143 -1.570796
    54 -0.066253 1.238041 -0.749169 1.570796 0.467378 1.570797
    55 -0.066253 0.006354 -1.531549 0.000000 1.570796 0.000000
    56 -0.066253 -1.246733 -0.749170 -1.570796 0.467378 -1.570796
    57 4.167302 2.074692 -0.110781 1.570796 1.170556 1.570797
    58 1.216876 0.135612 -1.477553 3.141592 0.000000 -0.952072
    59 -1.761256 1.219729 4.203044 0.000000 0.000000 -0.952072
    60 -0.021695 0.770651 4.046457 0.000000 0.000000 0.378979
    61 -1.056089 -0.292325 -2.590041 3.141592 0.000000 0.378982
    62 0.040048 0.326424 0.590632 0.000000 0.000000 0.378979
    63 1.256126 -2.765132 0.524101 0.000000 0.000000 0.120625
    64 0.098153 -2.550985 0.615837 0.000000 0.000000 -0.588002
    65 -0.982940 -1.740619 -0.921683 -3.141592 0.000000 -0.588002
    66 0.599623 -2.115294 -0.577590 -3.141592 0.000000 0.120625
    67 0.208076 2.116280 -1.091202 3.141592 0.000000 -0.120625
    68 1.107038 2.717971 -0.815025 3.141592 0.000000 0.588003
    69 0.724972 2.679563 0.818810 0.000000 0.000000 -0.120623
    70 0.977455 3.062986 0.615837 0.000000 0.000000 0.588002
    71 -0.776410 -0.133204 -2.149397 -3.141592 0.000000 0.952070
    72 -2.184405 -2.030485 0.231215 0.000001 0.000000 -0.378981
    73 -1.614705 -0.850092 -1.977249 -3.141592 0.000000 -0.378982
    74 -0.006206 -0.506666 4.203042 0.000001 0.000000 0.952071
    75 -2.057160 -1.209801 4.046455 0.000001 0.000000 -0.378981
    76 -0.421078 -0.781727 -0.025838 0.000000 0.000000 -0.461930
    77 -0.574623 1.009408 -0.574120 3.141592 0.000000 -0.461930
    78 0.104473 0.378929 -1.228422 -3.141592 0.000000 1.162388
    79 -0.438478 0.430906 3.442117 -0.000001 -0.000001 -0.461931
    80 -1.447742 0.719807 3.671972 -0.000001 0.000001 1.162388
    81 0.160205 0.682918 -1.480127 -3.141592 -0.000001 0.461930
    82 -0.026455 -0.035077 -0.025838 0.000000 0.000000 0.461930
    83 -0.253195 0.528404 2.006952 0.000001 -0.000001 0.461930
    84 0.277656 -0.404937 2.009438 0.000001 0.000001 -1.162388
    85 0.346031 -1.202524 -2.848229 -3.141592 0.000000 -1.162389
    86 5.413674 0.000000 2.349528 1.570796 0.000000 0.000000
    87 5.520185 -0.000004 2.349524 -1.570796 0.000000 0.000000
    88 -0.002752 -1.622408 -8.698865 -0.140555 0.000000 0.000000
    89 8.122567 -7.498900 -0.237270 0.001040 -3.107060 -0.165434
    90 3.112705 8.227412 -0.188870 1.567905 3.142946 1.336918
    91 -0.064108 -8.541706 -0.510396 3.079675 -0.349652 -0.077168
    92 -0.488518 -2.755602 -0.228260 3.242492 0.031269 -0.215078
    93 0.039887 -1.550105 0.072824 3.080321 0.026078 0.046897
    94 0.032692 -1.341364 0.027674 3.137775 0.023442 0.048262
    95 0.250027 -2.820665 -0.238396 3.177825 -0.042470 -0.035145
    96 -0.049759 -1.668825 -0.051869 3.155800 -0.041347 -0.041888
    97 -0.034142 -1.234252 0.084782 3.095853 -0.042162 -0.041059
    98 0.957766 -2.746780 -0.090302 -3.153963 -0.247284 0.135866
    99 -0.033420 -1.428380 -0.034695 3.151284 -0.084312 -0.055657
    100 -0.022360 -1.012125 0.007065 3.141170 -0.085079 -0.054470
    101 -1.180681 -2.507217 -0.193859 3.219374 -0.058614 -0.534075
    102 -0.024967 -1.127840 0.025410 3.118854 -0.076294 -0.050059
    103 -0.020057 -0.863623 0.064779 3.076148 -0.075383 -0.051426
    104 0.657731 -1.123056 0.189285 0.377547 0.335078 2.757212
    105 0.907002 -0.067881 0.047979 0.541268 -0.077504 3.105925
    106 0.671070 -0.018911 0.016666 0.535001 -0.078645 3.116370
    107 0.120153 -0.050270 -0.054489 0.287569 3.110905 1.561085
    108 -8.106946 -7.512579 -0.188789 0.018301 -3.189187 0.173061
    109 0.085225 -8.559797 -0.400002 -3.111692 0.365095 0.049915
    110 0.447953 -2.798986 -0.200443 3.243295 -0.014770 0.208275
    111 -0.032909 -1.472391 0.055723 3.015873 -0.012212 -0.055618
    112 -0.027022 -1.135516 0.042292 -3.007710 -0.003392 -0.056759
    113 -0.249534 -2.846964 -0.174213 3.177907 -0.012062 0.026923
    114 0.043235 -1.687847 0.033510 3.105981 -0.012361 0.036350
    115 0.031729 -1.149111 0.023681 -3.089631 -0.016987 0.027224
    116 -0.963866 -2.785145 -0.085350 3.120762 0.073123 -0.176467
    117 0.028479 -1.457756 -0.013261 3.103721 -0.089022 0.015604
    118 0.021413 -0.957781 -0.019018 3.127447 -0.089093 0.015340
    119 1.164475 -2.543940 -0.170330 3.220681 0.091823 0.517632
    120 0.024032 -1.183731 0.017807 2.991457 0.109539 0.023838
    121 0.014898 -0.891802 0.023122 -3.090104 0.105225 0.038950
    122 -0.586770 -1.264477 0.200161 0.148374 0.421108 -5.840869
    123 1.612682 0.125089 0.016848 -0.048841 0.035459 -3.086641
    124 1.125760 0.028892 -0.005766 -0.043735 0.022033 -2.973140
    125 -0.139399 -0.111698 0.014397 0.285382 -0.030687 1.580508
    126 -3.151336 8.335256 -0.286309 1.581667 -0.010853 -1.344337
  time 5
    0 2.700209 -2.880254 -8.550928 -0.140550 -0.000716 -0.005151
    1 4.065896 0.000000 -0.000002 -0.029294 0.000265 -1.300067
    2 5.727314 0.000000 0.000000 0.000000 0.000000 -0.443033
    3 1.722176 -0.143091 0.002272 -0.015850 0.014830 0.029402
    4 4.167305 -1.758000 -0.096329 -1.570796 -0.406417 -1.570796
    5 4.167303 -2.082506 -0.130313 -1.570796 1.170555 -1.570797
    6 3.266000 0.000002 2.349527 0.000000 0.000000 0.000000
    7 -0.066254 1.001840 0.682211 1.570797 -0.393450 1.570796
    8 -0.066251 -0.006353 1.086548 -3.141592 -1.570796 0.000000
    9 -0.066253 -0.993147 0.697837 -1.570700 -0.393449 -1.570700
    10 -0.066253 -1.238041 -0.749170 -1.570796 0.467378 -1.570796
    11 -0.066254 -0.006354 -1.531548 0.000000 1.570796 0.000000
    12 -0.066253 1.246734 -0.749170 1.570796 0.467378 1.570796
    13 4.167304 2.019271 -0.118594 1.570796 1.170555 1.570797
    14 4.167304 1.694767 -0.096330 -1.570796 -2.735176 -1.570796
    15 6.397595 0.000001 0.000000 0.000000 0.000000 0.000000
    16 -0.737056 -1.342415 0.669736 0.000000 0.000000 -0.378980
    17 1.065329 -0.552495 -1.712876 -3.141592 0.000000 -0.378982
    18 1.215111 -0.432143 1.555796 0.000000 0.000000 -0.378980
    19 1.447909 -0.484273 1.817302 0.000000 0.000000 0.952071
    20 -0.633725 -2.487024 -1.024671 -3.141592 0.000000 0.952072
    21 -0.219140 -0.585863 -1.686731 3.141592 0.000000 -0.461930
    22 0.313627 -0.134236 -0.025840 0.000000 0.000000 -0.461930
    23 -0.459848 -1.563493 1.504620 -0.000001 -0.000001 -0.461931
    24 3.183642 1.493244 4.380347 -0.000001 0.000001 1.162388
    25 0.142583 1.295621 -2.380212 3.141592 0.000000 1.162389
    26 -0.034778 -0.070758 -0.025842 0.000001 -0.000001 0.461930
    27 1.121578 0.217533 -2.145793 -3.141592 -0.000001 0.461930
    28 0.889240 -0.190571 -1.663447 -3.141592 0.000000 -1.162388
    29 1.121579 0.217529 2.601909 0.000001 -0.000001 0.461930
    30 0.823734 -0.094069 2.527809 0.000001 0.000001 -1.162388
    31 1.379455 -0.578719 -2.319656 3.141592 0.000000 -0.952072
    32 0.487700 1.093261 0.231217 0.000000 0.000000 0.378981
    33 1.336686 0.693575 -2.319656 3.141592 0.000000 0.378981
    34 1.300981 0.016212 2.473366 0.000000 0.000000 -0.952072
    35 1.319679 0.136504 2.316782 0.000000 0.000000 0.378981
    36 0.487517 1.397928 0.774834 0.000000 0.000000 -0.120625
    37 0.554394 0.844083 -1.394056 3.141592 0.000000 -0.120625
    38 0.975382 -2.023273 -1.692827 -3.141592 0.000000 0.120625
    39 0.450589 -2.649830 -0.973398 -3.141592 0.000000 -0.588002
    40 1.536596 -2.336307 0.223213 0.000000 0.000000 0.120625
    41 0.651762 -2.744554 0.615837 0.000000 0.000000 -0.588002
    42 -2.702306 -2.881645 -8.550927 0.140549 -3.141514 0.000477
    43 4.065896 0.000000 0.000000 0.039419 0.002793 -1.314045
    44 5.727315 0.000000 0.000000 0.000000 0.000000 -0.433819
    45 1.723414 -0.175511 0.195543 3.141592 0.000000 0.037591
    46 4.167301 1.746282 -0.100235 -1.570796 -2.735176 -1.570796
    47 6.370247 0.000001 0.000000 0.000000 0.000000 0.000000
    48 4.167303 -1.702580 -0.096330 -1.570797 -0.406416 -1.570796
    49 4.167303 -2.023175 -0.126407 -1.570796 1.170555 -1.570796
    50 3.265999 -0.000001 2.349528 0.000000 0.000000 0.000000
    51 -0.066253 -1.005746 0.697836 1.570796 -2.748143 1.570796
    52 -0.066251 0.006352 1.102173 -3.141592 -1.570796 0.000000
    53 -0.066253 0.997053 0.697836 -1.570796 -2.748143 -1.570796
    54 -0.066253 1.238041 -0.749169 1.570796 0.467378 1.570797
    55 -0.066253 0.006354 -1.531549 0.000000 1.570796 0.000000
    56 -0.066253 -1.246733 -0.749170 -1.570796 0.467378 -1.570796
    57 4.167302 2.074692 -0.110781 1.570796 1.170556 1.570797
    58 1.216876 0.135612 -1.477553 3.141592 0.000000 -0.952072
    59 -1.761256 1.219729 4.203044 0.000000 0.000000 -0.952072
    60 -0.021695 0.770651 4.046457 0.000000 0.000000 0.378979
    61 -1.056089 -0.292325 -2.590041 3.141592 0.000000 0.378982
    62 0.040048 0.326424 0.590632 0.000000 0.000000 0.378979
    63 1.256126 -2.765132 0.524101 0.000000 0.000000 0.120625
    64 0.098153 -2.550985 0.615837 0.000000 0.000000 -0.588002
    65 -0.982940 -1.740619 -0.921683 -3.141592 0.000000 -0.588002
    66 0.599623 -2.115294 -0.577590 -3.141592 0.000000 0.120625
    67 0.208076 2.116280 -1.091202 3.141592 0.000000 -0.120625
    68 1.107038 2.717971 -0.815025 3.141592 0.000000 0.588003
    69 0.724972 2.679563 0.818810 0.000000 0.000000 -0.120623
    70 0.977455 3.062986 0.615837 0.000000 0.000000 0.588002
    71 -0.776410 -0.133204 -2.149397 -3.141592 0.000000 0.952070
    72 -2.184405 -2.030485 0.231215 0.000001 0.000000 -0.378981
    73 -1.614705 -0.850092 -1.977249 -3.141592 0.000000 -0.378982
    74 -0.006206 -0.506666 4.203042 0.000001 0.000000 0.952071
    75 -2.057160 -1.209801 4.046455 0.000001 0.000000 -0.378981
    76 -0.421078 -0.781727 -0.025838 0.000000 0.000000 -0.461930
    77 -0.574623 1.009408 -0.574120 3.141592 0.000000 -0.461930
    78 0.104473 0.378929 -1.228422 -3.141592 0.000000 1.162388
    79 -0.438478 0.430906 3.442117 -0.000001 -0.000001 -0.461931
    80 -1.447742 0.719807 3.671972 -0.000001 0.000001 1.162388
    81 0.160205 0.682918 -1.480127 -3.141592 -0.000001 0.461930
    82 -0.026455 -0.035077 -0.025838 0.000000 0.000000 0.461930
    83 -0.253195 0.528404 2.006952 0.000001 -0.000001 0.461930
    84 0.277656 -0.404937 2.009438 0.000001 0.000001 -1.162388
    85 0.346031 -1.202524 -2.848229 -3.141592 0.000000 -1.162389
    86 5.413674 0.000000 2.349528 1.570796 0.000000 0.000000
    87 5.520185 -0.000004 2.349524 -1.570796 0.000000 0.000000
    88 -0.002752 -1.622408 -8.698865 -0.140555 0.000000 0.000000
    89 8.091316 -7.510619 -0.202113 6.280325 -3.130341 -0.162930
    90 3.042391 8.258663 -0.188870 1.568001 3.142754 1.346358
    91 -0.064108 -8.541706 -0.510396 3.079389 -0.350626 -0.076520
    92 -0.488518 -2.755602 -0.228260 3.242587 0.031269 -0.215078
    93 0.039887 -1.550105 0.072824 3.080321 0.026078 0.046897
    94 0.032692 -1.341364 0.027674 3.137775 0.023442 0.048262
    95 0.250027 -2.820665 -0.238396 3.177825 -0.042470 -0.035145
    96 -0.049759 -1.668825 -0.051869 3.155800 -0.041347 -0.041888
    97 -0.034142 -1.234252 0.084782 3.095853 -0.042162 -0.041059
    98 0.957766 -2.746780 -0.090302 -3.153963 -0.247284 0.135866
    99 -0.033420 -1.428380 -0.034695 3.151284 -0.084312 -0.055657
    100 -0.022360 -1.012125 0.007065 3.141170 -0.085079 -0.054470
    101 -1.180681 -2.507217 -0.193859 3.219374 -0.058614 -0.534075
    102 -0.024967 -1.127840 0.025410 3.118854 -0.076294 -0.050059
    103 -0.020057 -0.863623 0.064779 3.076148 -0.075383 -0.051426
    104 0.657731 -1.123056 0.189285 0.377547 0.335078 2.757212
    105 0.907002 -0.067881 0.047979 0.541268 -0.077504 3.105925
    106 0.671070 -0.018911 0.016666 0.535001 -0.078645 3.116370
    107 0.120153 -0.050270 -0.054489 0.287569 3.110905 1.561085
    108 -8.106946 -7.512579 -0.138006 0.011632 -3.150573 0.171052
    109 0.085225 -8.559797 -0.400002 -3.111222 0.365155 0.048716
    110 0.447953 -2.798986 -0.200443 3.243295 -0.014770 0.208275
    111 -0.032909 -1.472391 0.055723 3.015873 -0.012212 -0.055618
    112 -0.027022 -1.135516 0.042292 -3.007710 -0.003392 -0.056759
    113 -0.249534 -2.846964 -0.174213 3.177907 -0.012062 0.026923
    114 0.043235 -1.687847 0.033510 3.105981 -0.012361 0.036350
    115 0.031729 -1.149111 0.023681 -3.089631 -0.016987 0.027224
    116 -0.963866 -2.785145 -0.085350 3.120762 0.073123 -0.176467
    117 0.028479 -1.457756 -0.013261 3.103721 -0.089022 0.015604
    118 0.021413 -0.957781 -0.019018 3.127447 -0.089093 0.015340
    119 1.164475 -2.543940 -0.170330 3.220681 0.091823 0.517632
    120 0.024032 -1.183731 0.017807 2.991457 0.109539 0.023838
    121 0.014898 -0.891802 0.023122 -3.090104 0.105225 0.038950
    122 -0.586770 -1.264477 0.200161 0.148374 0.421108 -5.840869
    123 1.612682 0.125089 0.016848 -0.048841 0.035459 -3.086641
    124 1.125760 0.028892 -0.005766 -0.043735 0.022033 -2.973140
    125 -0.139399 -0.111698 0.014397 0.285382 -0.030687 1.580508
    126 -3.123992 8.346975 -0.286309 1.581667 -0.010757 -1.347779
  time 6
    0 2.700209 -2.880254 -8.550928 -0.140550 -0.000644 -0.004644
    1 4.065896 0.000000 -0.000002 -0.052068 0.006894 -1.293605
    2 5.727314 0.000000 0.000000 0.000000 0.000000 -0.452445
    3 1.722176 -0.143091 0.002272 -0.015850 0.014830 0.029402
    4 4.167305 -1.758000 -0.096329 1.570796 -2.735176 1.570796
    5 4.167303 -2.082506 -0.130313 -1.570796 1.170555 -1.570797
    6 3.266000 0.000002 2.349527 0.000000 0.000000 0.000000
    7 -0.066254 1.001840 0.682211 1.570797 -0.393450 1.570796
    8 -0.066251 -0.006353 1.086548 -3.141592 -1.570796 0.000000
    9 -0.066253 -0.993147 0.697837 -1.570700 -0.393449 -1.570700
    10 -0.066253 -1.238041 -0.749170 -1.570796 0.467378 -1.570796
    11 -0.066254 -0.006354 -1.531548 0.000000 1.570796 0.000000
    12 -0.066253 1.246734 -0.749170 1.570796 0.467378 1.570796
    13 4.167304 2.019271 -0.118594 1.570796 1.170555 1.570797
    14 4.167304 1.694767 -0.096330 -1.570796 -2.735176 -1.570796
    15 6.397595 0.000001 0.000000 0.000000 0.000000 0.000000
    16 -0.737056 -1.342415 0.669736 0.000000 0.000000 -0.378980
    17 1.065329 -0.552495 -1.712876 -3.141592 0.000000 -0.378982
    18 1.215111 -0.432143 1.555796 0.000000 0.000000 -0.378980
    19 1.447909 -0.484273 1.817302 0.000000 0.000000 0.952071
    20 -0.633725 -2.487024 -1.024671 -3.141592 0.000000 0.952072
    21 -0.219140 -0.585863 -1.686731 3.141592 0.000000 -0.461930
    22 0.313627 -0.134236 -0.025840 0.000000 0.000000 -0.461930
    23 -0.459848 -1.563493 1.504620 -0.000001 -0.000001 -0.461931
    24 3.183642 1.493244 4.380347 -0.000001 0.000001 1.162388
    25 0.142583 1.295621 -2.380212 3.141592 0.000000 1.162389
    26 -0.034778 -0.070758 -0.025842 0.000001 -0.000001 0.461930
    27 1.121578 0.217533 -2.145793 -3.141592 -0.000001 0.461930
    28 0.889240 -0.190571 -1.663447 -3.141592 0.000000 -1.162388
    29 1.121579 0.217529 2.601909 0.000001 -0.000001 0.461930
    30 0.823734 -0.094069 2.527809 0.000001 0.000001 -1.162388
    31 1.379455 -0.578719 -2.319656 3.141592 0.000000 -0.952072
    32 0.487700 1.093261 0.231217 0.000000 0.000000 0.378981
    33 1.336686 0.693575 -2.319656 3.141592 0.000000 0.378981
    34 1.300981 0.016212 2.473366 0.000000 0.000000 -0.952072
    35 1.319679 0.136504 2.316782 0.000000 0.000000 0.378981
    36 0.487517 1.397928 0.774834 0.000000 0.000000 -0.120625
    37 0.554394 0.844083 -1.394056 3.141592 0.000000 -0.120625
    38 0.975382 -2.023273 -1.692827 -3.141592 0.000000 0.120625
    39 0.450589 -2.649830 -0.973398 -3.141592 0.000000 -0.588002
    40 1.536596 -2.336307 0.223213 0.000000 0.000000 0.120625
    41 0.651762 -2.744554 0.615837 0.000000 0.000000 -0.588002
    42 -2.702306 -2.881645 -8.550927 0.140549 -3.141514 0.000477
    43 4.065896 0.000000 0.000000 0.077301 -0.007384 -1.312581
    44 5.727315 0.000000 0.000000 0.000000 0.000000 -0.437248
    45 1.723414 -0.175511 0.195543 3.141592 0.000000 0.037591
    46 4.167301 1.746282 -0.100235 -1.570796 -2.735176 -1.570796
    47 6.370247 0.000001 0.000000 0.000000 0.000000 0.000000
    48 4.167303 -1.702580 -0.096330 -1.570797 -0.406416 -1.570796
    49 4.167303 -2.023175 -0.126407 -1.570796 1.170555 -1.570796
    50 3.265999 -0.000001 2.349528 0.000000 0.000000 0.000000
    51 -0.066253 -1.005746 0.697836 1.570796 -2.748143 1.570796
    52 -0.066251 0.006352 1.102173 -3.141592 -1.570796 0.000000
    53 -0.066253 0.997053 0.697836 -1.570796 -2.748143 -1.570796
    54 -0.066253 1.238041 -0.749169 1.570796 0.467378 1.570797
    55 -0.066253 0.006354 -1.531549 0.000000 1.570796 0.000000
    56 -0.066253 -1.246733 -0.749170 -1.570796 0.467378 -1.570796
    57 4.167302 2.074692 -0.110781 1.570796 1.170556 1.570797
    58 1.216876 0.135612 -1.477553 3.141592 0.000000 -0.952072
    59 -1.761256 1.219729 4.203044 0.000000 0.000000 -0.952072
    60 -0.021695 0.770651 4.046457 0.000000 0.000000 0.378979
    61 -1.056089 -0.292325 -2.590041 3.141592 0.000000 0.378982
    62 0.040048 0.326424 0.590632 0.000000 0.000000 0.378979
    63 1.256126 -2.765132 0.524101 0.000000 0.000000 0.120625
    64 0.098153 -2.550985 0.615837 0.000000 0.000000 -0.588002
    65 -0.982940 -1.740619 -0.921683 -3.141592 0.000000 -0.588002
    66 0.599623 -2.115294 -0.577590 -3.141592 0.000000 0.120625
    67 0.208076 2.116280 -1.091202 3.141592 0.000000 -0.120625
    68 1.107038 2.717971 -0.815025 3.141592 0.000000 0.588003
    69 0.724972 2.679563 0.818810 0.000000 0.000000 -0.120623
    70 0.977455 3.062986 0.615837 0.000000 0.000000 0.588002
    71 -0.776410 -0.133204 -2.149397 -3.141592 0.000000 0.952070
    72 -2.184405 -2.030485 0.231215 0.000001 0.000000 -0.378981
    73 -1.614705 -0.850092 -1.977249 -3.141592 0.000000 -0.378982
    74 -0.006206 -0.506666 4.203042 0.000001 0.000000 0.952071
    75 -2.057160 -1.209801 4.046455 0.000001 0.000000 -0.378981
    76 -0.421078 -0.781727 -0.025838 0.000000 0.000000 -0.461930
    77 -0.574623 1.009408 -0.574120 3.141592 0.000000 -0.461930
    78 0.104473 0.378929 -1.228422 -3.141592 0.000000 1.162388
    79 -0.438478 0.430906 3.442117 -0.000001 -0.000001 -0.461931
    80 -1.447742 0.719807 3.671972 -0.000001 0.000001 1.162388
    81 0.160205 0.682918 -1.480127 -3.141592 -0.000001 0.461930
    82 -0.026455 -0.035077 -0.025838 0.000000 0.000000 0.461930
    83 -0.253195 0.528404 2.006952 0.000001 -0.000001 0.461930
    84 0.277656 -0.404937 2.009438 0.000001 0.000001 -1.162388
    85 0.346031 -1.202524 -2.848229 -3.141592 0.000000 -1.162389
    86 5.413674 0.000000 2.349528 1.570796 0.000000 0.000000
    87 5.520185 -0.000004 2.349524 -1.570796 0.000000 0.000000
    88 -0.002752 -1.622408 -8.698865 -0.140555 0.000000 0.000000
    89 8.122567 -7.498900 -0.237270 0.001040 -3.107060 -0.165434
    90 3.112705 8.227412 -0.188870 1.567905 3.142946 1.336918
    91 -0.064108 -8.541706 -0.510396 3.079675 -0.349652 -0.077168
    92 -0.488518 -2.755602 -0.228260 3.242492 0.031269 -0.215078
    93 0.039887 -1.550105 0.072824 3.080321 0.026078 0.046897
    94 0.032692 -1.341364 0.027674 3.137775 0.023442 0.048262
    95 0.250027 -2.820665 -0.238396 3.177825 -0.042470 -0.035145
    96 -0.049759 -1.668825 -0.051869 3.155800 -0.041347 -0.041888
    97 -0.034142 -1.234252 0.084782 3.095853 -0.042162 -0.041059
    98 0.957766 -2.746780 -0.090302 -3.153963 -0.247284 0.135866
    99 -0.033420 -1.428380 -0.034695 3.151284 -0.084312 -0.055657
    100 -0.022360 -1.012125 0.007065 3.141170 -0.085079 -0.054470
    101 -1.180681 -2.507217 -0.193859 3.219374 -0.058614 -0.534075
    102 -0.024967 -1.127840 0.025410 3.118854 -0.076294 -0.050059
    103 -0.020057 -0.863623 0.064779 3.076148 -0.075383 -0.051426
    104 0.657731 -1.123056 0.189285 0.377547 0.335078 2.757212
    105 0.907002 -0.067881 0.047979 0.541268 -0.077504 3.105925
    106 0.671070 -0.018911 0.016666 0.535001 -0.078645 3.116370
    107 0.120153 -0.050270 -0.054489 0.287569 3.110905 1.561085
    108 -8.106946 -7.512579 -0.188789 0.018301 -3.189187 0.173061
    109 0.085225 -8.559797 -0.400002 -3.111692 0.365095 0.049915
    110 0.447953 -2.798986 -0.200443 3.243295 -0.014770 0.208275
    111 -0.032909 -1.472391 0.055723 3.015873 -0.012212 -0.055618
    112 -0.027022 -1.135516 0.042292 -3.007710 -0.003392 -0.056759
    113 -0.249534 -2.846964 -0.174213 3.177907 -0.012062 0.026923
    114 0.043235 -1.687847 0.033510 3.105981 -0.012361 0.036350
    115 0.031729 -1.149111 0.023681 -3.089631 -0.016987 0.027224
    116 -0.963866 -2.785145 -0.085350 3.120762 0.073123 -0.176467
    117 0.028479 -1.457756 -0.013261 3.103721 -0.089022 0.015604
    118 0.021413 -0.957781 -0.019018 3.127447 -0.089093 0.015340
    119 1.164475 -2.543940 -0.170330 3.220681 0.091823 0.517632
    120 0.024032 -1.183731 0.017807 2.991457 0.109539 0.023838
    121 0.014898 -0.891802 0.023122 -3.090104 0.105225 0.038950
    122 -0.586770 -1.264477 0.200161 0.148374 0.421108 -5.840869
    123 1.612682 0.125089 0.016848 -0.048841 0.035459 -3.086641
    124 1.125760 0.028892 -0.005766 -0.043735 0.022033 -2.973140
    125 -0.139399 -0.111698 0.014397 0.285382 -0.030687 1.580508
    126 -3.151336 8.335256 -0.286309 1.581667 -0.010853 -1.344337
  time 7
    0 2.700209 -2.880254 -8.550928 -0.140550 -0.000716 -0.005151
    1 4.065896 0.000000 -0.000002 -0.029294 0.000265 -1.300067
    2 5.727314 0.000000 0.000000 0.000000 0.000000 -0.443033
    3 1.722176 -0.143091 0.002272 -0.015850 0.014830 0.029402
    4 4.167305 -1.758000 -0.096329 -1.570796 -0.406417 -1.570796
    5 4.167303 -2.082506 -0.130313 -1.570796 1.170555 -1.570797
    6 3.266000 0.000002 2.349527 0.000000 0.000000 0.000000
    7 -0.066254 1.001840 0.682211 1.570797 -0.393450 1.570796
    8 -0.066251 -0.006353 1.086548 -3.141592 -1.570796 0.000000
    9 -0.066253 -0.993147 0.697837 -1.570700 -0.393449 -1.570700
    10 -0.066253 -1.238041 -0.749170 -1.570796 0.467378 -1.570796
    11 -0.066254 -0.006354 -1.531548 0.000000 1.570796 0.000000
    12 -0.066253 1.246734 -0.749170 1.570796 0.467378 1.570796
    13 4.167304 2.019271 -0.118594 1.570796 1.170555 1.570797
    14 4.167304 1.694767 -0.096330 -1.570796 -2.735176 -1.570796
    15 6.397595 0.000001 0.000000 0.000000 0.000000 0.000000
    16 -0.737056 -1.342415 0.669736 0.000000 0.000000 -0.378980
    17 1.065329 -0.552495 -1.712876 -3.141592 0.000000 -0.378982
    18 1.215111 -0.432143 1.555796 0.000000 0.000000 -0.378980
    19 1.447909 -0.484273 1.817302 0.000000 0.000000 0.952071
    20 -0.633725 -2.487024 -1.024671 -3.141592 0.000000 0.952072
    21 -0.219140 -0.585863 -1.686731 3.141592 0.000000 -0.461930
    22 0.313627 -0.134236 -0.025840 0.000000 0.000000 -0.461930
    23 -0.459848 -1.563493 1.504620 -0.000001 -0.000001 -0.461931
    24 3.183642 1.493244 4.380347 -0.000001 0.000001 1.162388
    25 0.142583 1.295621 -2.380212 3.141592 0.000000 1.162389
    26 -0.034778 -0.070758 -0.025842 0.000001 -0.000001 0.461930
    27 1.121578 0.217533 -2.145793 -3.141592 -0.000001 0.461930
    28 0.889240 -0.190571 -1.663447 -3.141592 0.000000 -1.162388
    29 1.121579 0.217529 2.601909 0.000001 -0.000001 0.461930
    30 0.823734 -0.094069 2.527809 0.000001 0.000001 -1.162388
    31 1.379455 -0.578719 -2.319656 3.141592 0.000000 -0.952072
    32 0.487700 1.093261 0.231217 0.000000 0.000000 0.378981
    33 1.336686 0.693575 -2.319656 3.141592 0.000000 0.378981
    34 1.300981 0.016212 2.473366 0.000000 0.000000 -0.952072
    35 1.319679 0.136504 2.316782 0.000000 0.000000 0.378981
    36 0.487517 1.397928 0.774834 0.000000 0.000000 -0.120625
    37 0.554394 0.844083 -1.394056 3.141592 0.000000 -0.120625
    38 0.975382 -2.023273 -1.692827 -3.141592 0.000000 0.120625
    39 0.450589 -2.649830 -0.973398 -3.141592 0.000000 -0.588002
    40 1.536596 -2.336307 0.223213 0.000000 0.000000 0.120625
    41 0.651762 -2.744554 0.615837 0.000000 0.000000 -0.588002
    42 -2.702306 -2.881645 -8.550927 0.140549 -3.141514 0.000477
    43 4.065896 0.000000 0.000000 0.039419 0.002793 -1.314045
    44 5.727315 0.000000 0.000000 0.000000 0.000000 -0.433819
    45 1.723414 -0.175511 0.195543 3.141592 0.000000 0.037591
    46 4.167301 1.746282 -0.100235 -1.570796 -2.735176 -1.570796
    47 6.370247 0.000001 0.000000 0.000000 0.000000 0.000000
    48 4.167303 -1.702580 -0.096330 -1.570797 -0.406416 -1.570796
    49 4.167303 -2.023175 -0.126407 -1.570796 1.170555 -1.570796
    50 3.265999 -0.000001 2.349528 0.000000 0.000000 0.000000
    51 -0.066253 -1.005746 0.697836 1.570796 -2.748143 1.570796
    52 -0.066251 0.006352 1.102173 -3.141592 -1.570796 0.000000
    53 -0.066253 0.997053 0.697836 -1.570796 -2.748143 -1.570796
    54 -0.066253 1.238041 -0.749169 1.570796 0.467378 1.570797
    55 -0.066253 0.006354 -1.531549 0.000000 1.570796 0.000000
    56 -0.066253 -1.246733 -0.749170 -1.570796 0.467378 -1.570796
    57 4.167302 2.074692 -0.110781 1.570796 1.170556 1.570797
    58 1.216876 0.135612 -1.477553 3.141592 0.000000 -0.952072
    59 -1.761256 1.219729 4.203044 0.000000 0.000000 -0.952072
    60 -0.021695 0.770651 4.046457 0.000000 0.000000 0.378979
    61 -1.056089 -0.292325 -2.590041 3.141592 0.000000 0.378982
    62 0.040048 0.326424 0.590632 0.000000 0.000000 0.378979
    63 1.256126 -2.765132 0.524101 0.000000 0.000000 0.120625
    64 0.098153 -2.550985 0.615837 0.000000 0.000000 -0.588002
    65 -0.982940 -1.740619 -0.921683 -3.141592 0.000000 -0.588002
    66 0.599623 -2.115294 -0.577590 -3.141592 0.000000 0.120625
    67 0.208076 2.116280 -1.091202 3.141592 0.000000 -0.120625
    68 1.107038 2.717971 -0.815025 3.141592 0.000000 0.588003
    69 0.724972 2.679563 0.818810 0.000000 0.000000 -0.120623
    70 0.977455 3.062986 0.615837 0.000000 0.000000 0.588002
    71 -0.776410 -0.133204 -2.149397 -3.141592 0.000000 0.952070
    72 -2.184405 -2.030485 0.231215 0.000001 0.000000 -0.378981
    73 -1.614705 -0.850092 -1.977249 -3.141592 0.000000 -0.378982
    74 -0.006206 -0.506666 4.203042 0.000001 0.000000 0.952071
    75 -2.057160 -1.209801 4.046455 0.000001 0.000000 -0.378981
    76 -0.421078 -0.781727 -0.025838 0.000000 0.000000 -0.461930
    77 -0.574623 1.009408 -0.574120 3.141592 0.000000 -0.461930
    78 0.104473 0.378929 -1.228422 -3.141592 0.000000 1.162388
    79 -0.438478 0.430906 3.442117 -0.000001 -0.000001 -0.461931
    80 -1.447742 0.719807 3.671972 -0.000001 0.000001 1.162388
    81 0.160205 0.682918 -1.480127 -3.141592 -0.000001 0.461930
    82 -0.026455 -0.035077 -0.025838 0.000000 0.000000 0.461930
    83 -0.253195 0.528404 2.006952 0.000001 -0.000001 0.461930
    84 0.277656 -0.404937 2.009438 0.000001 0.000001 -1.162388
    85 0.346031 -1.202524 -2.848229 -3.141592 0.000000 -1.162389
    86 5.413674 0.000000 2.349528 1.570796 0.000000 0.000000
    87 5.520185 -0.000004 2.349524 -1.570796 0.000000 0.000000
    88 -0.002752 -1.622408 -8.698865 -0.140555 0.000000 0.000000
    89 8.091316 -7.510619 -0.202113 6.280325 -3.130341 -0.162930
    90 3.042391 8.258663 -0.188870 1.568001 3.142754 1.346358
    91 -0.064108 -8.541706 -0.510396 3.079389 -0.350626 -0.076520
    92 -0.488518 -2.755602 -0.228260 3.242587 0.031269 -0.215078
    93 0.039887 -1.550105 0.072824 3.080321 0.026078 0.046897
    94 0.032692 -1.341364 0.027674 3.137775 0.023442 0.048262
    95 0.250027 -2.820665 -0.238396 3.177825 -0.042470 -0.035145
    96 -0.049759 -1.668825 -0.051869 3.155800 -0.041347 -0.041888
    97 -0.034142 -1.234252 0.084782 3.095853 -0.042162 -0.041059
    98 0.957766 -2.746780 -0.090302 -3.153963 -0.247284 0.135866
    99 -0.033420 -1.428380 -0.034695 3.151284 -0.084312 -0.055657
    100 -0.022360 -1.012125 0.007065 3.141170 -0.085079 -0.054470
    101 -1.180681 -2.507217 -0.193859 3.219374 -0.058614 -0.534075
    102 -0.024967 -1.127840 0.025410 3.118854 -0.076294 -0.050059
    103 -0.020057 -0.863623 0.064779 3.076148 -0.075383 -0.051426
    104 0.657731 -1.123056 0.189285 0.377547 0.335078 2.757212
    105 0.907002 -0.067881 0.047979 0.541268 -0.077504 3.105925
    106 0.671070 -0.018911 0.016666 0.535001 -0.078645 3.116370
    107 0.120153 -0.050270 -0.054489 0.287569 3.110905 1.561085
    108 -8.106946 -7.512579 -0.138006 0.011632 -3.150573 0.171052
    109 0.085225 -8.559797 -0.400002 -3.111222 0.365155 0.048716
    110 0.447953 -2.798986 -0.200443 3.243295 -0.014770 0.208275
    111 -0.032909 -1.472391 0.055723 3.015873 -0.012212 -0.055618
    112 -0.027022 -1.135516 0.042292 -3.007710 -0.003392 -0.056759
    113 -0.249534 -2.846964 -0.174213 3.177907 -0.012062 0.026923
    114 0.043235 -1.687847 0.033510 3.105981 -0.012361 0.036350
    115 0.031729 -1.149111 0.023681 -3.089631 -0.016987 0.027224
    116 -0.963866 -2.785145 -0.085350 3.120762 0.073123 -0.176467
    117 0.028479 -1.457756 -0.013261 3.103721 -0.089022 0.015604
    118 0.021413 -0.957781 -0.019018 3.127447 -0.089093 0.015340
    119 1.164475 -2.543940 -0.170330 3.220681 0.091823 0.517632
    120 0.024032 -1.183731 0.017807 2.991457 0.109539 0.023838
    121 0.014898 -0.891802 0.023122 -3.090104 0.105225 0.038950
    122 -0.586770 -1.264477 0.200161 0.148374 0.421108 -5.840869
    123 1.612682 0.125089 0.016848 -0.048841 0.035459 -3.086641
    124 1.125760 0.028892 -0.005766 -0.043735 0.022033 -2.973140
    125 -0.139399 -0.111698 0.014397 0.285382 -0.030687 1.580508
    126 -3.123992 8.346975 -0.286309 1.581667 -0.010757 -1.347779
  time 8
    0 2.700209 -2.880254 -8.550928 -0.140550 -0.000644 -0.004644
    1 4.065896 0.000000 -0.000002 -0.052068 0.006894 -1.293605
    2 5.727314 0.000000 0.000000 0.000000 0.000000 -0.452445
    3 1.722176 -0.143091 0.002272 -0.015850 0.014830 0.029402
    4 4.167305 -1.758000 -0.096329 1.570796 -2.735176 1.570796
    5 4.167303 -2.082506 -0.130313 -1.570796 1.170555 -1.570797
    6 3.266000 0.000002 2.349527 0.000000 0.000000 0.000000
    7 -0.066254 1.001840 0.682211 1.570797 -0.393450 1.570796
    8 -0.066251 -0.006353 1.086548 -3.141592 -1.570796 0.000000
    9 -0.066253 -0.993147 0.697837 -1.570700 -0.393449 -1.570700
    10 -0.066253 -1.238041 -0.749170 -1.570796 0.467378 -1.570796
    11 -0.066254 -0.006354 -1.531548 0.000000 1.570796 0.000000
    12 -0.066253 1.246734 -0.749170 1.570796 0.467378 1.570796
    13 4.167304 2.019271 -0.118594 1.570796 1.170555 1.570797
    14 4.167304 1.694767 -0.096330 -1.570796 -2.735176 -1.570796
    15 6.397595 0.000001 0.000000 0.000000 0.000000 0.000000
    16 -0.737056 -1.342415 0.669736 0.000000 0.000000 -0.378980
    17 1.065329 -0.552495 -1.712876 -3.141592 0.000000 -0.378982
    18 1.215111 -0.432143 1.555796 0.000000 0.000000 -0.378980
    19 1.447909 -0.484273 1.817302 0.000000 0.000000 0.952071
    20 -0.633725 -2.487024 -1.024671 -3.141592 0.000000 0.952072
    21 -0.219140 -0.585863 -1.686731 3.141592 0.000000 -0.461930
    22 0.313627 -0.134236 -0.025840 0.000000 0.000000 -0.461930
    23 -0.459848 -1.563493 1.504620 -0.000001 -0.000001 -0.461931
    24 3.183642 1.493244 4.380347 -0.000001 0.000001 1.162388
    25 0.142583 1.295621 -2.380212 3.141592 0.000000 1.162389
    26 -0.034778 -0.070758 -0.025842 0.000001 -0.000001 0.461930
    27 1.121578 0.217533 -2.145793 -3.141592 -0.000001 0.461930
    28 0.889240 -0.190571 -1.663447 -3.141592 0.000000 -1.162388
    29 1.121579 0.217529 2.601909 0.000001 -0.000001 0.461930
    30 0.823734 -0.094069 2.527809 0.000001 0.000001 -1.162388
    31 1.379455 -0.578719 -2.319656 3.141592 0.000000 -0.952072
    32 0.487700 1.093261 0.231217 0.000000 0.000000 0.378981
    33 1.336686 0.693575 -2.319656 3.141592 0.000000 0.378981
    34 1.300981 0.016212 2.473366 0.000000 0.000000 -0.952072
    35 1.319679 0.136504 2.316782 0.000000 0.000000 0.378981
    36 0.487517 1.397928 0.774834 0.000000 0.000000 -0.120625
    37 0.554394 0.844083 -1.394056 3.141592 0.000000 -0.120625
    38 0.975382 -2.023273 -1.692827 -3.141592 0.000000 0.120625
    39 0.450589 -2.649830 -0.973398 -3.141592 0.000000 -0.588002
    40 1.536596 -2.336307 0.223213 0.000000 0.000000 0.120625
    41 0.651762 -2.744554 0.615837 0.000000 0.000000 -0.588002
    42 -2.702306 -2.881645 -8.550927 0.140549 -3.141514 0.000477
    43 4.065896 0.000000 0.000000 0.077301 -0.007384 -1.312581
    44 5.727315 0.000000 0.000000 0.000000 0.000000 -0.437248
    45 1.723414 -0.175511 0.195543 3.141592 0.000000 0.037591
    46 4.167301 1.746282 -0.100235 -1.570796 -2.735176 -1.570796
    47 6.370247 0.000001 0.000000 0.000000 0.000000 0.000000
    48 4.167303 -1.702580 -0.096330 -1.570797 -0.406416 -1.570796
    49 4.167303 -2.023175 -0.126407 -1.570796 1.170555 -1.570796
    50 3.265999 -0.000001 2.349528 0.000000 0.000000 0.000000
    51 -0.066253 -1.005746 0.697836 1.570796 -2.748143 1.570796
    52 -0.066251 0.006352 1.102173 -3.141592 -1.570796 0.000000
    53 -0.066253 0.997053 0.697836 -1.570796 -2.748143 -1.570796
    54 -0.066253 1.238041 -0.749169 1.570796 0.467378 1.570797
    55 -0.066253 0.006354 -1.531549 0.000000 1.570796 0.000000
    56 -0.066253 -1.246733 -0.749170 -1.570796 0.467378 -1.570796
    57 4.167302 2.074692 -0.110781 1.570796 1.170556 1.570797
    58 1.216876 0.135612 -1.477553 3.141592 0.000000 -0.952072
    59 -1.761256 1.219729 4.203044 0.000000 0.000000 -0.952072
    60 -0.021695 0.770651 4.046457 0.000000 0.000000 0.378979
    61 -1.056089 -0.292325 -2.590041 3.141592 0.000000 0.378982
    62 0.040048 0.326424 0.590632 0.000000 0.000000 0.378979
    63 1.256126 -2.765132 0.524101 0.000000 0.000000 0.120625
    64 0.098153 -2.550985 0.615837 0.000000 0.000000 -0.588002
    65 -0.982940 -1.740619 -0.921683 -3.141592 0.000000 -0.588002
    66 0.599623 -2.115294 -0.577590 -3.141592 0.000000 0.120625
    67 0.208076 2.116280 -1.091202 3.141592 0.000000 -0.120625
    68 1.107038 2.717971 -0.815025 3.141592 0.000000 0.588003
    69 0.724972 2.679563 0.818810 0.000000 0.000000 -0.120623
    70 0.977455 3.062986 0.615837 0.000000 0.000000 0.588002
    71 -0.776410 -0.133204 -2.149397 -3.141592 0.000000 0.952070
    72 -2.184405 -2.030485 0.231215 0.000001 0.000000 -0.378981
    73 -1.614705 -0.850092 -1.977249 -3.141592 0.000000 -0.378982
    74 -0.006206 -0.506666 4.203042 0.000001 0.000000 0.952071
    75 -2.057160 -1.209801 4.046455 0.000001 0.000000 -0.378981
    76 -0.421078 -0.781727 -0.025838 0.000000 0.000000 -0.461930
    77 -0.574623 1.009408 -0.574120 3.141592 0.000000 -0.461930
    78 0.104473 0.378929 -1.228422 -3.141592 0.000000 1.162388
    79 -0.438478 0.430906 3.442117 -0.000001 -0.000001 -0.461931
    80 -1.447742 0.719807 3.671972 -0.000001 0.000001 1.162388
    81 0.160205 0.682918 -1.480127 -3.141592 -0.000001 0.461930
    82 -0.026455 -0.035077 -0.025838 0.000000 0.000000 0.461930
    83 -0.253195 0.528404 2.006952 0.000001 -0.000001 0.461930
    84 0.277656 -0.404937 2.009438 0.000001 0.000001 -1.162388
    85 0.346031 -1.202524 -2.848229 -3.141592 0.000000 -1.162389
    86 5.413674 0.000000 2.349528 1.570796 0.000000 0.000000
    87 5.520185 -0.000004 2.349524 -1.570796 0.000000 0.000000
    88 -0.002752 -1.622408 -8.698865 -0.140555 0.000000 0.000000
    89 8.122567 -7.498900 -0.237270 0.001040 -3.107060 -0.165434
    90 3.112705 8.227412 -0.188870 1.567905 3.142946 1.336918
    91 -0.064108 -8.541706 -0.510396 3.079675 -0.349652 -0.077168
    92 -0.488518 -2.755602 -0.228260 3.242492 0.031269 -0.215078
    93 0.039887 -1.550105 0.072824 3.080321 0.026078 0.046897
    94 0.032692 -1.341364 0.027674 3.137775 0.023442 0.048262
    95 0.250027 -2.820665 -0.238396 3.177825 -0.042470 -0.035145
    96 -0.049759 -1.668825 -0.051869 3.155800 -0.041347 -0.041888
    97 -0.034142 -1.234252 0.084782 3.095853 -0.042162 -0.041059
    98 0.957766 -2.746780 -0.090302 -3.153963 -0.247284 0.135866
    99 -0.033420 -1.428380 -0.034695 3.151284 -0.084312 -0.055657
    100 -0.022360 -1.012125 0.007065 3.141170 -0.085079 -0.054470
    101 -1.180681 -2.507217 -0.193859 3.219374 -0.058614 -0.534075
    102 -0.024967 -1.127840 0.025410 3.118854 -0.076294 -0.050059
    103 -0.020057 -0.863623 0.064779 3.076148 -0.075383 -0.051426
    104 0.657731 -1.123056 0.189285 0.377547 0.335078 2.757212
    105 0.907002 -0.067881 0.047979 0.541268 -0.077504 3.105925
    106 0.671070 -0.018911 0.016666 0.535001 -0.078645 3.116370
    107 0.120153 -0.050270 -0.054489 0.287569 3.110905 1.561085
    108 -8.106946 -7.512579 -0.188789 0.018301 -3.189187 0.173061
    109 0.085225 -8.559797 -0.400002 -3.111692 0.365095 0.049915
    110 0.447953 -2.798986 -0.200443 3.243295 -0.014770 0.208275
    111 -0.032909 -1.472391 0.055723 3.015873 -0.012212 -0.055618
    112 -0.027022 -1.135516 0.042292 -3.007710 -0.003392 -0.056759
    113 -0.249534 -2.846964 -0.174213 3.177907 -0.012062 0.026923
    114 0.043235 -1.687847 0.033510 3.105981 -0.012361 0.036350
    115 0.031729 -1.149111 0.023681 -3.089631 -0.016987 0.027224
    116 -0.963866 -2.785145 -0.085350 3.120762 0.073123 -0.176467
    117 0.028479 -1.457756 -0.013261 3.103721 -0.089022 0.015604
    118 0.021413 -0.957781 -0.019018 3.127447 -0.089093 0.015340
    119 1.164475 -2.543940 -0.170330 3.220681 0.091823 0.517632
    120 0.024032 -1.183731 0.017807 2.991457 0.109539 0.023838
    121 0.014898 -0.891802 0.023122 -3.090104 0.105225 0.038950
    122 -0.586770 -1.264477 0.200161 0.148374 0.421108 -5.840869
    123 1.612682 0.125089 0.016848 -0.048841 0.035459 -3.086641
    124 1.125760 0.028892 -0.005766 -0.043735 0.022033 -2.973140
    125 -0.139399 -0.111698 0.014397 0.285382 -0.030687 1.580508
    126 -3.151336 8.335256 -0.286309 1.581667 -0.010853 -1.344337
  time 9
    0 2.700209 -2.880254 -8.550928 -0.140550 -0.000716 -0.005151
    1 4.065896 0.000000 -0.000002 -0.029294 0.000265 -1.300067
    2 5.727314 0.000000 0.000000 0.000000 0.000000 -0.443033
    3 1.722176 -0.143091 0.002272 -0.015850 0.014830 0.029402
    4 4.167305 -1.758000 -0.096329 -1.570796 -0.406417 -1.570796
    5 4.167303 -2.082506 -0.130313 -1.570796 1.170555 -1.570797
    6 3.266000 0.000002 2.349527 0.000000 0.000000 0.000000
    7 -0.066254 1.001840 0.682211 1.570797 -0.393450 1.570796
    8 -0.066251 -0.006353 1.086548 -3.141592 -1.570796 0.000000
    9 -0.066253 -0.993147 0.697837 -1.570700 -0.393449 -1.570700
    10 -0.066253 -1.238041 -0.749170 -1.570796 0.467378 -1.570796
    11 -0.066254 -0.006354 -1.531548 0.000000 1.570796 0.000000
    12 -0.066253 1.246734 -0.749170 1.570796 0.467378 1.570796
    13 4.167304 2.019271 -0.118594 1.570796 1.170555 1.570797
    14 4.167304 1.694767 -0.096330 -1.570796 -2.735176 -1.570796
    15 6.397595 0.000001 0.000000 0.000000 0.000000 0.000000
    16 -0.737056 -1.342415 0.669736 0.000000 0.000000 -0.378980
    17 1.065329 -0.552495 -1.712876 -3.141592 0.000000 -0.378982
    18 1.215111 -0.432143 1.555796 0.000000 0.000000 -0.378980
    19 1.447909 -0.484273 1.817302 0.000000 0.000000 0.952071
    20 -0.633725 -2.487024 -1.024671 -3.141592 0.000000 0.952072
    21 -0.219140 -0.585863 -1.686731 3.141592 0.000000 -0.461930
    22 0.313627 -0.134236 -0.025840 0.000000 0.000000 -0.461930
    23 -0.459848 -1.563493 1.504620 -0.000001 -0.000001 -0.461931
    24 3.183642 1.493244 4.380347 -0.000001 0.000001 1.162388
    25 0.142583 1.295621 -2.380212 3.141592 0.000000 1.162389
    26 -0.034778 -0.070758 -0.025842 0.000001 -0.000001 0.461930
    27 1.121578 0.217533 -2.145793 -3.141592 -0.000001 0.461930
    28 0.889240 -0.190571 -1.663447 -3.141592 0.000000 -1.162388
    29 1.121579 0.217529 2.601909 0.000001 -0.000001 0.461930
    30 0.823734 -0.094069 2.527809 0.000001 0.000001 -1.162388
    31 1.379455 -0.578719 -2.319656 3.141592 0.000000 -0.952072
    32 0.487700 1.093261 0.231217 0.000000 0.000000 0.378981
    33 1.336686 0.693575 -2.319656 3.141592 0.000000 0.378981
    34 1.300981 0.016212 2.473366 0.000000 0.000000 -0.952072
    35 1.319679 0.136504 2.316782 0.000000 0.000000 0.378981
    36 0.487517 1.397928 0.774834 0.000000 0.000000 -0.120625
    37 0.554394 0.844083 -1.394056 3.141592 0.000000 -0.120625
    38 0.975382 -2.023273 -1.692827 -3.141592 0.000000 0.120625
    39 0.450589 -2.649830 -0.973398 -3.141592 0.000000 -0.588002
    40 1.536596 -2.336307 0.223213 0.000000 0.000000 0.120625
    41 0.651762 -2.744554 0.615837 0.000000 0.000000 -0.588002
    42 -2.702306 -2.881645 -8.550927 0.140549 -3.141514 0.000477
    43 4.065896 0.000000 0.000000 0.039419 0.002793 -1.314045
    44 5.727315 0.000000 0.000000 0.000000 0.000000 -0.433819
    45 1.723414 -0.175511 0.195543 3.141592 0.000000 0.037591
    46 4.167301 1.746282 -0.100235 -1.570796 -2.735176 -1.570796
    47 6.370247 0.000001 0.000000 0.000000 0.000000 0.000000
    48 4.167303 -1.702580 -0.096330 -1.570797 -0.406416 -1.570796
    49 4.167303 -2.023175 -0.126407 -1.570796 1.170555 -1.570796
    50 3.265999 -0.000001 2.349528 0.000000 0.000000 0.000000
    51 -0.066253 -1.005746 0.697836 1.570796 -2.748143 1.570796
    52 -0.066251 0.006352 1.102173 -3.141592 -1.570796 0.000000
    53 -0.066253 0.997053 0.697836 -1.570796 -2.748143 -1.570796
    54 -0.066253 1.238041 -0.749169 1.570796 0.467378 1.570797
    55 -0.066253 0.006354 -1.531549 0.000000 1.570796 0.000000
    56 -0.066253 -1.246733 -0.749170 -1.570796 0.467378 -1.570796
    57 4.167302 2.074692 -0.110781 1.570796 1.170556 1.570797
    58 1.216876 0.135612 -1.477553 3.141592 0.000000 -0.952072
    59 -1.761256 1.219729 4.203044 0.000000 0.000000 -0.952072
    60 -0.021695 0.770651 4.046457 0.000000 0.000000 0.378979
    61 -1.056089 -0.292325 -2.590041 3.141592 0.000000 0.378982
    62 0.040048 0.326424 0.590632 0.000000 0.000000 0.378979
    63 1.256126 -2.765132 0.524101 0.000000 0.000000 0.120625
    64 0.098153 -2.550985 0.615837 0.000000 0.000000 -0.588002
    65 -0.982940 -1.740619 -0.921683 -3.141592 0.000000 -0.588002
    66 0.599623 -2.115294 -0.577590 -3.141592 0.000000 0.120625
    67 0.208076 2.116280 -1.091202 3.141592 0.000000 -0.120625
    68 1.107038 2.717971 -0.815025 3.141592 0.000000 0.588003
    69 0.724972 2.679563 0.818810 0.000000 0.000000 -0.120623
    70 0.977455 3.062986 0.615837 0.000000 0.000000 0.588002
    71 -0.776410 -0.133204 -2.149397 -3.141592 0.000000 0.952070
    72 -2.184405 -2.030485 0.231215 0.000001 0.000000 -0.378981
    73 -1.614705 -0.850092 -1.977249 -3.141592 0.000000 -0.378982
    74 -0.006206 -0.506666 4.203042 0.000001 0.000000 0.952071
    75 -2.057160 -1.209801 4.046455 0.000001 0.000000 -0.378981
    76 -0.421078 -0.781727 -0.025838 0.000000 0.000000 -0.461930
    77 -0.574623 1.009408 -0.574120 3.141592 0.000000 -0.461930
    78 0.104473 0.378929 -1.228422 -3.141592 0.000000 1.162388
    79 -0.438478 0.430906 3.442117 -0.000001 -0.000001 -0.461931
    80 -1.447742 0.719807 3.671972 -0.000001 0.000001 1.162388
    81 0.160205 0.682918 -1.480127 -3.141592 -0.000001 0.461930
    82 -0.026455 -0.035077 -0.025838 0.000000 0.000000 0.461930
    83 -0.253195 0.528404 2.006952 0.000001 -0.000001 0.461930
    84 0.277656 -0.404937 2.009438 0.000001 0.000001 -1.162388
    85 0.346031 -1.202524 -2.848229 -3.141592 0.000000 -1.162389
    86 5.413674 0.000000 2.349528 1.570796 0.000000 0.000000
    87 5.520185 -0.000004 2.349524 -1.570796 0.000000 0.000000
    88 -0.002752 -1.622408 -8.698865 -0.140555 0.000000 0.000000
    89 8.091316 -7.510619 -0.202113 6.280325 -3.130341 -0.162930
    90 3.042391 8.258663 -0.188870 1.568001 3.142754 1.346358
    91 -0.064108 -8.541706 -0.510396 3.079389 -0.350626 -0.076520
    92 -0.488518 -2.755602 -0.228260 3.242587 0.031269 -0.215078
    93 0.039887 -1.550105 0.072824 3.080321 0.026078 0.046897
    94 0.032692 -1.341364 0.027674 3.137775 0.023442 0.048262
    95 0.250027 -2.820665 -0.238396 3.177825 -0.042470 -0.035145
    96 -0.049759 -1.668825 -0.051869 3.155800 -0.041347 -0.041888
    97 -0.034142 -1.234252 0.084782 3.095853 -0.042162 -0.041059
    98 0.957766 -2.746780 -0.090302 -3.153963 -0.247284 0.135866
    99 -0.033420 -1.428380 -0.034695 3.151284 -0.084312 -0.055657
    100 -0.022360 -1.012125 0.007065 3.141170 -0.085079 -0.054470
    101 -1.180681 -2.507217 -0.193859 3.219374 -0.058614 -0.534075
    102 -0.024967 -1.127840 0.025410 3.118854 -0.076294 -0.050059
    103 -0.020057 -0.863623 0.064779 3.076148 -0.075383 -0.051426
    104 0.657731 -1.123056 0.189285 0.377547 0.335078 2.757212
    105 0.907002 -0.067881 0.047979 0.541268 -0.077504 3.105925
    106 0.671070 -0.018911 0.016666 0.535001 -0.078645 3.116370
    107 0.120153 -0.050270 -0.054489 0.287569 3.110905 1.561085
    108 -8.106946 -7.512579 -0.138006 0.011632 -3.150573 0.171052
    109 0.085225 -8.559797 -0.400002 -3.111222 0.365155 0.048716
    110 0.447953 -2.798986 -0.200443 3.243295 -0.014770 0.208275
    111 -0.032909 -1.472391 0.055723 3.015873 -0.012212 -0.055618
    112 -0.027022 -1.135516 0.042292 -3.007710 -0.003392 -0.056759
    113 -0.249534 -2.846964 -0.174213 3.177907 -0.012062 0.026923
    114 0.043235 -1.687847 0.033510 3.105981 -0.012361 0.036350
    115 0.031729 -1.149111 0.023681 -3.089631 -0.016987 0.027224
    116 -0.963866 -2.785145 -0.085350 3.120762 0.073123 -0.176467
    117 0.028479 -1.457756 -0.013261 3.103721 -0.089022 0.015604
    118 0.021413 -0.957781 -0.019018 3.127447 -0.089093 0.015340
    119 1.164475 -2.543940 -0.170330 3.220681 0.091823 0.517632
    120 0.024032 -1.183731 0.017807 2.991457 0.109539 0.023838
    121 0.014898 -0.891802 0.023122 -3.090104 0.105225 0.038950
    122 -0.586770 -1.264477 0.200161 0.148374 0.421108 -5.840869
    123 1.612682 0.125089 0.016848 -0.048841 0.035459 -3.086641
    124 1.125760 0.028892 -0.005766 -0.043735 0.022033 -2.973140
    125 -0.139399 -0.111698 0.014397 0.285382 -0.030687 1.580508
    126 -3.123992 8.346975 -0.286309 1.581667 -0.010757 -1.347779
  time 10
    0 2.700209 -2.880254 -8.550928 -0.140550 -0.000585 -0.004193
    1 4.065896 0.000000 -0.000002 -0.051939 0.003039 -1.328889
    2 5.727314 0.000000 0.000000 0.000000 0.000000 -0.403722
    3 1.722176 -0.143091 0.002272 -0.015850 0.014830 0.029402
    4 4.167305 -1.758000 -0.096329 1.570796 -2.735176 1.570796
    5 4.167303 -2.082506 -0.130313 -1.570796 1.170555 -1.570797
    6 3.266000 0.000002 2.349527 0.000000 0.000000 0.000000
    7 -0.066254 1.001840 0.682211 1.570797 -0.393450 1.570796
    8 -0.066251 -0.006353 1.086548 -3.141592 -1.570796 0.000000
    9 -0.066253 -0.993147 0.697837 1.570796 -2.748143 1.570796
    10 -0.066253 -1.238041 -0.749170 -1.570796 0.467378 -1.570796
    11 -0.066254 -0.006354 -1.531548 0.000000 1.570796 0.000000
    12 -0.066253 1.246734 -0.749170 -1.570796 2.674214 -1.570796
    13 4.167304 2.019271 -0.118594 1.570796 1.170555 1.570797
    14 4.167304 1.694767 -0.096330 -1.570796 -2.735176 -1.570796
    15 6.397595 0.000001 0.000000 0.000000 0.000000 0.000000
    16 -0.737056 -1.342415 0.669736 0.000000 0.000000 -0.378980
    17 1.065329 -0.552495 -1.712876 -3.141592 0.000000 -0.378982
    18 1.215111 -0.432143 1.555796 0.000000 0.000000 -0.378980
    19 1.447909 -0.484273 1.817302 0.000000 0.000000 0.952071
    20 -0.633725 -2.487024 -1.024671 -3.141592 0.000000 0.952072
    21 -0.219140 -0.585863 -1.686731 3.141592 0.000000 -0.461930
    22 0.313627 -0.134236 -0.025840 0.000000 0.000000 -0.461930
    23 -0.459848 -1.563493 1.504620 -0.000001 -0.000001 -0.461931
    24 3.183642 1.493244 4.380347 -0.000001 0.000001 1.162388
    25 0.142583 1.295621 -2.380212 3.141592 0.000000 1.162389
    26 -0.034778 -0.070758 -0.025842 0.000001 -0.000001 0.461930
    27 1.121578 0.217533 -2.145793 -3.141592 -0.000001 0.461930
    28 0.889240 -0.190571 -1.663447 -3.141592 0.000000 -1.162388
    29 1.121579 0.217529 2.601909 0.000001 -0.000001 0.461930
    30 0.823734 -0.094069 2.527809 0.000001 0.000001 -1.162388
    31 1.379455 -0.578719 -2.319656 3.141592 0.000000 -0.952072
    32 0.487700 1.093261 0.231217 0.000000 0.000000 0.378981
    33 1.336686 0.693575 -2.319656 3.141592 0.000000 0.378981
    34 1.300981 0.016212 2.473366 0.000000 0.000000 -0.952072
    35 1.319679 0.136504 2.316782 0.000000 0.000000 0.378981
    36 0.487517 1.397928 0.774834 0.000000 0.000000 -0.120625
    37 0.554394 0.844083 -1.394056 3.141592 0.000000 -0.120625
    38 0.975382 -2.023273 -1.692827 -3.141592 0.000000 0.120625
    39 0.450589 -2.649830 -0.973398 -3.141592 0.000000 -0.588002
    40 1.536596 -2.336307 0.223213 0.000000 0.000000 0.120625
    41 0.651762 -2.744554 0.615837 0.000000 0.000000 -0.588002
    42 -2.702306 -2.881645 -8.550927 0.140549 -3.141514 0.000477
    43 4.065896 0.000000 0.000000 0.076546 -0.009297 -1.332984
    44 5.727315 0.000000 0.000000 0.000000 0.000000 -0.403739
    45 1.723414 -0.175511 0.195543 3.141592 0.000000 0.037591
    46 4.167301 1.746282 -0.100235 -1.570796 -2.735176 -1.570796
    47 6.370247 0.000001 0.000000 0.000000 0.000000 0.000000
    48 4.167303 -1.702580 -0.096330 -1.570797 -0.406416 -1.570796
    49 4.167303 -2.023175 -0.126407 -1.570796 1.170555 -1.570796
    50 3.265999 -0.000001 2.349528 0.000000 0.000000 0.000000
    51 -0.066253 -1.005746 0.697836 -1.570796 -0.393449 -1.570796
    52 -0.066251 0.006352 1.102173 -3.141592 -1.570796 0.000000
    53 -0.066253 0.997053 0.697836 -1.570796 -2.748143 -1.570796
    54 -0.066253 1.238041 -0.749169 1.570796 0.467378 1.570797
    55 -0.066253 0.006354 -1.531549 0.000000 1.570796 0.000000
    56 -0.066253 -1.246733 -0.749170 -1.570796 0.467378 -1.570796
    57 4.167302 2.074692 -0.110781 1.570796 1.170556 1.570797
    58 1.216876 0.135612 -1.477553 3.141592 0.000000 -0.952072
    59 -1.761256 1.219729 4.203044 0.000000 0.000000 -0.952072
    60 -0.021695 0.770651 4.046457 0.000000 0.000000 0.378979
    61 -1.056089 -0.292325 -2.590041 3.141592 0.000000 0.378982
    62 0.040048 0.326424 0.590632 0.000000 0.000000 0.378979
    63 1.256126 -2.765132 0.524101 0.000000 0.000000 0.120625
    64 0.098153 -2.550985 0.615837 0.000000 0.000000 -0.588002
    65 -0.982940 -1.740619 -0.921683 -3.141592 0.000000 -0.588002
    66 0.599623 -2.115294 -0.577590 -3.141592 0.000000 0.120625
    67 0.208076 2.116280 -1.091202 3.141592 0.000000 -0.120625
    68 1.107038 2.717971 -0.815025 3.141592 0.000000 0.588003
    69 0.724972 2.679563 0.818810 0.000000 0.000000 -0.120623
    70 0.977455 3.062986 0.615837 0.000000 0.000000 0.588002
    71 -0.776410 -0.133204 -2.149397 -3.141592 0.000000 0.952070
    72 -2.184405 -2.030485 0.231215 0.000001 0.000000 -0.378981
    73 -1.614705 -0.850092 -1.977249 -3.141592 0.000000 -0.378982
    74 -0.006206 -0.506666 4.203042 0.000001 0.000000 0.952071
    75 -2.057160 -1.209801 4.046455 0.000001 0.000000 -0.378981
    76 -0.421078 -0.781727 -0.025838 0.000000 0.000000 -0.461930
    77 -0.574623 1.009408 -0.574120 3.141592 0.000000 -0.461930
    78 0.104473 0.378929 -1.228422 -3.141592 0.000000 1.162388
    79 -0.438478 0.430906 3.442117 -0.000001 -0.000001 -0.461931
    80 -1.447742 0.719807 3.671972 -0.000001 0.000001 1.162388
    81 0.160205 0.682918 -1.480127 -3.141592 -0.000001 0.461930
    82 -0.026455 -0.035077 -0.025838 0.000000 0.000000 0.461930
    83 -0.253195 0.528404 2.006952 0.000001 -0.000001 0.461930
    84 0.277656 -0.404937 2.009438 0.000001 0.000001 -1.162388
    85 0.346031 -1.202524 -2.848229 -3.141592 0.000000 -1.162389
    86 5.413674 0.000000 2.349528 1.570796 0.000000 0.000000
    87 5.520185 -0.000004 2.349524 -1.570796 0.000000 0.000000
    88 -0.002752 -1.622408 -8.698865 -0.140555 0.000000 0.000000
    89 7.938968 -7.549683 -0.213832 0.002191 -3.107923 -0.151589
    90 2.741600 8.371948 -0.181058 1.568480 3.142083 1.385645
    91 -0.064108 -8.545613 -0.510396 3.077770 -0.348854 -0.061276
    92 -0.488518 -2.755602 -0.228260 3.242492 0.031269 -0.215078
    93 0.039887 -1.550105 0.072824 3.080321 0.026078 0.046897
    94 0.032692 -1.341364 0.027674 3.137775 0.023442 0.048262
    95 0.250027 -2.820665 -0.238396 3.177825 -0.042470 -0.035145
    96 -0.049759 -1.668825 -0.051869 3.155800 -0.041347 -0.041888
    97 -0.034142 -1.234252 0.084782 3.095853 -0.042162 -0.041059
    98 0.957766 -2.746780 -0.090302 -3.153963 -0.247284 0.135866
    99 -0.033420 -1.428380 -0.034695 3.151284 -0.084312 -0.055657
    100 -0.022360 -1.012125 0.007065 3.141170 -0.085079 -0.054470
    101 -1.180681 -2.507217 -0.193859 3.219374 -0.058614 -0.534075
    102 -0.024967 -1.127840 0.025410 3.118854 -0.076294 -0.050059
    103 -0.020057 -0.863623 0.064779 3.076148 -0.075383 -0.051426
    104 0.657731 -1.123056 0.189285 0.377547 0.335078 2.757212
    105 0.907002 -0.067881 0.047979 0.541268 -0.077504 3.105925
    106 0.671070 -0.018911 0.016666 0.535001 -0.078645 3.116370
    107 0.120153 -0.050270 -0.054489 0.287569 3.110905 1.561085
    108 -8.005380 -7.539924 -0.204414 0.013786 -3.190038 0.159799
    109 0.085225 -8.559797 -0.400002 -3.107463 0.365561 0.038158
    110 0.447953 -2.798986 -0.200443 3.243295 -0.014770 0.208275
    111 -0.032909 -1.472391 0.055723 3.015873 -0.012212 -0.055618
    112 -0.027022 -1.135516 0.042292 -3.007710 -0.003392 -0.056759
    113 -0.249534 -2.846964 -0.174213 3.177907 -0.012062 0.026923
    114 0.043235 -1.687847 0.033510 3.105981 -0.012361 0.036350
    115 0.031729 -1.149111 0.023681 -3.089631 -0.016987 0.027224
    116 -0.963866 -2.785145 -0.085350 3.120762 0.073123 -0.176467
    117 0.028479 -1.457756 -0.013261 3.103721 -0.089022 0.015604
    118 0.021413 -0.957781 -0.019018 3.127447 -0.089093 0.015340
    119 1.164475 -2.543940 -0.170330 3.220681 0.091823 0.517632
    120 0.024032 -1.183731 0.017807 2.991457 0.109539 0.023838
    121 0.014898 -0.891802 0.023122 -3.090104 0.105225 0.038950
    122 -0.586770 -1.264477 0.200161 0.148374 0.421108 -5.840869
    123 1.612682 0.125089 0.016848 -0.048841 0.035459 -3.086641
    124 1.125760 0.028892 -0.005766 -0.043735 0.022033 -2.973140
    125 -0.139399 -0.111698 0.014397 0.285382 -0.030687 1.580508
    126 -2.893516 8.436821 -0.278497 1.581667 -0.009993 -1.377900
end
