// Created by Crowbar 0.68

$modelname "weapons/tfa_cso/c_heavyzg.mdl"

$include "csonline_gmod.qci"

$bodygroup "weapon"
{
	studio "v_ref"
}

$cdmaterials "models/weapons/tfa_cso/heavyzg"

$attachment 0 "Bip01" -1.5 0 -2

$definebone "Bip01" "" 0.000011 -0.124871 -9.500673 0.000000 -89.999931 0.000000 0.000000 0.000000 0.000000 -0.000000 0.000000 0.000000
$definebone "Bip01 Pelvis" "Bip01" 0.000000 0.000000 0.000000 -89.999985 -89.999931 0.000000 0.000000 0.000000 0.000000 -0.000000 0.000000 0.000000
$definebone "Bip01 Spine" "Bip01 Pelvis" 0.934761 -0.001068 0.000001 -0.000057 0.045607 -0.000229 0.000000 0.000000 0.000000 -0.000000 -0.000000 0.000000
$definebone "Bip01 Spine1" "Bip01 Spine" 1.341055 -0.001297 0.000000 -0.000000 -0.000000 0.000000 0.000000 0.000000 0.000000 -0.000000 -0.000000 0.000000
$definebone "Bip01 Spine2" "Bip01 Spine1" 1.628403 -0.001648 0.000000 -0.000000 -0.000000 0.000000 0.000000 0.000000 0.000000 -0.000000 -0.000000 0.000000
$definebone "Bip01 Neck" "Bip01 Spine2" 2.326735 -0.511644 0.000000 -0.000000 -0.000000 0.000000 0.000000 0.000000 0.000000 -0.000000 -0.000000 0.000000
$definebone "Bip01 Head" "Bip01 Neck" 1.013412 -0.034439 -0.000000 -0.000000 -0.045722 0.000000 0.000000 0.000000 0.000000 -0.000000 -0.000000 0.000000
$definebone "Bip01 facialR_eye01up" "Bip01 Head" 2.452333 2.669480 -1.197925 9.999146 90.000786 0.007907 0.000000 -0.000000 0.000000 -0.000000 0.000000 0.000000
$definebone "Bip01 facialR_eye02up" "Bip01 Head" 2.229388 2.285450 -1.670711 15.002384 90.003075 0.020111 0.000000 0.000000 0.000000 -0.000000 0.000000 0.000000
$definebone "Bip01 facialR_eye03up" "Bip01 Head" 2.229904 2.869047 -0.599710 9.998687 90.001419 0.015756 0.000000 -0.000000 0.000000 -0.000000 0.000000 0.000000
$definebone "Bip01 facialR_eye01bottom" "Bip01 Head" 1.625705 2.723764 -1.207268 9.998687 90.001419 0.015756 0.000000 0.000000 0.000000 -0.000000 0.000000 0.000000
$definebone "Bip01 facialR_eye02bottom" "Bip01 Head" 1.745686 2.356648 -1.617459 10.001266 90.002159 0.023663 -0.000000 0.000000 0.000000 -0.000000 0.000000 0.000000
$definebone "Bip01 facialR_eye03bottom" "Bip01 Head" 1.747359 2.872107 -0.684135 10.001266 90.002159 0.023663 0.000000 -0.000000 0.000000 -0.000000 0.000000 0.000000
$definebone "Bip01 facialL_eye01bottom" "Bip01 Head" 1.625705 2.723757 1.207283 -9.998973 90.001419 -0.016100 0.000000 -0.000000 -0.000000 -0.000000 0.000000 0.000000
$definebone "Bip01 facialL_eye01up" "Bip01 Head" 2.452333 2.669474 1.197939 -9.999490 90.000786 -0.008193 0.000000 0.000000 0.000000 -0.000000 0.000000 0.000000
$definebone "Bip01 facialL_eye02bottom" "Bip01 Head" 1.745686 2.356639 1.617472 -10.001551 90.002159 -0.023950 0.000000 0.000000 0.000000 -0.000001 0.000000 0.000000
$definebone "Bip01 facialL_eye02up" "Bip01 Head" 2.229388 2.285441 1.670723 -15.002671 90.003075 -0.020455 0.000000 -0.000000 0.000000 -0.000002 -0.000000 0.000000
$definebone "Bip01 facialL_eye03bottom" "Bip01 Head" 1.747359 2.872103 0.684151 -10.001551 90.002159 -0.023950 0.000000 -0.000000 -0.000000 -0.000001 0.000000 0.000000
$definebone "Bip01 facialL_eye03up" "Bip01 Head" 2.229904 2.869044 0.599726 -9.998973 90.001419 -0.016100 0.000000 0.000000 0.000000 -0.000000 0.000000 0.000000
$definebone "Bip01 facialS_sub02" "Bip01 Head" 1.427632 3.080031 -0.000007 -0.000344 65.045723 -0.000172 0.000000 0.000000 0.000000 -0.000000 -0.000000 0.000000
$definebone "Bip01 facialS_sub03" "Bip01 Head" 0.633527 3.525408 -0.000009 -0.000344 81.925858 -0.000286 0.000000 0.000000 0.000000 -0.000000 -0.000000 0.000000
$definebone "Bone_bottle01" "Bip01 facialS_sub03" 0.707700 -0.020284 0.000012 0.000286 0.104107 179.842468 0.000000 0.000000 0.000000 0.000000 -0.000000 -0.000000
$definebone "Bone_bottle02" "Bip01 facialS_sub03" -12.116547 2.274072 -0.210406 -89.999985 97.570190 0.000000 0.000000 0.000000 0.000000 -0.000000 -0.000000 -0.000000
$definebone "Bip01 facialR_eye01middle" "Bip01 Head" 1.985026 2.094557 -1.747435 15.001411 90.004623 0.032200 0.000000 0.000000 0.000000 -0.000002 0.000000 -0.000000
$definebone "Bip01 facialR_eye02middle" "Bip01 Head" 1.985122 2.802781 -0.609669 15.001241 90.006287 0.044290 0.000000 0.000000 -0.000000 -0.000000 0.000000 -0.000000
$definebone "Bip01 facialL_eye01middle" "Bip01 Head" 1.985026 2.094547 1.747447 -15.001695 90.004623 -0.032487 0.000000 0.000000 0.000000 0.000002 -0.000000 -0.000000
$definebone "Bip01 facialL_eye02middle" "Bip01 Head" 1.985122 2.802778 0.609685 -15.001526 90.006287 -0.044576 0.000000 0.000000 -0.000000 -0.000000 -0.000000 -0.000000
$definebone "Bip01 facial_eyeR" "Bip01 Head" 1.993249 2.242430 -0.998997 15.851049 86.333679 -4.826138 0.000000 0.000000 0.000000 -0.000000 0.000000 -0.000001
$definebone "Bip01 facial_eyeL" "Bip01 Head" 1.993249 2.242424 0.999010 -15.851335 86.333679 4.825794 0.000000 0.000000 0.000000 -0.000002 -0.000000 0.000000
$definebone "Bip01 facialS_sub01" "Bip01 Head" 2.170864 2.912448 -0.000002 -0.000458 78.861969 -0.000401 0.000000 0.000000 -0.000000 -0.000000 -0.000000 0.000000
$definebone "Bip01 facialR_sub01" "Bip01 Head" 0.442989 2.367979 -1.717771 48.072823 90.038658 0.073854 0.000000 0.000000 0.000000 -0.000000 0.000000 0.000000
$definebone "Bip01 facialR_sub02" "Bip01 facialR_sub01" 0.000000 0.000436 0.000000 -0.000000 0.000000 -0.000229 0.000000 0.000000 0.000000 -0.000000 0.000000 0.000000
$definebone "Bip01 facialL_sub01" "Bip01 Head" 0.442989 2.367970 1.717784 -48.073109 90.038658 -0.074198 0.000000 0.000000 0.000000 -0.000002 0.000000 -0.000000
$definebone "Bip01 facialL_sub02" "Bip01 facialL_sub01" 0.000000 0.000436 0.000000 -0.000002 0.000000 0.000229 0.000000 0.000000 0.000000 -0.000002 0.000000 -0.000000
$definebone "Bip01 L Clavicle" "Bip01 Neck" -1.201226 0.258552 1.795281 -63.000660 89.954376 89.999985 0.000000 0.000000 0.000000 -0.000000 -0.000002 0.000000
$definebone "Bip01 L UpperArm" "Bip01 L Clavicle" 0.850741 0.000000 0.000000 1.160010 12.152322 -38.155659 -0.000000 -0.000000 0.000000 -0.000002 -0.000001 0.000005
$definebone "Bip01 L Forearm" "Bip01 L UpperArm" 1.906783 0.000000 -0.000000 -0.000000 -1.098304 0.000005 0.000000 0.000000 0.000000 -0.000000 -0.000002 0.000005
$definebone "Bip01 L Hand" "Bip01 L Forearm" 1.653959 -0.000000 -0.000000 -0.000000 -0.000002 -89.954369 0.000000 0.000000 0.000000 0.000001 -0.000001 -0.000007
$definebone "Bip01 L Finger0" "Bip01 L Hand" 0.746156 0.000000 -0.000000 0.000001 -0.000001 -0.045611 0.000000 0.000000 0.000000 -0.000000 -0.000002 -0.000002
$definebone "Bip01 R Clavicle" "Bip01 Neck" -1.201226 0.258562 -1.795283 63.000320 89.954376 -89.999985 0.000000 0.000000 0.000000 0.000000 -0.000002 0.000000
$definebone "Bip01 R UpperArm" "Bip01 R Clavicle" 0.850741 0.000000 0.000000 -1.160010 12.152323 38.155670 0.000000 0.000000 0.000000 0.000002 0.000000 0.000004
$definebone "Bip01 R Forearm" "Bip01 R UpperArm" 1.906784 0.000000 0.000000 0.000002 -1.098303 0.000003 0.000000 0.000000 0.000000 0.000002 0.000001 0.000003
$definebone "Bip01 R Hand" "Bip01 R Forearm" 1.653958 -0.000000 -0.000000 0.000002 0.000001 89.954376 0.000000 0.000000 0.000000 0.000002 -0.000003 -0.000001
$definebone "Bip01 R Finger0" "Bip01 R Hand" 0.746156 0.000000 0.000000 0.000002 -0.000003 0.045605 0.000000 -0.000000 0.000000 0.000003 -0.000003 -0.000005
$definebone "Bip01 bone_knife01" "Bip01 Spine2" 0.516597 -2.390522 1.122536 -13.523808 -59.352985 -7.902807 0.000000 0.000000 0.000000 0.000003 -0.000000 0.000000
$definebone "Bip01 sub_hand01" "Bip01 Spine1" 0.571082 1.510174 1.696974 -51.741814 121.912704 -6.091516 -0.000000 -0.000000 0.000000 0.000002 0.000003 -0.000003
$definebone "Bip01 sub_hand02" "Bip01 sub_hand01" 0.706100 0.000340 -0.000002 5.802234 0.000175 0.004352 0.000000 0.000000 -0.000000 0.000007 0.000005 -0.000003
$definebone "Bip01 sub_hand03" "Bip01 sub_hand02" 0.859696 0.000420 -0.000001 0.000007 0.000005 -0.000290 0.000000 0.000000 0.000000 0.000007 0.000004 -0.000003
$definebone "Bip01 sub_spine1C01" "Bip01 Spine1" 0.555550 2.510423 0.000004 -0.000057 85.226212 -0.000630 0.000000 0.000000 0.000000 -0.000000 0.000000 -0.000000
$definebone "Bip01 sub_spine1B01" "Bip01 Spine1" 0.447983 -3.058490 0.000003 0.000036 -94.865059 -179.999359 0.000000 0.000000 0.000000 -0.000000 -0.000000 0.000000
$definebone "Bip01 sub_spine1R02" "Bip01 Spine1" 0.679808 -2.299528 -1.914506 45.826763 -86.717049 -172.705643 0.000000 0.000000 -0.000000 -0.000000 0.000000 0.000001
$definebone "Bip01 sub_spine1R03" "Bip01 Spine1" 0.803585 1.754606 -1.907881 39.939453 54.372318 -20.123768 0.000000 0.000000 0.000000 -0.000003 -0.000002 0.000003
$definebone "Bip01 sub_spine1L02" "Bip01 Spine1" 0.679808 -2.299538 1.914493 -45.826477 -86.717049 172.705353 0.000000 0.000000 -0.000000 -0.000000 -0.000000 0.000001
$definebone "Bip01 sub_spine1L03" "Bip01 Spine1" 0.803585 1.754595 1.907890 -39.939743 54.372211 20.123652 0.000000 0.000000 0.000000 -0.000000 0.000003 0.000000
$definebone "Bip01 sub_spine1R01" "Bip01 Spine1" 0.773883 0.068938 -2.535970 75.560760 32.978474 -56.084373 0.000000 0.000000 0.000000 -0.000000 0.000000 0.000001
$definebone "Bip01 sub_spine1L01" "Bip01 Spine1" 0.773883 0.068924 2.535971 -75.560989 32.977501 56.085064 0.000000 0.000000 0.000000 -0.000000 -0.000001 -0.000002
$definebone "Bip01 sub_spineC01" "Bip01 Spine" 0.540238 2.709644 0.000004 -0.000000 94.536888 -0.000344 0.000000 0.000000 0.000000 -0.000000 0.000000 0.000000
$definebone "Bip01 sub_spineR01" "Bip01 Spine" 0.652064 0.170291 -2.760162 82.002235 90.281075 0.323377 0.000000 -0.000000 0.000000 -0.000002 0.000000 -0.000000
$definebone "Bip01 sub_spineR02" "Bip01 Spine" 0.468597 1.907766 -2.260206 35.514843 100.502983 6.233781 0.000000 0.000000 0.000000 -0.000005 -0.000000 0.000000
$definebone "Bip01 sub_spineB01" "Bip01 Spine" 0.449199 -2.753647 0.000004 0.000172 -111.208473 0.000286 0.000000 0.000000 0.000000 -0.000000 -0.000000 -0.000000
$definebone "Bip01 sub_spineR03" "Bip01 Spine" 0.453035 -1.957874 -2.062331 41.100140 -103.581924 176.149841 0.000000 0.000000 0.000000 -0.000000 0.000000 0.000001
$definebone "Bip01 sub_spineL01" "Bip01 Spine" 0.652064 0.170276 2.760164 -82.002518 90.281189 -0.323778 0.000000 0.000000 0.000000 0.000001 0.000000 0.000000
$definebone "Bip01 sub_spineL02" "Bip01 Spine" 0.468596 1.907754 2.260216 -35.515190 100.503044 -6.234181 -0.000000 0.000000 0.000000 0.000002 -0.000000 0.000000
$definebone "Bip01 sub_spineL03" "Bip01 Spine" 0.453035 -1.957886 2.062321 -41.099789 -103.581871 -176.150238 0.000000 0.000000 0.000000 -0.000002 0.000001 -0.000000
$definebone "Bip01 L Thigh" "Bip01 Pelvis" -0.000002 0.000002 1.585454 -4.045926 147.281891 -179.769974 0.000000 0.000000 -0.000000 -0.000000 0.000000 0.000000
$definebone "Bip01 L Calf" "Bip01 L Thigh" 1.772562 0.000000 -0.000000 -0.000000 -7.963256 -0.000000 0.000000 -0.000000 0.000000 -0.000000 -0.000005 -0.000000
$definebone "Bip01 L Foot" "Bip01 L Calf" 0.837624 -0.000000 0.000000 -4.051098 3.156307 0.110122 0.000001 0.000000 0.000000 -0.000000 -0.000005 0.000000
$definebone "Bip01 L Toe0" "Bip01 L Foot" 0.582823 0.526414 0.000000 -0.000000 89.999992 -0.000000 0.000000 -0.000001 0.000000 -0.000000 0.000005 -0.000000
$definebone "Bip01 R Thigh" "Bip01 Pelvis" 0.000002 -0.000003 -1.585454 4.046144 147.281891 179.770020 0.000000 0.000000 0.000000 -0.000000 -0.000003 0.000000
$definebone "Bip01 R Calf" "Bip01 R Thigh" 1.772562 0.000000 -0.000000 -0.000000 -7.963255 0.000000 0.000000 0.000000 -0.000000 -0.000000 -0.000003 0.000000
$definebone "Bip01 R Foot" "Bip01 R Calf" 0.837623 -0.000000 0.000000 4.051097 3.156305 -0.110122 0.000000 0.000000 0.000000 -0.000000 -0.000003 -0.000000
$definebone "Bip01 R Toe0" "Bip01 R Foot" 0.582823 0.526414 -0.000000 0.000000 89.999992 -0.000000 0.000000 0.000000 0.000000 0.000000 0.000003 -0.000000

$sequence "idle1" {
	"v_heavyzg_anims\idle1"
	fps 30
	activity "ACT_VM_IDLE" 40
	loop
	snap
}
$sequence "idle2" {
	"v_heavyzg_anims\idle2"
	{ event 5004 3 "HeavyZG.Idle2" }
	fps 15
	activity "ACT_VM_IDLE" 1
	snap
}
$sequence "reload" {
	"v_heavyzg_anims\reload"
	{ event 5004 14 "HeavyZG.Reload" }
	fps 30
	activity "ACT_VM_RELOAD" 1
	snap
}
$sequence "draw" {
	"v_heavyzg_anims\draw"
	{ event 5004 3 "HeavyZG.Draw" }
	fps 30
	activity "ACT_VM_DRAW" 1
	snap
}
$sequence "shoot1" {
	"v_heavyzg_anims\shoot1"
	{ event 5001 0 "#I22 S0.1 R2 F15 P30 T0.5 A1 L0 O0" }
	{ event 5001 0 "#I23 S0.1 R0 F1 P30 T0.01 A1 L1 O0" }
	fps 30
	activity "ACT_VM_PRIMARYATTACK" 1
	snap
}
$sequence "shoot2" {
	"v_heavyzg_anims\shoot2"
	{ event 5001 0 "#I22 S0.1 R2 F15 P30 T0.5 A1 L0 O0" }
	{ event 5001 0 "#I23 S0.1 R0 F1 P30 T0.01 A1 L1 O0" }
	fps 30
	activity "ACT_VM_PRIMARYATTACK" 1
	snap
}
$sequence "shoot3" {
	"v_heavyzg_anims\shoot3"
	{ event 5001 0 "#I22 S0.1 R2 F15 P30 T0.5 A1 L0 O0" }
	{ event 5001 0 "#I23 S0.1 R0 F1 P30 T0.01 A1 L1 O0" }
	fps 30
	activity "ACT_VM_PRIMARYATTACK" 1
	snap
}
