// Created by Crowbar 0.68

$modelname "speargunex_spear.mdl"
$cd "."
$cdtexture "."
$cliptotextures
$scale 1.0

$bodygroup "studio"
{
	studio "spear_ref"
}

$flags 0

$texturegroup "skinfamilies"
{
	{ "$0a_speargunex_p.bmp"     }
	{ "$0a_speargunex_p_red.bmp" }
}


$cbox 0 0 0 0 0 0

$bbox 0 0 0 0 0 0

$hbox 0 "speargunex_spear" -1.56 -23.639999 0 1.56 0 4.64

$sequence "idle" {
	"speargunex_spear_anims\idle"
	fps 30
}
