version 1
nodes
  0 "argus5_root" -1
  1 "argus5_magazine" 0
  2 "argus5_lever" 0
  3 "argus5_scope_bone" 0
  4 "scope_R" 3
  5 "scope_L" 3
  6 "EF" 3
  7 "root" -1
  8 "Bone01" 7
  9 "Bone_L_Upper" 8
  10 "Bone_Lefthand" 8
  11 "Bone13" 10
  12 "Bone14" 11
  13 "Bone15" 12
  14 "Bone17" 10
  15 "Bone18" 14
  16 "Bone19" 15
  17 "Bone21" 10
  18 "Bone22" 17
  19 "Bone23" 18
  20 "Bone09" 10
  21 "Bone10" 20
  22 "Bone11" 21
  23 "Bone05" 10
  24 "Bone06" 23
  25 "Bone07" 24
  26 "Bone_Se_Hand-L" 10
  27 "Bone04" 7
  28 "Bone_Righthand" 27
  29 "Bone39" 28
  30 "Bone40" 29
  31 "Bone41" 30
  32 "Bone35" 28
  33 "Bone36" 32
  34 "Bone37" 33
  35 "Bone31" 28
  36 "Bone32" 35
  37 "Bone33" 36
  38 "Bone43" 28
  39 "Bone44" 38
  40 "Bone45" 39
  41 "Bone27" 28
  42 "Bone28" 41
  43 "Bone29" 42
  44 "Bone_Se_Hand-R" 28
  45 "Bone_R_Upper" 27
end
skeleton
  time 0
    0 0.275751 -4.206454 -3.934488 1.565766 -0.027974 -1.554025
    1 5.535558 -1.455844 -0.000001 0.000000 0.000000 -1.364276
    2 6.967555 -0.456137 0.775243 1.570767 -1.566682 1.570854
    3 0.594653 3.125398 -0.000001 0.000000 0.000000 0.000000
    4 0.793143 -0.098690 0.439540 -1.570775 1.559439 1.570817
    5 0.793143 -0.098690 -0.474551 1.570775 1.582159 1.570775
    6 -1.049094 -12.486388 0.054639 -1.570797 0.000000 0.000000
    7 -0.002752 -2.016952 -0.003287 0.000000 0.000000 0.000000
    8 4.532614 6.810131 -8.581275 5.694651 -1.252042 0.201219
    9 8.073794 1.031880 -0.372470 1.568903 -3.117093 0.204759
    10 -0.146142 -8.475298 -0.193980 0.297551 -0.210940 -0.176596
    11 -0.488518 -2.755602 -0.228260 -0.636514 -0.072434 -0.337320
    12 0.047700 -1.530573 0.014229 -1.481141 -0.125802 0.203368
    13 0.028786 -1.126514 -0.105143 -0.742955 -0.013303 0.014298
    14 0.250027 -2.820665 -0.238396 -0.418648 -0.123606 -0.157124
    15 -0.057572 -1.598510 0.030164 -1.580137 -0.056699 0.100860
    16 -0.034142 -1.160031 0.053531 -0.902405 0.008281 -0.023154
    17 0.957766 -2.746780 -0.090302 -0.138913 -0.159269 0.186081
    18 -0.033420 -1.393223 -0.022976 -0.746922 0.007634 -0.036734
    19 -0.022360 -0.961342 -0.004654 -0.883172 0.005525 -0.043001
    20 -1.180681 -2.507217 -0.193859 -0.314555 -0.083781 -0.213847
    21 -0.024967 -1.127840 0.017597 -1.431112 0.098765 0.048910
    22 -0.020057 -0.902687 0.025715 -0.805420 0.007514 -0.032334
    23 0.583510 -1.208996 0.197098 -0.016291 -1.086293 -0.690834
    24 1.481238 -0.200698 -0.049680 0.017733 0.168348 -0.720722
    25 0.987486 -0.214230 -0.006773 -0.101489 -0.020928 -1.227553
    26 0.120153 -0.050270 -0.054489 0.287569 3.110905 1.561085
    27 -4.345112 -5.797683 -13.521227 0.919452 -3.672438 1.245530
    28 0.014910 -8.438699 0.033605 0.261569 -0.548033 0.544542
    29 0.447953 -2.798986 -0.200443 -1.083108 -0.024750 0.321985
    30 -0.032909 -1.499736 0.028378 -1.405033 0.023334 -0.026879
    31 -0.027022 -1.115984 -0.028023 -0.967278 0.021752 -0.015208
    32 -0.249534 -2.846964 -0.174213 -0.927167 -0.009008 0.151859
    33 0.043235 -1.656596 0.072574 -1.315085 -0.020930 0.005777
    34 0.031729 -1.137392 0.051025 -1.375111 -0.015333 0.007761
    35 -0.963866 -2.785145 -0.085350 -0.990983 0.136737 -0.225412
    36 0.028479 -1.403067 -0.017167 -0.965960 -0.135474 0.127432
    37 0.021413 -0.942156 0.012233 -0.964436 -0.025335 -0.033641
    38 1.164475 -2.543940 -0.170330 -1.202160 -0.161088 0.388818
    39 0.024032 -1.140761 -0.005631 -0.986046 0.010594 0.051247
    40 0.014898 -0.903521 -0.015942 -1.028794 0.009660 0.051438
    41 -0.586770 -1.264477 0.200161 0.221924 -1.275430 -2.979233
    42 1.569711 0.035243 0.016848 -0.019647 -0.007097 0.922310
    43 1.114041 0.040611 -0.005766 -0.028766 -0.034359 1.035400
    44 -0.045646 -0.072634 0.010491 0.230636 0.395471 1.618939
    45 -8.171021 -0.352510 -0.477722 1.563175 -0.037633 -0.034817
  time 1
    0 0.861707 -4.378334 -3.934488 1.556758 -0.031233 -1.544346
    1 5.535558 -1.455844 -0.000001 0.000000 0.000000 -1.364276
    2 6.967555 -0.456137 0.775243 1.570767 -1.566682 1.570854
    3 0.594653 3.125398 -0.000001 0.000000 0.000000 0.000000
    4 0.793143 -0.098690 0.439540 -1.570775 1.559439 1.570817
    5 0.793143 -0.098690 -0.474551 1.570775 1.582159 1.570775
    6 -1.049094 -12.486388 0.054639 -1.570797 0.000000 0.000000
    7 -0.002752 -2.016952 -0.003287 0.000000 0.000000 0.000000
    8 4.747464 6.739816 -8.643777 5.629594 -1.273598 0.310034
    9 8.077701 0.883438 -0.376376 1.569095 -3.116807 0.186251
    10 -0.142236 -8.471392 -0.186168 0.259988 -0.174640 -0.174951
    11 -0.488518 -2.755602 -0.228260 -0.636514 -0.072434 -0.337320
    12 0.047700 -1.530573 0.014229 -1.481141 -0.125802 0.203368
    13 0.028786 -1.126514 -0.105143 -0.742955 -0.013303 0.014298
    14 0.250027 -2.820665 -0.238396 -0.418648 -0.123606 -0.157124
    15 -0.057572 -1.598510 0.030164 -1.580137 -0.056699 0.100860
    16 -0.034142 -1.160031 0.053531 -0.902405 0.008281 -0.023154
    17 0.957766 -2.746780 -0.090302 -0.138913 -0.159269 0.186081
    18 -0.033420 -1.393223 -0.022976 -0.746922 0.007634 -0.036734
    19 -0.022360 -0.961342 -0.004654 -0.883172 0.005525 -0.043001
    20 -1.180681 -2.507217 -0.193859 -0.314555 -0.083781 -0.213847
    21 -0.024967 -1.127840 0.017597 -1.431112 0.098765 0.048910
    22 -0.020057 -0.902687 0.025715 -0.805420 0.007514 -0.032334
    23 0.583510 -1.208996 0.197098 -0.016291 -1.086293 -0.690834
    24 1.481238 -0.200698 -0.049680 0.017733 0.168348 -0.720722
    25 0.987486 -0.214230 -0.006773 -0.101489 -0.020928 -1.227553
    26 0.120153 -0.050270 -0.054489 0.287569 3.110905 1.561085
    27 -3.395864 -5.950032 -13.665763 1.067939 -3.757929 1.402630
    28 0.042255 -8.411355 0.010167 0.205696 -0.378773 0.547348
    29 0.447953 -2.798986 -0.200443 -1.083108 -0.024750 0.321985
    30 -0.032909 -1.499736 0.028378 -1.405033 0.023334 -0.026879
    31 -0.027022 -1.115984 -0.028023 -0.967278 0.021752 -0.015208
    32 -0.249534 -2.846964 -0.174213 -0.927167 -0.009008 0.151859
    33 0.043235 -1.656596 0.072574 -1.315085 -0.020930 0.005777
    34 0.031729 -1.137392 0.051025 -1.375111 -0.015333 0.007761
    35 -0.963866 -2.785145 -0.085350 -0.990983 0.136737 -0.225412
    36 0.028479 -1.403067 -0.017167 -0.965960 -0.135474 0.127432
    37 0.021413 -0.942156 0.012233 -0.964436 -0.025335 -0.033641
    38 1.164475 -2.543940 -0.170330 -1.202160 -0.161088 0.388818
    39 0.024032 -1.140761 -0.005631 -0.986046 0.010594 0.051247
    40 0.014898 -0.903521 -0.015942 -1.028794 0.009660 0.051438
    41 -0.586770 -1.264477 0.200161 0.221924 -1.275430 -2.979233
    42 1.569711 0.035243 0.016848 -0.019647 -0.007097 0.922310
    43 1.114041 0.040611 -0.005766 -0.028766 -0.034359 1.035400
    44 -0.045646 -0.072634 0.010491 0.230636 0.395471 1.618939
    45 -8.221803 0.178757 -0.477722 1.564805 -0.037058 -0.099593
  time 2
    0 1.478913 -4.518964 -3.899330 1.547175 -0.035641 -1.532787
    1 5.535558 -1.455844 -0.000001 0.000000 0.000000 -1.364276
    2 6.967555 -0.456137 0.775243 1.570767 -1.566682 1.570854
    3 0.594653 3.125398 -0.000001 0.000000 0.000000 0.000000
    4 0.793143 -0.098690 0.439540 -1.570775 1.559439 1.570817
    5 0.793143 -0.098690 -0.474551 1.570775 1.582159 1.570775
    6 -1.049094 -12.486388 0.054639 -1.570797 0.000000 0.000000
    7 -0.002752 -2.016952 -0.003287 0.000000 0.000000 0.000000
    8 4.977940 6.677314 -8.694559 5.542214 -1.293525 0.441913
    9 8.081607 0.711558 -0.376376 1.569383 -3.116425 0.165202
    10 -0.134423 -8.463579 -0.174449 0.223562 -0.135691 -0.175353
    11 -0.488518 -2.755602 -0.228260 -0.636514 -0.072434 -0.337320
    12 0.047700 -1.530573 0.014229 -1.481141 -0.125802 0.203368
    13 0.028786 -1.126514 -0.105143 -0.742955 -0.013303 0.014298
    14 0.250027 -2.820665 -0.238396 -0.418648 -0.123606 -0.157124
    15 -0.057572 -1.598510 0.030164 -1.580137 -0.056699 0.100860
    16 -0.034142 -1.160031 0.053531 -0.902405 0.008281 -0.023154
    17 0.957766 -2.746780 -0.090302 -0.138913 -0.159269 0.186081
    18 -0.033420 -1.393223 -0.022976 -0.746922 0.007634 -0.036734
    19 -0.022360 -0.961342 -0.004654 -0.883172 0.005525 -0.043001
    20 -1.180681 -2.507217 -0.193859 -0.314555 -0.083781 -0.213847
    21 -0.024967 -1.127840 0.017597 -1.431112 0.098765 0.048910
    22 -0.020057 -0.902687 0.025715 -0.805420 0.007514 -0.032334
    23 0.583510 -1.208996 0.197098 -0.016291 -1.086293 -0.690834
    24 1.481238 -0.200698 -0.049680 0.017733 0.168348 -0.720722
    25 0.987486 -0.214230 -0.006773 -0.101489 -0.020928 -1.227553
    26 0.120153 -0.050270 -0.054489 0.287569 3.110905 1.561085
    27 -2.427085 -6.028159 -13.646231 -1.908536 -5.598709 -1.559988
    28 0.065693 -8.387917 -0.013271 0.155534 -0.211158 0.547529
    29 0.447953 -2.798986 -0.200443 -1.083108 -0.024750 0.321985
    30 -0.032909 -1.499736 0.028378 -1.405033 0.023334 -0.026879
    31 -0.027022 -1.115984 -0.028023 -0.967278 0.021752 -0.015208
    32 -0.249534 -2.846964 -0.174213 -0.927167 -0.009008 0.151859
    33 0.043235 -1.656596 0.072574 -1.315085 -0.020930 0.005777
    34 0.031729 -1.137392 0.051025 -1.375111 -0.015333 0.007761
    35 -0.963866 -2.785145 -0.085350 -0.990983 0.136737 -0.225412
    36 0.028479 -1.403067 -0.017167 -0.965960 -0.135474 0.127432
    37 0.021413 -0.942156 0.012233 -0.964436 -0.025335 -0.033641
    38 1.164475 -2.543940 -0.170330 -1.202160 -0.161088 0.388818
    39 0.024032 -1.140761 -0.005631 -0.986046 0.010594 0.051247
    40 0.014898 -0.903521 -0.015942 -1.028794 0.009660 0.051438
    41 -0.586770 -1.264477 0.200161 0.221924 -1.275430 -2.979233
    42 1.569711 0.035243 0.016848 -0.019647 -0.007097 0.922310
    43 1.114041 0.040611 -0.005766 -0.028766 -0.034359 1.035400
    44 -0.045646 -0.072634 0.010491 0.230636 0.395471 1.618939
    45 -8.241335 0.780337 -0.473815 1.566590 -0.036279 -0.172603
  time 3
    0 2.092213 -4.624436 -3.848548 1.538455 -0.041104 -1.522223
    1 5.535558 -1.455844 -0.000001 0.000000 0.000000 -1.364276
    2 6.967555 -0.456137 0.775243 1.570767 -1.566682 1.570854
    3 0.594653 3.125398 -0.000001 0.000000 0.000000 0.000000
    4 0.793143 -0.098690 0.439540 -1.570775 1.559439 1.570817
    5 0.793143 -0.098690 -0.474551 1.570775 1.582159 1.570775
    6 -1.049094 -12.486388 0.054639 -1.570797 0.000000 0.000000
    7 -0.002752 -2.016952 -0.003287 0.000000 0.000000 0.000000
    8 5.208416 6.630438 -8.741436 5.436425 -1.310319 0.591211
    9 8.077701 0.539678 -0.380282 1.569670 -3.116043 0.144153
    10 -0.130517 -8.459673 -0.166636 0.187319 -0.096758 -0.177180
    11 -0.488518 -2.755602 -0.228260 -0.636514 -0.072434 -0.337320
    12 0.047700 -1.530573 0.014229 -1.481141 -0.125802 0.203368
    13 0.028786 -1.126514 -0.105143 -0.742955 -0.013303 0.014298
    14 0.250027 -2.820665 -0.238396 -0.418648 -0.123606 -0.157124
    15 -0.057572 -1.598510 0.030164 -1.580137 -0.056699 0.100860
    16 -0.034142 -1.160031 0.053531 -0.902405 0.008281 -0.023154
    17 0.957766 -2.746780 -0.090302 -0.138913 -0.159269 0.186081
    18 -0.033420 -1.393223 -0.022976 -0.746922 0.007634 -0.036734
    19 -0.022360 -0.961342 -0.004654 -0.883172 0.005525 -0.043001
    20 -1.180681 -2.507217 -0.193859 -0.314555 -0.083781 -0.213847
    21 -0.024967 -1.127840 0.017597 -1.431112 0.098765 0.048910
    22 -0.020057 -0.902687 0.025715 -0.805420 0.007514 -0.032334
    23 0.583510 -1.208996 0.197098 -0.016291 -1.086293 -0.690834
    24 1.481238 -0.200698 -0.049680 0.017733 0.168348 -0.720722
    25 0.987486 -0.214230 -0.006773 -0.101489 -0.020928 -1.227553
    26 0.120153 -0.050270 -0.054489 0.287569 3.110905 1.561085
    27 -1.747376 -6.094567 -13.470444 -1.813186 -5.561157 -1.432230
    28 0.081319 -8.380104 -0.032803 0.147458 -0.110299 0.537980
    29 0.447953 -2.798986 -0.200443 -1.083108 -0.024750 0.321985
    30 -0.032909 -1.499736 0.028378 -1.405033 0.023334 -0.026879
    31 -0.027022 -1.115984 -0.028023 -0.967278 0.021752 -0.015208
    32 -0.249534 -2.846964 -0.174213 -0.927167 -0.009008 0.151859
    33 0.043235 -1.656596 0.072574 -1.315085 -0.020930 0.005777
    34 0.031729 -1.137392 0.051025 -1.375111 -0.015333 0.007761
    35 -0.963866 -2.785145 -0.085350 -0.990983 0.136737 -0.225412
    36 0.028479 -1.403067 -0.017167 -0.965960 -0.135474 0.127432
    37 0.021413 -0.942156 0.012233 -0.964436 -0.025335 -0.033641
    38 1.164475 -2.543940 -0.170330 -1.202160 -0.161088 0.388818
    39 0.024032 -1.140761 -0.005631 -0.986046 0.010594 0.051247
    40 0.014898 -0.903521 -0.015942 -1.028794 0.009660 0.051438
    41 -0.586770 -1.264477 0.200161 0.221924 -1.275430 -2.979233
    42 1.569711 0.035243 0.016848 -0.019647 -0.007097 0.922310
    43 1.114041 0.040611 -0.005766 -0.028766 -0.034359 1.035400
    44 -0.045646 -0.072634 0.010491 0.230636 0.395471 1.618939
    45 -8.213991 1.409263 -0.466002 1.568400 -0.035320 -0.249141
  time 4
    0 2.666449 -4.694750 -3.793858 1.531842 -0.047237 -1.514978
    1 5.535558 -1.455844 -0.000001 0.000000 0.000000 -1.364276
    2 6.967555 -0.456137 0.775243 1.570767 -1.566682 1.570854
    3 0.594653 3.125398 -0.000001 0.000000 0.000000 0.000000
    4 0.793143 -0.098690 0.439540 -1.570775 1.559439 1.570817
    5 0.793143 -0.098690 -0.474551 1.570775 1.582159 1.570775
    6 -1.049094 -12.486388 0.054639 -1.570797 0.000000 0.000000
    7 -0.002752 -2.016952 -0.003287 0.000000 0.000000 0.000000
    8 5.434985 6.587468 -8.780500 5.320810 -1.323227 0.748356
    9 8.073794 0.387329 -0.380282 1.569862 -3.115757 0.125646
    10 -0.122704 -8.455766 -0.162730 0.150233 -0.060553 -0.179702
    11 -0.488518 -2.755602 -0.228260 -0.636514 -0.072434 -0.337320
    12 0.047700 -1.530573 0.014229 -1.481141 -0.125802 0.203368
    13 0.028786 -1.126514 -0.105143 -0.742955 -0.013303 0.014298
    14 0.250027 -2.820665 -0.238396 -0.418648 -0.123606 -0.157124
    15 -0.057572 -1.598510 0.030164 -1.580137 -0.056699 0.100860
    16 -0.034142 -1.160031 0.053531 -0.902405 0.008281 -0.023154
    17 0.957766 -2.746780 -0.090302 -0.138913 -0.159269 0.186081
    18 -0.033420 -1.393223 -0.022976 -0.746922 0.007634 -0.036734
    19 -0.022360 -0.961342 -0.004654 -0.883172 0.005525 -0.043001
    20 -1.180681 -2.507217 -0.193859 -0.314555 -0.083781 -0.213847
    21 -0.024967 -1.127840 0.017597 -1.431112 0.098765 0.048910
    22 -0.020057 -0.902687 0.025715 -0.805420 0.007514 -0.032334
    23 0.583510 -1.208996 0.197098 -0.016291 -1.086293 -0.690834
    24 1.481238 -0.200698 -0.049680 0.017733 0.168348 -0.720722
    25 0.987486 -0.214230 -0.006773 -0.101489 -0.020928 -1.227553
    26 0.120153 -0.050270 -0.054489 0.287569 3.110905 1.561085
    27 -1.333301 -6.180508 -13.243875 -1.789716 -5.538379 -1.366780
    28 0.093038 -8.384010 -0.040616 0.172489 -0.069838 0.521053
    29 0.447953 -2.798986 -0.200443 -1.083108 -0.024750 0.321985
    30 -0.032909 -1.499736 0.028378 -1.405033 0.023334 -0.026879
    31 -0.027022 -1.115984 -0.028023 -0.967278 0.021752 -0.015208
    32 -0.249534 -2.846964 -0.174213 -0.927167 -0.009008 0.151859
    33 0.043235 -1.656596 0.072574 -1.315085 -0.020930 0.005777
    34 0.031729 -1.137392 0.051025 -1.375111 -0.015333 0.007761
    35 -0.963866 -2.785145 -0.085350 -0.990983 0.136737 -0.225412
    36 0.028479 -1.403067 -0.017167 -0.965960 -0.135474 0.127432
    37 0.021413 -0.942156 0.012233 -0.964436 -0.025335 -0.033641
    38 1.164475 -2.543940 -0.170330 -1.202160 -0.161088 0.388818
    39 0.024032 -1.140761 -0.005631 -0.986046 0.010594 0.051247
    40 0.014898 -0.903521 -0.015942 -1.028794 0.009660 0.051438
    41 -0.586770 -1.264477 0.200161 0.221924 -1.275430 -2.979233
    42 1.569711 0.035243 0.016848 -0.019647 -0.007097 0.922310
    43 1.114041 0.040611 -0.005766 -0.028766 -0.034359 1.035400
    44 -0.045646 -0.072634 0.010491 0.230636 0.395471 1.618939
    45 -8.139770 2.014750 -0.462096 1.570078 -0.034265 -0.323171
  time 5
    0 3.174277 -4.745533 -3.746982 1.528488 -0.053275 -1.513153
    1 5.535558 -1.455844 -0.000001 0.000000 0.000000 -1.364276
    2 6.967555 -0.456137 0.775243 1.570767 -1.566682 1.570854
    3 0.594653 3.125398 -0.000001 0.000000 0.000000 0.000000
    4 0.793143 -0.098690 0.439540 -1.570775 1.559439 1.570817
    5 0.793143 -0.098690 -0.474551 1.570775 1.582159 1.570775
    6 -1.049094 -12.486388 0.054639 -1.570797 0.000000 0.000000
    7 -0.002752 -2.016952 -0.003287 0.000000 0.000000 0.000000
    8 5.638116 6.552310 -8.807844 5.207579 -1.332752 0.899567
    9 8.065982 0.277951 -0.384189 1.570054 -3.115566 0.112156
    10 -0.118797 -8.447954 -0.154917 0.111442 -0.029632 -0.182077
    11 -0.488518 -2.755602 -0.228260 -0.636514 -0.072434 -0.337320
    12 0.047700 -1.530573 0.014229 -1.481141 -0.125802 0.203368
    13 0.028786 -1.126514 -0.105143 -0.742955 -0.013303 0.014298
    14 0.250027 -2.820665 -0.238396 -0.418648 -0.123606 -0.157124
    15 -0.057572 -1.598510 0.030164 -1.580137 -0.056699 0.100860
    16 -0.034142 -1.160031 0.053531 -0.902405 0.008281 -0.023154
    17 0.957766 -2.746780 -0.090302 -0.138913 -0.159269 0.186081
    18 -0.033420 -1.393223 -0.022976 -0.746922 0.007634 -0.036734
    19 -0.022360 -0.961342 -0.004654 -0.883172 0.005525 -0.043001
    20 -1.180681 -2.507217 -0.193859 -0.314555 -0.083781 -0.213847
    21 -0.024967 -1.127840 0.017597 -1.431112 0.098765 0.048910
    22 -0.020057 -0.902687 0.025715 -0.805420 0.007514 -0.032334
    23 0.583510 -1.208996 0.197098 -0.016291 -1.086314 -0.690834
    24 1.481238 -0.200698 -0.049680 0.017733 0.168348 -0.720722
    25 0.987486 -0.214230 -0.006773 -0.101489 -0.020928 -1.227553
    26 0.120153 -0.050270 -0.054489 0.287569 3.110905 1.561085
    27 -1.005166 -6.235197 -13.040744 -1.774612 -5.518173 -1.316477
    28 0.096944 -8.387917 -0.044522 0.200338 -0.040420 0.503765
    29 0.447953 -2.798986 -0.200443 -1.083108 -0.024750 0.321985
    30 -0.032909 -1.499736 0.028378 -1.405033 0.023334 -0.026879
    31 -0.027022 -1.115984 -0.028023 -0.967278 0.021752 -0.015208
    32 -0.249534 -2.846964 -0.174213 -0.927167 -0.009008 0.151859
    33 0.043235 -1.656596 0.072574 -1.315085 -0.020930 0.005777
    34 0.031729 -1.137392 0.051025 -1.375111 -0.015333 0.007761
    35 -0.963866 -2.785145 -0.085350 -0.990983 0.136737 -0.225412
    36 0.028479 -1.403067 -0.017167 -0.965960 -0.135474 0.127432
    37 0.021413 -0.942156 0.012233 -0.964436 -0.025335 -0.033641
    38 1.164475 -2.543940 -0.170330 -1.202160 -0.161088 0.388818
    39 0.024032 -1.140761 -0.005631 -0.986046 0.010594 0.051247
    40 0.014898 -0.903521 -0.015942 -1.028794 0.009660 0.051438
    41 -0.586770 -1.264477 0.200161 0.221924 -1.275430 -2.979233
    42 1.569711 0.035243 0.016848 -0.019647 -0.007097 0.922310
    43 1.114041 0.040611 -0.005766 -0.028766 -0.034359 1.035400
    44 -0.045646 -0.072634 0.010491 0.230636 0.395471 1.618939
    45 -8.038204 2.542110 -0.454283 1.571492 -0.033247 -0.388495
  time 6
    0 3.600072 -4.780690 -3.731357 1.529351 -0.058066 -1.518628
    1 5.535558 -1.455844 -0.000001 0.000000 0.000000 -1.364276
    2 6.967555 -0.456137 0.775243 1.570767 -1.566682 1.570854
    3 0.594653 3.125398 -0.000001 0.000000 0.000000 0.000000
    4 0.793143 -0.098690 0.439540 -1.570775 1.559439 1.570817
    5 0.793143 -0.098690 -0.474551 1.570775 1.582159 1.570775
    6 -1.049094 -12.486388 0.054639 -1.570797 0.000000 0.000000
    7 -0.002752 -2.016952 -0.003287 0.000000 0.000000 0.000000
    8 5.809997 6.513247 -8.827376 5.110661 -1.340647 1.030394
    9 8.065982 0.231074 -0.384189 1.570150 -3.115471 0.106356
    10 -0.110985 -8.444047 -0.151010 0.070147 -0.006566 -0.183356
    11 -0.488518 -2.755602 -0.228260 -0.636514 -0.072434 -0.337320
    12 0.047700 -1.530573 0.014229 -1.481141 -0.125802 0.203368
    13 0.028786 -1.126514 -0.105143 -0.742955 -0.013303 0.014298
    14 0.250027 -2.820665 -0.238396 -0.418648 -0.123606 -0.157124
    15 -0.057572 -1.598510 0.030164 -1.580137 -0.056699 0.100860
    16 -0.034142 -1.160031 0.053531 -0.902405 0.008281 -0.023154
    17 0.957766 -2.746780 -0.090302 -0.138913 -0.159269 0.186081
    18 -0.033420 -1.393223 -0.022976 -0.746922 0.007634 -0.036734
    19 -0.022360 -0.961342 -0.004654 -0.883172 0.005525 -0.043001
    20 -1.180681 -2.507217 -0.193859 -0.314555 -0.083781 -0.213847
    21 -0.024967 -1.127840 0.017597 -1.431112 0.098765 0.048910
    22 -0.020057 -0.902687 0.025715 -0.805420 0.007514 -0.032334
    23 0.583510 -1.208996 0.197098 -0.016291 -1.086293 -0.690834
    24 1.481238 -0.200698 -0.049680 0.017733 0.168348 -0.720722
    25 0.987486 -0.214230 -0.006773 -0.101489 -0.020928 -1.227553
    26 0.120153 -0.050270 -0.054489 0.287569 3.110905 1.561085
    27 -0.766878 -6.254729 -12.892302 -1.765162 -5.500732 -1.281036
    28 0.100850 -8.391823 -0.048429 0.230173 -0.020594 0.487246
    29 0.447953 -2.798986 -0.200443 -1.083108 -0.024750 0.321985
    30 -0.032909 -1.499736 0.028378 -1.405033 0.023334 -0.026879
    31 -0.027022 -1.115984 -0.028023 -0.967278 0.021752 -0.015208
    32 -0.249534 -2.846964 -0.174213 -0.927167 -0.009008 0.151859
    33 0.043235 -1.656596 0.072574 -1.315085 -0.020930 0.005777
    34 0.031729 -1.137392 0.051025 -1.375111 -0.015333 0.007761
    35 -0.963866 -2.785145 -0.085350 -0.990983 0.136737 -0.225412
    36 0.028479 -1.403067 -0.017167 -0.965960 -0.135474 0.127432
    37 0.021413 -0.942156 0.012233 -0.964436 -0.025335 -0.033641
    38 1.164475 -2.543940 -0.170330 -1.202160 -0.161088 0.388818
    39 0.024032 -1.140761 -0.005631 -0.986046 0.010594 0.051247
    40 0.014898 -0.903521 -0.015942 -1.028794 0.009660 0.051438
    41 -0.586770 -1.264477 0.200161 0.221924 -1.275430 -2.979233
    42 1.569711 0.035243 0.016848 -0.019647 -0.007097 0.922310
    43 1.114041 0.040611 -0.005766 -0.028766 -0.034359 1.035400
    44 -0.045646 -0.072634 0.010491 0.230636 0.395471 1.618939
    45 -7.936638 2.936653 -0.450377 1.572511 -0.032408 -0.437900
  time 7
    0 3.920394 -4.827567 -3.782139 1.536059 -0.060654 -1.535995
    1 5.535558 -1.455844 -0.000001 0.000000 0.000000 -1.364276
    2 6.967555 -0.456137 0.775243 1.570767 -1.566682 1.570854
    3 0.594653 3.133211 -0.000001 0.000000 0.000000 0.000000
    4 0.793143 -0.098690 0.439540 -1.570775 1.559439 1.570817
    5 0.793143 -0.098690 -0.474551 1.570775 1.582159 1.570775
    6 -1.049094 -12.486388 0.054639 -1.570797 0.000000 0.000000
    7 -0.002752 -2.016952 -0.003287 0.000000 0.000000 0.000000
    8 5.942813 6.458557 -8.843001 5.044745 -1.350799 1.126097
    9 8.065982 0.285764 -0.384189 1.570054 -3.115566 0.112808
    10 -0.110985 -8.436234 -0.151010 0.021732 0.005037 -0.181493
    11 -0.488518 -2.755602 -0.228260 -0.636514 -0.072434 -0.337320
    12 0.047700 -1.530573 0.014229 -1.481141 -0.125802 0.203368
    13 0.028786 -1.126514 -0.105143 -0.742955 -0.013303 0.014298
    14 0.250027 -2.820665 -0.238396 -0.418648 -0.123606 -0.157124
    15 -0.057572 -1.598510 0.030164 -1.580137 -0.056699 0.100860
    16 -0.034142 -1.160031 0.053531 -0.902405 0.008281 -0.023154
    17 0.957766 -2.746780 -0.090302 -0.138913 -0.159269 0.186081
    18 -0.033420 -1.393223 -0.022976 -0.746922 0.007634 -0.036734
    19 -0.022360 -0.961342 -0.004654 -0.883172 0.005525 -0.043001
    20 -1.180681 -2.507217 -0.193859 -0.314555 -0.083781 -0.213847
    21 -0.024967 -1.127840 0.017597 -1.431112 0.098765 0.048910
    22 -0.020057 -0.902687 0.025715 -0.805420 0.007514 -0.032334
    23 0.583510 -1.208996 0.197098 -0.016291 -1.086293 -0.690834
    24 1.481238 -0.200698 -0.049680 0.017733 0.168348 -0.720722
    25 0.987486 -0.214230 -0.006773 -0.101489 -0.020928 -1.227553
    26 0.120153 -0.050270 -0.054489 0.287569 3.110905 1.561085
    27 -0.649687 -6.239103 -12.853238 -1.757726 -5.486150 -1.260458
    28 0.108663 -8.399636 -0.048429 0.263128 -0.009133 0.472310
    29 0.447953 -2.798986 -0.200443 -1.083108 -0.024750 0.321985
    30 -0.032909 -1.499736 0.028378 -1.405033 0.023334 -0.026879
    31 -0.027022 -1.115984 -0.028023 -0.967278 0.021752 -0.015208
    32 -0.249534 -2.846964 -0.174213 -0.927167 -0.009008 0.151859
    33 0.043235 -1.656596 0.072574 -1.315085 -0.020930 0.005777
    34 0.031729 -1.137392 0.051025 -1.375111 -0.015333 0.007761
    35 -0.963866 -2.785145 -0.085350 -0.990983 0.136737 -0.225412
    36 0.028479 -1.403067 -0.017167 -0.965960 -0.135474 0.127432
    37 0.021413 -0.942156 0.012233 -0.964436 -0.025335 -0.033641
    38 1.164475 -2.543940 -0.170330 -1.202160 -0.161088 0.388818
    39 0.024032 -1.140761 -0.005631 -0.986046 0.010594 0.051247
    40 0.014898 -0.903521 -0.015942 -1.028794 0.009660 0.051438
    41 -0.586770 -1.264477 0.200161 0.221924 -1.275430 -2.979233
    42 1.569711 0.035243 0.016848 -0.019647 -0.007097 0.922310
    43 1.114041 0.040611 -0.005766 -0.028766 -0.034359 1.035400
    44 -0.045646 -0.072634 0.010491 0.230636 0.395471 1.618939
    45 -7.881949 3.124159 -0.446471 1.572990 -0.031988 -0.461505
  time 8
    0 4.158682 -4.886162 -3.895424 1.547463 -0.060558 -1.564036
    1 5.535558 -1.455844 -0.000001 0.000000 0.000000 -1.364276
    2 6.967555 -0.456137 0.775243 1.570767 -1.566682 1.570854
    3 0.594653 3.144930 -0.000001 0.000000 0.000000 0.000000
    4 0.793143 -0.098690 0.431727 -1.570775 1.559439 1.570817
    5 0.793143 -0.098690 -0.462832 1.570775 1.582159 1.570775
    6 -1.049094 -12.486388 0.054639 -1.570797 0.000000 0.000000
    7 -0.002752 -2.016952 -0.003287 0.000000 0.000000 0.000000
    8 6.036566 6.392149 -8.850814 5.009069 -1.364647 1.188305
    9 8.073794 0.430299 -0.380282 1.569862 -3.115852 0.130533
    10 -0.107078 -8.428422 -0.154917 -0.033419 0.006464 -0.176121
    11 -0.488518 -2.755602 -0.228260 -0.636514 -0.072434 -0.337320
    12 0.047700 -1.530573 0.014229 -1.481141 -0.125802 0.203368
    13 0.028786 -1.126514 -0.105143 -0.742955 -0.013303 0.014298
    14 0.250027 -2.820665 -0.238396 -0.418648 -0.123606 -0.157124
    15 -0.057572 -1.598510 0.030164 -1.580137 -0.056699 0.100860
    16 -0.034142 -1.160031 0.053531 -0.902405 0.008281 -0.023154
    17 0.957766 -2.746780 -0.090302 -0.138913 -0.159269 0.186081
    18 -0.033420 -1.393223 -0.022976 -0.746922 0.007634 -0.036734
    19 -0.022360 -0.961342 -0.004654 -0.883172 0.005525 -0.043001
    20 -1.180681 -2.507217 -0.193859 -0.314555 -0.083781 -0.213847
    21 -0.024967 -1.127840 0.017597 -1.431112 0.098765 0.048910
    22 -0.020057 -0.902687 0.025715 -0.805420 0.007514 -0.032334
    23 0.583510 -1.208996 0.197098 -0.016291 -1.086293 -0.690834
    24 1.481238 -0.200698 -0.049680 0.017733 0.168348 -0.720722
    25 0.987486 -0.214230 -0.006773 -0.101489 -0.020928 -1.227553
    26 0.120153 -0.050270 -0.054489 0.287569 3.110905 1.561085
    27 -0.626248 -6.192227 -12.919646 -1.751684 -5.474046 -1.251503
    28 0.112569 -8.403542 -0.048429 0.299279 -0.003974 0.459593
    29 0.447953 -2.798986 -0.200443 -1.083108 -0.024750 0.321985
    30 -0.032909 -1.499736 0.028378 -1.405033 0.023334 -0.026879
    31 -0.027022 -1.115984 -0.028023 -0.967278 0.021752 -0.015208
    32 -0.249534 -2.846964 -0.174213 -0.927167 -0.009008 0.151859
    33 0.043235 -1.656596 0.072574 -1.315085 -0.020930 0.005777
    34 0.031729 -1.137392 0.051025 -1.375111 -0.015333 0.007761
    35 -0.963866 -2.785145 -0.085350 -0.990983 0.136737 -0.225412
    36 0.028479 -1.403067 -0.017167 -0.965960 -0.135474 0.127432
    37 0.021413 -0.942156 0.012233 -0.964436 -0.025335 -0.033641
    38 1.164475 -2.543940 -0.170330 -1.202160 -0.161088 0.388818
    39 0.024032 -1.140761 -0.005631 -0.986046 0.010594 0.051247
    40 0.014898 -0.903521 -0.015942 -1.028794 0.009660 0.051438
    41 -0.586770 -1.264477 0.200161 0.221924 -1.275430 -2.979233
    42 1.569711 0.035243 0.016848 -0.019647 -0.007097 0.922310
    43 1.114041 0.040611 -0.005766 -0.028766 -0.034359 1.035400
    44 -0.045646 -0.072634 0.010491 0.230636 0.395471 1.618939
    45 -7.885856 3.112440 -0.446471 1.572954 -0.032012 -0.460015
  time 9
    0 4.342282 -4.948664 -4.039960 1.559825 -0.057970 -1.596225
    1 5.535558 -1.455844 -0.000001 0.000000 0.000000 -1.364276
    2 6.967555 -0.456137 0.775243 1.570767 -1.566682 1.570854
    3 0.598559 3.156649 -0.000001 0.000000 0.000000 0.000000
    4 0.793143 -0.098690 0.423914 -1.570775 1.559439 1.570817
    5 0.793143 -0.098690 -0.451113 1.570775 1.582159 1.570775
    6 -1.049094 -12.486388 0.054639 -1.570797 0.000000 0.000000
    7 -0.002752 -2.016952 -0.003287 0.000000 0.000000 0.000000
    8 6.106881 6.317928 -8.858627 4.994474 -1.380125 1.226012
    9 8.077701 0.617805 -0.380282 1.569479 -3.116234 0.153602
    10 -0.107078 -8.420609 -0.158823 -0.088774 0.002403 -0.168812
    11 -0.488518 -2.755602 -0.228260 -0.636514 -0.072434 -0.337320
    12 0.047700 -1.530573 0.014229 -1.481141 -0.125802 0.203368
    13 0.028786 -1.126514 -0.105143 -0.742955 -0.013303 0.014298
    14 0.250027 -2.820665 -0.238396 -0.418648 -0.123606 -0.157124
    15 -0.057572 -1.598510 0.030164 -1.580137 -0.056699 0.100860
    16 -0.034142 -1.160031 0.053531 -0.902405 0.008281 -0.023154
    17 0.957766 -2.746780 -0.090302 -0.138913 -0.159269 0.186081
    18 -0.033420 -1.393223 -0.022976 -0.746922 0.007634 -0.036734
    19 -0.022360 -0.961342 -0.004654 -0.883172 0.005525 -0.043001
    20 -1.180681 -2.507217 -0.193859 -0.314555 -0.083781 -0.213847
    21 -0.024967 -1.127840 0.017597 -1.431112 0.098765 0.048910
    22 -0.020057 -0.902687 0.025715 -0.805420 0.007514 -0.032334
    23 0.583510 -1.208996 0.197098 -0.016291 -1.086293 -0.690834
    24 1.481238 -0.200698 -0.049680 0.017733 0.168348 -0.720722
    25 0.987486 -0.214230 -0.006773 -0.101489 -0.020928 -1.227553
    26 0.120153 -0.050270 -0.054489 0.287569 3.110905 1.561085
    27 -0.665312 -6.125818 -13.052463 -1.747734 -5.463943 -1.249692
    28 0.116476 -8.411355 -0.048429 0.335856 -0.002580 0.449455
    29 0.447953 -2.798986 -0.200443 -1.083108 -0.024750 0.321985
    30 -0.032909 -1.499736 0.028378 -1.405033 0.023334 -0.026879
    31 -0.027022 -1.115984 -0.028023 -0.967278 0.021752 -0.015208
    32 -0.249534 -2.846964 -0.174213 -0.927167 -0.009008 0.151859
    33 0.043235 -1.656596 0.072574 -1.315085 -0.020930 0.005777
    34 0.031729 -1.137392 0.051025 -1.375111 -0.015333 0.007761
    35 -0.963866 -2.785145 -0.085350 -0.990983 0.136737 -0.225412
    36 0.028479 -1.403067 -0.017167 -0.965960 -0.135474 0.127432
    37 0.021413 -0.942156 0.012233 -0.964436 -0.025335 -0.033641
    38 1.164475 -2.543940 -0.170330 -1.202160 -0.161088 0.388818
    39 0.024032 -1.140761 -0.005631 -0.986046 0.010594 0.051247
    40 0.014898 -0.903521 -0.015942 -1.028794 0.009660 0.051438
    41 -0.586770 -1.264477 0.200161 0.221924 -1.275430 -2.979233
    42 1.569711 0.035243 0.016848 -0.019647 -0.007097 0.922310
    43 1.114041 0.040611 -0.005766 -0.028766 -0.034359 1.035400
    44 -0.045646 -0.072634 0.010491 0.230636 0.395471 1.618939
    45 -7.924919 2.979623 -0.446471 1.572619 -0.032312 -0.443390
  time 10
    0 4.486817 -4.999447 -4.176683 1.570271 -0.053945 -1.625925
    1 5.535558 -1.455844 -0.000001 0.000000 0.000000 -1.364276
    2 6.967555 -0.456137 0.775243 1.570767 -1.566682 1.570854
    3 0.598559 3.160556 -0.000001 0.000000 0.000000 0.000000
    4 0.793143 -0.098690 0.470791 -1.570775 1.559439 1.570817
    5 0.793143 -0.098690 -0.494083 1.570775 1.582159 1.570775
    6 -1.049094 -12.486388 0.054639 -1.570797 0.000000 0.000000
    7 -0.002752 -2.016952 -0.003287 0.000000 0.000000 0.000000
    8 6.161570 6.251520 -8.866440 4.990277 -1.394726 1.249363
    9 8.077701 0.797498 -0.376376 1.569191 -3.116616 0.176020
    10 -0.107078 -8.416703 -0.162730 -0.137735 -0.002662 -0.161612
    11 -0.488518 -2.755602 -0.228260 -0.636514 -0.072434 -0.337320
    12 0.047700 -1.530573 0.014229 -1.481141 -0.125802 0.203368
    13 0.028786 -1.126514 -0.105143 -0.742955 -0.013303 0.014298
    14 0.250027 -2.820665 -0.238396 -0.418648 -0.123606 -0.157124
    15 -0.057572 -1.598510 0.030164 -1.580137 -0.056699 0.100860
    16 -0.034142 -1.160031 0.053531 -0.902405 0.008281 -0.023154
    17 0.957766 -2.746780 -0.090302 -0.138913 -0.159269 0.186081
    18 -0.033420 -1.393223 -0.022976 -0.746922 0.007634 -0.036734
    19 -0.022360 -0.961342 -0.004654 -0.883172 0.005525 -0.043001
    20 -1.180681 -2.507217 -0.193859 -0.314555 -0.083781 -0.213847
    21 -0.024967 -1.127840 0.017597 -1.431112 0.098765 0.048910
    22 -0.020057 -0.902687 0.025715 -0.805420 0.007514 -0.032334
    23 0.583510 -1.208996 0.197098 -0.016291 -1.086293 -0.690834
    24 1.481238 -0.200698 -0.049680 0.017733 0.168348 -0.720722
    25 0.987486 -0.214230 -0.006773 -0.101489 -0.020928 -1.227553
    26 0.120153 -0.050270 -0.054489 0.287569 3.110905 1.561085
    27 -0.720001 -6.051597 -13.193092 -1.746107 -5.455175 -1.250740
    28 0.120382 -8.419168 -0.048429 0.369566 -0.002608 0.441761
    29 0.447953 -2.798986 -0.200443 -1.083108 -0.024750 0.321985
    30 -0.032909 -1.499736 0.028378 -1.405033 0.023334 -0.026879
    31 -0.027022 -1.115984 -0.028023 -0.967278 0.021752 -0.015208
    32 -0.249534 -2.846964 -0.174213 -0.927167 -0.009008 0.151859
    33 0.043235 -1.656596 0.072574 -1.315085 -0.020930 0.005777
    34 0.031729 -1.137392 0.051025 -1.375111 -0.015333 0.007761
    35 -0.963866 -2.785145 -0.085350 -0.990983 0.136737 -0.225412
    36 0.028479 -1.403067 -0.017167 -0.965960 -0.135474 0.127432
    37 0.021413 -0.942156 0.012233 -0.964436 -0.025335 -0.033641
    38 1.164475 -2.543940 -0.170330 -1.202160 -0.161088 0.388818
    39 0.024032 -1.140761 -0.005631 -0.986046 0.010594 0.051247
    40 0.014898 -0.903521 -0.015942 -1.028794 0.009660 0.051438
    41 -0.586770 -1.264477 0.200161 0.221924 -1.275430 -2.979233
    42 1.569711 0.035243 0.016848 -0.019647 -0.007097 0.922310
    43 1.114041 0.040611 -0.005766 -0.028766 -0.034359 1.035400
    44 -0.045646 -0.072634 0.010491 0.230636 0.395471 1.618939
    45 -7.971796 2.815556 -0.450377 1.572199 -0.032671 -0.422530
  time 11
    0 4.615728 -5.034604 -4.282155 -1.564924 -3.091885 1.494818
    1 5.535558 -1.455844 -0.000001 0.000000 0.000000 -1.364276
    2 6.967555 -0.456137 0.775243 1.570767 -1.566682 1.570854
    3 0.594653 3.137118 -0.000001 0.000000 0.000000 0.000000
    4 0.793143 -0.098690 0.420008 -1.570775 1.559439 1.570817
    5 0.793143 -0.098690 -0.439394 1.570775 1.582159 1.570775
    6 -1.049094 -12.486388 0.054639 -1.570797 0.000000 0.000000
    7 -0.002752 -2.016952 -0.003287 0.000000 0.000000 0.000000
    8 6.208446 6.208550 -8.870346 4.981787 -1.405692 1.273002
    9 8.077701 0.926408 -0.372470 1.568999 -3.116902 0.191790
    10 -0.107078 -8.412796 -0.162730 -0.173638 -0.004591 -0.157008
    11 -0.488518 -2.755602 -0.228260 -0.636514 -0.072434 -0.337320
    12 0.047700 -1.530573 0.014229 -1.481141 -0.125802 0.203368
    13 0.028786 -1.126514 -0.105143 -0.742955 -0.013303 0.014298
    14 0.250027 -2.820665 -0.238396 -0.418648 -0.123606 -0.157124
    15 -0.057572 -1.598510 0.030164 -1.580137 -0.056699 0.100860
    16 -0.034142 -1.160031 0.053531 -0.902405 0.008281 -0.023154
    17 0.957766 -2.746780 -0.090302 -0.138913 -0.159269 0.186081
    18 -0.033420 -1.393223 -0.022976 -0.746922 0.007634 -0.036734
    19 -0.022360 -0.961342 -0.004654 -0.883172 0.005525 -0.043001
    20 -1.180681 -2.507217 -0.193859 -0.314555 -0.083781 -0.213847
    21 -0.024967 -1.127840 0.017597 -1.431112 0.098765 0.048910
    22 -0.020057 -0.902687 0.025715 -0.805420 0.007514 -0.032334
    23 0.583510 -1.208996 0.197098 -0.016291 -1.086293 -0.690834
    24 1.481238 -0.200698 -0.049680 0.017733 0.168348 -0.720722
    25 0.987486 -0.214230 -0.006773 -0.101489 -0.020928 -1.227553
    26 0.120153 -0.050270 -0.054489 0.287569 3.110905 1.561085
    27 -0.747346 -5.989095 -13.298564 -1.746185 -5.447455 -1.250074
    28 0.120382 -8.423074 -0.048429 0.396534 -0.002078 0.436285
    29 0.447953 -2.798986 -0.200443 -1.083108 -0.024750 0.321985
    30 -0.032909 -1.499736 0.028378 -1.405033 0.023334 -0.026879
    31 -0.027022 -1.115984 -0.028023 -0.967278 0.021752 -0.015208
    32 -0.249534 -2.846964 -0.174213 -0.927167 -0.009008 0.151859
    33 0.043235 -1.656596 0.072574 -1.315085 -0.020930 0.005777
    34 0.031729 -1.137392 0.051025 -1.375111 -0.015333 0.007761
    35 -0.963866 -2.785145 -0.085350 -0.990983 0.136737 -0.225412
    36 0.028479 -1.403067 -0.017167 -0.965960 -0.135474 0.127432
    37 0.021413 -0.942156 0.012233 -0.964436 -0.025335 -0.033641
    38 1.164475 -2.543940 -0.170330 -1.202160 -0.161088 0.388818
    39 0.024032 -1.140761 -0.005631 -0.986046 0.010594 0.051247
    40 0.014898 -0.903521 -0.015942 -1.028794 0.009660 0.051438
    41 -0.586770 -1.264477 0.200161 0.221924 -1.275430 -2.979233
    42 1.569711 0.035243 0.016848 -0.019647 -0.007097 0.922310
    43 1.114041 0.040611 -0.005766 -0.028766 -0.034359 1.035400
    44 -0.045646 -0.072634 0.010491 0.230636 0.395471 1.618939
    45 -7.999140 2.706177 -0.450377 1.571911 -0.032899 -0.408806
  time 12
    0 4.689949 -5.058043 -4.336844 -1.563774 -3.097252 1.486854
    1 5.535558 -1.455844 -0.000001 0.000000 0.000000 -1.364276
    2 6.967555 -0.456137 0.775243 1.570767 -1.566682 1.570854
    3 0.594653 3.109773 -0.000001 0.000000 0.000000 0.000000
    4 0.793143 -0.094784 0.306723 -1.570775 1.559439 1.570817
    5 0.793143 -0.094784 -0.330015 1.570775 1.582159 1.570775
    6 -1.049094 -12.486388 0.054639 -1.570797 0.000000 0.000000
    7 -0.002752 -2.016952 -0.003287 0.000000 0.000000 0.000000
    8 6.235791 6.192924 -8.874252 4.974251 -1.411457 1.287740
    9 8.077701 0.985004 -0.372470 1.568903 -3.116997 0.198698
    10 -0.107078 -8.408890 -0.166636 -0.188904 -0.003446 -0.157629
    11 -0.488518 -2.755602 -0.228260 -0.636514 -0.072434 -0.337320
    12 0.047700 -1.530573 0.014229 -1.481141 -0.125802 0.203368
    13 0.028786 -1.126514 -0.105143 -0.742955 -0.013303 0.014298
    14 0.250027 -2.820665 -0.238396 -0.418648 -0.123606 -0.157124
    15 -0.057572 -1.598510 0.030164 -1.580137 -0.056699 0.100860
    16 -0.034142 -1.160031 0.053531 -0.902405 0.008281 -0.023154
    17 0.957766 -2.746780 -0.090302 -0.138913 -0.159269 0.186081
    18 -0.033420 -1.393223 -0.022976 -0.746922 0.007634 -0.036734
    19 -0.022360 -0.961342 -0.004654 -0.883172 0.005525 -0.043001
    20 -1.180681 -2.507217 -0.193859 -0.314555 -0.083781 -0.213847
    21 -0.024967 -1.127840 0.017597 -1.431112 0.098765 0.048910
    22 -0.020057 -0.902687 0.025715 -0.805420 0.007514 -0.032334
    23 0.583510 -1.208996 0.197098 -0.016291 -1.086293 -0.690834
    24 1.481238 -0.200698 -0.049680 0.017733 0.168348 -0.720722
    25 0.987486 -0.214230 -0.006773 -0.101489 -0.020928 -1.227553
    26 0.120153 -0.050270 -0.054489 0.287569 3.110905 1.561085
    27 -0.751252 -5.946125 -13.361066 -1.745178 -5.440402 -1.246739
    28 0.124289 -8.423074 -0.048429 0.410597 -0.000349 0.434158
    29 0.447953 -2.798986 -0.200443 -1.083108 -0.024750 0.321985
    30 -0.032909 -1.499736 0.028378 -1.405033 0.023334 -0.026879
    31 -0.027022 -1.115984 -0.028023 -0.967278 0.021752 -0.015208
    32 -0.249534 -2.846964 -0.174213 -0.927167 -0.009008 0.151859
    33 0.043235 -1.656596 0.072574 -1.315085 -0.020930 0.005777
    34 0.031729 -1.137392 0.051025 -1.375111 -0.015333 0.007761
    35 -0.963866 -2.785145 -0.085350 -0.990983 0.136737 -0.225412
    36 0.028479 -1.403067 -0.017167 -0.965960 -0.135474 0.127432
    37 0.021413 -0.942156 0.012233 -0.964436 -0.025335 -0.033641
    38 1.164475 -2.543940 -0.170330 -1.202160 -0.161088 0.388818
    39 0.024032 -1.140761 -0.005631 -0.986046 0.010594 0.051247
    40 0.014898 -0.903521 -0.015942 -1.028794 0.009660 0.051438
    41 -0.586770 -1.264477 0.200161 0.221924 -1.275430 -2.979233
    42 1.569711 0.035243 0.016848 -0.019647 -0.007097 0.922310
    43 1.114041 0.040611 -0.005766 -0.028766 -0.034359 1.035400
    44 -0.045646 -0.072634 0.010491 0.230636 0.395471 1.618939
    45 -8.010859 2.659301 -0.454283 1.571792 -0.032995 -0.402925
  time 13
    0 4.686042 -5.081481 -4.364188 -1.565594 -3.103864 1.487573
    1 5.535558 -1.455844 -0.000001 0.000000 0.000000 -1.364276
    2 6.967555 -0.456137 0.775243 1.570767 -1.566682 1.570854
    3 0.586840 3.168368 -0.000001 0.000000 0.000000 0.000000
    4 0.793143 -0.094784 0.111405 -1.570775 1.559439 1.570817
    5 0.793143 -0.094784 -0.146416 1.570775 1.582159 1.570775
    6 -1.049094 -12.486388 0.054639 -1.570797 0.000000 0.000000
    7 -0.002752 -2.016952 -0.003287 0.000000 0.000000 0.000000
    8 6.231884 6.200737 -8.878159 4.980642 -1.414151 1.280658
    9 8.073794 0.996723 -0.372470 1.568903 -3.117093 0.200458
    10 -0.107078 -8.408890 -0.162730 -0.187266 -0.002239 -0.161393
    11 -0.488518 -2.755602 -0.228260 -0.636514 -0.072434 -0.337320
    12 0.047700 -1.530573 0.014229 -1.481141 -0.125802 0.203368
    13 0.028786 -1.126514 -0.105143 -0.742955 -0.013303 0.014298
    14 0.250027 -2.820665 -0.238396 -0.418648 -0.123606 -0.157124
    15 -0.057572 -1.598510 0.030164 -1.580137 -0.056699 0.100860
    16 -0.034142 -1.160031 0.053531 -0.902405 0.008281 -0.023154
    17 0.957766 -2.746780 -0.090302 -0.138913 -0.159269 0.186081
    18 -0.033420 -1.393223 -0.022976 -0.746922 0.007634 -0.036734
    19 -0.022360 -0.961342 -0.004654 -0.883172 0.005525 -0.043001
    20 -1.180681 -2.507217 -0.193859 -0.314555 -0.083781 -0.213847
    21 -0.024967 -1.127840 0.017597 -1.431112 0.098765 0.048910
    22 -0.020057 -0.902687 0.025715 -0.805420 0.007514 -0.032334
    23 0.583510 -1.208996 0.197098 -0.016291 -1.086293 -0.690834
    24 1.481238 -0.200698 -0.049680 0.017733 0.168348 -0.720722
    25 0.987486 -0.214230 -0.006773 -0.101489 -0.020928 -1.227553
    26 0.120153 -0.050270 -0.054489 0.287569 3.110905 1.561085
    27 -0.751252 -5.907062 -13.411849 -1.739368 -5.434207 -1.241118
    28 0.124289 -8.423074 -0.052335 0.411502 0.003443 0.435244
    29 0.447953 -2.798986 -0.200443 -1.083108 -0.024750 0.321985
    30 -0.032909 -1.499736 0.028378 -1.405033 0.023334 -0.026879
    31 -0.027022 -1.115984 -0.028023 -0.967278 0.021752 -0.015208
    32 -0.249534 -2.846964 -0.174213 -0.927167 -0.009008 0.151859
    33 0.043235 -1.656596 0.072574 -1.315085 -0.020930 0.005777
    34 0.031729 -1.137392 0.051025 -1.375111 -0.015333 0.007761
    35 -0.963866 -2.785145 -0.085350 -0.990983 0.136737 -0.225412
    36 0.028479 -1.403067 -0.017167 -0.965960 -0.135474 0.127432
    37 0.021413 -0.942156 0.012233 -0.964436 -0.025335 -0.033641
    38 1.164475 -2.543940 -0.170330 -1.202160 -0.161088 0.388818
    39 0.024032 -1.140761 -0.005631 -0.986046 0.010594 0.051247
    40 0.014898 -0.903521 -0.015942 -1.028794 0.009660 0.051438
    41 -0.586770 -1.264477 0.200161 0.221924 -1.275430 -2.979233
    42 1.569711 0.035243 0.016848 -0.019647 -0.007097 0.922310
    43 1.114041 0.040611 -0.005766 -0.028766 -0.034359 1.035400
    44 -0.045646 -0.072634 0.010491 0.230636 0.395471 1.618939
    45 -8.018672 2.620237 -0.454283 1.571696 -0.033079 -0.398220
  time 14
    0 4.646978 -5.093200 -4.387627 -1.568086 -3.108847 1.491776
    1 5.535558 -1.455844 -0.000001 0.000000 0.000000 -1.364276
    2 6.967555 -0.456137 0.775243 1.570767 -1.566682 1.570854
    3 0.586840 3.168368 -0.000001 0.000000 0.000000 0.000000
    4 0.793143 -0.094784 -0.021412 -1.570775 1.559439 1.570817
    5 0.793143 -0.094784 -0.021412 1.570775 1.582159 1.570775
    6 -1.049094 -12.486388 0.054639 -1.570797 0.000000 0.000000
    7 -0.002752 -2.016952 -0.003287 0.000000 0.000000 0.000000
    8 6.216259 6.216362 -8.878159 4.993043 -1.415718 1.264197
    9 8.073794 0.996723 -0.372470 1.568903 -3.116997 0.200197
    10 -0.107078 -8.408890 -0.162730 -0.178893 -0.001313 -0.164207
    11 -0.488518 -2.755602 -0.228260 -0.636514 -0.072434 -0.337320
    12 0.047700 -1.530573 0.014229 -1.481141 -0.125802 0.203368
    13 0.028786 -1.126514 -0.105143 -0.742955 -0.013303 0.014298
    14 0.250027 -2.820665 -0.238396 -0.418648 -0.123606 -0.157124
    15 -0.057572 -1.598510 0.030164 -1.580137 -0.056699 0.100860
    16 -0.034142 -1.160031 0.053531 -0.902405 0.008281 -0.023154
    17 0.957766 -2.746780 -0.090302 -0.138913 -0.159269 0.186081
    18 -0.033420 -1.393223 -0.022976 -0.746922 0.007634 -0.036734
    19 -0.022360 -0.961342 -0.004654 -0.883172 0.005525 -0.043001
    20 -1.180681 -2.507217 -0.193859 -0.314555 -0.083781 -0.213847
    21 -0.024967 -1.127840 0.017597 -1.431112 0.098765 0.048910
    22 -0.020057 -0.902687 0.025715 -0.805420 0.007514 -0.032334
    23 0.583510 -1.208996 0.197098 -0.016291 -1.086293 -0.690834
    24 1.481238 -0.200698 -0.049680 0.017733 0.168348 -0.720722
    25 0.987486 -0.214230 -0.006773 -0.101489 -0.020928 -1.227553
    26 0.120153 -0.050270 -0.054489 0.287569 3.110905 1.561085
    27 -0.751252 -5.879717 -13.447006 -1.733791 -5.429728 -1.236736
    28 0.124289 -8.423074 -0.052335 0.406571 0.008295 0.437371
    29 0.447953 -2.798986 -0.200443 -1.083108 -0.024750 0.321985
    30 -0.032909 -1.499736 0.028378 -1.405033 0.023334 -0.026879
    31 -0.027022 -1.115984 -0.028023 -0.967278 0.021752 -0.015208
    32 -0.249534 -2.846964 -0.174213 -0.927167 -0.009008 0.151859
    33 0.043235 -1.656596 0.072574 -1.315085 -0.020930 0.005777
    34 0.031729 -1.137392 0.051025 -1.375111 -0.015333 0.007761
    35 -0.963866 -2.785145 -0.085350 -0.990983 0.136737 -0.225412
    36 0.028479 -1.403067 -0.017167 -0.965960 -0.135474 0.127432
    37 0.021413 -0.942156 0.012233 -0.964436 -0.025335 -0.033641
    38 1.164475 -2.543940 -0.170330 -1.202160 -0.161088 0.388818
    39 0.024032 -1.140761 -0.005631 -0.986046 0.010594 0.051247
    40 0.014898 -0.903521 -0.015942 -1.028794 0.009660 0.051438
    41 -0.586770 -1.264477 0.200161 0.221924 -1.275430 -2.979233
    42 1.569711 0.035243 0.016848 -0.019647 -0.007097 0.922310
    43 1.114041 0.040611 -0.005766 -0.028766 -0.034359 1.035400
    44 -0.045646 -0.072634 0.010491 0.230636 0.395471 1.618939
    45 -8.026485 2.596799 -0.454283 1.571624 -0.033139 -0.395004
  time 15
    0 4.627447 -5.089294 -4.411065 -1.569140 -3.109422 1.494376
    1 5.535558 -1.455844 -0.000001 0.000000 0.000000 -1.364276
    2 6.967555 -0.456137 0.775243 1.570767 -1.566682 1.570854
    3 0.586840 3.168368 -0.000001 0.000000 0.000000 0.000000
    4 0.793143 -0.094784 -0.021412 -1.570775 1.559439 1.570817
    5 0.793143 -0.094784 -0.021412 1.570775 1.582159 1.570775
    6 -1.049094 -12.486388 0.054639 -1.570797 0.000000 0.000000
    7 -0.002752 -2.016952 -0.003287 0.000000 0.000000 0.000000
    8 6.208446 6.224175 -8.882065 5.003250 -1.418036 1.251565
    9 8.073794 1.004535 -0.372470 1.568903 -3.117093 0.201174
    10 -0.107078 -8.412796 -0.162730 -0.173911 -0.001110 -0.161978
    11 -0.488518 -2.755602 -0.228260 -0.636514 -0.072434 -0.337320
    12 0.047700 -1.530573 0.014229 -1.481141 -0.125802 0.203368
    13 0.028786 -1.126514 -0.105143 -0.742955 -0.013303 0.014298
    14 0.250027 -2.820665 -0.238396 -0.418648 -0.123606 -0.157124
    15 -0.057572 -1.598510 0.030164 -1.580137 -0.056699 0.100860
    16 -0.034142 -1.160031 0.053531 -0.902405 0.008281 -0.023154
    17 0.957766 -2.746780 -0.090302 -0.138913 -0.159269 0.186081
    18 -0.033420 -1.393223 -0.022976 -0.746922 0.007634 -0.036734
    19 -0.022360 -0.961342 -0.004654 -0.883172 0.005525 -0.043001
    20 -1.180681 -2.507217 -0.193859 -0.314555 -0.083781 -0.213847
    21 -0.024967 -1.127840 0.017597 -1.431112 0.098765 0.048910
    22 -0.020057 -0.902687 0.025715 -0.805420 0.007514 -0.032334
    23 0.583510 -1.208996 0.197098 -0.016291 -1.086293 -0.690834
    24 1.481238 -0.200698 -0.049680 0.017733 0.168348 -0.720722
    25 0.987486 -0.214230 -0.006773 -0.101489 -0.020928 -1.227553
    26 0.120153 -0.050270 -0.054489 0.287569 3.110905 1.561085
    27 -0.755159 -5.871904 -13.458725 -1.733327 -5.427917 -1.236640
    28 0.124289 -8.423074 -0.052335 0.403653 0.012533 0.437960
    29 0.447953 -2.798986 -0.200443 -1.083108 -0.024750 0.321985
    30 -0.032909 -1.499736 0.028378 -1.405033 0.023334 -0.026879
    31 -0.027022 -1.115984 -0.028023 -0.967278 0.021752 -0.015208
    32 -0.249534 -2.846964 -0.174213 -0.927167 -0.009008 0.151859
    33 0.043235 -1.656596 0.072574 -1.315085 -0.020930 0.005777
    34 0.031729 -1.137392 0.051025 -1.375111 -0.015333 0.007761
    35 -0.963866 -2.785145 -0.085350 -0.990983 0.136737 -0.225412
    36 0.028479 -1.403067 -0.017167 -0.965960 -0.135474 0.127432
    37 0.021413 -0.942156 0.012233 -0.964436 -0.025335 -0.033641
    38 1.164475 -2.543940 -0.170330 -1.202160 -0.161088 0.388818
    39 0.024032 -1.140761 -0.005631 -0.986046 0.010594 0.051247
    40 0.014898 -0.903521 -0.015942 -1.028794 0.009660 0.051438
    41 -0.586770 -1.264477 0.200161 0.221924 -1.275430 -2.979233
    42 1.569711 0.035243 0.016848 -0.019647 -0.007097 0.922310
    43 1.114041 0.040611 -0.005766 -0.028766 -0.034359 1.035400
    44 -0.045646 -0.072634 0.010491 0.230636 0.395471 1.618939
    45 -8.026485 2.585080 -0.454283 1.571600 -0.033151 -0.393828
  time 16
    0 4.623540 -5.069762 -4.446222 -1.567798 -3.102714 1.494652
    1 5.535558 -1.455844 -0.000001 0.000000 0.000000 -1.364276
    2 6.967555 -0.456137 0.775243 1.570767 -1.566682 1.570854
    3 0.586840 3.168368 -0.000001 0.000000 0.000000 0.000000
    4 0.793143 -0.094784 -0.021412 -1.570775 1.559439 1.570817
    5 0.793143 -0.094784 -0.021412 1.570775 1.582159 1.570775
    6 -1.049094 -12.486388 0.054639 -1.570797 0.000000 0.000000
    7 -0.002752 -2.016952 -0.003287 0.000000 0.000000 0.000000
    8 6.208446 6.231988 -8.885972 5.011263 -1.422109 1.243621
    9 8.073794 1.031880 -0.372470 1.568903 -3.117093 0.204368
    10 -0.107078 -8.412796 -0.162730 -0.174024 -0.002113 -0.150941
    11 -0.488518 -2.755602 -0.228260 -0.636514 -0.072434 -0.337320
    12 0.047700 -1.530573 0.014229 -1.481141 -0.125802 0.203368
    13 0.028786 -1.126514 -0.105143 -0.742955 -0.013303 0.014298
    14 0.250027 -2.820665 -0.238396 -0.418648 -0.123606 -0.157124
    15 -0.057572 -1.598510 0.030164 -1.580137 -0.056699 0.100860
    16 -0.034142 -1.160031 0.053531 -0.902405 0.008281 -0.023154
    17 0.957766 -2.746780 -0.090302 -0.138913 -0.159269 0.186081
    18 -0.033420 -1.393223 -0.022976 -0.746922 0.007634 -0.036734
    19 -0.022360 -0.961342 -0.004654 -0.883172 0.005525 -0.043001
    20 -1.180681 -2.507217 -0.193859 -0.314555 -0.083781 -0.213847
    21 -0.024967 -1.127840 0.017597 -1.431112 0.098765 0.048910
    22 -0.020057 -0.902687 0.025715 -0.805420 0.007514 -0.032334
    23 0.583510 -1.208996 0.197098 -0.016291 -1.086293 -0.690834
    24 1.481238 -0.200698 -0.049680 0.017733 0.168348 -0.720722
    25 0.987486 -0.214230 -0.006773 -0.101489 -0.020928 -1.227553
    26 0.120153 -0.050270 -0.054489 0.287569 3.110905 1.561085
    27 -0.755159 -5.883623 -13.447006 -1.735495 -5.429251 -1.238451
    28 0.124289 -8.423074 -0.052335 0.403553 0.017581 0.434565
    29 0.447953 -2.798986 -0.200443 -1.083108 -0.024750 0.321985
    30 -0.032909 -1.499736 0.028378 -1.405033 0.023334 -0.026879
    31 -0.027022 -1.115984 -0.028023 -0.967278 0.021752 -0.015208
    32 -0.249534 -2.846964 -0.174213 -0.927167 -0.009008 0.151859
    33 0.043235 -1.656596 0.072574 -1.315085 -0.020930 0.005777
    34 0.031729 -1.137392 0.051025 -1.375111 -0.015333 0.007761
    35 -0.963866 -2.785145 -0.085350 -0.990983 0.136737 -0.225412
    36 0.028479 -1.403067 -0.017167 -0.965960 -0.135474 0.127432
    37 0.021413 -0.942156 0.012233 -0.964436 -0.025335 -0.033641
    38 1.164475 -2.543940 -0.170330 -1.202160 -0.161088 0.388818
    39 0.024032 -1.140761 -0.005631 -0.986046 0.010594 0.051247
    40 0.014898 -0.903521 -0.015942 -1.028794 0.009660 0.051438
    41 -0.586770 -1.264477 0.200161 0.221924 -1.275430 -2.979233
    42 1.569711 0.035243 0.016848 -0.019647 -0.007097 0.922310
    43 1.114041 0.040611 -0.005766 -0.028766 -0.034359 1.035400
    44 -0.045646 -0.072634 0.010491 0.230636 0.395471 1.618939
    45 -8.022579 2.600706 -0.454283 1.571648 -0.033127 -0.395710
  time 17
    0 4.619634 -5.034604 -4.481379 -1.565403 -3.090926 1.495040
    1 5.535558 -1.455844 -0.000001 0.000000 0.000000 -1.364276
    2 6.967555 -0.456137 0.775243 1.570767 -1.566682 1.570854
    3 0.586840 3.168368 -0.000001 0.000000 0.000000 0.000000
    4 0.793143 -0.094784 -0.021412 -1.570775 1.559439 1.570817
    5 0.793143 -0.094784 -0.021412 1.570775 1.582159 1.570775
    6 -1.049094 -12.486388 0.054639 -1.570797 0.000000 0.000000
    7 -0.002752 -2.016952 -0.003287 0.000000 0.000000 0.000000
    8 6.212353 6.235894 -8.889878 5.020897 -1.426809 1.234051
    9 8.073794 1.059225 -0.372470 1.568807 -3.117188 0.208017
    10 -0.110985 -8.416703 -0.162730 -0.174184 -0.003948 -0.134167
    11 -0.488518 -2.755602 -0.228260 -0.636514 -0.072434 -0.337320
    12 0.047700 -1.530573 0.014229 -1.481141 -0.125802 0.203368
    13 0.028786 -1.126514 -0.105143 -0.742955 -0.013303 0.014298
    14 0.250027 -2.820665 -0.238396 -0.418648 -0.123606 -0.157124
    15 -0.057572 -1.598510 0.030164 -1.580137 -0.056699 0.100860
    16 -0.034142 -1.160031 0.053531 -0.902405 0.008281 -0.023154
    17 0.957766 -2.746780 -0.090302 -0.138913 -0.159269 0.186081
    18 -0.033420 -1.393223 -0.022976 -0.746922 0.007634 -0.036734
    19 -0.022360 -0.961342 -0.004654 -0.883172 0.005525 -0.043001
    20 -1.180681 -2.507217 -0.193859 -0.314555 -0.083781 -0.213847
    21 -0.024967 -1.127840 0.017597 -1.431112 0.098765 0.048910
    22 -0.020057 -0.902687 0.025715 -0.805420 0.007514 -0.032334
    23 0.583510 -1.208996 0.197098 -0.016291 -1.086293 -0.690834
    24 1.481238 -0.200698 -0.049680 0.017733 0.168348 -0.720722
    25 0.987486 -0.214230 -0.006773 -0.101489 -0.020928 -1.227553
    26 0.120153 -0.050270 -0.054489 0.287569 3.110905 1.561085
    27 -0.747346 -5.910968 -13.407942 -1.737819 -5.433159 -1.240546
    28 0.124289 -8.423074 -0.056241 0.403075 0.022907 0.428365
    29 0.447953 -2.798986 -0.200443 -1.083108 -0.024750 0.321985
    30 -0.032909 -1.499736 0.028378 -1.405033 0.023334 -0.026879
    31 -0.027022 -1.115984 -0.028023 -0.967278 0.021752 -0.015208
    32 -0.249534 -2.846964 -0.174213 -0.927167 -0.009008 0.151859
    33 0.043235 -1.656596 0.072574 -1.315085 -0.020930 0.005777
    34 0.031729 -1.137392 0.051025 -1.375111 -0.015333 0.007761
    35 -0.963866 -2.785145 -0.085350 -0.990983 0.136737 -0.225412
    36 0.028479 -1.403067 -0.017167 -0.965960 -0.135474 0.127432
    37 0.021413 -0.942156 0.012233 -0.964436 -0.025335 -0.033641
    38 1.164475 -2.543940 -0.170330 -1.202160 -0.161088 0.388818
    39 0.024032 -1.140761 -0.005631 -0.986046 0.010594 0.051247
    40 0.014898 -0.903521 -0.015942 -1.028794 0.009660 0.051438
    41 -0.586770 -1.264477 0.200161 0.221924 -1.275430 -2.979233
    42 1.569711 0.035243 0.016848 -0.019647 -0.007097 0.922310
    43 1.114041 0.040611 -0.005766 -0.028766 -0.034359 1.035400
    44 -0.045646 -0.072634 0.010491 0.230636 0.395471 1.618939
    45 -8.014766 2.635863 -0.454283 1.571732 -0.033055 -0.399866
  time 18
    0 4.615728 -4.995541 -4.512630 -1.562911 -3.078947 1.495371
    1 5.535558 -1.455844 -0.000001 0.000000 0.000000 -1.364276
    2 6.967555 -0.456137 0.775243 1.570767 -1.566682 1.570854
    3 0.586840 3.058990 -0.000001 0.000000 0.000000 0.000000
    4 0.793143 -0.094784 -0.021412 -1.570775 1.559439 1.570817
    5 0.793143 -0.094784 -0.021412 1.570775 1.582159 1.570775
    6 -1.049094 -12.486388 0.054639 -1.570797 0.000000 0.000000
    7 -0.002752 -2.016952 -0.003287 0.000000 0.000000 0.000000
    8 6.212353 6.243707 -8.893784 5.029578 -1.430757 1.225342
    9 8.073794 1.086569 -0.372470 1.568807 -3.117284 0.211145
    10 -0.110985 -8.420609 -0.162730 -0.174388 -0.005892 -0.117832
    11 -0.488518 -2.755602 -0.228260 -0.636514 -0.072434 -0.337320
    12 0.047700 -1.530573 0.014229 -1.481141 -0.125802 0.203368
    13 0.028786 -1.126514 -0.105143 -0.742955 -0.013303 0.014298
    14 0.250027 -2.820665 -0.238396 -0.418648 -0.123606 -0.157124
    15 -0.057572 -1.598510 0.030164 -1.580137 -0.056699 0.100860
    16 -0.034142 -1.160031 0.053531 -0.902405 0.008281 -0.023154
    17 0.957766 -2.746780 -0.090302 -0.138913 -0.159269 0.186081
    18 -0.033420 -1.393223 -0.022976 -0.746922 0.007634 -0.036734
    19 -0.022360 -0.961342 -0.004654 -0.883172 0.005525 -0.043001
    20 -1.180681 -2.507217 -0.193859 -0.314555 -0.083781 -0.213847
    21 -0.024967 -1.127840 0.017597 -1.431112 0.098765 0.048910
    22 -0.020057 -0.902687 0.025715 -0.805420 0.007514 -0.032334
    23 0.583510 -1.208996 0.197098 -0.016291 -1.086293 -0.690834
    24 1.481238 -0.200698 -0.049680 0.017733 0.168348 -0.720722
    25 0.987486 -0.214230 -0.006773 -0.101489 -0.020928 -1.227553
    26 0.120153 -0.050270 -0.054489 0.287569 3.110905 1.561085
    27 -0.735627 -5.934406 -13.364972 -1.738439 -5.437638 -1.241118
    28 0.128195 -8.423074 -0.056241 0.402446 0.027312 0.421622
    29 0.447953 -2.798986 -0.200443 -1.083108 -0.024750 0.321985
    30 -0.032909 -1.499736 0.028378 -1.405033 0.023334 -0.026879
    31 -0.027022 -1.115984 -0.028023 -0.967278 0.021752 -0.015208
    32 -0.249534 -2.846964 -0.174213 -0.927167 -0.009008 0.151859
    33 0.043235 -1.656596 0.072574 -1.315085 -0.020930 0.005777
    34 0.031729 -1.137392 0.051025 -1.375111 -0.015333 0.007761
    35 -0.963866 -2.785145 -0.085350 -0.990983 0.136737 -0.225412
    36 0.028479 -1.403067 -0.017167 -0.965960 -0.135474 0.127432
    37 0.021413 -0.942156 0.012233 -0.964436 -0.025335 -0.033641
    38 1.164475 -2.543940 -0.170330 -1.202160 -0.161088 0.388818
    39 0.024032 -1.140761 -0.005631 -0.986046 0.010594 0.051247
    40 0.014898 -0.903521 -0.015942 -1.028794 0.009660 0.051438
    41 -0.586770 -1.264477 0.200161 0.221924 -1.275430 -2.979233
    42 1.569711 0.035243 0.016848 -0.019647 -0.007097 0.922310
    43 1.114041 0.040611 -0.005766 -0.028766 -0.034359 1.035400
    44 -0.045646 -0.072634 0.010491 0.230636 0.395471 1.618939
    45 -8.006953 2.671020 -0.454283 1.571828 -0.032983 -0.404336
  time 19
    0 4.611821 -4.968196 -4.524349 -1.561282 -3.071281 1.495482
    1 5.535558 -1.455844 -0.000001 0.000000 0.000000 -1.364276
    2 6.967555 -0.456137 0.775243 1.570767 -1.566682 1.570854
    3 0.582934 2.891016 -0.000001 0.000000 0.000000 0.000000
    4 0.793143 -0.094784 -0.021412 -1.570775 1.559439 1.570817
    5 0.793143 -0.094784 -0.021412 1.570775 1.582159 1.570775
    6 -1.049094 -12.486388 0.054639 -1.570797 0.000000 0.000000
    7 -0.002752 -2.016952 -0.003287 0.000000 0.000000 0.000000
    8 6.212353 6.243707 -8.897691 5.033871 -1.432637 1.221131
    9 8.069888 1.098288 -0.372470 1.568807 -3.117284 0.212644
    10 -0.110985 -8.420609 -0.162730 -0.174548 -0.007146 -0.108111
    11 -0.488518 -2.755602 -0.228260 -0.636514 -0.072434 -0.337320
    12 0.047700 -1.530573 0.014229 -1.481141 -0.125802 0.203368
    13 0.028786 -1.126514 -0.105143 -0.742955 -0.013303 0.014298
    14 0.250027 -2.820665 -0.238396 -0.418648 -0.123606 -0.157124
    15 -0.057572 -1.598510 0.030164 -1.580137 -0.056699 0.100860
    16 -0.034142 -1.160031 0.053531 -0.902405 0.008281 -0.023154
    17 0.957766 -2.746780 -0.090302 -0.138913 -0.159269 0.186081
    18 -0.033420 -1.393223 -0.022976 -0.746922 0.007634 -0.036734
    19 -0.022360 -0.961342 -0.004654 -0.883172 0.005525 -0.043001
    20 -1.180681 -2.507217 -0.193859 -0.314555 -0.083781 -0.213847
    21 -0.024967 -1.127840 0.017597 -1.431112 0.098765 0.048910
    22 -0.020057 -0.902687 0.025715 -0.805420 0.007514 -0.032334
    23 0.583510 -1.208996 0.197098 -0.016291 -1.086293 -0.690834
    24 1.481238 -0.200698 -0.049680 0.017733 0.168348 -0.720722
    25 0.987486 -0.214230 -0.006773 -0.101489 -0.020928 -1.227553
    26 0.120153 -0.050270 -0.054489 0.287569 3.110905 1.561085
    27 -0.727814 -5.953938 -13.337628 -1.737742 -5.440593 -1.240642
    28 0.128195 -8.426980 -0.056241 0.401792 0.022600 0.413973
    29 0.447953 -2.798986 -0.200443 -1.083108 -0.024750 0.321985
    30 -0.032909 -1.499736 0.028378 -1.405033 0.023334 -0.026879
    31 -0.027022 -1.115984 -0.028023 -0.967278 0.021752 -0.015208
    32 -0.249534 -2.846964 -0.174213 -0.927167 -0.009008 0.151859
    33 0.043235 -1.656596 0.072574 -1.315085 -0.020930 0.005777
    34 0.031729 -1.137392 0.051025 -1.375111 -0.015333 0.007761
    35 -0.963866 -2.785145 -0.085350 -0.990983 0.136737 -0.225412
    36 0.028479 -1.403067 -0.017167 -0.965960 -0.135474 0.127432
    37 0.021413 -0.942156 0.012233 -0.964436 -0.025335 -0.033641
    38 1.164475 -2.543940 -0.170330 -1.202160 -0.161088 0.388818
    39 0.024032 -1.140761 -0.005631 -0.986046 0.010594 0.051247
    40 0.014898 -0.903521 -0.015942 -1.028794 0.009660 0.051438
    41 -0.586770 -1.264477 0.200161 0.221924 -1.275430 -2.979233
    42 1.569711 0.035243 0.016848 -0.019647 -0.007097 0.922310
    43 1.114041 0.040611 -0.005766 -0.028766 -0.034359 1.035400
    44 -0.045646 -0.072634 0.010491 0.230636 0.395471 1.618939
    45 -8.003047 2.694458 -0.450377 1.571887 -0.032923 -0.407238
  time 20
    0 4.611821 -4.987728 -4.473567 -1.562336 -3.076839 1.495095
    1 5.535558 -1.455844 -0.000001 0.000000 0.000000 -1.364276
    2 6.967555 -0.456137 0.775243 1.570767 -1.566682 1.570854
    3 0.582934 2.836327 -0.000001 0.000000 0.000000 0.000000
    4 0.793143 -0.094784 -0.021412 -1.570775 1.559439 1.570817
    5 0.793143 -0.094784 -0.021412 1.570775 1.582159 1.570775
    6 -1.049094 -12.486388 0.054639 -1.570797 0.000000 0.000000
    7 -0.002752 -2.016952 -0.003287 0.000000 0.000000 0.000000
    8 6.212353 6.235894 -8.889878 5.021279 -1.426934 1.233668
    9 8.073794 1.063131 -0.372470 1.568807 -3.117188 0.208147
    10 -0.110985 -8.420609 -0.162730 -0.174570 -0.006456 -0.119659
    11 -0.488518 -2.755602 -0.228260 -0.636514 -0.072434 -0.337320
    12 0.047700 -1.530573 0.014229 -1.481141 -0.125802 0.203368
    13 0.028786 -1.126514 -0.105143 -0.742955 -0.013303 0.014298
    14 0.250027 -2.820665 -0.238396 -0.418648 -0.123606 -0.157124
    15 -0.057572 -1.598510 0.030164 -1.580137 -0.056699 0.100860
    16 -0.034142 -1.160031 0.053531 -0.902405 0.008281 -0.023154
    17 0.957766 -2.746780 -0.090302 -0.138913 -0.159269 0.186081
    18 -0.033420 -1.393223 -0.022976 -0.746922 0.007634 -0.036734
    19 -0.022360 -0.961342 -0.004654 -0.883172 0.005525 -0.043001
    20 -1.180681 -2.507217 -0.193859 -0.314555 -0.083781 -0.213847
    21 -0.024967 -1.127840 0.017597 -1.431112 0.098765 0.048910
    22 -0.020057 -0.902687 0.025715 -0.805420 0.007514 -0.032334
    23 0.583510 -1.208996 0.197098 -0.016291 -1.086293 -0.690834
    24 1.481238 -0.200698 -0.049680 0.017733 0.168348 -0.720722
    25 0.987486 -0.214230 -0.006773 -0.101489 -0.020928 -1.227553
    26 0.120153 -0.050270 -0.054489 0.287569 3.110905 1.561085
    27 -0.727814 -5.953938 -13.337628 -1.737587 -5.440879 -1.240928
    28 0.124289 -8.426980 -0.052335 0.401792 0.012310 0.416055
    29 0.447953 -2.798986 -0.200443 -1.083108 -0.024750 0.321985
    30 -0.032909 -1.499736 0.028378 -1.405033 0.023334 -0.026879
    31 -0.027022 -1.115984 -0.028023 -0.967278 0.021752 -0.015208
    32 -0.249534 -2.846964 -0.174213 -0.927167 -0.009008 0.151859
    33 0.043235 -1.656596 0.072574 -1.315085 -0.020930 0.005777
    34 0.031729 -1.137392 0.051025 -1.375111 -0.015333 0.007761
    35 -0.963866 -2.785145 -0.085350 -0.990983 0.136737 -0.225412
    36 0.028479 -1.403067 -0.017167 -0.965960 -0.135474 0.127432
    37 0.021413 -0.942156 0.012233 -0.964436 -0.025335 -0.033641
    38 1.164475 -2.543940 -0.170330 -1.202160 -0.161088 0.388818
    39 0.024032 -1.140761 -0.005631 -0.986046 0.010594 0.051247
    40 0.014898 -0.903521 -0.015942 -1.028794 0.009660 0.051438
    41 -0.586770 -1.264477 0.200161 0.221924 -1.275430 -2.979233
    42 1.569711 0.035243 0.016848 -0.019647 -0.007097 0.922310
    43 1.114041 0.040611 -0.005766 -0.028766 -0.034359 1.035400
    44 -0.045646 -0.072634 0.010491 0.230636 0.395471 1.618939
    45 -8.003047 2.690552 -0.450377 1.571875 -0.032935 -0.406767
  time 21
    0 4.615728 -5.015073 -4.418877 -1.563965 -3.085847 1.494597
    1 5.535558 -1.455844 -0.000001 0.000000 0.000000 -1.364276
    2 6.967555 -0.456137 0.775243 1.570767 -1.566682 1.570854
    3 0.582934 2.836327 -0.000001 0.000000 0.000000 0.000000
    4 0.793143 -0.094784 -0.021412 -1.570775 1.559439 1.570817
    5 0.793143 -0.094784 -0.021412 1.570775 1.582159 1.570775
    6 -1.049094 -12.486388 0.054639 -1.570797 0.000000 0.000000
    7 -0.002752 -2.016952 -0.003287 0.000000 0.000000 0.000000
    8 6.208446 6.228082 -8.885972 5.007733 -1.420355 1.247162
    9 8.073794 1.020161 -0.372470 1.568903 -3.117093 0.202934
    10 -0.110985 -8.416703 -0.162730 -0.174548 -0.005265 -0.135666
    11 -0.488518 -2.755602 -0.228260 -0.636514 -0.072434 -0.337320
    12 0.047700 -1.530573 0.014229 -1.481141 -0.125802 0.203368
    13 0.028786 -1.126514 -0.105143 -0.742955 -0.013303 0.014298
    14 0.250027 -2.820665 -0.238396 -0.418648 -0.123606 -0.157124
    15 -0.057572 -1.598510 0.030164 -1.580137 -0.056699 0.100860
    16 -0.034142 -1.160031 0.053531 -0.902405 0.008281 -0.023154
    17 0.957766 -2.746780 -0.090302 -0.138913 -0.159269 0.186081
    18 -0.033420 -1.393223 -0.022976 -0.746922 0.007634 -0.036734
    19 -0.022360 -0.961342 -0.004654 -0.883172 0.005525 -0.043001
    20 -1.180681 -2.507217 -0.193859 -0.314555 -0.083781 -0.213847
    21 -0.024967 -1.127840 0.017597 -1.431112 0.098765 0.048910
    22 -0.020057 -0.902687 0.025715 -0.805420 0.007514 -0.032334
    23 0.583510 -1.208996 0.197098 -0.016291 -1.086293 -0.690834
    24 1.481238 -0.200698 -0.049680 0.017733 0.168348 -0.720722
    25 0.987486 -0.214230 -0.006773 -0.101489 -0.020928 -1.227553
    26 0.120153 -0.050270 -0.054489 0.287569 3.110905 1.561085
    27 -0.735627 -5.946125 -13.349347 -1.737664 -5.440116 -1.241213
    28 0.124289 -8.423074 -0.052335 0.402169 0.007765 0.423341
    29 0.447953 -2.798986 -0.200443 -1.083108 -0.024750 0.321985
    30 -0.032909 -1.499736 0.028378 -1.405033 0.023334 -0.026879
    31 -0.027022 -1.115984 -0.028023 -0.967278 0.021752 -0.015208
    32 -0.249534 -2.846964 -0.174213 -0.927167 -0.009008 0.151859
    33 0.043235 -1.656596 0.072574 -1.315085 -0.020930 0.005777
    34 0.031729 -1.137392 0.051025 -1.375111 -0.015333 0.007761
    35 -0.963866 -2.785145 -0.085350 -0.990983 0.136737 -0.225412
    36 0.028479 -1.403067 -0.017167 -0.965960 -0.135474 0.127432
    37 0.021413 -0.942156 0.012233 -0.964436 -0.025335 -0.033641
    38 1.164475 -2.543940 -0.170330 -1.202160 -0.161088 0.388818
    39 0.024032 -1.140761 -0.005631 -0.986046 0.010594 0.051247
    40 0.014898 -0.903521 -0.015942 -1.028794 0.009660 0.051438
    41 -0.586770 -1.264477 0.200161 0.221924 -1.275430 -2.979233
    42 1.569711 0.035243 0.016848 -0.019647 -0.007097 0.922310
    43 1.114041 0.040611 -0.005766 -0.028766 -0.034359 1.035400
    44 -0.045646 -0.072634 0.010491 0.230636 0.395471 1.618939
    45 -8.006953 2.674927 -0.454283 1.571828 -0.032971 -0.404728
  time 22
    0 4.615728 -5.022885 -4.414971 -1.564157 -3.087956 1.494486
    1 5.535558 -1.455844 -0.000001 0.000000 0.000000 -1.364276
    2 6.967555 -0.456137 0.775243 1.570767 -1.566682 1.570854
    3 0.582934 2.836327 -0.000001 0.000000 0.000000 0.000000
    4 0.793143 -0.094784 -0.021412 -1.570775 1.559439 1.570817
    5 0.793143 -0.094784 -0.021412 1.570775 1.582159 1.570775
    6 -1.049094 -12.486388 0.054639 -1.570797 0.000000 0.000000
    7 -0.002752 -2.016952 -0.003287 0.000000 0.000000 0.000000
    8 6.208446 6.228082 -8.882065 5.006875 -1.419916 1.248023
    9 8.073794 1.016255 -0.372470 1.568903 -3.117093 0.202608
    10 -0.110985 -8.416703 -0.162730 -0.174548 -0.005092 -0.138260
    11 -0.488518 -2.755602 -0.228260 -0.636514 -0.072434 -0.337320
    12 0.047700 -1.530573 0.014229 -1.481141 -0.125802 0.203368
    13 0.028786 -1.126514 -0.105143 -0.742955 -0.013303 0.014298
    14 0.250027 -2.820665 -0.238396 -0.418648 -0.123606 -0.157124
    15 -0.057572 -1.598510 0.030164 -1.580137 -0.056699 0.100860
    16 -0.034142 -1.160031 0.053531 -0.902405 0.008281 -0.023154
    17 0.957766 -2.746780 -0.090302 -0.138913 -0.159269 0.186081
    18 -0.033420 -1.393223 -0.022976 -0.746922 0.007634 -0.036734
    19 -0.022360 -0.961342 -0.004654 -0.883172 0.005525 -0.043001
    20 -1.180681 -2.507217 -0.193859 -0.314555 -0.083781 -0.213847
    21 -0.024967 -1.127840 0.017597 -1.431112 0.098765 0.048910
    22 -0.020057 -0.902687 0.025715 -0.805420 0.007514 -0.032334
    23 0.583510 -1.208996 0.197098 -0.016291 -1.086314 -0.690834
    24 1.481238 -0.200698 -0.049680 0.017733 0.168348 -0.720722
    25 0.987486 -0.214230 -0.006773 -0.101489 -0.020928 -1.227553
    26 0.120153 -0.050270 -0.054489 0.287569 3.110905 1.561085
    27 -0.739533 -5.938313 -13.361066 -1.737897 -5.439258 -1.241404
    28 0.124289 -8.423074 -0.052335 0.402395 0.006733 0.424337
    29 0.447953 -2.798986 -0.200443 -1.083108 -0.024750 0.321985
    30 -0.032909 -1.499736 0.028378 -1.405033 0.023334 -0.026879
    31 -0.027022 -1.115984 -0.028023 -0.967278 0.021752 -0.015208
    32 -0.249534 -2.846964 -0.174213 -0.927167 -0.009008 0.151859
    33 0.043235 -1.656596 0.072574 -1.315085 -0.020930 0.005777
    34 0.031729 -1.137392 0.051025 -1.375111 -0.015333 0.007761
    35 -0.963866 -2.785145 -0.085350 -0.990983 0.136737 -0.225412
    36 0.028479 -1.403067 -0.017167 -0.965960 -0.135474 0.127432
    37 0.021413 -0.942156 0.012233 -0.964436 -0.025335 -0.033641
    38 1.164475 -2.543940 -0.170330 -1.202160 -0.161088 0.388818
    39 0.024032 -1.140761 -0.005631 -0.986046 0.010594 0.051247
    40 0.014898 -0.903521 -0.015942 -1.028794 0.009660 0.051438
    41 -0.586770 -1.264477 0.200161 0.221924 -1.275430 -2.979233
    42 1.569711 0.035243 0.016848 -0.019647 -0.007097 0.922310
    43 1.114041 0.040611 -0.005766 -0.028766 -0.034359 1.035400
    44 -0.045646 -0.072634 0.010491 0.230636 0.395471 1.618939
    45 -8.006953 2.667114 -0.454283 1.571816 -0.032983 -0.403709
  time 23
    0 4.615728 -5.022885 -4.426690 -1.564157 -3.088722 1.494486
    1 5.535558 -1.455844 -0.000001 0.000000 0.000000 -1.364276
    2 6.967555 -0.456137 0.775243 1.570767 -1.566682 1.570854
    3 0.582934 2.836327 -0.000001 0.000000 0.000000 0.000000
    4 0.793143 -0.094784 -0.021412 -1.570775 1.559439 1.570817
    5 0.793143 -0.094784 -0.021412 1.570775 1.582159 1.570775
    6 -1.049094 -12.486388 0.054639 -1.570797 0.000000 0.000000
    7 -0.002752 -2.016952 -0.003287 0.000000 0.000000 0.000000
    8 6.208446 6.228082 -8.885972 5.008878 -1.420919 1.246014
    9 8.073794 1.024067 -0.372470 1.568903 -3.117093 0.203390
    10 -0.110985 -8.416703 -0.162730 -0.174548 -0.005108 -0.137968
    11 -0.488518 -2.755602 -0.228260 -0.636514 -0.072434 -0.337320
    12 0.047700 -1.530573 0.014229 -1.481141 -0.125802 0.203368
    13 0.028786 -1.126514 -0.105143 -0.742955 -0.013303 0.014298
    14 0.250027 -2.820665 -0.238396 -0.418648 -0.123606 -0.157124
    15 -0.057572 -1.598510 0.030164 -1.580137 -0.056699 0.100860
    16 -0.034142 -1.160031 0.053531 -0.902405 0.008281 -0.023154
    17 0.957766 -2.746780 -0.090302 -0.138913 -0.159269 0.186081
    18 -0.033420 -1.393223 -0.022976 -0.746922 0.007634 -0.036734
    19 -0.022360 -0.961342 -0.004654 -0.883172 0.005525 -0.043001
    20 -1.180681 -2.507217 -0.193859 -0.314555 -0.083781 -0.213847
    21 -0.024967 -1.127840 0.017597 -1.431112 0.098765 0.048910
    22 -0.020057 -0.902687 0.025715 -0.805420 0.007514 -0.032334
    23 0.583510 -1.208996 0.197098 -0.016291 -1.086293 -0.690834
    24 1.481238 -0.200698 -0.049680 0.017733 0.168348 -0.720722
    25 0.987486 -0.214230 -0.006773 -0.101489 -0.020928 -1.227553
    26 0.120153 -0.050270 -0.054489 0.287569 3.110905 1.561085
    27 -0.743440 -5.934406 -13.368879 -1.738206 -5.438115 -1.241594
    28 0.124289 -8.423074 -0.052335 0.402622 0.006873 0.424066
    29 0.447953 -2.798986 -0.200443 -1.083108 -0.024750 0.321985
    30 -0.032909 -1.499736 0.028378 -1.405033 0.023334 -0.026879
    31 -0.027022 -1.115984 -0.028023 -0.967278 0.021752 -0.015208
    32 -0.249534 -2.846964 -0.174213 -0.927167 -0.009008 0.151859
    33 0.043235 -1.656596 0.072574 -1.315085 -0.020930 0.005777
    34 0.031729 -1.137392 0.051025 -1.375111 -0.015333 0.007761
    35 -0.963866 -2.785145 -0.085350 -0.990983 0.136737 -0.225412
    36 0.028479 -1.403067 -0.017167 -0.965960 -0.135474 0.127432
    37 0.021413 -0.942156 0.012233 -0.964436 -0.025335 -0.033641
    38 1.164475 -2.543940 -0.170330 -1.202160 -0.161088 0.388818
    39 0.024032 -1.140761 -0.005631 -0.986046 0.010594 0.051247
    40 0.014898 -0.903521 -0.015942 -1.028794 0.009660 0.051438
    41 -0.586770 -1.264477 0.200161 0.221924 -1.275430 -2.979233
    42 1.569711 0.035243 0.016848 -0.019647 -0.007097 0.922310
    43 1.114041 0.040611 -0.005766 -0.028766 -0.034359 1.035400
    44 -0.045646 -0.072634 0.010491 0.230636 0.395471 1.618939
    45 -8.010859 2.659301 -0.454283 1.571792 -0.033007 -0.402846
  time 24
    0 4.615728 -5.026792 -4.442316 -1.564061 -3.089010 1.494542
    1 5.535558 -1.455844 -0.000001 0.000000 0.000000 -1.364276
    2 6.967555 -0.456137 0.775243 1.570767 -1.566682 1.570854
    3 0.582934 2.836327 -0.000001 0.000000 0.000000 0.000000
    4 0.793143 -0.094784 -0.021412 -1.570775 1.559439 1.570817
    5 0.793143 -0.094784 -0.021412 1.570775 1.582159 1.570775
    6 -1.049094 -12.486388 0.054639 -1.570797 0.000000 0.000000
    7 -0.002752 -2.016952 -0.003287 0.000000 0.000000 0.000000
    8 6.208446 6.231988 -8.885972 5.012121 -1.422548 1.242855
    9 8.073794 1.031880 -0.372470 1.568903 -3.117093 0.204628
    10 -0.110985 -8.416703 -0.162730 -0.174548 -0.005202 -0.136543
    11 -0.488518 -2.755602 -0.228260 -0.636514 -0.072434 -0.337320
    12 0.047700 -1.530573 0.014229 -1.481141 -0.125802 0.203368
    13 0.028786 -1.126514 -0.105143 -0.742955 -0.013303 0.014298
    14 0.250027 -2.820665 -0.238396 -0.418648 -0.123606 -0.157124
    15 -0.057572 -1.598510 0.030164 -1.580137 -0.056699 0.100860
    16 -0.034142 -1.160031 0.053531 -0.902405 0.008281 -0.023154
    17 0.957766 -2.746780 -0.090302 -0.138913 -0.159269 0.186081
    18 -0.033420 -1.393223 -0.022976 -0.746922 0.007634 -0.036734
    19 -0.022360 -0.961342 -0.004654 -0.883172 0.005525 -0.043001
    20 -1.180681 -2.507217 -0.193859 -0.314555 -0.083781 -0.213847
    21 -0.024967 -1.127840 0.017597 -1.431112 0.098765 0.048910
    22 -0.020057 -0.902687 0.025715 -0.805420 0.007514 -0.032334
    23 0.583510 -1.208996 0.197098 -0.016291 -1.086293 -0.690834
    24 1.481238 -0.200698 -0.049680 0.017733 0.168348 -0.720722
    25 0.987486 -0.214230 -0.006773 -0.101489 -0.020928 -1.227553
    26 0.120153 -0.050270 -0.054489 0.287569 3.110905 1.561085
    27 -0.743440 -5.930500 -13.380598 -1.738516 -5.436876 -1.241785
    28 0.124289 -8.423074 -0.052335 0.402823 0.007375 0.423341
    29 0.447953 -2.798986 -0.200443 -1.083108 -0.024750 0.321985
    30 -0.032909 -1.499736 0.028378 -1.405033 0.023334 -0.026879
    31 -0.027022 -1.115984 -0.028023 -0.967278 0.021752 -0.015208
    32 -0.249534 -2.846964 -0.174213 -0.927167 -0.009008 0.151859
    33 0.043235 -1.656596 0.072574 -1.315085 -0.020930 0.005777
    34 0.031729 -1.137392 0.051025 -1.375111 -0.015333 0.007761
    35 -0.963866 -2.785145 -0.085350 -0.990983 0.136737 -0.225412
    36 0.028479 -1.403067 -0.017167 -0.965960 -0.135474 0.127432
    37 0.021413 -0.942156 0.012233 -0.964436 -0.025335 -0.033641
    38 1.164475 -2.543940 -0.170330 -1.202160 -0.161088 0.388818
    39 0.024032 -1.140761 -0.005631 -0.986046 0.010594 0.051247
    40 0.014898 -0.903521 -0.015942 -1.028794 0.009660 0.051438
    41 -0.586770 -1.264477 0.200161 0.221924 -1.275430 -2.979233
    42 1.569711 0.035243 0.016848 -0.019647 -0.007097 0.922310
    43 1.114041 0.040611 -0.005766 -0.028766 -0.034359 1.035400
    44 -0.045646 -0.072634 0.010491 0.230636 0.395471 1.618939
    45 -8.010859 2.651488 -0.454283 1.571780 -0.033019 -0.401984
  time 25
    0 4.615728 -5.026792 -4.454035 -1.564061 -3.089489 1.494542
    1 5.535558 -1.455844 -0.000001 0.000000 0.000000 -1.364276
    2 6.967555 -0.456137 0.775243 1.570767 -1.566682 1.570854
    3 0.582934 2.836327 -0.000001 0.000000 0.000000 0.000000
    4 0.793143 -0.094784 -0.021412 -1.570775 1.559439 1.570817
    5 0.793143 -0.094784 -0.021412 1.570775 1.582159 1.570775
    6 -1.049094 -12.486388 0.054639 -1.570797 0.000000 0.000000
    7 -0.002752 -2.016952 -0.003287 0.000000 0.000000 0.000000
    8 6.212353 6.231988 -8.885972 5.014792 -1.423864 1.240176
    9 8.073794 1.039693 -0.372470 1.568903 -3.117093 0.205671
    10 -0.110985 -8.416703 -0.162730 -0.174548 -0.005265 -0.135666
    11 -0.488518 -2.755602 -0.228260 -0.636514 -0.072434 -0.337320
    12 0.047700 -1.530573 0.014229 -1.481141 -0.125802 0.203368
    13 0.028786 -1.126514 -0.105143 -0.742955 -0.013303 0.014298
    14 0.250027 -2.820665 -0.238396 -0.418648 -0.123606 -0.157124
    15 -0.057572 -1.598510 0.030164 -1.580137 -0.056699 0.100860
    16 -0.034142 -1.160031 0.053531 -0.902405 0.008281 -0.023154
    17 0.957766 -2.746780 -0.090302 -0.138913 -0.159269 0.186081
    18 -0.033420 -1.393223 -0.022976 -0.746922 0.007634 -0.036734
    19 -0.022360 -0.961342 -0.004654 -0.883172 0.005525 -0.043001
    20 -1.180681 -2.507217 -0.193859 -0.314555 -0.083781 -0.213847
    21 -0.024967 -1.127840 0.017597 -1.431112 0.098765 0.048910
    22 -0.020057 -0.902687 0.025715 -0.805420 0.007514 -0.032334
    23 0.583510 -1.208996 0.197098 -0.016291 -1.086293 -0.690834
    24 1.481238 -0.200698 -0.049680 0.017733 0.168348 -0.720722
    25 0.987486 -0.214230 -0.006773 -0.101489 -0.020928 -1.227553
    26 0.120153 -0.050270 -0.054489 0.287569 3.110905 1.561085
    27 -0.747346 -5.922687 -13.388411 -1.738826 -5.435732 -1.241976
    28 0.124289 -8.426980 -0.052335 0.403024 0.007430 0.422708
    29 0.447953 -2.798986 -0.200443 -1.083108 -0.024750 0.321985
    30 -0.032909 -1.499736 0.028378 -1.405033 0.023334 -0.026879
    31 -0.027022 -1.115984 -0.028023 -0.967278 0.021752 -0.015208
    32 -0.249534 -2.846964 -0.174213 -0.927167 -0.009008 0.151859
    33 0.043235 -1.656596 0.072574 -1.315085 -0.020930 0.005777
    34 0.031729 -1.137392 0.051025 -1.375111 -0.015333 0.007761
    35 -0.963866 -2.785145 -0.085350 -0.990983 0.136737 -0.225412
    36 0.028479 -1.403067 -0.017167 -0.965960 -0.135474 0.127432
    37 0.021413 -0.942156 0.012233 -0.964436 -0.025335 -0.033641
    38 1.164475 -2.543940 -0.170330 -1.202160 -0.161088 0.388818
    39 0.024032 -1.140761 -0.005631 -0.986046 0.010594 0.051247
    40 0.014898 -0.903521 -0.015942 -1.028794 0.009660 0.051438
    41 -0.586770 -1.264477 0.200161 0.221924 -1.275430 -2.979233
    42 1.569711 0.035243 0.016848 -0.019647 -0.007097 0.922310
    43 1.114041 0.040611 -0.005766 -0.028766 -0.034359 1.035400
    44 -0.045646 -0.072634 0.010491 0.230636 0.395471 1.618939
    45 -8.014766 2.643676 -0.454283 1.571756 -0.033031 -0.401121
end
