// Created by Crowbar 0.34.0.0

$ModelName "weapons/tfa_cso/w_laser_storm.mdl"

$BodyGroup "studio"
{
	studio "v_ref"
}

$collisionmodel "v_ref.smd"
{
	$mass 9
}

$CDMaterials "models\weapons\tfa_cso\laser_storm\"

$attachment "0" "root" -0.00 -14.70 -0.70 rotate -0 -90 0

$Sequence "idle" {
	"anims\idle.smd"
	fps 30
}