// Created by Crowbar 0.71

$modelname "weapons/tfa_cso/w_thanatos_9b.mdl"

$bodygroup "studio"
{
	studio "p_thanatos9b"
}

$collisionmodel "p_thanatos9b.smd"
{
	$mass 9
}


$cdmaterials "models\weapons\tfa_cso\thanatos_9\"

$sequence "idle" {
	"p_thanatos9b_anims\idle"
	fps 30
	loop
}