version 1
nodes
  0 "root" -1
  1 "Bone01" 0
  2 "Bone_Lefthand" 1
  3 "Bone08" 2
  4 "Dummy02" 3
  5 "Bone42" 4
  6 "Dummy03" 3
  7 "Bone47" 6
  8 "Bone26" 3
  9 "Bone24" 3
  10 "Bone16" 3
  11 "Dummy01" 5
  12 "Bone02" 11
  13 "Bone_L_Upper" 1
  14 "Bone13" 2
  15 "Bone14" 14
  16 "Bone15" 15
  17 "Bone17" 2
  18 "Bone18" 17
  19 "Bone19" 18
  20 "Bone21" 2
  21 "Bone22" 20
  22 "Bone23" 21
  23 "Bone09" 2
  24 "Bone10" 23
  25 "Bone11" 24
  26 "Bone05" 2
  27 "Bone06" 26
  28 "Bone07" 27
  29 "Bone_Se_Hand-L" 2
  30 "Bone04" 0
  31 "Bone_Righthand" 30
  32 "Bone39" 31
  33 "Bone40" 32
  34 "Bone41" 33
  35 "Bone35" 31
  36 "Bone36" 35
  37 "Bone37" 36
  38 "Bone31" 31
  39 "Bone32" 38
  40 "Bone33" 39
  41 "Bone43" 31
  42 "Bone44" 41
  43 "Bone45" 42
  44 "Bone27" 31
  45 "Bone28" 44
  46 "Bone29" 45
  47 "Bone_Se_Hand-R" 31
  48 "Bone_R_Upper" 30
end
skeleton
  time 0
    0 -0.349399 1.166145 0.203512 0.000000 0.000000 0.000000
    1 16.336895 -1.112619 -9.024385 0.439851 -1.647845 -1.092669
    2 -0.071919 -8.498729 -0.104136 -0.012801 0.071103 -0.250374
    3 4.238646 -4.266517 0.498798 -3.065845 0.124236 -1.536350
    4 2.319580 -1.456083 -0.000001 0.000000 0.000000 -1.570796
    5 0.002144 -0.000001 -0.000001 0.000000 0.000000 0.000006
    6 8.830292 -0.400003 -2.170229 0.000000 0.000000 -1.570796
    7 0.000000 0.000000 0.000000 0.000000 0.000000 0.000000
    8 1.430789 2.565281 -2.253419 -0.000001 -0.000001 -4.712294
    9 4.989939 2.565243 -2.253418 -0.000001 -0.000001 -4.712294
    10 16.804588 2.565286 -2.253421 -0.000001 -0.000001 -4.712294
    11 0.591962 -4.172407 -0.000001 0.000000 0.000000 1.389440
    12 0.000000 0.000000 0.000000 0.000000 0.000000 0.000000
    13 1.257180 8.762585 -0.153713 -1.570562 0.002683 -1.566807
    14 -0.488518 -2.755602 -0.228260 -0.285957 0.018206 -0.220219
    15 0.039887 -1.479790 0.029854 -2.163980 0.000000 0.000001
    16 0.028786 -1.075731 -0.023109 -0.729241 0.000000 0.000000
    17 0.250027 -2.820665 -0.238396 -0.090819 0.062503 -0.167059
    18 -0.049759 -1.680544 0.100479 -2.122085 0.000000 -0.000002
    19 -0.034142 -1.148312 0.084782 -0.909626 0.000000 0.000000
    20 0.957766 -2.746780 -0.090302 0.349903 -0.123483 -0.019742
    21 -0.033420 -1.397129 -0.011257 -1.101918 0.000000 -0.000001
    22 -0.022360 -0.957436 0.018784 -0.799989 0.000000 0.000000
    23 -1.180681 -2.507217 -0.193859 0.014387 0.131222 -0.129547
    24 -0.024967 -1.123934 0.017597 -1.504420 0.000000 0.000001
    25 -0.020057 -0.890968 0.010090 -1.588318 0.000000 0.000000
    26 0.583510 -1.197277 0.185379 0.281706 -0.595144 -0.857319
    27 1.535927 0.010246 0.005009 -0.002964 -0.012979 -0.682290
    28 1.100771 0.004527 -0.010679 -0.016147 -0.001453 -1.484153
    29 0.120153 -0.050270 -0.054489 0.287569 3.110905 1.561085
    30 2.436345 -9.774367 -13.943115 1.085606 -4.279989 1.048861
    31 0.096944 -8.450418 -0.009365 -0.333617 -1.431726 0.746550
    32 0.447953 -2.798986 -0.200443 -1.210185 0.118642 0.257028
    33 -0.032909 -1.480204 0.004940 -1.014331 0.000000 0.000002
    34 -0.027022 -1.076920 -0.020210 -0.486864 0.000000 0.000000
    35 -0.249534 -2.846964 -0.174213 -0.924990 0.119445 0.213547
    36 0.043235 -1.683941 0.096012 -1.290377 0.002823 -0.000167
    37 0.031729 -1.160830 0.058838 -0.456131 0.000642 0.008372
    38 -0.963866 -2.785145 -0.085350 -0.385535 0.170953 0.241411
    39 0.028479 -1.403067 0.006271 -1.058247 0.000000 0.000000
    40 0.021413 -0.957781 0.020046 -0.471292 0.000000 0.000000
    41 1.164475 -2.543940 -0.170330 -1.379512 0.036670 0.462095
    42 0.024032 -1.129042 0.017807 -0.836349 0.000000 0.000001
    43 0.014898 -0.883989 -0.019848 -0.452581 0.000000 0.000000
    44 -0.586770 -1.264477 0.200161 0.402031 -0.483616 -3.269282
    45 1.522835 0.058681 0.016848 0.001410 0.008985 0.696420
    46 1.117947 0.048424 -0.005766 -0.007218 -0.024143 0.346703
    47 -0.139399 -0.111698 0.014397 0.846771 0.171241 1.393752
    48 -6.260806 6.983652 -0.294122 1.580804 -0.005023 -0.912799
  time 1
    0 -0.349399 1.166145 0.203512 0.000000 0.000000 0.000000
    1 15.575153 -0.987615 -9.809566 -2.091995 -1.472430 1.474438
    2 -0.071919 -8.498729 -0.104136 0.021607 0.071642 -0.250973
    3 4.238646 -4.266517 0.498798 -3.065845 0.124236 -1.536350
    4 2.319580 -1.456083 -0.000001 0.000000 0.000000 -1.570796
    5 0.002144 -0.000001 -0.000001 0.000000 0.000000 0.000006
    6 8.830292 -0.400003 -2.170229 0.000000 0.000000 -1.570796
    7 0.000000 0.000000 0.000000 0.000000 0.000000 0.000000
    8 1.430789 2.565281 -2.253419 -0.000001 -0.000001 -4.589480
    9 4.989939 2.565243 -2.253418 -0.000001 -0.000001 -4.589480
    10 16.804588 2.565286 -2.253421 -0.000001 -0.000001 -4.589480
    11 0.591962 -4.172407 -0.000001 0.000000 0.000000 1.389440
    12 0.000000 0.000000 0.000000 0.000000 0.000000 0.000000
    13 1.257180 8.762585 -0.153713 -1.570562 0.002683 -1.566807
    14 -0.488518 -2.755602 -0.228260 -0.285957 0.018206 -0.220219
    15 0.039887 -1.479790 0.029854 -2.163980 0.000000 0.000001
    16 0.028786 -1.075731 -0.023109 -0.729241 0.000000 0.000000
    17 0.250027 -2.820665 -0.238396 -0.090819 0.062503 -0.167059
    18 -0.049759 -1.680544 0.100479 -2.122085 0.000000 -0.000002
    19 -0.034142 -1.148312 0.084782 -0.909626 0.000000 0.000000
    20 0.957766 -2.746780 -0.090302 0.349903 -0.123483 -0.019742
    21 -0.033420 -1.397129 -0.011257 -1.101918 0.000000 -0.000001
    22 -0.022360 -0.957436 0.018784 -0.799989 0.000000 0.000000
    23 -1.180681 -2.507217 -0.193859 0.014387 0.131222 -0.129547
    24 -0.024967 -1.123934 0.017597 -1.504420 0.000000 0.000001
    25 -0.020057 -0.890968 0.010090 -1.588318 0.000000 0.000000
    26 0.583510 -1.197277 0.185379 0.281706 -0.595144 -0.857319
    27 1.535927 0.010246 0.005009 -0.002964 -0.012979 -0.682290
    28 1.100771 0.004527 -0.010679 -0.016147 -0.001453 -1.484153
    29 0.120153 -0.050270 -0.054489 0.287569 3.110905 1.561085
    30 -0.802035 -10.856431 -12.751672 0.798269 -3.971225 0.845507
    31 0.096944 -8.450418 -0.009365 -0.070432 -1.112441 0.391464
    32 0.447953 -2.798986 -0.200443 -0.987511 0.118642 0.257028
    33 -0.032909 -1.480204 0.004940 -0.925273 0.000000 0.000002
    34 -0.027022 -1.076920 -0.020210 -0.486864 0.000000 0.000000
    35 -0.249534 -2.846964 -0.174213 -0.693853 0.099611 0.187732
    36 0.043235 -1.683941 0.096012 -1.121032 0.002823 -0.000167
    37 0.031729 -1.160830 0.058838 -0.426682 0.000642 0.008372
    38 -0.963866 -2.785145 -0.085350 -0.220999 0.155025 0.171763
    39 0.028479 -1.403067 0.006271 -0.911967 0.000000 0.000000
    40 0.021413 -0.957781 0.020046 -0.403051 0.000000 0.000000
    41 1.164475 -2.543940 -0.170330 -1.309176 0.043837 0.439912
    42 0.024032 -1.129042 0.017807 -0.836349 0.000000 0.000001
    43 0.014898 -0.883989 -0.019848 -0.452581 0.000000 0.000000
    44 -0.586770 -1.264477 0.200161 0.402031 -0.483616 -3.269282
    45 1.522835 0.058681 0.016848 0.001410 0.008985 0.696420
    46 1.117947 0.048424 -0.005766 -0.007218 -0.024143 0.346703
    47 -0.139399 -0.111698 0.014397 0.693467 0.142119 1.435686
    48 -6.260806 6.983652 -0.294122 1.580804 -0.005023 -0.912799
  time 2
    0 -0.349399 1.166145 0.203512 0.000000 0.000000 0.000000
    1 14.821224 -0.858705 -10.590840 -1.748609 -1.429683 1.167456
    2 -0.071919 -8.498729 -0.104136 0.057249 0.072230 -0.251572
    3 4.238646 -4.266517 0.498798 -3.065845 0.124236 -1.536350
    4 2.319580 -1.456083 -0.000001 0.000000 0.000000 -1.570796
    5 0.002144 -0.000001 -0.000001 0.000000 0.000000 0.000006
    6 8.830292 -0.400003 -2.170229 0.000000 0.000000 -1.570796
    7 0.000000 0.000000 0.000000 0.000000 0.000000 0.000000
    8 1.430789 2.565281 -2.253419 -0.000001 -0.000001 -4.471939
    9 4.989939 2.565243 -2.253418 -0.000001 -0.000001 -4.471939
    10 16.804588 2.565286 -2.253421 -0.000001 -0.000001 -4.471939
    11 0.591962 -4.172407 -0.000001 0.000000 0.000000 1.389440
    12 0.000000 0.000000 0.000000 0.000000 0.000000 0.000000
    13 1.257180 8.762585 -0.153713 -1.570562 0.002683 -1.566807
    14 -0.488518 -2.755602 -0.228260 -0.285957 0.018206 -0.220219
    15 0.039887 -1.479790 0.029854 -2.163980 0.000000 0.000001
    16 0.028786 -1.075731 -0.023109 -0.729241 0.000000 0.000000
    17 0.250027 -2.820665 -0.238396 -0.090819 0.062503 -0.167059
    18 -0.049759 -1.680544 0.100479 -2.122085 0.000000 -0.000002
    19 -0.034142 -1.148312 0.084782 -0.909626 0.000000 0.000000
    20 0.957766 -2.746780 -0.090302 0.349903 -0.123483 -0.019742
    21 -0.033420 -1.397129 -0.011257 -1.101918 0.000000 -0.000001
    22 -0.022360 -0.957436 0.018784 -0.799989 0.000000 0.000000
    23 -1.180681 -2.507217 -0.193859 0.014387 0.131222 -0.129547
    24 -0.024967 -1.123934 0.017597 -1.504420 0.000000 0.000001
    25 -0.020057 -0.890968 0.010090 -1.588318 0.000000 0.000000
    26 0.583510 -1.197277 0.185379 0.281706 -0.595144 -0.857319
    27 1.535927 0.010246 0.005009 -0.002964 -0.012979 -0.682290
    28 1.100771 0.004527 -0.010679 -0.016147 -0.001453 -1.484153
    29 0.120153 -0.050270 -0.054489 0.287569 3.110905 1.561085
    30 -3.571651 -11.817398 -11.696953 0.647819 -3.646641 0.790455
    31 0.096944 -8.450418 -0.009365 -0.064771 -0.786539 0.286534
    32 0.447953 -2.798986 -0.200443 -0.573956 0.118642 0.257028
    33 -0.032909 -1.480204 0.004940 -0.759934 0.000000 0.000002
    34 -0.027022 -1.076920 -0.020210 -0.486864 0.000000 0.000000
    35 -0.249534 -2.846964 -0.174213 -0.264598 0.062794 0.139793
    36 0.043235 -1.683941 0.096012 -0.806526 0.002823 -0.000167
    37 0.031729 -1.160830 0.058838 -0.371957 0.000642 0.008372
    38 -0.963866 -2.785145 -0.085350 0.084540 0.125411 0.042416
    39 0.028479 -1.403067 0.006271 -0.640297 0.000000 0.000000
    40 0.021413 -0.957781 0.020046 -0.276273 0.000000 0.000000
    41 1.164475 -2.543940 -0.170330 -1.178475 0.057139 0.398709
    42 0.024032 -1.129042 0.017807 -0.836349 0.000000 0.000001
    43 0.014898 -0.883989 -0.019848 -0.452581 0.000000 0.000000
    44 -0.586770 -1.264477 0.200161 0.402031 -0.483616 -3.269282
    45 1.522835 0.058681 0.016848 0.001410 0.008985 0.696420
    46 1.117947 0.048424 -0.005766 -0.007218 -0.024143 0.346703
    47 -0.139399 -0.111698 0.014397 0.408764 0.088008 1.513550
    48 -6.260806 6.983652 -0.294122 1.580804 -0.005023 -0.912799
  time 3
    0 -0.349399 1.166145 0.203512 0.000000 0.000000 0.000000
    1 14.090733 -0.718076 -11.356488 -1.563367 -1.378804 1.019124
    2 -0.071919 -8.498729 -0.104136 0.093191 0.072841 -0.252160
    3 4.238646 -4.266517 0.498798 -3.065845 0.124236 -1.536350
    4 2.319580 -1.456083 -0.000001 0.000000 0.000000 -1.570796
    5 0.002144 -0.000001 -0.000001 0.000000 0.000000 0.000006
    6 8.830292 -0.400003 -2.170229 0.000000 0.000000 -1.570796
    7 0.000000 0.000000 0.000000 0.000000 0.000000 0.000000
    8 1.430789 2.565281 -2.253419 -0.000001 -0.000001 -4.358904
    9 4.989939 2.565243 -2.253418 -0.000001 -0.000001 -4.358904
    10 16.804588 2.565286 -2.253421 -0.000001 -0.000001 -4.358904
    11 0.591962 -4.172407 -0.000001 0.000000 0.000000 1.389440
    12 0.000000 0.000000 0.000000 0.000000 0.000000 0.000000
    13 1.257180 8.762585 -0.153713 -1.570562 0.002683 -1.566807
    14 -0.488518 -2.755602 -0.228260 -0.285957 0.018206 -0.220219
    15 0.039887 -1.479790 0.029854 -2.163980 0.000000 0.000001
    16 0.028786 -1.075731 -0.023109 -0.729241 0.000000 0.000000
    17 0.250027 -2.820665 -0.238396 -0.090819 0.062503 -0.167059
    18 -0.049759 -1.680544 0.100479 -2.122085 0.000000 -0.000002
    19 -0.034142 -1.148312 0.084782 -0.909626 0.000000 0.000000
    20 0.957766 -2.746780 -0.090302 0.349903 -0.123483 -0.019742
    21 -0.033420 -1.397129 -0.011257 -1.101918 0.000000 -0.000001
    22 -0.022360 -0.957436 0.018784 -0.799989 0.000000 0.000000
    23 -1.180681 -2.507217 -0.193859 0.014387 0.131222 -0.129547
    24 -0.024967 -1.123934 0.017597 -1.504420 0.000000 0.000001
    25 -0.020057 -0.890968 0.010090 -1.588318 0.000000 0.000000
    26 0.583510 -1.197277 0.185379 0.281706 -0.595144 -0.857319
    27 1.535927 0.010246 0.005009 -0.002964 -0.012979 -0.682290
    28 1.100771 0.004527 -0.010679 -0.016147 -0.001453 -1.484153
    29 0.120153 -0.050270 -0.054489 0.287569 3.110905 1.561085
    30 -5.403738 -12.532264 -10.911772 0.552324 -3.352288 0.756469
    31 0.096944 -8.450418 -0.009365 -0.087467 -0.541038 0.225205
    32 0.447953 -2.798986 -0.200443 -0.351282 0.118642 0.257028
    33 -0.032909 -1.480204 0.004940 -0.670876 0.000000 0.000002
    34 -0.027022 -1.076920 -0.020210 -0.486864 0.000000 0.000000
    35 -0.249534 -2.846964 -0.174213 -0.033461 0.042960 0.113991
    36 0.043235 -1.683941 0.096012 -0.637181 0.002823 -0.000167
    37 0.031729 -1.160830 0.058838 -0.342476 0.000642 0.008372
    38 -0.963866 -2.785145 -0.085350 0.249075 0.109472 -0.027233
    39 0.028479 -1.403067 0.006271 -0.494066 0.000000 0.000000
    40 0.021413 -0.957781 0.020046 -0.208000 0.000000 0.000000
    41 1.164475 -2.543940 -0.170330 -1.108090 0.064294 0.376525
    42 0.024032 -1.129042 0.017807 -0.836349 0.000000 0.000001
    43 0.014898 -0.883989 -0.019848 -0.452581 0.000000 0.000000
    44 -0.586770 -1.264477 0.200161 0.402031 -0.483616 -3.269282
    45 1.522835 0.058681 0.016848 0.001410 0.008985 0.696420
    46 1.117947 0.048424 -0.005766 -0.007218 -0.024143 0.346703
    47 -0.139399 -0.111698 0.014397 0.255486 0.058874 1.555472
    48 -6.260806 6.983652 -0.294122 1.580804 -0.005023 -0.912799
  time 4
    0 -0.349399 1.166145 0.203512 0.000000 0.000000 0.000000
    1 13.391493 -0.565727 -12.098698 -1.451997 -1.325888 0.944233
    2 -0.071919 -8.498729 -0.104136 0.128521 0.073464 -0.252723
    3 4.238646 -4.266517 0.498798 -3.065845 0.124236 -1.536350
    4 2.319580 -1.456083 -0.000001 0.000000 0.000000 -1.570796
    5 0.002144 -0.000001 -0.000001 0.000000 0.000000 0.000006
    6 8.830292 -0.400003 -2.170229 0.000000 0.000000 -1.570796
    7 0.000000 0.000000 0.000000 0.000000 0.000000 0.000000
    8 1.430789 2.565281 -2.253419 -0.000001 -0.000001 -4.249608
    9 4.989939 2.565243 -2.253418 -0.000001 -0.000001 -4.249608
    10 16.804588 2.565286 -2.253421 -0.000001 -0.000001 -4.249608
    11 0.591962 -4.172407 -0.000001 0.000000 0.000000 1.389440
    12 0.000000 0.000000 0.000000 0.000000 0.000000 0.000000
    13 1.257180 8.762585 -0.153713 -1.570562 0.002683 -1.566807
    14 -0.488518 -2.755602 -0.228260 -0.285957 0.018206 -0.220219
    15 0.039887 -1.479790 0.029854 -2.163980 0.000000 0.000001
    16 0.028786 -1.075731 -0.023109 -0.729241 0.000000 0.000000
    17 0.250027 -2.820665 -0.238396 -0.090819 0.062503 -0.167059
    18 -0.049759 -1.680544 0.100479 -2.122085 0.000000 -0.000002
    19 -0.034142 -1.148312 0.084782 -0.909626 0.000000 0.000000
    20 0.957766 -2.746780 -0.090302 0.349903 -0.123483 -0.019742
    21 -0.033420 -1.397129 -0.011257 -1.101918 0.000000 -0.000001
    22 -0.022360 -0.957436 0.018784 -0.799989 0.000000 0.000000
    23 -1.180681 -2.507217 -0.193859 0.014387 0.131222 -0.129547
    24 -0.024967 -1.123934 0.017597 -1.504420 0.000000 0.000001
    25 -0.020057 -0.890968 0.010090 -1.588318 0.000000 0.000000
    26 0.583510 -1.197277 0.185379 0.281706 -0.595144 -0.857319
    27 1.535927 0.010246 0.005009 -0.002964 -0.012979 -0.682290
    28 1.100771 0.004527 -0.010679 -0.016147 -0.001453 -1.484153
    29 0.120153 -0.050270 -0.054489 0.287569 3.110905 1.561085
    30 -5.024820 -12.770552 -10.806301 0.526906 -3.148792 0.664342
    31 0.096944 -8.450418 -0.009365 -0.074098 -0.496293 0.214782
    32 0.447953 -2.798986 -0.200443 -0.351282 0.118642 0.257028
    33 -0.032909 -1.480204 0.004940 -0.670876 0.000000 0.000002
    34 -0.027022 -1.076920 -0.020210 -0.486864 0.000000 0.000000
    35 -0.249534 -2.846964 -0.174213 -0.033461 0.042960 0.113991
    36 0.043235 -1.683941 0.096012 -0.637181 0.002823 -0.000167
    37 0.031729 -1.160830 0.058838 -0.342476 0.000642 0.008372
    38 -0.963866 -2.785145 -0.085350 0.249075 0.109472 -0.027233
    39 0.028479 -1.403067 0.006271 -0.494066 0.000000 0.000000
    40 0.021413 -0.957781 0.020046 -0.208000 0.000000 0.000000
    41 1.164475 -2.543940 -0.170330 -1.108090 0.064294 0.376525
    42 0.024032 -1.129042 0.017807 -0.836349 0.000000 0.000001
    43 0.014898 -0.883989 -0.019848 -0.452581 0.000000 0.000000
    44 -0.586770 -1.264477 0.200161 0.402031 -0.483616 -3.269282
    45 1.522835 0.058681 0.016848 0.001410 0.008985 0.696420
    46 1.117947 0.048424 -0.005766 -0.007218 -0.024143 0.346703
    47 -0.139399 -0.111698 0.014397 0.255486 0.058874 1.555472
    48 -6.260806 6.983652 -0.294122 1.580804 -0.005023 -0.912799
  time 5
    0 -0.349399 1.166145 0.203512 0.000000 0.000000 0.000000
    1 12.743035 -0.397753 -12.809657 -1.378933 -1.274202 0.906424
    2 -0.071919 -8.498729 -0.104136 0.162330 0.074075 -0.253238
    3 4.238646 -4.266517 0.498798 -3.065845 0.124236 -1.536350
    4 2.319580 -1.456083 -0.000001 0.000000 0.000000 -1.570796
    5 0.002144 -0.000001 -0.000001 0.000000 0.000000 0.000006
    6 8.830292 -0.400003 -2.170229 0.000000 0.000000 -1.570796
    7 0.000000 0.000000 0.000000 0.000000 0.000000 0.000000
    8 1.430789 2.565281 -2.253419 -0.000001 -0.000001 -4.143379
    9 4.989939 2.565243 -2.253418 -0.000001 -0.000001 -4.143379
    10 16.804588 2.565286 -2.253421 -0.000001 -0.000001 -4.143379
    11 0.591962 -4.172407 -0.000001 0.000000 0.000000 1.389440
    12 0.000000 0.000000 0.000000 0.000000 0.000000 0.000000
    13 1.257180 8.762585 -0.153713 -1.570562 0.002683 -1.566807
    14 -0.488518 -2.755602 -0.228260 -0.285957 0.018206 -0.220219
    15 0.039887 -1.479790 0.029854 -2.163980 0.000000 0.000001
    16 0.028786 -1.075731 -0.023109 -0.729241 0.000000 0.000000
    17 0.250027 -2.820665 -0.238396 -0.090819 0.062503 -0.167059
    18 -0.049759 -1.680544 0.100479 -2.122085 0.000000 -0.000002
    19 -0.034142 -1.148312 0.084782 -0.909626 0.000000 0.000000
    20 0.957766 -2.746780 -0.090302 0.349903 -0.123483 -0.019742
    21 -0.033420 -1.397129 -0.011257 -1.101918 0.000000 -0.000001
    22 -0.022360 -0.957436 0.018784 -0.799989 0.000000 0.000000
    23 -1.180681 -2.507217 -0.193859 0.014387 0.131222 -0.129547
    24 -0.024967 -1.123934 0.017597 -1.504420 0.000000 0.000001
    25 -0.020057 -0.890968 0.010090 -1.588318 0.000000 0.000000
    26 0.583510 -1.197277 0.185379 0.281706 -0.595144 -0.857319
    27 1.535927 0.010246 0.005009 -0.002964 -0.012979 -0.682290
    28 1.100771 0.004527 -0.010679 -0.016147 -0.001453 -1.484153
    29 0.120153 -0.050270 -0.054489 0.287569 3.110905 1.561085
    30 -3.591183 -12.532264 -10.911772 0.548206 -2.965257 0.521563
    31 0.096944 -8.450418 -0.009365 -0.087467 -0.541038 0.225205
    32 0.447953 -2.798986 -0.200443 -0.351282 0.118642 0.257028
    33 -0.032909 -1.480204 0.004940 -0.670876 0.000000 0.000002
    34 -0.027022 -1.076920 -0.020210 -0.486864 0.000000 0.000000
    35 -0.249534 -2.846964 -0.174213 -0.033461 0.042960 0.113991
    36 0.043235 -1.683941 0.096012 -0.637181 0.002823 -0.000167
    37 0.031729 -1.160830 0.058838 -0.342476 0.000642 0.008372
    38 -0.963866 -2.785145 -0.085350 0.249075 0.109472 -0.027233
    39 0.028479 -1.403067 0.006271 -0.494066 0.000000 0.000000
    40 0.021413 -0.957781 0.020046 -0.208000 0.000000 0.000000
    41 1.164475 -2.543940 -0.170330 -1.108090 0.064294 0.376525
    42 0.024032 -1.129042 0.017807 -0.836349 0.000000 0.000001
    43 0.014898 -0.883989 -0.019848 -0.452581 0.000000 0.000000
    44 -0.586770 -1.264477 0.200161 0.402031 -0.483616 -3.269282
    45 1.522835 0.058681 0.016848 0.001410 0.008985 0.696420
    46 1.117947 0.048424 -0.005766 -0.007218 -0.024143 0.346703
    47 -0.139399 -0.111698 0.014397 0.255486 0.058874 1.555472
    48 -6.260806 6.983652 -0.294122 1.580804 -0.005023 -0.912799
  time 6
    0 -0.349399 1.166145 0.203512 0.000000 0.000000 0.000000
    1 12.149267 -0.206341 -13.485459 -1.329094 -1.226063 0.889818
    2 -0.071919 -8.498729 -0.104136 0.193717 0.074662 -0.253694
    3 4.238646 -4.266517 0.498798 -3.065845 0.124236 -1.536350
    4 2.319580 -1.456083 -0.000001 0.000000 0.000000 -1.570796
    5 0.002144 -0.000001 -0.000001 0.000000 0.000000 0.000006
    6 8.830292 -0.400003 -2.170229 0.000000 0.000000 -1.570796
    7 0.000000 0.230476 0.000000 0.000000 0.000000 0.000000
    8 1.430789 2.565281 -2.253419 -0.000001 -0.000001 -4.039548
    9 4.989939 2.565243 -2.253418 -0.000001 -0.000001 -4.039548
    10 16.804588 2.565286 -2.253421 -0.000001 -0.000001 -4.039548
    11 0.591962 -4.172407 -0.000001 0.000000 0.000000 1.389440
    12 0.000000 0.000000 0.000000 0.000000 0.000000 0.000000
    13 1.257180 8.762585 -0.153713 -1.570562 0.002683 -1.566807
    14 -0.488518 -2.755602 -0.228260 -0.285957 0.018206 -0.220219
    15 0.039887 -1.479790 0.029854 -2.163980 0.000000 0.000001
    16 0.028786 -1.075731 -0.023109 -0.729241 0.000000 0.000000
    17 0.250027 -2.820665 -0.238396 -0.090819 0.062503 -0.167059
    18 -0.049759 -1.680544 0.100479 -2.122085 0.000000 -0.000002
    19 -0.034142 -1.148312 0.084782 -0.909626 0.000000 0.000000
    20 0.957766 -2.746780 -0.090302 0.349903 -0.123483 -0.019742
    21 -0.033420 -1.397129 -0.011257 -1.101918 0.000000 -0.000001
    22 -0.022360 -0.957436 0.018784 -0.799989 0.000000 0.000000
    23 -1.180681 -2.507217 -0.193859 0.014387 0.131222 -0.129547
    24 -0.024967 -1.123934 0.017597 -1.504420 0.000000 0.000001
    25 -0.020057 -0.890968 0.010090 -1.588318 0.000000 0.000000
    26 0.583510 -1.197277 0.185379 0.281706 -0.595144 -0.857319
    27 1.535927 0.010246 0.005009 -0.002964 -0.012979 -0.682290
    28 1.100771 0.004527 -0.010679 -0.016147 -0.001453 -1.484153
    29 0.120153 -0.050270 -0.054489 0.287569 3.110905 1.561085
    30 -2.438804 -11.723645 -10.528948 0.603089 -2.677695 0.274485
    31 0.096944 -8.450418 -0.009365 -0.199922 -0.566175 0.175649
    32 0.447953 -2.798986 -0.200443 -0.668432 0.118642 0.257028
    33 -0.032909 -1.480204 0.004940 -0.988014 0.000000 0.000002
    34 -0.027022 -1.076920 -0.020210 -0.804011 0.000000 0.000000
    35 -0.249534 -2.846964 -0.174213 -0.033461 0.042960 0.113991
    36 0.043235 -1.683941 0.096012 -1.223801 0.002823 -0.000167
    37 0.031729 -1.160830 0.058838 -0.611631 0.000642 0.008372
    38 -0.963866 -2.785145 -0.085350 0.249075 0.109472 -0.027233
    39 0.028479 -1.403067 0.006271 -1.058847 0.000000 0.000000
    40 0.021413 -0.957781 0.020046 -0.635479 0.000000 0.000000
    41 1.164475 -2.543940 -0.170330 -1.299801 0.064294 0.376525
    42 0.024032 -1.129042 0.017807 -1.028037 0.000000 0.000001
    43 0.014898 -0.883989 -0.019848 -0.644257 0.000000 0.000000
    44 -0.586770 -1.264477 0.200161 0.186820 -0.550799 -2.874449
    45 1.522835 0.058681 0.016848 0.001410 0.008985 0.770819
    46 1.117947 0.048424 -0.005766 -0.008069 -0.020776 0.421119
    47 -0.139399 -0.111698 0.014397 0.255486 0.058874 1.555472
    48 -6.260806 6.983652 -0.294122 1.580804 -0.005023 -0.912799
  time 7
    0 -0.349399 1.166145 0.203512 0.000000 0.000000 0.000000
    1 11.621907 0.008509 -14.114385 -1.295627 -1.183368 0.886512
    2 -0.071919 -8.498729 -0.104136 0.221761 0.075202 -0.254077
    3 4.238646 -4.266517 0.498798 -3.065845 0.124236 -1.536350
    4 2.319580 -1.456083 -0.000001 0.000000 0.000000 -1.570796
    5 0.002144 -0.000001 -0.000001 0.000000 0.000000 0.000006
    6 8.830292 -0.400003 -2.170229 0.000000 0.000000 -1.570796
    7 0.000000 0.000000 0.000000 0.000000 0.000000 0.000000
    8 1.430789 2.565281 -2.253419 -0.000001 -0.000001 -3.937442
    9 4.989939 2.565243 -2.253418 -0.000001 -0.000001 -3.937442
    10 16.804588 2.565286 -2.253421 -0.000001 -0.000001 -3.937442
    11 0.591962 -4.172407 -0.000001 0.000000 0.000000 1.389440
    12 0.000000 0.000000 0.000000 0.000000 0.000000 0.000000
    13 1.257180 8.762585 -0.153713 -1.570562 0.002683 -1.566807
    14 -0.488518 -2.755602 -0.228260 -0.285957 0.018206 -0.220219
    15 0.039887 -1.479790 0.029854 -2.163980 0.000000 0.000001
    16 0.028786 -1.075731 -0.023109 -0.729241 0.000000 0.000000
    17 0.250027 -2.820665 -0.238396 -0.090819 0.062503 -0.167059
    18 -0.049759 -1.680544 0.100479 -2.122085 0.000000 -0.000002
    19 -0.034142 -1.148312 0.084782 -0.909626 0.000000 0.000000
    20 0.957766 -2.746780 -0.090302 0.349903 -0.123483 -0.019742
    21 -0.033420 -1.397129 -0.011257 -1.101918 0.000000 -0.000001
    22 -0.022360 -0.957436 0.018784 -0.799989 0.000000 0.000000
    23 -1.180681 -2.507217 -0.193859 0.014387 0.131222 -0.129547
    24 -0.024967 -1.123934 0.017597 -1.504420 0.000000 0.000001
    25 -0.020057 -0.890968 0.010090 -1.588318 0.000000 0.000000
    26 0.583510 -1.197277 0.185379 0.281706 -0.595144 -0.857319
    27 1.535927 0.010246 0.005009 -0.002964 -0.012979 -0.682290
    28 1.100771 0.004527 -0.010679 -0.016147 -0.001453 -1.484153
    29 0.120153 -0.050270 -0.054489 0.287569 3.110905 1.561085
    30 -1.786440 -10.977529 -10.169562 0.725209 -2.455232 0.116539
    31 0.096944 -8.450418 -0.009365 -0.394534 -0.541038 0.225205
    32 0.447953 -2.798986 -0.200443 -0.985583 0.118642 0.257028
    33 -0.032909 -1.480204 0.004940 -1.305152 0.000000 0.000002
    34 -0.027022 -1.076920 -0.020210 -1.121158 0.000000 0.000000
    35 -0.249534 -2.846964 -0.174213 -0.033461 0.042960 0.113991
    36 0.043235 -1.683941 0.096012 -1.810364 0.002823 -0.000167
    37 0.031729 -1.160830 0.058838 -0.880787 0.000642 0.008372
    38 -0.963866 -2.785145 -0.085350 0.249075 0.109472 -0.027233
    39 0.028479 -1.403067 0.006271 -1.623627 0.000000 0.000000
    40 0.021413 -0.957781 0.020046 -1.062957 0.000000 0.000000
    41 1.164475 -2.543940 -0.170330 -1.491463 0.064294 0.376525
    42 0.024032 -1.129042 0.017807 -1.219761 0.000000 0.000001
    43 0.014898 -0.883989 -0.019848 -0.835964 0.000000 0.000000
    44 -0.586770 -1.264477 0.200161 -0.028392 -0.617981 -2.479617
    45 1.522835 0.058681 0.016848 0.001410 0.008985 0.845254
    46 1.117947 0.048424 -0.005766 -0.008908 -0.017396 0.495507
    47 -0.139399 -0.111698 0.014397 0.255486 0.058874 1.555472
    48 -6.260806 6.983652 -0.294122 1.580804 -0.005023 -0.912799
  time 8
    0 -0.349399 1.166145 0.203512 0.000000 0.000000 0.000000
    1 11.602376 0.414771 -14.403456 -1.280949 -1.172585 0.880547
    2 -0.071919 -8.498729 -0.104136 0.228281 0.075322 -0.254173
    3 4.238646 -4.266517 0.498798 -3.065845 0.124236 -1.536350
    4 2.319580 -1.456083 -0.000001 0.000000 0.000000 -1.570796
    5 0.002144 -0.000001 -0.000001 0.000000 0.000000 0.000006
    6 8.830292 -0.400003 -2.170229 0.000000 0.000000 -1.570796
    7 0.000000 -1.843806 0.000000 0.000000 0.000000 0.000000
    8 1.430789 2.565281 -2.253419 -0.000001 -0.000001 -3.836200
    9 4.989939 2.565243 -2.253418 -0.000001 -0.000001 -3.836200
    10 16.804588 2.565286 -2.253421 -0.000001 -0.000001 -3.836200
    11 0.591962 -4.172407 -0.000001 0.000000 0.000000 1.389440
    12 0.000000 0.000000 0.000000 0.000000 0.000000 0.000000
    13 1.257180 8.762585 -0.153713 -1.570562 0.002683 -1.566807
    14 -0.488518 -2.755602 -0.228260 -0.285957 0.018206 -0.220219
    15 0.039887 -1.479790 0.029854 -2.163980 0.000000 0.000001
    16 0.028786 -1.075731 -0.023109 -0.729241 0.000000 0.000000
    17 0.250027 -2.820665 -0.238396 -0.090819 0.062503 -0.167059
    18 -0.049759 -1.680544 0.100479 -2.122085 0.000000 -0.000002
    19 -0.034142 -1.148312 0.084782 -0.909626 0.000000 0.000000
    20 0.957766 -2.746780 -0.090302 0.349903 -0.123483 -0.019742
    21 -0.033420 -1.397129 -0.011257 -1.101918 0.000000 -0.000001
    22 -0.022360 -0.957436 0.018784 -0.799989 0.000000 0.000000
    23 -1.180681 -2.507217 -0.193859 0.014387 0.131222 -0.129547
    24 -0.024967 -1.123934 0.017597 -1.504420 0.000000 0.000001
    25 -0.020057 -0.890968 0.010090 -1.588318 0.000000 0.000000
    26 0.583510 -1.197277 0.185379 0.281706 -0.595144 -0.857319
    27 1.535927 0.010246 0.005009 -0.002964 -0.012979 -0.682290
    28 1.100771 0.004527 -0.010679 -0.016147 -0.001453 -1.484153
    29 0.120153 -0.050270 -0.054489 0.287569 3.110905 1.561085
    30 -2.559901 -11.239256 -10.200813 0.743528 -2.427487 0.533641
    31 0.096944 -8.450418 -0.009365 -0.686776 -0.233309 0.568751
    32 0.447953 -2.798986 -0.200443 -0.985583 0.118642 0.257028
    33 -0.032909 -1.480204 0.004940 -1.305152 0.000000 0.000002
    34 -0.027022 -1.076920 -0.020210 -1.121158 0.000000 0.000000
    35 -0.249534 -2.846964 -0.174213 -0.033461 0.042960 0.113991
    36 0.043235 -1.683941 0.096012 -1.810364 0.002823 -0.000167
    37 0.031729 -1.160830 0.058838 -0.880787 0.000642 0.008372
    38 -0.963866 -2.785145 -0.085350 0.249075 0.109472 -0.027233
    39 0.028479 -1.403067 0.006271 -1.623627 0.000000 0.000000
    40 0.021413 -0.957781 0.020046 -1.062957 0.000000 0.000000
    41 1.164475 -2.543940 -0.170330 -1.491463 0.064294 0.376525
    42 0.024032 -1.129042 0.017807 -1.219761 0.000000 0.000001
    43 0.014898 -0.883989 -0.019848 -0.835964 0.000000 0.000000
    44 -0.586770 -1.264477 0.200161 -0.028392 -0.617981 -2.479617
    45 1.522835 0.058681 0.016848 0.001410 0.008985 0.845254
    46 1.117947 0.048424 -0.005766 -0.008908 -0.017396 0.495507
    47 -0.139399 -0.111698 0.014397 0.255486 0.058874 1.555472
    48 -6.260806 6.983652 -0.294122 1.580804 -0.005023 -0.912799
  time 9
    0 -0.349399 1.166145 0.203512 0.000000 0.000000 0.000000
    1 11.946136 0.942131 -14.450332 -1.376513 -1.191184 0.973738
    2 -0.071919 -8.498729 -0.104136 0.221761 0.075202 -0.254077
    3 4.238646 -4.266517 0.498798 -3.065845 0.124236 -1.536350
    4 2.319580 -1.456083 -0.000001 0.000000 0.000000 -1.570796
    5 0.002144 -0.000001 -0.000001 0.000000 0.000000 0.000006
    6 8.830292 -0.400003 -2.170229 0.000000 0.000000 -1.570796
    7 0.000000 -3.687613 0.000000 0.000000 0.000000 0.000000
    8 1.430789 2.565281 -2.253419 -0.000001 -0.000001 -3.735245
    9 4.989939 2.565243 -2.253418 -0.000001 -0.000001 -3.735245
    10 16.804588 2.565286 -2.253421 -0.000001 -0.000001 -3.735245
    11 0.591962 -4.172407 -0.000001 0.000000 0.000000 1.389440
    12 0.000000 0.000000 0.000000 0.000000 0.000000 0.000000
    13 1.257180 8.762585 -0.153713 -1.570562 0.002683 -1.566807
    14 -0.488518 -2.755602 -0.228260 -0.285957 0.018206 -0.220219
    15 0.039887 -1.479790 0.029854 -2.163980 0.000000 0.000001
    16 0.028786 -1.075731 -0.023109 -0.729241 0.000000 0.000000
    17 0.250027 -2.820665 -0.238396 -0.090819 0.062503 -0.167059
    18 -0.049759 -1.680544 0.100479 -2.122085 0.000000 -0.000002
    19 -0.034142 -1.148312 0.084782 -0.909626 0.000000 0.000000
    20 0.957766 -2.746780 -0.090302 0.349903 -0.123483 -0.019742
    21 -0.033420 -1.397129 -0.011257 -1.101918 0.000000 -0.000001
    22 -0.022360 -0.957436 0.018784 -0.799989 0.000000 0.000000
    23 -1.180681 -2.507217 -0.193859 0.014387 0.131222 -0.129547
    24 -0.024967 -1.123934 0.017597 -1.504420 0.000000 0.000001
    25 -0.020057 -0.890968 0.010090 -1.588318 0.000000 0.000000
    26 0.583510 -1.197277 0.185379 0.281706 -0.595144 -0.857319
    27 1.535927 0.010246 0.005009 -0.002964 -0.012979 -0.682290
    28 1.100771 0.004527 -0.010679 -0.016147 -0.001453 -1.484153
    29 0.120153 -0.050270 -0.054489 0.287569 3.110905 1.561085
    30 -3.966194 -11.532233 -10.325817 0.725209 -2.455232 0.982387
    31 0.096944 -8.450418 -0.009365 -0.783004 0.048689 0.761021
    32 0.447953 -2.798986 -0.200443 -0.985583 0.118642 0.257028
    33 -0.032909 -1.480204 0.004940 -1.305152 0.000000 0.000002
    34 -0.027022 -1.076920 -0.020210 -1.121158 0.000000 0.000000
    35 -0.249534 -2.846964 -0.174213 -0.033461 0.042960 0.113991
    36 0.043235 -1.683941 0.096012 -1.810364 0.002823 -0.000167
    37 0.031729 -1.160830 0.058838 -0.880787 0.000642 0.008372
    38 -0.963866 -2.785145 -0.085350 0.249075 0.109472 -0.027233
    39 0.028479 -1.403067 0.006271 -1.623627 0.000000 0.000000
    40 0.021413 -0.957781 0.020046 -1.062957 0.000000 0.000000
    41 1.164475 -2.543940 -0.170330 -1.491463 0.064294 0.376525
    42 0.024032 -1.129042 0.017807 -1.219761 0.000000 0.000001
    43 0.014898 -0.883989 -0.019848 -0.835964 0.000000 0.000000
    44 -0.586770 -1.264477 0.200161 -0.028392 -0.617981 -2.479617
    45 1.522835 0.058681 0.016848 0.001410 0.008985 0.845254
    46 1.117947 0.048424 -0.005766 -0.008908 -0.017396 0.495507
    47 -0.139399 -0.111698 0.014397 0.255486 0.058874 1.555472
    48 -6.260806 6.983652 -0.294122 1.580804 -0.005023 -0.912799
  time 10
    0 -0.349399 1.166145 0.203512 0.000000 0.000000 0.000000
    1 12.274271 1.457772 -14.598774 -1.680706 -1.194468 1.286363
    2 -0.071919 -8.498729 -0.104136 0.221761 0.075202 -0.254077
    3 4.238646 -4.266517 0.498798 -3.065845 0.124236 -1.536350
    4 2.319580 -1.456083 -0.000001 0.000000 0.000000 -1.570796
    5 -0.048638 -0.000001 -0.000001 0.000000 0.000000 -0.006489
    6 8.830292 -0.400003 -2.170229 0.000000 0.000000 -1.570796
    7 0.000000 -4.226691 0.000000 0.000000 0.000000 0.000000
    8 1.430789 2.565281 -2.253419 -0.000001 -0.000001 -3.633810
    9 4.989939 2.565243 -2.253418 -0.000001 -0.000001 -3.633810
    10 16.804588 2.565286 -2.253421 -0.000001 -0.000001 -3.633810
    11 0.591962 -4.172407 -0.000001 0.000000 0.000000 1.389440
    12 0.000000 0.000000 0.000000 0.000000 0.000000 0.000000
    13 1.257180 8.762585 -0.153713 -1.570562 0.002683 -1.566807
    14 -0.488518 -2.755602 -0.228260 -0.285957 0.018206 -0.220219
    15 0.039887 -1.479790 0.029854 -2.163980 0.000000 0.000001
    16 0.028786 -1.075731 -0.023109 -0.729241 0.000000 0.000000
    17 0.250027 -2.820665 -0.238396 -0.090819 0.062503 -0.167059
    18 -0.049759 -1.680544 0.100479 -2.122085 0.000000 -0.000002
    19 -0.034142 -1.148312 0.084782 -0.909626 0.000000 0.000000
    20 0.957766 -2.746780 -0.090302 0.349903 -0.123483 -0.019742
    21 -0.033420 -1.397129 -0.011257 -1.101918 0.000000 -0.000001
    22 -0.022360 -0.957436 0.018784 -0.799989 0.000000 0.000000
    23 -1.180681 -2.507217 -0.193859 0.014387 0.131222 -0.129547
    24 -0.024967 -1.123934 0.017597 -1.504420 0.000000 0.000001
    25 -0.020057 -0.890968 0.010090 -1.588318 0.000000 0.000000
    26 0.583510 -1.197277 0.185379 0.281706 -0.595144 -0.857319
    27 1.535927 0.010246 0.005009 -0.002964 -0.012979 -0.682290
    28 1.100771 0.004527 -0.010679 -0.016147 -0.001453 -1.484153
    29 0.120153 -0.050270 -0.054489 0.287569 3.110905 1.561085
    30 -5.642027 -11.118158 -10.341443 0.698655 -2.390382 1.041371
    31 0.096944 -8.450418 -0.009365 -0.688555 -0.072161 0.652928
    32 0.447953 -2.798986 -0.200443 -0.758232 0.118642 0.257028
    33 -0.032909 -1.480204 0.004940 -1.147212 0.000000 0.000002
    34 -0.027022 -1.076920 -0.020210 -0.905337 0.000000 0.000000
    35 -0.249534 -2.846964 -0.174213 0.031074 0.042960 0.113991
    36 0.043235 -1.683941 0.096012 -1.487536 0.002823 -0.000167
    37 0.031729 -1.160830 0.058838 -0.706582 0.000642 0.008372
    38 -0.963866 -2.785145 -0.085350 0.271525 0.109472 -0.027233
    39 0.028479 -1.403067 0.006271 -1.294834 0.000000 0.000000
    40 0.021413 -0.957781 0.020046 -0.844660 0.000000 0.000000
    41 1.164475 -2.543940 -0.170330 -1.232392 0.064294 0.376525
    42 0.024032 -1.129042 0.017807 -1.066103 0.000000 0.000001
    43 0.014898 -0.883989 -0.019848 -0.682341 0.000000 0.000000
    44 -0.586770 -1.264477 0.200161 0.036688 -0.608661 -2.593602
    45 1.522835 0.058681 0.016848 0.001410 0.008985 0.763121
    46 1.117947 0.048424 -0.005766 -0.006954 -0.017492 0.388928
    47 -0.139399 -0.111698 0.014397 0.255486 0.058874 1.555472
    48 -6.260806 6.983652 -0.294122 1.580804 -0.005023 -0.912799
  time 11
    0 -0.349399 1.166145 0.203512 0.000000 0.000000 0.000000
    1 12.641470 1.973413 -14.723778 1.117026 -1.988558 -1.501468
    2 -0.071919 -8.498729 -0.104136 0.221761 0.075202 -0.254077
    3 4.238646 -4.266517 0.498798 -3.065845 0.124236 -1.536350
    4 2.319580 -1.456083 -0.000001 0.000000 0.000000 -1.570796
    5 -0.103328 -0.000001 -0.000001 0.000000 0.000000 -0.012973
    6 8.830292 -0.400003 -2.170229 0.000000 0.000000 -1.570796
    7 0.000000 -3.687613 0.000000 0.000000 0.000000 0.000000
    8 1.430789 2.565281 -2.253419 -0.000001 -0.000001 -3.531129
    9 4.989939 2.565243 -2.253418 -0.000001 -0.000001 -3.531129
    10 16.804588 2.565286 -2.253421 -0.000001 -0.000001 -3.531129
    11 0.591962 -4.172407 -0.000001 0.000000 0.000000 1.389440
    12 0.000000 0.000000 0.000000 0.000000 0.000000 0.000000
    13 1.257180 8.762585 -0.153713 -1.570562 0.002683 -1.566807
    14 -0.488518 -2.755602 -0.228260 -0.285957 0.018206 -0.220219
    15 0.039887 -1.479790 0.029854 -2.163980 0.000000 0.000001
    16 0.028786 -1.075731 -0.023109 -0.729241 0.000000 0.000000
    17 0.250027 -2.820665 -0.238396 -0.090819 0.062503 -0.167059
    18 -0.049759 -1.680544 0.100479 -2.122085 0.000000 -0.000002
    19 -0.034142 -1.148312 0.084782 -0.909626 0.000000 0.000000
    20 0.957766 -2.746780 -0.090302 0.349903 -0.123483 -0.019742
    21 -0.033420 -1.397129 -0.011257 -1.101918 0.000000 -0.000001
    22 -0.022360 -0.957436 0.018784 -0.799989 0.000000 0.000000
    23 -1.180681 -2.507217 -0.193859 0.014387 0.131222 -0.129547
    24 -0.024967 -1.123934 0.017597 -1.504420 0.000000 0.000001
    25 -0.020057 -0.890968 0.010090 -1.588318 0.000000 0.000000
    26 0.583510 -1.197277 0.185379 0.281706 -0.595144 -0.857319
    27 1.535927 0.010246 0.005009 -0.002964 -0.012979 -0.682290
    28 1.100771 0.004527 -0.010679 -0.016147 -0.001453 -1.484153
    29 0.120153 -0.050270 -0.054489 0.287569 3.110905 1.561085
    30 -7.431144 -10.500952 -10.333630 0.664930 -2.315759 0.982294
    31 0.096944 -8.450418 -0.009365 -0.481705 -0.300376 0.398956
    32 0.447953 -2.798986 -0.200443 -0.336021 0.118642 0.257028
    33 -0.032909 -1.480204 0.004940 -0.853912 0.000000 0.000002
    34 -0.027022 -1.076920 -0.020210 -0.504573 0.000000 0.000000
    35 -0.249534 -2.846964 -0.174213 0.150877 0.042960 0.113991
    36 0.043235 -1.683941 0.096012 -0.887959 0.002823 -0.000167
    37 0.031729 -1.160830 0.058838 -0.383025 0.000642 0.008372
    38 -0.963866 -2.785145 -0.085350 0.313237 0.109472 -0.027233
    39 0.028479 -1.403067 0.006271 -0.684176 0.000000 0.000000
    40 0.021413 -0.957781 0.020046 -0.439223 0.000000 0.000000
    41 1.164475 -2.543940 -0.170330 -0.751203 0.064294 0.376525
    42 0.024032 -1.129042 0.017807 -0.780827 0.000000 0.000001
    43 0.014898 -0.883989 -0.019848 -0.397015 0.000000 0.000000
    44 -0.586770 -1.264477 0.200161 0.157561 -0.591353 -2.805276
    45 1.522835 0.058681 0.016848 0.001410 0.008985 0.589669
    46 1.117947 0.048424 -0.005766 -0.003323 -0.017648 0.190938
    47 -0.139399 -0.111698 0.014397 0.255486 0.058874 1.555472
    48 -6.260806 6.983652 -0.294122 1.580804 -0.005023 -0.912799
  time 12
    0 -0.349399 1.166145 0.203512 0.000000 0.000000 0.000000
    1 12.848507 2.332799 -14.696434 0.919446 -2.035134 -1.297431
    2 -0.071919 -8.498729 -0.104136 0.221761 0.075202 -0.254077
    3 4.238646 -4.266517 0.498798 -3.065845 0.124236 -1.536350
    4 2.319580 -1.456083 -0.000001 0.000000 0.000000 -1.570796
    5 0.002144 -0.000001 -0.000001 0.000000 0.000000 0.000006
    6 8.830292 -0.400003 -2.170229 0.000000 0.000000 -1.570796
    7 0.000000 0.000000 0.000000 0.000000 0.000000 0.000000
    8 1.430789 2.565281 -2.253419 -0.000001 -0.000001 -3.426627
    9 4.989939 2.565243 -2.253418 -0.000001 -0.000001 -3.426627
    10 16.804588 2.565286 -2.253421 -0.000001 -0.000001 -3.426627
    11 0.591962 -4.172407 -0.000001 0.000000 0.000000 1.389440
    12 0.000000 0.000000 0.000000 0.000000 0.000000 0.000000
    13 1.257180 8.762585 -0.153713 -1.570562 0.002683 -1.566807
    14 -0.488518 -2.755602 -0.228260 -0.285957 0.018206 -0.220219
    15 0.039887 -1.479790 0.029854 -2.163980 0.000000 0.000001
    16 0.028786 -1.075731 -0.023109 -0.729241 0.000000 0.000000
    17 0.250027 -2.820665 -0.238396 -0.090819 0.062503 -0.167059
    18 -0.049759 -1.680544 0.100479 -2.122085 0.000000 -0.000002
    19 -0.034142 -1.148312 0.084782 -0.909626 0.000000 0.000000
    20 0.957766 -2.746780 -0.090302 0.349903 -0.123483 -0.019742
    21 -0.033420 -1.397129 -0.011257 -1.101918 0.000000 -0.000001
    22 -0.022360 -0.957436 0.018784 -0.799989 0.000000 0.000000
    23 -1.180681 -2.507217 -0.193859 0.014387 0.131222 -0.129547
    24 -0.024967 -1.123934 0.017597 -1.504420 0.000000 0.000001
    25 -0.020057 -0.890968 0.010090 -1.588318 0.000000 0.000000
    26 0.583510 -1.197277 0.185379 0.281706 -0.595144 -0.857319
    27 1.535927 0.010246 0.005009 -0.002964 -0.012979 -0.682290
    28 1.100771 0.004527 -0.010679 -0.016147 -0.001453 -1.484153
    29 0.120153 -0.050270 -0.054489 0.287569 3.110905 1.561085
    30 -8.532740 -10.047813 -10.325817 0.608769 -2.354188 0.963569
    31 0.096944 -8.450418 -0.009365 -0.256742 -0.436535 0.087796
    32 0.447953 -2.798986 -0.200443 -0.108670 0.118642 0.257028
    33 -0.032909 -1.480204 0.004940 -0.695972 0.000000 0.000002
    34 -0.027022 -1.076920 -0.020210 -0.288752 0.000000 0.000000
    35 -0.249534 -2.846964 -0.174213 0.215411 0.042960 0.113991
    36 0.043235 -1.683941 0.096012 -0.565131 0.002823 -0.000167
    37 0.031729 -1.160830 0.058838 -0.208820 0.000642 0.008372
    38 -0.963866 -2.785145 -0.085350 0.335687 0.109472 -0.027233
    39 0.028479 -1.403067 0.006271 -0.355383 0.000000 0.000000
    40 0.021413 -0.957781 0.020046 -0.220893 0.000000 0.000000
    41 1.164475 -2.543940 -0.170330 -0.492132 0.064294 0.376525
    42 0.024032 -1.129042 0.017807 -0.627169 0.000000 0.000001
    43 0.014898 -0.883989 -0.019848 -0.243392 0.000000 0.000000
    44 -0.586770 -1.264477 0.200161 0.222641 -0.582034 -2.919241
    45 1.522835 0.058681 0.016848 0.001410 0.008985 0.434153
    46 1.117947 0.048424 -0.005766 -0.001370 -0.017732 0.084360
    47 -0.139399 -0.111698 0.014397 0.255486 0.058874 1.555472
    48 -6.260806 6.983652 -0.294122 1.580804 -0.005023 -0.912799
  time 13
    0 -0.349399 1.166145 0.203512 0.000000 0.000000 0.000000
    1 12.809444 2.508585 -14.399549 0.858882 -2.029637 -1.236809
    2 -0.071919 -8.498729 -0.104136 0.221761 0.075202 -0.254077
    3 4.238646 -4.266517 0.498798 -3.065845 0.124236 -1.536350
    4 2.319580 -1.456083 -0.000001 0.000000 0.000000 -1.570796
    5 0.474815 -0.000001 -0.000001 0.000000 0.000000 0.058419
    6 8.830292 -0.400003 -2.170229 0.000000 0.000000 -1.570796
    7 0.000000 0.000000 0.000000 0.000000 0.000000 0.000000
    8 1.430789 2.565281 -2.253419 -0.000001 -0.000001 -3.319536
    9 4.989939 2.565243 -2.253418 -0.000001 -0.000001 -3.319536
    10 16.804588 2.565286 -2.253421 -0.000001 -0.000001 -3.319536
    11 0.591962 -4.172407 -0.000001 0.000000 0.000000 1.389440
    12 0.000000 0.000000 0.000000 0.000000 0.000000 0.000000
    13 1.257180 8.762585 -0.153713 -1.570562 0.002683 -1.566807
    14 -0.488518 -2.755602 -0.228260 -0.285957 0.018206 -0.220219
    15 0.039887 -1.479790 0.029854 -2.163980 0.000000 0.000001
    16 0.028786 -1.075731 -0.023109 -0.729241 0.000000 0.000000
    17 0.250027 -2.820665 -0.238396 -0.090819 0.062503 -0.167059
    18 -0.049759 -1.680544 0.100479 -2.122085 0.000000 -0.000002
    19 -0.034142 -1.148312 0.084782 -0.909626 0.000000 0.000000
    20 0.957766 -2.746780 -0.090302 0.349903 -0.123483 -0.019742
    21 -0.033420 -1.397129 -0.011257 -1.101918 0.000000 -0.000001
    22 -0.022360 -0.957436 0.018784 -0.799989 0.000000 0.000000
    23 -1.180681 -2.507217 -0.193859 0.014387 0.131222 -0.129547
    24 -0.024967 -1.123934 0.017597 -1.504420 0.000000 0.000001
    25 -0.020057 -0.890968 0.010090 -1.588318 0.000000 0.000000
    26 0.583510 -1.197277 0.185379 0.281706 -0.595144 -0.857319
    27 1.535927 0.010246 0.005009 -0.002964 -0.012979 -0.682290
    28 1.100771 0.004527 -0.010679 -0.016147 -0.001453 -1.484153
    29 0.120153 -0.050270 -0.054489 0.287569 3.110905 1.561085
    30 -8.466331 -9.856401 -10.263315 0.526622 -2.599841 1.024987
    31 0.096944 -8.450418 -0.009365 -0.150487 -0.453426 -0.237928
    32 0.447953 -2.798986 -0.200443 -0.108670 0.118642 0.257028
    33 -0.032909 -1.480204 0.004940 -0.695972 0.000000 0.000002
    34 -0.027022 -1.076920 -0.020210 -0.288752 0.000000 0.000000
    35 -0.249534 -2.846964 -0.174213 0.215411 0.042960 0.113991
    36 0.043235 -1.683941 0.096012 -0.565131 0.002823 -0.000167
    37 0.031729 -1.160830 0.058838 -0.208820 0.000642 0.008372
    38 -0.963866 -2.785145 -0.085350 0.335687 0.109472 -0.027233
    39 0.028479 -1.403067 0.006271 -0.355383 0.000000 0.000000
    40 0.021413 -0.957781 0.020046 -0.220893 0.000000 0.000000
    41 1.164475 -2.543940 -0.170330 -0.492132 0.064294 0.376525
    42 0.024032 -1.129042 0.017807 -0.627169 0.000000 0.000001
    43 0.014898 -0.883989 -0.019848 -0.243392 0.000000 0.000000
    44 -0.586770 -1.264477 0.200161 0.222641 -0.582034 -2.919241
    45 1.522835 0.058681 0.016848 0.001410 0.008985 0.327656
    46 1.117947 0.048424 -0.005766 -0.001370 -0.017732 0.084360
    47 -0.139399 -0.111698 0.014397 0.255486 0.058874 1.555472
    48 -6.260806 6.983652 -0.294122 1.580804 -0.005023 -0.912799
  time 14
    0 -0.349399 1.166145 0.203512 0.000000 0.000000 0.000000
    1 12.610219 2.524211 -13.950317 0.858559 -1.990754 -1.239872
    2 -0.071919 -8.498729 -0.104136 0.221761 0.075202 -0.254077
    3 4.238646 -4.266517 0.498798 -3.065845 0.124236 -1.536350
    4 2.319580 -1.456083 -0.000001 0.000000 0.000000 -1.570796
    5 1.103740 -0.000001 -0.000001 0.000000 0.000000 0.136295
    6 8.830292 -0.400003 -2.170229 0.000000 0.000000 -1.570796
    7 0.000000 0.000000 0.000000 0.000000 0.000000 0.000000
    8 1.430789 2.565281 -2.253419 -0.000001 -0.000001 -3.208993
    9 4.989939 2.565243 -2.253418 -0.000001 -0.000001 -3.208993
    10 16.804588 2.565286 -2.253421 -0.000001 -0.000001 -3.208993
    11 0.591962 -4.172407 -0.000001 0.000000 0.000000 1.389440
    12 0.000000 0.000000 0.000000 0.000000 0.000000 0.000000
    13 1.257180 8.762585 -0.153713 -1.570562 0.002683 -1.566807
    14 -0.488518 -2.755602 -0.228260 -0.285957 0.018206 -0.220219
    15 0.039887 -1.479790 0.029854 -2.163980 0.000000 0.000001
    16 0.028786 -1.075731 -0.023109 -0.729241 0.000000 0.000000
    17 0.250027 -2.820665 -0.238396 -0.090819 0.062503 -0.167059
    18 -0.049759 -1.680544 0.100479 -2.122085 0.000000 -0.000002
    19 -0.034142 -1.148312 0.084782 -0.909626 0.000000 0.000000
    20 0.957766 -2.746780 -0.090302 0.349903 -0.123483 -0.019742
    21 -0.033420 -1.397129 -0.011257 -1.101918 0.000000 -0.000001
    22 -0.022360 -0.957436 0.018784 -0.799989 0.000000 0.000000
    23 -1.180681 -2.507217 -0.193859 0.014387 0.131222 -0.129547
    24 -0.024967 -1.123934 0.017597 -1.504420 0.000000 0.000001
    25 -0.020057 -0.890968 0.010090 -1.588318 0.000000 0.000000
    26 0.583510 -1.197277 0.185379 0.281706 -0.595144 -0.857319
    27 1.535927 0.010246 0.005009 -0.002964 -0.012979 -0.682290
    28 1.100771 0.004527 -0.010679 -0.016147 -0.001453 -1.484153
    29 0.120153 -0.050270 -0.054489 0.287569 3.110905 1.561085
    30 -7.712402 -9.836869 -10.200813 0.469396 -2.964511 1.075919
    31 0.096944 -8.450418 -0.009365 -0.104718 -0.430856 -0.550856
    32 0.447953 -2.798986 -0.200443 -0.108670 0.118642 0.257028
    33 -0.032909 -1.480204 0.004940 -0.695972 0.000000 0.000002
    34 -0.027022 -1.076920 -0.020210 -0.288752 0.000000 0.000000
    35 -0.249534 -2.846964 -0.174213 0.215411 0.042960 0.113991
    36 0.043235 -1.683941 0.096012 -0.565131 0.002823 -0.000167
    37 0.031729 -1.160830 0.058838 -0.208820 0.000642 0.008372
    38 -0.963866 -2.785145 -0.085350 0.335687 0.109472 -0.027233
    39 0.028479 -1.403067 0.006271 -0.355383 0.000000 0.000000
    40 0.021413 -0.957781 0.020046 -0.220893 0.000000 0.000000
    41 1.164475 -2.543940 -0.170330 -0.492132 0.064294 0.376525
    42 0.024032 -1.129042 0.017807 -0.627169 0.000000 0.000001
    43 0.014898 -0.883989 -0.019848 -0.243392 0.000000 0.000000
    44 -0.586770 -1.264477 0.200161 0.222641 -0.582034 -2.919241
    45 1.522835 0.058681 0.016848 0.001410 0.008985 0.239169
    46 1.117947 0.048424 -0.005766 -0.001370 -0.017732 0.084360
    47 -0.139399 -0.111698 0.014397 0.255486 0.058874 1.555472
    48 -6.260806 6.983652 -0.294122 1.580804 -0.005023 -0.912799
  time 15
    0 -0.349399 1.166145 0.203512 0.000000 0.000000 0.000000
    1 12.321147 2.309360 -13.540148 0.881301 -1.956103 -1.265508
    2 -0.071919 -8.498729 -0.104136 0.221761 0.075202 -0.254077
    3 4.238646 -4.266517 0.498798 -3.065845 0.124236 -1.536350
    4 2.319580 -1.456083 -0.000001 0.000000 0.000000 -1.570796
    5 1.416250 -0.000001 -0.000001 0.000000 0.000000 0.175233
    6 8.830292 -0.400003 -2.170229 0.000000 0.000000 -1.570796
    7 0.000000 0.000000 0.000000 0.000000 0.000000 0.000000
    8 1.430789 2.565281 -2.253419 -0.000001 -0.000001 -3.094520
    9 4.989939 2.565243 -2.253418 -0.000001 -0.000001 -3.094520
    10 16.804588 2.565286 -2.253421 -0.000001 -0.000001 -3.094520
    11 0.591962 -4.172407 -0.000001 0.000000 0.000000 1.389440
    12 0.000000 0.000000 0.000000 0.000000 0.000000 0.000000
    13 1.257180 8.762585 -0.153713 -1.570562 0.002683 -1.566807
    14 -0.488518 -2.755602 -0.228260 -0.285957 0.018206 -0.220219
    15 0.039887 -1.479790 0.029854 -2.163980 0.000000 0.000001
    16 0.028786 -1.075731 -0.023109 -0.729241 0.000000 0.000000
    17 0.250027 -2.820665 -0.238396 -0.090819 0.062503 -0.167059
    18 -0.049759 -1.680544 0.100479 -2.122085 0.000000 -0.000002
    19 -0.034142 -1.148312 0.084782 -0.909626 0.000000 0.000000
    20 0.957766 -2.746780 -0.090302 0.349903 -0.123483 -0.019742
    21 -0.033420 -1.397129 -0.011257 -1.101918 0.000000 -0.000001
    22 -0.022360 -0.957436 0.018784 -0.799989 0.000000 0.000000
    23 -1.180681 -2.507217 -0.193859 0.014387 0.131222 -0.129547
    24 -0.024967 -1.123934 0.017597 -1.504420 0.000000 0.000001
    25 -0.020057 -0.890968 0.010090 -1.588318 0.000000 0.000000
    26 0.583510 -1.197277 0.185379 0.281706 -0.595144 -0.857319
    27 1.535927 0.010246 0.005009 -0.002964 -0.012979 -0.682290
    28 1.100771 0.004527 -0.010679 -0.016147 -0.001453 -1.484153
    29 0.120153 -0.050270 -0.054489 0.287569 3.110905 1.561085
    30 -6.872533 -10.047813 -10.325817 0.460308 -3.298205 1.125073
    31 0.096944 -8.450418 -0.009365 -0.021213 -0.400335 -0.680913
    32 0.447953 -2.798986 -0.200443 -0.108670 0.118642 0.257028
    33 -0.032909 -1.480204 0.004940 -0.695972 0.000000 0.000002
    34 -0.027022 -1.076920 -0.020210 -0.288752 0.000000 0.000000
    35 -0.249534 -2.846964 -0.174213 0.215411 0.042960 0.113991
    36 0.043235 -1.683941 0.096012 -0.565131 0.002823 -0.000167
    37 0.031729 -1.160830 0.058838 -0.208820 0.000642 0.008372
    38 -0.963866 -2.785145 -0.085350 0.335687 0.109472 -0.027233
    39 0.028479 -1.403067 0.006271 -0.355383 0.000000 0.000000
    40 0.021413 -0.957781 0.020046 -0.220893 0.000000 0.000000
    41 1.164475 -2.543940 -0.170330 -0.492132 0.064294 0.376525
    42 0.024032 -1.129042 0.017807 -0.627169 0.000000 0.000001
    43 0.014898 -0.883989 -0.019848 -0.243392 0.000000 0.000000
    44 -0.586770 -1.264477 0.200161 0.222641 -0.582034 -2.919241
    45 1.522835 0.058681 0.016848 0.001410 0.008985 0.184704
    46 1.117947 0.048424 -0.005766 -0.001370 -0.017732 0.084360
    47 -0.139399 -0.111698 0.014397 0.255486 0.058874 1.555472
    48 -6.260806 6.983652 -0.294122 1.580804 -0.005023 -0.912799
  time 16
    0 -0.349399 1.166145 0.203512 0.000000 0.000000 0.000000
    1 11.938323 1.785907 -13.204201 0.908317 -1.940982 -1.293804
    2 -0.071919 -8.498729 -0.104136 0.221761 0.075202 -0.254077
    3 4.238646 -4.266517 0.498798 -3.065845 0.124236 -1.536350
    4 2.319580 -1.456083 -0.000001 0.000000 0.000000 -1.570796
    5 1.416250 -0.000001 -0.000001 0.000000 0.000000 0.175233
    6 8.830292 -0.400003 -2.170229 0.000000 0.000000 -1.570796
    7 0.000000 0.000000 0.000000 0.000000 0.000000 0.000000
    8 1.430789 2.565281 -2.253419 -0.000001 -0.000001 -2.975253
    9 4.989939 2.565243 -2.253418 -0.000001 -0.000001 -2.975253
    10 16.804588 2.565286 -2.253421 -0.000001 -0.000001 -2.975253
    11 0.591962 -4.172407 -0.000001 0.000000 0.000000 1.389440
    12 0.000000 0.000000 0.000000 0.000000 0.000000 0.000000
    13 1.257180 8.762585 -0.153713 -1.570562 0.002683 -1.566807
    14 -0.488518 -2.755602 -0.228260 -0.285957 0.018206 -0.220219
    15 0.039887 -1.479790 0.029854 -2.163980 0.000000 0.000001
    16 0.028786 -1.075731 -0.023109 -0.729241 0.000000 0.000000
    17 0.250027 -2.820665 -0.238396 -0.090819 0.062503 -0.167059
    18 -0.049759 -1.680544 0.100479 -2.122085 0.000000 -0.000002
    19 -0.034142 -1.148312 0.084782 -0.909626 0.000000 0.000000
    20 0.957766 -2.746780 -0.090302 0.349903 -0.123483 -0.019742
    21 -0.033420 -1.397129 -0.011257 -1.101918 0.000000 -0.000001
    22 -0.022360 -0.957436 0.018784 -0.799989 0.000000 0.000000
    23 -1.180681 -2.507217 -0.193859 0.014387 0.131222 -0.129547
    24 -0.024967 -1.123934 0.017597 -1.504420 0.000000 0.000001
    25 -0.020057 -0.890968 0.010090 -1.588318 0.000000 0.000000
    26 0.583510 -1.197277 0.185379 0.281706 -0.595144 -0.857319
    27 1.535927 0.010246 0.005009 -0.002964 -0.012979 -0.682290
    28 1.100771 0.004527 -0.010679 -0.016147 -0.001453 -1.484153
    29 0.120153 -0.050270 -0.054489 0.287569 3.110905 1.561085
    30 -6.181105 -10.493139 -10.716454 0.509156 -3.569450 1.213361
    31 0.096944 -8.450418 -0.009365 0.194802 -0.369073 -0.513816
    32 0.447953 -2.798986 -0.200443 -0.165241 0.118642 0.257028
    33 -0.032909 -1.480204 0.004940 -0.712296 0.000000 0.000002
    34 -0.027022 -1.076920 -0.020210 -0.298916 0.000000 0.000000
    35 -0.249534 -2.846964 -0.174213 0.156867 0.046891 0.119096
    36 0.043235 -1.683941 0.096012 -0.602385 0.002823 -0.000167
    37 0.031729 -1.160830 0.058838 -0.221506 0.000642 0.008372
    38 -0.963866 -2.785145 -0.085350 0.298667 0.112624 -0.013451
    39 0.028479 -1.403067 0.006271 -0.391465 0.000000 0.000000
    40 0.021413 -0.957781 0.020046 -0.233753 0.000000 0.000000
    41 1.164475 -2.543940 -0.170330 -0.537667 0.062880 0.380912
    42 0.024032 -1.129042 0.017807 -0.637914 0.000000 0.000001
    43 0.014898 -0.883989 -0.019848 -0.254127 0.000000 0.000000
    44 -0.586770 -1.264477 0.200161 0.232575 -0.576585 -2.938627
    45 1.522835 0.058681 0.016848 0.001410 0.008985 0.159578
    46 1.117947 0.048424 -0.005766 -0.000962 -0.018079 0.063972
    47 -0.139399 -0.111698 0.014397 0.285832 0.064650 1.547179
    48 -6.260806 6.983652 -0.294122 1.580804 -0.005023 -0.912799
  time 17
    0 -0.349399 1.166145 0.203512 0.000000 0.000000 0.000000
    1 11.477372 1.067135 -12.876065 0.951139 -1.931111 -1.337578
    2 -0.071919 -8.498729 -0.104136 0.221761 0.075202 -0.254077
    3 4.238646 -4.266517 0.498798 -3.065845 0.124236 -1.536350
    4 2.319580 -1.456083 -0.000001 0.000000 0.000000 -1.570796
    5 1.416250 -0.000001 -0.000001 0.000000 0.000000 0.175233
    6 8.830292 -0.400003 -2.170229 0.000000 0.000000 -1.570796
    7 0.000000 0.000000 0.000000 0.000000 0.000000 0.000000
    8 1.430789 2.565281 -2.253419 -0.000001 -0.000001 -2.850521
    9 4.989939 2.565243 -2.253418 -0.000001 -0.000001 -2.850521
    10 16.804588 2.565286 -2.253421 -0.000001 -0.000001 -2.850521
    11 0.591962 -4.172407 -0.000001 0.000000 0.000000 1.389440
    12 0.000000 0.000000 0.000000 0.000000 0.000000 0.000000
    13 1.257180 8.762585 -0.153713 -1.570562 0.002683 -1.566807
    14 -0.488518 -2.755602 -0.228260 -0.285957 0.018206 -0.220219
    15 0.039887 -1.479790 0.029854 -2.163980 0.000000 0.000001
    16 0.028786 -1.075731 -0.023109 -0.729241 0.000000 0.000000
    17 0.250027 -2.820665 -0.238396 -0.090819 0.062503 -0.167059
    18 -0.049759 -1.680544 0.100479 -2.122085 0.000000 -0.000002
    19 -0.034142 -1.148312 0.084782 -0.909626 0.000000 0.000000
    20 0.957766 -2.746780 -0.090302 0.349903 -0.123483 -0.019742
    21 -0.033420 -1.397129 -0.011257 -1.101918 0.000000 -0.000001
    22 -0.022360 -0.957436 0.018784 -0.799989 0.000000 0.000000
    23 -1.180681 -2.507217 -0.193859 0.014387 0.131222 -0.129547
    24 -0.024967 -1.123934 0.017597 -1.504420 0.000000 0.000001
    25 -0.020057 -0.890968 0.010090 -1.588318 0.000000 0.000000
    26 0.583510 -1.197277 0.185379 0.281706 -0.595144 -0.857319
    27 1.535927 0.010246 0.005009 -0.002964 -0.012979 -0.682290
    28 1.100771 0.004527 -0.010679 -0.016147 -0.001453 -1.484153
    29 0.120153 -0.050270 -0.054489 0.287569 3.110905 1.561085
    30 -5.450614 -11.090814 -11.243814 0.627939 -3.821232 1.365596
    31 0.096944 -8.450418 -0.009365 0.452811 -0.427300 -0.169526
    32 0.447953 -2.798986 -0.200443 -0.305376 0.118642 0.257028
    33 -0.032909 -1.480204 0.004940 -0.752802 0.000000 0.000002
    34 -0.027022 -1.076920 -0.020210 -0.324134 0.000000 0.000000
    35 -0.249534 -2.846964 -0.174213 0.011775 0.056622 0.131764
    36 0.043235 -1.683941 0.096012 -0.694653 0.002823 -0.000167
    37 0.031729 -1.160830 0.058838 -0.252962 0.000642 0.008372
    38 -0.963866 -2.785145 -0.085350 0.206888 0.120450 0.020732
    39 0.028479 -1.403067 0.006271 -0.480873 0.000000 0.000000
    40 0.021413 -0.957781 0.020046 -0.265627 0.000000 0.000000
    41 1.164475 -2.543940 -0.170330 -0.650561 0.059369 0.391806
    42 0.024032 -1.129042 0.017807 -0.664538 0.000000 0.000001
    43 0.014898 -0.883989 -0.019848 -0.280755 0.000000 0.000000
    44 -0.586770 -1.264477 0.200161 0.258202 -0.562518 -2.988639
    45 1.522835 0.058681 0.016848 0.001410 0.008985 0.145926
    46 1.117947 0.048424 -0.005766 -0.000075 -0.018930 0.019078
    47 -0.139399 -0.111698 0.014397 0.361060 0.078948 1.526601
    48 -6.260806 6.983652 -0.294122 1.580804 -0.005023 -0.912799
  time 18
    0 -0.349399 1.166145 0.203512 0.000000 0.000000 0.000000
    1 11.024233 0.344457 -12.602620 1.009365 -1.920451 -1.396588
    2 -0.071919 -8.498729 -0.104136 0.221761 0.075202 -0.254077
    3 4.238646 -4.266517 0.498798 -3.065845 0.124236 -1.536350
    4 2.319580 -1.456083 -0.000001 0.000000 0.000000 -1.570796
    5 1.416250 -0.000001 -0.000001 0.000000 0.000000 0.175233
    6 8.830292 -0.400003 -2.170229 0.000000 0.000000 -1.570796
    7 0.000000 0.000000 0.000000 0.000000 0.000000 0.000000
    8 1.430789 2.565281 -2.253419 -0.000001 -0.000001 -2.719654
    9 4.989939 2.565243 -2.253418 -0.000001 -0.000001 -2.719654
    10 16.804588 2.565286 -2.253421 -0.000001 -0.000001 -2.719654
    11 0.591962 -4.172407 -0.000001 0.000000 0.000000 1.389440
    12 0.000000 0.000000 0.000000 0.000000 0.000000 0.000000
    13 1.257180 8.762585 -0.153713 -1.570562 0.002683 -1.566807
    14 -0.488518 -2.755602 -0.228260 -0.285957 0.018206 -0.220219
    15 0.039887 -1.479790 0.029854 -2.163980 0.000000 0.000001
    16 0.028786 -1.075731 -0.023109 -0.729241 0.000000 0.000000
    17 0.250027 -2.820665 -0.238396 -0.090819 0.062503 -0.167059
    18 -0.049759 -1.680544 0.100479 -2.122085 0.000000 -0.000002
    19 -0.034142 -1.148312 0.084782 -0.909626 0.000000 0.000000
    20 0.957766 -2.746780 -0.090302 0.349903 -0.123483 -0.019742
    21 -0.033420 -1.397129 -0.011257 -1.101918 0.000000 -0.000001
    22 -0.022360 -0.957436 0.018784 -0.799989 0.000000 0.000000
    23 -1.180681 -2.507217 -0.193859 0.014387 0.131222 -0.129547
    24 -0.024967 -1.123934 0.017597 -1.504420 0.000000 0.000001
    25 -0.020057 -0.890968 0.010090 -1.588318 0.000000 0.000000
    26 0.583510 -1.197277 0.185379 0.281706 -0.595144 -0.857319
    27 1.535927 0.010246 0.005009 -0.002964 -0.012979 -0.682290
    28 1.100771 0.004527 -0.010679 -0.016147 -0.001453 -1.484153
    29 0.120153 -0.050270 -0.054489 0.287569 3.110905 1.561085
    30 -4.661528 -11.778335 -11.814144 -2.321549 -5.409943 -1.568158
    31 0.096944 -8.450418 -0.009365 0.573190 -0.590078 0.155035
    32 0.447953 -2.798986 -0.200443 -0.484853 0.118642 0.257028
    33 -0.032909 -1.480204 0.004940 -0.804673 0.000000 0.000002
    34 -0.027022 -1.076920 -0.020210 -0.356408 0.000000 0.000000
    35 -0.249534 -2.846964 -0.174213 -0.174038 0.069074 0.147991
    36 0.043235 -1.683941 0.096012 -0.812837 0.002823 -0.000167
    37 0.031729 -1.160830 0.058838 -0.293285 0.000642 0.008372
    38 -0.963866 -2.785145 -0.085350 0.089378 0.130469 0.064509
    39 0.028479 -1.403067 0.006271 -0.595418 0.000000 0.000000
    40 0.021413 -0.957781 0.020046 -0.306421 0.000000 0.000000
    41 1.164475 -2.543940 -0.170330 -0.795200 0.054862 0.405744
    42 0.024032 -1.129042 0.017807 -0.698607 0.000000 0.000001
    43 0.014898 -0.883989 -0.019848 -0.314851 0.000000 0.000000
    44 -0.586770 -1.264477 0.200161 0.293245 -0.543301 -3.057014
    45 1.522835 0.058681 0.016848 0.001410 0.008985 0.140297
    46 1.117947 0.048424 -0.005766 0.000836 -0.020009 -0.025815
    47 -0.139399 -0.111698 0.014397 0.457393 0.097249 1.500247
    48 -6.260806 6.983652 -0.294122 1.580804 -0.005023 -0.912799
  time 19
    0 -0.349399 1.166145 0.203512 0.000000 0.000000 0.000000
    1 10.660941 -0.194622 -12.434646 1.086542 -1.903240 -1.474785
    2 -0.071919 -8.498729 -0.104136 0.221761 0.075202 -0.254077
    3 4.238646 -4.266517 0.498798 -3.065845 0.124236 -1.536350
    4 2.319580 -1.456083 -0.000001 0.000000 0.000000 -1.570796
    5 1.416250 -0.000001 -0.000001 0.000000 0.000000 0.175233
    6 8.830292 -0.400003 -2.170229 0.000000 0.000000 -1.570796
    7 0.000000 0.000000 0.000000 0.000000 0.000000 0.000000
    8 1.430789 2.565281 -2.253419 -0.000001 -0.000001 -2.581883
    9 4.989939 2.565243 -2.253418 -0.000001 -0.000001 -2.581883
    10 16.804588 2.565286 -2.253421 -0.000001 -0.000001 -2.581883
    11 0.591962 -4.172407 -0.000001 0.000000 0.000000 1.389440
    12 0.000000 0.000000 0.000000 0.000000 0.000000 0.000000
    13 1.257180 8.762585 -0.153713 -1.570562 0.002683 -1.566807
    14 -0.488518 -2.755602 -0.228260 -0.285957 0.018206 -0.220219
    15 0.039887 -1.479790 0.029854 -2.163980 0.000000 0.000001
    16 0.028786 -1.075731 -0.023109 -0.729241 0.000000 0.000000
    17 0.250027 -2.820665 -0.238396 -0.090819 0.062503 -0.167059
    18 -0.049759 -1.680544 0.100479 -2.122085 0.000000 -0.000002
    19 -0.034142 -1.148312 0.084782 -0.909626 0.000000 0.000000
    20 0.957766 -2.746780 -0.090302 0.349903 -0.123483 -0.019742
    21 -0.033420 -1.397129 -0.011257 -1.101918 0.000000 -0.000001
    22 -0.022360 -0.957436 0.018784 -0.799989 0.000000 0.000000
    23 -1.180681 -2.507217 -0.193859 0.014387 0.131222 -0.129547
    24 -0.024967 -1.123934 0.017597 -1.504420 0.000000 0.000001
    25 -0.020057 -0.890968 0.010090 -1.588318 0.000000 0.000000
    26 0.583510 -1.197277 0.185379 0.281706 -0.595144 -0.857319
    27 1.535927 0.010246 0.005009 -0.002964 -0.012979 -0.682290
    28 1.100771 0.004527 -0.010679 -0.016147 -0.001453 -1.484153
    29 0.120153 -0.050270 -0.054489 0.287569 3.110905 1.561085
    30 -3.790408 -12.501013 -12.329785 -2.116642 -5.293411 -1.375289
    31 0.096944 -8.450418 -0.009365 -0.030539 -0.823085 0.495975
    32 0.447953 -2.798986 -0.200443 -0.659448 0.118642 0.257028
    33 -0.032909 -1.480204 0.004940 -0.855132 0.000000 0.000002
    34 -0.027022 -1.076920 -0.020210 -0.387808 0.000000 0.000000
    35 -0.249534 -2.846964 -0.174213 -0.354775 0.081202 0.163763
    36 0.043235 -1.683941 0.096012 -0.927782 0.002823 -0.000167
    37 0.031729 -1.160830 0.058838 -0.332476 0.000642 0.008372
    38 -0.963866 -2.785145 -0.085350 -0.024924 0.140212 0.107082
    39 0.028479 -1.403067 0.006271 -0.706815 0.000000 0.000000
    40 0.021413 -0.957781 0.020046 -0.346109 0.000000 0.000000
    41 1.164475 -2.543940 -0.170330 -0.935822 0.050488 0.419310
    42 0.024032 -1.129042 0.017807 -0.731759 0.000000 0.000001
    43 0.014898 -0.883989 -0.019848 -0.347986 0.000000 0.000000
    44 -0.586770 -1.264477 0.200161 0.331427 -0.522349 -3.131509
    45 1.522835 0.058681 0.016848 0.001410 0.008985 0.139172
    46 1.117947 0.048424 -0.005766 0.001243 -0.021039 -0.046232
    47 -0.139399 -0.111698 0.014397 0.551103 0.115058 1.474612
    48 -6.260806 6.983652 -0.294122 1.580804 -0.005023 -0.912799
  time 20
    0 -0.349399 1.166145 0.203512 0.000000 0.000000 0.000000
    1 10.395307 -0.518851 -12.387769 -1.934415 -1.264700 1.544735
    2 -0.071919 -8.498729 -0.104136 0.221761 0.075202 -0.254077
    3 4.238646 -4.266517 0.498798 -3.065845 0.124236 -1.536350
    4 2.319580 -1.456083 -0.000001 0.000000 0.000000 -1.570796
    5 1.416250 -0.000001 -0.000001 0.000000 0.000000 0.175233
    6 8.830292 -0.400003 -2.170229 0.000000 0.000000 -1.570796
    7 0.000000 0.000000 0.000000 0.000000 0.000000 0.000000
    8 1.430789 2.565281 -2.253419 -0.000001 -0.000001 -2.436538
    9 4.989939 2.565243 -2.253418 -0.000001 -0.000001 -2.436538
    10 16.804588 2.565286 -2.253421 -0.000001 -0.000001 -2.436538
    11 0.591962 -4.172407 -0.000001 0.000000 0.000000 1.389440
    12 0.000000 0.000000 0.000000 0.000000 0.000000 0.000000
    13 1.257180 8.762585 -0.153713 -1.570562 0.002683 -1.566807
    14 -0.488518 -2.755602 -0.228260 -0.285957 0.018206 -0.220219
    15 0.039887 -1.479790 0.029854 -2.163980 0.000000 0.000001
    16 0.028786 -1.075731 -0.023109 -0.729241 0.000000 0.000000
    17 0.250027 -2.820665 -0.238396 -0.090819 0.062503 -0.167059
    18 -0.049759 -1.680544 0.100479 -2.122085 0.000000 -0.000002
    19 -0.034142 -1.148312 0.084782 -0.909626 0.000000 0.000000
    20 0.957766 -2.746780 -0.090302 0.349903 -0.123483 -0.019742
    21 -0.033420 -1.397129 -0.011257 -1.101918 0.000000 -0.000001
    22 -0.022360 -0.957436 0.018784 -0.799989 0.000000 0.000000
    23 -1.180681 -2.507217 -0.193859 0.014387 0.131222 -0.129547
    24 -0.024967 -1.123934 0.017597 -1.504420 0.000000 0.000001
    25 -0.020057 -0.890968 0.010090 -1.588318 0.000000 0.000000
    26 0.583510 -1.197277 0.185379 0.281706 -0.595144 -0.857319
    27 1.535927 0.010246 0.005009 -0.002964 -0.012979 -0.682290
    28 1.100771 0.004527 -0.010679 -0.016147 -0.001453 -1.484153
    29 0.120153 -0.050270 -0.054489 0.287569 3.110905 1.561085
    30 -2.520838 -13.493231 -12.833706 -2.077947 -5.266908 -1.418731
    31 0.096944 -8.450418 -0.009365 -0.180784 -1.062906 0.598578
    32 0.447953 -2.798986 -0.200443 -0.872154 0.118642 0.257028
    33 -0.032909 -1.480204 0.004940 -0.916615 0.000000 0.000002
    34 -0.027022 -1.076920 -0.020210 -0.426054 0.000000 0.000000
    35 -0.249534 -2.846964 -0.174213 -0.575024 0.095967 0.182998
    36 0.043235 -1.683941 0.096012 -1.067804 0.002823 -0.000167
    37 0.031729 -1.160830 0.058838 -0.380242 0.000642 0.008372
    38 -0.963866 -2.785145 -0.085350 -0.164206 0.152089 0.158959
    39 0.028479 -1.403067 0.006271 -0.842550 0.000000 0.000000
    40 0.021413 -0.957781 0.020046 -0.394456 0.000000 0.000000
    41 1.164475 -2.543940 -0.170330 -1.107197 0.045143 0.435825
    42 0.024032 -1.129042 0.017807 -0.772172 0.000000 0.000001
    43 0.014898 -0.883989 -0.019848 -0.388379 0.000000 0.000000
    44 -0.586770 -1.264477 0.200161 0.366469 -0.503132 -3.199884
    45 1.522835 0.058681 0.016848 0.001410 0.008985 0.283649
    46 1.117947 0.048424 -0.005766 -0.000938 -0.022250 0.055649
    47 -0.139399 -0.111698 0.014397 0.665294 0.136762 1.443380
    48 -6.260806 6.983652 -0.294122 1.580804 -0.005023 -0.912799
  time 21
    0 -0.349399 1.166145 0.203512 0.000000 0.000000 0.000000
    1 10.172644 -0.741514 -12.422927 -1.756351 -1.291167 1.365044
    2 -0.071919 -8.498729 -0.104136 0.221761 0.075202 -0.254077
    3 4.238646 -4.266517 0.498798 -3.065845 0.124236 -1.536350
    4 2.319580 -1.456083 -0.000001 0.000000 0.000000 -1.570796
    5 1.416250 -0.000001 -0.000001 0.000000 0.000000 0.175233
    6 8.830292 -0.400003 -2.170229 0.000000 0.000000 -1.570796
    7 0.000000 0.000000 0.000000 0.000000 0.000000 0.000000
    8 1.430789 2.565281 -2.253419 -0.000001 -0.000001 -2.282853
    9 4.989939 2.565243 -2.253418 -0.000001 -0.000001 -2.282853
    10 16.804588 2.565286 -2.253421 -0.000001 -0.000001 -2.282853
    11 0.591962 -4.172407 -0.000001 0.000000 0.000000 1.389440
    12 0.000000 0.000000 0.000000 0.000000 0.000000 0.000000
    13 1.257180 8.762585 -0.153713 -1.570562 0.002683 -1.566807
    14 -0.488518 -2.755602 -0.228260 -0.285957 0.018206 -0.220219
    15 0.039887 -1.479790 0.029854 -2.163980 0.000000 0.000001
    16 0.028786 -1.075731 -0.023109 -0.729241 0.000000 0.000000
    17 0.250027 -2.820665 -0.238396 -0.090819 0.062503 -0.167059
    18 -0.049759 -1.680544 0.100479 -2.122085 0.000000 -0.000002
    19 -0.034142 -1.148312 0.084782 -0.909626 0.000000 0.000000
    20 0.957766 -2.746780 -0.090302 0.349903 -0.123483 -0.019742
    21 -0.033420 -1.397129 -0.011257 -1.101918 0.000000 -0.000001
    22 -0.022360 -0.957436 0.018784 -0.799989 0.000000 0.000000
    23 -1.180681 -2.507217 -0.193859 0.014387 0.131222 -0.129547
    24 -0.024967 -1.123934 0.017597 -1.504420 0.000000 0.000001
    25 -0.020057 -0.890968 0.010090 -1.588318 0.000000 0.000000
    26 0.583510 -1.197277 0.185379 0.281706 -0.595144 -0.857319
    27 1.535927 0.010246 0.005009 -0.002964 -0.012979 -0.682290
    28 1.100771 0.004527 -0.010679 -0.016147 -0.001453 -1.484153
    29 0.120153 -0.050270 -0.054489 0.287569 3.110905 1.561085
    30 -1.118451 -14.575295 -13.302470 0.964338 -4.114923 1.500979
    31 0.096944 -8.450418 -0.009365 -0.276203 -1.314235 0.685872
    32 0.447953 -2.798986 -0.200443 -1.102376 0.118642 0.257028
    33 -0.032909 -1.480204 0.004940 -0.983170 0.000000 0.000002
    34 -0.027022 -1.076920 -0.020210 -0.467479 0.000000 0.000000
    35 -0.249534 -2.846964 -0.174213 -0.813361 0.111955 0.203803
    36 0.043235 -1.683941 0.096012 -1.219388 0.002823 -0.000167
    37 0.031729 -1.160830 0.058838 -0.431924 0.000642 0.008372
    38 -0.963866 -2.785145 -0.085350 -0.314941 0.164937 0.215103
    39 0.028479 -1.403067 0.006271 -0.989430 0.000000 0.000000
    40 0.021413 -0.957781 0.020046 -0.446809 0.000000 0.000000
    41 1.164475 -2.543940 -0.170330 -1.292659 0.039366 0.453718
    42 0.024032 -1.129042 0.017807 -0.815886 0.000000 0.000001
    43 0.014898 -0.883989 -0.019848 -0.432100 0.000000 0.000000
    44 -0.586770 -1.264477 0.200161 0.392097 -0.489065 -3.249896
    45 1.522835 0.058681 0.016848 0.001410 0.008985 0.551943
    46 1.117947 0.048424 -0.005766 -0.005025 -0.023544 0.244822
    47 -0.139399 -0.111698 0.014397 0.788876 0.160252 1.409584
    48 -6.260806 6.983652 -0.294122 1.580804 -0.005023 -0.912799
  time 22
    0 -0.349399 1.166145 0.203512 0.000000 0.000000 0.000000
    1 9.992951 -0.897769 -12.501054 -1.545061 -1.308098 1.152058
    2 -0.071919 -8.498729 -0.104136 0.221761 0.075202 -0.254077
    3 4.238646 -4.266517 0.498798 -3.065845 0.124236 -1.536350
    4 2.319580 -1.456083 -0.000001 0.000000 0.000000 -1.570796
    5 1.416250 -0.000001 -0.000001 0.000000 0.000000 0.175233
    6 8.830292 -0.400003 -2.170229 0.000000 0.000000 -1.570796
    7 0.000000 0.000000 0.000000 0.000000 0.000000 0.000000
    8 1.430789 2.565281 -2.253419 -0.000001 -0.000001 -2.120155
    9 4.989939 2.565243 -2.253418 -0.000001 -0.000001 -2.120155
    10 16.804588 2.565286 -2.253421 -0.000001 -0.000001 -2.120155
    11 0.591962 -4.172407 -0.000001 0.000000 0.000000 1.389440
    12 0.000000 0.000000 0.000000 0.000000 0.000000 0.000000
    13 1.257180 8.762585 -0.153713 -1.570562 0.002683 -1.566807
    14 -0.488518 -2.755602 -0.228260 -0.285957 0.018206 -0.220219
    15 0.039887 -1.479790 0.029854 -2.163980 0.000000 0.000001
    16 0.028786 -1.075731 -0.023109 -0.729241 0.000000 0.000000
    17 0.250027 -2.820665 -0.238396 -0.090819 0.062503 -0.167059
    18 -0.049759 -1.680544 0.100479 -2.122085 0.000000 -0.000002
    19 -0.034142 -1.148312 0.084782 -0.909626 0.000000 0.000000
    20 0.957766 -2.746780 -0.090302 0.349903 -0.123483 -0.019742
    21 -0.033420 -1.397129 -0.011257 -1.101918 0.000000 -0.000001
    22 -0.022360 -0.957436 0.018784 -0.799989 0.000000 0.000000
    23 -1.180681 -2.507217 -0.193859 0.014387 0.131222 -0.129547
    24 -0.024967 -1.123934 0.017597 -1.504420 0.000000 0.000001
    25 -0.020057 -0.890968 0.010090 -1.588318 0.000000 0.000000
    26 0.583510 -1.197277 0.185379 0.281706 -0.595144 -0.857319
    27 1.535927 0.010246 0.005009 -0.002964 -0.012979 -0.682290
    28 1.100771 0.004527 -0.010679 -0.016147 -0.001453 -1.484153
    29 0.120153 -0.050270 -0.054489 0.287569 3.110905 1.561085
    30 -0.462181 -15.087029 -13.509508 0.908603 -4.076741 1.381138
    31 0.096944 -8.450418 -0.009365 -0.333617 -1.431726 0.746550
    32 0.447953 -2.798986 -0.200443 -1.210185 0.118642 0.257028
    33 -0.032909 -1.480204 0.004940 -1.014331 0.000000 0.000002
    34 -0.027022 -1.076920 -0.020210 -0.486864 0.000000 0.000000
    35 -0.249534 -2.846964 -0.174213 -0.924990 0.119445 0.213547
    36 0.043235 -1.683941 0.096012 -1.290377 0.002823 -0.000167
    37 0.031729 -1.160830 0.058838 -0.456131 0.000642 0.008372
    38 -0.963866 -2.785145 -0.085350 -0.385535 0.170953 0.241411
    39 0.028479 -1.403067 0.006271 -1.058247 0.000000 0.000000
    40 0.021413 -0.957781 0.020046 -0.471292 0.000000 0.000000
    41 1.164475 -2.543940 -0.170330 -1.379512 0.036670 0.462095
    42 0.024032 -1.129042 0.017807 -0.836349 0.000000 0.000001
    43 0.014898 -0.883989 -0.019848 -0.452581 0.000000 0.000000
    44 -0.586770 -1.264477 0.200161 0.402031 -0.483616 -3.269282
    45 1.522835 0.058681 0.016848 0.001410 0.008985 0.696420
    46 1.117947 0.048424 -0.005766 -0.007218 -0.024143 0.346703
    47 -0.139399 -0.111698 0.014397 0.846771 0.171241 1.393752
    48 -6.260806 6.983652 -0.294122 1.580804 -0.005023 -0.912799
  time 23
    0 -0.349399 1.166145 0.203512 0.000000 0.000000 0.000000
    1 9.844509 -1.014960 -12.586994 -1.352078 -1.313050 0.958018
    2 -0.071919 -8.498729 -0.104136 0.221761 0.075202 -0.254077
    3 4.238646 -4.266517 0.498798 -3.065845 0.124236 -1.536350
    4 2.319580 -1.456083 -0.000001 0.000000 0.000000 -1.570796
    5 1.416250 -0.000001 -0.000001 0.000000 0.000000 0.175233
    6 8.830292 -0.400003 -2.170229 0.000000 0.000000 -1.570796
    7 0.000000 0.000000 0.000000 0.000000 0.000000 0.000000
    8 1.430789 2.565281 -2.253419 -0.000001 -0.000001 -1.947678
    9 4.989939 2.565243 -2.253418 -0.000001 -0.000001 -1.947678
    10 16.804588 2.565286 -2.253421 -0.000001 -0.000001 -1.947678
    11 0.591962 -4.172407 -0.000001 0.000000 0.000000 1.389440
    12 0.000000 0.000000 0.000000 0.000000 0.000000 0.000000
    13 1.257180 8.762585 -0.153713 -1.570562 0.002683 -1.566807
    14 -0.488518 -2.755602 -0.228260 -0.285957 0.018206 -0.220219
    15 0.039887 -1.479790 0.029854 -2.163980 0.000000 0.000001
    16 0.028786 -1.075731 -0.023109 -0.729241 0.000000 0.000000
    17 0.250027 -2.820665 -0.238396 -0.090819 0.062503 -0.167059
    18 -0.049759 -1.680544 0.100479 -2.122085 0.000000 -0.000002
    19 -0.034142 -1.148312 0.084782 -0.909626 0.000000 0.000000
    20 0.957766 -2.746780 -0.090302 0.349903 -0.123483 -0.019742
    21 -0.033420 -1.397129 -0.011257 -1.101918 0.000000 -0.000001
    22 -0.022360 -0.957436 0.018784 -0.799989 0.000000 0.000000
    23 -1.180681 -2.507217 -0.193859 0.014387 0.131222 -0.129547
    24 -0.024967 -1.123934 0.017597 -1.504420 0.000000 0.000001
    25 -0.020057 -0.890968 0.010090 -1.588318 0.000000 0.000000
    26 0.583510 -1.197277 0.185379 0.281706 -0.595144 -0.857319
    27 1.535927 0.010246 0.005009 -0.002964 -0.012979 -0.682290
    28 1.100771 0.004527 -0.010679 -0.016147 -0.001453 -1.484153
    29 0.120153 -0.050270 -0.054489 0.287569 3.110905 1.561085
    30 -0.755159 -15.090936 -13.572010 0.829935 -4.095708 1.309796
    31 0.096944 -8.450418 -0.009365 -0.333617 -1.431726 0.746550
    32 0.447953 -2.798986 -0.200443 -1.210185 0.118642 0.257028
    33 -0.032909 -1.480204 0.004940 -1.014331 0.000000 0.000002
    34 -0.027022 -1.076920 -0.020210 -0.486864 0.000000 0.000000
    35 -0.249534 -2.846964 -0.174213 -0.924990 0.119445 0.213547
    36 0.043235 -1.683941 0.096012 -1.290377 0.002823 -0.000167
    37 0.031729 -1.160830 0.058838 -0.456131 0.000642 0.008372
    38 -0.963866 -2.785145 -0.085350 -0.385535 0.170953 0.241411
    39 0.028479 -1.403067 0.006271 -1.058247 0.000000 0.000000
    40 0.021413 -0.957781 0.020046 -0.471292 0.000000 0.000000
    41 1.164475 -2.543940 -0.170330 -1.379512 0.036670 0.462095
    42 0.024032 -1.129042 0.017807 -0.836349 0.000000 0.000001
    43 0.014898 -0.883989 -0.019848 -0.452581 0.000000 0.000000
    44 -0.586770 -1.264477 0.200161 0.402031 -0.483616 -3.269282
    45 1.522835 0.058681 0.016848 0.001410 0.008985 0.696420
    46 1.117947 0.048424 -0.005766 -0.007218 -0.024143 0.346703
    47 -0.139399 -0.111698 0.014397 0.846771 0.171241 1.393752
    48 -6.260806 6.983652 -0.294122 1.580804 -0.005023 -0.912799
  time 24
    0 -0.349399 1.166145 0.203512 0.000000 0.000000 0.000000
    1 9.731225 -1.112619 -12.637777 -1.233530 -1.312190 0.839111
    2 -0.071919 -8.498729 -0.104136 0.221761 0.075202 -0.254077
    3 4.238646 -4.266517 0.498798 -3.065845 0.124236 -1.536350
    4 2.319580 -1.456083 -0.000001 0.000000 0.000000 -1.570796
    5 1.416250 -0.000001 -0.000001 0.000000 0.000000 0.175233
    6 8.830292 -0.400003 -2.170229 0.000000 0.000000 -1.570796
    7 0.000000 0.000000 0.000000 0.000000 0.000000 0.000000
    8 1.430789 2.565281 -2.253419 -0.000001 -0.000001 -1.764847
    9 4.989939 2.565243 -2.253418 -0.000001 -0.000001 -1.764847
    10 16.804588 2.565286 -2.253421 -0.000001 -0.000001 -1.764847
    11 0.591962 -4.172407 -0.000001 0.000000 0.000000 1.389440
    12 0.000000 0.000000 0.000000 0.000000 0.000000 0.000000
    13 1.257180 8.762585 -0.153713 -1.570562 0.002683 -1.566807
    14 -0.488518 -2.755602 -0.228260 -0.285957 0.018206 -0.220219
    15 0.039887 -1.479790 0.029854 -2.163980 0.000000 0.000001
    16 0.028786 -1.075731 -0.023109 -0.729241 0.000000 0.000000
    17 0.250027 -2.820665 -0.238396 -0.090819 0.062503 -0.167059
    18 -0.049759 -1.680544 0.100479 -2.122085 0.000000 -0.000002
    19 -0.034142 -1.148312 0.084782 -0.909626 0.000000 0.000000
    20 0.957766 -2.746780 -0.090302 0.349903 -0.123483 -0.019742
    21 -0.033420 -1.397129 -0.011257 -1.101918 0.000000 -0.000001
    22 -0.022360 -0.957436 0.018784 -0.799989 0.000000 0.000000
    23 -1.180681 -2.507217 -0.193859 0.014387 0.131222 -0.129547
    24 -0.024967 -1.123934 0.017597 -1.504420 0.000000 0.000001
    25 -0.020057 -0.890968 0.010090 -1.588318 0.000000 0.000000
    26 0.583510 -1.197277 0.185379 0.281706 -0.595144 -0.857319
    27 1.535927 0.010246 0.005009 -0.002964 -0.012979 -0.682290
    28 1.100771 0.004527 -0.010679 -0.016147 -0.001453 -1.484153
    29 0.120153 -0.050270 -0.054489 0.287569 3.110905 1.561085
    30 -0.950477 -15.129999 -13.622793 0.780590 -4.106392 1.265230
    31 0.096944 -8.450418 -0.009365 -0.333617 -1.431726 0.746550
    32 0.447953 -2.798986 -0.200443 -1.210185 0.118642 0.257028
    33 -0.032909 -1.480204 0.004940 -1.014331 0.000000 0.000002
    34 -0.027022 -1.076920 -0.020210 -0.486864 0.000000 0.000000
    35 -0.249534 -2.846964 -0.174213 -0.924990 0.119445 0.213547
    36 0.043235 -1.683941 0.096012 -1.290377 0.002823 -0.000167
    37 0.031729 -1.160830 0.058838 -0.456131 0.000642 0.008372
    38 -0.963866 -2.785145 -0.085350 -0.385535 0.170953 0.241411
    39 0.028479 -1.403067 0.006271 -1.058247 0.000000 0.000000
    40 0.021413 -0.957781 0.020046 -0.471292 0.000000 0.000000
    41 1.164475 -2.543940 -0.170330 -1.379512 0.036670 0.462095
    42 0.024032 -1.129042 0.017807 -0.836349 0.000000 0.000001
    43 0.014898 -0.883989 -0.019848 -0.452581 0.000000 0.000000
    44 -0.586770 -1.264477 0.200161 0.402031 -0.483616 -3.269282
    45 1.522835 0.058681 0.016848 0.001410 0.008985 0.696420
    46 1.117947 0.048424 -0.005766 -0.007218 -0.024143 0.346703
    47 -0.139399 -0.111698 0.014397 0.846771 0.171241 1.393752
    48 -6.260806 6.983652 -0.294122 1.580804 -0.005023 -0.912799
  time 25
    0 -0.349399 1.166145 0.203512 0.000000 0.000000 0.000000
    1 9.680442 -1.167308 -12.649496 -1.236514 -1.314894 0.843303
    2 -0.071919 -8.498729 -0.104136 0.222984 0.075226 -0.254101
    3 4.238646 -4.266517 0.498798 -3.065845 0.124236 -1.536350
    4 2.319580 -1.456083 -0.000001 0.000000 0.000000 -1.570796
    5 1.416250 -0.000001 -0.000001 0.000000 0.000000 0.175233
    6 8.830292 -0.400003 -2.170229 0.000000 0.000000 -1.570796
    7 0.000000 0.000000 0.000000 0.000000 0.000000 0.000000
    8 1.430789 2.565281 -2.253419 -0.000001 -0.000001 -1.570798
    9 4.989939 2.565243 -2.253418 -0.000001 -0.000001 -1.570798
    10 16.804588 2.565286 -2.253421 -0.000001 -0.000001 -1.570798
    11 0.591962 -4.172407 -0.000001 0.000000 0.000000 1.389440
    12 0.000000 0.000000 0.000000 0.000000 0.000000 0.000000
    13 1.257180 8.762585 -0.153713 -1.570562 0.002683 -1.566807
    14 -0.488518 -2.755602 -0.228260 -0.285957 0.018206 -0.220219
    15 0.039887 -1.479790 0.029854 -2.163980 0.000000 0.000001
    16 0.028786 -1.075731 -0.023109 -0.729241 0.000000 0.000000
    17 0.250027 -2.820665 -0.238396 -0.090819 0.062503 -0.167059
    18 -0.049759 -1.680544 0.100479 -2.122085 0.000000 -0.000002
    19 -0.034142 -1.148312 0.084782 -0.909626 0.000000 0.000000
    20 0.957766 -2.746780 -0.090302 0.349903 -0.123483 -0.019742
    21 -0.033420 -1.397129 -0.011257 -1.101918 0.000000 -0.000001
    22 -0.022360 -0.957436 0.018784 -0.799989 0.000000 0.000000
    23 -1.180681 -2.507217 -0.193859 0.014387 0.131222 -0.129547
    24 -0.024967 -1.123934 0.017597 -1.504420 0.000000 0.000001
    25 -0.020057 -0.890968 0.010090 -1.588318 0.000000 0.000000
    26 0.583510 -1.197277 0.185379 0.281706 -0.595144 -0.857319
    27 1.535927 0.010246 0.005009 -0.002964 -0.012979 -0.682290
    28 1.100771 0.004527 -0.010679 -0.016147 -0.001453 -1.484153
    29 0.120153 -0.050270 -0.054489 0.287569 3.110905 1.561085
    30 -0.973915 -15.208127 -13.681388 0.783785 -4.108711 1.270286
    31 0.096944 -8.450418 -0.009365 -0.333617 -1.431726 0.746550
    32 0.447953 -2.798986 -0.200443 -1.210185 0.118642 0.257028
    33 -0.032909 -1.480204 0.004940 -1.014331 0.000000 0.000002
    34 -0.027022 -1.076920 -0.020210 -0.486864 0.000000 0.000000
    35 -0.249534 -2.846964 -0.174213 -0.924990 0.119445 0.213547
    36 0.043235 -1.683941 0.096012 -1.290377 0.002823 -0.000167
    37 0.031729 -1.160830 0.058838 -0.456131 0.000642 0.008372
    38 -0.963866 -2.785145 -0.085350 -0.385535 0.170953 0.241411
    39 0.028479 -1.403067 0.006271 -1.058247 0.000000 0.000000
    40 0.021413 -0.957781 0.020046 -0.471292 0.000000 0.000000
    41 1.164475 -2.543940 -0.170330 -1.379512 0.036670 0.462095
    42 0.024032 -1.129042 0.017807 -0.836349 0.000000 0.000001
    43 0.014898 -0.883989 -0.019848 -0.452581 0.000000 0.000000
    44 -0.586770 -1.264477 0.200161 0.402031 -0.483616 -3.269282
    45 1.522835 0.058681 0.016848 0.001410 0.008985 0.696420
    46 1.117947 0.048424 -0.005766 -0.007218 -0.024143 0.346703
    47 -0.139399 -0.111698 0.014397 0.846771 0.171241 1.393752
    48 -6.260806 6.983652 -0.294122 1.580804 -0.005023 -0.912799
  time 26
    0 -0.349399 1.166145 0.203512 0.000000 0.000000 0.000000
    1 9.699974 -1.163402 -12.649496 -1.340384 -1.320743 0.949553
    2 -0.071919 -8.498729 -0.104136 0.225033 0.075262 -0.254125
    3 4.238646 -4.266517 0.498798 -3.065845 0.124236 -1.536350
    4 2.319580 -1.456083 -0.000001 0.000000 0.000000 -1.570796
    5 1.416250 -0.000001 -0.000001 0.000000 0.000000 0.175233
    6 8.830292 -0.400003 -2.170229 0.000000 0.000000 -1.570796
    7 0.000000 0.000000 0.000000 0.000000 0.000000 0.000000
    8 1.430789 2.565281 -2.253419 -0.000001 -0.000001 -1.309638
    9 4.989939 2.565243 -2.253418 -0.000001 -0.000001 -1.309638
    10 16.804588 2.565286 -2.253421 -0.000001 -0.000001 -1.309638
    11 0.591962 -4.172407 -0.000001 0.000000 0.000000 1.389440
    12 0.000000 0.000000 0.000000 0.000000 0.000000 0.000000
    13 1.257180 8.762585 -0.153713 -1.570562 0.002683 -1.566807
    14 -0.488518 -2.755602 -0.228260 -0.285957 0.018206 -0.220219
    15 0.039887 -1.479790 0.029854 -2.163980 0.000000 0.000001
    16 0.028786 -1.075731 -0.023109 -0.729241 0.000000 0.000000
    17 0.250027 -2.820665 -0.238396 -0.090819 0.062503 -0.167059
    18 -0.049759 -1.680544 0.100479 -2.122085 0.000000 -0.000002
    19 -0.034142 -1.148312 0.084782 -0.909626 0.000000 0.000000
    20 0.957766 -2.746780 -0.090302 0.349903 -0.123483 -0.019742
    21 -0.033420 -1.397129 -0.011257 -1.101918 0.000000 -0.000001
    22 -0.022360 -0.957436 0.018784 -0.799989 0.000000 0.000000
    23 -1.180681 -2.507217 -0.193859 0.014387 0.131222 -0.129547
    24 -0.024967 -1.123934 0.017597 -1.504420 0.000000 0.000001
    25 -0.020057 -0.890968 0.010090 -1.588318 0.000000 0.000000
    26 0.583510 -1.197277 0.185379 0.281706 -0.595144 -0.857319
    27 1.535927 0.010246 0.005009 -0.002964 -0.012979 -0.682290
    28 1.100771 0.004527 -0.010679 -0.016147 -0.001453 -1.484153
    29 0.120153 -0.050270 -0.054489 0.287569 3.110905 1.561085
    30 -0.837192 -15.290161 -13.771235 0.829864 -4.104404 1.315881
    31 0.096944 -8.450418 -0.009365 -0.333617 -1.431726 0.746550
    32 0.447953 -2.798986 -0.200443 -1.210185 0.118642 0.257028
    33 -0.032909 -1.480204 0.004940 -1.014331 0.000000 0.000002
    34 -0.027022 -1.076920 -0.020210 -0.486864 0.000000 0.000000
    35 -0.249534 -2.846964 -0.174213 -0.924990 0.119445 0.213547
    36 0.043235 -1.683941 0.096012 -1.290377 0.002823 -0.000167
    37 0.031729 -1.160830 0.058838 -0.456131 0.000642 0.008372
    38 -0.963866 -2.785145 -0.085350 -0.385535 0.170953 0.241411
    39 0.028479 -1.403067 0.006271 -1.058247 0.000000 0.000000
    40 0.021413 -0.957781 0.020046 -0.471292 0.000000 0.000000
    41 1.164475 -2.543940 -0.170330 -1.379512 0.036670 0.462095
    42 0.024032 -1.129042 0.017807 -0.836349 0.000000 0.000001
    43 0.014898 -0.883989 -0.019848 -0.452581 0.000000 0.000000
    44 -0.586770 -1.264477 0.200161 0.402031 -0.483616 -3.269282
    45 1.522835 0.058681 0.016848 0.001410 0.008985 0.696420
    46 1.117947 0.048424 -0.005766 -0.007218 -0.024143 0.346703
    47 -0.139399 -0.111698 0.014397 0.846771 0.171241 1.393752
    48 -6.260806 6.983652 -0.294122 1.580804 -0.005023 -0.912799
  time 27
    0 -0.349399 1.166145 0.203512 0.000000 0.000000 0.000000
    1 9.742944 -1.128245 -12.641683 -1.483690 -1.323149 1.095547
    2 -0.071919 -8.498729 -0.104136 0.225441 0.075262 -0.254137
    3 4.238646 -4.266517 0.498798 -3.065845 0.124236 -1.536350
    4 2.319580 -1.456083 -0.000001 0.000000 0.000000 -1.570796
    5 1.416250 -0.000001 -0.000001 0.000000 0.000000 0.175233
    6 8.830292 -0.400003 -2.170229 0.000000 0.000000 -1.570796
    7 0.000000 0.000000 0.000000 0.000000 0.000000 0.000000
    8 1.430789 2.565281 -2.253419 -0.000001 -0.000001 -0.933621
    9 4.989939 2.565243 -2.253418 -0.000001 -0.000001 -0.933621
    10 16.804588 2.565286 -2.253421 -0.000001 -0.000001 -0.933621
    11 0.591962 -4.172407 -0.000001 0.000000 0.000000 1.389440
    12 0.000000 0.000000 0.000000 0.000000 0.000000 0.000000
    13 1.257180 8.762585 -0.153713 -1.570562 0.002683 -1.566807
    14 -0.488518 -2.755602 -0.228260 -0.285957 0.018206 -0.220219
    15 0.039887 -1.479790 0.029854 -2.163980 0.000000 0.000001
    16 0.028786 -1.075731 -0.023109 -0.729241 0.000000 0.000000
    17 0.250027 -2.820665 -0.238396 -0.090819 0.062503 -0.167059
    18 -0.049759 -1.680544 0.100479 -2.122085 0.000000 -0.000002
    19 -0.034142 -1.148312 0.084782 -0.909626 0.000000 0.000000
    20 0.957766 -2.746780 -0.090302 0.349903 -0.123483 -0.019742
    21 -0.033420 -1.397129 -0.011257 -1.101918 0.000000 -0.000001
    22 -0.022360 -0.957436 0.018784 -0.799989 0.000000 0.000000
    23 -1.180681 -2.507217 -0.193859 0.014387 0.131222 -0.129547
    24 -0.024967 -1.123934 0.017597 -1.504420 0.000000 0.000001
    25 -0.020057 -0.890968 0.010090 -1.588318 0.000000 0.000000
    26 0.583510 -1.197277 0.185379 0.281706 -0.595144 -0.857319
    27 1.535927 0.010246 0.005009 -0.002964 -0.012979 -0.682290
    28 1.100771 0.004527 -0.010679 -0.016147 -0.001453 -1.484153
    29 0.120153 -0.050270 -0.054489 0.287569 3.110905 1.561085
    30 -0.649687 -15.352662 -13.861081 0.889433 -4.095542 1.372150
    31 0.096944 -8.450418 -0.009365 -0.333617 -1.431726 0.746550
    32 0.447953 -2.798986 -0.200443 -1.210185 0.118642 0.257028
    33 -0.032909 -1.480204 0.004940 -1.014331 0.000000 0.000002
    34 -0.027022 -1.076920 -0.020210 -0.486864 0.000000 0.000000
    35 -0.249534 -2.846964 -0.174213 -0.924990 0.119445 0.213547
    36 0.043235 -1.683941 0.096012 -1.290377 0.002823 -0.000167
    37 0.031729 -1.160830 0.058838 -0.456131 0.000642 0.008372
    38 -0.963866 -2.785145 -0.085350 -0.385535 0.170953 0.241411
    39 0.028479 -1.403067 0.006271 -1.058247 0.000000 0.000000
    40 0.021413 -0.957781 0.020046 -0.471292 0.000000 0.000000
    41 1.164475 -2.543940 -0.170330 -1.379512 0.036670 0.462095
    42 0.024032 -1.129042 0.017807 -0.836349 0.000000 0.000001
    43 0.014898 -0.883989 -0.019848 -0.452581 0.000000 0.000000
    44 -0.586770 -1.264477 0.200161 0.402031 -0.483616 -3.269282
    45 1.522835 0.058681 0.016848 0.001410 0.008985 0.696420
    46 1.117947 0.048424 -0.005766 -0.007218 -0.024143 0.346703
    47 -0.139399 -0.111698 0.014397 0.846771 0.171241 1.393752
    48 -6.260806 6.983652 -0.294122 1.580804 -0.005023 -0.912799
  time 28
    0 -0.349399 1.166145 0.203512 0.000000 0.000000 0.000000
    1 9.782007 -1.112619 -12.637777 -1.595706 -1.321656 1.209859
    2 -0.071919 -8.498729 -0.104136 0.221761 0.075202 -0.254077
    3 4.238646 -4.266517 0.498798 -3.065845 0.124236 -1.536350
    4 2.319580 -1.456083 -0.000001 0.000000 0.000000 -1.570796
    5 1.416250 -0.000001 -0.000001 0.000000 0.000000 0.175233
    6 8.830292 -0.400003 -2.170229 0.000000 0.000000 -1.570796
    7 0.000000 0.000000 0.000000 0.000000 0.000000 0.000000
    8 1.430789 2.565281 -2.253419 -0.000001 -0.000001 -0.454540
    9 4.989939 2.565243 -2.253418 -0.000001 -0.000001 -0.454540
    10 16.804588 2.565286 -2.253421 -0.000001 -0.000001 -0.454540
    11 0.591962 -4.172407 -0.000001 0.000000 0.000000 1.389440
    12 0.000000 0.000000 0.000000 0.000000 0.000000 0.000000
    13 1.257180 8.762585 -0.153713 -1.570562 0.002683 -1.566807
    14 -0.488518 -2.755602 -0.228260 -0.285957 0.018206 -0.220219
    15 0.039887 -1.479790 0.029854 -2.163980 0.000000 0.000001
    16 0.028786 -1.075731 -0.023109 -0.729241 0.000000 0.000000
    17 0.250027 -2.820665 -0.238396 -0.090819 0.062503 -0.167059
    18 -0.049759 -1.680544 0.100479 -2.122085 0.000000 -0.000002
    19 -0.034142 -1.148312 0.084782 -0.909626 0.000000 0.000000
    20 0.957766 -2.746780 -0.090302 0.349903 -0.123483 -0.019742
    21 -0.033420 -1.397129 -0.011257 -1.101918 0.000000 -0.000001
    22 -0.022360 -0.957436 0.018784 -0.799989 0.000000 0.000000
    23 -1.180681 -2.507217 -0.193859 0.014387 0.131222 -0.129547
    24 -0.024967 -1.123934 0.017597 -1.504420 0.000000 0.000001
    25 -0.020057 -0.890968 0.010090 -1.588318 0.000000 0.000000
    26 0.583510 -1.197277 0.185379 0.281706 -0.595144 -0.857319
    27 1.535927 0.010246 0.005009 -0.002964 -0.012979 -0.682290
    28 1.100771 0.004527 -0.010679 -0.016147 -0.001453 -1.484153
    29 0.120153 -0.050270 -0.054489 0.287569 3.110905 1.561085
    30 -0.524683 -15.383913 -13.931396 0.934731 -4.087260 1.411098
    31 0.096944 -8.450418 -0.009365 -0.333617 -1.431726 0.746550
    32 0.447953 -2.798986 -0.200443 -1.210185 0.118642 0.257028
    33 -0.032909 -1.480204 0.004940 -1.014331 0.000000 0.000002
    34 -0.027022 -1.076920 -0.020210 -0.486864 0.000000 0.000000
    35 -0.249534 -2.846964 -0.174213 -0.924990 0.119445 0.213547
    36 0.043235 -1.683941 0.096012 -1.290377 0.002823 -0.000167
    37 0.031729 -1.160830 0.058838 -0.456131 0.000642 0.008372
    38 -0.963866 -2.785145 -0.085350 -0.385535 0.170953 0.241411
    39 0.028479 -1.403067 0.006271 -1.058247 0.000000 0.000000
    40 0.021413 -0.957781 0.020046 -0.471292 0.000000 0.000000
    41 1.164475 -2.543940 -0.170330 -1.379512 0.036670 0.462095
    42 0.024032 -1.129042 0.017807 -0.836349 0.000000 0.000001
    43 0.014898 -0.883989 -0.019848 -0.452581 0.000000 0.000000
    44 -0.586770 -1.264477 0.200161 0.402031 -0.483616 -3.269282
    45 1.522835 0.058681 0.016848 0.001410 0.008985 0.696420
    46 1.117947 0.048424 -0.005766 -0.007218 -0.024143 0.346703
    47 -0.139399 -0.111698 0.014397 0.846771 0.171241 1.393752
    48 -6.260806 6.983652 -0.294122 1.580804 -0.005023 -0.912799
end
