version 1
nodes
  0 "root" -1
  1 "Bone01" 0
  2 "Bone_Lefthand" 1
  3 "Bone02" 2
  4 "Dummy02" 3
  5 "Bone24" 4
  6 "Bone03" 3
  7 "Bone04" 0
  8 "Bone_Righthand" 7
  9 "Bone08" 8
  10 "Bone20" 9
  11 "Dummy01" 9
  12 "Bone16" 11
  13 "Bone_L_Upper" 1
  14 "Bone13" 2
  15 "Bone14" 14
  16 "Bone15" 15
  17 "Bone17" 2
  18 "Bone18" 17
  19 "Bone19" 18
  20 "Bone21" 2
  21 "Bone22" 20
  22 "Bone23" 21
  23 "Bone09" 2
  24 "Bone10" 23
  25 "Bone11" 24
  26 "Bone05" 2
  27 "Bone06" 26
  28 "Bone07" 27
  29 "Bone_Se_Hand-L" 2
  30 "Bone39" 8
  31 "Bone40" 30
  32 "Bone41" 31
  33 "Bone35" 8
  34 "Bone36" 33
  35 "Bone37" 34
  36 "Bone31" 8
  37 "Bone32" 36
  38 "Bone33" 37
  39 "Bone43" 8
  40 "Bone44" 39
  41 "Bone45" 40
  42 "Bone27" 8
  43 "Bone28" 42
  44 "Bone29" 43
  45 "Bone_Se_Hand-R" 8
  46 "Bone_R_Upper" 7
end
skeleton
  time 0
    0 -0.349714 1.166272 0.203512 0.000000 0.000000 0.000000
    1 8.768578 -1.116032 -9.130368 -1.571119 -1.330246 1.223349
    2 -0.071918 -8.498730 -0.104136 0.222220 0.088834 -0.234789
    3 2.834877 -3.284037 0.535784 -3.053061 0.124698 -1.545787
    4 -0.937847 3.087766 -0.006773 0.000000 0.000000 1.745329
    5 0.000000 0.000000 -0.000001 0.000000 0.000000 0.000000
    6 13.847217 -0.119233 0.129653 0.013190 0.190174 -1.575995
    7 -9.004620 -1.831733 -9.655644 0.725837 1.914365 1.023759
    8 0.096945 -8.450418 -0.009363 0.104241 -0.315053 0.074582
    9 -3.032145 -3.163785 0.704166 -0.073896 0.213120 -1.439451
    10 13.929801 0.012792 0.018556 0.017134 -0.145892 -1.609947
    11 -0.937847 3.087766 -0.010345 0.000000 0.000000 1.745330
    12 0.000000 0.000000 -0.000005 0.000000 0.000000 0.000000
    13 1.257180 8.762585 -0.153713 -1.570562 0.002683 -1.566807
    14 -0.488518 -2.755602 -0.228260 0.106454 0.010332 -0.264490
    15 0.039887 -1.479790 0.029854 -0.055395 0.000000 0.000001
    16 0.028786 -1.075731 -0.023109 0.002099 0.000000 0.000000
    17 0.250027 -2.820665 -0.238396 0.041826 -0.002921 0.008443
    18 -0.049759 -1.680544 0.100479 0.019826 0.000000 -0.000002
    19 -0.034142 -1.148312 0.084782 -0.040115 0.000000 0.000000
    20 0.957766 -2.746780 -0.090302 -0.017221 -0.162277 0.191558
    21 -0.033420 -1.397129 -0.011257 0.013931 0.000000 -0.000001
    22 -0.022360 -0.957436 0.018784 0.003845 0.000000 0.000000
    23 -1.180681 -2.507217 -0.193859 0.082999 0.013294 -0.477915
    24 -0.024967 -1.123934 0.017597 -0.018065 0.000000 0.000001
    25 -0.020057 -0.890968 0.010090 -0.060797 0.000000 0.000000
    26 0.583510 -1.197277 0.185379 0.158049 -0.404973 -0.364290
    27 1.535927 0.010246 0.005009 -0.002964 -0.012979 0.000887
    28 1.100771 0.004527 -0.010679 -0.002796 0.015973 0.003458
    29 0.120153 -0.050270 -0.054489 0.287569 3.110905 1.561085
    30 0.447953 -2.798986 -0.200443 0.106456 -0.010396 0.265094
    31 -0.032909 -1.480204 0.004940 -0.055403 0.000000 0.000002
    32 -0.027022 -1.076920 -0.020210 0.002094 0.000000 0.000000
    33 -0.249534 -2.846964 -0.174213 0.041903 -0.000125 -0.008396
    34 0.043235 -1.683941 0.096012 0.019757 0.002823 -0.000167
    35 0.031729 -1.160830 0.058838 -0.040181 0.000642 0.008372
    36 -0.963866 -2.785145 -0.085350 -0.017227 0.162276 -0.191556
    37 0.028479 -1.403067 0.006271 0.013941 0.000000 0.000000
    38 0.021413 -0.957781 0.020046 0.003851 0.000000 0.000000
    39 1.164475 -2.543940 -0.170330 0.083003 -0.013294 0.477915
    40 0.024032 -1.129042 0.017807 -0.018074 0.000000 0.000001
    41 0.014898 -0.883989 -0.019848 -0.060801 0.000000 0.000000
    42 -0.586770 -1.264477 0.200161 -0.152092 -0.410513 -2.814816
    43 1.522835 0.058681 0.016848 0.001410 0.008985 -0.046880
    44 1.117947 0.048424 -0.005766 -0.000243 -0.025198 0.065422
    45 -0.139399 -0.111698 0.014397 0.285382 -0.030687 1.580508
    46 -1.393470 8.839177 -0.239433 1.580804 -0.005023 -1.566847
end
triangles
mask_01.bmp
  3 2.916128 -12.152453 -4.147009 -0.992627 0.121199 0.001760 0.492063 0.476190
  3 3.036127 -11.712454 -3.897009 -0.969149 0.237147 0.067166 0.888889 0.698413
  3 3.046127 -11.642453 -4.147009 -0.967204 0.254000 -0.000218 0.952381 0.476190
mask_01.bmp
  3 2.916128 -12.152453 -4.147009 -0.992627 0.121199 0.001760 0.492063 0.476190
  3 3.016127 -11.902454 -3.707009 -0.974977 0.188732 0.117471 0.730159 0.857143
  3 3.036127 -11.712454 -3.897009 -0.969149 0.237147 0.067166 0.888889 0.698413
mask_01.bmp
  3 2.916128 -12.152453 -4.147009 -0.992627 0.121199 0.001760 0.492063 0.476190
  3 2.986127 -12.152454 -3.637009 -0.983184 0.121277 0.136534 0.507937 0.920635
  3 3.016127 -11.902454 -3.707009 -0.974977 0.188732 0.117471 0.730159 0.857143
mask_01.bmp
  3 2.916128 -12.152453 -4.147009 -0.992627 0.121199 0.001760 0.492063 0.476190
  3 2.946127 -12.412454 -3.707009 -0.991525 0.053233 0.118508 0.285714 0.873016
  3 2.986127 -12.152454 -3.637009 -0.983184 0.121277 0.136534 0.507937 0.920635
mask_01.bmp
  3 2.916128 -12.152453 -4.147009 -0.992627 0.121199 0.001760 0.492063 0.476190
  3 2.926128 -12.602454 -3.897009 -0.997666 0.003663 0.068190 0.111111 0.698413
  3 2.946127 -12.412454 -3.707009 -0.991525 0.053233 0.118508 0.285714 0.873016
mask_01.bmp
  3 2.916128 -12.152453 -4.147009 -0.992627 0.121199 0.001760 0.492063 0.476190
  3 2.916128 -12.662453 -4.147009 -0.999906 -0.013720 -0.000225 0.047619 0.476190
  3 2.926128 -12.602454 -3.897009 -0.997666 0.003663 0.068190 0.111111 0.698413
mask_01.bmp
  3 2.916128 -12.152453 -4.147009 -0.992627 0.121199 0.001760 0.492063 0.476190
  3 2.926128 -12.602453 -4.397009 -0.997693 0.005337 -0.067681 0.111111 0.253968
  3 2.916128 -12.662453 -4.147009 -0.999906 -0.013720 -0.000225 0.047619 0.476190
mask_01.bmp
  3 2.916128 -12.152453 -4.147009 -0.992627 0.121199 0.001760 0.492063 0.476190
  3 2.946128 -12.412453 -4.587009 -0.991719 0.054914 -0.116097 0.269841 0.095238
  3 2.926128 -12.602453 -4.397009 -0.997693 0.005337 -0.067681 0.111111 0.253968
mask_01.bmp
  3 2.916128 -12.152453 -4.147009 -0.992627 0.121199 0.001760 0.492063 0.476190
  3 2.986128 -12.152453 -4.657009 -0.983635 0.121325 -0.133202 0.492063 0.031746
  3 2.946128 -12.412453 -4.587009 -0.991719 0.054914 -0.116097 0.269841 0.095238
mask_01.bmp
  3 2.916128 -12.152453 -4.147009 -0.992627 0.121199 0.001760 0.492063 0.476190
  3 3.016128 -11.902453 -4.587009 -0.975561 0.187164 -0.115106 0.730159 0.079365
  3 2.986128 -12.152453 -4.657009 -0.983635 0.121325 -0.133202 0.492063 0.031746
mask_01.bmp
  3 2.916128 -12.152453 -4.147009 -0.992627 0.121199 0.001760 0.492063 0.476190
  3 3.036127 -11.712453 -4.397009 -0.969567 0.235573 -0.066675 0.888889 0.253968
  3 3.016128 -11.902453 -4.587009 -0.975561 0.187164 -0.115106 0.730159 0.079365
mask_01.bmp
  3 2.916128 -12.152453 -4.147009 -0.992627 0.121199 0.001760 0.492063 0.476190
  3 3.046127 -11.642453 -4.147009 -0.967204 0.254000 -0.000218 0.952381 0.476190
  3 3.036127 -11.712453 -4.397009 -0.969567 0.235573 -0.066675 0.888889 0.253968
mask_01.bmp
  9 -3.637396 -12.152453 -4.147002 0.992627 0.121198 0.001760 0.492063 0.476190
  9 -3.767395 -11.642453 -4.147002 0.967204 0.254000 -0.000218 0.952381 0.476190
  9 -3.757395 -11.712453 -3.897002 0.969149 0.237147 0.067166 0.888889 0.698413
mask_01.bmp
  9 -3.637396 -12.152453 -4.147002 0.992627 0.121198 0.001760 0.492063 0.476190
  9 -3.757395 -11.712453 -4.397002 0.969567 0.235573 -0.066675 0.888889 0.253968
  9 -3.767395 -11.642453 -4.147002 0.967204 0.254000 -0.000218 0.952381 0.476190
mask_01.bmp
  9 -3.637396 -12.152453 -4.147002 0.992627 0.121198 0.001760 0.492063 0.476190
  9 -3.737395 -11.902454 -4.587002 0.975561 0.187164 -0.115107 0.730159 0.079365
  9 -3.757395 -11.712453 -4.397002 0.969567 0.235573 -0.066675 0.888889 0.253968
mask_01.bmp
  9 -3.637396 -12.152453 -4.147002 0.992627 0.121198 0.001760 0.492063 0.476190
  9 -3.707396 -12.152454 -4.657002 0.983635 0.121325 -0.133203 0.492063 0.031746
  9 -3.737395 -11.902454 -4.587002 0.975561 0.187164 -0.115107 0.730159 0.079365
mask_01.bmp
  9 -3.637396 -12.152453 -4.147002 0.992627 0.121198 0.001760 0.492063 0.476190
  9 -3.667396 -12.412454 -4.587001 0.991719 0.054914 -0.116098 0.269841 0.095238
  9 -3.707396 -12.152454 -4.657002 0.983635 0.121325 -0.133203 0.492063 0.031746
mask_01.bmp
  9 -3.637396 -12.152453 -4.147002 0.992627 0.121198 0.001760 0.492063 0.476190
  9 -3.647396 -12.602454 -4.397001 0.997693 0.005337 -0.067681 0.111111 0.253968
  9 -3.667396 -12.412454 -4.587001 0.991719 0.054914 -0.116098 0.269841 0.095238
mask_01.bmp
  9 -3.637396 -12.152453 -4.147002 0.992627 0.121198 0.001760 0.492063 0.476190
  9 -3.637396 -12.662453 -4.147001 0.999906 -0.013721 -0.000225 0.047619 0.476190
  9 -3.647396 -12.602454 -4.397001 0.997693 0.005337 -0.067681 0.111111 0.253968
mask_01.bmp
  9 -3.637396 -12.152453 -4.147002 0.992627 0.121198 0.001760 0.492063 0.476190
  9 -3.647396 -12.602453 -3.897001 0.997666 0.003661 0.068190 0.111111 0.698413
  9 -3.637396 -12.662453 -4.147001 0.999906 -0.013721 -0.000225 0.047619 0.476190
mask_01.bmp
  9 -3.637396 -12.152453 -4.147002 0.992627 0.121198 0.001760 0.492063 0.476190
  9 -3.667396 -12.412453 -3.707001 0.991525 0.053232 0.118508 0.285714 0.873016
  9 -3.647396 -12.602453 -3.897001 0.997666 0.003661 0.068190 0.111111 0.698413
mask_01.bmp
  9 -3.637396 -12.152453 -4.147002 0.992627 0.121198 0.001760 0.492063 0.476190
  9 -3.707396 -12.152453 -3.637002 0.983184 0.121277 0.136534 0.507937 0.920635
  9 -3.667396 -12.412453 -3.707001 0.991525 0.053232 0.118508 0.285714 0.873016
mask_01.bmp
  9 -3.637396 -12.152453 -4.147002 0.992627 0.121198 0.001760 0.492063 0.476190
  9 -3.737395 -11.902453 -3.707002 0.974977 0.188732 0.117471 0.730159 0.857143
  9 -3.707396 -12.152453 -3.637002 0.983184 0.121277 0.136534 0.507937 0.920635
mask_01.bmp
  9 -3.637396 -12.152453 -4.147002 0.992627 0.121198 0.001760 0.492063 0.476190
  9 -3.757395 -11.712453 -3.897002 0.969149 0.237147 0.067166 0.888889 0.698413
  9 -3.737395 -11.902453 -3.707002 0.974977 0.188732 0.117471 0.730159 0.857143
mask_01.bmp
  3 7.006127 -11.672453 -4.427008 0.992496 0.122281 -0.000001 0.920635 0.222222
  3 6.996127 -11.592453 -4.147008 0.992496 0.122281 -0.000001 0.984127 0.476190
  3 7.036128 -11.872453 -4.637008 0.992496 0.122281 -0.000001 0.746032 0.047619
mask_01.bmp
  3 7.036128 -11.872453 -4.637008 0.992496 0.122281 -0.000001 0.746032 0.047619
  3 6.996127 -11.592453 -4.147008 0.992496 0.122281 -0.000001 0.984127 0.476190
  3 7.106128 -12.432452 -4.637008 0.992496 0.122281 -0.000001 0.253968 0.047619
mask_01.bmp
  3 6.996127 -11.592453 -4.147008 0.992496 0.122281 -0.000001 0.984127 0.476190
  3 7.106127 -12.432453 -3.667008 0.992496 0.122281 -0.000001 0.253968 0.904762
  3 7.106128 -12.432452 -4.637008 0.992496 0.122281 -0.000001 0.253968 0.047619
mask_01.bmp
  3 7.106128 -12.432452 -4.637008 0.992496 0.122281 -0.000001 0.253968 0.047619
  3 7.106127 -12.432453 -3.667008 0.992496 0.122281 -0.000001 0.253968 0.904762
  3 7.136128 -12.712453 -4.147008 0.992496 0.122281 -0.000001 0.015873 0.476190
mask_01.bmp
  3 7.106127 -12.432453 -3.667008 0.992496 0.122281 -0.000001 0.253968 0.904762
  3 7.126128 -12.642453 -3.867008 0.992496 0.122281 -0.000001 0.079365 0.714286
  3 7.136128 -12.712453 -4.147008 0.992496 0.122281 -0.000001 0.015873 0.476190
mask_01.bmp
  9 -7.847396 -12.642449 -3.867001 -0.992495 0.122283 0.000001 0.079365 0.714286
  9 -7.827396 -12.432448 -3.667002 -0.992495 0.122283 0.000001 0.253968 0.904762
  9 -7.857396 -12.712449 -4.147001 -0.992495 0.122283 0.000001 0.015873 0.476190
mask_01.bmp
  9 -7.857396 -12.712449 -4.147001 -0.992495 0.122283 0.000001 0.015873 0.476190
  9 -7.827396 -12.432448 -3.667002 -0.992495 0.122283 0.000001 0.253968 0.904762
  9 -7.827396 -12.432449 -4.637002 -0.992495 0.122283 0.000001 0.253968 0.047619
mask_01.bmp
  9 -7.827396 -12.432448 -3.667002 -0.992495 0.122283 0.000001 0.253968 0.904762
  9 -7.717395 -11.592449 -4.147003 -0.992495 0.122283 0.000001 0.984127 0.476190
  9 -7.827396 -12.432449 -4.637002 -0.992495 0.122283 0.000001 0.253968 0.047619
mask_01.bmp
  9 -7.827396 -12.432449 -4.637002 -0.992495 0.122283 0.000001 0.253968 0.047619
  9 -7.717395 -11.592449 -4.147003 -0.992495 0.122283 0.000001 0.984127 0.476190
  9 -7.757395 -11.872450 -4.637002 -0.992495 0.122283 0.000001 0.746032 0.047619
mask_01.bmp
  9 -7.717395 -11.592449 -4.147003 -0.992495 0.122283 0.000001 0.984127 0.476190
  9 -7.727395 -11.672449 -4.427002 -0.992495 0.122283 0.000001 0.920635 0.222222
  9 -7.757395 -11.872450 -4.637002 -0.992495 0.122283 0.000001 0.746032 0.047619
mask_01.bmp
  3 7.006127 -11.672453 -3.867008 0.992496 0.122281 -0.000001 0.920635 0.714286
  3 7.036127 -11.872453 -3.667008 0.992496 0.122281 -0.000001 0.746032 0.904762
  3 6.996127 -11.592453 -4.147008 0.992496 0.122281 -0.000001 0.984127 0.476190
mask_01.bmp
  3 6.996127 -11.592453 -4.147008 0.992496 0.122281 -0.000001 0.984127 0.476190
  3 7.036127 -11.872453 -3.667008 0.992496 0.122281 -0.000001 0.746032 0.904762
  3 7.106127 -12.432453 -3.667008 0.992496 0.122281 -0.000001 0.253968 0.904762
mask_01.bmp
  3 7.036127 -11.872453 -3.667008 0.992496 0.122281 -0.000001 0.746032 0.904762
  3 7.066127 -12.152453 -3.587008 0.992496 0.122281 -0.000001 0.507937 0.968254
  3 7.106127 -12.432453 -3.667008 0.992496 0.122281 -0.000001 0.253968 0.904762
mask_01.bmp
  9 -7.787396 -12.152448 -3.587002 -0.992495 0.122283 0.000001 0.507937 0.968254
  9 -7.757395 -11.872449 -3.667002 -0.992495 0.122283 0.000001 0.746032 0.904762
  9 -7.827396 -12.432448 -3.667002 -0.992495 0.122283 0.000001 0.253968 0.904762
mask_01.bmp
  9 -7.827396 -12.432448 -3.667002 -0.992495 0.122283 0.000001 0.253968 0.904762
  9 -7.757395 -11.872449 -3.667002 -0.992495 0.122283 0.000001 0.746032 0.904762
  9 -7.717395 -11.592449 -4.147003 -0.992495 0.122283 0.000001 0.984127 0.476190
mask_01.bmp
  9 -7.757395 -11.872449 -3.667002 -0.992495 0.122283 0.000001 0.746032 0.904762
  9 -7.727395 -11.672449 -3.867002 -0.992495 0.122283 0.000001 0.920635 0.714286
  9 -7.717395 -11.592449 -4.147003 -0.992495 0.122283 0.000001 0.984127 0.476190
mask_01.bmp
  3 7.066128 -12.152452 -4.707008 0.992496 0.122281 -0.000001 0.507937 0.000000
  3 7.036128 -11.872453 -4.637008 0.992496 0.122281 -0.000001 0.746032 0.047619
  3 7.106128 -12.432452 -4.637008 0.992496 0.122281 -0.000001 0.253968 0.047619
mask_01.bmp
  3 7.126128 -12.642453 -4.427008 0.992496 0.122281 -0.000001 0.079365 0.222222
  3 7.106128 -12.432452 -4.637008 0.992496 0.122281 -0.000001 0.253968 0.047619
  3 7.136128 -12.712453 -4.147008 0.992496 0.122281 -0.000001 0.015873 0.476190
mask_01.bmp
  9 -7.847396 -12.642449 -4.427001 -0.992495 0.122283 0.000001 0.079365 0.222222
  9 -7.857396 -12.712449 -4.147001 -0.992495 0.122283 0.000001 0.015873 0.476190
  9 -7.827396 -12.432449 -4.637002 -0.992495 0.122283 0.000001 0.253968 0.047619
mask_01.bmp
  9 -7.787396 -12.152450 -4.707002 -0.992495 0.122283 0.000001 0.507937 0.000000
  9 -7.827396 -12.432449 -4.637002 -0.992495 0.122283 0.000001 0.253968 0.047619
  9 -7.757395 -11.872450 -4.637002 -0.992495 0.122283 0.000001 0.746032 0.047619
light_1.bmp
  9 -3.107397 -13.162453 -2.967001 0.954190 0.299200 0.000000 0.000000 1.000000
  9 -3.107397 -13.162455 -5.257000 0.954190 0.299200 0.000000 0.000000 0.000000
  9 -3.797395 -10.962452 -2.967003 0.954190 0.299200 0.000000 1.000000 1.000000
light_1.bmp
  9 -3.797395 -10.962452 -2.967003 0.954190 0.299200 0.000000 1.000000 1.000000
  9 -3.107397 -13.162455 -5.257000 0.954190 0.299200 0.000000 0.000000 0.000000
  9 -3.797394 -10.962454 -5.257003 0.954190 0.299200 0.000000 1.000000 0.000000
light_1.bmp
  3 2.386128 -13.162454 -2.967010 -0.954190 0.299200 0.000000 0.000000 1.000000
  3 3.076127 -10.962454 -2.967008 -0.954190 0.299200 0.000000 1.000000 1.000000
  3 2.386128 -13.162453 -5.257010 -0.954190 0.299200 0.000000 0.000000 0.000000
light_1.bmp
  3 2.386128 -13.162453 -5.257010 -0.954190 0.299200 0.000000 0.000000 0.000000
  3 3.076127 -10.962454 -2.967008 -0.954190 0.299200 0.000000 1.000000 1.000000
  3 3.076128 -10.962453 -5.257008 -0.954190 0.299200 0.000000 1.000000 0.000000
end
