// Created by Crowbar 0.34.0.0

$ModelName "weapons/tfa_cso/w_mg3desert.mdl"

$BodyGroup "studio"
{
	studio "w_mg3desert"
}

$collisionmodel "w_mg3desert.smd"
{
	$mass 9
}

$CDMaterials "models\weapons\tfa_cso\mg3desert\"

$attachment "0" "root" -0.45 -23.20 -0.50 rotate -0 -90 0

$Sequence "idle" {
	"anims\idle.smd"
	fps 30
}