version 1
nodes
  0 "lock_root" -1
  1 "trigar" 0
  2 "lockgunm_sideR01" 0
  3 "lockgunm_sideL01" 0
  4 "magazine" 0
  5 "lock_scope01" 0
  6 "lock_scope02" 5
  7 "smokeR_root" -1
  8 "smokeL_root" -1
  9 "magicR" 0
  10 "magic_point001" 9
  11 "magic_bone001" 10
  12 "magic_bone002" 10
  13 "magic_bone003" 10
  14 "magic_bone004" 10
  15 "magic_point002" 9
  16 "magic_bone005" 15
  17 "magic_bone006" 15
  18 "magic_bone007" 15
  19 "magic_bone008" 15
  20 "magic_point003" 9
  21 "magic_bone009" 20
  22 "magic_bone010" 20
  23 "magic_bone011" 20
  24 "magic_bone012" 20
  25 "magicL" 0
  26 "magic_point004" 25
  27 "magic_bone013" 26
  28 "magic_bone014" 26
  29 "magic_bone015" 26
  30 "magic_bone016" 26
  31 "magic_point005" 25
  32 "magic_bone017" 31
  33 "magic_bone018" 31
  34 "magic_bone019" 31
  35 "magic_bone020" 31
  36 "magic_point006" 25
  37 "magic_bone021" 36
  38 "magic_bone022" 36
  39 "magic_bone023" 36
  40 "magic_bone024" 36
  41 "root" -1
  42 "Bone01" 41
  43 "Bone_L_Upper" 42
  44 "Bone_Lefthand" 42
  45 "Bone13" 44
  46 "Bone14" 45
  47 "Bone15" 46
  48 "Bone17" 44
  49 "Bone18" 48
  50 "Bone19" 49
  51 "Bone21" 44
  52 "Bone22" 51
  53 "Bone23" 52
  54 "Bone09" 44
  55 "Bone10" 54
  56 "Bone11" 55
  57 "Bone05" 44
  58 "Bone06" 57
  59 "Bone07" 58
  60 "Bone_Se_Hand-L" 44
  61 "Bone04" 41
  62 "Bone_Righthand" 61
  63 "Bone39" 62
  64 "Bone40" 63
  65 "Bone41" 64
  66 "Bone35" 62
  67 "Bone36" 66
  68 "Bone37" 67
  69 "Bone31" 62
  70 "Bone32" 69
  71 "Bone33" 70
  72 "Bone43" 62
  73 "Bone44" 72
  74 "Bone45" 73
  75 "Bone27" 62
  76 "Bone28" 75
  77 "Bone29" 76
  78 "Bone_Se_Hand-R" 62
  79 "Bone_R_Upper" 61
end
skeleton
  time 0
    0 -0.260652 7.044448 -9.936873 -0.000001 -0.000001 -0.000042
    1 -0.003704 -0.088852 0.612631 1.570801 1.570796 0.000000
    2 -0.260609 3.228450 2.399904 0.000000 0.000000 3.141592
    3 0.779929 3.228417 2.399793 0.000000 -3.141592 0.000000
    4 -0.009866 5.508934 0.331835 0.000000 1.570796 0.000000
    5 0.000002 3.569871 2.702894 -1.570798 -1.221731 -1.570795
    6 3.003999 1.449263 0.000000 0.000000 0.000000 1.071917
    7 11.660640 -18.239875 -0.610043 1.570796 0.000000 0.000000
    8 -14.697917 -20.403253 -0.859386 1.570796 0.000000 0.000000
    9 -2.542575 30.124657 2.612532 1.570797 -0.000001 1.570796
    10 0.000000 0.000000 0.000000 3.141592 0.000000 1.570796
    11 2.000000 2.000000 0.000000 0.000000 -1.570796 0.000000
    12 2.000000 -2.000000 -0.000001 0.000000 -1.570796 0.000000
    13 -2.000000 -1.999998 0.000000 0.000000 -1.570796 0.000000
    14 -2.000000 2.000002 0.000000 0.000000 -1.570796 0.000000
    15 0.000000 0.000000 0.000000 3.141592 0.000000 1.570796
    16 2.000000 2.000000 0.000000 0.000000 -1.570796 0.000000
    17 2.000000 -2.000000 -0.000001 0.000000 -1.570796 0.000000
    18 -2.000000 -1.999998 0.000000 0.000000 -1.570796 0.000000
    19 -2.000000 2.000002 0.000000 0.000000 -1.570796 0.000000
    20 0.000000 0.000000 0.000000 3.141592 0.000000 1.570796
    21 2.000000 2.000000 0.000000 0.000000 -1.570796 0.000000
    22 2.000000 -2.000000 -0.000001 0.000000 -1.570796 0.000000
    23 -2.000000 -1.999998 0.000000 0.000000 -1.570796 0.000000
    24 -2.000000 2.000002 0.000000 0.000000 -1.570796 0.000000
    25 2.542155 30.124657 2.612530 -1.570796 -3.141592 1.570796
    26 0.000000 0.000000 0.000000 3.141592 0.000000 1.570796
    27 2.000000 1.999998 0.000001 0.000000 -1.570796 0.000000
    28 2.000000 -2.000002 0.000000 0.000000 -1.570796 0.000000
    29 -2.000000 -2.000000 0.000000 0.000000 -1.570796 0.000000
    30 -2.000000 2.000000 0.000000 0.000000 -1.570796 0.000000
    31 0.000000 0.000000 0.000000 3.141592 0.000000 1.570796
    32 2.000000 1.999998 0.000001 0.000000 -1.570796 0.000000
    33 2.000000 -2.000002 0.000000 0.000000 -1.570796 0.000000
    34 -2.000000 -2.000000 0.000000 0.000000 -1.570796 0.000000
    35 -2.000000 2.000000 0.000000 0.000000 -1.570796 0.000000
    36 0.000000 0.000000 0.000000 3.141592 0.000000 1.570796
    37 2.000000 1.999998 0.000001 0.000000 -1.570796 0.000000
    38 2.000000 -2.000002 0.000000 0.000000 -1.570796 0.000000
    39 -2.000000 -2.000000 0.000000 0.000000 -1.570796 0.000000
    40 -2.000000 2.000000 0.000000 0.000000 -1.570796 0.000000
    41 -0.002752 7.041919 -9.941090 0.000000 0.000000 -0.000043
    42 3.806029 12.134512 -1.233394 6.229045 -2.062258 -0.244229
    43 3.448653 9.395416 -0.282623 1.545838 -3.132837 1.309107
    44 0.010113 -8.498736 -0.068977 0.144224 0.662533 0.173639
    45 -0.488518 -2.755602 -0.228260 -0.854769 -0.065650 -0.331400
    46 0.039887 -1.546198 0.022041 -1.871391 -0.006663 0.041767
    47 0.028786 -1.087450 -0.062173 -0.318681 -0.007023 0.004902
    48 0.250027 -2.820665 -0.238396 -0.552653 -0.155197 -0.177390
    49 -0.049759 -1.594604 0.022352 -1.692609 -0.002732 -0.044381
    50 -0.034142 -1.163937 0.049625 -0.998466 0.007910 -0.025959
    51 0.957766 -2.746780 -0.090302 0.165424 -0.223746 0.095945
    52 -0.033420 -1.397129 -0.015163 -0.248262 0.005789 -0.011866
    53 -0.022360 -0.957436 0.010971 -0.329891 0.006604 -0.015424
    54 -1.180681 -2.507217 -0.193859 -0.988602 0.140810 -0.391040
    55 -0.024967 -1.127840 0.017597 -1.364398 -0.005129 -0.056674
    56 -0.020057 -0.902687 0.021809 -0.713798 0.007922 -0.028176
    57 0.606948 -1.197277 0.185379 0.455111 -0.925243 -0.684416
    58 1.426549 -0.267106 0.087043 0.093188 -0.260641 -1.002736
    59 1.053895 -0.140009 0.028385 0.033433 -0.179999 -0.730272
    60 0.120153 -0.050270 -0.054489 0.287569 3.110905 1.561085
    61 -3.751344 4.464349 -4.528765 -0.877067 -5.167795 -0.426132
    62 -0.008528 -8.426980 0.033605 -0.132294 -0.773278 0.215614
    63 0.447953 -2.798986 -0.200443 -0.928571 -0.223099 0.202211
    64 -0.032909 -1.491923 0.008846 -0.635164 0.014513 -0.007381
    65 -0.027022 -1.127703 -0.020210 -1.224260 0.024233 -0.022076
    66 -0.249534 -2.846964 -0.174213 -0.434857 -0.182998 0.147751
    67 0.043235 -1.660503 0.080387 -1.017380 -0.016688 0.001727
    68 0.031729 -1.141298 0.054932 -1.091808 -0.012110 0.006059
    69 -0.963866 -2.785145 -0.085350 -0.011521 -0.037434 0.101211
    70 0.028479 -1.403067 -0.005448 -0.471563 -0.008269 -0.020110
    71 0.021413 -0.946062 0.020046 -0.591871 -0.011769 -0.023801
    72 1.164475 -2.543940 -0.170330 -0.839763 -0.344009 0.135803
    73 0.024032 -1.136855 -0.001725 -0.785833 0.004362 0.041887
    74 0.014898 -0.899614 -0.015942 -0.966253 0.007562 0.048610
    75 -0.586770 -1.264477 0.200161 -0.123442 0.196326 -2.622843
    76 1.557992 0.035243 0.016848 -0.013655 -0.005385 0.702874
    77 1.117947 0.048424 -0.005766 0.004024 -0.019793 -0.149526
    78 -0.139399 -0.111698 0.014397 0.635980 -0.028572 1.346092
    79 -1.295811 8.889960 -0.204276 1.570809 -0.000001 -1.570790
  time 1
    0 -0.260652 7.044448 -9.936873 -0.000001 -0.000001 -0.000042
    1 -0.003704 -0.088852 0.612631 1.570801 1.570796 0.000000
    2 -0.260609 3.228450 2.399904 0.000000 0.000000 3.141592
    3 0.779929 3.228417 2.399793 0.000000 -3.141592 0.000000
    4 -0.009866 5.508934 0.331835 0.000000 1.570796 0.000000
    5 0.000002 3.569871 2.702894 -1.570798 -1.221731 -1.570795
    6 3.039156 1.468795 0.000000 0.000000 0.000000 1.084744
    7 11.660640 -18.239875 -0.610043 1.570796 0.000000 0.000000
    8 -14.697917 -20.403253 -0.859386 1.570796 0.000000 0.000000
    9 -2.542575 30.124657 2.612532 1.570797 -0.000001 1.570796
    10 0.000000 0.000000 0.000000 3.141592 0.000000 1.570796
    11 2.000000 2.000000 0.000000 0.000000 -1.570796 0.000000
    12 2.000000 -2.000000 -0.000001 0.000000 -1.570796 0.000000
    13 -2.000000 -1.999998 0.000000 0.000000 -1.570796 0.000000
    14 -2.000000 2.000002 0.000000 0.000000 -1.570796 0.000000
    15 0.000000 0.000000 0.000000 3.141592 0.000000 1.570796
    16 2.000000 2.000000 0.000000 0.000000 -1.570796 0.000000
    17 2.000000 -2.000000 -0.000001 0.000000 -1.570796 0.000000
    18 -2.000000 -1.999998 0.000000 0.000000 -1.570796 0.000000
    19 -2.000000 2.000002 0.000000 0.000000 -1.570796 0.000000
    20 0.000000 0.000000 0.000000 3.141592 0.000000 1.570796
    21 2.000000 2.000000 0.000000 0.000000 -1.570796 0.000000
    22 2.000000 -2.000000 -0.000001 0.000000 -1.570796 0.000000
    23 -2.000000 -1.999998 0.000000 0.000000 -1.570796 0.000000
    24 -2.000000 2.000002 0.000000 0.000000 -1.570796 0.000000
    25 2.542155 30.124657 2.612530 -1.570796 -3.141592 1.570796
    26 0.000000 0.000000 0.000000 3.141592 0.000000 1.570796
    27 2.000000 1.999998 0.000001 0.000000 -1.570796 0.000000
    28 2.000000 -2.000002 0.000000 0.000000 -1.570796 0.000000
    29 -2.000000 -2.000000 0.000000 0.000000 -1.570796 0.000000
    30 -2.000000 2.000000 0.000000 0.000000 -1.570796 0.000000
    31 0.000000 0.000000 0.000000 3.141592 0.000000 1.570796
    32 2.000000 1.999998 0.000001 0.000000 -1.570796 0.000000
    33 2.000000 -2.000002 0.000000 0.000000 -1.570796 0.000000
    34 -2.000000 -2.000000 0.000000 0.000000 -1.570796 0.000000
    35 -2.000000 2.000000 0.000000 0.000000 -1.570796 0.000000
    36 0.000000 0.000000 0.000000 3.141592 0.000000 1.570796
    37 2.000000 1.999998 0.000001 0.000000 -1.570796 0.000000
    38 2.000000 -2.000002 0.000000 0.000000 -1.570796 0.000000
    39 -2.000000 -2.000000 0.000000 0.000000 -1.570796 0.000000
    40 -2.000000 2.000000 0.000000 0.000000 -1.570796 0.000000
    41 -0.002752 7.041919 -9.941090 0.000000 0.000000 -0.000043
    42 3.806029 12.134512 -1.233394 6.229045 -2.062258 -0.244229
    43 3.448653 9.395416 -0.282623 1.545838 -3.132837 1.309107
    44 0.010113 -8.498736 -0.068977 0.144224 0.662533 0.173639
    45 -0.488518 -2.755602 -0.228260 -0.854769 -0.065650 -0.331400
    46 0.039887 -1.546198 0.022041 -1.871391 -0.006663 0.041767
    47 0.028786 -1.087450 -0.062173 -0.318681 -0.007023 0.004902
    48 0.250027 -2.820665 -0.238396 -0.552653 -0.155197 -0.177390
    49 -0.049759 -1.594604 0.022352 -1.692609 -0.002732 -0.044381
    50 -0.034142 -1.163937 0.049625 -0.998466 0.007910 -0.025959
    51 0.957766 -2.746780 -0.090302 0.165424 -0.223746 0.095945
    52 -0.033420 -1.397129 -0.015163 -0.248262 0.005789 -0.011866
    53 -0.022360 -0.957436 0.010971 -0.329891 0.006604 -0.015424
    54 -1.180681 -2.507217 -0.193859 -0.988602 0.140810 -0.391040
    55 -0.024967 -1.127840 0.017597 -1.364398 -0.005129 -0.056674
    56 -0.020057 -0.902687 0.021809 -0.713798 0.007922 -0.028176
    57 0.606948 -1.197277 0.185379 0.455111 -0.925243 -0.684416
    58 1.426549 -0.267106 0.087043 0.093188 -0.260641 -1.002736
    59 1.053895 -0.140009 0.028385 0.033433 -0.179999 -0.730272
    60 0.120153 -0.050270 -0.054489 0.287569 3.110905 1.561085
    61 -3.751344 4.464349 -4.528765 -0.877067 -5.167795 -0.426132
    62 -0.008528 -8.426980 0.033605 -0.132294 -0.773278 0.215614
    63 0.447953 -2.798986 -0.200443 -0.928571 -0.223099 0.202211
    64 -0.032909 -1.491923 0.008846 -0.635164 0.014513 -0.007381
    65 -0.027022 -1.127703 -0.020210 -1.224260 0.024233 -0.022076
    66 -0.249534 -2.846964 -0.174213 -0.434857 -0.182998 0.147751
    67 0.043235 -1.660503 0.080387 -1.017380 -0.016688 0.001727
    68 0.031729 -1.141298 0.054932 -1.091808 -0.012110 0.006059
    69 -0.963866 -2.785145 -0.085350 -0.011521 -0.037434 0.101211
    70 0.028479 -1.403067 -0.005448 -0.471563 -0.008269 -0.020110
    71 0.021413 -0.946062 0.020046 -0.591871 -0.011769 -0.023801
    72 1.164475 -2.543940 -0.170330 -0.839763 -0.344009 0.135803
    73 0.024032 -1.136855 -0.001725 -0.785833 0.004362 0.041887
    74 0.014898 -0.899614 -0.015942 -0.966253 0.007562 0.048610
    75 -0.586770 -1.264477 0.200161 -0.123442 0.196326 -2.622843
    76 1.557992 0.035243 0.016848 -0.013655 -0.005385 0.702874
    77 1.117947 0.048424 -0.005766 0.004024 -0.019793 -0.149526
    78 -0.139399 -0.111698 0.014397 0.635980 -0.028572 1.346092
    79 -1.295811 8.889960 -0.204276 1.570809 -0.000001 -1.570790
  time 2
    0 -0.260652 7.044448 -9.936873 -0.000001 -0.000001 -0.000042
    1 -0.003704 -0.088852 0.612631 1.570801 1.570796 0.000000
    2 -0.260609 3.228450 2.399904 0.000000 0.000000 3.141592
    3 0.779929 3.228417 2.399793 0.000000 -3.141592 0.000000
    4 -0.009866 5.508934 0.331835 0.000000 1.570796 0.000000
    5 0.000002 3.569871 2.702894 -1.570798 -1.221731 -1.570795
    6 3.074314 1.484420 0.000000 0.000000 0.000000 1.097085
    7 11.660640 -18.239875 -0.610043 1.570796 0.000000 0.000000
    8 -14.697917 -20.403253 -0.859386 1.570796 0.000000 0.000000
    9 -2.542575 30.124657 2.612532 1.570797 -0.000001 1.570796
    10 0.000000 0.000000 0.000000 3.141592 0.000000 1.570796
    11 2.000000 2.000000 0.000000 0.000000 -1.570796 0.000000
    12 2.000000 -2.000000 -0.000001 0.000000 -1.570796 0.000000
    13 -2.000000 -1.999998 0.000000 0.000000 -1.570796 0.000000
    14 -2.000000 2.000002 0.000000 0.000000 -1.570796 0.000000
    15 0.000000 0.000000 0.000000 3.141592 0.000000 1.570796
    16 2.000000 2.000000 0.000000 0.000000 -1.570796 0.000000
    17 2.000000 -2.000000 -0.000001 0.000000 -1.570796 0.000000
    18 -2.000000 -1.999998 0.000000 0.000000 -1.570796 0.000000
    19 -2.000000 2.000002 0.000000 0.000000 -1.570796 0.000000
    20 0.000000 0.000000 0.000000 3.141592 0.000000 1.570796
    21 2.000000 2.000000 0.000000 0.000000 -1.570796 0.000000
    22 2.000000 -2.000000 -0.000001 0.000000 -1.570796 0.000000
    23 -2.000000 -1.999998 0.000000 0.000000 -1.570796 0.000000
    24 -2.000000 2.000002 0.000000 0.000000 -1.570796 0.000000
    25 2.542155 30.124657 2.612530 -1.570796 -3.141592 1.570796
    26 0.000000 0.000000 0.000000 3.141592 0.000000 1.570796
    27 2.000000 1.999998 0.000001 0.000000 -1.570796 0.000000
    28 2.000000 -2.000002 0.000000 0.000000 -1.570796 0.000000
    29 -2.000000 -2.000000 0.000000 0.000000 -1.570796 0.000000
    30 -2.000000 2.000000 0.000000 0.000000 -1.570796 0.000000
    31 0.000000 0.000000 0.000000 3.141592 0.000000 1.570796
    32 2.000000 1.999998 0.000001 0.000000 -1.570796 0.000000
    33 2.000000 -2.000002 0.000000 0.000000 -1.570796 0.000000
    34 -2.000000 -2.000000 0.000000 0.000000 -1.570796 0.000000
    35 -2.000000 2.000000 0.000000 0.000000 -1.570796 0.000000
    36 0.000000 0.000000 0.000000 3.141592 0.000000 1.570796
    37 2.000000 1.999998 0.000001 0.000000 -1.570796 0.000000
    38 2.000000 -2.000002 0.000000 0.000000 -1.570796 0.000000
    39 -2.000000 -2.000000 0.000000 0.000000 -1.570796 0.000000
    40 -2.000000 2.000000 0.000000 0.000000 -1.570796 0.000000
    41 -0.002752 7.041919 -9.941090 0.000000 0.000000 -0.000043
    42 3.806029 12.134512 -1.233394 6.229045 -2.062258 -0.244229
    43 3.448653 9.395416 -0.282623 1.545838 -3.132837 1.309107
    44 0.010113 -8.498736 -0.068977 0.144224 0.662533 0.173639
    45 -0.488518 -2.755602 -0.228260 -0.854769 -0.065650 -0.331400
    46 0.039887 -1.546198 0.022041 -1.871391 -0.006663 0.041767
    47 0.028786 -1.087450 -0.062173 -0.318681 -0.007023 0.004902
    48 0.250027 -2.820665 -0.238396 -0.552653 -0.155197 -0.177390
    49 -0.049759 -1.594604 0.022352 -1.692609 -0.002732 -0.044381
    50 -0.034142 -1.163937 0.049625 -0.998466 0.007910 -0.025959
    51 0.957766 -2.746780 -0.090302 0.165424 -0.223746 0.095945
    52 -0.033420 -1.397129 -0.015163 -0.248262 0.005789 -0.011866
    53 -0.022360 -0.957436 0.010971 -0.329891 0.006604 -0.015424
    54 -1.180681 -2.507217 -0.193859 -0.988602 0.140810 -0.391040
    55 -0.024967 -1.127840 0.017597 -1.364398 -0.005129 -0.056674
    56 -0.020057 -0.902687 0.021809 -0.713798 0.007922 -0.028176
    57 0.606948 -1.197277 0.185379 0.455111 -0.925243 -0.684416
    58 1.426549 -0.267106 0.087043 0.093188 -0.260641 -1.002736
    59 1.053895 -0.140009 0.028385 0.033433 -0.179999 -0.730272
    60 0.120153 -0.050270 -0.054489 0.287569 3.110905 1.561085
    61 -3.751344 4.464349 -4.528765 -0.877067 -5.167795 -0.426132
    62 -0.008528 -8.426980 0.033605 -0.132294 -0.773278 0.215614
    63 0.447953 -2.798986 -0.200443 -0.928571 -0.223099 0.202211
    64 -0.032909 -1.491923 0.008846 -0.635164 0.014513 -0.007381
    65 -0.027022 -1.127703 -0.020210 -1.224260 0.024233 -0.022076
    66 -0.249534 -2.846964 -0.174213 -0.434857 -0.182998 0.147751
    67 0.043235 -1.660503 0.080387 -1.017380 -0.016688 0.001727
    68 0.031729 -1.141298 0.054932 -1.091808 -0.012110 0.006059
    69 -0.963866 -2.785145 -0.085350 -0.011521 -0.037434 0.101211
    70 0.028479 -1.403067 -0.005448 -0.471563 -0.008269 -0.020110
    71 0.021413 -0.946062 0.020046 -0.591871 -0.011769 -0.023801
    72 1.164475 -2.543940 -0.170330 -0.839763 -0.344009 0.135803
    73 0.024032 -1.136855 -0.001725 -0.785833 0.004362 0.041887
    74 0.014898 -0.899614 -0.015942 -0.966253 0.007562 0.048610
    75 -0.586770 -1.264477 0.200161 -0.123442 0.196326 -2.622843
    76 1.557992 0.035243 0.016848 -0.013655 -0.005385 0.702874
    77 1.117947 0.048424 -0.005766 0.004024 -0.019793 -0.149526
    78 -0.139399 -0.111698 0.014397 0.635980 -0.028572 1.346092
    79 -1.295811 8.889960 -0.204276 1.570809 -0.000001 -1.570790
  time 3
    0 -0.260652 7.044448 -9.936873 -0.000001 -0.000001 -0.000042
    1 -0.003704 -0.088852 0.612631 1.570801 1.570796 0.000000
    2 -0.260609 3.228450 2.399904 0.000000 0.000000 3.141592
    3 0.779929 3.228417 2.399793 0.000000 -3.141592 0.000000
    4 -0.009866 5.508934 0.331835 0.000000 1.570796 0.000000
    5 0.000002 3.569871 2.702894 -1.570798 -1.221731 -1.570795
    6 3.109471 1.500046 0.000000 0.000000 0.000000 1.108979
    7 11.660640 -18.239875 -0.610043 1.570796 0.000000 0.000000
    8 -14.697917 -20.403253 -0.859386 1.570796 0.000000 0.000000
    9 -2.542575 30.124657 2.612532 1.570797 -0.000001 1.570796
    10 0.000000 0.000000 0.000000 3.141592 0.000000 1.570796
    11 2.000000 2.000000 0.000000 0.000000 -1.570796 0.000000
    12 2.000000 -2.000000 -0.000001 0.000000 -1.570796 0.000000
    13 -2.000000 -1.999998 0.000000 0.000000 -1.570796 0.000000
    14 -2.000000 2.000002 0.000000 0.000000 -1.570796 0.000000
    15 0.000000 0.000000 0.000000 3.141592 0.000000 1.570796
    16 2.000000 2.000000 0.000000 0.000000 -1.570796 0.000000
    17 2.000000 -2.000000 -0.000001 0.000000 -1.570796 0.000000
    18 -2.000000 -1.999998 0.000000 0.000000 -1.570796 0.000000
    19 -2.000000 2.000002 0.000000 0.000000 -1.570796 0.000000
    20 0.000000 0.000000 0.000000 3.141592 0.000000 1.570796
    21 2.000000 2.000000 0.000000 0.000000 -1.570796 0.000000
    22 2.000000 -2.000000 -0.000001 0.000000 -1.570796 0.000000
    23 -2.000000 -1.999998 0.000000 0.000000 -1.570796 0.000000
    24 -2.000000 2.000002 0.000000 0.000000 -1.570796 0.000000
    25 2.542155 30.124657 2.612530 -1.570796 -3.141592 1.570796
    26 0.000000 0.000000 0.000000 3.141592 0.000000 1.570796
    27 2.000000 1.999998 0.000001 0.000000 -1.570796 0.000000
    28 2.000000 -2.000002 0.000000 0.000000 -1.570796 0.000000
    29 -2.000000 -2.000000 0.000000 0.000000 -1.570796 0.000000
    30 -2.000000 2.000000 0.000000 0.000000 -1.570796 0.000000
    31 0.000000 0.000000 0.000000 3.141592 0.000000 1.570796
    32 2.000000 1.999998 0.000001 0.000000 -1.570796 0.000000
    33 2.000000 -2.000002 0.000000 0.000000 -1.570796 0.000000
    34 -2.000000 -2.000000 0.000000 0.000000 -1.570796 0.000000
    35 -2.000000 2.000000 0.000000 0.000000 -1.570796 0.000000
    36 0.000000 0.000000 0.000000 3.141592 0.000000 1.570796
    37 2.000000 1.999998 0.000001 0.000000 -1.570796 0.000000
    38 2.000000 -2.000002 0.000000 0.000000 -1.570796 0.000000
    39 -2.000000 -2.000000 0.000000 0.000000 -1.570796 0.000000
    40 -2.000000 2.000000 0.000000 0.000000 -1.570796 0.000000
    41 -0.002752 7.041919 -9.941090 0.000000 0.000000 -0.000043
    42 3.806029 12.134512 -1.233394 6.229045 -2.062258 -0.244229
    43 3.448653 9.395416 -0.282623 1.545838 -3.132837 1.309107
    44 0.010113 -8.498736 -0.068977 0.144224 0.662533 0.173639
    45 -0.488518 -2.755602 -0.228260 -0.854769 -0.065650 -0.331400
    46 0.039887 -1.546198 0.022041 -1.871391 -0.006663 0.041767
    47 0.028786 -1.087450 -0.062173 -0.318681 -0.007023 0.004902
    48 0.250027 -2.820665 -0.238396 -0.552653 -0.155197 -0.177390
    49 -0.049759 -1.594604 0.022352 -1.692609 -0.002732 -0.044381
    50 -0.034142 -1.163937 0.049625 -0.998466 0.007910 -0.025959
    51 0.957766 -2.746780 -0.090302 0.165424 -0.223746 0.095945
    52 -0.033420 -1.397129 -0.015163 -0.248262 0.005789 -0.011866
    53 -0.022360 -0.957436 0.010971 -0.329891 0.006604 -0.015424
    54 -1.180681 -2.507217 -0.193859 -0.988602 0.140810 -0.391040
    55 -0.024967 -1.127840 0.017597 -1.364398 -0.005129 -0.056674
    56 -0.020057 -0.902687 0.021809 -0.713798 0.007922 -0.028176
    57 0.606948 -1.197277 0.185379 0.455111 -0.925243 -0.684416
    58 1.426549 -0.267106 0.087043 0.093188 -0.260641 -1.002736
    59 1.053895 -0.140009 0.028385 0.033433 -0.179999 -0.730272
    60 0.120153 -0.050270 -0.054489 0.287569 3.110905 1.561085
    61 -3.751344 4.464349 -4.528765 -0.877067 -5.167795 -0.426132
    62 -0.008528 -8.426980 0.033605 -0.132294 -0.773278 0.215614
    63 0.447953 -2.798986 -0.200443 -0.928571 -0.223099 0.202211
    64 -0.032909 -1.491923 0.008846 -0.635164 0.014513 -0.007381
    65 -0.027022 -1.127703 -0.020210 -1.224260 0.024233 -0.022076
    66 -0.249534 -2.846964 -0.174213 -0.434857 -0.182998 0.147751
    67 0.043235 -1.660503 0.080387 -1.017380 -0.016688 0.001727
    68 0.031729 -1.141298 0.054932 -1.091808 -0.012110 0.006059
    69 -0.963866 -2.785145 -0.085350 -0.011521 -0.037434 0.101211
    70 0.028479 -1.403067 -0.005448 -0.471563 -0.008269 -0.020110
    71 0.021413 -0.946062 0.020046 -0.591871 -0.011769 -0.023801
    72 1.164475 -2.543940 -0.170330 -0.839763 -0.344009 0.135803
    73 0.024032 -1.136855 -0.001725 -0.785833 0.004362 0.041887
    74 0.014898 -0.899614 -0.015942 -0.966253 0.007562 0.048610
    75 -0.586770 -1.264477 0.200161 -0.123442 0.196326 -2.622843
    76 1.557992 0.035243 0.016848 -0.013655 -0.005385 0.702874
    77 1.117947 0.048424 -0.005766 0.004024 -0.019793 -0.149526
    78 -0.139399 -0.111698 0.014397 0.635980 -0.028572 1.346092
    79 -1.295811 8.889960 -0.204276 1.570809 -0.000001 -1.570790
  time 4
    0 -0.260652 7.044448 -9.936873 -0.000001 -0.000001 -0.000042
    1 -0.003704 -0.088852 0.612631 1.570801 1.570796 0.000000
    2 -0.260609 3.228450 2.399904 0.000000 0.000000 3.141592
    3 0.779929 3.228417 2.399793 0.000000 -3.141592 0.000000
    4 -0.009866 5.508934 0.331835 0.000000 1.570796 0.000000
    5 0.000002 3.569871 2.702894 -1.570798 -1.221731 -1.570795
    6 3.140722 1.515671 0.000000 0.000000 0.000000 1.120351
    7 11.660640 -18.239875 -0.610043 1.570796 0.000000 0.000000
    8 -14.697917 -20.403253 -0.859386 1.570796 0.000000 0.000000
    9 -2.542575 30.124657 2.612532 1.570797 -0.000001 1.570796
    10 0.000000 0.000000 0.000000 3.141592 0.000000 1.570796
    11 2.000000 2.000000 0.000000 0.000000 -1.570796 0.000000
    12 2.000000 -2.000000 -0.000001 0.000000 -1.570796 0.000000
    13 -2.000000 -1.999998 0.000000 0.000000 -1.570796 0.000000
    14 -2.000000 2.000002 0.000000 0.000000 -1.570796 0.000000
    15 0.000000 0.000000 0.000000 3.141592 0.000000 1.570796
    16 2.000000 2.000000 0.000000 0.000000 -1.570796 0.000000
    17 2.000000 -2.000000 -0.000001 0.000000 -1.570796 0.000000
    18 -2.000000 -1.999998 0.000000 0.000000 -1.570796 0.000000
    19 -2.000000 2.000002 0.000000 0.000000 -1.570796 0.000000
    20 0.000000 0.000000 0.000000 3.141592 0.000000 1.570796
    21 2.000000 2.000000 0.000000 0.000000 -1.570796 0.000000
    22 2.000000 -2.000000 -0.000001 0.000000 -1.570796 0.000000
    23 -2.000000 -1.999998 0.000000 0.000000 -1.570796 0.000000
    24 -2.000000 2.000002 0.000000 0.000000 -1.570796 0.000000
    25 2.542155 30.124657 2.612530 -1.570796 -3.141592 1.570796
    26 0.000000 0.000000 0.000000 3.141592 0.000000 1.570796
    27 2.000000 1.999998 0.000001 0.000000 -1.570796 0.000000
    28 2.000000 -2.000002 0.000000 0.000000 -1.570796 0.000000
    29 -2.000000 -2.000000 0.000000 0.000000 -1.570796 0.000000
    30 -2.000000 2.000000 0.000000 0.000000 -1.570796 0.000000
    31 0.000000 0.000000 0.000000 3.141592 0.000000 1.570796
    32 2.000000 1.999998 0.000001 0.000000 -1.570796 0.000000
    33 2.000000 -2.000002 0.000000 0.000000 -1.570796 0.000000
    34 -2.000000 -2.000000 0.000000 0.000000 -1.570796 0.000000
    35 -2.000000 2.000000 0.000000 0.000000 -1.570796 0.000000
    36 0.000000 0.000000 0.000000 3.141592 0.000000 1.570796
    37 2.000000 1.999998 0.000001 0.000000 -1.570796 0.000000
    38 2.000000 -2.000002 0.000000 0.000000 -1.570796 0.000000
    39 -2.000000 -2.000000 0.000000 0.000000 -1.570796 0.000000
    40 -2.000000 2.000000 0.000000 0.000000 -1.570796 0.000000
    41 -0.002752 7.041919 -9.941090 0.000000 0.000000 -0.000043
    42 3.806029 12.134512 -1.233394 6.229045 -2.062258 -0.244229
    43 3.448653 9.395416 -0.282623 1.545838 -3.132837 1.309107
    44 0.010113 -8.498736 -0.068977 0.144224 0.662533 0.173639
    45 -0.488518 -2.755602 -0.228260 -0.854769 -0.065650 -0.331400
    46 0.039887 -1.546198 0.022041 -1.871391 -0.006663 0.041767
    47 0.028786 -1.087450 -0.062173 -0.318681 -0.007023 0.004902
    48 0.250027 -2.820665 -0.238396 -0.552653 -0.155197 -0.177390
    49 -0.049759 -1.594604 0.022352 -1.692609 -0.002732 -0.044381
    50 -0.034142 -1.163937 0.049625 -0.998466 0.007910 -0.025959
    51 0.957766 -2.746780 -0.090302 0.165424 -0.223746 0.095945
    52 -0.033420 -1.397129 -0.015163 -0.248262 0.005789 -0.011866
    53 -0.022360 -0.957436 0.010971 -0.329891 0.006604 -0.015424
    54 -1.180681 -2.507217 -0.193859 -0.988602 0.140810 -0.391040
    55 -0.024967 -1.127840 0.017597 -1.364398 -0.005129 -0.056674
    56 -0.020057 -0.902687 0.021809 -0.713798 0.007922 -0.028176
    57 0.606948 -1.197277 0.185379 0.455111 -0.925243 -0.684416
    58 1.426549 -0.267106 0.087043 0.093188 -0.260641 -1.002736
    59 1.053895 -0.140009 0.028385 0.033433 -0.179999 -0.730272
    60 0.120153 -0.050270 -0.054489 0.287569 3.110905 1.561085
    61 -3.751344 4.464349 -4.528765 -0.877067 -5.167795 -0.426132
    62 -0.008528 -8.426980 0.033605 -0.132294 -0.773278 0.215614
    63 0.447953 -2.798986 -0.200443 -0.928571 -0.223099 0.202211
    64 -0.032909 -1.491923 0.008846 -0.635164 0.014513 -0.007381
    65 -0.027022 -1.127703 -0.020210 -1.224260 0.024233 -0.022076
    66 -0.249534 -2.846964 -0.174213 -0.434857 -0.182998 0.147751
    67 0.043235 -1.660503 0.080387 -1.017380 -0.016688 0.001727
    68 0.031729 -1.141298 0.054932 -1.091808 -0.012110 0.006059
    69 -0.963866 -2.785145 -0.085350 -0.011521 -0.037434 0.101211
    70 0.028479 -1.403067 -0.005448 -0.471563 -0.008269 -0.020110
    71 0.021413 -0.946062 0.020046 -0.591871 -0.011769 -0.023801
    72 1.164475 -2.543940 -0.170330 -0.839763 -0.344009 0.135803
    73 0.024032 -1.136855 -0.001725 -0.785833 0.004362 0.041887
    74 0.014898 -0.899614 -0.015942 -0.966253 0.007562 0.048610
    75 -0.586770 -1.264477 0.200161 -0.123442 0.196326 -2.622843
    76 1.557992 0.035243 0.016848 -0.013655 -0.005385 0.702874
    77 1.117947 0.048424 -0.005766 0.004024 -0.019793 -0.149526
    78 -0.139399 -0.111698 0.014397 0.635980 -0.028572 1.346092
    79 -1.295811 8.889960 -0.204276 1.570809 -0.000001 -1.570790
  time 5
    0 -0.260652 7.044448 -9.936873 -0.000001 -0.000001 -0.000042
    1 -0.003704 -0.088852 0.612631 1.570801 1.570796 0.000000
    2 -0.260609 3.228450 2.399904 0.000000 0.000000 3.141592
    3 0.779929 3.228417 2.399793 0.000000 -3.141592 0.000000
    4 -0.009866 5.508934 0.331835 0.000000 1.570796 0.000000
    5 0.000002 3.569871 2.702894 -1.570798 -1.221731 -1.570795
    6 3.171973 1.531297 0.000000 0.000000 0.000000 1.131201
    7 11.660640 -18.239875 -0.610043 1.570796 0.000000 0.000000
    8 -14.697917 -20.403253 -0.859386 1.570796 0.000000 0.000000
    9 -2.542575 30.124657 2.612532 1.570797 -0.000001 1.570796
    10 0.000000 0.000000 0.000000 3.141592 0.000000 1.570796
    11 2.000000 2.000000 0.000000 0.000000 -1.570796 0.000000
    12 2.000000 -2.000000 -0.000001 0.000000 -1.570796 0.000000
    13 -2.000000 -1.999998 0.000000 0.000000 -1.570796 0.000000
    14 -2.000000 2.000002 0.000000 0.000000 -1.570796 0.000000
    15 0.000000 0.000000 0.000000 3.141592 0.000000 1.570796
    16 2.000000 2.000000 0.000000 0.000000 -1.570796 0.000000
    17 2.000000 -2.000000 -0.000001 0.000000 -1.570796 0.000000
    18 -2.000000 -1.999998 0.000000 0.000000 -1.570796 0.000000
    19 -2.000000 2.000002 0.000000 0.000000 -1.570796 0.000000
    20 0.000000 0.000000 0.000000 3.141592 0.000000 1.570796
    21 2.000000 2.000000 0.000000 0.000000 -1.570796 0.000000
    22 2.000000 -2.000000 -0.000001 0.000000 -1.570796 0.000000
    23 -2.000000 -1.999998 0.000000 0.000000 -1.570796 0.000000
    24 -2.000000 2.000002 0.000000 0.000000 -1.570796 0.000000
    25 2.542155 30.124657 2.612530 -1.570796 -3.141592 1.570796
    26 0.000000 0.000000 0.000000 3.141592 0.000000 1.570796
    27 2.000000 1.999998 0.000001 0.000000 -1.570796 0.000000
    28 2.000000 -2.000002 0.000000 0.000000 -1.570796 0.000000
    29 -2.000000 -2.000000 0.000000 0.000000 -1.570796 0.000000
    30 -2.000000 2.000000 0.000000 0.000000 -1.570796 0.000000
    31 0.000000 0.000000 0.000000 3.141592 0.000000 1.570796
    32 2.000000 1.999998 0.000001 0.000000 -1.570796 0.000000
    33 2.000000 -2.000002 0.000000 0.000000 -1.570796 0.000000
    34 -2.000000 -2.000000 0.000000 0.000000 -1.570796 0.000000
    35 -2.000000 2.000000 0.000000 0.000000 -1.570796 0.000000
    36 0.000000 0.000000 0.000000 3.141592 0.000000 1.570796
    37 2.000000 1.999998 0.000001 0.000000 -1.570796 0.000000
    38 2.000000 -2.000002 0.000000 0.000000 -1.570796 0.000000
    39 -2.000000 -2.000000 0.000000 0.000000 -1.570796 0.000000
    40 -2.000000 2.000000 0.000000 0.000000 -1.570796 0.000000
    41 -0.002752 7.041919 -9.941090 0.000000 0.000000 -0.000043
    42 3.806029 12.134512 -1.233394 6.229045 -2.062258 -0.244229
    43 3.448653 9.395416 -0.282623 1.545838 -3.132837 1.309107
    44 0.010113 -8.498736 -0.068977 0.144224 0.662533 0.173639
    45 -0.488518 -2.755602 -0.228260 -0.854769 -0.065650 -0.331400
    46 0.039887 -1.546198 0.022041 -1.871391 -0.006663 0.041767
    47 0.028786 -1.087450 -0.062173 -0.318681 -0.007023 0.004902
    48 0.250027 -2.820665 -0.238396 -0.552653 -0.155197 -0.177390
    49 -0.049759 -1.594604 0.022352 -1.692609 -0.002732 -0.044381
    50 -0.034142 -1.163937 0.049625 -0.998466 0.007910 -0.025959
    51 0.957766 -2.746780 -0.090302 0.165424 -0.223746 0.095945
    52 -0.033420 -1.397129 -0.015163 -0.248262 0.005789 -0.011866
    53 -0.022360 -0.957436 0.010971 -0.329891 0.006604 -0.015424
    54 -1.180681 -2.507217 -0.193859 -0.988602 0.140810 -0.391040
    55 -0.024967 -1.127840 0.017597 -1.364398 -0.005129 -0.056674
    56 -0.020057 -0.902687 0.021809 -0.713798 0.007922 -0.028176
    57 0.606948 -1.197277 0.185379 0.455111 -0.925243 -0.684416
    58 1.426549 -0.267106 0.087043 0.093188 -0.260641 -1.002736
    59 1.053895 -0.140009 0.028385 0.033433 -0.179999 -0.730272
    60 0.120153 -0.050270 -0.054489 0.287569 3.110905 1.561085
    61 -3.751344 4.464349 -4.528765 -0.877067 -5.167795 -0.426132
    62 -0.008528 -8.426980 0.033605 -0.132294 -0.773278 0.215614
    63 0.447953 -2.798986 -0.200443 -0.928571 -0.223099 0.202211
    64 -0.032909 -1.491923 0.008846 -0.635164 0.014513 -0.007381
    65 -0.027022 -1.127703 -0.020210 -1.224260 0.024233 -0.022076
    66 -0.249534 -2.846964 -0.174213 -0.434857 -0.182998 0.147751
    67 0.043235 -1.660503 0.080387 -1.017380 -0.016688 0.001727
    68 0.031729 -1.141298 0.054932 -1.091808 -0.012110 0.006059
    69 -0.963866 -2.785145 -0.085350 -0.011521 -0.037434 0.101211
    70 0.028479 -1.403067 -0.005448 -0.471563 -0.008269 -0.020110
    71 0.021413 -0.946062 0.020046 -0.591871 -0.011769 -0.023801
    72 1.164475 -2.543940 -0.170330 -0.839763 -0.344009 0.135803
    73 0.024032 -1.136855 -0.001725 -0.785833 0.004362 0.041887
    74 0.014898 -0.899614 -0.015942 -0.966253 0.007562 0.048610
    75 -0.586770 -1.264477 0.200161 -0.123442 0.196326 -2.622843
    76 1.557992 0.035243 0.016848 -0.013655 -0.005385 0.702874
    77 1.117947 0.048424 -0.005766 0.004024 -0.019793 -0.149526
    78 -0.139399 -0.111698 0.014397 0.635980 -0.028572 1.346092
    79 -1.295811 8.889960 -0.204276 1.570809 -0.000001 -1.570790
  time 6
    0 -0.260652 7.044448 -9.936873 -0.000001 -0.000001 -0.000042
    1 -0.003704 -0.088852 0.612631 1.570801 1.570796 0.000000
    2 -0.260609 3.228450 2.399904 0.000000 0.000000 3.141592
    3 0.779929 3.228417 2.399793 0.000000 -3.141592 0.000000
    4 -0.009866 5.508934 0.331835 0.000000 1.570796 0.000000
    5 0.000002 3.569871 2.702894 -1.570798 -1.221731 -1.570795
    6 3.199317 1.546922 0.000000 0.000000 0.000000 1.141566
    7 11.660640 -18.239875 -0.610043 1.570796 0.000000 0.000000
    8 -14.697917 -20.403253 -0.859386 1.570796 0.000000 0.000000
    9 -2.542575 30.124657 2.612532 1.570797 -0.000001 1.570796
    10 0.000000 0.000000 0.000000 3.141592 0.000000 1.570796
    11 2.000000 2.000000 0.000000 0.000000 -1.570796 0.000000
    12 2.000000 -2.000000 -0.000001 0.000000 -1.570796 0.000000
    13 -2.000000 -1.999998 0.000000 0.000000 -1.570796 0.000000
    14 -2.000000 2.000002 0.000000 0.000000 -1.570796 0.000000
    15 0.000000 0.000000 0.000000 3.141592 0.000000 1.570796
    16 2.000000 2.000000 0.000000 0.000000 -1.570796 0.000000
    17 2.000000 -2.000000 -0.000001 0.000000 -1.570796 0.000000
    18 -2.000000 -1.999998 0.000000 0.000000 -1.570796 0.000000
    19 -2.000000 2.000002 0.000000 0.000000 -1.570796 0.000000
    20 0.000000 0.000000 0.000000 3.141592 0.000000 1.570796
    21 2.000000 2.000000 0.000000 0.000000 -1.570796 0.000000
    22 2.000000 -2.000000 -0.000001 0.000000 -1.570796 0.000000
    23 -2.000000 -1.999998 0.000000 0.000000 -1.570796 0.000000
    24 -2.000000 2.000002 0.000000 0.000000 -1.570796 0.000000
    25 2.542155 30.124657 2.612530 -1.570796 -3.141592 1.570796
    26 0.000000 0.000000 0.000000 3.141592 0.000000 1.570796
    27 2.000000 1.999998 0.000001 0.000000 -1.570796 0.000000
    28 2.000000 -2.000002 0.000000 0.000000 -1.570796 0.000000
    29 -2.000000 -2.000000 0.000000 0.000000 -1.570796 0.000000
    30 -2.000000 2.000000 0.000000 0.000000 -1.570796 0.000000
    31 0.000000 0.000000 0.000000 3.141592 0.000000 1.570796
    32 2.000000 1.999998 0.000001 0.000000 -1.570796 0.000000
    33 2.000000 -2.000002 0.000000 0.000000 -1.570796 0.000000
    34 -2.000000 -2.000000 0.000000 0.000000 -1.570796 0.000000
    35 -2.000000 2.000000 0.000000 0.000000 -1.570796 0.000000
    36 0.000000 0.000000 0.000000 3.141592 0.000000 1.570796
    37 2.000000 1.999998 0.000001 0.000000 -1.570796 0.000000
    38 2.000000 -2.000002 0.000000 0.000000 -1.570796 0.000000
    39 -2.000000 -2.000000 0.000000 0.000000 -1.570796 0.000000
    40 -2.000000 2.000000 0.000000 0.000000 -1.570796 0.000000
    41 -0.002752 7.041919 -9.941090 0.000000 0.000000 -0.000043
    42 3.806029 12.134512 -1.233394 6.229045 -2.062258 -0.244229
    43 3.448653 9.395416 -0.282623 1.545838 -3.132837 1.309107
    44 0.010113 -8.498736 -0.068977 0.144224 0.662533 0.173639
    45 -0.488518 -2.755602 -0.228260 -0.854769 -0.065650 -0.331400
    46 0.039887 -1.546198 0.022041 -1.871391 -0.006663 0.041767
    47 0.028786 -1.087450 -0.062173 -0.318681 -0.007023 0.004902
    48 0.250027 -2.820665 -0.238396 -0.552653 -0.155197 -0.177390
    49 -0.049759 -1.594604 0.022352 -1.692609 -0.002732 -0.044381
    50 -0.034142 -1.163937 0.049625 -0.998466 0.007910 -0.025959
    51 0.957766 -2.746780 -0.090302 0.165424 -0.223746 0.095945
    52 -0.033420 -1.397129 -0.015163 -0.248262 0.005789 -0.011866
    53 -0.022360 -0.957436 0.010971 -0.329891 0.006604 -0.015424
    54 -1.180681 -2.507217 -0.193859 -0.988602 0.140810 -0.391040
    55 -0.024967 -1.127840 0.017597 -1.364398 -0.005129 -0.056674
    56 -0.020057 -0.902687 0.021809 -0.713798 0.007922 -0.028176
    57 0.606948 -1.197277 0.185379 0.455111 -0.925243 -0.684416
    58 1.426549 -0.267106 0.087043 0.093188 -0.260641 -1.002736
    59 1.053895 -0.140009 0.028385 0.033433 -0.179999 -0.730272
    60 0.120153 -0.050270 -0.054489 0.287569 3.110905 1.561085
    61 -3.751344 4.464349 -4.528765 -0.877067 -5.167795 -0.426132
    62 -0.008528 -8.426980 0.033605 -0.132294 -0.773278 0.215614
    63 0.447953 -2.798986 -0.200443 -0.928571 -0.223099 0.202211
    64 -0.032909 -1.491923 0.008846 -0.635164 0.014513 -0.007381
    65 -0.027022 -1.127703 -0.020210 -1.224260 0.024233 -0.022076
    66 -0.249534 -2.846964 -0.174213 -0.434857 -0.182998 0.147751
    67 0.043235 -1.660503 0.080387 -1.017380 -0.016688 0.001727
    68 0.031729 -1.141298 0.054932 -1.091808 -0.012110 0.006059
    69 -0.963866 -2.785145 -0.085350 -0.011521 -0.037434 0.101211
    70 0.028479 -1.403067 -0.005448 -0.471563 -0.008269 -0.020110
    71 0.021413 -0.946062 0.020046 -0.591871 -0.011769 -0.023801
    72 1.164475 -2.543940 -0.170330 -0.839763 -0.344009 0.135803
    73 0.024032 -1.136855 -0.001725 -0.785833 0.004362 0.041887
    74 0.014898 -0.899614 -0.015942 -0.966253 0.007562 0.048610
    75 -0.586770 -1.264477 0.200161 -0.123442 0.196326 -2.622843
    76 1.557992 0.035243 0.016848 -0.013655 -0.005385 0.702874
    77 1.117947 0.048424 -0.005766 0.004024 -0.019793 -0.149526
    78 -0.139399 -0.111698 0.014397 0.635980 -0.028572 1.346092
    79 -1.295811 8.889960 -0.204276 1.570809 -0.000001 -1.570790
  time 7
    0 -0.260652 7.044448 -9.936873 -0.000001 -0.000001 -0.000042
    1 -0.003704 -0.088852 0.612631 1.570801 1.570796 0.000000
    2 -0.260609 3.228450 2.399904 0.000000 0.000000 3.141592
    3 0.779929 3.228417 2.399793 0.000000 -3.141592 0.000000
    4 -0.009866 5.508934 0.331835 0.000000 1.570796 0.000000
    5 0.000002 3.569871 2.702894 -1.570798 -1.221731 -1.570795
    6 3.226662 1.558641 0.000000 0.000000 0.000000 1.151335
    7 11.660640 -18.239875 -0.610043 1.570796 0.000000 0.000000
    8 -14.697917 -20.403253 -0.859386 1.570796 0.000000 0.000000
    9 -2.542575 30.124657 2.612532 1.570797 -0.000001 1.570796
    10 0.000000 0.000000 0.000000 3.141592 0.000000 1.570796
    11 2.000000 2.000000 0.000000 0.000000 -1.570796 0.000000
    12 2.000000 -2.000000 -0.000001 0.000000 -1.570796 0.000000
    13 -2.000000 -1.999998 0.000000 0.000000 -1.570796 0.000000
    14 -2.000000 2.000002 0.000000 0.000000 -1.570796 0.000000
    15 0.000000 0.000000 0.000000 3.141592 0.000000 1.570796
    16 2.000000 2.000000 0.000000 0.000000 -1.570796 0.000000
    17 2.000000 -2.000000 -0.000001 0.000000 -1.570796 0.000000
    18 -2.000000 -1.999998 0.000000 0.000000 -1.570796 0.000000
    19 -2.000000 2.000002 0.000000 0.000000 -1.570796 0.000000
    20 0.000000 0.000000 0.000000 3.141592 0.000000 1.570796
    21 2.000000 2.000000 0.000000 0.000000 -1.570796 0.000000
    22 2.000000 -2.000000 -0.000001 0.000000 -1.570796 0.000000
    23 -2.000000 -1.999998 0.000000 0.000000 -1.570796 0.000000
    24 -2.000000 2.000002 0.000000 0.000000 -1.570796 0.000000
    25 2.542155 30.124657 2.612530 -1.570796 -3.141592 1.570796
    26 0.000000 0.000000 0.000000 3.141592 0.000000 1.570796
    27 2.000000 1.999998 0.000001 0.000000 -1.570796 0.000000
    28 2.000000 -2.000002 0.000000 0.000000 -1.570796 0.000000
    29 -2.000000 -2.000000 0.000000 0.000000 -1.570796 0.000000
    30 -2.000000 2.000000 0.000000 0.000000 -1.570796 0.000000
    31 0.000000 0.000000 0.000000 3.141592 0.000000 1.570796
    32 2.000000 1.999998 0.000001 0.000000 -1.570796 0.000000
    33 2.000000 -2.000002 0.000000 0.000000 -1.570796 0.000000
    34 -2.000000 -2.000000 0.000000 0.000000 -1.570796 0.000000
    35 -2.000000 2.000000 0.000000 0.000000 -1.570796 0.000000
    36 0.000000 0.000000 0.000000 3.141592 0.000000 1.570796
    37 2.000000 1.999998 0.000001 0.000000 -1.570796 0.000000
    38 2.000000 -2.000002 0.000000 0.000000 -1.570796 0.000000
    39 -2.000000 -2.000000 0.000000 0.000000 -1.570796 0.000000
    40 -2.000000 2.000000 0.000000 0.000000 -1.570796 0.000000
    41 -0.002752 7.041919 -9.941090 0.000000 0.000000 -0.000043
    42 3.806029 12.134512 -1.233394 6.229045 -2.062258 -0.244229
    43 3.448653 9.395416 -0.282623 1.545838 -3.132837 1.309107
    44 0.010113 -8.498736 -0.068977 0.144224 0.662533 0.173639
    45 -0.488518 -2.755602 -0.228260 -0.854769 -0.065650 -0.331400
    46 0.039887 -1.546198 0.022041 -1.871391 -0.006663 0.041767
    47 0.028786 -1.087450 -0.062173 -0.318681 -0.007023 0.004902
    48 0.250027 -2.820665 -0.238396 -0.552653 -0.155197 -0.177390
    49 -0.049759 -1.594604 0.022352 -1.692609 -0.002732 -0.044381
    50 -0.034142 -1.163937 0.049625 -0.998466 0.007910 -0.025959
    51 0.957766 -2.746780 -0.090302 0.165424 -0.223746 0.095945
    52 -0.033420 -1.397129 -0.015163 -0.248262 0.005789 -0.011866
    53 -0.022360 -0.957436 0.010971 -0.329891 0.006604 -0.015424
    54 -1.180681 -2.507217 -0.193859 -0.988602 0.140810 -0.391040
    55 -0.024967 -1.127840 0.017597 -1.364398 -0.005129 -0.056674
    56 -0.020057 -0.902687 0.021809 -0.713798 0.007922 -0.028176
    57 0.606948 -1.197277 0.185379 0.455111 -0.925243 -0.684416
    58 1.426549 -0.267106 0.087043 0.093188 -0.260641 -1.002736
    59 1.053895 -0.140009 0.028385 0.033433 -0.179999 -0.730272
    60 0.120153 -0.050270 -0.054489 0.287569 3.110905 1.561085
    61 -3.751344 4.464349 -4.528765 -0.877067 -5.167795 -0.426132
    62 -0.008528 -8.426980 0.033605 -0.132294 -0.773278 0.215614
    63 0.447953 -2.798986 -0.200443 -0.928571 -0.223099 0.202211
    64 -0.032909 -1.491923 0.008846 -0.635164 0.014513 -0.007381
    65 -0.027022 -1.127703 -0.020210 -1.224260 0.024233 -0.022076
    66 -0.249534 -2.846964 -0.174213 -0.434857 -0.182998 0.147751
    67 0.043235 -1.660503 0.080387 -1.017380 -0.016688 0.001727
    68 0.031729 -1.141298 0.054932 -1.091808 -0.012110 0.006059
    69 -0.963866 -2.785145 -0.085350 -0.011521 -0.037434 0.101211
    70 0.028479 -1.403067 -0.005448 -0.471563 -0.008269 -0.020110
    71 0.021413 -0.946062 0.020046 -0.591871 -0.011769 -0.023801
    72 1.164475 -2.543940 -0.170330 -0.839763 -0.344009 0.135803
    73 0.024032 -1.136855 -0.001725 -0.785833 0.004362 0.041887
    74 0.014898 -0.899614 -0.015942 -0.966253 0.007562 0.048610
    75 -0.586770 -1.264477 0.200161 -0.123442 0.196326 -2.622843
    76 1.557992 0.035243 0.016848 -0.013655 -0.005385 0.702874
    77 1.117947 0.048424 -0.005766 0.004024 -0.019793 -0.149526
    78 -0.139399 -0.111698 0.014397 0.635980 -0.028572 1.346092
    79 -1.295811 8.889960 -0.204276 1.570809 -0.000001 -1.570790
  time 8
    0 -0.260652 7.044448 -9.936873 -0.000001 -0.000001 -0.000042
    1 -0.003704 -0.088852 0.612631 1.570801 1.570796 0.000000
    2 -0.260609 3.228450 2.399904 0.000000 0.000000 3.141592
    3 0.779929 3.228417 2.399793 0.000000 -3.141592 0.000000
    4 -0.009866 5.508934 0.331835 0.000000 1.570796 0.000000
    5 0.000002 3.569871 2.702894 -1.570798 -1.221731 -1.570795
    6 3.254007 1.570360 0.000000 0.000000 0.000000 1.160582
    7 11.660640 -18.239875 -0.610043 1.570796 0.000000 0.000000
    8 -14.697917 -20.403253 -0.859386 1.570796 0.000000 0.000000
    9 -2.542575 30.124657 2.612532 1.570797 -0.000001 1.570796
    10 0.000000 0.000000 0.000000 3.141592 0.000000 1.570796
    11 2.000000 2.000000 0.000000 0.000000 -1.570796 0.000000
    12 2.000000 -2.000000 -0.000001 0.000000 -1.570796 0.000000
    13 -2.000000 -1.999998 0.000000 0.000000 -1.570796 0.000000
    14 -2.000000 2.000002 0.000000 0.000000 -1.570796 0.000000
    15 0.000000 0.000000 0.000000 3.141592 0.000000 1.570796
    16 2.000000 2.000000 0.000000 0.000000 -1.570796 0.000000
    17 2.000000 -2.000000 -0.000001 0.000000 -1.570796 0.000000
    18 -2.000000 -1.999998 0.000000 0.000000 -1.570796 0.000000
    19 -2.000000 2.000002 0.000000 0.000000 -1.570796 0.000000
    20 0.000000 0.000000 0.000000 3.141592 0.000000 1.570796
    21 2.000000 2.000000 0.000000 0.000000 -1.570796 0.000000
    22 2.000000 -2.000000 -0.000001 0.000000 -1.570796 0.000000
    23 -2.000000 -1.999998 0.000000 0.000000 -1.570796 0.000000
    24 -2.000000 2.000002 0.000000 0.000000 -1.570796 0.000000
    25 2.542155 30.124657 2.612530 -1.570796 -3.141592 1.570796
    26 0.000000 0.000000 0.000000 3.141592 0.000000 1.570796
    27 2.000000 1.999998 0.000001 0.000000 -1.570796 0.000000
    28 2.000000 -2.000002 0.000000 0.000000 -1.570796 0.000000
    29 -2.000000 -2.000000 0.000000 0.000000 -1.570796 0.000000
    30 -2.000000 2.000000 0.000000 0.000000 -1.570796 0.000000
    31 0.000000 0.000000 0.000000 3.141592 0.000000 1.570796
    32 2.000000 1.999998 0.000001 0.000000 -1.570796 0.000000
    33 2.000000 -2.000002 0.000000 0.000000 -1.570796 0.000000
    34 -2.000000 -2.000000 0.000000 0.000000 -1.570796 0.000000
    35 -2.000000 2.000000 0.000000 0.000000 -1.570796 0.000000
    36 0.000000 0.000000 0.000000 3.141592 0.000000 1.570796
    37 2.000000 1.999998 0.000001 0.000000 -1.570796 0.000000
    38 2.000000 -2.000002 0.000000 0.000000 -1.570796 0.000000
    39 -2.000000 -2.000000 0.000000 0.000000 -1.570796 0.000000
    40 -2.000000 2.000000 0.000000 0.000000 -1.570796 0.000000
    41 -0.002752 7.041919 -9.941090 0.000000 0.000000 -0.000043
    42 3.806029 12.134512 -1.233394 6.229045 -2.062258 -0.244229
    43 3.448653 9.395416 -0.282623 1.545838 -3.132837 1.309107
    44 0.010113 -8.498736 -0.068977 0.144224 0.662533 0.173639
    45 -0.488518 -2.755602 -0.228260 -0.854769 -0.065650 -0.331400
    46 0.039887 -1.546198 0.022041 -1.871391 -0.006663 0.041767
    47 0.028786 -1.087450 -0.062173 -0.318681 -0.007023 0.004902
    48 0.250027 -2.820665 -0.238396 -0.552653 -0.155197 -0.177390
    49 -0.049759 -1.594604 0.022352 -1.692609 -0.002732 -0.044381
    50 -0.034142 -1.163937 0.049625 -0.998466 0.007910 -0.025959
    51 0.957766 -2.746780 -0.090302 0.165424 -0.223746 0.095945
    52 -0.033420 -1.397129 -0.015163 -0.248262 0.005789 -0.011866
    53 -0.022360 -0.957436 0.010971 -0.329891 0.006604 -0.015424
    54 -1.180681 -2.507217 -0.193859 -0.988602 0.140810 -0.391040
    55 -0.024967 -1.127840 0.017597 -1.364398 -0.005129 -0.056674
    56 -0.020057 -0.902687 0.021809 -0.713798 0.007922 -0.028176
    57 0.606948 -1.197277 0.185379 0.455111 -0.925243 -0.684416
    58 1.426549 -0.267106 0.087043 0.093188 -0.260641 -1.002736
    59 1.053895 -0.140009 0.028385 0.033433 -0.179999 -0.730272
    60 0.120153 -0.050270 -0.054489 0.287569 3.110905 1.561085
    61 -3.751344 4.464349 -4.528765 -0.877067 -5.167795 -0.426132
    62 -0.008528 -8.426980 0.033605 -0.132294 -0.773278 0.215614
    63 0.447953 -2.798986 -0.200443 -0.928571 -0.223099 0.202211
    64 -0.032909 -1.491923 0.008846 -0.635164 0.014513 -0.007381
    65 -0.027022 -1.127703 -0.020210 -1.224260 0.024233 -0.022076
    66 -0.249534 -2.846964 -0.174213 -0.434857 -0.182998 0.147751
    67 0.043235 -1.660503 0.080387 -1.017380 -0.016688 0.001727
    68 0.031729 -1.141298 0.054932 -1.091808 -0.012110 0.006059
    69 -0.963866 -2.785145 -0.085350 -0.011521 -0.037434 0.101211
    70 0.028479 -1.403067 -0.005448 -0.471563 -0.008269 -0.020110
    71 0.021413 -0.946062 0.020046 -0.591871 -0.011769 -0.023801
    72 1.164475 -2.543940 -0.170330 -0.839763 -0.344009 0.135803
    73 0.024032 -1.136855 -0.001725 -0.785833 0.004362 0.041887
    74 0.014898 -0.899614 -0.015942 -0.966253 0.007562 0.048610
    75 -0.586770 -1.264477 0.200161 -0.123442 0.196326 -2.622843
    76 1.557992 0.035243 0.016848 -0.013655 -0.005385 0.702874
    77 1.117947 0.048424 -0.005766 0.004024 -0.019793 -0.149526
    78 -0.139399 -0.111698 0.014397 0.635980 -0.028572 1.346092
    79 -1.295811 8.889960 -0.204276 1.570809 -0.000001 -1.570790
  time 9
    0 -0.260652 7.044448 -9.936873 -0.000001 -0.000001 -0.000042
    1 -0.003704 -0.088852 0.612631 1.570801 1.570796 0.000000
    2 -0.260609 3.228450 2.399904 0.000000 0.000000 3.141592
    3 0.779929 3.228417 2.399793 0.000000 -3.141592 0.000000
    4 -0.009866 5.508934 0.331835 0.000000 1.570796 0.000000
    5 0.000002 3.569871 2.702894 -1.570798 -1.221731 -1.570795
    6 3.277445 1.582080 0.000000 0.000000 0.000000 1.169232
    7 11.660640 -18.239875 -0.610043 1.570796 0.000000 0.000000
    8 -14.697917 -20.403253 -0.859386 1.570796 0.000000 0.000000
    9 -2.542575 30.124657 2.612532 1.570797 -0.000001 1.570796
    10 0.000000 0.000000 0.000000 3.141592 0.000000 1.570796
    11 2.000000 2.000000 0.000000 0.000000 -1.570796 0.000000
    12 2.000000 -2.000000 -0.000001 0.000000 -1.570796 0.000000
    13 -2.000000 -1.999998 0.000000 0.000000 -1.570796 0.000000
    14 -2.000000 2.000002 0.000000 0.000000 -1.570796 0.000000
    15 0.000000 0.000000 0.000000 3.141592 0.000000 1.570796
    16 2.000000 2.000000 0.000000 0.000000 -1.570796 0.000000
    17 2.000000 -2.000000 -0.000001 0.000000 -1.570796 0.000000
    18 -2.000000 -1.999998 0.000000 0.000000 -1.570796 0.000000
    19 -2.000000 2.000002 0.000000 0.000000 -1.570796 0.000000
    20 0.000000 0.000000 0.000000 3.141592 0.000000 1.570796
    21 2.000000 2.000000 0.000000 0.000000 -1.570796 0.000000
    22 2.000000 -2.000000 -0.000001 0.000000 -1.570796 0.000000
    23 -2.000000 -1.999998 0.000000 0.000000 -1.570796 0.000000
    24 -2.000000 2.000002 0.000000 0.000000 -1.570796 0.000000
    25 2.542155 30.124657 2.612530 -1.570796 -3.141592 1.570796
    26 0.000000 0.000000 0.000000 3.141592 0.000000 1.570796
    27 2.000000 1.999998 0.000001 0.000000 -1.570796 0.000000
    28 2.000000 -2.000002 0.000000 0.000000 -1.570796 0.000000
    29 -2.000000 -2.000000 0.000000 0.000000 -1.570796 0.000000
    30 -2.000000 2.000000 0.000000 0.000000 -1.570796 0.000000
    31 0.000000 0.000000 0.000000 3.141592 0.000000 1.570796
    32 2.000000 1.999998 0.000001 0.000000 -1.570796 0.000000
    33 2.000000 -2.000002 0.000000 0.000000 -1.570796 0.000000
    34 -2.000000 -2.000000 0.000000 0.000000 -1.570796 0.000000
    35 -2.000000 2.000000 0.000000 0.000000 -1.570796 0.000000
    36 0.000000 0.000000 0.000000 3.141592 0.000000 1.570796
    37 2.000000 1.999998 0.000001 0.000000 -1.570796 0.000000
    38 2.000000 -2.000002 0.000000 0.000000 -1.570796 0.000000
    39 -2.000000 -2.000000 0.000000 0.000000 -1.570796 0.000000
    40 -2.000000 2.000000 0.000000 0.000000 -1.570796 0.000000
    41 -0.002752 7.041919 -9.941090 0.000000 0.000000 -0.000043
    42 3.806029 12.134512 -1.233394 6.229045 -2.062258 -0.244229
    43 3.448653 9.395416 -0.282623 1.545838 -3.132837 1.309107
    44 0.010113 -8.498736 -0.068977 0.144224 0.662533 0.173639
    45 -0.488518 -2.755602 -0.228260 -0.854769 -0.065650 -0.331400
    46 0.039887 -1.546198 0.022041 -1.871391 -0.006663 0.041767
    47 0.028786 -1.087450 -0.062173 -0.318681 -0.007023 0.004902
    48 0.250027 -2.820665 -0.238396 -0.552653 -0.155197 -0.177390
    49 -0.049759 -1.594604 0.022352 -1.692609 -0.002732 -0.044381
    50 -0.034142 -1.163937 0.049625 -0.998466 0.007910 -0.025959
    51 0.957766 -2.746780 -0.090302 0.165424 -0.223746 0.095945
    52 -0.033420 -1.397129 -0.015163 -0.248262 0.005789 -0.011866
    53 -0.022360 -0.957436 0.010971 -0.329891 0.006604 -0.015424
    54 -1.180681 -2.507217 -0.193859 -0.988602 0.140810 -0.391040
    55 -0.024967 -1.127840 0.017597 -1.364398 -0.005129 -0.056674
    56 -0.020057 -0.902687 0.021809 -0.713798 0.007922 -0.028176
    57 0.606948 -1.197277 0.185379 0.455111 -0.925243 -0.684416
    58 1.426549 -0.267106 0.087043 0.093188 -0.260641 -1.002736
    59 1.053895 -0.140009 0.028385 0.033433 -0.179999 -0.730272
    60 0.120153 -0.050270 -0.054489 0.287569 3.110905 1.561085
    61 -3.751344 4.464349 -4.528765 -0.877067 -5.167795 -0.426132
    62 -0.008528 -8.426980 0.033605 -0.132294 -0.773278 0.215614
    63 0.447953 -2.798986 -0.200443 -0.928571 -0.223099 0.202211
    64 -0.032909 -1.491923 0.008846 -0.635164 0.014513 -0.007381
    65 -0.027022 -1.127703 -0.020210 -1.224260 0.024233 -0.022076
    66 -0.249534 -2.846964 -0.174213 -0.434857 -0.182998 0.147751
    67 0.043235 -1.660503 0.080387 -1.017380 -0.016688 0.001727
    68 0.031729 -1.141298 0.054932 -1.091808 -0.012110 0.006059
    69 -0.963866 -2.785145 -0.085350 -0.011521 -0.037434 0.101211
    70 0.028479 -1.403067 -0.005448 -0.471563 -0.008269 -0.020110
    71 0.021413 -0.946062 0.020046 -0.591871 -0.011769 -0.023801
    72 1.164475 -2.543940 -0.170330 -0.839763 -0.344009 0.135803
    73 0.024032 -1.136855 -0.001725 -0.785833 0.004362 0.041887
    74 0.014898 -0.899614 -0.015942 -0.966253 0.007562 0.048610
    75 -0.586770 -1.264477 0.200161 -0.123442 0.196326 -2.622843
    76 1.557992 0.035243 0.016848 -0.013655 -0.005385 0.702874
    77 1.117947 0.048424 -0.005766 0.004024 -0.019793 -0.149526
    78 -0.139399 -0.111698 0.014397 0.635980 -0.028572 1.346092
    79 -1.295811 8.889960 -0.204276 1.570809 -0.000001 -1.570790
  time 10
    0 -0.260652 7.044448 -9.936873 -0.000001 -0.000001 -0.000042
    1 -0.003704 -0.088852 0.612631 1.570801 1.570796 0.000000
    2 -0.260609 3.228450 2.399904 0.000000 0.000000 3.141592
    3 0.779929 3.228417 2.399793 0.000000 -3.141592 0.000000
    4 -0.009866 5.508934 0.331835 0.000000 1.570796 0.000000
    5 0.000002 3.569871 2.702894 -1.570798 -1.221731 -1.570795
    6 3.003999 1.449263 0.000000 0.000000 0.000000 1.071917
    7 11.660640 -18.239875 -0.610043 1.570796 0.000000 0.000000
    8 -14.697917 -20.403253 -0.859386 1.570796 0.000000 0.000000
    9 -2.542575 30.124657 2.612532 1.570797 -0.000001 1.570796
    10 0.000000 0.000000 0.000000 3.141592 0.000000 1.570796
    11 2.000000 2.000000 0.000000 0.000000 -1.570796 0.000000
    12 2.000000 -2.000000 -0.000001 0.000000 -1.570796 0.000000
    13 -2.000000 -1.999998 0.000000 0.000000 -1.570796 0.000000
    14 -2.000000 2.000002 0.000000 0.000000 -1.570796 0.000000
    15 0.000000 0.000000 0.000000 3.141592 0.000000 1.570796
    16 2.000000 2.000000 0.000000 0.000000 -1.570796 0.000000
    17 2.000000 -2.000000 -0.000001 0.000000 -1.570796 0.000000
    18 -2.000000 -1.999998 0.000000 0.000000 -1.570796 0.000000
    19 -2.000000 2.000002 0.000000 0.000000 -1.570796 0.000000
    20 0.000000 0.000000 0.000000 3.141592 0.000000 1.570796
    21 2.000000 2.000000 0.000000 0.000000 -1.570796 0.000000
    22 2.000000 -2.000000 -0.000001 0.000000 -1.570796 0.000000
    23 -2.000000 -1.999998 0.000000 0.000000 -1.570796 0.000000
    24 -2.000000 2.000002 0.000000 0.000000 -1.570796 0.000000
    25 2.542155 30.124657 2.612530 -1.570796 -3.141592 1.570796
    26 0.000000 0.000000 0.000000 3.141592 0.000000 1.570796
    27 2.000000 1.999998 0.000001 0.000000 -1.570796 0.000000
    28 2.000000 -2.000002 0.000000 0.000000 -1.570796 0.000000
    29 -2.000000 -2.000000 0.000000 0.000000 -1.570796 0.000000
    30 -2.000000 2.000000 0.000000 0.000000 -1.570796 0.000000
    31 0.000000 0.000000 0.000000 3.141592 0.000000 1.570796
    32 2.000000 1.999998 0.000001 0.000000 -1.570796 0.000000
    33 2.000000 -2.000002 0.000000 0.000000 -1.570796 0.000000
    34 -2.000000 -2.000000 0.000000 0.000000 -1.570796 0.000000
    35 -2.000000 2.000000 0.000000 0.000000 -1.570796 0.000000
    36 0.000000 0.000000 0.000000 3.141592 0.000000 1.570796
    37 2.000000 1.999998 0.000001 0.000000 -1.570796 0.000000
    38 2.000000 -2.000002 0.000000 0.000000 -1.570796 0.000000
    39 -2.000000 -2.000000 0.000000 0.000000 -1.570796 0.000000
    40 -2.000000 2.000000 0.000000 0.000000 -1.570796 0.000000
    41 -0.002752 7.041919 -9.941090 0.000000 0.000000 -0.000043
    42 3.806029 12.134512 -1.233394 6.229045 -2.062258 -0.244229
    43 3.448653 9.395416 -0.282623 1.545838 -3.132837 1.309107
    44 0.010113 -8.498736 -0.068977 0.144224 0.662533 0.173639
    45 -0.488518 -2.755602 -0.228260 -0.854769 -0.065650 -0.331400
    46 0.039887 -1.546198 0.022041 -1.871391 -0.006663 0.041767
    47 0.028786 -1.087450 -0.062173 -0.318681 -0.007023 0.004902
    48 0.250027 -2.820665 -0.238396 -0.552653 -0.155197 -0.177390
    49 -0.049759 -1.594604 0.022352 -1.692609 -0.002732 -0.044381
    50 -0.034142 -1.163937 0.049625 -0.998466 0.007910 -0.025959
    51 0.957766 -2.746780 -0.090302 0.165424 -0.223746 0.095945
    52 -0.033420 -1.397129 -0.015163 -0.248262 0.005789 -0.011866
    53 -0.022360 -0.957436 0.010971 -0.329891 0.006604 -0.015424
    54 -1.180681 -2.507217 -0.193859 -0.988602 0.140810 -0.391040
    55 -0.024967 -1.127840 0.017597 -1.364398 -0.005129 -0.056674
    56 -0.020057 -0.902687 0.021809 -0.713798 0.007922 -0.028176
    57 0.606948 -1.197277 0.185379 0.455111 -0.925243 -0.684416
    58 1.426549 -0.267106 0.087043 0.093188 -0.260641 -1.002736
    59 1.053895 -0.140009 0.028385 0.033433 -0.179999 -0.730272
    60 0.120153 -0.050270 -0.054489 0.287569 3.110905 1.561085
    61 -3.751344 4.464349 -4.528765 -0.877067 -5.167795 -0.426132
    62 -0.008528 -8.426980 0.033605 -0.132294 -0.773278 0.215614
    63 0.447953 -2.798986 -0.200443 -0.928571 -0.223099 0.202211
    64 -0.032909 -1.491923 0.008846 -0.635164 0.014513 -0.007381
    65 -0.027022 -1.127703 -0.020210 -1.224260 0.024233 -0.022076
    66 -0.249534 -2.846964 -0.174213 -0.434857 -0.182998 0.147751
    67 0.043235 -1.660503 0.080387 -1.017380 -0.016688 0.001727
    68 0.031729 -1.141298 0.054932 -1.091808 -0.012110 0.006059
    69 -0.963866 -2.785145 -0.085350 -0.011521 -0.037434 0.101211
    70 0.028479 -1.403067 -0.005448 -0.471563 -0.008269 -0.020110
    71 0.021413 -0.946062 0.020046 -0.591871 -0.011769 -0.023801
    72 1.164475 -2.543940 -0.170330 -0.839763 -0.344009 0.135803
    73 0.024032 -1.136855 -0.001725 -0.785833 0.004362 0.041887
    74 0.014898 -0.899614 -0.015942 -0.966253 0.007562 0.048610
    75 -0.586770 -1.264477 0.200161 -0.123442 0.196326 -2.622843
    76 1.557992 0.035243 0.016848 -0.013655 -0.005385 0.702874
    77 1.117947 0.048424 -0.005766 0.004024 -0.019793 -0.149526
    78 -0.139399 -0.111698 0.014397 0.635980 -0.028572 1.346092
    79 -1.295811 8.889960 -0.204276 1.570809 -0.000001 -1.570790
end
