// Created by Crowbar 0.68
version 1
nodes
  0 "root" -1
  1 "Bone01" 0
  2 "Bone_Lefthand" 1
  3 "Bone13" 2
  4 "Bone14" 3
  5 "Bone15" 4
  6 "ValveBiped.Bip01_L_Finger32" 5
  7 "ValveBiped.Bip01_L_Finger31" 4
  8 "ValveBiped.Bip01_L_Finger3" 3
  9 "Bone17" 2
  10 "Bone18" 9
  11 "Bone19" 10
  12 "ValveBiped.Bip01_L_Finger22" 11
  13 "ValveBiped.Bip01_L_Finger21" 10
  14 "ValveBiped.Bip01_L_Finger2" 9
  15 "Bone21" 2
  16 "Bone22" 15
  17 "Bone23" 16
  18 "ValveBiped.Bip01_L_Finger12" 17
  19 "ValveBiped.Bip01_L_Finger11" 16
  20 "ValveBiped.Bip01_L_Finger1" 15
  21 "Bone09" 2
  22 "Bone10" 21
  23 "Bone11" 22
  24 "ValveBiped.Bip01_L_Finger42" 23
  25 "ValveBiped.Bip01_L_Finger41" 22
  26 "ValveBiped.Bip01_L_Finger4" 21
  27 "Bone05" 2
  28 "Bone06" 27
  29 "Bone07" 28
  30 "ValveBiped.Bip01_L_Finger02" 29
  31 "ValveBiped.Bip01_L_Finger01" 28
  32 "ValveBiped.Bip01_L_Finger0" 27
  33 "ValveBiped.Bip01_L_Hand" 2
  34 "Bone_L_Upper" 1
  35 "ValveBiped.Bip01_L_UpperArm" 34
  36 "ValveBiped.Bip01_L_Forearm" 1
  37 "Bone04" 0
  38 "Bone_Righthand" 37
  39 "Bone39" 38
  40 "Bone40" 39
  41 "Bone41" 40
  42 "ValveBiped.Bip01_R_Finger32" 41
  43 "ValveBiped.Bip01_R_Finger31" 40
  44 "ValveBiped.Bip01_R_Finger3" 39
  45 "Bone35" 38
  46 "Bone36" 45
  47 "Bone37" 46
  48 "ValveBiped.Bip01_R_Finger22" 47
  49 "ValveBiped.Bip01_R_Finger21" 46
  50 "ValveBiped.Bip01_R_Finger2" 45
  51 "Bone31" 38
  52 "Bone32" 51
  53 "Bone33" 52
  54 "ValveBiped.Bip01_R_Finger12" 53
  55 "ValveBiped.Bip01_R_Finger11" 52
  56 "ValveBiped.Bip01_R_Finger1" 51
  57 "Bone43" 38
  58 "Bone44" 57
  59 "Bone45" 58
  60 "ValveBiped.Bip01_R_Finger42" 59
  61 "ValveBiped.Bip01_R_Finger41" 58
  62 "ValveBiped.Bip01_R_Finger4" 57
  63 "Bone27" 38
  64 "Bone28" 63
  65 "Bone29" 64
  66 "ValveBiped.Bip01_R_Finger02" 65
  67 "ValveBiped.Bip01_R_Finger01" 64
  68 "ValveBiped.Bip01_R_Finger0" 63
  69 "ValveBiped.Bip01_R_Hand" 38
  70 "Bone_R_Upper" 37
  71 "ValveBiped.Bip01_R_UpperArm" 70
  72 "ValveBiped.Bip01_R_Forearm" 37
  73 "Bone_Se_Hand-L" 2
  74 "Bone_Se_Hand-R" 38
  75 "Bip01 L Clavicle" -1
  76 "Bip01 L UpperArm" 75
  77 "Bip01 L Forearm" 76
  78 "Bip01 L Hand" 77
  79 "gungnir" 78
  80 "Bone064" 79
  81 "magicball" 80
  82 "Bone070" 80
  83 "Bone073" 80
  84 "Bone071" 80
  85 "Bone072" 80
  86 "Bone074" 80
  87 "Bone076" 80
  88 "Bone075" 80
  89 "Bone069" 80
  90 "Bone053" 89
  91 "Bone060" 89
  92 "Bone048" 89
  93 "Bone066" 80
  94 "Bone052" 93
  95 "Bone063" 93
  96 "Bone050" 93
  97 "Bone065" 80
  98 "Bone054" 97
  99 "Bone058" 97
  100 "Bone046" 97
  101 "adlightningbon" -1
  102 "gungnir_chagrefxB02" 80
  103 "gungnir_chagrefxB03" 80
  104 "gungnir_chagrefxc01" 80
  105 "gungnir_chagrefx02" 80
  106 "gungnir_chagrefx03" 80
  107 "gungnir_chagrefxd01" 80
  108 "Bone077" -1
  109 "Dummy001" -1
  110 "Dummy005" 109
  111 "Dummy003" 109
  112 "Dummy004" 109
  113 "Dummy002" 109
  114 "Dummy006" -1
  115 "Dummy007" 114
  116 "Dummy008" 114
  117 "Dummy009" 114
  118 "Dummy010" 114
  119 "Dummy011" -1
  120 "Dummy012" 119
  121 "Dummy013" 119
  122 "Dummy014" 119
  123 "Dummy015" 119
  124 "Dummy016" -1
  125 "Dummy017" 124
  126 "Dummy018" 124
  127 "Dummy019" 124
  128 "Dummy020" 124
  129 "Bone078" -1
  130 "efxline1" -1
  131 "efelecdumr" -1
  132 "efelecdums" 131
  133 "Dummy81021" -1
  134 "Dummy01119" -1
  135 "Dummy01219" 134
  136 "Dummy01319" 134
  137 "Dummy01419" 134
  138 "Dummy01519" 134
  139 "Dummy01619" -1
  140 "Dummy01719" 139
  141 "Dummy01819" 139
  142 "Dummy01919" 139
  143 "Dummy02019" 139
  144 "Dummy8102119" -1
  145 "Dummy8102219" 144
  146 "Dummy8102319" 144
  147 "Dummy8102419" 144
  148 "Dummy8102519" 144
  149 "ballfx02" 81
  150 "ballfx01" 81
  151 "shoot_elecr" -1
  152 "shoot_elecs" 151
  153 "gungnir_blade001" -1
  154 "gungnir_blade003" -1
  155 "gungnir_blade002" -1
end
skeleton
  time 0
    0 0.000000 1.629157 0.541027 0.000000 0.000000 0.000000
    1 9.310103 0.168160 -0.149879 3.138909 -0.000224 -1.566807
    2 -0.071920 -8.498734 -0.104137 -0.025046 0.287591 0.014898
    3 -0.488518 -2.755610 -0.228260 0.106453 0.010332 -0.264490
    4 0.039887 -1.479792 0.029853 -0.055394 -0.000001 -0.000002
    5 0.028789 -1.075739 -0.023109 0.002099 0.000000 0.000000
    6 0.007988 0.172184 -0.118553 -1.598091 -0.216549 -1.570593
    7 0.080660 0.135929 -0.203919 -1.506824 -0.066185 -1.662786
    8 0.117288 -0.155554 -0.604544 -1.412988 -0.374558 -1.569222
    9 0.250027 -2.820667 -0.238396 0.041826 -0.002921 0.008443
    10 -0.049760 -1.680544 0.100479 0.019826 0.000000 -0.000003
    11 -0.034142 -1.148319 0.084782 -0.040115 0.000000 0.000000
    12 -0.018589 0.129953 -0.123721 -1.294580 0.001302 -1.635383
    13 -0.006160 0.170065 -0.110169 -1.280084 -0.068681 -1.597215
    14 0.047100 -0.104074 -0.352264 -1.243368 -0.257298 -1.694346
    15 0.957766 -2.746782 -0.090302 -0.017220 -0.162277 0.191557
    16 -0.033419 -1.397133 -0.011256 0.013930 0.000000 0.000000
    17 -0.022361 -0.957438 0.018784 0.003845 0.000000 -0.000001
    18 -0.022325 0.045422 -0.038284 -1.125544 -0.129230 -1.681412
    19 -0.042900 -0.061275 -0.071212 -1.124462 -0.060454 -1.586099
    20 0.063741 -0.109104 -0.248158 -1.142813 -0.125805 -1.693583
    21 -1.180682 -2.507221 -0.193859 0.082998 0.013295 -0.477912
    22 -0.024971 -1.123930 0.017596 -0.018064 -0.000003 -0.000007
    23 -0.020051 -0.890970 0.010091 -0.060798 0.000001 0.000004
    24 -0.011721 0.093267 0.017949 -1.687855 -0.079155 -1.575164
    25 0.048862 -0.085541 0.028626 -1.715605 -0.034569 -1.653190
    26 0.173919 -0.198416 -0.336163 -1.668104 -0.422317 -1.710956
    27 0.583510 -1.197279 0.185379 0.158050 -0.404973 -0.364292
    28 1.535929 0.010252 0.005009 -0.002964 -0.012980 0.000892
    29 1.100770 0.004522 -0.010680 -0.002796 0.015973 0.003459
    30 -0.267710 0.037512 -0.093907 2.913812 -0.143386 0.078467
    31 -0.029266 0.205408 -0.329287 2.788574 -0.255486 -0.188917
    32 0.204373 0.521055 -0.268577 2.886669 0.042206 -0.230367
    33 0.195697 -0.010059 -0.293538 -1.333586 0.150863 -1.672749
    34 1.257181 8.762590 -0.153713 -1.570562 0.002683 -1.566808
    35 -0.093500 -0.114213 -0.738866 -1.570842 0.061811 0.002096
    36 0.010843 0.093624 -0.081439 -3.141462 0.041719 -1.568236
    37 -9.310107 -5.231259 -12.513384 -3.136609 -0.010027 1.574745
    38 0.096935 -8.450418 -0.009359 -0.032963 -0.297909 -0.004665
    39 0.447956 -2.798988 -0.200437 0.106457 -0.010396 0.265098
    40 -0.032910 -1.480202 0.004945 -0.055405 0.000001 -0.000004
    41 -0.027019 -1.076921 -0.020208 0.002095 -0.000002 -0.000001
    42 0.006927 0.005329 -0.181358 -1.528500 -0.248579 -1.611362
    43 -0.052313 0.038589 -0.230757 -1.592493 -0.043415 -1.528515
    44 -0.232601 -0.209656 -0.420669 -1.713790 -0.167173 -1.438930
    45 -0.249531 -2.846966 -0.174202 0.041904 -0.000125 -0.008397
    46 0.043239 -1.683939 0.096019 0.019757 0.002824 -0.000165
    47 0.031729 -1.160826 0.058846 -0.040183 0.000644 0.008371
    48 -0.038065 0.069168 -0.159884 -1.816986 0.066178 -1.575392
    49 -0.025151 0.088764 -0.068835 -1.817843 0.044510 -1.568287
    50 -0.102916 -0.186983 -0.272246 -1.833683 -0.232962 -1.472375
    51 -0.963863 -2.785145 -0.085340 -0.017228 0.162278 -0.191553
    52 0.028477 -1.403070 0.006275 0.013937 0.000003 -0.000002
    53 0.021413 -0.957781 0.020044 0.003850 0.000001 0.000001
    54 -0.004241 0.043709 -0.080204 -2.014997 -0.186996 -1.460723
    55 0.015383 -0.089136 -0.030010 -2.006083 0.036346 -1.568629
    56 -0.022610 -0.212357 -0.177905 -1.933161 -0.118801 -1.518895
    57 1.164478 -2.543934 -0.170327 0.083001 -0.013289 0.477914
    58 0.024035 -1.129042 0.017804 -0.018074 0.000004 0.000009
    59 0.014894 -0.883987 -0.019848 -0.060797 -0.000006 -0.000004
    60 -0.067138 0.063250 -0.010962 -0.899214 -0.014515 -1.600326
    61 -0.151180 -0.007393 -0.070065 -0.913061 -0.118819 -1.408558
    62 -0.178164 -0.244682 -0.357067 -1.159916 -0.384260 -1.556110
    63 -0.586769 -1.264471 0.200168 -0.152090 -0.410515 -2.814812
    64 1.522835 0.058674 0.016850 0.001405 0.008981 -0.046880
    65 1.117948 0.048422 -0.005766 -0.000243 -0.025198 0.065418
    66 -0.263409 -0.117640 -0.015659 0.000036 -0.082210 -0.026800
    67 0.007707 -0.334358 -0.191575 0.070788 -0.181563 0.282364
    68 0.225563 -0.567923 -0.420714 0.119895 -0.183798 0.223460
    69 -0.203683 -0.095654 -0.328305 -1.745077 0.075142 -1.515382
    70 -1.393460 8.839182 -0.239439 1.580804 -0.005024 -1.566848
    71 0.036020 0.082816 -0.692656 -1.570769 0.065989 0.001276
    72 -0.088586 0.054021 -0.088593 0.010231 0.033800 -1.560851
    73 0.120153 -0.050270 -0.054489 -2.854024 0.030688 -1.580508
    74 -0.139399 -0.111694 0.014400 0.285395 -0.031353 1.580313
    75 15.631033 0.897055 -11.194193 -0.124316 -0.576456 0.654580
    76 5.082370 0.000000 0.000000 -0.569172 0.893237 -1.442811
    77 7.159143 0.000000 0.000001 0.000000 0.000000 -1.478976
    78 11.537226 0.000002 -0.000001 -1.992040 -0.078982 0.084532
    79 3.902194 1.397964 -1.141953 2.558465 0.253146 -0.182021
    80 13.838988 -0.000002 -0.000004 0.000000 0.000000 0.000000
    81 4.445511 -2.304811 1.444954 0.000000 0.498387 1.570796
    82 2.988470 -1.615379 2.472674 0.749127 -0.286789 -1.340332
    83 5.742834 -1.518139 2.600308 -0.738399 -0.246311 -1.743235
    84 2.949463 -2.881330 0.312952 -0.983482 -0.667108 -1.354557
    85 5.821222 -2.929062 0.183344 1.011314 -0.719578 -1.858369
    86 4.018951 0.000002 3.275840 0.000000 -0.481368 -3.141592
    87 3.901695 -2.591221 -1.466045 -2.025459 0.250560 -2.672173
    88 3.906082 2.629982 -1.487974 2.024578 0.252235 2.668630
    89 8.767773 -3.497379 -1.978727 -1.570796 0.514872 -1.570796
    90 -0.000001 0.000004 -0.000004 0.000000 0.349066 -0.000001
    91 -0.000001 0.000004 -0.000004 -0.000001 0.872666 -0.000001
    92 -0.553841 0.000010 4.322889 -0.000001 0.000000 0.000000
    93 8.609081 0.000002 4.050127 0.000000 -1.570451 -3.141592
    94 -0.000001 -0.000002 0.000000 0.000000 0.349066 0.000000
    95 -0.000001 -0.000002 0.000000 0.000000 0.872665 0.000000
    96 -0.548677 0.000002 4.481583 0.000000 0.000000 0.000000
    97 8.647364 3.533756 -1.999311 1.570796 0.514872 1.570796
    98 -0.000004 0.000000 0.000002 0.000000 0.349066 0.000000
    99 -0.000004 0.000000 0.000002 0.000000 0.872665 0.000000
    100 -0.601788 -0.000004 4.443306 0.000000 0.000000 0.000000
    101 10.085581 -33.174187 -7.964130 1.545101 -0.556542 -3.031507
    102 -174.345306 -8.559185 37.803642 2.691965 1.069871 -2.093600
    103 -174.345322 -8.559189 37.803646 2.691965 1.069871 -2.093600
    104 -169.929108 -19.589922 4.942961 0.185069 -0.608022 0.332936
    105 -160.195587 -14.075453 23.812449 0.312410 -1.396518 1.339535
    106 -160.195587 -14.075453 23.812449 0.308973 -1.394623 1.343025
    107 -133.210510 -5.597330 39.366745 -0.911486 0.308585 0.576328
    108 -1.129465 105.064857 -94.531570 0.000000 -1.570796 1.570797
    109 -54.629181 95.405228 -105.621490 0.000000 0.000000 0.000000
    110 -20.657700 20.657799 0.000000 0.000000 0.000000 0.000000
    111 20.657402 20.657394 0.000000 0.000000 0.000000 0.000000
    112 20.657104 -20.657013 0.000000 0.000000 0.000000 0.000000
    113 -20.657402 -20.657394 0.000000 0.000000 0.000000 0.000000
    114 -151.437851 95.331436 -105.621490 0.000000 0.000000 0.000000
    115 -20.925354 20.925446 0.000000 0.000000 0.000000 0.000000
    116 20.925049 20.925056 0.000000 0.000000 0.000000 0.000000
    117 20.924744 -20.924667 0.000000 0.000000 0.000000 0.000000
    118 -20.925049 -20.925056 0.000000 0.000000 0.000000 0.000000
    119 -198.566437 94.644356 -105.621490 0.000000 0.000000 0.000000
    120 -18.315002 18.315094 0.000000 0.000000 0.000000 0.000000
    121 18.314743 18.314751 0.000000 0.000000 0.000000 0.000000
    122 18.314484 -18.314407 0.000000 0.000000 0.000000 0.000000
    123 -18.314743 -18.314751 0.000000 0.000000 0.000000 0.000000
    124 -102.608643 95.733276 -105.621490 0.000000 0.000000 0.000000
    125 -20.526428 20.526512 0.000000 0.000000 0.000000 0.000000
    126 20.526123 20.526123 0.000000 0.000000 0.000000 0.000000
    127 20.525826 -20.525742 0.000000 0.000000 0.000000 0.000000
    128 -20.526123 -20.526123 0.000000 0.000000 0.000000 0.000000
    129 -6.275730 130.839447 -94.531570 0.000000 -1.570796 1.570797
    130 -31.874031 41.054298 -8.832749 0.441228 1.104907 -2.963469
    131 -30.758938 33.882729 -8.994408 -0.310691 -0.892452 0.023825
    132 0.000000 -16.474930 -0.063568 0.000000 0.000000 0.000000
    133 49.934433 -107.322235 -63.138485 -0.449173 0.062892 -0.940101
    134 -126.931534 -115.770370 -102.498177 -2.090075 -0.983247 2.622558
    135 -18.315022 18.315098 0.000015 0.000000 0.000000 0.000000
    136 18.314754 18.314754 0.000000 0.000000 0.000000 0.000000
    137 18.314484 -18.314396 -0.000031 0.000000 0.000000 0.000000
    138 -18.314754 -18.314754 -0.000031 0.000000 0.000000 0.000000
    139 3.862509 -110.677277 158.652771 0.504917 -0.042813 -0.212784
    140 -20.526432 20.526506 0.000000 0.000000 0.000000 0.000000
    141 20.526123 20.526115 0.000046 0.000000 0.000000 0.000000
    142 20.525826 -20.525768 0.000015 0.000000 0.000000 0.000000
    143 -20.526129 -20.526127 0.000000 0.000000 0.000000 0.000000
    144 105.400169 -192.359131 -15.706745 -0.449173 0.062892 -0.940101
    145 -18.315002 18.315092 -0.000015 0.000000 0.000000 0.000000
    146 18.314728 18.314749 -0.000015 0.000000 0.000000 0.000000
    147 18.314453 -18.314417 0.000023 0.000000 0.000000 0.000000
    148 -18.314758 -18.314764 0.000011 0.000000 0.000000 0.000000
    149 0.041273 0.000002 0.000001 0.000000 -1.570451 0.000000
    150 0.041275 0.000002 0.000003 0.000000 -1.570796 0.000000
    151 -9.338733 88.517570 -9.786967 3.113818 0.103152 2.964524
    152 -0.000013 -62.840500 -0.000013 0.000000 0.000000 0.000000
    153 -49.579002 -167.638489 -18.123295 3.112200 -0.406702 1.269945
    154 -96.773468 -130.844482 0.455969 0.836412 0.398371 0.848420
    155 95.151062 -145.380676 36.046635 -0.901921 0.453801 1.873521
end
triangles
$0b_gungnir_elecfx04
  92 1.002320 -34.214848 -16.092731 -0.196153 -0.965798 0.169580 1.000000 0.000000 1 92 1.000000
  92 2.164912 -34.691128 -17.230494 -0.196153 -0.965798 0.169580 0.499022 0.499022 1 92 1.000000
  92 1.384685 -34.253933 -15.858700 -0.196153 -0.965798 0.169580 0.499022 0.000000 1 92 1.000000
$0b_gungnir_elecfx04
  92 1.782550 -34.652046 -17.464525 -0.196153 -0.965798 0.169580 1.000000 0.499022 1 92 1.000000
  92 2.164912 -34.691128 -17.230494 -0.196153 -0.965798 0.169580 0.499022 0.499022 1 92 1.000000
  92 1.002320 -34.214848 -16.092731 -0.196153 -0.965798 0.169580 1.000000 0.000000 1 92 1.000000
$0b_gungnir_elecfx04
  80 19.625605 -42.625275 -5.325842 0.601401 -0.451201 -0.659344 0.000000 1.000000 1 80 1.000000
  80 16.639332 -46.255417 -3.273818 0.601401 -0.451201 -0.659344 0.000000 0.837573 1 80 1.000000
  80 14.902938 -42.145142 -8.229248 0.763091 -0.524717 -0.377313 0.228963 1.000000 1 80 1.000000
$0b_gungnir_elecfx04
  80 10.947653 -47.505524 -14.793201 0.905208 -0.286712 -0.313679 0.499022 0.829746 1 80 1.000000
  80 9.860581 -48.357353 -7.623978 0.871612 -0.235046 -0.430169 0.272016 0.741683 1 80 1.000000
  80 10.050739 -49.565636 -13.246058 0.808446 -0.427598 -0.404444 0.499022 0.741683 1 80 1.000000
$0b_gungnir_elecfx04
  80 10.404181 -45.939606 -8.108364 0.765388 -0.433509 -0.475659 0.272016 0.833659 1 80 1.000000
  80 9.860581 -48.357353 -7.623978 0.871612 -0.235046 -0.430169 0.272016 0.741683 1 80 1.000000
  80 10.947653 -47.505524 -14.793201 0.905208 -0.286712 -0.313679 0.499022 0.829746 1 80 1.000000
$0b_gungnir_elecfx04
  80 11.967570 -42.969254 -15.702024 0.772230 -0.466433 -0.431394 0.499022 1.000000 1 80 1.000000
  80 10.404181 -45.939606 -8.108364 0.765388 -0.433509 -0.475659 0.272016 0.833659 1 80 1.000000
  80 10.947653 -47.505524 -14.793201 0.905208 -0.286712 -0.313679 0.499022 0.829746 1 80 1.000000
$0b_gungnir_elecfx04
  80 16.198332 -42.992241 -11.003710 0.744608 -0.625547 -0.232916 0.270059 1.000000 1 80 1.000000
  80 10.404181 -45.939606 -8.108364 0.765388 -0.433509 -0.475659 0.272016 0.833659 1 80 1.000000
  80 11.967570 -42.969254 -15.702024 0.772230 -0.466433 -0.431394 0.499022 1.000000 1 80 1.000000
$0b_gungnir_elecfx04
  80 16.198332 -42.992241 -11.003710 0.744608 -0.625547 -0.232916 0.270059 1.000000 1 80 1.000000
  80 11.175482 -45.929176 -7.255893 0.662008 -0.468598 -0.584946 0.228963 0.833659 1 80 1.000000
  80 10.404181 -45.939606 -8.108364 0.765388 -0.433509 -0.475659 0.272016 0.833659 1 80 1.000000
$0b_gungnir_elecfx04
  80 14.902938 -42.145142 -8.229248 0.763091 -0.524717 -0.377313 0.228963 1.000000 1 80 1.000000
  80 11.175482 -45.929176 -7.255893 0.662008 -0.468598 -0.584946 0.228963 0.833659 1 80 1.000000
  80 16.198332 -42.992241 -11.003710 0.744608 -0.625547 -0.232916 0.270059 1.000000 1 80 1.000000
$0b_gungnir_elecfx04
  80 14.902938 -42.145142 -8.229248 0.763091 -0.524717 -0.377313 0.228963 1.000000 1 80 1.000000
  80 16.639332 -46.255417 -3.273818 0.601401 -0.451201 -0.659344 0.000000 0.837573 1 80 1.000000
  80 11.175482 -45.929176 -7.255893 0.662008 -0.468598 -0.584946 0.228963 0.833659 1 80 1.000000
$0b_gungnir_elecfx04
  80 16.639332 -46.255417 -3.273818 0.601401 -0.451201 -0.659344 0.000000 0.837573 1 80 1.000000
  80 14.931719 -48.334915 -2.016427 0.651938 -0.386726 -0.652242 0.000000 0.743640 1 80 1.000000
  80 11.175482 -45.929176 -7.255893 0.662008 -0.468598 -0.584946 0.228963 0.833659 1 80 1.000000
$0b_gungnir_elecfx04
  80 11.175482 -45.929176 -7.255893 0.662008 -0.468598 -0.584946 0.228963 0.833659 1 80 1.000000
  80 14.931719 -48.334915 -2.016427 0.651938 -0.386726 -0.652242 0.000000 0.743640 1 80 1.000000
  80 10.275027 -48.218533 -6.465964 0.752408 -0.280323 -0.596071 0.228963 0.741683 1 80 1.000000
$0b_gungnir_elecfx04
  80 14.931719 -48.334915 -2.016427 0.651938 -0.386726 -0.652242 0.000000 0.743640 1 80 1.000000
  80 14.161654 -50.747383 -1.303743 0.682291 -0.392666 -0.616679 0.000000 0.649706 1 80 1.000000
  80 10.275027 -48.218533 -6.465964 0.752408 -0.280323 -0.596071 0.228963 0.741683 1 80 1.000000
$0b_gungnir_elecfx04
  80 10.275027 -48.218533 -6.465964 0.752408 -0.280323 -0.596071 0.228963 0.741683 1 80 1.000000
  80 14.161654 -50.747383 -1.303743 0.682291 -0.392666 -0.616679 0.000000 0.649706 1 80 1.000000
  80 10.124891 -50.767677 -6.261003 0.808017 -0.256033 -0.530617 0.227006 0.651663 1 80 1.000000
$0b_gungnir_elecfx04
  80 14.161654 -50.747383 -1.303743 0.682291 -0.392666 -0.616679 0.000000 0.649706 1 80 1.000000
  80 11.904219 -54.093269 1.290865 0.720496 -0.402971 -0.564358 0.000000 0.499022 1 80 1.000000
  80 10.124891 -50.767677 -6.261003 0.808017 -0.256033 -0.530617 0.227006 0.651663 1 80 1.000000
$0b_gungnir_elecfx04
  80 10.124891 -50.767677 -6.261003 0.808017 -0.256033 -0.530617 0.227006 0.651663 1 80 1.000000
  80 11.904219 -54.093269 1.290865 0.720496 -0.402971 -0.564358 0.000000 0.499022 1 80 1.000000
  80 9.273619 -54.826077 -5.384142 0.766148 -0.315174 -0.560073 0.225049 0.499022 1 80 1.000000
$0b_gungnir_elecfx04
  80 10.124891 -50.767677 -6.261003 0.808017 -0.256033 -0.530617 0.227006 0.651663 1 80 1.000000
  80 9.273619 -54.826077 -5.384142 0.766148 -0.315174 -0.560073 0.225049 0.499022 1 80 1.000000
  80 9.881585 -51.036781 -7.877262 0.822962 -0.291553 -0.487576 0.272016 0.651663 1 80 1.000000
$0b_gungnir_elecfx04
  80 9.881585 -51.036781 -7.877262 0.822962 -0.291553 -0.487576 0.272016 0.651663 1 80 1.000000
  80 9.273619 -54.826077 -5.384142 0.766148 -0.315174 -0.560073 0.225049 0.499022 1 80 1.000000
  80 8.395204 -54.822914 -6.354131 0.682291 -0.392666 -0.616679 0.272016 0.499022 1 80 1.000000
$0b_gungnir_elecfx04
  80 9.881585 -51.036781 -7.877262 0.822962 -0.291553 -0.487576 0.272016 0.651663 1 80 1.000000
  80 8.395204 -54.822914 -6.354131 0.682291 -0.392666 -0.616679 0.272016 0.499022 1 80 1.000000
  80 6.918795 -51.198250 -12.333963 0.662008 -0.468598 -0.584946 0.499022 0.653620 1 80 1.000000
$0b_gungnir_elecfx04
  80 6.918795 -51.198250 -12.333963 0.662008 -0.468598 -0.584946 0.499022 0.653620 1 80 1.000000
  80 8.395204 -54.822914 -6.354131 0.682291 -0.392666 -0.616679 0.272016 0.499022 1 80 1.000000
  80 4.173946 -54.809616 -11.025002 0.670655 -0.427014 -0.606532 0.499022 0.499022 1 80 1.000000
$0b_gungnir_elecfx04
  80 11.175482 -45.929176 -7.255893 0.662008 -0.468598 -0.584946 0.228963 0.833659 1 80 1.000000
  80 10.275027 -48.218533 -6.465964 0.752408 -0.280323 -0.596071 0.228963 0.741683 1 80 1.000000
  80 10.404181 -45.939606 -8.108364 0.765388 -0.433509 -0.475659 0.272016 0.833659 1 80 1.000000
$0b_gungnir_elecfx04
  80 10.404181 -45.939606 -8.108364 0.765388 -0.433509 -0.475659 0.272016 0.833659 1 80 1.000000
  80 10.275027 -48.218533 -6.465964 0.752408 -0.280323 -0.596071 0.228963 0.741683 1 80 1.000000
  80 9.860581 -48.357353 -7.623978 0.871612 -0.235046 -0.430169 0.272016 0.741683 1 80 1.000000
$0b_gungnir_elecfx04
  80 10.275027 -48.218533 -6.465964 0.752408 -0.280323 -0.596071 0.228963 0.741683 1 80 1.000000
  80 10.124891 -50.767677 -6.261003 0.808017 -0.256033 -0.530617 0.227006 0.651663 1 80 1.000000
  80 9.860581 -48.357353 -7.623978 0.871612 -0.235046 -0.430169 0.272016 0.741683 1 80 1.000000
$0b_gungnir_elecfx04
  80 9.860581 -48.357353 -7.623978 0.871612 -0.235046 -0.430169 0.272016 0.741683 1 80 1.000000
  80 10.124891 -50.767677 -6.261003 0.808017 -0.256033 -0.530617 0.227006 0.651663 1 80 1.000000
  80 9.881585 -51.036781 -7.877262 0.822962 -0.291553 -0.487576 0.272016 0.651663 1 80 1.000000
$0b_gungnir_elecfx04
  80 9.860581 -48.357353 -7.623978 0.871612 -0.235046 -0.430169 0.272016 0.741683 1 80 1.000000
  80 9.881585 -51.036781 -7.877262 0.822962 -0.291553 -0.487576 0.272016 0.651663 1 80 1.000000
  80 10.050739 -49.565636 -13.246058 0.808446 -0.427598 -0.404444 0.499022 0.741683 1 80 1.000000
$0b_gungnir_elecfx04
  80 10.050739 -49.565636 -13.246058 0.808446 -0.427598 -0.404444 0.499022 0.741683 1 80 1.000000
  80 9.881585 -51.036781 -7.877262 0.822962 -0.291553 -0.487576 0.272016 0.651663 1 80 1.000000
  80 6.918795 -51.198250 -12.333963 0.662008 -0.468598 -0.584946 0.499022 0.653620 1 80 1.000000
$0b_gungnir_elecfx04
  80 11.877342 -27.692471 -9.011752 -0.440065 0.682747 0.583266 0.000000 0.281800 1 80 1.000000
  80 11.310360 -30.071882 -6.928729 0.153356 0.475528 0.866230 0.499022 0.500978 1 80 1.000000
  80 12.663950 -28.680935 -8.175761 0.087599 0.482658 0.871417 0.000000 0.500978 1 80 1.000000
$0b_gungnir_elecfx04
  80 11.310360 -30.071882 -6.928729 0.153356 0.475528 0.866230 0.499022 0.500978 1 80 1.000000
  80 11.877342 -27.692471 -9.011752 -0.440065 0.682747 0.583266 0.000000 0.281800 1 80 1.000000
  80 10.531605 -28.924690 -7.745541 -0.216001 0.655608 0.723548 0.499022 0.281800 1 80 1.000000
$0b_gungnir_elecfx04
  80 10.531605 -28.924690 -7.745541 -0.216001 0.655608 0.723548 0.499022 0.281800 1 80 1.000000
  80 11.877342 -27.692471 -9.011752 -0.440065 0.682747 0.583266 0.000000 0.281800 1 80 1.000000
  80 9.861103 -29.194813 -8.673388 -0.827772 0.560189 -0.031316 0.499022 0.168297 1 80 1.000000
$0b_gungnir_elecfx04
  80 11.877342 -27.692471 -9.011752 -0.440065 0.682747 0.583266 0.000000 0.281800 1 80 1.000000
  80 11.353065 -27.856678 -9.833269 -0.797387 0.598335 0.078544 0.000000 0.168297 1 80 1.000000
  80 9.861103 -29.194813 -8.673388 -0.827772 0.560189 -0.031316 0.499022 0.168297 1 80 1.000000
$0b_gungnir_elecfx04
  80 9.861103 -29.194813 -8.673388 -0.827772 0.560189 -0.031316 0.499022 0.168297 1 80 1.000000
  80 11.353065 -27.856678 -9.833269 -0.797387 0.598335 0.078544 0.000000 0.168297 1 80 1.000000
  80 9.390942 -30.044338 -9.727207 -0.863453 0.450479 -0.226975 0.499022 0.000000 1 80 1.000000
$0b_gungnir_elecfx04
  80 11.353065 -27.856678 -9.833269 -0.797387 0.598335 0.078544 0.000000 0.168297 1 80 1.000000
  80 10.808386 -28.743036 -10.828749 -0.863453 0.450479 -0.226975 0.000000 0.000000 1 80 1.000000
  80 9.390942 -30.044338 -9.727207 -0.863453 0.450479 -0.226975 0.499022 0.000000 1 80 1.000000
$0b_gungnir_elecfx04
  80 16.836164 -23.993052 -18.929829 -0.906869 0.365697 0.209412 0.499022 0.250489 1 80 1.000000
  80 18.953495 -7.917433 -6.100702 -0.857113 -0.229388 0.461236 1.000000 0.499022 1 80 1.000000
  80 11.976022 -13.135344 -21.861086 -0.857113 -0.229388 0.461236 0.499022 0.499022 1 80 1.000000
$0b_gungnir_elecfx04
  80 18.953495 -7.917433 -6.100702 -0.857113 -0.229388 0.461236 1.000000 0.499022 1 80 1.000000
  80 16.836164 -23.993052 -18.929829 -0.906869 0.365697 0.209412 0.499022 0.250489 1 80 1.000000
  80 23.825848 -18.777779 -3.168912 -0.927310 0.265574 0.263754 1.000000 0.250489 1 80 1.000000
$0b_gungnir_elecfx04
  80 23.825848 -18.777779 -3.168912 -0.927310 0.265574 0.263754 1.000000 0.250489 1 80 1.000000
  80 16.836164 -23.993052 -18.929829 -0.906869 0.365697 0.209412 0.499022 0.250489 1 80 1.000000
  80 19.182343 -21.424526 -0.804936 -0.797387 0.598335 0.078544 1.000000 0.138943 1 80 1.000000
$0b_gungnir_elecfx04
  80 16.836164 -23.993052 -18.929829 -0.906869 0.365697 0.209412 0.499022 0.250489 1 80 1.000000
  80 12.210260 -26.620953 -16.582371 -0.827896 0.553518 0.090584 0.499022 0.138943 1 80 1.000000
  80 19.182343 -21.424526 -0.804936 -0.797387 0.598335 0.078544 1.000000 0.138943 1 80 1.000000
$0b_gungnir_elecfx04
  80 19.182343 -21.424526 -0.804936 -0.797387 0.598335 0.078544 1.000000 0.138943 1 80 1.000000
  80 12.210260 -26.620953 -16.582371 -0.827896 0.553518 0.090584 0.499022 0.138943 1 80 1.000000
  80 14.158000 -29.742287 3.320358 -0.906869 0.365697 0.209412 1.000000 0.000000 1 80 1.000000
$0b_gungnir_elecfx04
  80 12.210260 -26.620953 -16.582371 -0.827896 0.553518 0.090584 0.499022 0.138943 1 80 1.000000
  80 7.180528 -34.960194 -12.440024 -0.906869 0.365697 0.209412 0.499022 0.000000 1 80 1.000000
  80 14.158000 -29.742287 3.320358 -0.906869 0.365697 0.209412 1.000000 0.000000 1 80 1.000000
$0b_gungnir_elecfx04
  96 12.125577 -32.806801 3.336415 0.216685 0.956816 -0.193779 1.000000 1.000000 1 96 1.000000
  96 12.125274 -32.668983 4.022716 0.216685 0.956816 -0.193779 0.499022 1.000000 1 96 1.000000
  96 14.164125 -33.247234 3.425762 0.216685 0.956816 -0.193779 1.000000 0.499022 1 96 1.000000
$0b_gungnir_elecfx04
  96 14.164125 -33.247234 3.425762 0.216685 0.956816 -0.193779 1.000000 0.499022 1 96 1.000000
  96 12.125274 -32.668983 4.022716 0.216685 0.956816 -0.193779 0.499022 1.000000 1 96 1.000000
  96 14.163824 -33.109421 4.112063 0.216685 0.956816 -0.193779 0.499022 0.499022 1 96 1.000000
$0b_gungnir_elecfx03
  101 14.216301 -32.788692 -7.307116 -0.096338 0.995110 0.021815 0.504892 0.994129 1 101 1.000000
  101 11.313924 -32.967331 -11.975554 -0.096338 0.995110 0.021815 0.504892 0.500978 1 101 1.000000
  101 8.857237 -33.381042 -3.952707 -0.096338 0.995110 0.021815 0.996086 0.994129 1 101 1.000000
$0b_gungnir_elecfx03
  101 8.857237 -33.381042 -3.952707 -0.096338 0.995110 0.021815 0.996086 0.994129 1 101 1.000000
  101 11.313924 -32.967331 -11.975554 -0.096338 0.995110 0.021815 0.504892 0.500978 1 101 1.000000
  101 5.954860 -33.559681 -8.621143 -0.096338 0.995110 0.021815 0.996086 0.500978 1 101 1.000000
end
