// Created by Crowbar 0.72

$modelname "supplybox_xmas.mdl"
$cd "."
$cdtexture "."
$cliptotextures
$scale 1.0

$bodygroup "studio"
{
	studio "ref_Xmas_box"
}

$flags 0


$cbox 0 0 0 0 0 0

$bbox 0 0 0 0 0 0

$hbox 0 "present_box" -10.91 -10.41 -0.58 10.93 10.58 30.27

$sequence "idle" {
	"supplybox_xmas_anims\idle"
	fps 30
}
