// Created by Crowbar 0.49.0.0

$modelname "weapons/tfa_cso/c_usas12.mdl"

$Include "csonline_gmod.qci"

$bodygroup "weapon"
{
	studio "v_usas_f_usas_template"
}

$CDMaterials "models\weapons\tfa_cso\usas12\"

$attachment 0 "Bone_Cover" 0.301 -16.632999 -0.9
//$attachment 1 "Bone_Cover" 0.003 -0.048 -0.467

$definebone "Bone01" "" 2.422552 11.398250 -5.991598 -71.013648 10.666011 -29.587827 0.000000 0.000000 -0.000000 0.000002 0.000000 0.000000
$definebone "Bone_Lefthand" "Bone01" -0.021280 -8.563256 -0.000751 -13.527189 -8.430789 25.660259 0.000000 0.000000 0.000000 0.000002 -0.000000 -0.000002
$definebone "Bone_USAS" "Bone_Lefthand" 1.356826 -0.253787 0.970897 83.534902 -60.970661 -61.029421 0.000000 0.000000 0.000000 -0.000002 0.000001 0.000001
$definebone "Bone_Cover" "Bone_USAS" 0.697652 -4.251641 3.687078 -0.000002 0.000001 0.000001 0.000000 0.000000 0.000000 -0.000002 0.000001 0.000001
$definebone "Bone_Magazine" "Bone_USAS" 1.000000 -5.088154 2.193883 -0.000002 0.000001 -3.745825 0.000000 0.000000 0.000000 -0.000002 0.000001 0.000001
$definebone "Bone_Trigger" "Bone_USAS" 1.000000 -1.827746 1.296098 -0.000002 0.000001 0.000001 0.000000 0.000000 0.000000 -0.000002 0.000001 0.000001
$definebone "Bone_Reload" "Bone_USAS" 0.999999 -13.266330 3.484482 -0.000002 0.000001 0.000001 0.000000 0.000000 0.000000 -0.000002 0.000001 0.000001

$sequence "usas_idle" {
	"v_usas_anims\usas_idle"
	fps 16
	loop
	activity "ACT_VM_IDLE" 1
	snap
}
$sequence "usas_shoot1" {
	"v_usas_anims\usas_shoot1"
	{ event 5001 0 "31" }
	fps 16
	activity "ACT_VM_PRIMARYATTACK" 1
	snap
}
$sequence "usas_shoot2" {
	"v_usas_anims\usas_shoot2"
	{ event 5001 0 "33" }
	fps 16
	activity "ACT_VM_PRIMARYATTACK" 2
	snap
}
$sequence "usas_reload" {
	"v_usas_anims\usas_reload"
	{ event 5004 29 "Usas12.Foley1" }
	{ event 5004 62 "Usas12.Foley2" }
	{ event 5004 76 "Usas12.Foley3" }
	{ event 5004 105 "Usas12.Draw" }
	fps 30
	activity "ACT_VM_RELOAD" 1
	snap
}
$sequence "usas_draw" {
	"v_usas_anims\usas_draw"
	{ event 5004 21 "Usas12.Draw" }
	fps 30
	activity "ACT_VM_DRAW" 1
	snap
}
