version 1
nodes
  0 "Bip01 L Forearm" -1
  1 "Bip01 L Hand" 0
  2 "Bone_VSK94" 1
  3 "Bone_Bullet_Case" 2
  4 "Bone_Bullet_Pin" 3
  5 "Bone_Magazine" 2
  6 "Bone_Trigger" 2
  7 "Bip01 R Forearm" -1
  8 "Bip01 R Hand" 7
  9 "Bip01 R Finger0" 8
  10 "Bip01 R Finger01" 9
  11 "Bip01 R Finger02" 10
  12 "Bip01 R Finger1" 8
  13 "Bip01 R Finger11" 12
  14 "Bip01 R Finger12" 13
  15 "Bip01 R Finger2" 8
  16 "Bip01 R Finger21" 15
  17 "Bip01 R Finger22" 16
  18 "Bip01 R Finger3" 8
  19 "Bip01 R Finger31" 18
  20 "Bip01 R Finger32" 19
  21 "Bip01 R Finger4" 8
  22 "Bip01 R Finger41" 21
  23 "Bip01 R Finger42" 22
  24 "Bone_Se_Hand-R" 8
  25 "Bip01 R ForeTwist2" 7
  26 "Bip01 L Finger0" 1
  27 "Bip01 L Finger01" 26
  28 "Bip01 L Finger02" 27
  29 "Bip01 L Finger1" 1
  30 "Bip01 L Finger11" 29
  31 "Bip01 L Finger12" 30
  32 "Bip01 L Finger2" 1
  33 "Bip01 L Finger21" 32
  34 "Bip01 L Finger22" 33
  35 "Bip01 L Finger3" 1
  36 "Bip01 L Finger31" 35
  37 "Bip01 L Finger32" 36
  38 "Bip01 L Finger4" 1
  39 "Bip01 L Finger41" 38
  40 "Bip01 L Finger42" 39
  41 "Bone_Se_Hand-L" 1
  42 "Bip01 L ForeTwist2" 0
end
skeleton
  time 0
    0 10.995540 0.480391 -9.011976 -0.694342 -0.104378 -1.836590
    1 8.499673 0.000000 0.000000 -2.261345 -0.165767 0.027357
    2 2.661024 0.741261 -0.567384 0.229800 -3.010371 1.438894
    3 0.000000 -5.337652 2.548325 0.000000 0.000000 0.000000
    4 -0.550298 -0.033373 0.018664 0.000000 -1.570796 0.000000
    5 0.000000 -4.784472 -1.688848 0.000000 0.000000 0.000000
    6 0.000000 -1.998068 1.608175 0.000000 0.000000 0.000000
    7 1.350795 -11.409033 -10.769508 -0.770745 -0.511779 -0.816071
    8 8.499674 -0.000001 0.000000 2.502333 0.071921 0.152526
    9 1.066141 0.161471 0.665475 -1.992819 -0.892811 0.812422
    10 1.535969 -0.000001 -0.000001 0.000000 0.000000 0.642386
    11 1.100830 0.000001 0.000000 0.000000 0.000000 0.413283
    12 2.725985 -0.106124 1.020465 -0.019588 0.016698 0.025898
    13 1.397574 -0.000001 0.000000 0.000000 0.000000 1.132748
    14 0.957878 0.000001 0.000000 0.000000 0.000000 0.540954
    15 2.818702 -0.176451 0.444443 0.093811 0.154084 0.460205
    16 1.684280 0.000000 0.000002 0.000000 0.000000 1.240528
    17 1.151940 0.000001 0.000001 0.000000 0.000000 0.780990
    18 2.804604 -0.069562 -0.290471 0.175421 0.157288 0.714138
    19 1.480628 -0.000002 0.000002 0.000000 0.000000 1.179300
    20 1.076367 0.000001 -0.000001 0.000000 0.000000 0.683234
    21 2.637184 0.041571 -0.929333 0.296621 0.280637 0.784643
    22 1.124350 0.000001 0.000000 0.000000 0.000000 1.390751
    23 0.891246 0.000000 -0.000001 0.000000 0.000000 0.696453
    24 0.077392 -0.263300 0.143334 -1.316451 3.077101 0.155497
    25 2.428478 -0.000001 0.000000 0.348314 0.000000 0.000000
    26 1.066141 0.161471 -0.665475 2.484769 0.749562 0.986722
    27 1.535968 0.000000 0.000001 0.000000 0.000000 1.180463
    28 1.100830 -0.000001 0.000000 0.000000 0.000000 0.433639
    29 2.725984 -0.106123 -1.020464 -0.049611 -0.051608 -0.044094
    30 1.397575 -0.000001 -0.000001 0.000000 0.000000 0.193579
    31 0.957879 0.000000 0.000000 0.000000 0.000000 0.659944
    32 2.818702 -0.176451 -0.444443 -0.118789 0.036080 0.644560
    33 1.684281 -0.000001 -0.000001 0.000000 0.000000 1.861644
    34 1.151940 0.000000 0.000000 0.000000 0.000000 1.141480
    35 2.804605 -0.069564 0.290472 -0.211325 0.071354 0.840695
    36 1.480629 -0.000001 0.000000 0.000000 0.000000 1.698687
    37 1.076367 0.000000 0.000001 0.000000 0.000000 0.748916
    38 2.637186 0.041571 0.929334 -0.346527 0.088471 0.924980
    39 1.124349 0.000000 0.000000 0.000000 0.000000 1.346295
    40 0.891247 0.000000 0.000000 0.000000 0.000000 0.984495
    41 0.050302 -0.068010 -0.113034 1.724535 0.010837 0.011384
    42 2.428478 0.000000 0.000000 -0.255800 0.000000 0.000000
  time 1
    0 10.995540 0.480391 -9.011976 -0.694342 -0.104378 -1.836590
    1 8.499673 0.000000 0.000000 -2.261345 -0.165767 0.027357
    2 2.661024 0.741261 -0.567384 0.229800 -3.010371 1.438894
    3 0.000000 -5.337652 2.548325 0.000000 0.000000 0.000000
    4 -0.550298 -0.033373 0.018664 0.000000 -1.570796 0.000000
    5 0.000000 -4.784472 -1.688848 0.000000 0.000000 0.000000
    6 0.000000 -1.998068 1.608175 0.000000 0.000000 0.000000
    7 1.350795 -11.409033 -10.769508 -0.770745 -0.511779 -0.816071
    8 8.499674 -0.000001 0.000000 2.502333 0.071921 0.152526
    9 1.066141 0.161471 0.665475 -1.992819 -0.892811 0.812422
    10 1.535969 -0.000001 -0.000001 0.000000 0.000000 0.642386
    11 1.100830 0.000001 0.000000 0.000000 0.000000 0.413283
    12 2.725985 -0.106124 1.020465 -0.019588 0.016698 0.025898
    13 1.397574 -0.000001 0.000000 0.000000 0.000000 1.132748
    14 0.957878 0.000001 0.000000 0.000000 0.000000 0.540954
    15 2.818702 -0.176451 0.444443 0.093811 0.154084 0.460205
    16 1.684280 0.000000 0.000002 0.000000 0.000000 1.240528
    17 1.151940 0.000001 0.000001 0.000000 0.000000 0.780990
    18 2.804604 -0.069562 -0.290471 0.175421 0.157288 0.714138
    19 1.480628 -0.000002 0.000002 0.000000 0.000000 1.179300
    20 1.076367 0.000001 -0.000001 0.000000 0.000000 0.683234
    21 2.637184 0.041571 -0.929333 0.296621 0.280637 0.784643
    22 1.124350 0.000001 0.000000 0.000000 0.000000 1.390751
    23 0.891246 0.000000 -0.000001 0.000000 0.000000 0.696453
    24 0.077392 -0.263300 0.143334 -1.316451 3.077101 0.155497
    25 2.428478 -0.000001 0.000000 0.348314 0.000000 0.000000
    26 1.066141 0.161471 -0.665475 2.484769 0.749562 0.986722
    27 1.535968 0.000000 0.000001 0.000000 0.000000 1.180463
    28 1.100830 -0.000001 0.000000 0.000000 0.000000 0.433639
    29 2.725984 -0.106123 -1.020464 -0.049611 -0.051608 -0.044094
    30 1.397575 -0.000001 -0.000001 0.000000 0.000000 0.193579
    31 0.957879 0.000000 0.000000 0.000000 0.000000 0.659944
    32 2.818702 -0.176451 -0.444443 -0.118789 0.036080 0.644560
    33 1.684281 -0.000001 -0.000001 0.000000 0.000000 1.861644
    34 1.151940 0.000000 0.000000 0.000000 0.000000 1.141480
    35 2.804605 -0.069564 0.290472 -0.211325 0.071354 0.840695
    36 1.480629 -0.000001 0.000000 0.000000 0.000000 1.698687
    37 1.076367 0.000000 0.000001 0.000000 0.000000 0.748916
    38 2.637186 0.041571 0.929334 -0.346527 0.088471 0.924980
    39 1.124349 0.000000 0.000000 0.000000 0.000000 1.346295
    40 0.891247 0.000000 0.000000 0.000000 0.000000 0.984495
    41 0.050302 -0.068010 -0.113034 1.724535 0.010837 0.011384
    42 2.428478 0.000000 0.000000 -0.255800 0.000000 0.000000
end
