version 1
nodes
  0 "root" -1
  1 "Bone04" 0
  2 "Bone_Righthand" 1
  3 "root_tomahawk" 2
  4 "Bone01" 0
  5 "Bone_Lefthand" 4
  6 "Bone13" 5
  7 "Bone14" 6
  8 "Bone15" 7
  9 "Bone17" 5
  10 "Bone18" 9
  11 "Bone19" 10
  12 "Bone21" 5
  13 "Bone22" 12
  14 "Bone23" 13
  15 "Bone09" 5
  16 "Bone10" 15
  17 "Bone11" 16
  18 "Bone05" 5
  19 "Bone06" 18
  20 "Bone07" 19
  21 "Bone_Se_Hand-L" 5
  22 "Bone39" 2
  23 "Bone40" 22
  24 "Bone41" 23
  25 "Bone35" 2
  26 "Bone36" 25
  27 "Bone37" 26
  28 "Bone31" 2
  29 "Bone32" 28
  30 "Bone33" 29
  31 "Bone43" 2
  32 "Bone44" 31
  33 "Bone45" 32
  34 "Bone27" 2
  35 "Bone28" 34
  36 "Bone29" 35
  37 "Bone_Se_Hand-R" 2
end
skeleton
  time 0
    0 0.000114 5.939355 -3.518793 0.000000 0.000000 -0.000030
    1 -7.580056 -11.325516 -1.019276 -0.817140 -3.545016 0.206520
    2 0.096944 -8.450418 -0.009364 -0.084092 -0.017857 0.614641
    3 1.157576 -4.052254 2.009970 0.647530 3.543123 -0.244882
    4 33.145871 -11.917312 -0.628356 0.135340 -2.666493 0.307109
    5 -0.071919 -8.498733 -0.104137 -0.089214 0.256048 -0.169797
    6 -0.488517 -2.755600 -0.228261 -0.420628 0.037645 -0.287536
    7 0.039887 -1.479789 0.029853 -0.679640 0.000000 0.000000
    8 0.028785 -1.075730 -0.023111 -0.577628 0.000000 0.000001
    9 0.250028 -2.820663 -0.238396 -0.192334 -0.018453 -0.128421
    10 -0.049759 -1.680545 0.100480 -0.747290 0.000000 -0.000002
    11 -0.034141 -1.148311 0.084779 -0.466797 0.000000 0.000000
    12 0.957766 -2.746777 -0.090301 -0.044061 -0.162565 -0.001658
    13 -0.033419 -1.397127 -0.011255 -0.453734 0.000000 -0.000001
    14 -0.022360 -0.957435 0.018783 -0.408352 0.000000 0.000000
    15 -1.180680 -2.507215 -0.193861 -0.456115 0.122928 -0.318014
    16 -0.024966 -1.123933 0.017594 -0.612659 0.000000 0.000001
    17 -0.020057 -0.890966 0.010091 -0.530061 0.000000 0.000000
    18 0.583510 -1.197274 0.185377 0.457272 -0.643134 -0.660320
    19 1.535926 0.010245 0.005008 -0.225925 -0.250490 -0.465022
    20 1.100770 0.004527 -0.010676 -0.005984 0.015074 -0.201936
    21 0.120152 -0.050266 -0.054488 0.287568 3.110905 1.561085
    22 0.447952 -2.798983 -0.200442 -1.180010 0.239647 0.248507
    23 -0.032910 -1.480207 0.004936 -1.668858 0.000000 0.000002
    24 -0.027022 -1.076920 -0.020212 -1.015864 0.000000 0.000000
    25 -0.249534 -2.846962 -0.174216 -1.033989 0.218842 0.164949
    26 0.043235 -1.683940 0.096014 -1.738499 0.002823 -0.000167
    27 0.031730 -1.160831 0.058836 -1.160052 0.000642 0.008372
    28 -0.963866 -2.785142 -0.085346 -0.754276 0.267860 0.066915
    29 0.028479 -1.403069 0.006271 -1.364513 0.000000 0.000000
    30 0.021413 -0.957782 0.020047 -0.740299 0.000000 0.000000
    31 1.164475 -2.543938 -0.170328 -0.862922 0.065073 0.386604
    32 0.024033 -1.129041 0.017806 -1.702787 0.000000 0.000001
    33 0.014896 -0.883990 -0.019845 -0.853439 0.000000 0.000000
    34 -0.586770 -1.264475 0.200164 -0.446649 -1.113739 -2.509270
    35 1.522835 0.058681 0.016850 0.627276 -0.441885 0.679144
    36 1.117948 0.048424 -0.005764 -0.016278 0.004644 1.437319
    37 0.079358 -0.123416 -0.055918 0.244227 0.157567 1.472128
  time 1
    0 0.000114 5.939355 -3.522699 0.000000 0.000000 -0.000030
    1 -7.798813 -10.888003 0.754215 -0.823612 -3.620155 0.156347
    2 0.096944 -8.450418 -0.009364 -0.111429 -0.043693 0.481104
    3 1.845097 -4.083505 1.267760 0.844519 3.543602 -0.203935
    4 33.145871 -11.917312 -0.628356 0.135340 -2.666493 0.307109
    5 -0.071919 -8.498733 -0.104137 -0.088225 0.271611 -0.169269
    6 -0.488517 -2.755600 -0.228261 -0.421656 0.037645 -0.287536
    7 0.039887 -1.479789 0.029853 -0.666810 0.000000 0.000000
    8 0.028785 -1.075730 -0.023111 -0.567740 0.000000 0.000001
    9 0.250028 -2.820663 -0.238396 -0.193372 -0.018453 -0.128421
    10 -0.049759 -1.680545 0.100480 -0.738946 0.000000 -0.000002
    11 -0.034141 -1.148311 0.084779 -0.460188 0.000000 0.000000
    12 0.957766 -2.746777 -0.090301 -0.045108 -0.162565 -0.001658
    13 -0.033419 -1.397127 -0.011255 -0.446797 0.000000 -0.000001
    14 -0.022360 -0.957435 0.018783 -0.390664 0.000000 0.000000
    15 -1.180680 -2.507215 -0.193861 -0.457152 0.122928 -0.318014
    16 -0.024966 -1.123933 0.017594 -0.602083 0.000000 0.000001
    17 -0.020057 -0.890966 0.010091 -0.519425 0.000000 0.000000
    18 0.583510 -1.197274 0.185377 0.457427 -0.642799 -0.660574
    19 1.535926 0.010245 0.005008 -0.225865 -0.247745 -0.467829
    20 1.100770 0.004527 -0.010676 -0.005984 0.015074 -0.201936
    21 0.120152 -0.050266 -0.054488 0.287568 3.110905 1.561085
    22 0.447952 -2.798983 -0.200442 -1.180010 0.239647 0.248507
    23 -0.032910 -1.480207 0.004936 -1.668858 0.000000 0.000002
    24 -0.027022 -1.076920 -0.020212 -1.015864 0.000000 0.000000
    25 -0.249534 -2.846962 -0.174216 -1.033989 0.218842 0.164949
    26 0.043235 -1.683940 0.096014 -1.738499 0.002823 -0.000167
    27 0.031730 -1.160831 0.058836 -1.160052 0.000642 0.008372
    28 -0.963866 -2.785142 -0.085346 -0.754276 0.267860 0.066915
    29 0.028479 -1.403069 0.006271 -1.364513 0.000000 0.000000
    30 0.021413 -0.957782 0.020047 -0.740299 0.000000 0.000000
    31 1.164475 -2.543938 -0.170328 -0.862922 0.065073 0.386604
    32 0.024033 -1.129041 0.017806 -1.702787 0.000000 0.000001
    33 0.014896 -0.883990 -0.019845 -0.853439 0.000000 0.000000
    34 -0.586770 -1.264475 0.200164 -0.446649 -1.113739 -2.509270
    35 1.522835 0.058681 0.016850 0.627276 -0.441885 0.679144
    36 1.117948 0.048424 -0.005764 -0.016278 0.004644 1.437277
    37 0.075451 -0.123416 -0.063730 0.245533 0.132272 1.487504
  time 2
    0 0.000114 5.939355 -3.530512 0.000000 0.000000 -0.000030
    1 -8.205075 -10.071571 4.043378 -0.849712 -3.806972 -0.009873
    2 0.096944 -8.450418 -0.009364 -0.166605 -0.079257 0.230609
    3 2.876379 -3.595209 -0.060406 1.236862 3.590383 -0.113624
    4 33.145871 -11.917312 -0.628356 0.135340 -2.666493 0.307109
    5 -0.071919 -8.498733 -0.104137 -0.086653 0.295498 -0.168358
    6 -0.488517 -2.755600 -0.228261 -0.423533 0.037645 -0.287536
    7 0.039887 -1.479789 0.029853 -0.647166 0.000000 0.000000
    8 0.028785 -1.075730 -0.023111 -0.552545 0.000000 0.000001
    9 0.250028 -2.820663 -0.238396 -0.195221 -0.018453 -0.128421
    10 -0.049759 -1.680545 0.100480 -0.726068 0.000000 -0.000002
    11 -0.034141 -1.148311 0.084779 -0.450011 0.000000 0.000000
    12 0.957766 -2.746777 -0.090301 -0.046941 -0.162565 -0.001658
    13 -0.033419 -1.397127 -0.011255 -0.436068 0.000000 -0.000001
    14 -0.022360 -0.957435 0.018783 -0.363520 0.000000 0.000000
    15 -1.180680 -2.507215 -0.193861 -0.458991 0.122928 -0.318014
    16 -0.024966 -1.123933 0.017594 -0.585832 0.000000 0.000001
    17 -0.020057 -0.890966 0.010091 -0.503031 0.000000 0.000000
    18 0.583510 -1.197274 0.185377 0.457711 -0.642258 -0.661098
    19 1.535926 0.010245 0.005008 -0.225782 -0.243359 -0.472276
    20 1.100770 0.004527 -0.010676 -0.005984 0.015074 -0.201936
    21 0.120152 -0.050266 -0.054488 0.287568 3.110905 1.561085
    22 0.447952 -2.798983 -0.200442 -1.180010 0.239647 0.248507
    23 -0.032910 -1.480207 0.004936 -1.668858 0.000000 0.000002
    24 -0.027022 -1.076920 -0.020212 -1.015864 0.000000 0.000000
    25 -0.249534 -2.846962 -0.174216 -1.033989 0.218842 0.164949
    26 0.043235 -1.683940 0.096014 -1.738499 0.002823 -0.000167
    27 0.031730 -1.160831 0.058836 -1.160052 0.000642 0.008372
    28 -0.963866 -2.785142 -0.085346 -0.754276 0.267860 0.066915
    29 0.028479 -1.403069 0.006271 -1.364513 0.000000 0.000000
    30 0.021413 -0.957782 0.020047 -0.740299 0.000000 0.000000
    31 1.164475 -2.543938 -0.170328 -0.862951 0.065073 0.386604
    32 0.024033 -1.129041 0.017806 -1.702787 0.000000 0.000001
    33 0.014896 -0.883990 -0.019845 -0.853439 0.000000 0.000000
    34 -0.586770 -1.264475 0.200164 -0.446649 -1.113739 -2.509270
    35 1.522835 0.058681 0.016850 0.627276 -0.441885 0.679144
    36 1.117948 0.048424 -0.005764 -0.016278 0.004644 1.437319
    37 0.063732 -0.127322 -0.071543 0.248841 0.071942 1.524272
  time 3
    0 0.000114 5.939355 -3.534418 0.000000 0.000000 -0.000030
    1 -8.423832 -9.630152 5.816870 -0.905220 -4.048222 -0.315408
    2 0.096944 -8.450418 -0.009364 -0.229404 -0.091123 0.094604
    3 3.126386 -2.880343 -0.318226 1.553839 3.781336 -0.029722
    4 33.145871 -11.917312 -0.628356 0.135340 -2.666493 0.307109
    5 -0.071919 -8.498733 -0.104137 -0.084606 0.326096 -0.167016
    6 -0.488517 -2.755600 -0.228261 -0.426258 0.037645 -0.287536
    7 0.039887 -1.479789 0.029853 -0.621976 0.000000 0.000000
    8 0.028785 -1.075730 -0.023111 -0.533086 0.000000 0.000001
    9 0.250028 -2.820663 -0.238396 -0.197957 -0.018453 -0.128421
    10 -0.049759 -1.680545 0.100480 -0.709684 0.000000 -0.000002
    11 -0.034141 -1.148311 0.084779 -0.436980 0.000000 0.000000
    12 0.957766 -2.746777 -0.090301 -0.049699 -0.162565 -0.001658
    13 -0.033419 -1.397127 -0.011255 -0.422380 0.000000 -0.000001
    14 -0.022360 -0.957435 0.018783 -0.328777 0.000000 0.000000
    15 -1.180680 -2.507215 -0.193861 -0.461726 0.122928 -0.318014
    16 -0.024966 -1.123933 0.017594 -0.565021 0.000000 0.000001
    17 -0.020057 -0.890966 0.010091 -0.482066 0.000000 0.000000
    18 0.583510 -1.197274 0.185377 0.458178 -0.641510 -0.661909
    19 1.535926 0.010245 0.005008 -0.225650 -0.237486 -0.478237
    20 1.100770 0.004527 -0.010676 -0.005984 0.015074 -0.201936
    21 0.120152 -0.050266 -0.054488 0.287568 3.110905 1.561085
    22 0.447952 -2.798983 -0.200442 -0.710252 0.439664 0.339482
    23 -0.032910 -1.480207 0.004936 -1.370019 0.000000 0.000002
    24 -0.027022 -1.076920 -0.020212 -0.487950 0.000000 0.000000
    25 -0.249534 -2.846962 -0.174216 -0.557624 0.403957 0.285286
    26 0.043235 -1.683940 0.096014 -1.381772 0.002823 -0.000167
    27 0.031730 -1.160831 0.058836 -0.632105 0.000642 0.008372
    28 -0.963866 -2.785142 -0.085346 -0.529677 0.412586 0.239496
    29 0.028479 -1.403069 0.006271 -0.619693 0.000000 0.000000
    30 0.021413 -0.957782 0.020047 -0.212368 0.000000 0.000000
    31 1.164475 -2.543938 -0.170328 -0.538068 0.229154 0.531222
    32 0.024033 -1.129041 0.017806 -0.957962 0.000000 0.000001
    33 0.014896 -0.883990 -0.019845 -0.325514 0.000000 0.000000
    34 -0.586770 -1.264475 0.200164 -0.234402 -0.993172 -2.619240
    35 1.522835 0.058681 0.016850 0.015640 -0.032983 0.452811
    36 1.117948 0.048424 -0.005764 0.002442 -0.015083 0.296702
    37 0.040294 -0.131229 -0.083262 0.253143 -0.000057 1.568340
  time 4
    0 0.000114 5.939355 -3.542231 0.000000 0.000000 -0.000030
    1 -8.380862 -9.641871 5.750462 -1.298624 -4.443217 -1.033046
    2 0.096944 -8.450418 -0.009364 -0.271540 0.230839 0.084246
    3 3.993600 -2.255324 1.435734 -1.408511 -0.754602 -3.108448
    4 33.145871 -11.917312 -0.628356 0.135340 -2.666493 0.307109
    5 -0.071919 -8.498733 -0.104137 -0.082126 0.361697 -0.165218
    6 -0.488517 -2.755600 -0.228261 -0.430012 0.037645 -0.287536
    7 0.039887 -1.479789 0.029853 -0.592698 0.000000 0.000000
    8 0.028785 -1.075730 -0.023111 -0.510452 0.000000 0.000001
    9 0.250028 -2.820663 -0.238396 -0.201730 -0.018453 -0.128421
    10 -0.049759 -1.680545 0.100480 -0.690518 0.000000 -0.000002
    11 -0.034141 -1.148311 0.084779 -0.421846 0.000000 0.000000
    12 0.957766 -2.746777 -0.090301 -0.053444 -0.162565 -0.001658
    13 -0.033419 -1.397127 -0.011255 -0.406472 0.000000 -0.000001
    14 -0.022360 -0.957435 0.018783 -0.288337 0.000000 0.000000
    15 -1.180680 -2.507215 -0.193861 -0.465498 0.122928 -0.318014
    16 -0.024966 -1.123933 0.017594 -0.540814 0.000000 0.000001
    17 -0.020057 -0.890966 0.010091 -0.457674 0.000000 0.000000
    18 0.583510 -1.197274 0.185377 0.458844 -0.640607 -0.663092
    19 1.535926 0.010245 0.005008 -0.225506 -0.230296 -0.485541
    20 1.100770 0.004527 -0.010676 -0.005984 0.015074 -0.201936
    21 0.120152 -0.050266 -0.054488 0.287568 3.110905 1.561085
    22 0.447952 -2.798983 -0.200442 -0.452896 0.384461 0.348950
    23 -0.032910 -1.480207 0.004936 -1.020216 0.000000 0.000002
    24 -0.027022 -1.076920 -0.020212 -0.355482 0.000000 0.000000
    25 -0.249534 -2.846962 -0.174216 -0.341868 0.372412 0.308572
    26 0.043235 -1.683940 0.096014 -1.001488 0.002823 -0.000167
    27 0.031730 -1.160831 0.058836 -0.642050 0.000642 0.008372
    28 -0.963866 -2.785142 -0.085346 -0.232356 0.380815 0.200386
    29 0.028479 -1.403069 0.006271 -0.607240 0.000000 0.000000
    30 0.021413 -0.957782 0.020047 -0.323895 0.000000 0.000000
    31 1.164475 -2.543938 -0.170328 -0.385326 0.101434 0.594585
    32 0.024033 -1.129041 0.017806 -0.918887 0.000000 0.000001
    33 0.014896 -0.883990 -0.019845 -0.139637 0.000000 0.000000
    34 -0.586770 -1.264475 0.200164 -0.234402 -0.993172 -2.619240
    35 1.522835 0.058681 0.016850 0.015640 -0.032983 0.452811
    36 1.117948 0.048424 -0.005764 0.002442 -0.015083 0.296702
    37 0.012949 -0.135135 -0.094981 0.257038 -0.060332 1.605396
  time 5
    0 0.000114 5.939355 -3.546137 0.000000 0.000000 -0.000030
    1 -8.271484 -9.669215 5.566862 1.331388 -4.622163 1.380307
    2 0.096944 -8.450418 -0.009364 -0.290472 0.552515 0.067875
    3 4.091260 -1.434986 5.119440 -1.187035 -0.489647 -3.162118
    4 33.145871 -11.917312 -0.628356 0.135340 -2.666493 0.307109
    5 -0.071919 -8.498733 -0.104137 -0.079294 0.400661 -0.162929
    6 -0.488517 -2.755600 -0.228261 -0.434883 0.037645 -0.287536
    7 0.039887 -1.479789 0.029853 -0.560693 0.000000 0.000000
    8 0.028785 -1.075730 -0.023111 -0.485732 0.000000 0.000001
    9 0.250028 -2.820663 -0.238396 -0.206568 -0.018453 -0.128421
    10 -0.049759 -1.680545 0.100480 -0.669599 0.000000 -0.000002
    11 -0.034141 -1.148311 0.084779 -0.405285 0.000000 0.000000
    12 0.957766 -2.746777 -0.090301 -0.058297 -0.162565 -0.001658
    13 -0.033419 -1.397127 -0.011255 -0.389038 0.000000 -0.000001
    14 -0.022360 -0.957435 0.018783 -0.244098 0.000000 0.000000
    15 -1.180680 -2.507215 -0.193861 -0.470355 0.122928 -0.318014
    16 -0.024966 -1.123933 0.017594 -0.514328 0.000000 0.000001
    17 -0.020057 -0.890966 0.010091 -0.430995 0.000000 0.000000
    18 0.583510 -1.197274 0.185377 0.459780 -0.639537 -0.664680
    19 1.535926 0.010245 0.005008 -0.225314 -0.221930 -0.494011
    20 1.100770 0.004527 -0.010676 -0.005984 0.015074 -0.201936
    21 0.120152 -0.050266 -0.054488 0.287568 3.110905 1.561085
    22 0.447952 -2.798983 -0.200442 -0.297775 0.319560 0.346913
    23 -0.032910 -1.480207 0.004936 -0.754910 0.000000 0.000002
    24 -0.027022 -1.076920 -0.020212 -0.320936 0.000000 0.000000
    25 -0.249534 -2.846962 -0.174216 -0.221661 0.331100 0.311652
    26 0.043235 -1.683940 0.096014 -0.720903 0.002823 -0.000167
    27 0.031730 -1.160831 0.058836 -0.651961 0.000642 0.008372
    28 -0.963866 -2.785142 -0.085346 -0.010186 0.340786 0.152120
    29 0.028479 -1.403069 0.006271 -0.593779 0.000000 0.000000
    30 0.021413 -0.957782 0.020047 -0.435422 0.000000 0.000000
    31 1.164475 -2.543938 -0.170328 -0.292255 -0.023025 0.618902
    32 0.024033 -1.129041 0.017806 -0.883978 0.000000 0.000001
    33 0.014896 -0.883990 -0.019845 -0.082258 0.000000 0.000000
    34 -0.586770 -1.264475 0.200164 -0.234402 -0.993172 -2.619240
    35 1.522835 0.058681 0.016850 0.015640 -0.032983 0.452811
    36 1.117948 0.048424 -0.005764 0.002442 -0.015083 0.296702
    37 -0.018302 -0.142948 -0.106700 0.258740 -0.085599 1.620993
  time 6
    0 0.000114 5.939355 -3.553950 0.000000 0.000000 -0.000030
    1 -8.111323 -9.719998 5.293417 1.235640 -4.466639 1.177223
    2 0.096944 -8.450418 -0.009364 -0.255680 0.542531 0.052269
    3 3.286548 -0.856844 5.963216 -1.199732 -0.439833 3.069764
    4 33.145871 -11.917312 -0.628356 0.135340 -2.666493 0.307109
    5 -0.071919 -8.498733 -0.104137 -0.076164 0.441333 -0.160125
    6 -0.488517 -2.755600 -0.228261 -0.440916 0.037645 -0.287536
    7 0.039887 -1.479789 0.029853 -0.527279 0.000000 0.000000
    8 0.028785 -1.075730 -0.023111 -0.459923 0.000000 0.000001
    9 0.250028 -2.820663 -0.238396 -0.212622 -0.018453 -0.128421
    10 -0.049759 -1.680545 0.100480 -0.647833 0.000000 -0.000002
    11 -0.034141 -1.148311 0.084779 -0.388010 0.000000 0.000000
    12 0.957766 -2.746777 -0.090301 -0.064358 -0.162565 -0.001658
    13 -0.033419 -1.397127 -0.011255 -0.370864 0.000000 -0.000001
    14 -0.022360 -0.957435 0.018783 -0.198000 0.000000 0.000000
    15 -1.180680 -2.507215 -0.193861 -0.476391 0.122928 -0.318014
    16 -0.024966 -1.123933 0.017594 -0.486725 0.000000 0.000001
    17 -0.020057 -0.890966 0.010091 -0.403174 0.000000 0.000000
    18 0.583510 -1.197274 0.185377 0.460984 -0.638337 -0.666758
    19 1.535926 0.010245 0.005008 -0.225110 -0.212546 -0.503525
    20 1.100770 0.004527 -0.010676 -0.005984 0.015074 -0.201936
    21 0.120152 -0.050266 -0.054488 0.287568 3.110905 1.561085
    22 0.447952 -2.798983 -0.200442 -0.212422 0.299767 0.353540
    23 -0.032910 -1.480207 0.004936 -0.621715 0.000000 0.000002
    24 -0.027022 -1.076920 -0.020212 -0.288658 0.000000 0.000000
    25 -0.249534 -2.846962 -0.174216 -0.142759 0.309062 0.308620
    26 0.043235 -1.683940 0.096014 -0.585145 0.002823 -0.000167
    27 0.031730 -1.160831 0.058836 -0.624142 0.000642 0.008372
    28 -0.963866 -2.785142 -0.085346 0.075469 0.324943 0.133308
    29 0.028479 -1.403069 0.006271 -0.544180 0.000000 0.000000
    30 0.021413 -0.957782 0.020047 -0.418549 0.000000 0.000000
    31 1.164475 -2.543938 -0.170328 -0.221874 -0.015631 0.607996
    32 0.024033 -1.129041 0.017806 -0.792925 0.000000 0.000001
    33 0.014896 -0.883990 -0.019845 -0.084193 0.000000 0.000000
    34 -0.586770 -1.264475 0.200164 -0.202068 -0.962355 -2.643186
    35 1.522835 0.058681 0.016850 0.013138 -0.034276 0.451046
    36 1.117948 0.048424 -0.005764 0.000752 -0.015670 0.275308
    37 -0.049553 -0.150761 -0.118420 0.247391 -0.057692 1.614511
  time 7
    0 0.000114 5.939355 -3.557856 0.000000 0.000000 -0.000030
    1 -7.923817 -9.790313 4.945750 1.156354 -4.338566 0.981321
    2 0.096944 -8.450418 -0.009364 -0.166242 0.514111 0.011569
    3 2.208390 -0.052132 6.525733 -1.223404 -0.373255 2.993228
    4 33.145871 -11.917312 -0.628356 0.135340 -2.666493 0.307109
    5 -0.071919 -8.498733 -0.104137 -0.072762 0.482020 -0.156745
    6 -0.488517 -2.755600 -0.228261 -0.448289 0.037645 -0.287536
    7 0.039887 -1.479789 0.029853 -0.493912 0.000000 0.000000
    8 0.028785 -1.075730 -0.023111 -0.434114 0.000000 0.000001
    9 0.250028 -2.820663 -0.238396 -0.219967 -0.018453 -0.128421
    10 -0.049759 -1.680545 0.100480 -0.626007 0.000000 -0.000002
    11 -0.034141 -1.148311 0.084779 -0.370736 0.000000 0.000000
    12 0.957766 -2.746777 -0.090301 -0.071707 -0.162565 -0.001658
    13 -0.033419 -1.397127 -0.011255 -0.352691 0.000000 -0.000001
    14 -0.022360 -0.957435 0.018783 -0.151862 0.000000 0.000000
    15 -1.180680 -2.507215 -0.193861 -0.483747 0.122928 -0.318014
    16 -0.024966 -1.123933 0.017594 -0.459123 0.000000 0.000001
    17 -0.020057 -0.890966 0.010091 -0.375354 0.000000 0.000000
    18 0.583510 -1.197274 0.185377 0.462501 -0.636996 -0.669344
    19 1.535926 0.010245 0.005008 -0.224883 -0.202312 -0.513908
    20 1.100770 0.004527 -0.010676 -0.005984 0.015074 -0.201936
    21 0.120152 -0.050266 -0.054488 0.287568 3.110905 1.561085
    22 0.447952 -2.798983 -0.200442 -0.133547 0.284521 0.361558
    23 -0.032910 -1.480207 0.004936 -0.496399 0.000000 0.000002
    24 -0.027022 -1.076920 -0.020212 -0.262313 0.000000 0.000000
    25 -0.249534 -2.846962 -0.174216 -0.066484 0.286285 0.301837
    26 0.043235 -1.683940 0.096014 -0.459958 0.002823 -0.000167
    27 0.031730 -1.160831 0.058836 -0.552407 0.000642 0.008372
    28 -0.963866 -2.785142 -0.085346 0.147067 0.309926 0.115654
    29 0.028479 -1.403069 0.006271 -0.465091 0.000000 0.000000
    30 0.021413 -0.957782 0.020047 -0.375060 0.000000 0.000000
    31 1.164475 -2.543938 -0.170328 -0.149964 0.003484 0.579592
    32 0.024033 -1.129041 0.017806 -0.682180 0.000000 0.000001
    33 0.014896 -0.883990 -0.019845 -0.089902 0.000000 0.000000
    34 -0.586770 -1.264475 0.200164 -0.125762 -0.882092 -2.697548
    35 1.522835 0.058681 0.016850 0.006701 -0.037592 0.445525
    36 1.117948 0.048424 -0.005764 -0.003599 -0.017120 0.220041
    37 -0.080803 -0.158573 -0.130139 0.218891 0.014307 1.597874
  time 8
    0 0.000114 5.939355 -3.561763 0.000000 0.000000 -0.000030
    1 -7.724592 -9.884066 4.555113 1.100636 -4.230354 0.817111
    2 0.093038 -8.450418 -0.009364 -0.044665 0.469775 -0.045676
    3 1.169295 0.818989 6.740583 -1.276006 -0.296298 2.935827
    4 33.145871 -11.917312 -0.628356 0.135340 -2.666493 0.307109
    5 -0.071919 -8.498733 -0.104137 -0.069090 0.521081 -0.152778
    6 -0.488517 -2.755600 -0.228261 -0.457003 0.037645 -0.287536
    7 0.039887 -1.479789 0.029853 -0.461861 0.000000 0.000000
    8 0.028785 -1.075730 -0.023111 -0.409348 0.000000 0.000001
    9 0.250028 -2.820663 -0.238396 -0.228705 -0.018453 -0.128421
    10 -0.049759 -1.680545 0.100480 -0.605088 0.000000 -0.000002
    11 -0.034141 -1.148311 0.084779 -0.354175 0.000000 0.000000
    12 0.957766 -2.746777 -0.090301 -0.080446 -0.162565 -0.001658
    13 -0.033419 -1.397127 -0.011255 -0.335303 0.000000 -0.000001
    14 -0.022360 -0.957435 0.018783 -0.107662 0.000000 0.000000
    15 -1.180680 -2.507215 -0.193861 -0.492471 0.122928 -0.318014
    16 -0.024966 -1.123933 0.017594 -0.432636 0.000000 0.000001
    17 -0.020057 -0.890966 0.010091 -0.348675 0.000000 0.000000
    18 0.583510 -1.197274 0.185377 0.464385 -0.635565 -0.672520
    19 1.535926 0.010245 0.005008 -0.224631 -0.191382 -0.524987
    20 1.100770 0.004527 -0.010676 -0.005984 0.015074 -0.201936
    21 0.120152 -0.050266 -0.054488 0.287568 3.110905 1.561085
    22 0.447952 -2.798983 -0.200442 -0.063544 0.272722 0.370031
    23 -0.032910 -1.480207 0.004936 -0.383540 0.000000 0.000002
    24 -0.027022 -1.076920 -0.020212 -0.240381 0.000000 0.000000
    25 -0.249534 -2.846962 -0.174216 0.003749 0.264322 0.291974
    26 0.043235 -1.683940 0.096014 -0.349097 0.002823 -0.000167
    27 0.031730 -1.160831 0.058836 -0.454289 0.000642 0.008372
    28 -0.963866 -2.785142 -0.085346 0.204943 0.296348 0.099789
    29 0.028479 -1.403069 0.006271 -0.369975 0.000000 0.000000
    30 0.021413 -0.957782 0.020047 -0.315583 0.000000 0.000000
    31 1.164475 -2.543938 -0.170328 -0.081084 0.029707 0.540127
    32 0.024033 -1.129041 0.017806 -0.564032 0.000000 0.000001
    33 0.014896 -0.883990 -0.019845 -0.099384 0.000000 0.000000
    34 -0.586770 -1.264475 0.200164 -0.033492 -0.770968 -2.759196
    35 1.522835 0.058681 0.016850 -0.002124 -0.042119 0.435959
    36 1.117948 0.048424 -0.005764 -0.009543 -0.018966 0.144511
    37 -0.112054 -0.166386 -0.137951 0.181787 0.112750 1.575486
  time 9
    0 0.000114 5.939355 -3.569576 0.000000 0.000000 -0.000030
    1 -7.537086 -10.001257 4.141038 1.054274 -4.133854 0.687850
    2 0.093038 -8.450418 -0.009364 0.086602 0.411660 -0.110742
    3 0.415366 1.506510 6.666362 -1.362619 -0.230918 2.920329
    4 33.145871 -11.917312 -0.628356 0.135340 -2.666493 0.307109
    5 -0.071919 -8.498733 -0.104137 -0.065132 0.556848 -0.148164
    6 -0.488517 -2.755600 -0.228261 -0.467236 0.037645 -0.287536
    7 0.039887 -1.479789 0.029853 -0.432583 0.000000 0.000000
    8 0.028785 -1.075730 -0.023111 -0.386714 0.000000 0.000001
    9 0.250028 -2.820663 -0.238396 -0.238938 -0.018453 -0.128421
    10 -0.049759 -1.680545 0.100480 -0.585983 0.000000 -0.000002
    11 -0.034141 -1.148311 0.084779 -0.339003 0.000000 0.000000
    12 0.957766 -2.746777 -0.090301 -0.090675 -0.162565 -0.001658
    13 -0.033419 -1.397127 -0.011255 -0.319349 0.000000 -0.000001
    14 -0.022360 -0.957435 0.018783 -0.067222 0.000000 0.000000
    15 -1.180680 -2.507215 -0.193861 -0.502703 0.122928 -0.318014
    16 -0.024966 -1.123933 0.017594 -0.408429 0.000000 0.000001
    17 -0.020057 -0.890966 0.010091 -0.324283 0.000000 0.000000
    18 0.583510 -1.197274 0.185377 0.466639 -0.634030 -0.676339
    19 1.535926 0.010245 0.005008 -0.224355 -0.179900 -0.536613
    20 1.100770 0.004527 -0.010676 -0.005984 0.015074 -0.201936
    21 0.120152 -0.050266 -0.054488 0.287568 3.110905 1.561085
    22 0.447952 -2.798983 -0.200442 -0.004928 0.263244 0.378001
    23 -0.032910 -1.480207 0.004936 -0.287817 0.000000 0.000002
    24 -0.027022 -1.076920 -0.020212 -0.221306 0.000000 0.000000
    25 -0.249534 -2.846962 -0.174216 0.064395 0.244689 0.279666
    26 0.043235 -1.683940 0.096014 -0.256320 0.002823 -0.000167
    27 0.031730 -1.160831 0.058836 -0.347353 0.000642 0.008372
    28 -0.963866 -2.785142 -0.085346 0.249368 0.284759 0.086358
    29 0.028479 -1.403069 0.006271 -0.272460 0.000000 0.000000
    30 0.021413 -0.957782 0.020047 -0.250792 0.000000 0.000000
    31 1.164475 -2.543938 -0.170328 -0.019739 0.058410 0.496012
    32 0.024033 -1.129041 0.017806 -0.450820 0.000000 0.000001
    33 0.014896 -0.883990 -0.019845 -0.112592 0.000000 0.000000
    34 -0.586770 -1.264475 0.200164 0.056500 -0.648599 -2.814997
    35 1.522835 0.058681 0.016850 -0.011769 -0.047032 0.422124
    36 1.117948 0.048424 -0.005764 -0.016003 -0.020836 0.062240
    37 -0.139399 -0.178105 -0.145764 0.143916 0.219921 1.551925
  time 10
    0 0.000114 5.939355 -3.573482 0.000000 0.000000 -0.000030
    1 -7.376925 -10.141886 3.734775 1.001159 -4.041195 0.594974
    2 0.093038 -8.450418 -0.009364 0.205778 0.341010 -0.173792
    3 0.138014 1.783862 6.404635 -1.483243 -0.206250 2.947403
    4 33.106807 -11.917312 -0.628356 0.135627 -2.666398 0.233569
    5 -0.071919 -8.498733 -0.104137 -0.060850 0.587669 -0.142879
    6 -0.488517 -2.755600 -0.228261 -0.479034 0.037645 -0.287536
    7 0.039887 -1.479789 0.029853 -0.407440 0.000000 0.000000
    8 0.028785 -1.075730 -0.023111 -0.367301 0.000000 0.000001
    9 0.250028 -2.820663 -0.238396 -0.250741 -0.018453 -0.128421
    10 -0.049759 -1.680545 0.100480 -0.569537 0.000000 -0.000002
    11 -0.034141 -1.148311 0.084779 -0.326010 0.000000 0.000000
    12 0.957766 -2.746777 -0.090301 -0.102474 -0.162565 -0.001658
    13 -0.033419 -1.397127 -0.011255 -0.305661 0.000000 -0.000001
    14 -0.022360 -0.957435 0.018783 -0.032480 0.000000 0.000000
    15 -1.180680 -2.507215 -0.193861 -0.514539 0.122928 -0.318014
    16 -0.024966 -1.123933 0.017594 -0.387618 0.000000 0.000001
    17 -0.020057 -0.890966 0.010091 -0.303362 0.000000 0.000000
    18 0.583510 -1.197274 0.185377 0.469317 -0.632406 -0.680851
    19 1.535926 0.010245 0.005008 -0.224056 -0.168036 -0.548611
    20 1.100770 0.004527 -0.010676 -0.005984 0.015074 -0.201936
    21 0.120152 -0.050266 -0.054488 0.287568 3.110905 1.561085
    22 0.447952 -2.798983 -0.200442 0.039909 0.255017 0.384520
    23 -0.032910 -1.480207 0.004936 -0.213760 0.000000 0.000002
    24 -0.027022 -1.076920 -0.020212 -0.203598 0.000000 0.000000
    25 -0.249534 -2.846962 -0.174216 0.112071 0.228954 0.265572
    26 0.043235 -1.683940 0.096014 -0.185329 0.002823 -0.000167
    27 0.031730 -1.160831 0.058836 -0.249234 0.000642 0.008372
    28 -0.963866 -2.785142 -0.085346 0.280724 0.275758 0.075979
    29 0.028479 -1.403069 0.006271 -0.186010 0.000000 0.000000
    30 0.021413 -0.957782 0.020047 -0.191338 0.000000 0.000000
    31 1.164475 -2.543938 -0.170328 0.029568 0.084944 0.453670
    32 0.024033 -1.129041 0.017806 -0.354780 0.000000 0.000001
    33 0.014896 -0.883990 -0.019845 -0.129428 0.000000 0.000000
    34 -0.586770 -1.264475 0.200164 0.132650 -0.535436 -2.859040
    35 1.522835 0.058681 0.016850 -0.020670 -0.051517 0.403635
    36 1.117948 0.048424 -0.005764 -0.021935 -0.022382 -0.013290
    37 -0.158931 -0.189824 -0.153577 0.111773 0.318131 1.531572
  time 11
    0 0.000114 5.939355 -3.577388 0.000000 0.000000 -0.000030
    1 -7.267547 -10.309860 3.351951 0.924757 -3.944227 0.539535
    2 0.093038 -8.450418 -0.009364 0.291865 0.258270 -0.223286
    3 0.477868 1.498697 5.943684 1.497790 3.383144 -0.134671
    4 32.837268 -11.917312 -0.628356 0.136106 -2.666398 0.063512
    5 -0.071919 -8.498733 -0.104137 -0.056202 0.611862 -0.136863
    6 -0.488517 -2.755600 -0.228261 -0.492574 0.037645 -0.287536
    7 0.039887 -1.479789 0.029853 -0.387749 0.000000 0.000000
    8 0.028785 -1.075730 -0.023111 -0.352105 0.000000 0.000001
    9 0.250028 -2.820663 -0.238396 -0.264241 -0.018453 -0.128421
    10 -0.049759 -1.680545 0.100480 -0.556659 0.000000 -0.000002
    11 -0.034141 -1.148311 0.084779 -0.315833 0.000000 0.000000
    12 0.957766 -2.746777 -0.090301 -0.115985 -0.162565 -0.001658
    13 -0.033419 -1.397127 -0.011255 -0.294978 0.000000 -0.000001
    14 -0.022360 -0.957435 0.018783 -0.005335 0.000000 0.000000
    15 -1.180680 -2.507215 -0.193861 -0.528025 0.122928 -0.318014
    16 -0.024966 -1.123933 0.017594 -0.371367 0.000000 0.000001
    17 -0.020057 -0.890966 0.010091 -0.286968 0.000000 0.000000
    18 0.583510 -1.197274 0.185377 0.472449 -0.630729 -0.686106
    19 1.535926 0.010245 0.005008 -0.223744 -0.155943 -0.560857
    20 1.100770 0.004527 -0.010676 -0.005984 0.015074 -0.201936
    21 0.120152 -0.050266 -0.054488 0.287568 3.110905 1.561085
    22 0.447952 -2.798983 -0.200442 0.068491 0.246913 0.388679
    23 -0.032910 -1.480207 0.004936 -0.165997 0.000000 0.000002
    24 -0.027022 -1.076920 -0.020212 -0.185672 0.000000 0.000000
    25 -0.249534 -2.846962 -0.174216 0.143263 0.218632 0.250339
    26 0.043235 -1.683940 0.096014 -0.140041 0.002823 -0.000167
    27 0.031730 -1.160831 0.058836 -0.177499 0.000642 0.008372
    28 -0.963866 -2.785142 -0.085346 0.299304 0.269934 0.069296
    29 0.028479 -1.403069 0.006271 -0.124254 0.000000 0.000000
    30 0.021413 -0.957782 0.020047 -0.147849 0.000000 0.000000
    31 1.164475 -2.543938 -0.170328 0.062391 0.104622 0.419430
    32 0.024033 -1.129041 0.017806 -0.288148 0.000000 0.000001
    33 0.014896 -0.883990 -0.019845 -0.149893 0.000000 0.000000
    34 -0.586770 -1.264475 0.200164 0.185574 -0.452254 -2.888031
    35 1.522835 0.058681 0.016850 -0.027260 -0.054737 0.380299
    36 1.117948 0.048424 -0.005764 -0.026274 -0.023436 -0.068556
    37 -0.170650 -0.205450 -0.157483 0.090045 0.389816 1.517746
  time 12
    0 0.000114 5.939355 -3.585201 0.000000 0.000000 -0.000030
    1 -7.224577 -10.505178 3.019910 0.808467 -3.834985 0.522300
    2 0.093038 -8.450418 -0.009364 0.324563 0.163123 -0.246017
    3 1.388052 0.596326 5.033500 1.278763 3.472234 -0.040820
    4 32.087245 -11.917312 -0.628356 0.136681 -2.666493 -0.126874
    5 -0.071919 -8.498733 -0.104137 -0.051174 0.627758 -0.130104
    6 -0.488517 -2.755600 -0.228261 -0.507857 0.037645 -0.287536
    7 0.039887 -1.479789 0.029853 -0.374966 0.000000 0.000000
    8 0.028785 -1.075730 -0.023111 -0.342172 0.000000 0.000001
    9 0.250028 -2.820663 -0.238396 -0.279539 -0.018453 -0.128421
    10 -0.049759 -1.680545 0.100480 -0.548316 0.000000 -0.000002
    11 -0.034141 -1.148311 0.084779 -0.309223 0.000000 0.000000
    12 0.957766 -2.746777 -0.090301 -0.131267 -0.162565 -0.001658
    13 -0.033419 -1.397127 -0.011255 -0.287995 0.000000 -0.000001
    14 -0.022360 -0.957435 0.018783 0.012313 0.000000 0.000000
    15 -1.180680 -2.507215 -0.193861 -0.543303 0.122928 -0.318014
    16 -0.024966 -1.123933 0.017594 -0.360743 0.000000 0.000001
    17 -0.020057 -0.890966 0.010091 -0.276288 0.000000 0.000000
    18 0.583510 -1.197274 0.185377 0.476048 -0.629001 -0.692156
    19 1.535926 0.010245 0.005008 -0.223421 -0.143779 -0.573153
    20 1.100770 0.004527 -0.010676 -0.005984 0.015074 -0.201936
    21 0.120152 -0.050266 -0.054488 0.287568 3.110905 1.561085
    22 0.447952 -2.798983 -0.200442 0.078384 0.237834 0.389530
    23 -0.032910 -1.480207 0.004936 -0.149009 0.000000 0.000002
    24 -0.027022 -1.076920 -0.020212 -0.166007 0.000000 0.000000
    25 -0.249534 -2.846962 -0.174216 0.154559 0.215278 0.234628
    26 0.043235 -1.683940 0.096014 -0.124050 0.002823 -0.000167
    27 0.031730 -1.160831 0.058836 -0.149680 0.000642 0.008372
    28 -0.963866 -2.785142 -0.085346 0.305422 0.267860 0.066915
    29 0.028479 -1.403069 0.006271 -0.100611 0.000000 0.000000
    30 0.021413 -0.957782 0.020047 -0.130976 0.000000 0.000000
    31 1.164475 -2.543938 -0.170328 0.074343 0.112808 0.399704
    32 0.024033 -1.129041 0.017806 -0.263213 0.000000 0.000001
    33 0.014896 -0.883990 -0.019845 -0.173914 0.000000 0.000000
    34 -0.586770 -1.264475 0.200164 0.205588 -0.419934 -2.898661
    35 1.522835 0.058681 0.016850 -0.029972 -0.055907 0.351795
    36 1.117948 0.048424 -0.005764 -0.027951 -0.023820 -0.089951
    37 -0.178463 -0.221075 -0.161390 0.082075 0.417559 1.512702
  time 13
    0 0.000114 5.939355 -3.589107 0.000000 0.000000 -0.000030
    1 -8.947286 -11.841157 2.828498 0.441022 -3.663627 0.563089
    2 0.093038 -8.450418 -0.009364 -0.310521 -0.111855 0.052269
    3 0.970071 -2.270949 0.783370 0.078605 3.581122 0.245326
    4 30.626263 -11.917312 -0.628356 0.137065 -2.666589 -0.261631
    5 -0.071919 -8.498733 -0.104137 -0.045726 0.633720 -0.122601
    6 -0.488517 -2.755600 -0.228261 -0.525016 0.037645 -0.287536
    7 0.039887 -1.479789 0.029853 -0.370408 0.000000 0.000000
    8 0.028785 -1.075730 -0.023111 -0.338634 0.000000 0.000001
    9 0.250028 -2.820663 -0.238396 -0.296686 -0.018453 -0.128421
    10 -0.049759 -1.680545 0.100480 -0.545353 0.000000 -0.000002
    11 -0.034141 -1.148311 0.084779 -0.306857 0.000000 0.000000
    12 0.957766 -2.746777 -0.090301 -0.148423 -0.162565 -0.001658
    13 -0.033419 -1.397127 -0.011255 -0.285498 0.000000 -0.000001
    14 -0.022360 -0.957435 0.018783 0.018644 0.000000 0.000000
    15 -1.180680 -2.507215 -0.193861 -0.560467 0.122928 -0.318014
    16 -0.024966 -1.123933 0.017594 -0.356960 0.000000 0.000001
    17 -0.020057 -0.890966 0.010091 -0.272465 0.000000 0.000000
    18 0.583510 -1.197274 0.185377 0.480158 -0.627222 -0.699067
    19 1.535926 0.010245 0.005008 -0.223085 -0.131698 -0.585350
    20 1.100770 0.004527 -0.010676 -0.005984 0.015074 -0.201936
    21 0.120152 -0.050266 -0.054488 0.287568 3.110905 1.561085
    22 0.447952 -2.798983 -0.200442 -0.550616 0.236213 0.318809
    23 -0.032910 -1.480207 0.004936 -0.474634 0.000000 0.000002
    24 -0.027022 -1.076920 -0.020212 -0.152773 0.000000 0.000000
    25 -0.249534 -2.846962 -0.174216 -0.439650 0.217214 0.195857
    26 0.043235 -1.683940 0.096014 -0.359615 0.002823 -0.000167
    27 0.031730 -1.160831 0.058836 -0.654866 0.000642 0.008372
    28 -0.963866 -2.785142 -0.085346 -0.224416 0.267860 0.066915
    29 0.028479 -1.403069 0.006271 -0.732562 0.000000 0.000000
    30 0.021413 -0.957782 0.020047 -0.435626 0.000000 0.000000
    31 1.164475 -2.543938 -0.170328 -0.394304 0.089162 0.390559
    32 0.024033 -1.129041 0.017806 -0.983000 0.000000 0.000001
    33 0.014896 -0.883990 -0.019845 -0.520123 0.000000 0.000000
    34 -0.586770 -1.264475 0.200164 -0.060014 -0.549536 -2.780002
    35 1.522835 0.058681 0.016850 0.087802 0.031469 0.166870
    36 1.117948 0.048424 -0.005764 -0.013534 -0.019877 0.133709
    37 -0.115961 -0.303109 0.018303 0.185478 -0.021111 1.450315
  time 14
    0 0.000114 5.939355 -3.593014 0.000000 0.000000 -0.000030
    1 -10.669994 -13.071663 2.531613 0.098623 -3.551387 0.610293
    2 0.093038 -8.450418 -0.009364 -0.947951 -0.331526 0.396644
    3 1.075543 -2.255324 0.791183 0.071893 3.247513 0.282733
    4 28.173063 -11.815747 -0.858832 0.131506 -2.654421 -0.332982
    5 -0.071919 -8.498733 -0.104137 -0.036660 0.608513 -0.109586
    6 -0.488517 -2.755600 -0.228261 -0.573993 0.037645 -0.287536
    7 0.039887 -1.479789 0.029853 -0.457115 0.000000 0.000000
    8 0.028785 -1.075730 -0.023111 -0.415970 0.000000 0.000001
    9 0.250028 -2.820663 -0.238396 -0.345696 -0.018453 -0.128421
    10 -0.049759 -1.680545 0.100480 -0.624012 0.000000 -0.000002
    11 -0.034141 -1.148311 0.084779 -0.378246 0.000000 0.000000
    12 0.957766 -2.746777 -0.090301 -0.197412 -0.162565 -0.001658
    13 -0.033419 -1.397127 -0.011255 -0.361616 0.000000 -0.000001
    14 -0.022360 -0.957435 0.018783 -0.032480 0.000000 0.000000
    15 -1.180680 -2.507215 -0.193861 -0.609460 0.122928 -0.318014
    16 -0.024966 -1.123933 0.017594 -0.439670 0.000000 0.000001
    17 -0.020057 -0.890966 0.010091 -0.351225 0.000000 0.000000
    18 0.583510 -1.197274 0.185377 0.492161 -0.641278 -0.718567
    19 1.535926 0.010245 0.005008 -0.210537 -0.114500 -0.602738
    20 1.100770 0.004527 -0.010676 -0.005984 0.015074 -0.201936
    21 0.120152 -0.050266 -0.054488 0.287568 3.110905 1.561085
    22 0.447952 -2.798983 -0.200442 -1.180010 0.239647 0.248507
    23 -0.032910 -1.480207 0.004936 -1.668858 0.000000 0.000002
    24 -0.027022 -1.076920 -0.020212 -1.015864 0.000000 0.000000
    25 -0.249534 -2.846962 -0.174216 -1.033989 0.218842 0.164949
    26 0.043235 -1.683940 0.096014 -1.738499 0.002823 -0.000167
    27 0.031730 -1.160831 0.058836 -1.160052 0.000642 0.008372
    28 -0.963866 -2.785142 -0.085346 -0.754276 0.267860 0.066915
    29 0.028479 -1.403069 0.006271 -1.364513 0.000000 0.000000
    30 0.021413 -0.957782 0.020047 -0.740299 0.000000 0.000000
    31 1.164475 -2.543938 -0.170328 -0.862922 0.065073 0.386604
    32 0.024033 -1.129041 0.017806 -1.702787 0.000000 0.000001
    33 0.014896 -0.883990 -0.019845 -0.853439 0.000000 0.000000
    34 -0.586770 -1.264475 0.200164 -0.446649 -1.113718 -2.509270
    35 1.522835 0.058681 0.016850 0.627276 -0.441885 0.679144
    36 1.117948 0.048424 -0.005764 -0.016278 0.004644 1.437277
    37 -0.053459 -0.377330 0.205809 0.397702 -0.459302 1.384876
  time 15
    0 0.000114 5.939355 -3.596920 0.000000 0.000000 -0.000030
    1 -10.642650 -12.618524 1.933939 0.024191 -3.621467 0.618719
    2 0.096944 -8.450418 -0.009364 -0.879204 -0.377871 0.341866
    3 1.075543 -2.255324 0.791183 0.071893 3.247513 0.282733
    4 24.938589 -11.561833 -1.440881 0.117227 -2.624047 -0.386769
    5 -0.071919 -8.498733 -0.104137 -0.023311 0.544787 -0.089943
    6 -0.488517 -2.755600 -0.228261 -0.668506 0.037645 -0.287536
    7 0.039887 -1.479789 0.029853 -0.673906 0.000000 0.000000
    8 0.028785 -1.075730 -0.023111 -0.609333 0.000000 0.000001
    9 0.250028 -2.820663 -0.238396 -0.440221 -0.018453 -0.128421
    10 -0.049759 -1.680545 0.100480 -0.820628 0.000000 -0.000002
    11 -0.034141 -1.148311 0.084779 -0.556700 0.000000 0.000000
    12 0.957766 -2.746777 -0.090301 -0.291947 -0.162565 -0.001658
    13 -0.033419 -1.397127 -0.011255 -0.551956 0.000000 -0.000001
    14 -0.022360 -0.957435 0.018783 -0.160329 0.000000 0.000000
    15 -1.180680 -2.507215 -0.193861 -0.704004 0.122928 -0.318014
    16 -0.024966 -1.123933 0.017594 -0.646422 0.000000 0.000001
    17 -0.020057 -0.890966 0.010091 -0.548037 0.000000 0.000000
    18 0.583510 -1.197274 0.185377 0.516337 -0.678828 -0.757161
    19 1.535926 0.010245 0.005008 -0.179713 -0.089980 -0.627504
    20 1.100770 0.004527 -0.010676 -0.005984 0.015074 -0.201936
    21 0.120152 -0.050266 -0.054488 0.287568 3.110905 1.561085
    22 0.447952 -2.798983 -0.200442 -1.180010 0.239647 0.248507
    23 -0.032910 -1.480207 0.004936 -1.668858 0.000000 0.000002
    24 -0.027022 -1.076920 -0.020212 -1.015864 0.000000 0.000000
    25 -0.249534 -2.846962 -0.174216 -1.033989 0.218842 0.164949
    26 0.043235 -1.683940 0.096014 -1.738499 0.002823 -0.000167
    27 0.031730 -1.160831 0.058836 -1.160052 0.000642 0.008372
    28 -0.963866 -2.785142 -0.085346 -0.754276 0.267860 0.066915
    29 0.028479 -1.403069 0.006271 -1.364513 0.000000 0.000000
    30 0.021413 -0.957782 0.020047 -0.740299 0.000000 0.000000
    31 1.164475 -2.543938 -0.170328 -0.862922 0.065073 0.386604
    32 0.024033 -1.129041 0.017806 -1.702787 0.000000 0.000001
    33 0.014896 -0.883990 -0.019845 -0.853439 0.000000 0.000000
    34 -0.586770 -1.264475 0.200164 -0.446649 -1.113739 -2.509270
    35 1.522835 0.058681 0.016850 0.627276 -0.441885 0.679144
    36 1.117948 0.048424 -0.005764 -0.016278 0.004644 1.437277
    37 -0.065178 -0.334360 0.174558 0.482157 -0.368630 1.410162
  time 16
    0 0.000114 5.939355 -3.600827 0.000000 0.000000 -0.000030
    1 -10.576242 -11.583336 1.234699 -0.021045 -3.782332 0.618432
    2 0.096944 -8.450418 -0.009364 -0.710576 -0.413340 0.197589
    3 1.075543 -2.255324 0.791183 0.071893 3.247513 0.282733
    4 21.407231 -11.233698 -2.194810 0.098634 -2.584571 -0.427139
    5 -0.071919 -8.498733 -0.104137 -0.009136 0.461663 -0.068742
    6 -0.488517 -2.755600 -0.228261 -0.784290 0.037645 -0.287536
    7 0.039887 -1.479789 0.029853 -0.955787 0.000000 0.000000
    8 0.028785 -1.075730 -0.023111 -0.860665 0.000000 0.000001
    9 0.250028 -2.820663 -0.238396 -0.555997 -0.018453 -0.128421
    10 -0.049759 -1.680545 0.100480 -1.076313 0.000000 -0.000002
    11 -0.034141 -1.148311 0.084779 -0.788743 0.000000 0.000000
    12 0.957766 -2.746777 -0.090301 -0.407725 -0.162565 -0.001658
    13 -0.033419 -1.397127 -0.011255 -0.799360 0.000000 -0.000001
    14 -0.022360 -0.957435 0.018783 -0.326561 0.000000 0.000000
    15 -1.180680 -2.507215 -0.193861 -0.819768 0.122928 -0.318014
    16 -0.024966 -1.123933 0.017594 -0.915219 0.000000 0.000001
    17 -0.020057 -0.890966 0.010091 -0.803919 0.000000 0.000000
    18 0.583510 -1.197274 0.185377 0.548264 -0.727714 -0.806975
    19 1.535926 0.010245 0.005008 -0.139756 -0.062775 -0.654928
    20 1.100770 0.004527 -0.010676 -0.005984 0.015074 -0.201936
    21 0.120152 -0.050266 -0.054488 0.287568 3.110905 1.561085
    22 0.447952 -2.798983 -0.200442 -1.180010 0.239647 0.248507
    23 -0.032910 -1.480207 0.004936 -1.668858 0.000000 0.000002
    24 -0.027022 -1.076920 -0.020212 -1.015864 0.000000 0.000000
    25 -0.249534 -2.846962 -0.174216 -1.033989 0.218842 0.164949
    26 0.043235 -1.683940 0.096014 -1.738499 0.002823 -0.000167
    27 0.031730 -1.160831 0.058836 -1.160052 0.000642 0.008372
    28 -0.963866 -2.785142 -0.085346 -0.754276 0.267860 0.066915
    29 0.028479 -1.403069 0.006271 -1.364513 0.000000 0.000000
    30 0.021413 -0.957782 0.020047 -0.740299 0.000000 0.000000
    31 1.164475 -2.543938 -0.170328 -0.862922 0.065073 0.386604
    32 0.024033 -1.129041 0.017806 -1.702787 0.000000 0.000001
    33 0.014896 -0.883990 -0.019845 -0.853439 0.000000 0.000000
    34 -0.586770 -1.264475 0.200164 -0.446649 -1.113739 -2.509270
    35 1.522835 0.058681 0.016850 0.627276 -0.441885 0.679144
    36 1.117948 0.048424 -0.005764 -0.016278 0.004644 1.437277
    37 -0.096429 -0.244514 0.108150 0.553250 -0.168173 1.459076
  time 17
    0 0.000114 5.939355 -3.604733 0.000000 0.000000 -0.000030
    1 -10.482489 -10.454396 0.535459 -0.044472 -3.960435 0.616996
    2 0.096944 -8.450418 -0.009364 -0.508692 -0.435923 0.020501
    3 1.075543 -2.255324 0.791183 0.071893 3.247513 0.282733
    4 18.063379 -10.901656 -2.948739 0.080042 -2.545095 -0.458121
    5 -0.071919 -8.498733 -0.104137 0.003264 0.378386 -0.049987
    6 -0.488517 -2.755600 -0.228261 -0.897080 0.037645 -0.287536
    7 0.039887 -1.479789 0.029853 -1.237620 0.000000 0.000000
    8 0.028785 -1.075730 -0.023111 -1.111996 0.000000 0.000001
    9 0.250028 -2.820663 -0.238396 -0.668758 -0.018453 -0.128421
    10 -0.049759 -1.680545 0.100480 -1.331937 0.000000 -0.000002
    11 -0.034141 -1.148311 0.084779 -1.020786 0.000000 0.000000
    12 0.957766 -2.746777 -0.090301 -0.520502 -0.162565 -0.001658
    13 -0.033419 -1.397127 -0.011255 -1.046765 0.000000 -0.000001
    14 -0.022360 -0.957435 0.018783 -0.492794 0.000000 0.000000
    15 -1.180680 -2.507215 -0.193861 -0.932560 0.122928 -0.318014
    16 -0.024966 -1.123933 0.017594 -1.183967 0.000000 0.000001
    17 -0.020057 -0.890966 0.010091 -1.059801 0.000000 0.000000
    18 0.583510 -1.197274 0.185377 0.582360 -0.776136 -0.858817
    19 1.535926 0.010245 0.005008 -0.099871 -0.037559 -0.680340
    20 1.100770 0.004527 -0.010676 -0.005984 0.015074 -0.201936
    21 0.120152 -0.050266 -0.054488 0.287568 3.110905 1.561085
    22 0.447952 -2.798983 -0.200442 -1.180010 0.239647 0.248507
    23 -0.032910 -1.480207 0.004936 -1.668858 0.000000 0.000002
    24 -0.027022 -1.076920 -0.020212 -1.015864 0.000000 0.000000
    25 -0.249534 -2.846962 -0.174216 -1.033989 0.218842 0.164949
    26 0.043235 -1.683940 0.096014 -1.738499 0.002823 -0.000167
    27 0.031730 -1.160831 0.058836 -1.160052 0.000642 0.008372
    28 -0.963866 -2.785142 -0.085346 -0.754276 0.267860 0.066915
    29 0.028479 -1.403069 0.006271 -1.364513 0.000000 0.000000
    30 0.021413 -0.957782 0.020047 -0.740299 0.000000 0.000000
    31 1.164475 -2.543938 -0.170328 -0.862922 0.065073 0.386604
    32 0.024033 -1.129041 0.017806 -1.702787 0.000000 0.000001
    33 0.014896 -0.883990 -0.019845 -0.853439 0.000000 0.000000
    34 -0.586770 -1.264475 0.200164 -0.446649 -1.113739 -2.509270
    35 1.522835 0.058681 0.016850 0.627276 -0.441885 0.679144
    36 1.117948 0.048424 -0.005764 -0.016278 0.004644 1.437277
    37 -0.127680 -0.150761 0.041742 0.613041 0.032885 1.503786
  time 18
    0 0.000114 5.939355 -3.608639 0.000000 0.000000 -0.000030
    1 -10.380923 -9.723905 -0.070028 -0.052422 -4.082231 0.622932
    2 0.096944 -8.450418 -0.009364 -0.344560 -0.451648 -0.129963
    3 1.075543 -2.255324 0.791183 0.071893 3.247513 0.282733
    4 15.395329 -10.647742 -3.526882 0.065667 -2.514625 -0.483921
    5 -0.071919 -8.498733 -0.104137 0.011978 0.314243 -0.036744
    6 -0.488517 -2.755600 -0.228261 -0.982521 0.037645 -0.287536
    7 0.039887 -1.479789 0.029853 -1.454459 0.000000 0.000000
    8 0.028785 -1.075730 -0.023111 -1.305314 0.000000 0.000001
    9 0.250028 -2.820663 -0.238396 -0.754241 -0.018453 -0.128421
    10 -0.049759 -1.680545 0.100480 -1.528613 0.000000 -0.000002
    11 -0.034141 -1.148311 0.084779 -1.199240 0.000000 0.000000
    12 0.957766 -2.746777 -0.090301 -0.605957 -0.162565 -0.001658
    13 -0.033419 -1.397127 -0.011255 -1.237059 0.000000 -0.000001
    14 -0.022360 -0.957435 0.018783 -0.620683 0.000000 0.000000
    15 -1.180680 -2.507215 -0.193861 -1.018004 0.122928 -0.318014
    16 -0.024966 -1.123933 0.017594 -1.390719 0.000000 0.000001
    17 -0.020057 -0.890966 0.010091 -1.256657 0.000000 0.000000
    18 0.583510 -1.197274 0.185377 0.610560 -0.812926 -0.900690
    19 1.535926 0.010245 0.005008 -0.069215 -0.019007 -0.699020
    20 1.100770 0.004527 -0.010676 -0.005984 0.015074 -0.201936
    21 0.120152 -0.050266 -0.054488 0.287568 3.110905 1.561085
    22 0.447952 -2.798983 -0.200442 -1.180010 0.239647 0.248507
    23 -0.032910 -1.480207 0.004936 -1.668858 0.000000 0.000002
    24 -0.027022 -1.076920 -0.020212 -1.015864 0.000000 0.000000
    25 -0.249534 -2.846962 -0.174216 -1.033989 0.218842 0.164949
    26 0.043235 -1.683940 0.096014 -1.738499 0.002823 -0.000167
    27 0.031730 -1.160831 0.058836 -1.160052 0.000642 0.008372
    28 -0.963866 -2.785142 -0.085346 -0.754276 0.267860 0.066915
    29 0.028479 -1.403069 0.006271 -1.364513 0.000000 0.000000
    30 0.021413 -0.957782 0.020047 -0.740299 0.000000 0.000000
    31 1.164475 -2.543938 -0.170328 -0.862922 0.065073 0.386604
    32 0.024033 -1.129041 0.017806 -1.702787 0.000000 0.000001
    33 0.014896 -0.883990 -0.019845 -0.853439 0.000000 0.000000
    34 -0.586770 -1.264475 0.200164 -0.446649 -1.113739 -2.509270
    35 1.522835 0.058681 0.016850 0.627276 -0.441885 0.679144
    36 1.117948 0.048424 -0.005764 -0.016278 0.004644 1.437277
    37 -0.139399 -0.111697 0.014397 0.639778 0.124283 1.524095
  time 19
    0 0.000114 5.939355 -3.608639 0.000000 0.000000 -0.000030
    1 -10.275451 -9.399676 -0.628639 -0.010070 -4.144254 0.661902
    2 0.096944 -8.450418 -0.009364 -0.261125 -0.463577 -0.239413
    3 1.075543 -2.255324 0.791183 0.071893 3.247513 0.282733
    4 13.887471 -10.546177 -3.761264 0.060012 -2.502552 -0.508568
    5 -0.071919 -8.498733 -0.104137 0.015284 0.288564 -0.031698
    6 -0.488517 -2.755600 -0.228261 -1.016438 0.037645 -0.287536
    7 0.039887 -1.479789 0.029853 -1.541166 0.000000 0.000000
    8 0.028785 -1.075730 -0.023111 -1.382650 0.000000 0.000001
    9 0.250028 -2.820663 -0.238396 -0.788105 -0.018453 -0.128421
    10 -0.049759 -1.680545 0.100480 -1.607272 0.000000 -0.000002
    11 -0.034141 -1.148311 0.084779 -1.270667 0.000000 0.000000
    12 0.957766 -2.746777 -0.090301 -0.639844 -0.162565 -0.001658
    13 -0.033419 -1.397127 -0.011255 -1.313176 0.000000 -0.000001
    14 -0.022360 -0.957435 0.018783 -0.671807 0.000000 0.000000
    15 -1.180680 -2.507215 -0.193861 -1.051908 0.122928 -0.318014
    16 -0.024966 -1.123933 0.017594 -1.473429 0.000000 0.000001
    17 -0.020057 -0.890966 0.010091 -1.335373 0.000000 0.000000
    18 0.583510 -1.197274 0.185377 0.622393 -0.827523 -0.917993
    19 1.535926 0.010245 0.005008 -0.056955 -0.011793 -0.706298
    20 1.100770 0.004527 -0.010676 -0.005984 0.015074 -0.201936
    21 0.120152 -0.050266 -0.054488 0.287568 3.110905 1.561085
    22 0.447952 -2.798983 -0.200442 -1.180010 0.239647 0.248507
    23 -0.032910 -1.480207 0.004936 -1.668858 0.000000 0.000002
    24 -0.027022 -1.076920 -0.020212 -1.015864 0.000000 0.000000
    25 -0.249534 -2.846962 -0.174216 -1.033989 0.218842 0.164949
    26 0.043235 -1.683940 0.096014 -1.738499 0.002823 -0.000167
    27 0.031730 -1.160831 0.058836 -1.160052 0.000642 0.008372
    28 -0.963866 -2.785142 -0.085346 -0.754276 0.267860 0.066915
    29 0.028479 -1.403069 0.006271 -1.364513 0.000000 0.000000
    30 0.021413 -0.957782 0.020047 -0.740299 0.000000 0.000000
    31 1.164475 -2.543938 -0.170328 -0.862922 0.065073 0.386604
    32 0.024033 -1.129041 0.017806 -1.702787 0.000000 0.000001
    33 0.014896 -0.883990 -0.019845 -0.853439 0.000000 0.000000
    34 -0.586770 -1.264475 0.200164 -0.446649 -1.113739 -2.509270
    35 1.522835 0.058681 0.016850 0.627276 -0.441885 0.679144
    36 1.117948 0.048424 -0.005764 -0.016278 0.004644 1.437319
    37 -0.139399 -0.111697 0.014397 0.633187 0.120206 1.529426
  time 20
    0 0.000114 5.939355 -3.612546 0.000000 0.000000 -0.000030
    1 -10.158260 -9.157481 -1.234126 0.107627 -4.193909 0.745204
    2 0.096944 -8.450418 -0.009364 -0.233062 -0.466862 -0.290089
    3 1.075543 -2.255324 0.791183 0.071893 3.247513 0.282733
    4 13.219482 -10.546177 -3.761264 0.068446 -2.522865 -0.530106
    5 -0.071919 -8.498733 -0.104137 0.015284 0.288564 -0.031698
    6 -0.488517 -2.755600 -0.228261 -1.005579 0.037645 -0.287536
    7 0.039887 -1.479789 0.029853 -1.526409 0.000000 0.000000
    8 0.028785 -1.075730 -0.023111 -1.369496 0.000000 0.000001
    9 0.250028 -2.820663 -0.238396 -0.771489 -0.018453 -0.128421
    10 -0.049759 -1.680545 0.100480 -1.584660 0.000000 -0.000002
    11 -0.034141 -1.148311 0.084779 -1.237958 0.000000 0.000000
    12 0.957766 -2.746777 -0.090301 -0.620635 -0.162565 -0.001658
    13 -0.033419 -1.397127 -0.011255 -1.287973 0.000000 -0.000001
    14 -0.022360 -0.957435 0.018783 -0.649015 0.000000 0.000000
    15 -1.180680 -2.507215 -0.193861 -1.042901 0.122928 -0.318014
    16 -0.024966 -1.123933 0.017594 -1.461156 0.000000 0.000001
    17 -0.020057 -0.890966 0.010091 -1.324429 0.000000 0.000000
    18 0.583510 -1.197274 0.185377 0.617291 -0.820289 -0.910761
    19 1.535926 0.010245 0.005008 -0.062551 -0.011793 -0.706298
    20 1.100770 0.004527 -0.010676 -0.005984 0.015074 -0.201936
    21 0.120152 -0.050266 -0.054488 0.287568 3.110905 1.561085
    22 0.447952 -2.798983 -0.200442 -1.180010 0.239647 0.248507
    23 -0.032910 -1.480207 0.004936 -1.668858 0.000000 0.000002
    24 -0.027022 -1.076920 -0.020212 -1.015864 0.000000 0.000000
    25 -0.249534 -2.846962 -0.174216 -1.033989 0.218842 0.164949
    26 0.043235 -1.683940 0.096014 -1.738499 0.002823 -0.000167
    27 0.031730 -1.160831 0.058836 -1.160052 0.000642 0.008372
    28 -0.963866 -2.785142 -0.085346 -0.754276 0.267860 0.066915
    29 0.028479 -1.403069 0.006271 -1.364513 0.000000 0.000000
    30 0.021413 -0.957782 0.020047 -0.740299 0.000000 0.000000
    31 1.164475 -2.543938 -0.170328 -0.862922 0.065073 0.386604
    32 0.024033 -1.129041 0.017806 -1.702787 0.000000 0.000001
    33 0.014896 -0.883990 -0.019845 -0.853439 0.000000 0.000000
    34 -0.586770 -1.264475 0.200164 -0.446649 -1.113739 -2.509270
    35 1.522835 0.058681 0.016850 0.627276 -0.441885 0.679144
    36 1.117948 0.048424 -0.005764 -0.016278 0.004644 1.437319
    37 -0.139399 -0.111697 0.014397 0.614958 0.108933 1.544182
  time 21
    0 0.000114 5.939355 -3.616452 0.000000 0.000000 -0.000030
    1 -10.041069 -8.985601 -1.847426 0.281536 -4.233915 0.861634
    2 0.096944 -8.450418 -0.009364 -0.223513 -0.459367 -0.286996
    3 1.075543 -2.255324 0.791183 0.071893 3.247513 0.282733
    4 12.723373 -10.546177 -3.761264 0.090488 -2.575756 -0.545194
    5 -0.071919 -8.498733 -0.104137 0.015284 0.288564 -0.031698
    6 -0.488517 -2.755600 -0.228261 -0.976175 0.037645 -0.287536
    7 0.039887 -1.479789 0.029853 -1.486463 0.000000 0.000000
    8 0.028785 -1.075730 -0.023111 -1.333709 0.000000 0.000001
    9 0.250028 -2.820663 -0.238396 -0.727697 -0.018453 -0.128421
    10 -0.049759 -1.680545 0.100480 -1.525046 0.000000 -0.000002
    11 -0.034141 -1.148311 0.084779 -1.151735 0.000000 0.000000
    12 0.957766 -2.746777 -0.090301 -0.569995 -0.162565 -0.001658
    13 -0.033419 -1.397127 -0.011255 -1.221567 0.000000 -0.000001
    14 -0.022360 -0.957435 0.018783 -0.588869 0.000000 0.000000
    15 -1.180680 -2.507215 -0.193861 -1.018192 0.122928 -0.318014
    16 -0.024966 -1.123933 0.017594 -1.427538 0.000000 0.000001
    17 -0.020057 -0.890966 0.010091 -1.294367 0.000000 0.000000
    18 0.583510 -1.197274 0.185377 0.604056 -0.800830 -0.891835
    19 1.535926 0.010245 0.005008 -0.077568 -0.011793 -0.706298
    20 1.100770 0.004527 -0.010676 -0.005984 0.015074 -0.201936
    21 0.120152 -0.050266 -0.054488 0.287568 3.110905 1.561085
    22 0.447952 -2.798983 -0.200442 -1.180010 0.239647 0.248507
    23 -0.032910 -1.480207 0.004936 -1.668858 0.000000 0.000002
    24 -0.027022 -1.076920 -0.020212 -1.015864 0.000000 0.000000
    25 -0.249534 -2.846962 -0.174216 -1.033989 0.218842 0.164949
    26 0.043235 -1.683940 0.096014 -1.738499 0.002823 -0.000167
    27 0.031730 -1.160831 0.058836 -1.160052 0.000642 0.008372
    28 -0.963866 -2.785142 -0.085346 -0.754276 0.267860 0.066915
    29 0.028479 -1.403069 0.006271 -1.364513 0.000000 0.000000
    30 0.021413 -0.957782 0.020047 -0.740299 0.000000 0.000000
    31 1.164475 -2.543938 -0.170328 -0.862922 0.065073 0.386604
    32 0.024033 -1.129041 0.017806 -1.702787 0.000000 0.000001
    33 0.014896 -0.883990 -0.019845 -0.853439 0.000000 0.000000
    34 -0.586770 -1.264475 0.200164 -0.446649 -1.113739 -2.509270
    35 1.522835 0.058681 0.016850 0.627276 -0.441885 0.679144
    36 1.117948 0.048424 -0.005764 -0.016278 0.004644 1.437277
    37 -0.139399 -0.111697 0.014397 0.587334 0.091902 1.566460
  time 22
    0 0.000114 5.939355 -3.616452 0.000000 0.000000 -0.000030
    1 -9.916065 -8.864503 -2.433382 0.492590 -4.267081 0.999609
    2 0.096944 -8.450418 -0.009364 -0.216169 -0.438985 -0.278689
    3 1.075543 -2.255324 0.791183 0.071893 3.247513 0.282733
    4 12.371799 -10.546177 -3.761264 0.121443 -2.648863 -0.555733
    5 -0.071919 -8.498733 -0.104137 0.015284 0.288564 -0.031698
    6 -0.488517 -2.755600 -0.228261 -0.932874 0.037645 -0.287536
    7 0.039887 -1.479789 0.029853 -1.427530 0.000000 0.000000
    8 0.028785 -1.075730 -0.023111 -1.281002 0.000000 0.000001
    9 0.250028 -2.820663 -0.238396 -0.665744 -0.018441 -0.128421
    10 -0.049759 -1.680545 0.100480 -1.440765 0.000000 -0.000002
    11 -0.034141 -1.148311 0.084779 -1.029837 0.000000 0.000000
    12 0.957766 -2.746777 -0.090301 -0.498374 -0.162565 -0.001658
    13 -0.033419 -1.397127 -0.011255 -1.127600 0.000000 -0.000001
    14 -0.022360 -0.957435 0.018783 -0.503794 0.000000 0.000000
    15 -1.180680 -2.507215 -0.193861 -0.981271 0.122928 -0.318014
    16 -0.024966 -1.123933 0.017594 -1.377379 0.000000 0.000001
    17 -0.020057 -0.890966 0.010091 -1.249449 0.000000 0.000000
    18 0.583510 -1.197274 0.185377 0.585917 -0.772460 -0.865492
    19 1.535926 0.010245 0.005008 -0.099296 -0.011793 -0.706298
    20 1.100770 0.004527 -0.010676 -0.005984 0.015074 -0.201936
    21 0.120152 -0.050266 -0.054488 0.287568 3.110905 1.561085
    22 0.447952 -2.798983 -0.200442 -1.180010 0.239647 0.248507
    23 -0.032910 -1.480207 0.004936 -1.668858 0.000000 0.000002
    24 -0.027022 -1.076920 -0.020212 -1.015864 0.000000 0.000000
    25 -0.249534 -2.846962 -0.174216 -1.033989 0.218842 0.164949
    26 0.043235 -1.683940 0.096014 -1.738499 0.002823 -0.000167
    27 0.031730 -1.160831 0.058836 -1.160052 0.000642 0.008372
    28 -0.963866 -2.785142 -0.085346 -0.754276 0.267860 0.066915
    29 0.028479 -1.403069 0.006271 -1.364513 0.000000 0.000000
    30 0.021413 -0.957782 0.020047 -0.740299 0.000000 0.000000
    31 1.164475 -2.543938 -0.170328 -0.862922 0.065073 0.386604
    32 0.024033 -1.129041 0.017806 -1.702787 0.000000 0.000001
    33 0.014896 -0.883990 -0.019845 -0.853439 0.000000 0.000000
    34 -0.586770 -1.264475 0.200164 -0.446649 -1.113739 -2.509270
    35 1.522835 0.058681 0.016850 0.627276 -0.441885 0.679144
    36 1.117948 0.048424 -0.005764 -0.016278 0.004644 1.437277
    37 -0.139399 -0.111697 0.014397 0.552531 0.070588 1.594379
  time 23
    0 0.000114 5.939355 -3.616452 0.000000 0.000000 -0.000030
    1 -9.794968 -8.786376 -2.952929 0.721161 -4.296218 1.147732
    2 0.096944 -8.450418 -0.009364 -0.210556 -0.408938 -0.266663
    3 1.075543 -2.255324 0.791183 0.071893 3.247513 0.282733
    4 12.145230 -10.546177 -3.761264 0.156423 -2.729828 -0.563738
    5 -0.071919 -8.498733 -0.104137 0.015284 0.288564 -0.031698
    6 -0.488517 -2.755600 -0.228261 -0.880277 0.037645 -0.287536
    7 0.039887 -1.479789 0.029853 -1.355956 0.000000 0.000000
    8 0.028785 -1.075730 -0.023111 -1.217001 0.000000 0.000001
    9 0.250028 -2.820663 -0.238396 -0.594749 -0.018453 -0.128421
    10 -0.049759 -1.680545 0.100480 -1.344150 0.000000 -0.000002
    11 -0.034141 -1.148311 0.084779 -0.890100 0.000000 0.000000
    12 0.957766 -2.746777 -0.090301 -0.416302 -0.162565 -0.001658
    13 -0.033419 -1.397127 -0.011255 -1.019944 0.000000 -0.000001
    14 -0.022360 -0.957435 0.018783 -0.406334 0.000000 0.000000
    15 -1.180680 -2.507215 -0.193861 -0.935673 0.122928 -0.318014
    16 -0.024966 -1.123933 0.017594 -1.315285 0.000000 0.000001
    17 -0.020057 -0.890966 0.010091 -1.193939 0.000000 0.000000
    18 0.583510 -1.197274 0.185377 0.565822 -0.738520 -0.835735
    19 1.535926 0.010245 0.005008 -0.125063 -0.011793 -0.706298
    20 1.100770 0.004527 -0.010676 -0.005984 0.015074 -0.201936
    21 0.120152 -0.050266 -0.054488 0.287568 3.110905 1.561085
    22 0.447952 -2.798983 -0.200442 -1.180010 0.239647 0.248507
    23 -0.032910 -1.480207 0.004936 -1.668858 0.000000 0.000002
    24 -0.027022 -1.076920 -0.020212 -1.015864 0.000000 0.000000
    25 -0.249534 -2.846962 -0.174216 -1.033989 0.218842 0.164949
    26 0.043235 -1.683940 0.096014 -1.738499 0.002823 -0.000167
    27 0.031730 -1.160831 0.058836 -1.160052 0.000642 0.008372
    28 -0.963866 -2.785142 -0.085346 -0.754276 0.267860 0.066915
    29 0.028479 -1.403069 0.006271 -1.364513 0.000000 0.000000
    30 0.021413 -0.957782 0.020047 -0.740299 0.000000 0.000000
    31 1.164475 -2.543938 -0.170328 -0.862922 0.065073 0.386604
    32 0.024033 -1.129041 0.017806 -1.702787 0.000000 0.000001
    33 0.014896 -0.883990 -0.019845 -0.853439 0.000000 0.000000
    34 -0.586770 -1.264475 0.200164 -0.446649 -1.113739 -2.509270
    35 1.522835 0.058681 0.016850 0.627276 -0.441885 0.679144
    36 1.117948 0.048424 -0.005764 -0.016278 0.004644 1.437319
    37 -0.139399 -0.111697 0.014397 0.512814 0.046428 1.626125
  time 24
    0 0.000114 5.939355 -3.620358 0.000000 0.000000 -0.000030
    1 -9.677777 -8.727780 -3.370910 0.947903 -4.323950 1.294324
    2 0.096944 -8.450418 -0.009364 -0.206396 -0.372385 -0.252378
    3 1.075543 -2.255324 0.791183 0.071893 3.247513 0.282733
    4 12.012413 -10.546177 -3.761264 0.190828 -2.806289 -0.571109
    5 -0.071919 -8.498733 -0.104137 0.015284 0.288564 -0.031698
    6 -0.488517 -2.755600 -0.228261 -0.823033 0.037645 -0.287536
    7 0.039887 -1.479789 0.029853 -1.278084 0.000000 0.000000
    8 0.028785 -1.075730 -0.023111 -1.147331 0.000000 0.000001
    9 0.250028 -2.820663 -0.238396 -0.523728 -0.018453 -0.128421
    10 -0.049759 -1.680545 0.100480 -1.247596 0.000000 -0.000002
    11 -0.034141 -1.148311 0.084779 -0.750401 0.000000 0.000000
    12 0.957766 -2.746777 -0.090301 -0.334211 -0.162565 -0.001658
    13 -0.033419 -1.397127 -0.011255 -0.912242 0.000000 -0.000001
    14 -0.022360 -0.957435 0.018783 -0.308834 0.000000 0.000000
    15 -1.180680 -2.507215 -0.193861 -0.884840 0.122928 -0.318014
    16 -0.024966 -1.123933 0.017594 -1.246109 0.000000 0.000001
    17 -0.020057 -0.890966 0.010091 -1.132056 0.000000 0.000000
    18 0.583510 -1.197274 0.185377 0.546153 -0.702491 -0.805995
    19 1.535926 0.010245 0.005008 -0.152172 -0.011793 -0.706298
    20 1.100770 0.004527 -0.010676 -0.005984 0.015074 -0.201936
    21 0.120152 -0.050266 -0.054488 0.287568 3.110905 1.561085
    22 0.447952 -2.798983 -0.200442 -1.180010 0.239647 0.248507
    23 -0.032910 -1.480207 0.004936 -1.668858 0.000000 0.000002
    24 -0.027022 -1.076920 -0.020212 -1.015864 0.000000 0.000000
    25 -0.249534 -2.846962 -0.174216 -1.033989 0.218842 0.164949
    26 0.043235 -1.683940 0.096014 -1.738499 0.002823 -0.000167
    27 0.031730 -1.160831 0.058836 -1.160052 0.000642 0.008372
    28 -0.963866 -2.785142 -0.085346 -0.754276 0.267860 0.066915
    29 0.028479 -1.403069 0.006271 -1.364513 0.000000 0.000000
    30 0.021413 -0.957782 0.020047 -0.740299 0.000000 0.000000
    31 1.164475 -2.543938 -0.170328 -0.862922 0.065073 0.386604
    32 0.024033 -1.129041 0.017806 -1.702787 0.000000 0.000001
    33 0.014896 -0.883990 -0.019845 -0.853439 0.000000 0.000000
    34 -0.586770 -1.264475 0.200164 -0.446649 -1.113739 -2.509270
    35 1.522835 0.058681 0.016850 0.627276 -0.441885 0.679144
    36 1.117948 0.048424 -0.005764 -0.016278 0.004644 1.437277
    37 -0.139399 -0.111697 0.014397 0.470484 0.020887 1.659796
  time 25
    0 0.000114 5.939355 -3.620358 0.000000 0.000000 -0.000030
    1 -9.568398 -8.680904 -3.648263 1.152836 -4.353275 1.427224
    2 0.096944 -8.450418 -0.009364 -0.203380 -0.332546 -0.237189
    3 1.075543 -2.255324 0.791183 0.071893 3.247513 0.282733
    4 11.953818 -10.546177 -3.761264 0.219771 -2.866078 -0.579805
    5 -0.071919 -8.498733 -0.104137 0.015284 0.288564 -0.031698
    6 -0.488517 -2.755600 -0.228261 -0.765789 0.037645 -0.287536
    7 0.039887 -1.479789 0.029853 -1.200212 0.000000 0.000000
    8 0.028785 -1.075730 -0.023111 -1.077660 0.000000 0.000001
    9 0.250028 -2.820663 -0.238396 -0.461801 -0.018453 -0.128421
    10 -0.049759 -1.680545 0.100480 -1.163314 0.000000 -0.000002
    11 -0.034141 -1.148311 0.084779 -0.628503 0.000000 0.000000
    12 0.957766 -2.746777 -0.090301 -0.262610 -0.162565 -0.001658
    13 -0.033419 -1.397127 -0.011255 -0.818320 0.000000 -0.000001
    14 -0.022360 -0.957435 0.018783 -0.223799 0.000000 0.000000
    15 -1.180680 -2.507215 -0.193861 -0.832216 0.122928 -0.318014
    16 -0.024966 -1.123933 0.017594 -1.174556 0.000000 0.000001
    17 -0.020057 -0.890966 0.010091 -1.068064 0.000000 0.000000
    18 0.583510 -1.197274 0.185377 0.528736 -0.667996 -0.779060
    19 1.535926 0.010245 0.005008 -0.177939 -0.011793 -0.706298
    20 1.100770 0.004527 -0.010676 -0.005984 0.015074 -0.201936
    21 0.120152 -0.050266 -0.054488 0.287568 3.110905 1.561085
    22 0.447952 -2.798983 -0.200442 -1.180010 0.239647 0.248507
    23 -0.032910 -1.480207 0.004936 -1.668858 0.000000 0.000002
    24 -0.027022 -1.076920 -0.020212 -1.015864 0.000000 0.000000
    25 -0.249534 -2.846962 -0.174216 -1.033989 0.218842 0.164949
    26 0.043235 -1.683940 0.096014 -1.738499 0.002823 -0.000167
    27 0.031730 -1.160831 0.058836 -1.160052 0.000642 0.008372
    28 -0.963866 -2.785142 -0.085346 -0.754276 0.267860 0.066915
    29 0.028479 -1.403069 0.006271 -1.364513 0.000000 0.000000
    30 0.021413 -0.957782 0.020047 -0.740299 0.000000 0.000000
    31 1.164475 -2.543938 -0.170328 -0.862922 0.065073 0.386604
    32 0.024033 -1.129041 0.017806 -1.702787 0.000000 0.000001
    33 0.014896 -0.883990 -0.019845 -0.853439 0.000000 0.000000
    34 -0.586770 -1.264475 0.200164 -0.446649 -1.113739 -2.509270
    35 1.522835 0.058681 0.016850 0.627276 -0.441885 0.679144
    36 1.117948 0.048424 -0.005764 -0.016278 0.004644 1.437277
    37 -0.139399 -0.111697 0.014397 0.427903 -0.004612 1.693578
  time 26
    0 0.000114 5.939355 -3.620358 0.000000 0.000000 -0.000030
    1 -9.466833 -8.626215 -3.745922 1.316121 -4.387003 1.534463
    2 0.096944 -8.450418 -0.009364 -0.201230 -0.292676 -0.222417
    3 1.075543 -2.255324 0.791183 0.071893 3.247513 0.282733
    4 11.938192 -10.546177 -3.761264 0.238555 -2.896835 -0.591783
    5 -0.071919 -8.498733 -0.104137 0.015284 0.288564 -0.031698
    6 -0.488517 -2.755600 -0.228261 -0.713193 0.037645 -0.287536
    7 0.039887 -1.479789 0.029853 -1.128684 0.000000 0.000000
    8 0.028785 -1.075730 -0.023111 -1.013659 0.000000 0.000001
    9 0.250028 -2.820663 -0.238396 -0.417983 -0.018453 -0.128421
    10 -0.049759 -1.680545 0.100480 -1.103701 0.000000 -0.000002
    11 -0.034141 -1.148311 0.084779 -0.542280 0.000000 0.000000
    12 0.957766 -2.746777 -0.090301 -0.211949 -0.162565 -0.001658
    13 -0.033419 -1.397127 -0.011255 -0.751914 0.000000 -0.000001
    14 -0.022360 -0.957435 0.018783 -0.163653 0.000000 0.000000
    15 -1.180680 -2.507215 -0.193861 -0.781384 0.122928 -0.318014
    16 -0.024966 -1.123933 0.017594 -1.105380 0.000000 0.000001
    17 -0.020057 -0.890966 0.010091 -1.006181 0.000000 0.000000
    18 0.583510 -1.197274 0.185377 0.514905 -0.638711 -0.757245
    19 1.535926 0.010245 0.005008 -0.199667 -0.011793 -0.706298
    20 1.100770 0.004527 -0.010676 -0.005984 0.015074 -0.201936
    21 0.120152 -0.050266 -0.054488 0.287568 3.110905 1.561085
    22 0.447952 -2.798983 -0.200442 -1.180010 0.239647 0.248507
    23 -0.032910 -1.480207 0.004936 -1.668858 0.000000 0.000002
    24 -0.027022 -1.076920 -0.020212 -1.015864 0.000000 0.000000
    25 -0.249534 -2.846962 -0.174216 -1.033989 0.218842 0.164949
    26 0.043235 -1.683940 0.096014 -1.738499 0.002823 -0.000167
    27 0.031730 -1.160831 0.058836 -1.160052 0.000642 0.008372
    28 -0.963866 -2.785142 -0.085346 -0.754276 0.267860 0.066915
    29 0.028479 -1.403069 0.006271 -1.364513 0.000000 0.000000
    30 0.021413 -0.957782 0.020047 -0.740299 0.000000 0.000000
    31 1.164475 -2.543938 -0.170328 -0.862922 0.065073 0.386604
    32 0.024033 -1.129041 0.017806 -1.702787 0.000000 0.000001
    33 0.014896 -0.883990 -0.019845 -0.853439 0.000000 0.000000
    34 -0.586770 -1.264475 0.200164 -0.446649 -1.113739 -2.509270
    35 1.522835 0.058681 0.016850 0.627276 -0.441885 0.679144
    36 1.117948 0.048424 -0.005764 -0.016278 0.004644 1.437319
    37 -0.139399 -0.111697 0.014397 0.387455 -0.028594 1.725523
  time 27
    0 0.000114 5.939355 -3.620358 0.000000 0.000000 -0.000030
    1 -9.380893 -8.575432 -3.726390 -1.710249 -4.994954 -1.531228
    2 0.096944 -8.450418 -0.009364 -0.199834 -0.255963 -0.209140
    3 1.075543 -2.255324 0.791183 0.071893 3.247513 0.282733
    4 11.938192 -10.546177 -3.761264 0.248043 -2.906512 -0.611190
    5 -0.071919 -8.498733 -0.104137 0.017344 0.288453 -0.024423
    6 -0.488517 -2.755600 -0.228261 -0.669891 0.037645 -0.287536
    7 0.039887 -1.479789 0.029853 -1.069751 0.000000 0.000000
    8 0.028785 -1.075730 -0.023111 -0.960952 0.000000 0.000001
    9 0.250028 -2.820663 -0.238396 -0.401368 -0.018453 -0.128421
    10 -0.049759 -1.680545 0.100480 -1.081089 0.000000 -0.000002
    11 -0.034141 -1.148311 0.084779 -0.509571 0.000000 0.000000
    12 0.957766 -2.746777 -0.090301 -0.192740 -0.162565 -0.001658
    13 -0.033419 -1.397127 -0.011255 -0.726711 0.000000 -0.000001
    14 -0.022360 -0.957435 0.018783 -0.140822 0.000000 0.000000
    15 -1.180680 -2.507215 -0.193861 -0.735739 0.122928 -0.318014
    16 -0.024966 -1.123933 0.017594 -1.043335 0.000000 0.000001
    17 -0.020057 -0.890966 0.010091 -0.950671 0.000000 0.000000
    18 0.583510 -1.197274 0.185377 0.505765 -0.618389 -0.742629
    19 1.535926 0.010245 0.005008 -0.214684 -0.011793 -0.706298
    20 1.100770 0.004527 -0.010676 -0.005984 0.015074 -0.201936
    21 0.120152 -0.050266 -0.054488 0.287568 3.110905 1.561085
    22 0.447952 -2.798983 -0.200442 -1.180010 0.239647 0.248507
    23 -0.032910 -1.480207 0.004936 -1.668858 0.000000 0.000002
    24 -0.027022 -1.076920 -0.020212 -1.015864 0.000000 0.000000
    25 -0.249534 -2.846962 -0.174216 -1.033989 0.218842 0.164949
    26 0.043235 -1.683940 0.096014 -1.738499 0.002823 -0.000167
    27 0.031730 -1.160831 0.058836 -1.160052 0.000642 0.008372
    28 -0.963866 -2.785142 -0.085346 -0.754276 0.267860 0.066915
    29 0.028479 -1.403069 0.006271 -1.364513 0.000000 0.000000
    30 0.021413 -0.957782 0.020047 -0.740299 0.000000 0.000000
    31 1.164475 -2.543938 -0.170328 -0.862922 0.065073 0.386604
    32 0.024033 -1.129041 0.017806 -1.702787 0.000000 0.000001
    33 0.014896 -0.883990 -0.019845 -0.853439 0.000000 0.000000
    34 -0.586770 -1.264475 0.200164 -0.446649 -1.113739 -2.509270
    35 1.522835 0.058681 0.016850 0.627276 -0.441885 0.679144
    36 1.117948 0.048424 -0.005764 -0.016278 0.004644 1.437277
    37 -0.139399 -0.111697 0.014397 0.351621 -0.049661 1.753774
  time 28
    0 0.000114 5.939355 -3.620358 0.000000 0.000000 -0.000030
    1 -9.314484 -8.551994 -3.683420 -1.633566 -4.948858 -1.481822
    2 0.096944 -8.450418 -0.009364 -0.198996 -0.225694 -0.198400
    3 1.075543 -2.255324 0.791183 0.071893 3.247513 0.282733
    4 11.938192 -10.546177 -3.761264 0.253122 -2.911878 -0.635377
    5 -0.071919 -8.498733 -0.104137 0.021898 0.288147 -0.008400
    6 -0.488517 -2.755600 -0.228261 -0.640487 0.037645 -0.287536
    7 0.039887 -1.479789 0.029853 -1.029758 0.000000 0.000000
    8 0.028785 -1.075730 -0.023111 -0.925210 0.000000 0.000001
    9 0.250028 -2.820663 -0.238396 -0.401368 -0.018453 -0.128421
    10 -0.049759 -1.680545 0.100480 -1.081089 0.000000 -0.000002
    11 -0.034141 -1.148311 0.084779 -0.584866 0.000000 0.000000
    12 0.957766 -2.746777 -0.090301 -0.208385 -0.162565 -0.001658
    13 -0.033419 -1.397127 -0.011255 -0.742342 0.000000 -0.000001
    14 -0.022360 -0.957435 0.018783 -0.156491 0.000000 0.000000
    15 -1.180680 -2.507215 -0.193861 -0.698864 0.122928 -0.318014
    16 -0.024966 -1.123933 0.017594 -0.993127 0.000000 0.000001
    17 -0.020057 -0.890966 0.010091 -0.905753 0.000000 0.000000
    18 0.583510 -1.197274 0.185377 0.502449 -0.610780 -0.737255
    19 1.535926 0.010245 0.005008 -0.220281 -0.011793 -0.706298
    20 1.100770 0.004527 -0.010676 -0.005984 0.015074 -0.201936
    21 0.120152 -0.050266 -0.054488 0.287568 3.110905 1.561085
    22 0.447952 -2.798983 -0.200442 -1.180010 0.239647 0.248507
    23 -0.032910 -1.480207 0.004936 -1.668858 0.000000 0.000002
    24 -0.027022 -1.076920 -0.020212 -1.015864 0.000000 0.000000
    25 -0.249534 -2.846962 -0.174216 -1.033989 0.218842 0.164949
    26 0.043235 -1.683940 0.096014 -1.738499 0.002823 -0.000167
    27 0.031730 -1.160831 0.058836 -1.160052 0.000642 0.008372
    28 -0.963866 -2.785142 -0.085346 -0.754276 0.267860 0.066915
    29 0.028479 -1.403069 0.006271 -1.364513 0.000000 0.000000
    30 0.021413 -0.957782 0.020047 -0.740299 0.000000 0.000000
    31 1.164475 -2.543938 -0.170328 -0.862922 0.065073 0.386604
    32 0.024033 -1.129041 0.017806 -1.702787 0.000000 0.000001
    33 0.014896 -0.883990 -0.019845 -0.853439 0.000000 0.000000
    34 -0.586770 -1.264475 0.200164 -0.446649 -1.113739 -2.509270
    35 1.522835 0.058681 0.016850 0.627276 -0.441885 0.679144
    36 1.117948 0.048424 -0.005764 -0.016278 0.004644 1.437319
    37 -0.139399 -0.111697 0.014397 0.322906 -0.066433 1.776384
  time 29
    0 0.000114 5.939355 -3.620358 0.000000 0.000000 -0.000030
    1 -9.271514 -8.540275 -3.640450 -1.591356 -4.911945 -1.455587
    2 0.096944 -8.450418 -0.009364 -0.198605 -0.205152 -0.191240
    3 1.075543 -2.255324 0.791183 0.071893 3.247513 0.282733
    4 11.938192 -10.546177 -3.761264 0.255230 -2.914273 -0.656051
    5 -0.071919 -8.498733 -0.104137 0.026451 0.287772 0.007623
    6 -0.488517 -2.755600 -0.228261 -0.629673 0.037645 -0.287536
    7 0.039887 -1.479789 0.029853 -1.015001 0.000000 0.000000
    8 0.028785 -1.075730 -0.023111 -0.912011 0.000000 0.000001
    9 0.250028 -2.820663 -0.238396 -0.401368 -0.018453 -0.128421
    10 -0.049759 -1.680545 0.100480 -1.081089 0.000000 -0.000002
    11 -0.034141 -1.148311 0.084779 -0.724715 0.000000 0.000000
    12 0.957766 -2.746777 -0.090301 -0.237461 -0.162565 -0.001658
    13 -0.033419 -1.397127 -0.011255 -0.771383 0.000000 -0.000001
    14 -0.022360 -0.957435 0.018783 -0.185535 0.000000 0.000000
    15 -1.180680 -2.507215 -0.193861 -0.674156 0.122928 -0.318014
    16 -0.024966 -1.123933 0.017594 -0.959509 0.000000 0.000001
    17 -0.020057 -0.890966 0.010091 -0.875691 0.000000 0.000000
    18 0.583510 -1.197274 0.185377 0.502449 -0.610780 -0.737255
    19 1.535926 0.010245 0.005008 -0.220281 -0.011793 -0.706298
    20 1.100770 0.004527 -0.010676 -0.005984 0.015074 -0.201936
    21 0.120152 -0.050266 -0.054488 0.287568 3.110905 1.561085
    22 0.447952 -2.798983 -0.200442 -1.180010 0.239647 0.248507
    23 -0.032910 -1.480207 0.004936 -1.668858 0.000000 0.000002
    24 -0.027022 -1.076920 -0.020212 -1.015864 0.000000 0.000000
    25 -0.249534 -2.846962 -0.174216 -1.033989 0.218842 0.164949
    26 0.043235 -1.683940 0.096014 -1.738499 0.002823 -0.000167
    27 0.031730 -1.160831 0.058836 -1.160052 0.000642 0.008372
    28 -0.963866 -2.785142 -0.085346 -0.754276 0.267860 0.066915
    29 0.028479 -1.403069 0.006271 -1.364513 0.000000 0.000000
    30 0.021413 -0.957782 0.020047 -0.740299 0.000000 0.000000
    31 1.164475 -2.543938 -0.170328 -0.862922 0.065073 0.386604
    32 0.024033 -1.129041 0.017806 -1.702787 0.000000 0.000001
    33 0.014896 -0.883990 -0.019845 -0.853439 0.000000 0.000000
    34 -0.586770 -1.264475 0.200164 -0.446649 -1.113739 -2.509270
    35 1.522835 0.058681 0.016850 0.627276 -0.441885 0.679144
    36 1.117948 0.048424 -0.005764 -0.016278 0.004644 1.437277
    37 -0.139399 -0.111697 0.014397 0.303826 -0.077514 1.791383
  time 30
    0 0.000114 5.939355 -3.620358 0.000000 0.000000 -0.000030
    1 -9.255889 -8.536368 -3.620918 -1.578552 -4.896861 -1.447927
    2 0.096944 -8.450418 -0.009364 -0.198493 -0.197561 -0.188633
    3 1.075543 -2.255324 0.791183 0.071893 3.247513 0.282733
    4 11.938192 -10.546177 -3.761264 0.255614 -2.914752 -0.664747
    5 -0.071919 -8.498733 -0.104137 0.028525 0.287591 0.014898
    6 -0.488517 -2.755600 -0.228261 -0.629673 0.037645 -0.287536
    7 0.039887 -1.479789 0.029853 -1.015001 0.000000 0.000000
    8 0.028785 -1.075730 -0.023111 -0.912011 0.000000 0.000001
    9 0.250028 -2.820663 -0.238396 -0.401368 -0.018453 -0.128421
    10 -0.049759 -1.680545 0.100480 -1.081089 0.000000 -0.000002
    11 -0.034141 -1.148311 0.084779 -0.800009 0.000000 0.000000
    12 0.957766 -2.746777 -0.090301 -0.253106 -0.162565 -0.001658
    13 -0.033419 -1.397127 -0.011255 -0.787060 0.000000 -0.000001
    14 -0.022360 -0.957435 0.018783 -0.201165 0.000000 0.000000
    15 -1.180680 -2.507215 -0.193861 -0.665149 0.122928 -0.318014
    16 -0.024966 -1.123933 0.017594 -0.947284 0.000000 0.000001
    17 -0.020057 -0.890966 0.010091 -0.864747 0.000000 0.000000
    18 0.583510 -1.197274 0.185377 0.502449 -0.610780 -0.737255
    19 1.535926 0.010245 0.005008 -0.220281 -0.011793 -0.706298
    20 1.100770 0.004527 -0.010676 -0.005984 0.015074 -0.201936
    21 0.120152 -0.050266 -0.054488 0.287568 3.110905 1.561085
    22 0.447952 -2.798983 -0.200442 -1.180010 0.239647 0.248507
    23 -0.032910 -1.480207 0.004936 -1.668858 0.000000 0.000002
    24 -0.027022 -1.076920 -0.020212 -1.015864 0.000000 0.000000
    25 -0.249534 -2.846962 -0.174216 -1.033989 0.218842 0.164949
    26 0.043235 -1.683940 0.096014 -1.738499 0.002823 -0.000167
    27 0.031730 -1.160831 0.058836 -1.160052 0.000642 0.008372
    28 -0.963866 -2.785142 -0.085346 -0.754276 0.267860 0.066915
    29 0.028479 -1.403069 0.006271 -1.364513 0.000000 0.000000
    30 0.021413 -0.957782 0.020047 -0.740299 0.000000 0.000000
    31 1.164475 -2.543938 -0.170328 -0.862922 0.065073 0.386604
    32 0.024033 -1.129041 0.017806 -1.702787 0.000000 0.000001
    33 0.014896 -0.883990 -0.019845 -0.853439 0.000000 0.000000
    34 -0.586770 -1.264475 0.200164 -0.446649 -1.113739 -2.509270
    35 1.522835 0.058681 0.016850 0.627276 -0.441885 0.679144
    36 1.117948 0.048424 -0.005764 -0.016278 0.004644 1.437277
    37 -0.139399 -0.111697 0.014397 0.296911 -0.081523 1.796803
end
