// Created by Crowbar 0.58

$modelname "weapons/tfa_cso/c_gunkata.mdl"

$Include "csonline_gmod.qci"

$bodygroup "weapon"
{
	studio "v_gunkata_ref_left"
}
$bodygroup "weapon"
{
	studio "v_gunkata_ref_left2"
}
$bodygroup "weapon"
{
	studio "v_gunkata_ref_right"
}
$bodygroup "weapon"
{
	studio "v_gunkata_ref_right2"
}
$bodygroup "fx"
{
	studio "v_gunkata_ref_fx01"
}
$bodygroup "fx"
{
	studio "v_gunkata_ref_fx02"
}

$CDMaterials "models\weapons\tfa_cso\gunkata\"

$attachment 0 "gunkata_root" 2.557 0 8.776
$attachment 1 "gunkata_root" 2.585 -0.953 0.953
//$attachment 2 "gunkata_root001" 2.557 0 8.776
//$attachment 3 "gunkata_root001" 2.585 0.953 0.953
//$attachment 4 "root" -1 -25 0
//$attachment 5 "root" 1 -26 0.2


$sequence "idle" {
	"v_gunkata_anims\idle"
	{ event 5004 1 "Gunkata.Idle" }
	fps 30
	loop
	activity "ACT_VM_IDLE" 1
	snap
}
$sequence "idle2" {
	"v_gunkata_anims\idle2"
	fps 30
	loop
}
$sequence "shoot" {
	"v_gunkata_anims\shoot"
	{ event 5001 0 "#I77 S0.06 R2 F0 P30 T0.1 A1 L0 O0 X0" }
	fps 30
	activity "ACT_VM_PRIMARYATTACK" 1
	snap
}
$sequence "shoot_last" {
	"v_gunkata_anims\shoot_last"
	{ event 5001 0 "#I77 S0.06 R2 F0 P30 T0.1 A1 L0 O0 X0" }
	fps 30
}
$sequence "shoot2" {
	"v_gunkata_anims\shoot2"
	{ event 5021 0 "#I77 S0.06 R2 F0 P60 T0.1 A1 L0 O0 X2" }
	fps 30
}
$sequence "shoot2_last" {
	"v_gunkata_anims\shoot2_last"
	{ event 5021 0 "#I77 S0.06 R2 F0 P60 T0.1 A1 L0 O0 X2" }
	fps 30
}
$sequence "reload" {
	"v_gunkata_anims\reload"
	{ event 5004 1 "Gunkata.Reload" }
	fps 30
}
$sequence "reload2" {
	"v_gunkata_anims\reload2"
	{ event 5004 3 "Gunkata.Reload2" }
	fps 30
	activity "ACT_VM_RELOAD" 1
	snap
}
$sequence "draw" {
	"v_gunkata_anims\draw"
	{ event 5004 1 "Gunkata.Draw" }
	fps 30
	activity "ACT_VM_DRAW" 1
	snap
}
$sequence "draw2" {
	"v_gunkata_anims\draw2"
	{ event 5004 1 "Gunkata.Draw2" }
	fps 30
}
$sequence "skill_01" {
	"v_gunkata_anims\skill_01"
	fps 30
}
$sequence "skill_02" {
	"v_gunkata_anims\skill_02"
	fps 30
}
$sequence "skill_03" {
	"v_gunkata_anims\skill_03"
	{ event 5001 3 "#I77 S0.06 R2 F0 P30 T0.1 A1 L0 O0" }
	fps 30
}
$sequence "skill_04" {
	"v_gunkata_anims\skill_04"
	{ event 5021 24 "#I77 S0.06 R2 F0 P30 T0.1 A1 L0 O0" }
	fps 30
}
$sequence "skill_05" {
	"v_gunkata_anims\skill_05"
	fps 30
}
$sequence "skill_last" {
	"v_gunkata_anims\skill_last"
	{ event 5004 1 "weapons/gunkata_skill_last.wav" }
	fps 30
}
