// Created by Crowbar 0.49.0.0

$modelname "weapons/tfa_cso/c_infinite_red.mdl"

$Include "csonline_gmod.qci"

$bodygroup "weapon"
{
	studio "v_infinitysr_NEXON_CSO_Infinity_S_windleo_red"
}

$CDMaterials "models\weapons\tfa_cso\infinite_red\"

$attachment 0 "NEXON_CSO_infi_Root_L" -0.168 -7.983 2.343
//$attachment 1 "NEXON_CSO_infi_Root_L" 0.163 -2.429 2.659

$sequence "idle1" {
	"v_infinitysr_anims\idle1"
	fps 7
	loop
	activity "ACT_VM_IDLE" 1
	snap
}
$sequence "shoot1" {
	"v_infinitysr_anims\shoot1"
	{ event 5001 0 "21" }
	fps 30
	activity "ACT_VM_PRIMARYATTACK" 1
	snap
}
$sequence "shoot2" {
	"v_infinitysr_anims\shoot2"
	{ event 5001 0 "21" }
	fps 30
	activity "ACT_VM_PRIMARYATTACK" 2
	snap
}
$sequence "shoot_empty" {
	"v_infinitysr_anims\shoot_empty"
	fps 30
}
$sequence "reload" {
	"v_infinitysr_anims\reload"
	{ event 5004 1 "INFINITE.Foley1" }
	{ event 5004 15 "INFINITE.ClipOut" }
	{ event 5004 34 "INFINITE.ClipIn" }
	{ event 5004 51 "INFINITE.Foley2" }
	fps 30
	activity "ACT_VM_RELOAD" 1
	snap
}
$sequence "draw" {
	"v_infinitysr_anims\draw"
	{ event 5004 7 "INFINITE.Draw" }
	fps 30
	activity "ACT_VM_DRAW" 1
	snap
}
