// Created by Crowbar 0.34.0.0

$ModelName "weapons/tfa_cso/w_rockbreaker.mdl"

$BodyGroup "studio"
{
	studio "v_ref_1"
}

$collisionmodel "v_ref_1.smd"
{
	$mass 9
}

$CDMaterials "models\weapons\tfa_cso\rockbreaker\"

$Sequence "idle" {
	"anims\idle.smd"
	fps 30
}