version 1
nodes
  0 "scar_root" -1
  1 "Bone046" 0
  2 "Bone047" 0
  3 "Bone048" 0
  4 "root" -1
  5 "Bone01" 4
  6 "Bone_L_Upper" 5
  7 "Bone_Lefthand" 5
  8 "Bone13" 7
  9 "Bone14" 8
  10 "Bone15" 9
  11 "Bone17" 7
  12 "Bone18" 11
  13 "Bone19" 12
  14 "Bone21" 7
  15 "Bone22" 14
  16 "Bone23" 15
  17 "Bone09" 7
  18 "Bone10" 17
  19 "Bone11" 18
  20 "Bone05" 7
  21 "Bone06" 20
  22 "Bone07" 21
  23 "Bone_Se_Hand-L" 7
  24 "Bone04" 4
  25 "Bone_Righthand" 24
  26 "Bone39" 25
  27 "Bone40" 26
  28 "Bone41" 27
  29 "Bone35" 25
  30 "Bone36" 29
  31 "Bone37" 30
  32 "Bone31" 25
  33 "Bone32" 32
  34 "Bone33" 33
  35 "Bone43" 25
  36 "Bone44" 35
  37 "Bone45" 36
  38 "Bone27" 25
  39 "Bone28" 38
  40 "Bone29" 39
  41 "Bone_Se_Hand-R" 25
  42 "Bone_R_Upper" 24
end
skeleton
  time 0
    0 6.429205 -6.374520 -9.236681 1.431919 -5.626241 -1.671475
    1 7.544978 0.157464 0.293294 -0.000001 -1.570451 0.000000
    2 4.270654 -2.975987 -0.024055 1.570796 0.000000 -1.570797
    3 2.246859 -0.655005 0.464540 -0.000001 -1.570451 0.000000
    4 -0.862154 -0.856760 -1.276764 -0.003020 -0.360401 0.288652
    5 6.802214 3.048297 -7.186701 4.928543 -2.180831 0.803428
    6 8.046450 1.477206 -0.364657 1.568199 -3.118154 0.259411
    7 0.029645 -8.463579 -0.068977 -0.065441 0.777762 0.161869
    8 -0.488518 -2.755602 -0.228260 -0.888349 0.016180 -0.254183
    9 0.039887 -1.550105 0.025948 -1.996582 -0.004231 0.044080
    10 0.028786 -1.118701 -0.097330 -0.653179 -0.012308 0.012104
    11 0.250027 -2.820665 -0.238396 -0.790610 -0.014043 -0.199190
    12 -0.049759 -1.594604 0.030164 -1.602203 -0.000683 -0.042667
    13 -0.034142 -1.171750 0.045718 -1.183605 0.006424 -0.031196
    14 0.957766 -2.746780 -0.090302 -0.082058 -0.157843 0.041008
    15 -0.033420 -1.397129 -0.026882 -0.857365 0.006352 -0.042163
    16 -0.022360 -0.957436 0.003159 -0.680276 0.007706 -0.033006
    17 -1.180681 -2.507217 -0.193859 -0.695044 0.195831 -0.247787
    18 -0.024967 -1.127840 0.017597 -1.674946 -0.016359 -0.065243
    19 -0.020057 -0.906594 0.025715 -0.860044 0.007095 -0.034791
    20 0.614761 -1.197277 0.181473 0.632188 -0.960454 -0.780381
    21 1.485144 -0.204604 0.067511 0.042194 -0.205332 -0.725395
    22 0.987486 -0.190791 0.047917 0.109955 -0.259553 -1.139777
    23 0.120153 -0.050270 -0.054489 0.287569 3.110905 1.561085
    24 -5.048258 -2.871813 -9.485948 -0.778717 -4.348982 -0.492410
    25 -0.211659 -8.622299 -0.013271 2.045929 -1.076198 -1.547916
    26 0.447953 -2.798986 -0.200443 -1.183464 0.094973 0.272944
    27 -0.032909 -1.499736 0.024472 -1.308919 0.023094 -0.024147
    28 -0.027022 -1.092546 -0.028023 -0.391276 0.010558 -0.003523
    29 -0.249534 -2.846964 -0.174213 -0.278784 0.073197 0.179510
    30 0.043235 -1.656596 0.072574 -1.327365 -0.021074 0.005969
    31 0.031729 -1.153017 0.058838 -0.608222 -0.005962 0.005412
    32 -0.963866 -2.785145 -0.085350 0.079800 0.067813 0.016293
    33 0.028479 -1.403067 -0.009354 -0.575276 -0.011242 -0.023741
    34 0.021413 -0.953875 0.020046 -0.184272 -0.002145 -0.008221
    35 1.164475 -2.543940 -0.170330 -1.562681 0.036862 0.334867
    36 0.024032 -1.136855 -0.001725 -0.870851 0.006771 0.046010
    37 0.014898 -0.891802 -0.019848 -0.489133 -0.002001 0.023813
    38 -0.586770 -1.264477 0.200161 0.068094 -0.661853 -2.976115
    39 1.554086 0.035243 0.016848 -0.013511 -0.005325 0.697370
    40 1.117947 0.048424 -0.005766 -0.000435 -0.025390 0.073974
    41 0.020762 -0.154668 -0.286393 0.922150 0.176087 1.761487
    42 -7.456155 4.225755 -0.426939 1.575639 -0.029220 -0.605059
  time 1
    0 6.421393 -6.464367 -8.982767 1.435545 -5.666165 -1.667254
    1 7.544978 0.157464 0.293294 -0.000001 -1.570451 0.000000
    2 4.270654 -2.975987 -0.024055 1.570796 0.000000 -1.570797
    3 2.246859 -0.655005 0.464540 -0.000001 -1.570451 0.000000
    4 -0.862154 -0.856760 -1.276764 -0.003020 -0.360401 0.288652
    5 6.786589 2.977982 -7.214046 4.944123 -2.165791 0.790769
    6 8.046450 1.449862 -0.364657 1.568295 -3.118059 0.256060
    7 0.029645 -8.467485 -0.068977 -0.041120 0.781857 0.196460
    8 -0.488518 -2.755602 -0.228260 -0.888349 0.016180 -0.254183
    9 0.039887 -1.550105 0.025948 -1.996582 -0.004231 0.044080
    10 0.028786 -1.118701 -0.097330 -0.653179 -0.012308 0.012104
    11 0.250027 -2.820665 -0.238396 -0.790610 -0.014043 -0.199190
    12 -0.049759 -1.594604 0.030164 -1.602203 -0.000683 -0.042667
    13 -0.034142 -1.171750 0.045718 -1.183605 0.006424 -0.031196
    14 0.957766 -2.746780 -0.090302 -0.082058 -0.157843 0.041008
    15 -0.033420 -1.397129 -0.026882 -0.857365 0.006352 -0.042163
    16 -0.022360 -0.957436 0.003159 -0.680276 0.007706 -0.033006
    17 -1.180681 -2.507217 -0.193859 -0.695044 0.195831 -0.247787
    18 -0.024967 -1.127840 0.017597 -1.674946 -0.016359 -0.065243
    19 -0.020057 -0.906594 0.025715 -0.860044 0.007095 -0.034791
    20 0.614761 -1.197277 0.181473 0.632188 -0.960454 -0.780381
    21 1.485144 -0.204604 0.067511 0.042194 -0.205332 -0.725395
    22 0.987486 -0.190791 0.047917 0.109955 -0.259553 -1.139777
    23 0.120153 -0.050270 -0.054489 0.287569 3.110905 1.561085
    24 -5.063884 -2.992910 -9.431259 -0.686389 -4.365306 -0.400329
    25 -0.207753 -8.614486 -0.009365 1.977155 -1.094168 -1.529756
    26 0.447953 -2.798986 -0.200443 -1.180266 0.095044 0.273579
    27 -0.032909 -1.499736 0.024472 -1.308587 0.023094 -0.024147
    28 -0.027022 -1.088639 -0.028023 -0.384529 0.010391 -0.003428
    29 -0.249534 -2.846964 -0.174213 -0.360115 0.071675 0.179570
    30 0.043235 -1.656596 0.072574 -1.327365 -0.021074 0.005969
    31 0.031729 -1.153017 0.058838 -0.602790 -0.005890 0.005424
    32 -0.963866 -2.785145 -0.085350 -0.035064 0.074417 0.026839
    33 0.028479 -1.403067 -0.013261 -0.649901 -0.013603 -0.026162
    34 0.021413 -0.957781 0.020046 -0.177540 -0.002037 -0.007934
    35 1.164475 -2.543940 -0.170330 -1.561950 0.037317 0.335322
    36 0.024032 -1.136855 -0.001725 -0.868982 0.006723 0.045926
    37 0.014898 -0.891802 -0.019848 -0.482575 -0.002049 0.023442
    38 -0.586770 -1.264477 0.200161 0.065117 -0.659711 -2.978017
    39 1.554086 0.035243 0.016848 -0.013451 -0.005301 0.694923
    40 1.117947 0.048424 -0.005766 -0.000219 -0.025174 0.064396
    41 0.016856 -0.154668 -0.282487 0.913272 0.169322 1.747298
    42 -7.514751 4.104658 -0.430845 1.575351 -0.029555 -0.588659
  time 2
    0 6.405767 -6.679217 -8.346029 1.446711 -5.760852 -1.658098
    1 7.544978 0.157464 0.293294 -0.000001 -1.570451 0.000000
    2 4.270654 -2.975987 -0.024055 1.570796 0.000000 -1.570797
    3 2.246859 -0.655005 0.464540 -0.000001 -1.570451 0.000000
    4 -0.862154 -0.856760 -1.276764 -0.003020 -0.360401 0.288652
    5 6.755338 2.778758 -7.272641 4.991629 -2.127860 0.753010
    6 8.054262 1.379547 -0.368563 1.568391 -3.117868 0.247418
    7 0.029645 -8.479205 -0.065070 0.013948 0.787221 0.272744
    8 -0.488518 -2.755602 -0.228260 -0.888349 0.016180 -0.254183
    9 0.039887 -1.550105 0.025948 -1.996582 -0.004231 0.044080
    10 0.028786 -1.118701 -0.097330 -0.653179 -0.012308 0.012104
    11 0.250027 -2.820665 -0.238396 -0.790610 -0.014043 -0.199190
    12 -0.049759 -1.594604 0.030164 -1.602203 -0.000683 -0.042667
    13 -0.034142 -1.171750 0.045718 -1.183605 0.006424 -0.031196
    14 0.957766 -2.746780 -0.090302 -0.082058 -0.157843 0.041008
    15 -0.033420 -1.397129 -0.026882 -0.857365 0.006352 -0.042163
    16 -0.022360 -0.957436 0.003159 -0.680276 0.007706 -0.033006
    17 -1.180681 -2.507217 -0.193859 -0.695044 0.195831 -0.247787
    18 -0.024967 -1.127840 0.017597 -1.674946 -0.016359 -0.065243
    19 -0.020057 -0.906594 0.025715 -0.860044 0.007095 -0.034791
    20 0.614761 -1.197277 0.181473 0.632188 -0.960454 -0.780381
    21 1.485144 -0.204604 0.067511 0.042194 -0.205332 -0.725395
    22 0.987486 -0.190791 0.047917 0.109955 -0.259553 -1.139777
    23 0.120153 -0.050270 -0.054489 0.287569 3.110905 1.561085
    24 -5.017007 -3.395266 -9.267191 -0.408884 -4.403787 -0.125513
    25 -0.199940 -8.602767 0.002354 1.847601 -1.125210 -1.444807
    26 0.447953 -2.798986 -0.200443 -1.172514 0.095212 0.275113
    27 -0.032909 -1.499736 0.024472 -1.307811 0.023094 -0.024123
    28 -0.027022 -1.088639 -0.028023 -0.368234 0.009983 -0.003200
    29 -0.249534 -2.846964 -0.174213 -0.440878 0.070189 0.179738
    30 0.043235 -1.656596 0.072574 -1.327365 -0.021074 0.005969
    31 0.031729 -1.153017 0.058838 -0.589686 -0.005722 0.005448
    32 -0.963866 -2.785145 -0.085350 -0.153381 0.082842 0.037122
    33 0.028479 -1.403067 -0.013261 -0.726578 -0.016203 -0.028451
    34 0.021413 -0.957781 0.020046 -0.161167 -0.001798 -0.007227
    35 1.164475 -2.543940 -0.170330 -1.560262 0.038420 0.336425
    36 0.024032 -1.136855 -0.001725 -0.864406 0.006580 0.045710
    37 0.014898 -0.891802 -0.019848 -0.466589 -0.002145 0.022555
    38 -0.586770 -1.264477 0.200161 0.057907 -0.654567 -2.982658
    39 1.554086 0.035243 0.016848 -0.013295 -0.005241 0.688966
    40 1.117947 0.048424 -0.005766 0.000296 -0.024635 0.041059
    41 0.012949 -0.154668 -0.274674 0.889901 0.151468 1.709882
    42 -7.604597 3.897620 -0.434751 1.574872 -0.030107 -0.561154
  time 3
    0 6.374516 -6.917506 -7.451470 1.459498 -5.894219 -1.649417
    1 7.544978 0.157464 0.293294 -0.000001 -1.570451 0.000000
    2 4.270654 -2.975987 -0.024055 1.570796 0.000000 -1.570797
    3 2.246859 -0.655005 0.464540 -0.000001 -1.570451 0.000000
    4 -0.862154 -0.856760 -1.276764 -0.003020 -0.360401 0.288652
    5 6.712368 2.489686 -7.346862 5.072207 -2.075354 0.686750
    6 8.062075 1.281888 -0.368563 1.568487 -3.117678 0.235190
    7 0.033551 -8.490924 -0.065070 0.090969 0.789025 0.378418
    8 -0.488518 -2.755602 -0.228260 -0.888349 0.016180 -0.254183
    9 0.039887 -1.550105 0.025948 -1.996582 -0.004231 0.044080
    10 0.028786 -1.118701 -0.097330 -0.653179 -0.012308 0.012104
    11 0.250027 -2.820665 -0.238396 -0.790610 -0.014043 -0.199190
    12 -0.049759 -1.594604 0.030164 -1.602203 -0.000683 -0.042667
    13 -0.034142 -1.171750 0.045718 -1.183605 0.006424 -0.031196
    14 0.957766 -2.746780 -0.090302 -0.082058 -0.157843 0.041008
    15 -0.033420 -1.397129 -0.026882 -0.857365 0.006352 -0.042163
    16 -0.022360 -0.957436 0.003159 -0.680276 0.007706 -0.033006
    17 -1.180681 -2.507217 -0.193859 -0.695044 0.195831 -0.247787
    18 -0.024967 -1.127840 0.017597 -1.674946 -0.016359 -0.065243
    19 -0.020057 -0.906594 0.025715 -0.860044 0.007095 -0.034791
    20 0.614761 -1.197277 0.181473 0.632188 -0.960454 -0.780381
    21 1.485144 -0.204604 0.067511 0.042194 -0.205332 -0.725395
    22 0.987486 -0.190791 0.047917 0.109955 -0.259553 -1.139777
    23 0.120153 -0.050270 -0.054489 0.287569 3.110905 1.561085
    24 -4.884191 -4.004660 -8.966401 0.049962 -4.414278 0.331467
    25 -0.188221 -8.587141 0.014073 1.655300 -1.161281 -1.295112
    26 0.447953 -2.798986 -0.200443 -1.162918 0.095404 0.277007
    27 -0.032909 -1.499736 0.024472 -1.306869 0.023082 -0.024087
    28 -0.027022 -1.088639 -0.024116 -0.348051 0.009480 -0.002936
    29 -0.249534 -2.846964 -0.174213 -0.521357 0.068714 0.180026
    30 0.043235 -1.656596 0.072574 -1.327365 -0.021074 0.005969
    31 0.031729 -1.153017 0.058838 -0.573485 -0.005518 0.005484
    32 -0.963866 -2.785145 -0.085350 -0.273064 0.092681 0.046566
    33 0.028479 -1.403067 -0.017167 -0.804046 -0.019008 -0.030549
    34 0.021413 -0.957781 0.020046 -0.140929 -0.001510 -0.006364
    35 1.164475 -2.543940 -0.170330 -1.558181 0.039774 0.337791
    36 0.024032 -1.136855 -0.001725 -0.858797 0.006412 0.045447
    37 0.014898 -0.891802 -0.019848 -0.446812 -0.002253 0.021452
    38 -0.586770 -1.264477 0.200161 0.048978 -0.648213 -2.988433
    39 1.554086 0.035243 0.016848 -0.013103 -0.005157 0.681625
    40 1.117947 0.048424 -0.005766 0.000920 -0.023952 0.012249
    41 0.001230 -0.154668 -0.262955 0.856853 0.126240 1.656994
    42 -7.678818 3.714021 -0.434751 1.574440 -0.030562 -0.537547
  time 4
    0 6.323733 -7.085479 -6.420189 1.470187 -6.050277 -1.644304
    1 7.544978 0.157464 0.293294 -0.000001 -1.570451 0.000000
    2 4.270654 -2.975987 -0.024055 1.570796 0.000000 -1.570797
    3 2.246859 -0.655005 0.464540 -0.000001 -1.570451 0.000000
    4 -0.862154 -0.856760 -1.276764 -0.003020 -0.360401 0.288652
    5 6.665491 2.142019 -7.413270 5.189967 -2.017791 0.585986
    6 8.069888 1.164697 -0.368563 1.568679 -3.117392 0.220904
    7 0.041364 -8.506549 -0.061164 0.179413 0.783393 0.499670
    8 -0.488518 -2.755602 -0.228260 -0.888349 0.016180 -0.254183
    9 0.039887 -1.550105 0.025948 -1.996582 -0.004231 0.044080
    10 0.028786 -1.118701 -0.097330 -0.653179 -0.012308 0.012104
    11 0.250027 -2.820665 -0.238396 -0.790610 -0.014043 -0.199190
    12 -0.049759 -1.594604 0.030164 -1.602203 -0.000683 -0.042667
    13 -0.034142 -1.171750 0.045718 -1.183605 0.006424 -0.031196
    14 0.957766 -2.746780 -0.090302 -0.082058 -0.157843 0.041008
    15 -0.033420 -1.397129 -0.026882 -0.857365 0.006352 -0.042163
    16 -0.022360 -0.957436 0.003159 -0.680276 0.007706 -0.033006
    17 -1.180681 -2.507217 -0.193859 -0.695044 0.195831 -0.247787
    18 -0.024967 -1.127840 0.017597 -1.674946 -0.016359 -0.065243
    19 -0.020057 -0.906594 0.025715 -0.860044 0.007095 -0.034791
    20 0.614761 -1.197277 0.181473 0.632188 -0.960454 -0.780381
    21 1.485144 -0.204604 0.067511 0.042194 -0.205332 -0.725395
    22 0.987486 -0.190791 0.047917 0.109955 -0.259553 -1.139777
    23 0.120153 -0.050270 -0.054489 0.287569 3.110905 1.561085
    24 -4.657622 -4.731245 -8.501543 0.504908 -4.359551 0.788828
    25 -0.172595 -8.571516 0.029699 1.401521 -1.190706 -1.085948
    26 0.447953 -2.798986 -0.200443 -1.154190 0.095572 0.278720
    27 -0.032909 -1.499736 0.024472 -1.305982 0.023082 -0.024063
    28 -0.027022 -1.088639 -0.024116 -0.329812 0.009012 -0.002697
    29 -0.249534 -2.846964 -0.174213 -0.601978 0.067264 0.180433
    30 0.043235 -1.656596 0.072574 -1.327365 -0.021074 0.005969
    31 0.031729 -1.153017 0.058838 -0.558808 -0.005326 0.005520
    32 -0.963866 -2.785145 -0.085350 -0.392099 0.103432 0.054667
    33 0.028479 -1.403067 -0.017167 -0.881095 -0.021944 -0.032430
    34 0.021413 -0.957781 0.020046 -0.122645 -0.001270 -0.005573
    35 1.164475 -2.543940 -0.170330 -1.556269 0.041008 0.339038
    36 0.024032 -1.136855 -0.001725 -0.853729 0.006256 0.045207
    37 0.014898 -0.891802 -0.019848 -0.428931 -0.002337 0.020446
    38 -0.586770 -1.264477 0.200161 0.040899 -0.642533 -2.993702
    39 1.554086 0.035243 0.016848 -0.012924 -0.005073 0.674992
    40 1.117947 0.048424 -0.005766 0.001459 -0.023316 -0.013825
    41 -0.010489 -0.154668 -0.251236 0.818988 0.097311 1.596376
    42 -7.698350 3.655425 -0.438658 1.574296 -0.030718 -0.529825
  time 5
    0 6.257325 -7.136262 -5.381094 1.478012 -6.212749 -1.643412
    1 7.544978 0.157464 0.293294 -0.000001 -1.570451 0.000000
    2 4.270654 -2.975987 -0.024055 1.570796 0.000000 -1.570797
    3 2.246859 -0.655005 0.464540 -0.000001 -1.570451 0.000000
    4 -0.862154 -0.856760 -1.276764 -0.003020 -0.360401 0.288652
    5 6.618615 1.767008 -7.456240 5.347395 -1.964753 0.446232
    6 8.073794 1.043599 -0.372470 1.568871 -3.117106 0.206090
    7 0.045270 -8.522175 -0.061164 0.267698 0.769229 0.621557
    8 -0.488518 -2.755602 -0.228260 -0.888349 0.016180 -0.254183
    9 0.039887 -1.550105 0.025948 -1.996582 -0.004231 0.044080
    10 0.028786 -1.118701 -0.097330 -0.653179 -0.012308 0.012104
    11 0.250027 -2.820665 -0.238396 -0.790610 -0.014043 -0.199190
    12 -0.049759 -1.594604 0.030164 -1.602203 -0.000683 -0.042667
    13 -0.034142 -1.171750 0.045718 -1.183605 0.006424 -0.031196
    14 0.957766 -2.746780 -0.090302 -0.082058 -0.157843 0.041008
    15 -0.033420 -1.397129 -0.026882 -0.857365 0.006352 -0.042163
    16 -0.022360 -0.957436 0.003159 -0.680276 0.007706 -0.033006
    17 -1.180681 -2.507217 -0.193859 -0.695044 0.195831 -0.247787
    18 -0.024967 -1.127840 0.017597 -1.674946 -0.016359 -0.065243
    19 -0.020057 -0.906594 0.025715 -0.860044 0.007095 -0.034791
    20 0.614761 -1.197277 0.181473 0.632188 -0.960454 -0.780381
    21 1.485144 -0.204604 0.067511 0.042194 -0.205332 -0.725395
    22 0.987486 -0.190791 0.047917 0.109955 -0.259553 -1.139777
    23 0.120153 -0.050270 -0.054489 0.287569 3.110905 1.561085
    24 -4.352925 -5.446110 -7.872617 0.796160 -4.259454 1.089233
    25 -0.156970 -8.551984 0.041418 1.111515 -1.202379 -0.845171
    26 0.447953 -2.798986 -0.200443 -1.149203 0.095656 0.279715
    27 -0.032909 -1.499736 0.024472 -1.305484 0.023082 -0.024051
    28 -0.027022 -1.088639 -0.024116 -0.319234 0.008749 -0.002565
    29 -0.249534 -2.846964 -0.174213 -0.683073 0.065850 0.180961
    30 0.043235 -1.656596 0.072574 -1.327365 -0.021074 0.005969
    31 0.031729 -1.153017 0.058838 -0.550327 -0.005218 0.005532
    32 -0.963866 -2.785145 -0.085350 -0.508438 0.114445 0.061127
    33 0.028479 -1.403067 -0.021074 -0.956559 -0.024964 -0.034036
    34 0.021413 -0.957781 0.020046 -0.112048 -0.001139 -0.005105
    35 1.164475 -2.543940 -0.170330 -1.555144 0.041715 0.339757
    36 0.024032 -1.136855 -0.001725 -0.850826 0.006172 0.045063
    37 0.014898 -0.891802 -0.019848 -0.418581 -0.002373 0.019858
    38 -0.586770 -1.264477 0.200161 0.036221 -0.639228 -2.996755
    39 1.554086 0.035243 0.016848 -0.012828 -0.005037 0.671129
    40 1.117947 0.048424 -0.005766 0.001770 -0.022945 -0.028952
    41 -0.022208 -0.154668 -0.239517 0.781101 0.068382 1.535758
    42 -7.659286 3.756991 -0.434751 1.574548 -0.030454 -0.543209
  time 6
    0 6.187011 -7.081573 -4.447472 1.483738 -0.082368 -1.645969
    1 7.544978 0.157464 0.293294 -0.000001 -1.570451 0.000000
    2 4.270654 -2.975987 -0.024055 1.570796 0.000000 -1.570797
    3 2.246859 -0.655005 0.464540 -0.000001 -1.570451 0.000000
    4 -0.862154 -0.856760 -1.276764 -0.003020 -0.360401 0.288652
    5 6.579551 1.411528 -7.471866 5.536175 -1.924892 0.274579
    6 8.077701 0.934221 -0.372470 1.569062 -3.116916 0.192450
    7 0.053083 -8.537800 -0.065070 0.345152 0.748750 0.730135
    8 -0.488518 -2.755602 -0.228260 -0.888349 0.016180 -0.254183
    9 0.039887 -1.550105 0.025948 -1.996582 -0.004231 0.044080
    10 0.028786 -1.118701 -0.097330 -0.653199 -0.012308 0.012104
    11 0.250027 -2.820665 -0.238396 -0.790610 -0.014043 -0.199190
    12 -0.049759 -1.594604 0.030164 -1.602203 -0.000683 -0.042667
    13 -0.034142 -1.171750 0.045718 -1.183605 0.006424 -0.031196
    14 0.957766 -2.746780 -0.090302 -0.082058 -0.157843 0.041008
    15 -0.033420 -1.397129 -0.026882 -0.857365 0.006352 -0.042163
    16 -0.022360 -0.957436 0.003159 -0.680276 0.007706 -0.033006
    17 -1.180681 -2.507217 -0.193859 -0.695044 0.195831 -0.247787
    18 -0.024967 -1.127840 0.017597 -1.674946 -0.016359 -0.065243
    19 -0.020057 -0.906594 0.025715 -0.860044 0.007095 -0.034791
    20 0.614761 -1.197277 0.181473 0.632188 -0.960454 -0.780381
    21 1.485144 -0.204604 0.067511 0.042194 -0.205332 -0.725395
    22 0.987486 -0.190791 0.047917 0.109955 -0.259553 -1.139777
    23 0.120153 -0.050270 -0.054489 0.287569 3.110905 1.561085
    24 -4.016977 -6.043785 -7.146033 0.952542 -4.152114 1.260933
    25 -0.137438 -8.532452 0.049231 0.836545 -1.193941 -0.624455
    26 0.447953 -2.798986 -0.200443 -1.150558 0.095632 0.279440
    27 -0.032909 -1.499736 0.024472 -1.305650 0.023082 -0.024063
    28 -0.027022 -1.088639 -0.024116 -0.322150 0.008821 -0.002601
    29 -0.249534 -2.846964 -0.174213 -0.764924 0.064460 0.181608
    30 0.043235 -1.656596 0.072574 -1.327365 -0.021074 0.005969
    31 0.031729 -1.153017 0.058838 -0.552614 -0.005254 0.005532
    32 -0.963866 -2.785145 -0.085350 -0.619993 0.125016 0.065801
    33 0.028479 -1.406973 -0.021074 -1.029227 -0.027960 -0.035367
    34 0.021413 -0.957781 0.020046 -0.114915 -0.001174 -0.005237
    35 1.164475 -2.543940 -0.170330 -1.555425 0.041524 0.339565
    36 0.024032 -1.136855 -0.001725 -0.851613 0.006196 0.045099
    37 0.014898 -0.891802 -0.019848 -0.421399 -0.002361 0.020026
    38 -0.586770 -1.264477 0.200161 0.037497 -0.640136 -2.995918
    39 1.554086 0.035243 0.016848 -0.012852 -0.005049 0.672191
    40 1.117947 0.048424 -0.005766 0.001687 -0.023041 -0.024809
    41 -0.033927 -0.154668 -0.227798 0.748053 0.043154 1.482870
    42 -7.557721 4.003092 -0.430845 1.575123 -0.029819 -0.575127
  time 7
    0 6.120602 -6.980007 -3.709168 1.489178 -0.208938 -1.650666
    1 7.544978 0.157464 0.293294 -0.000001 -1.570451 0.000000
    2 4.270654 -2.975987 -0.024055 1.570796 0.000000 -1.570797
    3 2.246859 -0.655005 0.464540 -0.000001 -1.570451 0.000000
    4 -0.862154 -0.856760 -1.276764 -0.003020 -0.360401 0.288652
    5 6.548300 1.099019 -7.467960 5.726484 -1.902532 0.099164
    6 8.077701 0.844374 -0.376376 1.569158 -3.116725 0.181457
    7 0.056989 -8.549519 -0.065070 0.403658 0.726858 0.813760
    8 -0.488518 -2.755602 -0.228260 -0.888349 0.016180 -0.254183
    9 0.039887 -1.550105 0.025948 -1.996582 -0.004231 0.044080
    10 0.028786 -1.118701 -0.097330 -0.653179 -0.012308 0.012104
    11 0.250027 -2.820665 -0.238396 -0.790610 -0.014043 -0.199190
    12 -0.049759 -1.594604 0.030164 -1.602203 -0.000683 -0.042667
    13 -0.034142 -1.171750 0.045718 -1.183605 0.006424 -0.031196
    14 0.957766 -2.746780 -0.090302 -0.082058 -0.157843 0.041008
    15 -0.033420 -1.397129 -0.026882 -0.857365 0.006352 -0.042163
    16 -0.022360 -0.957436 0.003159 -0.680276 0.007706 -0.033006
    17 -1.180681 -2.507217 -0.193859 -0.695044 0.195831 -0.247787
    18 -0.024967 -1.127840 0.017597 -1.674946 -0.016359 -0.065243
    19 -0.020057 -0.906594 0.025715 -0.860044 0.007095 -0.034791
    20 0.614761 -1.197277 0.181473 0.632188 -0.960454 -0.780381
    21 1.485144 -0.204604 0.067511 0.042194 -0.205332 -0.725395
    22 0.987486 -0.190791 0.047917 0.109955 -0.259553 -1.139777
    23 0.120153 -0.050270 -0.054489 0.287569 3.110905 1.561085
    24 -3.708374 -6.453953 -6.446792 1.030084 -4.062782 1.355678
    25 -0.125719 -8.516827 0.053137 0.620579 -1.174529 -0.465300
    26 0.447953 -2.798986 -0.200443 -1.161075 0.095440 0.277366
    27 -0.032909 -1.499736 0.024472 -1.306703 0.023082 -0.024087
    28 -0.027022 -1.088639 -0.024116 -0.344220 0.009384 -0.002888
    29 -0.249534 -2.846964 -0.174213 -0.847911 0.063118 0.182387
    30 0.043235 -1.656596 0.072574 -1.327365 -0.021074 0.005969
    31 0.031729 -1.153017 0.058838 -0.570388 -0.005482 0.005484
    32 -0.963866 -2.785145 -0.085350 -0.724716 0.134412 0.068761
    33 0.028479 -1.406973 -0.024980 -1.097839 -0.030884 -0.036421
    34 0.021413 -0.957781 0.020046 -0.137065 -0.001462 -0.006196
    35 1.164475 -2.543940 -0.170330 -1.557731 0.040037 0.338055
    36 0.024032 -1.136855 -0.001725 -0.857764 0.006376 0.045399
    37 0.014898 -0.891802 -0.019848 -0.443021 -0.002277 0.021237
    38 -0.586770 -1.264477 0.200161 0.047277 -0.647026 -2.989532
    39 1.554086 0.035243 0.016848 -0.013067 -0.005133 0.680241
    40 1.117947 0.048424 -0.005766 0.001027 -0.023820 0.006738
    41 -0.037833 -0.154668 -0.219985 0.724682 0.025314 1.445466
    42 -7.417091 4.315602 -0.426939 1.575842 -0.028968 -0.617046
  time 8
    0 6.065913 -6.894067 -3.220872 1.496144 -0.293381 -1.655838
    1 7.544978 0.157464 0.293294 -0.000001 -1.570451 0.000000
    2 4.270654 -2.975987 -0.024055 1.570796 0.000000 -1.570797
    3 2.246859 -0.655005 0.464540 -0.000001 -1.570451 0.000000
    4 -0.862154 -0.856760 -1.276764 -0.003020 -0.360401 0.288652
    5 6.532675 0.880262 -7.452334 5.873398 -1.895012 -0.036032
    6 8.081607 0.789685 -0.376376 1.569254 -3.116630 0.174755
    7 0.060896 -8.557332 -0.065070 0.437525 0.709743 0.863217
    8 -0.488518 -2.755602 -0.228260 -0.888349 0.016180 -0.254183
    9 0.039887 -1.550105 0.025948 -1.996582 -0.004231 0.044080
    10 0.028786 -1.118701 -0.097330 -0.653179 -0.012308 0.012104
    11 0.250027 -2.820665 -0.238396 -0.790610 -0.014043 -0.199190
    12 -0.049759 -1.594604 0.030164 -1.602203 -0.000683 -0.042667
    13 -0.034142 -1.171750 0.045718 -1.183605 0.006424 -0.031196
    14 0.957766 -2.746780 -0.090302 -0.082058 -0.157843 0.041008
    15 -0.033420 -1.397129 -0.026882 -0.857365 0.006352 -0.042163
    16 -0.022360 -0.957436 0.003159 -0.680276 0.007706 -0.033006
    17 -1.180681 -2.507217 -0.193859 -0.695044 0.195831 -0.247787
    18 -0.024967 -1.127840 0.017597 -1.674946 -0.016359 -0.065243
    19 -0.020057 -0.906594 0.025715 -0.860044 0.007095 -0.034791
    20 0.614761 -1.197277 0.181473 0.632188 -0.960454 -0.780381
    21 1.485144 -0.204604 0.067511 0.042194 -0.205332 -0.725395
    22 0.987486 -0.190791 0.047917 0.109955 -0.259553 -1.139777
    23 0.120153 -0.050270 -0.054489 0.287569 3.110905 1.561085
    24 -3.497430 -6.688336 -5.923339 1.062127 -4.005941 1.399911
    25 -0.114000 -8.501201 0.053137 0.480811 -1.157608 -0.379875
    26 0.447953 -2.798986 -0.200443 -1.183464 0.094973 0.272944
    27 -0.032909 -1.499736 0.024472 -1.308919 0.023094 -0.024147
    28 -0.027022 -1.092546 -0.028023 -0.391276 0.010558 -0.003523
    29 -0.249534 -2.846964 -0.174213 -0.932364 0.061823 0.183274
    30 0.043235 -1.656596 0.072574 -1.327365 -0.021074 0.005969
    31 0.031729 -1.153017 0.058838 -0.608222 -0.005962 0.005412
    32 -0.963866 -2.785145 -0.085350 -0.820520 0.141950 0.070175
    33 0.028479 -1.406973 -0.024980 -1.161324 -0.033653 -0.037212
    34 0.021413 -0.953875 0.020046 -0.184272 -0.002145 -0.008221
    35 1.164475 -2.543940 -0.170330 -1.562681 0.036862 0.334867
    36 0.024032 -1.136855 -0.001725 -0.870851 0.006771 0.046010
    37 0.014898 -0.891802 -0.019848 -0.489133 -0.002001 0.023813
    38 -0.586770 -1.264477 0.200161 0.068094 -0.661853 -2.976115
    39 1.554086 0.035243 0.016848 -0.013511 -0.005325 0.697370
    40 1.117947 0.048424 -0.005766 -0.000435 -0.025390 0.073974
    41 -0.041740 -0.154668 -0.219985 0.715826 0.018536 1.431276
    42 -7.264743 4.608579 -0.419126 1.576502 -0.028117 -0.657127
  time 9
    0 6.026849 -6.917506 -2.943520 1.505878 -0.336273 -1.661724
    1 7.544978 0.157464 0.293294 -0.000001 -1.570451 0.000000
    2 4.270654 -2.975987 -0.024055 1.570796 0.000000 -1.570797
    3 2.246859 -0.655005 0.464540 -0.000001 -1.570451 0.000000
    4 -0.862154 -0.856760 -1.276764 -0.003020 -0.360401 0.288652
    5 6.517049 0.696663 -7.440615 5.965924 -1.895145 -0.119580
    6 8.077701 0.828749 -0.376376 1.569158 -3.116725 0.179635
    7 0.060896 -8.557332 -0.068977 0.448169 0.700747 0.880116
    8 -0.488518 -2.755602 -0.228260 -0.888349 0.016180 -0.254183
    9 0.039887 -1.550105 0.025948 -1.996582 -0.004231 0.044080
    10 0.028786 -1.118701 -0.097330 -0.653179 -0.012308 0.012104
    11 0.250027 -2.820665 -0.238396 -0.790610 -0.014043 -0.199190
    12 -0.049759 -1.594604 0.030164 -1.602203 -0.000683 -0.042667
    13 -0.034142 -1.171750 0.045718 -1.183605 0.006424 -0.031196
    14 0.957766 -2.746780 -0.090302 -0.082058 -0.157843 0.041008
    15 -0.033420 -1.397129 -0.026882 -0.857365 0.006352 -0.042163
    16 -0.022360 -0.957436 0.003159 -0.680276 0.007706 -0.033006
    17 -1.180681 -2.507217 -0.193859 -0.695044 0.195831 -0.247787
    18 -0.024967 -1.127840 0.017597 -1.674946 -0.016359 -0.065243
    19 -0.020057 -0.906594 0.025715 -0.860044 0.007095 -0.034791
    20 0.614761 -1.197277 0.181473 0.632188 -0.960454 -0.780394
    21 1.485144 -0.204604 0.067511 0.042194 -0.205332 -0.725395
    22 0.987486 -0.190791 0.047917 0.109955 -0.259553 -1.139777
    23 0.120153 -0.050270 -0.054489 0.287569 3.110905 1.561085
    24 -3.376332 -6.836778 -5.536608 1.069830 -3.984528 1.407711
    25 -0.110094 -8.493389 0.053137 0.412988 -1.146940 -0.359672
    26 0.447953 -2.798986 -0.200443 -1.235508 0.093486 0.262745
    27 -0.032909 -1.499736 0.024472 -1.314072 0.023118 -0.024291
    28 -0.027022 -1.096452 -0.028023 -0.500596 0.013171 -0.005213
    29 -0.249534 -2.846964 -0.174213 -1.026943 0.060469 0.184400
    30 0.043235 -1.656596 0.072574 -1.327365 -0.021074 0.005969
    31 0.031729 -1.149111 0.058838 -0.696089 -0.007088 0.005304
    32 -0.963866 -2.785145 -0.085350 -0.902658 0.145138 0.069900
    33 0.028479 -1.410880 -0.024980 -1.217491 -0.036134 -0.037763
    34 0.021413 -0.953875 0.020046 -0.293938 -0.004099 -0.012776
    35 1.164475 -2.543940 -0.170330 -1.574042 0.029407 0.327520
    36 0.024032 -1.136855 -0.001725 -0.901209 0.007718 0.047436
    37 0.014898 -0.895708 -0.019848 -0.596319 -0.000899 0.029734
    38 -0.586770 -1.264477 0.200161 0.116439 -0.697163 -2.945827
    39 1.557992 0.035243 0.016848 -0.014565 -0.005744 0.737198
    40 1.117947 0.048424 -0.005766 -0.004246 -0.028662 0.230339
    41 -0.041740 -0.154668 -0.219985 0.729310 0.018536 1.445418
    42 -7.049893 4.987497 -0.411313 1.577304 -0.026967 -0.709930
  time 10
    0 5.995598 -7.054228 -2.779453 1.518762 -0.352549 -1.668681
    1 7.544978 0.157464 0.293294 -0.000001 -1.570451 0.000000
    2 4.270654 -2.975987 -0.024055 1.570796 0.000000 -1.570797
    3 2.246859 -0.655005 0.464540 -0.000001 -1.570451 0.000000
    4 -0.862154 -0.856760 -1.276764 -0.003020 -0.360401 0.288652
    5 6.489705 0.505251 -7.424989 6.024613 -1.898007 -0.170505
    6 8.077701 0.969378 -0.372470 1.568966 -3.117011 0.196977
    7 0.060896 -8.557332 -0.068977 0.443114 0.698066 0.875099
    8 -0.488518 -2.755602 -0.228260 -0.888349 0.016180 -0.254183
    9 0.039887 -1.550105 0.025948 -1.996582 -0.004231 0.044080
    10 0.028786 -1.118701 -0.097330 -0.653179 -0.012308 0.012104
    11 0.250027 -2.820665 -0.238396 -0.790610 -0.014043 -0.199190
    12 -0.049759 -1.594604 0.030164 -1.602203 -0.000683 -0.042667
    13 -0.034142 -1.171750 0.045718 -1.183605 0.006424 -0.031196
    14 0.957766 -2.746780 -0.090302 -0.082058 -0.157843 0.041008
    15 -0.033420 -1.397129 -0.026882 -0.857365 0.006352 -0.042163
    16 -0.022360 -0.957436 0.003159 -0.680276 0.007706 -0.033006
    17 -1.180681 -2.507217 -0.193859 -0.695044 0.195831 -0.247787
    18 -0.024967 -1.127840 0.017597 -1.674946 -0.016359 -0.065243
    19 -0.020057 -0.906594 0.025715 -0.860044 0.007095 -0.034791
    20 0.614761 -1.197277 0.181473 0.632188 -0.960454 -0.780381
    21 1.485144 -0.204604 0.067511 0.042194 -0.205332 -0.725395
    22 0.987486 -0.190791 0.047917 0.109955 -0.259553 -1.139777
    23 0.120153 -0.050270 -0.054489 0.287569 3.110905 1.561085
    24 -3.298205 -6.961781 -5.192848 1.065670 -3.988756 1.393442
    25 -0.106187 -8.493389 0.057043 0.396492 -1.138677 -0.384867
    26 0.447953 -2.798986 -0.200443 -1.319591 0.089987 0.246422
    27 -0.032909 -1.499736 0.024472 -1.322440 0.023142 -0.024530
    28 -0.027022 -1.104265 -0.028023 -0.677498 0.016970 -0.008521
    29 -0.249534 -2.846964 -0.174213 -1.131930 0.059091 0.185802
    30 0.043235 -1.656596 0.072574 -1.327365 -0.021074 0.005969
    31 0.031729 -1.145205 0.058838 -0.838326 -0.008922 0.005340
    32 -0.963866 -2.785145 -0.085350 -0.969153 0.143352 0.068450
    33 0.028479 -1.410880 -0.024980 -1.265314 -0.038267 -0.038123
    34 0.021413 -0.949968 0.020046 -0.471381 -0.008269 -0.019619
    35 1.164475 -2.543940 -0.170330 -1.592321 0.017171 0.315823
    36 0.024032 -1.140761 -0.005631 -0.950412 0.009348 0.049677
    37 0.014898 -0.895708 -0.019848 -0.769650 0.002193 0.038962
    38 -0.586770 -1.264477 0.200161 0.194862 -0.756588 -2.899801
    39 1.561899 0.035243 0.016848 -0.016303 -0.006319 0.801594
    40 1.114041 0.048424 -0.005766 -0.011341 -0.032581 0.483320
    41 -0.041740 -0.154668 -0.219985 0.762169 0.018549 1.479142
    42 -6.721758 5.491419 -0.399594 1.578335 -0.025301 -0.782958
  time 11
    0 5.968254 -7.257360 -2.705232 1.534126 -0.347283 -1.674983
    1 7.544978 0.157464 0.293294 -0.000001 -1.570451 0.000000
    2 4.270654 -2.975987 -0.024055 1.570796 0.000000 -1.570797
    3 2.246859 -0.655005 0.464540 -0.000001 -1.570451 0.000000
    4 -0.862154 -0.856760 -1.276764 -0.003020 -0.360401 0.288652
    5 6.470173 0.337277 -7.409364 6.054723 -1.901800 -0.193580
    6 8.069888 1.149071 -0.372470 1.568679 -3.117392 0.219082
    7 0.056989 -8.557332 -0.065070 0.426072 0.699601 0.852681
    8 -0.488518 -2.755602 -0.228260 -0.888349 0.016180 -0.254183
    9 0.039887 -1.550105 0.025948 -1.996582 -0.004231 0.044080
    10 0.028786 -1.118701 -0.097330 -0.653199 -0.012308 0.012104
    11 0.250027 -2.820665 -0.238396 -0.790610 -0.014043 -0.199190
    12 -0.049759 -1.594604 0.030164 -1.602203 -0.000683 -0.042667
    13 -0.034142 -1.171750 0.045718 -1.183605 0.006424 -0.031196
    14 0.957766 -2.746780 -0.090302 -0.082058 -0.157843 0.041008
    15 -0.033420 -1.397129 -0.026882 -0.857365 0.006352 -0.042163
    16 -0.022360 -0.957436 0.003159 -0.680276 0.007706 -0.033006
    17 -1.180681 -2.507217 -0.193859 -0.695044 0.195831 -0.247787
    18 -0.024967 -1.127840 0.017597 -1.674946 -0.016359 -0.065243
    19 -0.020057 -0.906594 0.025715 -0.860044 0.007095 -0.034791
    20 0.614761 -1.197277 0.181473 0.632188 -0.960454 -0.780394
    21 1.485144 -0.204604 0.067511 0.042194 -0.205332 -0.725395
    22 0.987486 -0.190791 0.047917 0.109955 -0.259553 -1.139777
    23 0.120153 -0.050270 -0.054489 0.287569 3.110905 1.561085
    24 -3.270860 -7.043815 -4.970185 1.052670 -4.008094 1.366617
    25 -0.106187 -8.493389 0.057043 0.413813 -1.132774 -0.438109
    26 0.447953 -2.798986 -0.200443 -1.415546 0.084318 0.228217
    27 -0.032909 -1.499736 0.024472 -1.331970 0.023178 -0.024806
    28 -0.027022 -1.112077 -0.028023 -0.879672 0.020518 -0.013051
    29 -0.249534 -2.846964 -0.174213 -1.235167 0.057892 0.187312
    30 0.043235 -1.656596 0.072574 -1.327365 -0.021074 0.005969
    31 0.031729 -1.145205 0.058838 -1.000814 -0.010995 0.005711
    32 -0.963866 -2.785145 -0.085350 -1.022017 0.138810 0.066760
    33 0.028479 -1.410880 -0.028886 -1.305028 -0.040041 -0.038351
    34 0.021413 -0.946062 0.016140 -0.674049 -0.014429 -0.026390
    35 1.164475 -2.543940 -0.170330 -1.612963 0.002933 0.302736
    36 0.024032 -1.140761 -0.005631 -1.006601 0.011337 0.052134
    37 0.014898 -0.899614 -0.015942 -0.967676 0.007610 0.048669
    38 -0.586770 -1.264477 0.200161 0.285562 -0.827535 -2.852223
    39 1.565805 0.035243 0.016848 -0.018329 -0.006835 0.875230
    40 1.114041 0.044518 -0.005766 -0.020353 -0.034714 0.772408
    41 -0.041740 -0.154668 -0.219985 0.802895 0.018577 1.519387
    42 -6.381904 5.932838 -0.387875 1.579162 -0.023695 -0.850543
  time 12
    0 5.948722 -7.472210 -2.701325 1.551400 -0.325550 -1.679085
    1 7.544978 0.157464 0.293294 -0.000001 -1.570451 0.000000
    2 4.270654 -2.975987 -0.024055 1.570796 0.000000 -1.570797
    3 2.246859 -0.655005 0.464540 -0.000001 -1.570451 0.000000
    4 -0.862154 -0.856760 -1.276764 -0.003020 -0.360401 0.288652
    5 6.462360 0.223992 -7.397645 6.061987 -1.905926 -0.194448
    6 8.058169 1.305326 -0.368563 1.568487 -3.117678 0.238129
    7 0.053083 -8.553426 -0.065070 0.400466 0.702820 0.817008
    8 -0.488518 -2.755602 -0.228260 -0.888349 0.016180 -0.254183
    9 0.039887 -1.550105 0.025948 -1.996582 -0.004231 0.044080
    10 0.028786 -1.118701 -0.097330 -0.653179 -0.012308 0.012104
    11 0.250027 -2.820665 -0.238396 -0.790610 -0.014043 -0.199190
    12 -0.049759 -1.594604 0.030164 -1.602203 -0.000683 -0.042667
    13 -0.034142 -1.171750 0.045718 -1.183605 0.006424 -0.031196
    14 0.957766 -2.746780 -0.090302 -0.082058 -0.157843 0.041008
    15 -0.033420 -1.397129 -0.026882 -0.857365 0.006352 -0.042163
    16 -0.022360 -0.957436 0.003159 -0.680276 0.007706 -0.033006
    17 -1.180681 -2.507217 -0.193859 -0.695044 0.195831 -0.247787
    18 -0.024967 -1.127840 0.017597 -1.674946 -0.016359 -0.065243
    19 -0.020057 -0.906594 0.025715 -0.860044 0.007095 -0.034791
    20 0.614761 -1.197277 0.181473 0.632188 -0.960454 -0.780381
    21 1.485144 -0.204604 0.067511 0.042194 -0.205332 -0.725395
    22 0.987486 -0.190791 0.047917 0.109955 -0.259553 -1.139777
    23 0.120153 -0.050270 -0.054489 0.287569 3.110905 1.561085
    24 -3.309924 -7.067253 -4.958466 1.033236 -4.029312 1.336653
    25 -0.106187 -8.497295 0.057043 0.450674 -1.128970 -0.502902
    26 0.447953 -2.798986 -0.200443 -1.503261 0.077643 0.212110
    27 -0.032909 -1.499736 0.028378 -1.340725 0.023202 -0.025046
    28 -0.027022 -1.119890 -0.024116 -1.064751 0.022903 -0.017737
    29 -0.249534 -2.846964 -0.174213 -1.324683 0.056982 0.188715
    30 0.043235 -1.656596 0.072574 -1.327365 -0.021074 0.005969
    31 0.031729 -1.141298 0.054932 -1.149579 -0.012805 0.006323
    32 -0.963866 -2.785145 -0.085350 -1.063410 0.133873 0.065370
    33 0.028479 -1.410880 -0.028886 -1.336817 -0.041479 -0.038471
    34 0.021413 -0.942156 0.016140 -0.859554 -0.021165 -0.031388
    35 1.164475 -2.543940 -0.170330 -1.631748 -0.010334 0.291015
    36 0.024032 -1.140761 -0.005631 -1.058018 0.013279 0.054279
    37 0.014898 -0.903521 -0.012035 -1.148898 0.014166 0.056459
    38 -0.586770 -1.264477 0.200161 0.370734 -0.894921 -2.814205
    39 1.569711 0.035243 0.016848 -0.020210 -0.007182 0.942587
    40 1.114041 0.040611 -0.005766 -0.028826 -0.034354 1.037058
    41 -0.041740 -0.154668 -0.219985 0.840066 0.018619 1.553111
    42 -6.221742 6.124251 -0.380062 1.579498 -0.022964 -0.880843
  time 13
    0 5.937003 -7.640184 -2.759921 1.570200 -0.292519 -1.679739
    1 7.544978 0.157464 0.293294 -0.000001 -1.570451 0.000000
    2 4.270654 -2.975987 -0.024055 1.570796 0.000000 -1.570797
    3 2.246859 -0.655005 0.464540 -0.000001 -1.570451 0.000000
    4 -0.862154 -0.856760 -1.276764 -0.003020 -0.360401 0.288652
    5 6.477986 0.200554 -7.393739 6.052333 -1.910251 -0.178679
    6 8.054262 1.371734 -0.368563 1.568391 -3.117868 0.246360
    7 0.049176 -8.549519 -0.065070 0.369892 0.705331 0.772409
    8 -0.488518 -2.755602 -0.228260 -0.888349 0.016180 -0.254183
    9 0.039887 -1.550105 0.025948 -1.996582 -0.004231 0.044080
    10 0.028786 -1.118701 -0.097330 -0.653179 -0.012308 0.012104
    11 0.250027 -2.820665 -0.238396 -0.790610 -0.014043 -0.199190
    12 -0.049759 -1.594604 0.030164 -1.602203 -0.000683 -0.042667
    13 -0.034142 -1.171750 0.045718 -1.183605 0.006424 -0.031196
    14 0.957766 -2.746780 -0.090302 -0.082058 -0.157843 0.041008
    15 -0.033420 -1.397129 -0.026882 -0.857365 0.006352 -0.042163
    16 -0.022360 -0.957436 0.003159 -0.680276 0.007706 -0.033006
    17 -1.180681 -2.507217 -0.193859 -0.695044 0.195831 -0.247787
    18 -0.024967 -1.127840 0.017597 -1.674946 -0.016359 -0.065243
    19 -0.020057 -0.906594 0.025715 -0.860044 0.007095 -0.034791
    20 0.614761 -1.197277 0.181473 0.632188 -0.960454 -0.780381
    21 1.485144 -0.204604 0.067511 0.042194 -0.205332 -0.725395
    22 0.987486 -0.190791 0.047917 0.109955 -0.259553 -1.139777
    23 0.120153 -0.050270 -0.054489 0.287569 3.110905 1.561085
    24 -3.434928 -7.000845 -5.255350 1.011137 -4.039411 1.314774
    25 -0.106187 -8.501201 0.057043 0.495403 -1.126303 -0.565414
    26 0.447953 -2.798986 -0.200443 -1.562677 0.072310 0.201540
    27 -0.032909 -1.499736 0.028378 -1.346654 0.023214 -0.025214
    28 -0.027022 -1.127703 -0.024116 -1.190366 0.024017 -0.021141
    29 -0.249534 -2.846964 -0.174213 -1.388271 0.056406 0.189757
    30 0.043235 -1.656596 0.072574 -1.327365 -0.021074 0.005969
    31 0.031729 -1.141298 0.054932 -1.250502 -0.013979 0.006898
    32 -0.963866 -2.785145 -0.085350 -1.095453 0.130900 0.064579
    33 0.028479 -1.414786 -0.028886 -1.361008 -0.042569 -0.038542
    34 0.021413 -0.942156 0.012233 -0.985426 -0.026210 -0.034036
    35 1.164475 -2.543940 -0.170330 -1.644403 -0.019442 0.283201
    36 0.024032 -1.140761 -0.005631 -1.092902 0.014645 0.055681
    37 0.014898 -0.907427 -0.012035 -1.271864 0.019367 0.061026
    38 -0.586770 -1.264477 0.200161 0.430485 -0.941753 -2.792030
    39 1.573618 0.035243 0.016848 -0.021505 -0.007350 0.988340
    40 1.110134 0.040611 -0.005766 -0.034387 -0.032832 1.216645
    41 -0.041740 -0.154668 -0.219985 0.862175 0.018660 1.567265
    42 -6.432686 5.870337 -0.387875 1.579054 -0.023935 -0.840762
  time 14
    0 5.940909 -7.706592 -2.857580 -1.550809 -2.888436 1.465517
    1 6.959023 0.157464 0.293294 -0.000001 -1.570451 0.000000
    2 4.270654 -2.975987 -0.024055 1.570796 0.000000 -1.570797
    3 2.246859 -0.655005 0.464540 -0.000001 -1.570451 0.000000
    4 -0.862154 -0.856760 -1.276764 -0.003020 -0.360401 0.288652
    5 6.532675 0.302119 -7.401551 6.031304 -1.915242 -0.151914
    6 8.062075 1.285794 -0.368563 1.568487 -3.117678 0.235954
    7 0.041364 -8.541706 -0.065070 0.338249 0.704941 0.723560
    8 -0.488518 -2.755602 -0.228260 -0.888349 0.016180 -0.254183
    9 0.039887 -1.550105 0.025948 -1.996582 -0.004231 0.044080
    10 0.028786 -1.118701 -0.097330 -0.653179 -0.012308 0.012104
    11 0.250027 -2.820665 -0.238396 -0.790610 -0.014043 -0.199190
    12 -0.049759 -1.594604 0.030164 -1.602203 -0.000683 -0.042667
    13 -0.034142 -1.171750 0.045718 -1.183605 0.006424 -0.031196
    14 0.957766 -2.746780 -0.090302 -0.082058 -0.157843 0.041008
    15 -0.033420 -1.397129 -0.026882 -0.857365 0.006352 -0.042163
    16 -0.022360 -0.957436 0.003159 -0.680276 0.007706 -0.033006
    17 -1.180681 -2.507217 -0.193859 -0.695044 0.195831 -0.247787
    18 -0.024967 -1.127840 0.017597 -1.674946 -0.016359 -0.065243
    19 -0.020057 -0.906594 0.025715 -0.860044 0.007095 -0.034791
    20 0.614761 -1.197277 0.181473 0.632188 -0.960454 -0.780381
    21 1.485144 -0.204604 0.067511 0.042194 -0.205332 -0.725395
    22 0.987486 -0.190791 0.047917 0.109955 -0.259553 -1.139777
    23 0.120153 -0.050270 -0.054489 0.287569 3.110905 1.561085
    24 -3.595089 -6.731306 -5.923339 0.988356 -4.033344 1.322860
    25 -0.106187 -8.516827 0.057043 0.629398 -1.083806 -0.697140
    26 0.447953 -2.798986 -0.200443 -1.618353 0.070021 0.197333
    27 -0.032909 -1.499736 0.028378 -1.374526 0.023286 -0.026005
    28 -0.027022 -1.127703 -0.020210 -1.264695 0.024461 -0.023214
    29 -0.249534 -2.846964 -0.174213 -1.451954 0.055903 0.190836
    30 0.043235 -1.656596 0.072574 -1.350227 -0.021338 0.006341
    31 0.031729 -1.141298 0.054932 -1.316832 -0.014722 0.007341
    32 -0.963866 -2.785145 -0.085350 -1.144218 0.131715 0.067695
    33 0.028479 -1.414786 -0.028886 -1.394522 -0.044091 -0.038590
    34 0.021413 -0.942156 0.012233 -1.057027 -0.029206 -0.035247
    35 1.164475 -2.543940 -0.170330 -1.687823 -0.022822 0.280037
    36 0.024032 -1.144668 -0.005631 -1.119324 0.015724 0.056712
    37 0.014898 -0.907427 -0.008129 -1.338010 0.022387 0.063195
    38 -0.586770 -1.264477 0.200161 0.453687 -0.964727 -2.789204
    39 1.573618 0.035243 0.016848 -0.022056 -0.007398 1.007627
    40 1.110134 0.040611 -0.005766 -0.036820 -0.031825 1.298629
    41 -0.041740 -0.154668 -0.219985 0.872756 0.019367 1.564724
    42 -7.065518 4.964059 -0.411313 1.577257 -0.027039 -0.706474
  time 15
    0 5.944816 -7.612839 -2.978677 -1.528382 -2.928647 1.474138
    1 5.669921 0.157464 0.293294 -0.000001 -1.570451 0.000000
    2 4.270654 -2.975987 -0.024055 1.570796 0.000000 -1.570797
    3 2.246859 -0.655005 0.464540 -0.000001 -1.570451 0.000000
    4 -0.862154 -0.856760 -1.276764 -0.003020 -0.360401 0.288652
    5 6.630334 0.559940 -7.409364 6.004254 -1.921165 -0.119508
    6 8.077701 0.988910 -0.372470 1.568966 -3.117011 0.199152
    7 0.037457 -8.537800 -0.065070 0.309870 0.700016 0.675450
    8 -0.488518 -2.755602 -0.228260 -0.888349 0.016180 -0.254183
    9 0.039887 -1.550105 0.025948 -1.996582 -0.004231 0.044080
    10 0.028786 -1.118701 -0.097330 -0.653179 -0.012308 0.012104
    11 0.250027 -2.820665 -0.238396 -0.790610 -0.014043 -0.199190
    12 -0.049759 -1.594604 0.030164 -1.602203 -0.000683 -0.042667
    13 -0.034142 -1.171750 0.045718 -1.183605 0.006424 -0.031196
    14 0.957766 -2.746780 -0.090302 -0.082058 -0.157843 0.041008
    15 -0.033420 -1.397129 -0.026882 -0.857365 0.006352 -0.042163
    16 -0.022360 -0.957436 0.003159 -0.680276 0.007706 -0.033006
    17 -1.180681 -2.507217 -0.193859 -0.695044 0.195831 -0.247787
    18 -0.024967 -1.127840 0.017597 -1.674946 -0.016359 -0.065243
    19 -0.020057 -0.906594 0.025715 -0.860044 0.007095 -0.034791
    20 0.614761 -1.197277 0.181473 0.632188 -0.960454 -0.780381
    21 1.485144 -0.204604 0.067511 0.042194 -0.205332 -0.725395
    22 0.987486 -0.190791 0.047917 0.109955 -0.259553 -1.139777
    23 0.120153 -0.050270 -0.054489 0.287569 3.110905 1.561085
    24 -3.747437 -6.203946 -6.778834 0.976396 -4.025514 1.373466
    25 -0.102281 -8.548078 0.053137 0.759016 -0.986263 -0.816458
    26 0.447953 -2.798986 -0.200443 -1.669909 0.070188 0.197489
    27 -0.032909 -1.499736 0.028378 -1.416971 0.023346 -0.027215
    28 -0.027022 -1.131609 -0.020210 -1.301573 0.024628 -0.024245
    29 -0.249534 -2.846964 -0.174213 -1.508399 0.055519 0.191807
    30 0.043235 -1.656596 0.068667 -1.388294 -0.021769 0.006964
    31 0.031729 -1.137392 0.051025 -1.357478 -0.015154 0.007629
    32 -0.963866 -2.785145 -0.085350 -1.195644 0.134580 0.073220
    33 0.028479 -1.414786 -0.028886 -1.428688 -0.045625 -0.038590
    34 0.021413 -0.942156 0.012233 -1.089149 -0.030585 -0.035726
    35 1.164475 -2.543940 -0.170330 -1.751434 -0.022067 0.280073
    36 0.024032 -1.144668 -0.005631 -1.139153 0.016551 0.057467
    37 0.014898 -0.907427 -0.008129 -1.363064 0.023574 0.063974
    38 -0.586770 -1.264477 0.200161 0.449897 -0.970174 -2.798224
    39 1.573618 0.035243 0.016848 -0.022068 -0.007398 1.008142
    40 1.110134 0.040611 -0.005766 -0.037168 -0.031658 1.310791
    41 -0.041740 -0.154668 -0.219985 0.882938 0.021266 1.557510
    42 -7.749133 3.522609 -0.438658 1.573973 -0.031042 -0.512469
  time 16
    0 5.952628 -6.901880 -3.295093 -1.491355 -3.016920 1.514746
    1 4.380819 0.157464 0.293294 -0.000001 -1.570451 0.000000
    2 4.270654 -2.975987 -0.024055 1.570796 0.000000 -1.570797
    3 2.246859 -0.655005 0.464540 -0.000001 -1.570451 0.000000
    4 -0.862154 -0.856760 -1.276764 -0.003020 -0.360401 0.288652
    5 6.911593 1.626379 -7.319517 5.892515 -1.935473 -0.004927
    6 8.019105 -0.280660 -0.392002 -1.570562 -0.027032 -3.098375
    7 0.029645 -8.533894 -0.065070 0.280119 0.681780 0.597264
    8 -0.488518 -2.755602 -0.228260 -0.888349 0.016180 -0.254183
    9 0.039887 -1.550105 0.025948 -1.996582 -0.004231 0.044080
    10 0.028786 -1.118701 -0.097330 -0.653179 -0.012308 0.012104
    11 0.250027 -2.820665 -0.238396 -0.790610 -0.014043 -0.199190
    12 -0.049759 -1.594604 0.030164 -1.602203 -0.000683 -0.042667
    13 -0.034142 -1.171750 0.045718 -1.183605 0.006424 -0.031196
    14 0.957766 -2.746780 -0.090302 -0.082058 -0.157843 0.041008
    15 -0.033420 -1.397129 -0.026882 -0.857365 0.006352 -0.042163
    16 -0.022360 -0.957436 0.003159 -0.680276 0.007706 -0.033006
    17 -1.180681 -2.507217 -0.193859 -0.695044 0.195831 -0.247787
    18 -0.024967 -1.127840 0.017597 -1.674946 -0.016359 -0.065243
    19 -0.020057 -0.906594 0.025715 -0.860044 0.007095 -0.034791
    20 0.614761 -1.197277 0.181473 0.632188 -0.960454 -0.780381
    21 1.485144 -0.204604 0.067511 0.042194 -0.205332 -0.725395
    22 0.987486 -0.190791 0.047917 0.109955 -0.259553 -1.139777
    23 0.120153 -0.050270 -0.054489 0.287569 3.110905 1.561085
    24 -4.052134 -5.082818 -7.927306 0.963982 -4.049550 1.461932
    25 -0.094468 -8.567610 0.049231 0.826521 -0.908088 -0.865802
    26 0.447953 -2.798986 -0.200443 -1.660422 0.072322 0.200881
    27 -0.032909 -1.499736 0.028378 -1.423454 0.023346 -0.027407
    28 -0.027022 -1.127703 -0.020210 -1.266982 0.024473 -0.023274
    29 -0.249534 -2.846964 -0.174213 -1.495766 0.055591 0.191591
    30 0.043235 -1.656596 0.068667 -1.395896 -0.021853 0.007084
    31 0.031729 -1.137392 0.051025 -1.331842 -0.014878 0.007449
    32 -0.963866 -2.785145 -0.085350 -1.191472 0.135742 0.074526
    33 0.028479 -1.414786 -0.028886 -1.425006 -0.045470 -0.038590
    34 0.021413 -0.942156 0.012233 -1.053494 -0.029063 -0.035199
    35 1.164475 -2.543940 -0.170330 -1.759927 -0.018687 0.282494
    36 0.024032 -1.144668 -0.005631 -1.131477 0.016227 0.057167
    37 0.014898 -0.907427 -0.008129 -1.326994 0.021872 0.062847
    38 -0.586770 -1.264477 0.200161 0.428415 -0.955533 -2.806354
    39 1.573618 0.035243 0.016848 -0.021636 -0.007362 0.992945
    40 1.110134 0.040611 -0.005766 -0.035478 -0.032413 1.253247
    41 -0.041740 -0.154668 -0.219985 0.892657 0.024247 1.546148
    42 -8.225710 1.249102 -0.469909 1.567957 -0.035572 -0.229771
  time 17
    0 5.753404 -5.866692 -3.533382 -4.580298 0.004182 -1.564100
    1 3.794864 0.157464 0.293294 -0.000001 -1.570451 0.000000
    2 4.270654 -2.975987 -0.024055 1.570796 0.000000 -1.570797
    3 2.246859 -0.655005 0.464540 -0.000001 -1.570451 0.000000
    4 -0.862154 -0.856760 -1.276764 -0.003020 -0.360401 0.288652
    5 7.161600 3.204552 -6.776532 5.728109 -1.961892 0.160577
    6 7.538622 -2.198687 -0.411533 -1.566440 -0.030365 -3.341644
    7 0.017925 -8.529987 -0.068977 0.243378 0.652793 0.492303
    8 -0.488518 -2.755602 -0.228260 -0.888349 0.016180 -0.254183
    9 0.039887 -1.550105 0.025948 -1.996582 -0.004231 0.044080
    10 0.028786 -1.118701 -0.097330 -0.653179 -0.012308 0.012104
    11 0.250027 -2.820665 -0.238396 -0.790610 -0.014043 -0.199190
    12 -0.049759 -1.594604 0.030164 -1.602203 -0.000683 -0.042667
    13 -0.034142 -1.171750 0.045718 -1.183605 0.006424 -0.031196
    14 0.957766 -2.746780 -0.090302 -0.082058 -0.157843 0.041008
    15 -0.033420 -1.397129 -0.026882 -0.857365 0.006352 -0.042163
    16 -0.022360 -0.957436 0.003159 -0.680276 0.007706 -0.033006
    17 -1.180681 -2.507217 -0.193859 -0.695044 0.195831 -0.247787
    18 -0.024967 -1.127840 0.017597 -1.674946 -0.016359 -0.065243
    19 -0.020057 -0.906594 0.025715 -0.860044 0.007095 -0.034791
    20 0.614761 -1.197277 0.181473 0.632188 -0.960454 -0.780381
    21 1.485144 -0.204604 0.067511 0.042194 -0.205332 -0.725395
    22 0.987486 -0.190791 0.047917 0.109955 -0.259553 -1.139777
    23 0.120153 -0.050270 -0.054489 0.287569 3.110905 1.561085
    24 -4.649809 -3.489019 -8.774989 0.960310 -4.106469 1.550018
    25 -0.094468 -8.555890 0.053137 0.762188 -0.949449 -0.815888
    26 0.447953 -2.798986 -0.200443 -1.532698 0.075078 0.206837
    27 -0.032909 -1.499736 0.028378 -1.343662 0.023214 -0.025130
    28 -0.027022 -1.123796 -0.024116 -1.126958 0.023502 -0.019403
    29 -0.249534 -2.846964 -0.174213 -1.352124 0.056718 0.189158
    30 0.043235 -1.656596 0.072574 -1.327365 -0.021074 0.005969
    31 0.031729 -1.141298 0.054932 -1.199564 -0.013392 0.006598
    32 -0.963866 -2.785145 -0.085350 -1.073659 0.131835 0.064902
    33 0.028479 -1.410880 -0.028886 -1.345160 -0.041850 -0.038506
    34 0.021413 -0.942156 0.012233 -0.921929 -0.023622 -0.032778
    35 1.164475 -2.543940 -0.170330 -1.638047 -0.014828 0.287132
    36 0.024032 -1.140761 -0.005631 -1.075288 0.013950 0.054986
    37 0.014898 -0.903521 -0.012035 -1.209817 0.016671 0.058796
    38 -0.586770 -1.264477 0.200161 0.400092 -0.918011 -2.802812
    39 1.569711 0.035243 0.016848 -0.020857 -0.007266 0.965255
    40 1.114041 0.040611 -0.005766 -0.031619 -0.033719 1.126034
    41 -0.041740 -0.154668 -0.219985 0.901934 0.028156 1.531203
    42 -8.006953 -1.235349 -0.481628 1.560346 -0.038364 0.074547
  time 18
    0 5.429175 -5.386209 -3.572446 -4.538117 -6.193026 -1.539010
    1 4.767550 0.157464 0.293294 -0.000001 -1.570451 0.000000
    2 4.270654 -2.975987 -0.024055 1.570796 0.000000 -1.570797
    3 2.246859 -0.655005 0.464540 -0.000001 -1.570451 0.000000
    4 -0.862154 -0.856760 -1.276764 -0.003020 -0.360401 0.288652
    5 7.181132 4.052234 -6.241360 5.648583 -1.980059 0.243113
    6 7.007355 -3.312003 -0.419346 -1.563564 -0.031889 -3.493143
    7 0.006206 -8.518268 -0.068977 0.196931 0.630437 0.412771
    8 -0.488518 -2.755602 -0.228260 -0.888349 0.016180 -0.254183
    9 0.039887 -1.550105 0.025948 -1.996582 -0.004231 0.044080
    10 0.028786 -1.118701 -0.097330 -0.653199 -0.012308 0.012104
    11 0.250027 -2.820665 -0.238396 -0.790610 -0.014043 -0.199190
    12 -0.049759 -1.594604 0.030164 -1.602203 -0.000683 -0.042667
    13 -0.034142 -1.171750 0.045718 -1.183605 0.006424 -0.031196
    14 0.957766 -2.746780 -0.090302 -0.082058 -0.157843 0.041008
    15 -0.033420 -1.397129 -0.026882 -0.857365 0.006352 -0.042163
    16 -0.022360 -0.957436 0.003159 -0.680276 0.007706 -0.033006
    17 -1.180681 -2.507217 -0.193859 -0.695044 0.195831 -0.247787
    18 -0.024967 -1.127840 0.017597 -1.674946 -0.016359 -0.065243
    19 -0.020057 -0.906594 0.025715 -0.860044 0.007095 -0.034791
    20 0.614761 -1.197277 0.181473 0.632188 -0.960454 -0.780381
    21 1.485144 -0.204604 0.067511 0.042194 -0.205332 -0.725395
    22 0.987486 -0.190791 0.047917 0.109955 -0.259553 -1.139777
    23 0.120153 -0.050270 -0.054489 0.287569 3.110905 1.561085
    24 -6.091259 -0.879565 -8.790614 0.790180 -4.207702 1.265785
    25 -0.008528 -8.548078 0.049231 0.471040 -0.713133 -0.436968
    26 0.447953 -2.798986 -0.200443 -0.889581 0.074143 0.225329
    27 -0.032909 -1.495829 0.016659 -0.892059 0.019115 -0.013049
    28 -0.027022 -1.096452 -0.028023 -0.518664 0.013591 -0.005525
    29 -0.249534 -2.846964 -0.174213 -0.636185 0.066665 0.180649
    30 0.043235 -1.660503 0.084293 -0.931388 -0.015262 0.000804
    31 0.031729 -1.153017 0.058838 -0.596309 -0.005806 0.005436
    32 -0.963866 -2.785145 -0.085350 -0.461974 0.127868 0.003649
    33 0.028479 -1.403067 -0.021074 -0.934046 -0.024053 -0.033581
    34 0.021413 -0.953875 0.020046 -0.362588 -0.005561 -0.015508
    35 1.164475 -2.543940 -0.170330 -0.953845 -0.014696 0.303012
    36 0.024032 -1.136855 -0.001725 -0.806347 0.004914 0.042906
    37 0.014898 -0.895708 -0.019848 -0.728712 0.001306 0.036841
    38 -0.586770 -1.264477 0.200161 0.346164 -0.775186 -2.762562
    39 1.565805 0.035243 0.016848 -0.018413 -0.006859 0.878224
    40 1.114041 0.044518 -0.005766 -0.017333 -0.034306 0.677540
    41 -0.041740 -0.154668 -0.219985 0.910727 0.032827 1.513215
    42 -6.764728 -3.985433 -0.469909 1.550555 -0.038520 0.442701
  time 19
    0 5.198699 -5.589340 -3.634947 -1.374641 -3.231380 1.536863
    1 6.576199 0.157464 0.293294 -0.000001 -1.570451 0.000000
    2 4.270654 -2.975987 -0.024055 1.570796 0.000000 -1.570797
    3 2.246859 -0.655005 0.464540 -0.000001 -1.570451 0.000000
    4 -0.862154 -0.856760 -1.276764 -0.003020 -0.360401 0.288652
    5 7.122537 3.778788 -6.487461 5.718169 -1.969478 0.179891
    6 7.151891 -3.046369 -0.419346 -1.564331 -0.031508 -3.456047
    7 -0.001606 -8.506549 -0.072883 0.117427 0.617053 0.377362
    8 -0.488518 -2.755602 -0.228260 -0.888349 0.016180 -0.254183
    9 0.039887 -1.550105 0.025948 -1.996582 -0.004231 0.044080
    10 0.028786 -1.118701 -0.097330 -0.653179 -0.012308 0.012104
    11 0.250027 -2.820665 -0.238396 -0.790610 -0.014043 -0.199190
    12 -0.049759 -1.594604 0.030164 -1.602203 -0.000683 -0.042667
    13 -0.034142 -1.171750 0.045718 -1.183605 0.006424 -0.031196
    14 0.957766 -2.746780 -0.090302 -0.082058 -0.157843 0.041008
    15 -0.033420 -1.397129 -0.026882 -0.857365 0.006352 -0.042163
    16 -0.022360 -0.957436 0.003159 -0.680276 0.007706 -0.033006
    17 -1.180681 -2.507217 -0.193859 -0.695044 0.195831 -0.247787
    18 -0.024967 -1.127840 0.017597 -1.674946 -0.016359 -0.065243
    19 -0.020057 -0.906594 0.025715 -0.860044 0.007095 -0.034791
    20 0.614761 -1.197277 0.181473 0.632188 -0.960454 -0.780381
    21 1.485144 -0.204604 0.067511 0.042194 -0.205332 -0.725395
    22 0.987486 -0.190791 0.047917 0.109955 -0.259553 -1.139777
    23 0.120153 -0.050270 -0.054489 0.287569 3.110905 1.561085
    24 -6.657683 0.804081 -8.048404 0.492819 -4.232756 0.858650
    25 0.050068 -8.516827 0.029699 0.330002 -0.509433 -0.159587
    26 0.447953 -2.798986 -0.200443 -0.327836 0.063956 0.241628
    27 -0.032909 -1.488017 0.008846 -0.508225 0.011745 -0.005067
    28 -0.027022 -1.076920 -0.020210 0.033369 -0.000875 0.000096
    29 -0.249534 -2.846964 -0.174213 -0.008485 0.078170 0.180229
    30 0.043235 -1.668316 0.092106 -0.596339 -0.009090 -0.001521
    31 0.031729 -1.160830 0.058838 -0.055715 0.000498 0.008252
    32 -0.963866 -2.785145 -0.085350 0.068795 0.153683 -0.041173
    33 0.028479 -1.403067 -0.009354 -0.576861 -0.011289 -0.023789
    34 0.021413 -0.957781 0.020046 0.148507 0.000575 0.006508
    35 1.164475 -2.543940 -0.170330 -0.371107 -0.021647 0.318124
    36 0.024032 -1.132948 0.006088 -0.568256 -0.000144 0.030550
    37 0.014898 -0.887895 -0.019848 -0.284651 -0.002325 0.012344
    38 -0.586770 -1.264477 0.200161 0.295212 -0.639158 -2.749895
    39 1.561899 0.035243 0.016848 -0.016016 -0.006223 0.790936
    40 1.117947 0.048424 -0.005766 -0.004605 -0.028925 0.244402
    41 -0.041740 -0.154668 -0.219985 0.919036 0.038150 1.492745
    42 -5.776416 -5.157344 -0.450377 1.545737 -0.037226 0.629352
  time 20
    0 5.015100 -6.155764 -3.650573 -1.361854 -3.191360 1.429429
    1 7.544978 0.157464 0.293294 -0.000001 -1.570451 0.000000
    2 4.270654 -2.975987 -0.024055 1.570796 0.000000 -1.570797
    3 2.246859 -0.655005 0.464540 -0.000001 -1.570451 0.000000
    4 -0.862154 -0.856760 -1.276764 -0.003020 -0.360401 0.288652
    5 6.989720 2.915480 -7.026540 5.864796 -1.948715 0.041223
    6 7.577685 -2.085403 -0.411533 -1.566727 -0.030175 -3.327123
    7 -0.009419 -8.498736 -0.072883 0.023884 0.612153 0.364238
    8 -0.488518 -2.755602 -0.228260 -0.888349 0.016180 -0.254183
    9 0.039887 -1.550105 0.025948 -1.996582 -0.004231 0.044080
    10 0.028786 -1.118701 -0.097330 -0.653179 -0.012308 0.012104
    11 0.250027 -2.820665 -0.238396 -0.790610 -0.014043 -0.199190
    12 -0.049759 -1.594604 0.030164 -1.602203 -0.000683 -0.042667
    13 -0.034142 -1.171750 0.045718 -1.183605 0.006424 -0.031196
    14 0.957766 -2.746780 -0.090302 -0.082058 -0.157843 0.041008
    15 -0.033420 -1.397129 -0.026882 -0.857365 0.006352 -0.042163
    16 -0.022360 -0.957436 0.003159 -0.680276 0.007706 -0.033006
    17 -1.180681 -2.507217 -0.193859 -0.695044 0.195831 -0.247787
    18 -0.024967 -1.127840 0.017597 -1.674946 -0.016359 -0.065243
    19 -0.020057 -0.906594 0.025715 -0.860044 0.007095 -0.034791
    20 0.614761 -1.197277 0.181473 0.632188 -0.960454 -0.780381
    21 1.485144 -0.204604 0.067511 0.042194 -0.205332 -0.725395
    22 0.987486 -0.190791 0.047917 0.109955 -0.259553 -1.139777
    23 0.120153 -0.050270 -0.054489 0.287569 3.110905 1.561085
    24 -6.638151 0.065777 -8.423415 0.432144 -4.230055 0.773893
    25 0.026629 -8.501201 0.041418 0.326259 -0.603741 -0.031997
    26 0.447953 -2.798986 -0.200443 -0.351798 0.063741 0.250317
    27 -0.032909 -1.491923 0.008846 -0.555989 0.012824 -0.005894
    28 -0.027022 -1.076920 -0.020210 0.070305 -0.001930 0.000168
    29 -0.249534 -2.846964 -0.174213 -0.030628 0.077775 0.180122
    30 0.043235 -1.668316 0.092106 -0.642683 -0.009989 -0.001330
    31 0.031729 -1.160830 0.058838 -0.039466 0.000642 0.008372
    32 -0.963866 -2.785145 -0.085350 0.034523 0.151718 -0.033287
    33 0.028479 -1.403067 -0.009354 -0.597930 -0.011937 -0.024497
    34 0.021413 -0.961687 0.020046 0.191434 0.000563 0.008449
    35 1.164475 -2.543940 -0.170330 -0.440174 -0.017213 0.327736
    36 0.024032 -1.132948 0.006088 -0.569683 -0.000132 0.030622
    37 0.014898 -0.887895 -0.019848 -0.235054 -0.002049 0.009564
    38 -0.586770 -1.264477 0.200161 0.253523 -0.615556 -2.781841
    39 1.557992 0.035243 0.016848 -0.015225 -0.005972 0.761733
    40 1.117947 0.048424 -0.005766 -0.002029 -0.026888 0.142312
    41 -0.041740 -0.154668 -0.219985 0.926862 0.043972 1.470346
    42 -6.710039 -4.063560 -0.466002 1.550231 -0.038460 0.454835
  time 21
    0 4.972130 -6.698749 -3.599790 -1.375214 -3.165127 1.362186
    1 7.197311 0.157464 0.293294 -0.000001 -1.570451 0.000000
    2 4.270654 -2.975987 -0.024055 1.570796 0.000000 -1.570797
    3 2.246859 -0.655005 0.464540 -0.000001 -1.570451 0.000000
    4 -0.862154 -0.856760 -1.276764 -0.003020 -0.360401 0.288652
    5 6.841278 2.177177 -7.331237 5.965446 -1.935872 -0.055924
    6 7.839412 -1.237720 -0.403721 -1.568645 -0.028746 -3.218246
    7 -0.009419 -8.487017 -0.072883 -0.030447 0.630949 0.357373
    8 -0.488518 -2.755602 -0.228260 -0.888349 0.016180 -0.254183
    9 0.039887 -1.550105 0.025948 -1.996582 -0.004231 0.044080
    10 0.028786 -1.118701 -0.097330 -0.653179 -0.012308 0.012104
    11 0.250027 -2.820665 -0.238396 -0.790610 -0.014043 -0.199190
    12 -0.049759 -1.594604 0.030164 -1.602203 -0.000683 -0.042667
    13 -0.034142 -1.171750 0.045718 -1.183605 0.006424 -0.031196
    14 0.957766 -2.746780 -0.090302 -0.082058 -0.157843 0.041008
    15 -0.033420 -1.397129 -0.026882 -0.857365 0.006352 -0.042163
    16 -0.022360 -0.957436 0.003159 -0.680276 0.007706 -0.033006
    17 -1.180681 -2.507217 -0.193859 -0.695044 0.195831 -0.247787
    18 -0.024967 -1.127840 0.017597 -1.674946 -0.016359 -0.065243
    19 -0.020057 -0.906594 0.025715 -0.860044 0.007095 -0.034791
    20 0.614761 -1.197277 0.181473 0.632188 -0.960454 -0.780381
    21 1.485144 -0.204604 0.067511 0.042194 -0.205332 -0.725395
    22 0.987486 -0.190791 0.047917 0.109955 -0.259553 -1.139777
    23 0.120153 -0.050270 -0.054489 0.287569 3.110905 1.561085
    24 -6.435019 -1.274108 -8.833584 0.416025 -4.229742 0.741170
    25 -0.016341 -8.489482 0.053137 0.315156 -0.763107 0.104625
    26 0.447953 -2.798986 -0.200443 -0.481527 0.067120 0.258934
    27 -0.032909 -1.491923 0.012753 -0.684544 0.015508 -0.008375
    28 -0.027022 -1.076920 -0.020210 0.019475 -0.000491 0.000048
    29 -0.249534 -2.846964 -0.174213 -0.169870 0.075222 0.179642
    30 0.043235 -1.664409 0.088199 -0.760879 -0.012218 -0.000634
    31 0.031729 -1.160830 0.058838 -0.114373 -0.000101 0.007785
    32 -0.963866 -2.785145 -0.085350 -0.103069 0.144503 -0.015898
    33 0.028479 -1.403067 -0.013261 -0.687983 -0.014873 -0.027325
    34 0.021413 -0.957781 0.020046 0.155571 0.000575 0.006831
    35 1.164475 -2.543940 -0.170330 -0.631008 -0.007877 0.336497
    36 0.024032 -1.132948 0.002182 -0.613670 0.000575 0.032995
    37 0.014898 -0.887895 -0.019848 -0.250579 -0.002145 0.010427
    38 -0.586770 -1.264477 0.200161 0.208728 -0.611017 -2.823784
    39 1.557992 0.035243 0.016848 -0.014649 -0.005768 0.740096
    40 1.117947 0.048424 -0.005766 -0.000782 -0.025725 0.089177
    41 -0.041740 -0.154668 -0.219985 0.934140 0.050140 1.446568
    42 -7.713975 -2.180690 -0.481628 1.557158 -0.038820 0.194716
  time 22
    0 5.202605 -7.062041 -3.627135 -1.435336 -3.174222 1.362186
    1 7.544978 0.157464 0.293294 -0.000001 -1.570451 0.000000
    2 4.270654 -2.975987 -0.024055 1.570796 0.000000 -1.570797
    3 2.246859 -0.655005 0.464540 -0.000001 -1.570451 0.000000
    4 -0.862154 -0.856760 -1.276764 -0.003020 -0.360401 0.288652
    5 6.778776 1.895918 -7.413270 5.962674 -1.930282 -0.057588
    6 7.933165 -0.819739 -0.395908 -1.569508 -0.028080 -3.165218
    7 0.002300 -8.483111 -0.072883 -0.028989 0.684803 0.347101
    8 -0.488518 -2.755602 -0.228260 -0.888349 0.016180 -0.254183
    9 0.039887 -1.550105 0.025948 -1.996582 -0.004231 0.044080
    10 0.028786 -1.118701 -0.097330 -0.653179 -0.012308 0.012104
    11 0.250027 -2.820665 -0.238396 -0.790610 -0.014043 -0.199190
    12 -0.049759 -1.594604 0.030164 -1.602203 -0.000683 -0.042667
    13 -0.034142 -1.171750 0.045718 -1.183605 0.006424 -0.031196
    14 0.957766 -2.746780 -0.090302 -0.082058 -0.157843 0.041008
    15 -0.033420 -1.397129 -0.026882 -0.857365 0.006352 -0.042163
    16 -0.022360 -0.957436 0.003159 -0.680276 0.007706 -0.033006
    17 -1.180681 -2.507217 -0.193859 -0.695044 0.195831 -0.247787
    18 -0.024967 -1.127840 0.017597 -1.674946 -0.016359 -0.065243
    19 -0.020057 -0.906594 0.025715 -0.860044 0.007095 -0.034791
    20 0.614761 -1.197277 0.181473 0.632188 -0.960454 -0.780394
    21 1.485144 -0.204604 0.067511 0.042194 -0.205332 -0.725395
    22 0.987486 -0.190791 0.047917 0.109955 -0.259553 -1.139777
    23 0.120153 -0.050270 -0.054489 0.287569 3.110905 1.561085
    24 -5.966255 -2.942127 -8.899992 0.427627 -4.233539 0.744785
    25 -0.067124 -8.489482 0.057043 0.269095 -0.955439 0.263305
    26 0.447953 -2.798986 -0.200443 -0.673384 0.073736 0.265921
    27 -0.032909 -1.495829 0.012753 -0.859090 0.018600 -0.012258
    28 -0.027022 -1.076920 -0.020210 -0.085442 0.002457 -0.000419
    29 -0.249534 -2.846964 -0.174213 -0.377904 0.071351 0.179594
    30 0.043235 -1.660503 0.084293 -0.919675 -0.015058 0.000684
    31 0.031729 -1.156924 0.058838 -0.244649 -0.001527 0.006886
    32 -0.963866 -2.785145 -0.085350 -0.300683 0.137815 0.007963
    33 0.028479 -1.403067 -0.017167 -0.818123 -0.019535 -0.030908
    34 0.021413 -0.957781 0.020046 0.070465 0.000384 0.002984
    35 1.164475 -2.543940 -0.170330 -0.891078 0.005114 0.341482
    36 0.024032 -1.132948 0.002182 -0.682947 0.001918 0.036650
    37 0.014898 -0.887895 -0.019848 -0.307502 -0.002397 0.013626
    38 -0.586770 -1.264477 0.200161 0.164432 -0.619978 -2.869705
    39 1.557992 0.035243 0.016848 -0.014230 -0.005612 0.724416
    40 1.117947 0.048424 -0.005766 -0.000351 -0.025306 0.070439
    41 -0.041740 -0.154668 -0.219985 0.940872 0.056516 1.421964
    42 -8.229616 0.260790 -0.473815 1.565044 -0.036962 -0.109235
  time 23
    0 5.604962 -7.386270 -3.736513 -1.522275 -3.197775 1.389475
    1 7.544978 0.157464 0.293294 -0.000001 -1.570451 0.000000
    2 4.270654 -2.975987 -0.024055 1.570796 0.000000 -1.570797
    3 2.246859 -0.655005 0.464540 -0.000001 -1.570451 0.000000
    4 -0.862154 -0.856760 -1.276764 -0.003020 -0.360401 0.288652
    5 6.751432 1.759195 -7.440615 5.916411 -1.926955 -0.020046
    6 7.987854 -0.499417 -0.392002 -1.570083 -0.027508 -3.125418
    7 0.021832 -8.483111 -0.065070 0.000459 0.760403 0.340421
    8 -0.488518 -2.755602 -0.228260 -0.888349 0.016180 -0.254183
    9 0.039887 -1.550105 0.025948 -1.996582 -0.004231 0.044080
    10 0.028786 -1.118701 -0.097330 -0.653179 -0.012308 0.012104
    11 0.250027 -2.820665 -0.238396 -0.790610 -0.014043 -0.199190
    12 -0.049759 -1.594604 0.030164 -1.602203 -0.000683 -0.042667
    13 -0.034142 -1.171750 0.045718 -1.183605 0.006424 -0.031196
    14 0.957766 -2.746780 -0.090302 -0.082058 -0.157843 0.041008
    15 -0.033420 -1.397129 -0.026882 -0.857365 0.006352 -0.042163
    16 -0.022360 -0.957436 0.003159 -0.680276 0.007706 -0.033006
    17 -1.180681 -2.507217 -0.193859 -0.695044 0.195831 -0.247787
    18 -0.024967 -1.127840 0.017597 -1.674946 -0.016359 -0.065243
    19 -0.020057 -0.906594 0.025715 -0.860044 0.007095 -0.034791
    20 0.614761 -1.197277 0.181473 0.632188 -0.960454 -0.780381
    21 1.485144 -0.204604 0.067511 0.042194 -0.205332 -0.725395
    22 0.987486 -0.190791 0.047917 0.109955 -0.259553 -1.139777
    23 0.120153 -0.050270 -0.054489 0.287569 3.110905 1.561085
    24 -5.278734 -4.535926 -8.466385 0.450408 -4.238902 0.767996
    25 -0.121813 -8.493389 0.053137 0.143475 -1.144360 0.481406
    26 0.447953 -2.798986 -0.200443 -0.883564 0.082053 0.270211
    27 -0.032909 -1.499736 0.020565 -1.044607 0.021105 -0.016908
    28 -0.027022 -1.084733 -0.024116 -0.211286 0.005896 -0.001390
    29 -0.249534 -2.846964 -0.174213 -0.606473 0.067180 0.180457
    30 0.043235 -1.656596 0.080387 -1.087819 -0.017802 0.002565
    31 0.031729 -1.156924 0.058838 -0.394319 -0.003289 0.006083
    32 -0.963866 -2.785145 -0.085350 -0.514983 0.135634 0.033862
    33 0.028479 -1.403067 -0.021074 -0.959589 -0.025084 -0.034096
    34 0.021413 -0.957781 0.020046 -0.034256 -0.000300 -0.001690
    35 1.164475 -2.543940 -0.170330 -1.168020 0.018765 0.341458
    36 0.024032 -1.132948 -0.001725 -0.760343 0.003703 0.040617
    37 0.014898 -0.887895 -0.019848 -0.382101 -0.002457 0.017821
    38 -0.586770 -1.264477 0.200161 0.124222 -0.636109 -2.913916
    39 1.557992 0.035243 0.016848 -0.013930 -0.005492 0.713147
    40 1.117947 0.048424 -0.005766 -0.000375 -0.025330 0.071389
    41 -0.041740 -0.154668 -0.219985 0.947056 0.062962 1.397072
    42 -7.983515 2.760867 -0.450377 1.572055 -0.032791 -0.415466
  time 24
    0 6.034662 -7.636277 -3.892768 1.534317 -6.201547 -1.716660
    1 7.544978 0.157464 0.293294 -0.000001 -1.570451 0.000000
    2 4.270654 -2.975987 -0.024055 1.570796 0.000000 -1.570797
    3 2.246859 -0.655005 0.464540 -0.000001 -1.570451 0.000000
    4 -0.862154 -0.856760 -1.276764 -0.003020 -0.360401 0.288652
    5 6.739712 1.681068 -7.448428 5.857340 -1.926023 0.029215
    6 8.023011 -0.237690 -0.392002 -1.570562 -0.026937 -3.092967
    7 0.041364 -8.483111 -0.065070 0.045634 0.834395 0.346309
    8 -0.488518 -2.755602 -0.228260 -0.888349 0.016180 -0.254183
    9 0.039887 -1.550105 0.025948 -1.996582 -0.004231 0.044080
    10 0.028786 -1.118701 -0.097330 -0.653199 -0.012308 0.012104
    11 0.250027 -2.820665 -0.238396 -0.790610 -0.014043 -0.199190
    12 -0.049759 -1.594604 0.030164 -1.602203 -0.000683 -0.042667
    13 -0.034142 -1.171750 0.045718 -1.183605 0.006424 -0.031196
    14 0.957766 -2.746780 -0.090302 -0.082058 -0.157843 0.041008
    15 -0.033420 -1.397129 -0.026882 -0.857365 0.006352 -0.042163
    16 -0.022360 -0.957436 0.003159 -0.680276 0.007706 -0.033006
    17 -1.180681 -2.507217 -0.193859 -0.695044 0.195831 -0.247787
    18 -0.024967 -1.127840 0.017597 -1.674946 -0.016359 -0.065243
    19 -0.020057 -0.906594 0.025715 -0.860044 0.007095 -0.034791
    20 0.614761 -1.197277 0.181473 0.632188 -0.960454 -0.780381
    21 1.485144 -0.204604 0.067511 0.042194 -0.205332 -0.725395
    22 0.987486 -0.190791 0.047917 0.109955 -0.259553 -1.139777
    23 0.120153 -0.050270 -0.054489 0.287569 3.110905 1.561085
    24 -4.563869 -5.707837 -7.700737 0.470882 -4.243130 0.792918
    25 -0.164783 -8.505108 0.041418 -0.135619 -1.287112 0.828809
    26 0.447953 -2.798986 -0.200443 -1.068210 0.089819 0.272009
    27 -0.032909 -1.499736 0.024472 -1.206186 0.022543 -0.021283
    28 -0.027022 -1.088639 -0.024116 -0.324323 0.008869 -0.002637
    29 -0.249534 -2.846964 -0.174213 -0.807363 0.063765 0.181991
    30 0.043235 -1.656596 0.076480 -1.234171 -0.019900 0.004555
    31 0.031729 -1.153017 0.058838 -0.527502 -0.004931 0.005592
    32 -0.963866 -2.785145 -0.085350 -0.702707 0.138127 0.056237
    33 0.028479 -1.406973 -0.021074 -1.083576 -0.030273 -0.036217
    34 0.021413 -0.957781 0.020046 -0.129044 -0.001354 -0.005848
    35 1.164475 -2.543940 -0.170330 -1.409361 0.029898 0.338007
    36 0.024032 -1.136855 -0.001725 -0.828734 0.005537 0.043996
    37 0.014898 -0.891802 -0.019848 -0.450552 -0.002241 0.021656
    38 -0.586770 -1.264477 0.200161 0.091222 -0.652519 -2.951078
    39 1.557992 0.035243 0.016848 -0.013703 -0.005408 0.704646
    40 1.117947 0.048424 -0.005766 -0.000507 -0.025462 0.077433
    41 -0.041740 -0.154668 -0.219985 0.952673 0.069338 1.372467
    42 -7.167084 4.792179 -0.415220 1.576897 -0.027578 -0.682352
  time 25
    0 6.339359 -7.808158 -4.009959 1.477535 -6.191782 -1.690976
    1 7.544978 0.157464 0.293294 -0.000001 -1.570451 0.000000
    2 4.270654 -2.975987 -0.024055 1.570796 0.000000 -1.570797
    3 2.246859 -0.655005 0.464540 -0.000001 -1.570451 0.000000
    4 -0.862154 -0.856760 -1.276764 -0.003020 -0.360401 0.288652
    5 6.724087 1.579502 -7.456240 5.816525 -1.925823 0.062200
    6 8.050356 0.016224 -0.388095 1.570500 -3.115011 0.079635
    7 0.056989 -8.483111 -0.061164 0.091936 0.882861 0.369572
    8 -0.488518 -2.755602 -0.228260 -0.888349 0.016180 -0.254183
    9 0.039887 -1.550105 0.025948 -1.996582 -0.004231 0.044080
    10 0.028786 -1.118701 -0.097330 -0.653179 -0.012308 0.012104
    11 0.250027 -2.820665 -0.238396 -0.790610 -0.014043 -0.199190
    12 -0.049759 -1.594604 0.030164 -1.602203 -0.000683 -0.042667
    13 -0.034142 -1.171750 0.045718 -1.183605 0.006424 -0.031196
    14 0.957766 -2.746780 -0.090302 -0.082058 -0.157843 0.041008
    15 -0.033420 -1.397129 -0.026882 -0.857365 0.006352 -0.042163
    16 -0.022360 -0.957436 0.003159 -0.680276 0.007706 -0.033006
    17 -1.180681 -2.507217 -0.193859 -0.695044 0.195831 -0.247787
    18 -0.024967 -1.127840 0.017597 -1.674946 -0.016359 -0.065243
    19 -0.020057 -0.906594 0.025715 -0.860044 0.007095 -0.034791
    20 0.614761 -1.197277 0.181473 0.632188 -0.960454 -0.780381
    21 1.485144 -0.204604 0.067511 0.042194 -0.205332 -0.725395
    22 0.987486 -0.190791 0.047917 0.109955 -0.259553 -1.139777
    23 0.120153 -0.050270 -0.054489 0.287569 3.110905 1.561085
    24 -4.059947 -6.344575 -6.993684 0.480047 -4.246144 0.803002
    25 -0.192127 -8.509014 0.029699 -0.523837 -1.345918 1.256883
    26 0.447953 -2.798986 -0.200443 -1.183464 0.094973 0.272944
    27 -0.032909 -1.499736 0.024472 -1.308919 0.023094 -0.024147
    28 -0.027022 -1.092546 -0.028023 -0.391276 0.010558 -0.003523
    29 -0.249534 -2.846964 -0.174213 -0.932364 0.061823 0.183274
    30 0.043235 -1.656596 0.072574 -1.327365 -0.021074 0.005969
    31 0.031729 -1.153017 0.058838 -0.608222 -0.005962 0.005412
    32 -0.963866 -2.785145 -0.085350 -0.820520 0.141950 0.070175
    33 0.028479 -1.406973 -0.024980 -1.161324 -0.033653 -0.037212
    34 0.021413 -0.953875 0.020046 -0.184272 -0.002145 -0.008221
    35 1.164475 -2.543940 -0.170330 -1.562681 0.036862 0.334867
    36 0.024032 -1.136855 -0.001725 -0.870851 0.006771 0.046010
    37 0.014898 -0.891802 -0.019848 -0.489133 -0.002001 0.023813
    38 -0.586770 -1.264477 0.200161 0.068094 -0.661853 -2.976115
    39 1.554086 0.035243 0.016848 -0.013511 -0.005325 0.697370
    40 1.117947 0.048424 -0.005766 -0.000435 -0.025390 0.073974
    41 -0.041740 -0.154668 -0.219985 0.957680 0.075493 1.348690
    42 -6.288151 6.046123 -0.383969 1.579366 -0.023264 -0.868194
  time 26
    0 6.425299 -7.847221 -3.978708 1.468278 -6.219834 -1.679501
    1 7.544978 0.157464 0.293294 -0.000001 -1.570451 0.000000
    2 4.270654 -2.975987 -0.024055 1.570796 0.000000 -1.570797
    3 2.246859 -0.655005 0.464540 -0.000001 -1.570451 0.000000
    4 -0.862154 -0.856760 -1.276764 -0.003020 -0.360401 0.288652
    5 6.704555 1.438873 -7.464053 5.806011 -1.925091 0.068494
    6 8.065982 0.246700 -0.384189 1.570117 -3.115487 0.108206
    7 0.060896 -8.490924 -0.061164 0.140563 0.884250 0.424759
    8 -0.488518 -2.755602 -0.228260 -0.888349 0.016180 -0.254183
    9 0.039887 -1.550105 0.025948 -1.996582 -0.004231 0.044080
    10 0.028786 -1.118701 -0.097330 -0.653179 -0.012308 0.012104
    11 0.250027 -2.820665 -0.238396 -0.790610 -0.014043 -0.199190
    12 -0.049759 -1.594604 0.030164 -1.602203 -0.000683 -0.042667
    13 -0.034142 -1.171750 0.045718 -1.183605 0.006424 -0.031196
    14 0.957766 -2.746780 -0.090302 -0.082058 -0.157843 0.041008
    15 -0.033420 -1.397129 -0.026882 -0.857365 0.006352 -0.042163
    16 -0.022360 -0.957436 0.003159 -0.680276 0.007706 -0.033006
    17 -1.180681 -2.507217 -0.193859 -0.695044 0.195831 -0.247787
    18 -0.024967 -1.127840 0.017597 -1.674946 -0.016359 -0.065243
    19 -0.020057 -0.906594 0.025715 -0.860044 0.007095 -0.034791
    20 0.614761 -1.197277 0.181473 0.632188 -0.960454 -0.780381
    21 1.485144 -0.204604 0.067511 0.042194 -0.205332 -0.725395
    22 0.987486 -0.190791 0.047917 0.109955 -0.259553 -1.139777
    23 0.120153 -0.050270 -0.054489 0.287569 3.110905 1.561085
    24 -3.794314 -6.528174 -6.708519 0.481477 -4.249980 0.818602
    25 -0.180408 -8.528546 0.029699 -0.261430 -1.386186 1.054041
    26 0.447953 -2.798986 -0.200443 -1.231876 0.097393 0.273795
    27 -0.032909 -1.499736 0.028378 -1.354135 0.023238 -0.025429
    28 -0.027022 -1.092546 -0.028023 -0.415290 0.011146 -0.003871
    29 -0.249534 -2.846964 -0.174213 -0.984550 0.061056 0.183885
    30 0.043235 -1.656596 0.068667 -1.368697 -0.021554 0.006640
    31 0.031729 -1.149111 0.058838 -0.639433 -0.006357 0.005364
    32 -0.963866 -2.785145 -0.085350 -0.870795 0.144251 0.076288
    33 0.028479 -1.410880 -0.024980 -1.194325 -0.035103 -0.037548
    34 0.021413 -0.953875 0.020046 -0.203097 -0.002445 -0.009012
    35 1.164475 -2.543940 -0.170330 -1.630061 0.040289 0.333621
    36 0.024032 -1.136855 -0.001725 -0.887925 0.007299 0.046825
    37 0.014898 -0.891802 -0.019848 -0.500712 -0.001918 0.024461
    38 -0.586770 -1.264477 0.200161 0.055356 -0.664343 -2.988799
    39 1.554086 0.035243 0.016848 -0.013367 -0.005265 0.692089
    40 1.117947 0.048424 -0.005766 -0.000219 -0.025174 0.064396
    41 -0.041740 -0.154668 -0.219985 0.962076 0.081301 1.326291
    42 -5.905326 6.468011 -0.372250 1.580085 -0.021550 -0.937765
  time 27
    0 6.374516 -7.765188 -3.857610 1.490228 0.012032 -1.673556
    1 7.544978 0.157464 0.293294 -0.000001 -1.570451 0.000000
    2 4.270654 -2.975987 -0.024055 1.570796 0.000000 -1.570797
    3 2.246859 -0.655005 0.464540 -0.000001 -1.570451 0.000000
    4 -0.862154 -0.856760 -1.276764 -0.003020 -0.360401 0.288652
    5 6.688930 1.306056 -7.467960 5.810026 -1.924492 0.062562
    6 8.073794 0.430299 -0.380282 1.569829 -3.115868 0.130722
    7 0.056989 -8.498736 -0.061164 0.188425 0.852240 0.494812
    8 -0.488518 -2.755602 -0.228260 -0.888349 0.016180 -0.254183
    9 0.039887 -1.550105 0.025948 -1.996582 -0.004231 0.044080
    10 0.028786 -1.118701 -0.097330 -0.653199 -0.012308 0.012104
    11 0.250027 -2.820665 -0.238396 -0.790610 -0.014043 -0.199190
    12 -0.049759 -1.594604 0.030164 -1.602203 -0.000683 -0.042667
    13 -0.034142 -1.171750 0.045718 -1.183605 0.006424 -0.031196
    14 0.957766 -2.746780 -0.090302 -0.082058 -0.157843 0.041008
    15 -0.033420 -1.397129 -0.026882 -0.857365 0.006352 -0.042163
    16 -0.022360 -0.957436 0.003159 -0.680276 0.007706 -0.033006
    17 -1.180681 -2.507217 -0.193859 -0.695044 0.195831 -0.247787
    18 -0.024967 -1.127840 0.017597 -1.674946 -0.016359 -0.065243
    19 -0.020057 -0.906594 0.025715 -0.860044 0.007095 -0.034791
    20 0.614761 -1.197277 0.181473 0.632188 -0.960454 -0.780381
    21 1.485144 -0.204604 0.067511 0.042194 -0.205332 -0.725395
    22 0.987486 -0.190791 0.047917 0.109955 -0.259553 -1.139777
    23 0.120153 -0.050270 -0.054489 0.287569 3.110905 1.561085
    24 -3.641966 -6.645365 -6.474137 0.527755 -4.238158 0.872443
    25 -0.180408 -8.532452 0.033605 -0.122486 -1.394580 0.915755
    26 0.447953 -2.798986 -0.200443 -1.250687 0.098340 0.274094
    27 -0.032909 -1.499736 0.028378 -1.371756 0.023286 -0.025933
    28 -0.027022 -1.092546 -0.028023 -0.424610 0.011373 -0.004003
    29 -0.249534 -2.846964 -0.174213 -1.004848 0.060769 0.184124
    30 0.043235 -1.656596 0.068667 -1.384746 -0.021733 0.006904
    31 0.031729 -1.149111 0.058838 -0.651584 -0.006513 0.005352
    32 -0.963866 -2.785145 -0.085350 -0.890323 0.145234 0.078637
    33 0.028479 -1.410880 -0.024980 -1.207190 -0.035666 -0.037668
    34 0.021413 -0.953875 0.020046 -0.210411 -0.002565 -0.009324
    35 1.164475 -2.543940 -0.170330 -1.656270 0.041595 0.333069
    36 0.024032 -1.136855 -0.001725 -0.894567 0.007514 0.047124
    37 0.014898 -0.891802 -0.019848 -0.505221 -0.001882 0.024712
    38 -0.586770 -1.264477 0.200161 0.050401 -0.665368 -2.993719
    39 1.554086 0.035243 0.016848 -0.013319 -0.005253 0.690029
    40 1.117947 0.048424 -0.005766 -0.000135 -0.025090 0.060633
    41 -0.041740 -0.154668 -0.219985 0.965863 0.086596 1.305821
    42 -5.768604 6.604734 -0.364437 1.580289 -0.020963 -0.961151
  time 28
    0 6.300295 -7.718311 -3.771670 1.515135 -0.026743 -1.669216
    1 7.544978 0.157464 0.293294 -0.000001 -1.570451 0.000000
    2 4.270654 -2.975987 -0.024055 1.570796 0.000000 -1.570797
    3 2.246859 -0.655005 0.464540 -0.000001 -1.570451 0.000000
    4 -0.862154 -0.856760 -1.276764 -0.003020 -0.360401 0.288652
    5 6.677211 1.188865 -7.464053 5.816525 -1.924093 0.054822
    6 8.077701 0.582648 -0.380282 1.569542 -3.116154 0.149299
    7 0.049176 -8.506549 -0.061164 0.218508 0.819011 0.540097
    8 -0.488518 -2.755602 -0.228260 -0.888349 0.016180 -0.254183
    9 0.039887 -1.550105 0.025948 -1.996582 -0.004231 0.044080
    10 0.028786 -1.118701 -0.097330 -0.653179 -0.012308 0.012104
    11 0.250027 -2.820665 -0.238396 -0.790610 -0.014043 -0.199190
    12 -0.049759 -1.594604 0.030164 -1.602203 -0.000683 -0.042667
    13 -0.034142 -1.171750 0.045718 -1.183605 0.006424 -0.031196
    14 0.957766 -2.746780 -0.090302 -0.082058 -0.157843 0.041008
    15 -0.033420 -1.397129 -0.026882 -0.857365 0.006352 -0.042163
    16 -0.022360 -0.957436 0.003159 -0.680276 0.007706 -0.033006
    17 -1.180681 -2.507217 -0.193859 -0.695044 0.195831 -0.247787
    18 -0.024967 -1.127840 0.017597 -1.674946 -0.016359 -0.065243
    19 -0.020057 -0.906594 0.025715 -0.860044 0.007095 -0.034791
    20 0.614761 -1.197277 0.181473 0.632188 -0.960454 -0.780381
    21 1.485144 -0.204604 0.067511 0.042194 -0.205332 -0.725395
    22 0.987486 -0.190791 0.047917 0.109955 -0.259553 -1.139777
    23 0.120153 -0.050270 -0.054489 0.287569 3.110905 1.561085
    24 -3.575557 -6.715680 -6.321789 0.558661 -4.228528 0.903454
    25 -0.180408 -8.528546 0.033605 -0.148625 -1.385442 0.908910
    26 0.447953 -2.798986 -0.200443 -1.248031 0.098208 0.274058
    27 -0.032909 -1.499736 0.028378 -1.369262 0.023274 -0.025861
    28 -0.027022 -1.092546 -0.028023 -0.423294 0.011349 -0.003991
    29 -0.249534 -2.846964 -0.174213 -1.001961 0.060817 0.184089
    30 0.043235 -1.656596 0.068667 -1.382437 -0.021709 0.006868
    31 0.031729 -1.149111 0.058838 -0.649821 -0.006489 0.005352
    32 -0.963866 -2.785145 -0.085350 -0.887554 0.145090 0.078301
    33 0.028479 -1.410880 -0.024980 -1.205372 -0.035594 -0.037656
    34 0.021413 -0.953875 0.020046 -0.209372 -0.002541 -0.009276
    35 1.164475 -2.543940 -0.170330 -1.652502 0.041404 0.333141
    36 0.024032 -1.136855 -0.001725 -0.893632 0.007478 0.047088
    37 0.014898 -0.891802 -0.019848 -0.504555 -0.001882 0.024676
    38 -0.586770 -1.264477 0.200161 0.051122 -0.665205 -2.993021
    39 1.554086 0.035243 0.016848 -0.013331 -0.005253 0.690319
    40 1.117947 0.048424 -0.005766 -0.000147 -0.025102 0.061165
    41 -0.041740 -0.154668 -0.219985 0.968976 0.091254 1.287832
    42 -5.694383 6.675049 -0.364437 1.580397 -0.020651 -0.973506
  time 29
    0 6.229981 -7.765188 -3.740419 1.537466 -0.042348 -1.662854
    1 7.544978 0.157464 0.293294 -0.000001 -1.570451 0.000000
    2 4.270654 -2.975987 -0.024055 1.570796 0.000000 -1.570797
    3 2.246859 -0.655005 0.464540 -0.000001 -1.570451 0.000000
    4 -0.862154 -0.856760 -1.276764 -0.003020 -0.360401 0.288652
    5 6.665491 1.075581 -7.460147 5.822738 -1.923694 0.047444
    6 8.081607 0.727183 -0.376376 1.569350 -3.116440 0.166995
    7 0.045270 -8.510455 -0.061164 0.231564 0.792901 0.552771
    8 -0.488518 -2.755602 -0.228260 -0.888349 0.016180 -0.254183
    9 0.039887 -1.550105 0.025948 -1.996582 -0.004231 0.044080
    10 0.028786 -1.118701 -0.097330 -0.653179 -0.012308 0.012104
    11 0.250027 -2.820665 -0.238396 -0.790610 -0.014043 -0.199190
    12 -0.049759 -1.594604 0.030164 -1.602203 -0.000683 -0.042667
    13 -0.034142 -1.171750 0.045718 -1.183605 0.006424 -0.031196
    14 0.957766 -2.746780 -0.090302 -0.082058 -0.157843 0.041008
    15 -0.033420 -1.397129 -0.026882 -0.857365 0.006352 -0.042163
    16 -0.022360 -0.957436 0.003159 -0.680276 0.007706 -0.033006
    17 -1.180681 -2.507217 -0.193859 -0.695044 0.195831 -0.247787
    18 -0.024967 -1.127840 0.017597 -1.674946 -0.016359 -0.065243
    19 -0.020057 -0.906594 0.025715 -0.860044 0.007095 -0.034791
    20 0.614761 -1.197277 0.181473 0.632188 -0.960454 -0.780381
    21 1.485144 -0.204604 0.067511 0.042194 -0.205332 -0.725395
    22 0.987486 -0.190791 0.047917 0.109955 -0.259553 -1.139777
    23 0.120153 -0.050270 -0.054489 0.287569 3.110905 1.561085
    24 -3.559932 -6.774276 -6.216317 0.551349 -4.230681 0.888138
    25 -0.180408 -8.512920 0.033605 -0.293279 -1.367954 0.995570
    26 0.447953 -2.798986 -0.200443 -1.231876 0.097393 0.273795
    27 -0.032909 -1.499736 0.028378 -1.354135 0.023238 -0.025429
    28 -0.027022 -1.092546 -0.028023 -0.415290 0.011146 -0.003871
    29 -0.249534 -2.846964 -0.174213 -0.984550 0.061056 0.183885
    30 0.043235 -1.656596 0.068667 -1.368697 -0.021554 0.006640
    31 0.031729 -1.149111 0.058838 -0.639433 -0.006357 0.005364
    32 -0.963866 -2.785145 -0.085350 -0.870795 0.144251 0.076288
    33 0.028479 -1.410880 -0.024980 -1.194325 -0.035103 -0.037548
    34 0.021413 -0.953875 0.020046 -0.203097 -0.002445 -0.009012
    35 1.164475 -2.543940 -0.170330 -1.630061 0.040289 0.333621
    36 0.024032 -1.136855 -0.001725 -0.887925 0.007299 0.046825
    37 0.014898 -0.891802 -0.019848 -0.500712 -0.001918 0.024461
    38 -0.586770 -1.264477 0.200161 0.055356 -0.664343 -2.988799
    39 1.554086 0.035243 0.016848 -0.013367 -0.005265 0.692089
    40 1.117947 0.048424 -0.005766 -0.000219 -0.025174 0.064396
    41 -0.041740 -0.154668 -0.219985 0.971437 0.095121 1.272888
    42 -5.526409 6.835210 -0.356624 1.580624 -0.019944 -1.001526
  time 30
    0 6.136228 -7.843315 -3.724794 1.564569 -0.050199 -1.656373
    1 7.544978 0.157464 0.293294 -0.000001 -1.570451 0.000000
    2 4.270654 -2.975987 -0.024055 1.570796 0.000000 -1.570797
    3 2.246859 -0.655005 0.464540 -0.000001 -1.570451 0.000000
    4 -0.862154 -0.856760 -1.276764 -0.003020 -0.360401 0.288652
    5 6.657679 0.966202 -7.452334 5.831532 -1.923295 0.037896
    6 8.077701 0.860000 -0.376376 1.569158 -3.116725 0.183515
    7 0.041364 -8.518268 -0.061164 0.236142 0.764743 0.551292
    8 -0.488518 -2.755602 -0.228260 -0.888349 0.016180 -0.254183
    9 0.039887 -1.550105 0.025948 -1.996582 -0.004231 0.044080
    10 0.028786 -1.118701 -0.097330 -0.653179 -0.012308 0.012104
    11 0.250027 -2.820665 -0.238396 -0.790610 -0.014043 -0.199190
    12 -0.049759 -1.594604 0.030164 -1.602203 -0.000683 -0.042667
    13 -0.034142 -1.171750 0.045718 -1.183605 0.006424 -0.031196
    14 0.957766 -2.746780 -0.090302 -0.082058 -0.157843 0.041008
    15 -0.033420 -1.397129 -0.026882 -0.857365 0.006352 -0.042163
    16 -0.022360 -0.957436 0.003159 -0.680276 0.007706 -0.033006
    17 -1.180681 -2.507217 -0.193859 -0.695044 0.195831 -0.247787
    18 -0.024967 -1.127840 0.017597 -1.674946 -0.016359 -0.065243
    19 -0.020057 -0.906594 0.025715 -0.860044 0.007095 -0.034791
    20 0.614761 -1.197277 0.181473 0.632188 -0.960454 -0.780381
    21 1.485144 -0.204604 0.067511 0.042194 -0.205332 -0.725395
    22 0.987486 -0.190791 0.047917 0.109955 -0.259553 -1.139777
    23 0.120153 -0.050270 -0.054489 0.287569 3.110905 1.561085
    24 -3.563838 -6.828965 -6.122564 0.530355 -4.236827 0.855035
    25 -0.188221 -8.497295 0.029699 -0.467688 -1.346355 1.097633
    26 0.447953 -2.798986 -0.200443 -1.210354 0.096315 0.273435
    27 -0.032909 -1.499736 0.024472 -1.334020 0.023178 -0.024866
    28 -0.027022 -1.092546 -0.028023 -0.404598 0.010894 -0.003715
    29 -0.249534 -2.846964 -0.174213 -0.961367 0.061392 0.183609
    30 0.043235 -1.656596 0.072574 -1.350340 -0.021338 0.006341
    31 0.031729 -1.149111 0.058838 -0.625567 -0.006177 0.005388
    32 -0.963866 -2.785145 -0.085350 -0.848463 0.143197 0.073591
    33 0.028479 -1.406973 -0.024980 -1.179642 -0.034456 -0.037404
    34 0.021413 -0.953875 0.020046 -0.194744 -0.002301 -0.008665
    35 1.164475 -2.543940 -0.170330 -1.600083 0.038767 0.334208
    36 0.024032 -1.136855 -0.001725 -0.880348 0.007071 0.046465
    37 0.014898 -0.891802 -0.019848 -0.495589 -0.001953 0.024173
    38 -0.586770 -1.264477 0.200161 0.061013 -0.663226 -2.983164
    39 1.554086 0.035243 0.016848 -0.013439 -0.005301 0.694440
    40 1.117947 0.048424 -0.005766 -0.000315 -0.025270 0.068615
    41 -0.041740 -0.154668 -0.219985 0.973226 0.098060 1.261526
    42 -5.319371 7.014903 -0.352718 1.580864 -0.019069 -1.035135
  time 31
    0 6.054194 -7.921442 -3.720888 -1.553863 -3.088630 1.490310
    1 7.544978 0.157464 0.293294 -0.000001 -1.570451 0.000000
    2 4.270654 -2.975987 -0.024055 1.570796 0.000000 -1.570797
    3 2.246859 -0.655005 0.464540 -0.000001 -1.570451 0.000000
    4 -0.862154 -0.856760 -1.276764 -0.003020 -0.360401 0.288652
    5 6.649866 0.880262 -7.444521 5.839466 -1.923095 0.029577
    6 8.077701 0.961565 -0.372470 1.568966 -3.117011 0.195801
    7 0.037457 -8.518268 -0.065070 0.236546 0.742046 0.544533
    8 -0.488518 -2.755602 -0.228260 -0.888349 0.016180 -0.254183
    9 0.039887 -1.550105 0.025948 -1.996582 -0.004231 0.044080
    10 0.028786 -1.118701 -0.097330 -0.653179 -0.012308 0.012104
    11 0.250027 -2.820665 -0.238396 -0.790610 -0.014043 -0.199190
    12 -0.049759 -1.594604 0.030164 -1.602203 -0.000683 -0.042667
    13 -0.034142 -1.171750 0.045718 -1.183605 0.006424 -0.031196
    14 0.957766 -2.746780 -0.090302 -0.082058 -0.157843 0.041008
    15 -0.033420 -1.397129 -0.026882 -0.857365 0.006352 -0.042163
    16 -0.022360 -0.957436 0.003159 -0.680276 0.007706 -0.033006
    17 -1.180681 -2.507217 -0.193859 -0.695044 0.195831 -0.247787
    18 -0.024967 -1.127840 0.017597 -1.674946 -0.016359 -0.065243
    19 -0.020057 -0.906594 0.025715 -0.860044 0.007095 -0.034791
    20 0.614761 -1.197277 0.181473 0.632188 -0.960454 -0.780381
    21 1.485144 -0.204604 0.067511 0.042194 -0.205332 -0.725395
    22 0.987486 -0.190791 0.047917 0.109955 -0.259553 -1.139777
    23 0.120153 -0.050270 -0.054489 0.287569 3.110905 1.561085
    24 -3.571651 -6.875841 -6.048343 0.505818 -4.243756 0.819458
    25 -0.188221 -8.481669 0.025792 -0.600542 -1.326331 1.167085
    26 0.447953 -2.798986 -0.200443 -1.191542 0.095368 0.273100
    27 -0.032909 -1.499736 0.024472 -1.316455 0.023118 -0.024363
    28 -0.027022 -1.092546 -0.028023 -0.395278 0.010654 -0.003583
    29 -0.249534 -2.846964 -0.174213 -0.941070 0.061692 0.183369
    30 0.043235 -1.656596 0.072574 -1.334235 -0.021158 0.006089
    31 0.031729 -1.153017 0.058838 -0.613416 -0.006021 0.005400
    32 -0.963866 -2.785145 -0.085350 -0.828899 0.142310 0.071206
    33 0.028479 -1.406973 -0.024980 -1.166824 -0.033892 -0.037272
    34 0.021413 -0.953875 0.020046 -0.187430 -0.002193 -0.008353
    35 1.164475 -2.543940 -0.170330 -1.573873 0.037437 0.334675
    36 0.024032 -1.136855 -0.001725 -0.873705 0.006867 0.046154
    37 0.014898 -0.891802 -0.019848 -0.491080 -0.001989 0.023921
    38 -0.586770 -1.264477 0.200161 0.065968 -0.662272 -2.978226
    39 1.554086 0.035243 0.016848 -0.013487 -0.005313 0.696468
    40 1.117947 0.048424 -0.005766 -0.000399 -0.025354 0.072377
    41 -0.041740 -0.154668 -0.219985 0.974298 0.099931 1.254299
    42 -5.116240 7.178970 -0.344905 1.581068 -0.018254 -1.066685
  time 32
    0 6.019037 -7.956600 -3.716981 -1.543747 -3.088056 1.492569
    1 7.544978 0.157464 0.293294 -0.000001 -1.570451 0.000000
    2 4.270654 -2.975987 -0.024055 1.570796 0.000000 -1.570797
    3 2.246859 -0.655005 0.464540 -0.000001 -1.570451 0.000000
    4 -0.862154 -0.856760 -1.276764 -0.003020 -0.360401 0.288652
    5 6.645960 0.845105 -7.440615 5.843002 -1.922962 0.025888
    6 8.073794 1.000629 -0.372470 1.568871 -3.117011 0.200740
    7 0.033551 -8.518268 -0.065070 0.236128 0.732270 0.540572
    8 -0.488518 -2.755602 -0.228260 -0.888349 0.016180 -0.254183
    9 0.039887 -1.550105 0.025948 -1.996582 -0.004231 0.044080
    10 0.028786 -1.118701 -0.097330 -0.653179 -0.012308 0.012104
    11 0.250027 -2.820665 -0.238396 -0.790610 -0.014043 -0.199190
    12 -0.049759 -1.594604 0.030164 -1.602203 -0.000683 -0.042667
    13 -0.034142 -1.171750 0.045718 -1.183605 0.006424 -0.031196
    14 0.957766 -2.746780 -0.090302 -0.082058 -0.157843 0.041008
    15 -0.033420 -1.397129 -0.026882 -0.857365 0.006352 -0.042163
    16 -0.022360 -0.957436 0.003159 -0.680276 0.007706 -0.033006
    17 -1.180681 -2.507217 -0.193859 -0.695044 0.195831 -0.247787
    18 -0.024967 -1.127840 0.017597 -1.674946 -0.016359 -0.065243
    19 -0.020057 -0.906594 0.025715 -0.860044 0.007095 -0.034791
    20 0.614761 -1.197277 0.181473 0.632188 -0.960454 -0.780394
    21 1.485144 -0.204604 0.067511 0.042194 -0.205332 -0.725395
    22 0.987486 -0.190791 0.047917 0.109955 -0.259553 -1.139777
    23 0.120153 -0.050270 -0.054489 0.287569 3.110905 1.561085
    24 -3.575557 -6.895373 -6.017092 0.493891 -4.247475 0.802621
    25 -0.192127 -8.477763 0.025792 -0.652122 -1.317280 1.190806
    26 0.447953 -2.798986 -0.200443 -1.183464 0.094973 0.272944
    27 -0.032909 -1.499736 0.024472 -1.308919 0.023094 -0.024147
    28 -0.027022 -1.092546 -0.028023 -0.391276 0.010558 -0.003523
    29 -0.249534 -2.846964 -0.174213 -0.932364 0.061823 0.183274
    30 0.043235 -1.656596 0.072574 -1.327365 -0.021074 0.005969
    31 0.031729 -1.153017 0.058838 -0.608222 -0.005962 0.005412
    32 -0.963866 -2.785145 -0.085350 -0.820520 0.141950 0.070175
    33 0.028479 -1.406973 -0.024980 -1.161324 -0.033653 -0.037212
    34 0.021413 -0.953875 0.020046 -0.184272 -0.002145 -0.008221
    35 1.164475 -2.543940 -0.170330 -1.562681 0.036862 0.334867
    36 0.024032 -1.136855 -0.001725 -0.870851 0.006771 0.046010
    37 0.014898 -0.891802 -0.019848 -0.489133 -0.002001 0.023813
    38 -0.586770 -1.264477 0.200161 0.068094 -0.661853 -2.976115
    39 1.554086 0.035243 0.016848 -0.013511 -0.005325 0.697370
    40 1.117947 0.048424 -0.005766 -0.000435 -0.025390 0.073974
    41 -0.041740 -0.154668 -0.219985 0.974656 0.100582 1.251771
    42 -5.018581 7.257098 -0.340999 1.581152 -0.017870 -1.081467
end
