version 1
nodes
  0 "lightningar_root" -1
  1 "lightningar_triger" 0
  2 "lightningar_megazine" 0
  3 "lightningar_holter" 0
  4 "lightningar_head" 0
  5 "lightningar_fx002" 0
  6 "lightningar_fx003" 0
  7 "lightningar_fx1" 0
  8 "charge_fx1" 0
  9 "charge_fx002" 0
  10 "glow_ROOT" 0
  11 "glow3" 10
  12 "glow4" 10
  13 "glow1" 10
  14 "glow2" 10
  15 "charge_idle2fx_root001" 0
  16 "charge_idle2fx_005" 15
  17 "charge_idle2fx_006" 15
  18 "charge_idle2fx_007" 15
  19 "charge_idle2fx_008" 15
  20 "charge_idle2fx_root" 0
  21 "charge_idle2fx_4" 20
  22 "charge_idle2fx_2" 20
  23 "charge_idle2fx_1" 20
  24 "charge_idle2fx_3" 20
  25 "charge_idle2fx_root002" 0
  26 "charge_idle2fx_009" 25
  27 "charge_idle2fx_010" 25
  28 "charge_idle2fx_011" 25
  29 "charge_idle2fx_012" 25
  30 "root" -1
  31 "Bone01" 30
  32 "Bone_L_Upper" 31
  33 "Bone_Lefthand" 31
  34 "Bone13" 33
  35 "Bone14" 34
  36 "Bone15" 35
  37 "Bone17" 33
  38 "Bone18" 37
  39 "Bone19" 38
  40 "Bone21" 33
  41 "Bone22" 40
  42 "Bone23" 41
  43 "Bone09" 33
  44 "Bone10" 43
  45 "Bone11" 44
  46 "Bone05" 33
  47 "Bone06" 46
  48 "Bone07" 47
  49 "Bone_Se_Hand-L" 33
  50 "Bone04" 30
  51 "Bone_Righthand" 50
  52 "Bone39" 51
  53 "Bone40" 52
  54 "Bone41" 53
  55 "Bone35" 51
  56 "Bone36" 55
  57 "Bone37" 56
  58 "Bone31" 51
  59 "Bone32" 58
  60 "Bone33" 59
  61 "Bone43" 51
  62 "Bone44" 61
  63 "Bone45" 62
  64 "Bone27" 51
  65 "Bone28" 64
  66 "Bone29" 65
  67 "Bone_Se_Hand-R" 51
  68 "Bone_R_Upper" 50
end
skeleton
  time 0
    0 5.867367 -7.355632 -7.570855 0.769075 -1.659490 -0.850990
    1 1.015654 -1.668102 0.000001 0.000006 0.000000 -3.141592
    2 1.145417 -5.369577 0.000002 0.000000 0.000000 3.141592
    3 3.114791 -3.093424 0.000001 0.000001 -1.571142 0.000000
    4 2.156557 -15.664373 0.000005 0.000000 0.000000 -1.570796
    5 2.213366 -8.360288 -0.001159 -1.571027 0.001987 -0.006965
    6 2.182062 -12.854611 -0.000128 -1.571027 -0.783409 -0.006965
    7 2.197905 -10.580413 -0.000649 -1.571027 0.351055 -0.006965
    8 2.156176 -12.270843 -0.000003 0.000000 0.261799 -3.141592
    9 2.156176 -13.334796 -0.000003 0.000000 -1.290547 -3.141592
    10 2.154311 -17.275190 -0.000004 1.570796 1.570796 0.000000
    11 8.000000 7.999998 0.000000 0.000000 0.000000 0.000000
    12 -7.999999 8.000000 0.000000 0.000000 0.000000 0.000000
    13 -7.999998 -8.000000 0.000000 0.000000 0.000000 0.000000
    14 7.999999 -8.000000 0.000000 0.000000 0.000000 0.000000
    15 -43.552250 12.210165 -0.000001 1.570796 1.570796 0.000000
    16 -0.000002 0.000000 0.000000 0.000000 0.000000 0.000000
    17 0.000002 0.000004 0.000002 0.000000 0.000000 0.000000
    18 0.000000 0.000000 0.000000 0.000000 0.000000 0.000000
    19 0.000002 0.000004 0.000004 0.000000 0.000000 0.000000
    20 -43.552250 12.210167 -0.000002 1.570796 0.610865 0.000001
    21 0.000002 0.000004 0.000002 0.000000 0.000000 0.000000
    22 0.000000 -0.000004 -0.000004 0.000000 0.000000 0.000000
    23 0.000011 -0.000008 -0.000002 0.000000 0.000000 0.000000
    24 -0.000008 0.000010 0.000002 0.000000 0.000000 0.000000
    25 -38.626671 10.548248 -9.995397 -1.085492 3.077721 -0.372382
    26 0.000004 0.000003 0.000003 0.000000 0.000000 0.000000
    27 0.000004 -0.000004 -0.000003 0.000000 0.000000 0.000000
    28 0.000011 -0.000010 0.000000 0.000000 0.000000 0.000000
    29 -0.000008 0.000010 0.000003 0.000000 0.000000 0.000000
    30 -0.748869 0.799541 -4.370608 0.000000 0.000000 0.308293
    31 7.794432 -0.334619 -7.299986 0.727593 -2.108368 -0.990527
    32 6.202643 -4.476101 -0.423252 -1.560004 -0.033055 -3.667237
    33 -0.021138 -8.447954 -0.084602 -0.090014 0.520417 -0.072371
    34 -0.488518 -2.755602 -0.228260 -1.030347 -0.157968 -0.394990
    35 0.039887 -1.550105 0.029854 -2.074792 -0.002565 0.045363
    36 0.028786 -1.099169 -0.077798 -0.464682 -0.009624 0.007826
    37 0.250027 -2.820665 -0.238396 -0.798963 -0.161345 -0.387124
    38 -0.049759 -1.598510 0.006726 -1.880353 -0.007406 -0.047305
    39 -0.034142 -1.163937 0.049625 -0.971280 0.008042 -0.025168
    40 0.957766 -2.746780 -0.090302 0.047556 -0.152354 -0.131678
    41 -0.033420 -1.397129 -0.026882 -0.834512 0.006675 -0.041048
    42 -0.022360 -0.965249 -0.008561 -1.195824 -0.001606 -0.057023
    43 -1.180681 -2.507217 -0.193859 -1.027090 0.019838 -0.525290
    44 -0.024967 -1.127840 0.017597 -1.714451 -0.017965 -0.066070
    45 -0.020057 -0.906594 0.025715 -0.858796 0.007107 -0.034731
    46 0.618667 -1.197277 0.185379 0.544193 -1.000238 -0.600279
    47 1.442174 -0.255387 0.079230 0.079059 -0.248260 -0.933461
    48 1.022644 -0.171260 0.040104 0.071221 -0.227578 -0.953828
    49 0.120153 -0.050270 -0.054489 0.287569 3.110905 1.561085
    50 -1.805972 -8.180569 -6.388197 0.559018 -4.277570 0.664703
    51 0.096944 -8.458231 -0.009365 0.146588 -0.248602 0.074847
    52 0.447953 -2.798986 -0.200443 -0.655991 -0.095283 0.190274
    53 -0.032909 -1.499736 0.040097 -1.883027 0.020673 -0.040098
    54 -0.027022 -1.108171 -0.028023 -0.819748 0.019559 -0.011637
    55 -0.249534 -2.846964 -0.174213 -0.587811 0.045980 0.078145
    56 0.043235 -1.656596 0.056948 -1.845438 -0.024897 0.015365
    57 0.031729 -1.141298 0.054932 -1.171127 -0.013068 0.006442
    58 -0.963866 -2.785145 -0.085350 -0.590246 0.210214 -0.028122
    59 0.028479 -1.422599 -0.032793 -1.720764 -0.058617 -0.036421
    60 0.021413 -0.942156 0.012233 -1.038955 -0.028439 -0.034959
    61 1.164475 -2.543940 -0.170330 -0.642751 -0.330838 0.151754
    62 0.024032 -1.156387 -0.009538 -1.529426 0.035331 0.068589
    63 0.014898 -0.899614 -0.015942 -0.830963 0.003655 0.042078
    64 -0.586770 -1.264477 0.200161 0.020491 -0.717858 -2.663666
    65 1.577524 0.035243 0.016848 -0.023422 -0.007470 1.055686
    66 1.114041 0.044518 -0.005766 -0.020353 -0.034714 0.772502
    67 -0.139399 -0.119511 -0.005135 0.373864 0.094176 1.499456
    68 -5.088895 7.202408 -0.344905 1.581092 -0.018146 -1.070629
  time 1
    0 5.867367 -7.347819 -7.578668 0.740163 -1.661162 -0.820934
    1 1.015654 -1.668102 0.000001 0.000006 0.000000 -3.141592
    2 1.145417 -5.369577 0.000002 0.000000 0.000000 3.141592
    3 3.114791 -3.093424 0.000001 0.000001 -1.571142 0.000000
    4 2.156557 -15.664373 0.000005 0.000000 0.000000 -1.570796
    5 2.213366 -8.360288 -0.001159 -1.571027 -0.895603 -0.006965
    6 2.182062 -12.854611 -0.000128 1.570469 -1.460553 -3.148557
    7 2.197905 -10.580413 -0.000649 -1.571027 -0.546539 -0.006965
    8 2.156176 -12.270843 -0.000003 -3.141592 0.094578 -0.000096
    9 2.156176 -13.334796 -0.000003 0.000000 1.494623 -3.141592
    10 2.154311 -17.275190 -0.000004 1.570796 1.570796 0.000000
    11 6.003845 6.003843 0.000000 0.000000 0.000000 0.000000
    12 -6.003844 6.003845 0.000000 0.000000 0.000000 0.000000
    13 -6.003843 -6.003845 0.000000 0.000000 0.000000 0.000000
    14 6.003844 -6.003845 0.000000 0.000000 0.000000 0.000000
    15 -43.552250 12.210165 -0.000001 1.570796 1.570796 0.000000
    16 -0.000002 0.000000 0.000000 0.000000 0.000000 0.000000
    17 0.000002 0.000004 0.000002 0.000000 0.000000 0.000000
    18 0.000000 0.000000 0.000000 0.000000 0.000000 0.000000
    19 0.000002 0.000004 0.000004 0.000000 0.000000 0.000000
    20 -43.552250 12.210167 -0.000002 1.570796 0.610865 0.000001
    21 0.000002 0.000004 0.000002 0.000000 0.000000 0.000000
    22 0.000000 -0.000004 -0.000004 0.000000 0.000000 0.000000
    23 0.000011 -0.000008 -0.000002 0.000000 0.000000 0.000000
    24 -0.000008 0.000010 0.000002 0.000000 0.000000 0.000000
    25 -38.626671 10.548248 -9.995397 -1.085492 3.077721 -0.372382
    26 0.000004 0.000003 0.000003 0.000000 0.000000 0.000000
    27 0.000004 -0.000004 -0.000003 0.000000 0.000000 0.000000
    28 0.000011 -0.000010 0.000000 0.000000 0.000000 0.000000
    29 -0.000008 0.000010 0.000003 0.000000 0.000000 0.000000
    30 -0.748869 0.799541 -4.370608 0.000000 0.000000 0.308293
    31 7.794432 -0.318993 -7.296079 0.726444 -2.107821 -0.989110
    32 6.190924 -4.487820 -0.423252 -1.559968 -0.033067 -3.669184
    33 -0.021138 -8.447954 -0.084602 -0.089860 0.517192 -0.071987
    34 -0.488518 -2.755602 -0.228260 -1.030347 -0.157968 -0.394990
    35 0.039887 -1.550105 0.029854 -2.074792 -0.002565 0.045363
    36 0.028786 -1.099169 -0.077798 -0.464682 -0.009624 0.007826
    37 0.250027 -2.820665 -0.238396 -0.798963 -0.161345 -0.387124
    38 -0.049759 -1.598510 0.006726 -1.880353 -0.007406 -0.047305
    39 -0.034142 -1.163937 0.049625 -0.971280 0.008042 -0.025168
    40 0.957766 -2.746780 -0.090302 0.047556 -0.152354 -0.131678
    41 -0.033420 -1.397129 -0.026882 -0.834512 0.006675 -0.041048
    42 -0.022360 -0.965249 -0.008561 -1.195824 -0.001606 -0.057023
    43 -1.180681 -2.507217 -0.193859 -1.027090 0.019838 -0.525290
    44 -0.024967 -1.127840 0.017597 -1.714503 -0.017965 -0.066070
    45 -0.020057 -0.906594 0.025715 -0.858796 0.007107 -0.034731
    46 0.618667 -1.197277 0.185379 0.544193 -1.000238 -0.600279
    47 1.442174 -0.255387 0.079230 0.079059 -0.248260 -0.933461
    48 1.022644 -0.171260 0.040104 0.071221 -0.227578 -0.953828
    49 0.120153 -0.050270 -0.054489 0.287569 3.110905 1.561085
    50 -1.802066 -8.176662 -6.396010 0.557320 -4.278102 0.664428
    51 0.096944 -8.458231 -0.009365 0.147555 -0.251471 0.073124
    52 0.447953 -2.798986 -0.200443 -0.655991 -0.095283 0.190274
    53 -0.032909 -1.499736 0.040097 -1.883027 0.020673 -0.040098
    54 -0.027022 -1.108171 -0.028023 -0.819748 0.019559 -0.011637
    55 -0.249534 -2.846964 -0.174213 -0.587811 0.045980 0.078145
    56 0.043235 -1.656596 0.056948 -1.845438 -0.024897 0.015365
    57 0.031729 -1.141298 0.054932 -1.171127 -0.013068 0.006442
    58 -0.963866 -2.785145 -0.085350 -0.590246 0.210214 -0.028122
    59 0.028479 -1.422599 -0.032793 -1.720764 -0.058617 -0.036421
    60 0.021413 -0.942156 0.012233 -1.038923 -0.028439 -0.034959
    61 1.164475 -2.543940 -0.170330 -0.642751 -0.330838 0.151754
    62 0.024032 -1.156387 -0.009538 -1.529426 0.035331 0.068589
    63 0.014898 -0.899614 -0.015942 -0.830963 0.003655 0.042078
    64 -0.586770 -1.264477 0.200161 0.020491 -0.717858 -2.663666
    65 1.577524 0.035243 0.016848 -0.023422 -0.007470 1.055686
    66 1.114041 0.044518 -0.005766 -0.020353 -0.034714 0.772502
    67 -0.139399 -0.119511 -0.005135 0.373864 0.094176 1.499456
    68 -5.096708 7.194596 -0.344905 1.581080 -0.018170 -1.069825
  time 2
    0 5.867367 -7.328287 -7.590387 0.693943 -1.663343 -0.772596
    1 1.015654 -1.668102 0.000001 0.000006 0.000000 -3.141592
    2 1.145417 -5.369577 0.000002 0.000000 0.000000 3.141592
    3 3.114791 -3.093424 0.000001 0.000001 -1.571142 0.000000
    4 2.156557 -15.664373 0.000005 0.000000 0.000000 -1.570796
    5 2.213366 -8.360288 -0.001159 -4.712523 -1.348360 3.134531
    6 2.182062 -12.854611 -0.000128 -4.712619 -0.562993 -3.148557
    7 2.197905 -10.580413 -0.000649 -1.571027 -1.444134 -0.006965
    8 2.156176 -12.270843 -0.000003 0.000000 -0.450846 -3.141592
    9 2.156176 -13.334796 -0.000003 3.141592 -1.138394 0.000000
    10 2.154311 -17.275190 -0.000004 1.570796 1.570796 0.000000
    11 8.000000 7.999998 0.000000 0.000000 0.000000 0.000000
    12 -7.999999 8.000000 0.000000 0.000000 0.000000 0.000000
    13 -7.999998 -8.000000 0.000000 0.000000 0.000000 0.000000
    14 7.999999 -8.000000 0.000000 0.000000 0.000000 0.000000
    15 -43.552250 12.210165 -0.000001 1.570796 1.570796 0.000000
    16 -0.000002 0.000000 0.000000 0.000000 0.000000 0.000000
    17 0.000002 0.000004 0.000002 0.000000 0.000000 0.000000
    18 0.000000 0.000000 0.000000 0.000000 0.000000 0.000000
    19 0.000002 0.000004 0.000004 0.000000 0.000000 0.000000
    20 -43.552250 12.210167 -0.000002 1.570796 0.610865 0.000001
    21 0.000002 0.000004 0.000002 0.000000 0.000000 0.000000
    22 0.000000 -0.000004 -0.000004 0.000000 0.000000 0.000000
    23 0.000011 -0.000008 -0.000002 0.000000 0.000000 0.000000
    24 -0.000008 0.000010 0.000002 0.000000 0.000000 0.000000
    25 -38.626671 10.548248 -9.995397 -1.085492 3.077721 -0.372382
    26 0.000004 0.000003 0.000003 0.000000 0.000000 0.000000
    27 0.000004 -0.000004 -0.000003 0.000000 0.000000 0.000000
    28 0.000011 -0.000010 0.000000 0.000000 0.000000 0.000000
    29 -0.000008 0.000010 0.000003 0.000000 0.000000 0.000000
    30 -0.748869 0.799541 -4.370608 0.000000 0.000000 0.308293
    31 7.798339 -0.291649 -7.288267 0.724049 -2.106590 -0.986151
    32 6.175299 -4.511258 -0.423252 -1.559884 -0.033091 -3.672740
    33 -0.021138 -8.447954 -0.084602 -0.089667 0.512260 -0.071575
    34 -0.488518 -2.755602 -0.228260 -1.030347 -0.157968 -0.394990
    35 0.039887 -1.550105 0.029854 -2.074792 -0.002565 0.045363
    36 0.028786 -1.099169 -0.077798 -0.464682 -0.009624 0.007826
    37 0.250027 -2.820665 -0.238396 -0.798963 -0.161345 -0.387124
    38 -0.049759 -1.598510 0.006726 -1.880353 -0.007406 -0.047305
    39 -0.034142 -1.163937 0.049625 -0.971280 0.008042 -0.025168
    40 0.957766 -2.746780 -0.090302 0.047556 -0.152354 -0.131678
    41 -0.033420 -1.397129 -0.026882 -0.834512 0.006675 -0.041048
    42 -0.022360 -0.965249 -0.008561 -1.195824 -0.001606 -0.057023
    43 -1.180681 -2.507217 -0.193859 -1.027090 0.019838 -0.525290
    44 -0.024967 -1.127840 0.017597 -1.714451 -0.017965 -0.066070
    45 -0.020057 -0.906594 0.025715 -0.858796 0.007107 -0.034731
    46 0.618667 -1.197277 0.185379 0.544193 -1.000238 -0.600279
    47 1.442174 -0.255387 0.079230 0.079059 -0.248260 -0.933461
    48 1.022644 -0.171260 0.040104 0.071221 -0.227578 -0.953828
    49 0.120153 -0.050270 -0.054489 0.287569 3.110905 1.561085
    50 -1.794253 -8.168849 -6.415542 0.554364 -4.279047 0.663970
    51 0.096944 -8.462138 -0.009365 0.149026 -0.255973 0.070952
    52 0.447953 -2.798986 -0.200443 -0.655991 -0.095283 0.190274
    53 -0.032909 -1.499736 0.040097 -1.883027 0.020673 -0.040098
    54 -0.027022 -1.108171 -0.028023 -0.819748 0.019559 -0.011637
    55 -0.249534 -2.846964 -0.174213 -0.587811 0.045980 0.078145
    56 0.043235 -1.656596 0.056948 -1.845438 -0.024897 0.015365
    57 0.031729 -1.141298 0.054932 -1.171127 -0.013068 0.006442
    58 -0.963866 -2.785145 -0.085350 -0.590246 0.210214 -0.028122
    59 0.028479 -1.422599 -0.032793 -1.720764 -0.058617 -0.036421
    60 0.021413 -0.942156 0.012233 -1.038923 -0.028439 -0.034959
    61 1.164475 -2.543940 -0.170330 -0.642751 -0.330838 0.151754
    62 0.024032 -1.156387 -0.009538 -1.529426 0.035331 0.068589
    63 0.014898 -0.899614 -0.015942 -0.830963 0.003655 0.042078
    64 -0.586770 -1.264477 0.200161 0.020491 -0.717858 -2.663666
    65 1.577524 0.035243 0.016848 -0.023422 -0.007470 1.055686
    66 1.114041 0.044518 -0.005766 -0.020353 -0.034714 0.772502
    67 -0.139399 -0.119511 -0.005135 0.373864 0.094176 1.499456
    68 -5.112334 7.182877 -0.344905 1.581068 -0.018230 -1.067414
  time 3
    0 5.871273 -7.308755 -7.598199 0.677014 -1.662616 -0.754792
    1 1.015654 -1.668102 0.000001 0.000006 0.000000 -3.141592
    2 1.145417 -5.369577 0.000002 0.000000 0.000000 3.141592
    3 3.114791 -3.093424 0.000001 0.000001 -1.571142 0.000000
    4 2.156557 -15.664373 0.000005 0.000000 0.000000 -1.570796
    5 2.213366 -8.360288 -0.001159 -4.712619 -0.450770 3.134531
    6 2.182062 -12.854611 -0.000128 -4.712619 0.334567 -3.148557
    7 2.197905 -10.580413 -0.000649 -4.712619 -0.799809 3.134531
    8 2.156176 -12.270843 -0.000003 -3.141592 0.807177 -0.000096
    9 2.156176 -13.334796 -0.000003 0.000000 0.781968 -3.141592
    10 2.154311 -17.275190 -0.000004 1.570796 1.570796 0.000000
    11 6.003845 6.003843 0.000000 0.000000 0.000000 0.000000
    12 -6.003844 6.003845 0.000000 0.000000 0.000000 0.000000
    13 -6.003843 -6.003845 0.000000 0.000000 0.000000 0.000000
    14 6.003844 -6.003845 0.000000 0.000000 0.000000 0.000000
    15 -43.552250 12.210165 -0.000001 1.570796 1.570796 0.000000
    16 -0.000002 0.000000 0.000000 0.000000 0.000000 0.000000
    17 0.000002 0.000004 0.000002 0.000000 0.000000 0.000000
    18 0.000000 0.000000 0.000000 0.000000 0.000000 0.000000
    19 0.000002 0.000004 0.000004 0.000000 0.000000 0.000000
    20 -43.552250 12.210167 -0.000002 1.570796 0.610865 0.000001
    21 0.000002 0.000004 0.000002 0.000000 0.000000 0.000000
    22 0.000000 -0.000004 -0.000004 0.000000 0.000000 0.000000
    23 0.000011 -0.000008 -0.000002 0.000000 0.000000 0.000000
    24 -0.000008 0.000010 0.000002 0.000000 0.000000 0.000000
    25 -38.626671 10.548248 -9.995397 -1.085492 3.077721 -0.372382
    26 0.000004 0.000003 0.000003 0.000000 0.000000 0.000000
    27 0.000004 -0.000004 -0.000003 0.000000 0.000000 0.000000
    28 0.000011 -0.000010 0.000000 0.000000 0.000000 0.000000
    29 -0.000008 0.000010 0.000003 0.000000 0.000000 0.000000
    30 -0.748869 0.799541 -4.370608 0.000000 0.000000 0.308293
    31 7.798339 -0.264304 -7.276547 0.721655 -2.105359 -0.983317
    32 6.155767 -4.530790 -0.423252 -1.559812 -0.033103 -3.676126
    33 -0.025045 -8.447954 -0.088509 -0.089629 0.511492 -0.071493
    34 -0.488518 -2.755602 -0.228260 -1.030347 -0.157968 -0.394990
    35 0.039887 -1.550105 0.029854 -2.074792 -0.002565 0.045363
    36 0.028786 -1.099169 -0.077798 -0.464682 -0.009624 0.007826
    37 0.250027 -2.820665 -0.238396 -0.798963 -0.161345 -0.387124
    38 -0.049759 -1.598510 0.006726 -1.880353 -0.007406 -0.047305
    39 -0.034142 -1.163937 0.049625 -0.971280 0.008042 -0.025168
    40 0.957766 -2.746780 -0.090302 0.047556 -0.152354 -0.131678
    41 -0.033420 -1.397129 -0.026882 -0.834512 0.006675 -0.041048
    42 -0.022360 -0.965249 -0.008561 -1.195824 -0.001606 -0.057023
    43 -1.180681 -2.507217 -0.193859 -1.027090 0.019838 -0.525290
    44 -0.024967 -1.127840 0.017597 -1.714451 -0.017965 -0.066070
    45 -0.020057 -0.906594 0.025715 -0.858796 0.007107 -0.034731
    46 0.618667 -1.197277 0.185379 0.544193 -1.000238 -0.600279
    47 1.442174 -0.255387 0.079230 0.079059 -0.248260 -0.933461
    48 1.022644 -0.171260 0.040104 0.071221 -0.227578 -0.953828
    49 0.120153 -0.050270 -0.054489 0.287569 3.110905 1.561085
    50 -1.794253 -8.157130 -6.442886 0.554911 -4.278929 0.666262
    51 0.096944 -8.462138 -0.009365 0.149413 -0.256973 0.072621
    52 0.447953 -2.798986 -0.200443 -0.655991 -0.095283 0.190274
    53 -0.032909 -1.499736 0.040097 -1.883027 0.020673 -0.040098
    54 -0.027022 -1.108171 -0.028023 -0.819748 0.019559 -0.011637
    55 -0.249534 -2.846964 -0.174213 -0.587811 0.045980 0.078145
    56 0.043235 -1.656596 0.056948 -1.845438 -0.024897 0.015365
    57 0.031729 -1.141298 0.054932 -1.171127 -0.013068 0.006442
    58 -0.963866 -2.785145 -0.085350 -0.590246 0.210214 -0.028122
    59 0.028479 -1.422599 -0.032793 -1.720764 -0.058617 -0.036421
    60 0.021413 -0.942156 0.012233 -1.038923 -0.028439 -0.034959
    61 1.164475 -2.543940 -0.170330 -0.642751 -0.330838 0.151754
    62 0.024032 -1.156387 -0.009538 -1.529426 0.035331 0.068589
    63 0.014898 -0.899614 -0.015942 -0.830963 0.003655 0.042078
    64 -0.586770 -1.264477 0.200161 0.020491 -0.717858 -2.663666
    65 1.577524 0.035243 0.016848 -0.023422 -0.007470 1.055686
    66 1.114041 0.044518 -0.005766 -0.020353 -0.034714 0.772502
    67 -0.139399 -0.119511 -0.005135 0.373864 0.094176 1.499456
    68 -5.147491 7.155532 -0.344905 1.581032 -0.018374 -1.061973
  time 4
    0 5.875179 -7.289223 -7.602106 0.718479 -1.655516 -0.797387
    1 1.015654 -1.668102 0.000001 0.000006 0.000000 -3.141592
    2 1.145417 -5.369577 0.000002 0.000000 0.000000 3.141592
    3 3.114791 -3.093424 0.000001 0.000001 -1.571142 0.000000
    4 2.156557 -15.664373 0.000005 0.000000 0.000000 -1.570796
    5 2.213366 -8.360288 -0.001159 -4.712619 0.446775 3.134531
    6 2.182062 -12.854611 -0.000128 -4.712619 1.232198 3.134531
    7 2.197905 -10.580413 -0.000649 -4.712619 0.097785 -3.148557
    8 2.156176 -12.270843 -0.000003 0.000000 -1.163537 -3.141592
    9 2.156176 -13.334796 -0.000003 -3.141592 -0.425738 0.000000
    10 2.154311 -17.275190 -0.000004 1.570796 1.570796 0.000000
    11 8.000000 7.999998 0.000000 0.000000 0.000000 0.000000
    12 -7.999999 8.000000 0.000000 0.000000 0.000000 0.000000
    13 -7.999998 -8.000000 0.000000 0.000000 0.000000 0.000000
    14 7.999999 -8.000000 0.000000 0.000000 0.000000 0.000000
    15 -43.552250 12.210165 -0.000001 1.570796 1.570796 0.000000
    16 -0.000002 0.000000 0.000000 0.000000 0.000000 0.000000
    17 0.000002 0.000004 0.000002 0.000000 0.000000 0.000000
    18 0.000000 0.000000 0.000000 0.000000 0.000000 0.000000
    19 0.000002 0.000004 0.000004 0.000000 0.000000 0.000000
    20 -43.552250 12.210167 -0.000002 1.570796 0.610865 0.000001
    21 0.000002 0.000004 0.000002 0.000000 0.000000 0.000000
    22 0.000000 -0.000004 -0.000004 0.000000 0.000000 0.000000
    23 0.000011 -0.000008 -0.000002 0.000000 0.000000 0.000000
    24 -0.000008 0.000010 0.000002 0.000000 0.000000 0.000000
    25 -38.626671 10.548248 -9.995397 -1.085492 3.077721 -0.372382
    26 0.000004 0.000003 0.000003 0.000000 0.000000 0.000000
    27 0.000004 -0.000004 -0.000003 0.000000 0.000000 0.000000
    28 0.000011 -0.000010 0.000000 0.000000 0.000000 0.000000
    29 -0.000008 0.000010 0.000003 0.000000 0.000000 0.000000
    30 -0.748869 0.799541 -4.370608 0.000000 0.000000 0.308293
    31 7.798339 -0.236959 -7.268735 0.719356 -2.104197 -0.980524
    32 6.140141 -4.550322 -0.423252 -1.559752 -0.033115 -3.679427
    33 -0.021138 -8.447954 -0.084602 -0.090014 0.519227 -0.072343
    34 -0.488518 -2.755602 -0.228260 -1.030347 -0.157968 -0.394990
    35 0.039887 -1.550105 0.029854 -2.074792 -0.002565 0.045363
    36 0.028786 -1.099169 -0.077798 -0.464682 -0.009624 0.007826
    37 0.250027 -2.820665 -0.238396 -0.798963 -0.161345 -0.387124
    38 -0.049759 -1.598510 0.006726 -1.880353 -0.007406 -0.047305
    39 -0.034142 -1.163937 0.049625 -0.971280 0.008042 -0.025168
    40 0.957766 -2.746780 -0.090302 0.047556 -0.152354 -0.131678
    41 -0.033420 -1.397129 -0.026882 -0.834512 0.006675 -0.041048
    42 -0.022360 -0.965249 -0.008561 -1.195824 -0.001606 -0.057023
    43 -1.180681 -2.507217 -0.193859 -1.027090 0.019838 -0.525290
    44 -0.024967 -1.127840 0.017597 -1.714503 -0.017965 -0.066070
    45 -0.020057 -0.906594 0.025715 -0.858820 0.007107 -0.034731
    46 0.618667 -1.197277 0.185379 0.544193 -1.000238 -0.600279
    47 1.442174 -0.255387 0.079230 0.079059 -0.248260 -0.933461
    48 1.022644 -0.171260 0.040104 0.071221 -0.227578 -0.953828
    49 0.120153 -0.050270 -0.054489 0.287569 3.110905 1.561085
    50 -1.805972 -8.137599 -6.474137 0.562303 -4.276802 0.674146
    51 0.096944 -8.458231 -0.009365 0.147517 -0.250997 0.082185
    52 0.447953 -2.798986 -0.200443 -0.655991 -0.095283 0.190274
    53 -0.032909 -1.499736 0.040097 -1.883027 0.020673 -0.040098
    54 -0.027022 -1.108171 -0.028023 -0.819748 0.019559 -0.011637
    55 -0.249534 -2.846964 -0.174213 -0.587811 0.045980 0.078145
    56 0.043235 -1.656596 0.056948 -1.845438 -0.024897 0.015365
    57 0.031729 -1.141298 0.054932 -1.171127 -0.013068 0.006442
    58 -0.963866 -2.785145 -0.085350 -0.590246 0.210214 -0.028122
    59 0.028479 -1.422599 -0.032793 -1.720764 -0.058617 -0.036421
    60 0.021413 -0.942156 0.012233 -1.038955 -0.028439 -0.034959
    61 1.164475 -2.543940 -0.170330 -0.642751 -0.330838 0.151754
    62 0.024032 -1.156387 -0.009538 -1.529426 0.035331 0.068589
    63 0.014898 -0.899614 -0.015942 -0.830963 0.003655 0.042078
    64 -0.586770 -1.264477 0.200161 0.020491 -0.717858 -2.663666
    65 1.577524 0.035243 0.016848 -0.023422 -0.007470 1.055720
    66 1.114041 0.044518 -0.005766 -0.020353 -0.034714 0.772502
    67 -0.139399 -0.119511 -0.005135 0.373864 0.094176 1.499456
    68 -5.221712 7.096936 -0.348811 1.580960 -0.018685 -1.050226
  time 5
    0 5.879086 -7.265785 -7.602106 0.805689 -1.645822 -0.886789
    1 1.015654 -1.668102 0.000001 0.000006 0.000000 -3.141592
    2 1.145417 -5.369577 0.000002 0.000000 0.000000 3.141592
    3 3.114791 -3.093424 0.000001 0.000001 -1.571142 0.000000
    4 2.156557 -15.664373 0.000005 0.000000 0.000000 -1.570796
    5 2.213366 -8.360288 -0.001159 -4.712619 1.344365 -3.148557
    6 2.182062 -12.854611 -0.000128 -1.571027 1.011782 -0.006965
    7 2.197905 -10.580413 -0.000649 -4.712619 0.995323 3.134531
    8 2.156176 -12.270843 -0.000003 -3.141592 1.519868 -0.000096
    9 2.156176 -13.334796 -0.000003 0.000000 0.069312 -3.141592
    10 2.154311 -17.275190 -0.000004 1.570796 1.570796 0.000000
    11 6.003845 6.003843 0.000000 0.000000 0.000000 0.000000
    12 -6.003844 6.003845 0.000000 0.000000 0.000000 0.000000
    13 -6.003843 -6.003845 0.000000 0.000000 0.000000 0.000000
    14 6.003844 -6.003845 0.000000 0.000000 0.000000 0.000000
    15 -43.552250 12.210165 -0.000001 1.570796 1.570796 0.000000
    16 -0.000002 0.000000 0.000000 0.000000 0.000000 0.000000
    17 0.000002 0.000004 0.000002 0.000000 0.000000 0.000000
    18 0.000000 0.000000 0.000000 0.000000 0.000000 0.000000
    19 0.000002 0.000004 0.000004 0.000000 0.000000 0.000000
    20 -43.552250 12.210167 -0.000002 1.570796 0.610865 0.000001
    21 0.000002 0.000004 0.000002 0.000000 0.000000 0.000000
    22 0.000000 -0.000004 -0.000004 0.000000 0.000000 0.000000
    23 0.000011 -0.000008 -0.000002 0.000000 0.000000 0.000000
    24 -0.000008 0.000010 0.000002 0.000000 0.000000 0.000000
    25 -38.626671 10.548248 -9.995397 -1.085492 3.077721 -0.372382
    26 0.000004 0.000003 0.000003 0.000000 0.000000 0.000000
    27 0.000004 -0.000004 -0.000003 0.000000 0.000000 0.000000
    28 0.000011 -0.000010 0.000000 0.000000 0.000000 0.000000
    29 -0.000008 0.000010 0.000003 0.000000 0.000000 0.000000
    30 -0.748869 0.799541 -4.370608 0.000000 0.000000 0.308293
    31 7.802245 -0.209615 -7.260922 0.717057 -2.103034 -0.977815
    32 6.120610 -4.569853 -0.423252 -1.559680 -0.033139 -3.682559
    33 -0.017232 -8.447954 -0.084602 -0.090514 0.531146 -0.073523
    34 -0.488518 -2.755602 -0.228260 -1.030347 -0.157968 -0.394990
    35 0.039887 -1.550105 0.029854 -2.074792 -0.002565 0.045363
    36 0.028786 -1.099169 -0.077798 -0.464682 -0.009624 0.007826
    37 0.250027 -2.820665 -0.238396 -0.798963 -0.161345 -0.387124
    38 -0.049759 -1.598510 0.006726 -1.880353 -0.007406 -0.047305
    39 -0.034142 -1.163937 0.049625 -0.971280 0.008042 -0.025168
    40 0.957766 -2.746780 -0.090302 0.047556 -0.152354 -0.131678
    41 -0.033420 -1.397129 -0.026882 -0.834512 0.006675 -0.041048
    42 -0.022360 -0.965249 -0.008561 -1.195824 -0.001606 -0.057023
    43 -1.180681 -2.507217 -0.193859 -1.027090 0.019838 -0.525290
    44 -0.024967 -1.127840 0.017597 -1.714451 -0.017965 -0.066070
    45 -0.020057 -0.906594 0.025715 -0.858796 0.007107 -0.034731
    46 0.618667 -1.197277 0.185379 0.544193 -1.000238 -0.600279
    47 1.442174 -0.255387 0.079230 0.079059 -0.248260 -0.933461
    48 1.022644 -0.171260 0.040104 0.071221 -0.227578 -0.953828
    49 0.120153 -0.050270 -0.054489 0.287569 3.110905 1.561085
    50 -1.829410 -8.114160 -6.513201 0.572925 -4.273610 0.684413
    51 0.096944 -8.454325 -0.009365 0.144536 -0.241468 0.095406
    52 0.447953 -2.798986 -0.200443 -0.655991 -0.095283 0.190274
    53 -0.032909 -1.499736 0.040097 -1.883027 0.020673 -0.040098
    54 -0.027022 -1.108171 -0.028023 -0.819748 0.019559 -0.011637
    55 -0.249534 -2.846964 -0.174213 -0.587811 0.045980 0.078145
    56 0.043235 -1.656596 0.056948 -1.845438 -0.024897 0.015365
    57 0.031729 -1.141298 0.054932 -1.171127 -0.013068 0.006442
    58 -0.963866 -2.785145 -0.085350 -0.590246 0.210214 -0.028122
    59 0.028479 -1.422599 -0.032793 -1.720764 -0.058617 -0.036421
    60 0.021413 -0.942156 0.012233 -1.038923 -0.028439 -0.034959
    61 1.164475 -2.543940 -0.170330 -0.642751 -0.330838 0.151754
    62 0.024032 -1.156387 -0.009538 -1.529426 0.035331 0.068589
    63 0.014898 -0.899614 -0.015942 -0.830963 0.003655 0.042078
    64 -0.586770 -1.264477 0.200161 0.020491 -0.717858 -2.663666
    65 1.577524 0.035243 0.016848 -0.023422 -0.007470 1.055686
    66 1.114041 0.044518 -0.005766 -0.020353 -0.034714 0.772502
    67 -0.139399 -0.119511 -0.005135 0.373864 0.094176 1.499456
    68 -5.315465 7.018809 -0.352718 1.580864 -0.019057 -1.035697
  time 6
    0 5.882992 -7.257972 -7.598199 0.897084 -1.640079 -0.980115
    1 1.015654 -1.668102 0.000001 0.000006 0.000000 -3.141592
    2 1.145417 -5.369577 0.000002 0.000000 0.000000 3.141592
    3 3.114791 -3.093424 0.000001 0.000001 -1.571142 0.000000
    4 2.156557 -15.664373 0.000005 0.000000 0.000000 -1.570796
    5 2.213366 -8.360288 -0.001159 -1.571027 0.899577 -0.006965
    6 2.182062 -12.854611 -0.000128 -1.571027 0.114151 -0.006965
    7 2.197905 -10.580413 -0.000649 -1.571027 1.248649 -0.006965
    8 2.156176 -12.270843 -0.000003 -3.141592 -1.265370 -6.283184
    9 2.156176 -13.334796 -0.000003 -3.141496 0.286917 0.000000
    10 2.154311 -17.275190 -0.000004 1.570796 1.570796 0.000000
    11 8.000000 7.999998 0.000000 0.000000 0.000000 0.000000
    12 -7.999999 8.000000 0.000000 0.000000 0.000000 0.000000
    13 -7.999998 -8.000000 0.000000 0.000000 0.000000 0.000000
    14 7.999999 -8.000000 0.000000 0.000000 0.000000 0.000000
    15 -43.552250 12.210165 -0.000001 1.570796 1.570796 0.000000
    16 -0.000002 0.000000 0.000000 0.000000 0.000000 0.000000
    17 0.000002 0.000004 0.000002 0.000000 0.000000 0.000000
    18 0.000000 0.000000 0.000000 0.000000 0.000000 0.000000
    19 0.000002 0.000004 0.000004 0.000000 0.000000 0.000000
    20 -43.552250 12.210167 -0.000002 1.570796 0.610865 0.000001
    21 0.000002 0.000004 0.000002 0.000000 0.000000 0.000000
    22 0.000000 -0.000004 -0.000004 0.000000 0.000000 0.000000
    23 0.000011 -0.000008 -0.000002 0.000000 0.000000 0.000000
    24 -0.000008 0.000010 0.000002 0.000000 0.000000 0.000000
    25 -38.626671 10.548248 -9.995397 -1.085492 3.077721 -0.372382
    26 0.000004 0.000003 0.000003 0.000000 0.000000 0.000000
    27 0.000004 -0.000004 -0.000003 0.000000 0.000000 0.000000
    28 0.000011 -0.000010 0.000000 0.000000 0.000000 0.000000
    29 -0.000008 0.000010 0.000003 0.000000 0.000000 0.000000
    30 -0.748869 0.799541 -4.370608 0.000000 0.000000 0.308293
    31 7.802245 -0.197896 -7.257016 0.716099 -2.102555 -0.976648
    32 6.116703 -4.577666 -0.423252 -1.559656 -0.033139 -3.683913
    33 -0.017232 -8.447954 -0.084602 -0.090669 0.540128 -0.073632
    34 -0.488518 -2.755602 -0.228260 -1.030347 -0.157968 -0.394990
    35 0.039887 -1.550105 0.029854 -2.074854 -0.002565 0.045363
    36 0.028786 -1.099169 -0.077798 -0.464682 -0.009624 0.007826
    37 0.250027 -2.820665 -0.238396 -0.798963 -0.161345 -0.387124
    38 -0.049759 -1.598510 0.006726 -1.880353 -0.007406 -0.047305
    39 -0.034142 -1.163937 0.049625 -0.971280 0.008042 -0.025168
    40 0.957766 -2.746780 -0.090302 0.047556 -0.152354 -0.131678
    41 -0.033420 -1.397129 -0.026882 -0.834512 0.006675 -0.041048
    42 -0.022360 -0.965249 -0.008561 -1.195824 -0.001606 -0.057023
    43 -1.180681 -2.507217 -0.193859 -1.027090 0.019838 -0.525290
    44 -0.024967 -1.127840 0.017597 -1.714503 -0.017965 -0.066070
    45 -0.020057 -0.906594 0.025715 -0.858796 0.007107 -0.034731
    46 0.618667 -1.197277 0.185379 0.544193 -1.000238 -0.600279
    47 1.442174 -0.255387 0.079230 0.079059 -0.248260 -0.933461
    48 1.022644 -0.171260 0.040104 0.071221 -0.227578 -0.953828
    49 0.120153 -0.050270 -0.054489 0.287569 3.110905 1.561085
    50 -1.845036 -8.098535 -6.532733 0.581466 -4.270892 0.692114
    51 0.100850 -8.454325 -0.009365 0.142369 -0.233887 0.104520
    52 0.447953 -2.798986 -0.200443 -0.655991 -0.095283 0.190274
    53 -0.032909 -1.499736 0.040097 -1.883027 0.020673 -0.040098
    54 -0.027022 -1.108171 -0.028023 -0.819748 0.019559 -0.011637
    55 -0.249534 -2.846964 -0.174213 -0.587811 0.045980 0.078145
    56 0.043235 -1.656596 0.056948 -1.845438 -0.024897 0.015365
    57 0.031729 -1.141298 0.054932 -1.171127 -0.013068 0.006442
    58 -0.963866 -2.785145 -0.085350 -0.590246 0.210214 -0.028122
    59 0.028479 -1.422599 -0.032793 -1.720764 -0.058617 -0.036421
    60 0.021413 -0.942156 0.012233 -1.038955 -0.028439 -0.034959
    61 1.164475 -2.543940 -0.170330 -0.642751 -0.330838 0.151754
    62 0.024032 -1.156387 -0.009538 -1.529426 0.035331 0.068589
    63 0.014898 -0.899614 -0.015942 -0.830963 0.003655 0.042078
    64 -0.586770 -1.264477 0.200161 0.020491 -0.717858 -2.663666
    65 1.577524 0.035243 0.016848 -0.023422 -0.007470 1.055720
    66 1.114041 0.044518 -0.005766 -0.020353 -0.034714 0.772502
    67 -0.139399 -0.119511 -0.005135 0.373864 0.094176 1.499456
    68 -5.370154 6.968026 -0.352718 1.580804 -0.019297 -1.026547
  time 7
    0 5.882992 -7.265785 -7.582574 0.960708 -1.640855 -1.045299
    1 1.015654 -1.668102 0.000001 0.000006 0.000000 -3.141592
    2 1.145417 -5.369577 0.000002 0.000000 0.000000 3.141592
    3 3.114791 -3.093424 0.000001 0.000001 -1.571142 0.000000
    4 2.156557 -15.664373 0.000005 0.000000 0.000000 -1.570796
    5 2.213366 -8.360288 -0.001159 -1.571027 0.001987 -0.006965
    6 2.182062 -12.854611 -0.000128 -1.571027 -0.783409 -0.006965
    7 2.197905 -10.580413 -0.000649 -1.571027 0.351055 -0.006965
    8 2.156176 -12.270843 -0.000003 0.000000 0.909010 -3.141592
    9 2.156176 -13.334796 -0.000003 0.000000 -0.643343 -3.141592
    10 2.154311 -17.275190 -0.000004 1.570796 1.570796 0.000000
    11 6.003845 6.003843 0.000000 0.000000 0.000000 0.000000
    12 -6.003844 6.003845 0.000000 0.000000 0.000000 0.000000
    13 -6.003843 -6.003845 0.000000 0.000000 0.000000 0.000000
    14 6.003844 -6.003845 0.000000 0.000000 0.000000 0.000000
    15 -43.552250 12.210165 -0.000001 1.570796 1.570796 0.000000
    16 -0.000002 0.000000 0.000000 0.000000 0.000000 0.000000
    17 0.000002 0.000004 0.000002 0.000000 0.000000 0.000000
    18 0.000000 0.000000 0.000000 0.000000 0.000000 0.000000
    19 0.000002 0.000004 0.000004 0.000000 0.000000 0.000000
    20 -43.552250 12.210167 -0.000002 1.570796 0.610865 0.000001
    21 0.000002 0.000004 0.000002 0.000000 0.000000 0.000000
    22 0.000000 -0.000004 -0.000004 0.000000 0.000000 0.000000
    23 0.000011 -0.000008 -0.000002 0.000000 0.000000 0.000000
    24 -0.000008 0.000010 0.000002 0.000000 0.000000 0.000000
    25 -38.626671 10.548248 -9.995397 -1.085492 3.077721 -0.372382
    26 0.000004 0.000003 0.000003 0.000000 0.000000 0.000000
    27 0.000004 -0.000004 -0.000003 0.000000 0.000000 0.000000
    28 0.000011 -0.000010 0.000000 0.000000 0.000000 0.000000
    29 -0.000008 0.000010 0.000003 0.000000 0.000000 0.000000
    30 -0.748869 0.799541 -4.370608 0.000000 0.000000 0.308293
    31 7.802245 -0.213521 -7.260922 0.717344 -2.103171 -0.978148
    32 6.124516 -4.569853 -0.423252 -1.559692 -0.033127 -3.682136
    33 -0.017232 -8.447954 -0.084602 -0.089975 0.543793 -0.071191
    34 -0.488518 -2.755602 -0.228260 -1.030347 -0.157968 -0.394990
    35 0.039887 -1.550105 0.029854 -2.074792 -0.002565 0.045363
    36 0.028786 -1.099169 -0.077798 -0.464682 -0.009624 0.007826
    37 0.250027 -2.820665 -0.238396 -0.798963 -0.161345 -0.387124
    38 -0.049759 -1.598510 0.006726 -1.880353 -0.007406 -0.047305
    39 -0.034142 -1.163937 0.049625 -0.971280 0.008042 -0.025168
    40 0.957766 -2.746780 -0.090302 0.047556 -0.152354 -0.131678
    41 -0.033420 -1.397129 -0.026882 -0.834512 0.006675 -0.041048
    42 -0.022360 -0.965249 -0.008561 -1.195824 -0.001606 -0.057023
    43 -1.180681 -2.507217 -0.193859 -1.027090 0.019838 -0.525290
    44 -0.024967 -1.127840 0.017597 -1.714503 -0.017965 -0.066070
    45 -0.020057 -0.906594 0.025715 -0.858796 0.007107 -0.034731
    46 0.618667 -1.197277 0.185379 0.544193 -1.000238 -0.600279
    47 1.442174 -0.255387 0.079230 0.079059 -0.248260 -0.933461
    48 1.022644 -0.171260 0.040104 0.071221 -0.227578 -0.953828
    49 0.120153 -0.050270 -0.054489 0.287569 3.110905 1.561085
    50 -1.852848 -8.106348 -6.513201 0.587489 -4.268941 0.696331
    51 0.100850 -8.454325 -0.009365 0.141517 -0.229807 0.106375
    52 0.447953 -2.798986 -0.200443 -0.655991 -0.095283 0.190274
    53 -0.032909 -1.499736 0.040097 -1.883027 0.020673 -0.040098
    54 -0.027022 -1.108171 -0.028023 -0.819748 0.019559 -0.011637
    55 -0.249534 -2.846964 -0.174213 -0.587811 0.045980 0.078145
    56 0.043235 -1.656596 0.056948 -1.845438 -0.024897 0.015365
    57 0.031729 -1.141298 0.054932 -1.171127 -0.013068 0.006442
    58 -0.963866 -2.785145 -0.085350 -0.590246 0.210214 -0.028122
    59 0.028479 -1.422599 -0.032793 -1.720764 -0.058617 -0.036421
    60 0.021413 -0.942156 0.012233 -1.038923 -0.028439 -0.034959
    61 1.164475 -2.543940 -0.170330 -0.642751 -0.330838 0.151754
    62 0.024032 -1.156387 -0.009538 -1.529426 0.035331 0.068589
    63 0.014898 -0.899614 -0.015942 -0.830963 0.003655 0.042078
    64 -0.586770 -1.264477 0.200161 0.020491 -0.717858 -2.663666
    65 1.577524 0.035243 0.016848 -0.023422 -0.007470 1.055686
    66 1.114041 0.044518 -0.005766 -0.020353 -0.034714 0.772502
    67 -0.139399 -0.119511 -0.005135 0.373864 0.094176 1.499456
    68 -5.374060 6.968026 -0.352718 1.580804 -0.019309 -1.026114
  time 8
    0 5.882992 -7.281411 -7.566949 0.998654 -1.644926 -1.084544
    1 1.015654 -1.668102 0.000001 0.000006 0.000000 -3.141592
    2 1.145417 -5.369577 0.000002 0.000000 0.000000 3.141592
    3 3.114791 -3.093424 0.000001 0.000001 -1.571142 0.000000
    4 2.156557 -15.664373 0.000005 0.000000 0.000000 -1.570796
    5 2.213366 -8.360288 -0.001159 -1.571027 -0.895603 -0.006965
    6 2.182062 -12.854611 -0.000128 1.570469 -1.460553 -3.148557
    7 2.197905 -10.580413 -0.000649 -1.571027 -0.546539 -0.006965
    8 2.156176 -12.270843 -0.000003 -3.141592 -0.552679 -0.000096
    9 2.156176 -13.334796 -0.000003 -3.141496 0.999657 0.000000
    10 2.154311 -17.275190 -0.000004 1.570796 1.570460 0.000000
    11 8.000000 7.999998 0.000000 0.000000 0.000000 0.000000
    12 -7.999999 8.000000 0.000000 0.000000 0.000000 0.000000
    13 -7.999998 -8.000000 0.000000 0.000000 0.000000 0.000000
    14 7.999999 -8.000000 0.000000 0.000000 0.000000 0.000000
    15 -43.552250 12.210165 -0.000001 1.570796 1.570796 0.000000
    16 -0.000002 0.000000 0.000000 0.000000 0.000000 0.000000
    17 0.000002 0.000004 0.000002 0.000000 0.000000 0.000000
    18 0.000000 0.000000 0.000000 0.000000 0.000000 0.000000
    19 0.000002 0.000004 0.000004 0.000000 0.000000 0.000000
    20 -43.552250 12.210167 -0.000002 1.570796 0.610865 0.000001
    21 0.000002 0.000004 0.000002 0.000000 0.000000 0.000000
    22 0.000000 -0.000004 -0.000004 0.000000 0.000000 0.000000
    23 0.000011 -0.000008 -0.000002 0.000000 0.000000 0.000000
    24 -0.000008 0.000010 0.000002 0.000000 0.000000 0.000000
    25 -38.626671 10.548248 -9.995397 -1.085492 3.077721 -0.372382
    26 0.000004 0.000003 0.000003 0.000000 0.000000 0.000000
    27 0.000004 -0.000004 -0.000003 0.000000 0.000000 0.000000
    28 0.000011 -0.000010 0.000000 0.000000 0.000000 0.000000
    29 -0.000008 0.000010 0.000003 0.000000 0.000000 0.000000
    30 -0.748869 0.799541 -4.370608 0.000000 0.000000 0.308293
    31 7.798339 -0.240866 -7.272641 0.719835 -2.104402 -0.981149
    32 6.144048 -4.546415 -0.423252 -1.559764 -0.033115 -3.678496
    33 -0.017232 -8.447954 -0.084602 -0.088859 0.544523 -0.067653
    34 -0.488518 -2.755602 -0.228260 -1.030347 -0.157968 -0.394990
    35 0.039887 -1.550105 0.029854 -2.074792 -0.002565 0.045363
    36 0.028786 -1.099169 -0.077798 -0.464682 -0.009624 0.007826
    37 0.250027 -2.820665 -0.238396 -0.798963 -0.161345 -0.387124
    38 -0.049759 -1.598510 0.006726 -1.880353 -0.007406 -0.047305
    39 -0.034142 -1.163937 0.049625 -0.971280 0.008042 -0.025168
    40 0.957766 -2.746780 -0.090302 0.047556 -0.152354 -0.131678
    41 -0.033420 -1.397129 -0.026882 -0.834512 0.006675 -0.041048
    42 -0.022360 -0.965249 -0.008561 -1.195824 -0.001606 -0.057023
    43 -1.180681 -2.507217 -0.193859 -1.027090 0.019838 -0.525290
    44 -0.024967 -1.127840 0.017597 -1.714451 -0.017965 -0.066070
    45 -0.020057 -0.906594 0.025715 -0.858796 0.007107 -0.034731
    46 0.618667 -1.197277 0.185379 0.544193 -1.000238 -0.600279
    47 1.442174 -0.255387 0.079230 0.079059 -0.248260 -0.933461
    48 1.022644 -0.171260 0.040104 0.071221 -0.227578 -0.953828
    49 0.120153 -0.050270 -0.054489 0.287569 3.110905 1.561085
    50 -1.856755 -8.121973 -6.478043 0.591759 -4.267523 0.698165
    51 0.100850 -8.454325 -0.009365 0.141401 -0.227727 0.104255
    52 0.447953 -2.798986 -0.200443 -0.655991 -0.095283 0.190274
    53 -0.032909 -1.499736 0.040097 -1.883027 0.020673 -0.040098
    54 -0.027022 -1.108171 -0.028023 -0.819748 0.019559 -0.011637
    55 -0.249534 -2.846964 -0.174213 -0.587811 0.045980 0.078145
    56 0.043235 -1.656596 0.056948 -1.845438 -0.024897 0.015365
    57 0.031729 -1.141298 0.054932 -1.171127 -0.013068 0.006442
    58 -0.963866 -2.785145 -0.085350 -0.590246 0.210214 -0.028122
    59 0.028479 -1.422599 -0.032793 -1.720764 -0.058617 -0.036421
    60 0.021413 -0.942156 0.012233 -1.038955 -0.028439 -0.034959
    61 1.164475 -2.543940 -0.170330 -0.642751 -0.330838 0.151754
    62 0.024032 -1.156387 -0.009538 -1.529426 0.035331 0.068589
    63 0.014898 -0.899614 -0.015942 -0.830963 0.003655 0.042078
    64 -0.586770 -1.264477 0.200161 0.020491 -0.717858 -2.663666
    65 1.577524 0.035243 0.016848 -0.023422 -0.007470 1.055686
    66 1.114041 0.044518 -0.005766 -0.020353 -0.034714 0.772502
    67 -0.139399 -0.119511 -0.005135 0.373864 0.094176 1.499456
    68 -5.346716 6.991464 -0.352718 1.580828 -0.019189 -1.030751
  time 9
    0 5.879086 -7.300942 -7.559136 0.994755 -1.648948 -1.081098
    1 1.015654 -1.668102 0.000001 0.000006 0.000000 -3.141592
    2 1.145417 -5.369577 0.000002 0.000000 0.000000 3.141592
    3 3.114791 -3.093424 0.000001 0.000001 -1.571142 0.000000
    4 2.156557 -15.664373 0.000005 0.000000 0.000000 -1.570796
    5 2.213366 -8.360288 -0.001159 -4.712619 -1.348360 3.134531
    6 2.182062 -12.854611 -0.000128 -4.712619 -0.562993 -3.148557
    7 2.197905 -10.580413 -0.000649 -1.571027 -1.444134 -0.006965
    8 2.156176 -12.270843 -0.000003 0.000000 0.196365 -3.141592
    9 2.156176 -13.334796 -0.000003 0.000000 -1.355913 -3.141592
    10 2.154311 -17.275190 -0.000004 1.570796 1.570796 0.000000
    11 6.003845 6.003843 0.000000 0.000000 0.000000 0.000000
    12 -6.003844 6.003845 0.000000 0.000000 0.000000 0.000000
    13 -6.003843 -6.003845 0.000000 0.000000 0.000000 0.000000
    14 6.003844 -6.003845 0.000000 0.000000 0.000000 0.000000
    15 -43.552250 12.210165 -0.000001 1.570796 1.570796 0.000000
    16 -0.000002 0.000000 0.000000 0.000000 0.000000 0.000000
    17 0.000002 0.000004 0.000002 0.000000 0.000000 0.000000
    18 0.000000 0.000000 0.000000 0.000000 0.000000 0.000000
    19 0.000002 0.000004 0.000004 0.000000 0.000000 0.000000
    20 -43.552250 12.210167 -0.000002 1.570796 0.610865 0.000001
    21 0.000002 0.000004 0.000002 0.000000 0.000000 0.000000
    22 0.000000 -0.000004 -0.000004 0.000000 0.000000 0.000000
    23 0.000011 -0.000008 -0.000002 0.000000 0.000000 0.000000
    24 -0.000008 0.000010 0.000002 0.000000 0.000000 0.000000
    25 -38.626671 10.548248 -9.995397 -1.085492 3.077721 -0.372382
    26 0.000004 0.000003 0.000003 0.000000 0.000000 0.000000
    27 0.000004 -0.000004 -0.000003 0.000000 0.000000 0.000000
    28 0.000011 -0.000010 0.000000 0.000000 0.000000 0.000000
    29 -0.000008 0.000010 0.000003 0.000000 0.000000 0.000000
    30 -0.748869 0.799541 -4.370608 0.000000 0.000000 0.308293
    31 7.798339 -0.272117 -7.280454 0.722229 -2.105633 -0.984067
    32 6.163580 -4.522977 -0.423252 -1.559836 -0.033103 -3.675025
    33 -0.017232 -8.447954 -0.084602 -0.088242 0.542527 -0.065734
    34 -0.488518 -2.755602 -0.228260 -1.030347 -0.157968 -0.394990
    35 0.039887 -1.550105 0.029854 -2.074792 -0.002565 0.045363
    36 0.028786 -1.099169 -0.077798 -0.464682 -0.009624 0.007826
    37 0.250027 -2.820665 -0.238396 -0.798963 -0.161345 -0.387124
    38 -0.049759 -1.598510 0.006726 -1.880353 -0.007406 -0.047305
    39 -0.034142 -1.163937 0.049625 -0.971280 0.008042 -0.025168
    40 0.957766 -2.746780 -0.090302 0.047556 -0.152354 -0.131678
    41 -0.033420 -1.397129 -0.026882 -0.834512 0.006675 -0.041048
    42 -0.022360 -0.965249 -0.008561 -1.195824 -0.001606 -0.057023
    43 -1.180681 -2.507217 -0.193859 -1.027090 0.019838 -0.525290
    44 -0.024967 -1.127840 0.017597 -1.714503 -0.017965 -0.066070
    45 -0.020057 -0.906594 0.025715 -0.858796 0.007107 -0.034731
    46 0.618667 -1.197277 0.185379 0.544193 -1.000238 -0.600279
    47 1.442174 -0.255387 0.079230 0.079059 -0.248260 -0.933461
    48 1.022644 -0.171260 0.040104 0.071221 -0.227578 -0.953828
    49 0.120153 -0.050270 -0.054489 0.287569 3.110905 1.561085
    50 -1.852848 -8.141505 -6.446792 0.591486 -4.267582 0.696239
    51 0.100850 -8.454325 -0.009365 0.141827 -0.228464 0.099884
    52 0.447953 -2.798986 -0.200443 -0.655991 -0.095283 0.190274
    53 -0.032909 -1.499736 0.040097 -1.883027 0.020673 -0.040098
    54 -0.027022 -1.108171 -0.028023 -0.819748 0.019559 -0.011637
    55 -0.249534 -2.846964 -0.174213 -0.587811 0.045980 0.078145
    56 0.043235 -1.656596 0.056948 -1.845438 -0.024897 0.015365
    57 0.031729 -1.141298 0.054932 -1.171127 -0.013068 0.006442
    58 -0.963866 -2.785145 -0.085350 -0.590246 0.210214 -0.028122
    59 0.028479 -1.422599 -0.032793 -1.720764 -0.058617 -0.036421
    60 0.021413 -0.942156 0.012233 -1.038955 -0.028439 -0.034959
    61 1.164475 -2.543940 -0.170330 -0.642751 -0.330838 0.151754
    62 0.024032 -1.156387 -0.009538 -1.529426 0.035331 0.068589
    63 0.014898 -0.899614 -0.015942 -0.830963 0.003655 0.042078
    64 -0.586770 -1.264477 0.200161 0.020491 -0.717858 -2.663666
    65 1.577524 0.035243 0.016848 -0.023422 -0.007470 1.055686
    66 1.114041 0.044518 -0.005766 -0.020353 -0.034714 0.772502
    67 -0.139399 -0.119511 -0.005135 0.373864 0.094176 1.499456
    68 -5.299839 7.030528 -0.352718 1.580876 -0.019009 -1.037737
  time 10
    0 5.867367 -7.347819 -7.551323 0.949105 -1.651663 -1.034579
    1 1.015654 -1.668102 0.000001 0.000006 0.000000 -3.141592
    2 1.145417 -5.369577 0.000002 0.000000 0.000000 3.141592
    3 3.114791 -3.093424 0.000001 0.000001 -1.571142 0.000000
    4 2.156557 -15.664373 0.000005 0.000000 0.000000 -1.570796
    5 2.213366 -8.360288 -0.001159 -4.712619 -0.450770 -3.148557
    6 2.182062 -12.854611 -0.000128 -4.712619 0.334567 -3.148557
    7 2.197905 -10.580413 -0.000649 -4.712619 -0.799809 -3.148557
    8 2.156176 -12.270843 -0.000003 -3.141592 0.160013 -0.000096
    9 2.156176 -13.334796 -0.000003 0.000000 1.429257 -3.141592
    10 2.154311 -17.275190 -0.000004 1.570796 1.570796 0.000000
    11 8.000000 7.999998 0.000000 0.000000 0.000000 0.000000
    12 -7.999999 8.000000 0.000000 0.000000 0.000000 0.000000
    13 -7.999998 -8.000000 0.000000 0.000000 0.000000 0.000000
    14 7.999999 -8.000000 0.000000 0.000000 0.000000 0.000000
    15 -43.552250 12.210165 -0.000001 1.570796 1.570796 0.000000
    16 -0.000002 0.000000 0.000000 0.000000 0.000000 0.000000
    17 0.000002 0.000004 0.000002 0.000000 0.000000 0.000000
    18 0.000000 0.000000 0.000000 0.000000 0.000000 0.000000
    19 0.000002 0.000004 0.000004 0.000000 0.000000 0.000000
    20 -43.552250 12.210167 -0.000002 1.570796 0.610865 0.000001
    21 0.000002 0.000004 0.000002 0.000000 0.000000 0.000000
    22 0.000000 -0.000004 -0.000004 0.000000 0.000000 0.000000
    23 0.000011 -0.000008 -0.000002 0.000000 0.000000 0.000000
    24 -0.000008 0.000010 0.000002 0.000000 0.000000 0.000000
    25 -38.626671 10.548248 -9.995397 -1.085492 3.077721 -0.372382
    26 0.000004 0.000003 0.000003 0.000000 0.000000 0.000000
    27 0.000004 -0.000004 -0.000003 0.000000 0.000000 0.000000
    28 0.000011 -0.000010 0.000000 0.000000 0.000000 0.000000
    29 -0.000008 0.000010 0.000003 0.000000 0.000000 0.000000
    30 -0.748869 0.799541 -4.370608 0.000000 0.000000 0.308293
    31 7.794432 -0.330712 -7.299986 0.727401 -2.107821 -0.991528
    32 6.198737 -4.480007 -0.423252 -1.559992 -0.033067 -3.667999
    33 -0.017232 -8.447954 -0.084602 -0.086702 0.537114 -0.068559
    34 -0.488518 -2.755602 -0.228260 -1.030347 -0.157968 -0.394990
    35 0.039887 -1.550105 0.029854 -2.074792 -0.002565 0.045363
    36 0.028786 -1.099169 -0.077798 -0.464682 -0.009624 0.007826
    37 0.250027 -2.820665 -0.238396 -0.798963 -0.161345 -0.387124
    38 -0.049759 -1.598510 0.006726 -1.880353 -0.007406 -0.047305
    39 -0.034142 -1.163937 0.049625 -0.971280 0.008042 -0.025168
    40 0.957766 -2.746780 -0.090302 0.047556 -0.152354 -0.131678
    41 -0.033420 -1.397129 -0.026882 -0.834512 0.006675 -0.041048
    42 -0.022360 -0.965249 -0.008561 -1.195824 -0.001606 -0.057023
    43 -1.180681 -2.507217 -0.193859 -1.027090 0.019838 -0.525290
    44 -0.024967 -1.127840 0.017597 -1.714503 -0.017965 -0.066070
    45 -0.020057 -0.906594 0.025715 -0.858820 0.007107 -0.034731
    46 0.618667 -1.197277 0.185379 0.544193 -1.000238 -0.600279
    47 1.442174 -0.255387 0.079230 0.079059 -0.248260 -0.933461
    48 1.022644 -0.171260 0.040104 0.071221 -0.227578 -0.953828
    49 0.120153 -0.050270 -0.054489 0.287569 3.110905 1.561085
    50 -1.841129 -8.172756 -6.392103 0.579331 -4.271424 0.681755
    51 0.100850 -8.454325 -0.009365 0.141363 -0.232597 0.090346
    52 0.447953 -2.798986 -0.200443 -0.655991 -0.095283 0.190274
    53 -0.032909 -1.499736 0.040097 -1.883027 0.020673 -0.040098
    54 -0.027022 -1.108171 -0.028023 -0.819748 0.019559 -0.011637
    55 -0.249534 -2.846964 -0.174213 -0.587811 0.045980 0.078145
    56 0.043235 -1.656596 0.056948 -1.845438 -0.024897 0.015365
    57 0.031729 -1.141298 0.054932 -1.171127 -0.013068 0.006442
    58 -0.963866 -2.785145 -0.085350 -0.590246 0.210214 -0.028122
    59 0.028479 -1.422599 -0.032793 -1.720764 -0.058617 -0.036421
    60 0.021413 -0.942156 0.012233 -1.038955 -0.028439 -0.034959
    61 1.164475 -2.543940 -0.170330 -0.642751 -0.330838 0.151754
    62 0.024032 -1.156387 -0.009538 -1.529426 0.035331 0.068589
    63 0.014898 -0.899614 -0.015942 -0.830963 0.003655 0.042078
    64 -0.586770 -1.264477 0.200161 0.020491 -0.717858 -2.663666
    65 1.577524 0.035243 0.016848 -0.023422 -0.007470 1.055686
    66 1.114041 0.044518 -0.005766 -0.020353 -0.034714 0.772502
    67 -0.139399 -0.119511 -0.005135 0.373864 0.094176 1.499456
    68 -5.182648 7.128187 -0.348811 1.581008 -0.018518 -1.056409
  time 11
    0 5.851741 -7.394695 -7.551323 0.871501 -1.654789 -0.955228
    1 1.015654 -1.668102 0.000001 0.000006 0.000000 -3.141592
    2 1.145417 -5.369577 0.000002 0.000000 0.000000 3.141592
    3 3.114791 -3.093424 0.000001 0.000001 -1.571142 0.000000
    4 2.156557 -15.664373 0.000005 0.000000 0.000000 -1.570796
    5 2.213366 -8.360288 -0.001159 -4.712619 0.446775 -3.148557
    6 2.182062 -12.854611 -0.000128 -4.712619 1.232198 -3.148557
    7 2.197905 -10.580413 -0.000649 -4.712619 0.097785 -3.148557
    8 2.156176 -12.270843 -0.000003 0.000000 -0.516280 -3.141592
    9 2.156176 -13.334796 -0.000003 3.141592 -1.072942 0.000000
    10 2.154311 -17.275190 -0.000004 1.570796 1.570796 0.000000
    11 6.003845 6.003843 0.000000 0.000000 0.000000 0.000000
    12 -6.003844 6.003845 0.000000 0.000000 0.000000 0.000000
    13 -6.003843 -6.003845 0.000000 0.000000 0.000000 0.000000
    14 6.003844 -6.003845 0.000000 0.000000 0.000000 0.000000
    15 -43.552250 12.210165 -0.000001 1.570796 1.570796 0.000000
    16 -0.000002 0.000000 0.000000 0.000000 0.000000 0.000000
    17 0.000002 0.000004 0.000002 0.000000 0.000000 0.000000
    18 0.000000 0.000000 0.000000 0.000000 0.000000 0.000000
    19 0.000002 0.000004 0.000004 0.000000 0.000000 0.000000
    20 -43.552250 12.210167 -0.000002 1.570796 0.610865 0.000001
    21 0.000002 0.000004 0.000002 0.000000 0.000000 0.000000
    22 0.000000 -0.000004 -0.000004 0.000000 0.000000 0.000000
    23 0.000011 -0.000008 -0.000002 0.000000 0.000000 0.000000
    24 -0.000008 0.000010 0.000002 0.000000 0.000000 0.000000
    25 -38.626671 10.548248 -9.995397 -1.085492 3.077721 -0.372382
    26 0.000004 0.000003 0.000003 0.000000 0.000000 0.000000
    27 0.000004 -0.000004 -0.000003 0.000000 0.000000 0.000000
    28 0.000011 -0.000010 0.000000 0.000000 0.000000 0.000000
    29 -0.000008 0.000010 0.000003 0.000000 0.000000 0.000000
    30 -0.748869 0.799541 -4.370608 0.000000 0.000000 0.308293
    31 7.790526 -0.389308 -7.315611 0.732382 -2.109941 -0.998864
    32 6.233894 -4.437037 -0.423252 -1.560135 -0.033031 -3.661143
    33 -0.021138 -8.447954 -0.084602 -0.085624 0.528977 -0.073029
    34 -0.488518 -2.755602 -0.228260 -1.030347 -0.157968 -0.394990
    35 0.039887 -1.550105 0.029854 -2.074854 -0.002565 0.045363
    36 0.028786 -1.099169 -0.077798 -0.464682 -0.009624 0.007826
    37 0.250027 -2.820665 -0.238396 -0.798963 -0.161345 -0.387124
    38 -0.049759 -1.598510 0.006726 -1.880353 -0.007406 -0.047305
    39 -0.034142 -1.163937 0.049625 -0.971280 0.008042 -0.025168
    40 0.957766 -2.746780 -0.090302 0.047556 -0.152354 -0.131678
    41 -0.033420 -1.397129 -0.026882 -0.834512 0.006675 -0.041048
    42 -0.022360 -0.965249 -0.008561 -1.195824 -0.001606 -0.057023
    43 -1.180681 -2.507217 -0.193859 -1.027090 0.019838 -0.525290
    44 -0.024967 -1.127840 0.017597 -1.714451 -0.017965 -0.066070
    45 -0.020057 -0.906594 0.025715 -0.858820 0.007107 -0.034731
    46 0.618667 -1.197277 0.185379 0.544193 -1.000238 -0.600279
    47 1.442174 -0.255387 0.079230 0.079059 -0.248260 -0.933461
    48 1.022644 -0.171260 0.040104 0.071221 -0.227578 -0.953828
    49 0.120153 -0.050270 -0.054489 0.287569 3.110905 1.561085
    50 -1.821597 -8.200100 -6.341321 0.561865 -4.276624 0.662686
    51 0.100850 -8.458231 -0.009365 0.141440 -0.239573 0.078370
    52 0.447953 -2.798986 -0.200443 -0.655991 -0.095283 0.190274
    53 -0.032909 -1.499736 0.040097 -1.883027 0.020673 -0.040098
    54 -0.027022 -1.108171 -0.028023 -0.819748 0.019559 -0.011637
    55 -0.249534 -2.846964 -0.174213 -0.587811 0.045980 0.078145
    56 0.043235 -1.656596 0.056948 -1.845438 -0.024897 0.015365
    57 0.031729 -1.141298 0.054932 -1.171127 -0.013068 0.006442
    58 -0.963866 -2.785145 -0.085350 -0.590246 0.210214 -0.028122
    59 0.028479 -1.422599 -0.032793 -1.720764 -0.058617 -0.036421
    60 0.021413 -0.942156 0.012233 -1.038923 -0.028439 -0.034959
    61 1.164475 -2.543940 -0.170330 -0.642751 -0.330838 0.151754
    62 0.024032 -1.156387 -0.009538 -1.529426 0.035331 0.068589
    63 0.014898 -0.899614 -0.015942 -0.830963 0.003655 0.042078
    64 -0.586770 -1.264477 0.200161 0.020491 -0.717858 -2.663666
    65 1.577524 0.035243 0.016848 -0.023422 -0.007470 1.055686
    66 1.114041 0.044518 -0.005766 -0.020353 -0.034714 0.772502
    67 -0.139399 -0.119511 -0.005135 0.373864 0.094176 1.499456
    68 -5.042019 7.237566 -0.344905 1.581140 -0.017954 -1.078048
  time 12
    0 5.867367 -7.355632 -7.570855 0.769075 -1.659490 -0.850990
    1 1.015654 -1.668102 0.000001 0.000006 0.000000 -3.141592
    2 1.145417 -5.369577 0.000002 0.000000 0.000000 3.141592
    3 3.114791 -3.093424 0.000001 0.000001 -1.571142 0.000000
    4 2.156557 -15.664373 0.000005 0.000000 0.000000 -1.570796
    5 2.213366 -8.360288 -0.001159 -1.571027 0.001987 -0.006965
    6 2.182062 -12.854611 -0.000128 -1.571027 -0.783409 -0.006965
    7 2.197905 -10.580413 -0.000649 -1.571027 0.351055 -0.006965
    8 2.156176 -12.270843 -0.000003 0.000000 0.261799 -3.141592
    9 2.156176 -13.334796 -0.000003 0.000000 -1.290547 -3.141592
    10 2.154311 -17.275190 -0.000004 1.570796 1.570796 0.000000
    11 8.000000 7.999998 0.000000 0.000000 0.000000 0.000000
    12 -7.999999 8.000000 0.000000 0.000000 0.000000 0.000000
    13 -7.999998 -8.000000 0.000000 0.000000 0.000000 0.000000
    14 7.999999 -8.000000 0.000000 0.000000 0.000000 0.000000
    15 -43.552250 12.210165 -0.000001 1.570796 1.570796 0.000000
    16 -0.000002 0.000000 0.000000 0.000000 0.000000 0.000000
    17 0.000002 0.000004 0.000002 0.000000 0.000000 0.000000
    18 0.000000 0.000000 0.000000 0.000000 0.000000 0.000000
    19 0.000002 0.000004 0.000004 0.000000 0.000000 0.000000
    20 -43.552250 12.210167 -0.000002 1.570796 0.610865 0.000001
    21 0.000002 0.000004 0.000002 0.000000 0.000000 0.000000
    22 0.000000 -0.000004 -0.000004 0.000000 0.000000 0.000000
    23 0.000011 -0.000008 -0.000002 0.000000 0.000000 0.000000
    24 -0.000008 0.000010 0.000002 0.000000 0.000000 0.000000
    25 -38.626671 10.548248 -9.995397 -1.085492 3.077721 -0.372382
    26 0.000004 0.000003 0.000003 0.000000 0.000000 0.000000
    27 0.000004 -0.000004 -0.000003 0.000000 0.000000 0.000000
    28 0.000011 -0.000010 0.000000 0.000000 0.000000 0.000000
    29 -0.000008 0.000010 0.000003 0.000000 0.000000 0.000000
    30 -0.748869 0.799541 -4.370608 0.000000 0.000000 0.308293
    31 7.794432 -0.334619 -7.299986 0.727593 -2.108368 -0.990527
    32 6.202643 -4.476101 -0.423252 -1.560004 -0.033055 -3.667237
    33 -0.021138 -8.447954 -0.084602 -0.090014 0.520417 -0.072371
    34 -0.488518 -2.755602 -0.228260 -1.030347 -0.157968 -0.394990
    35 0.039887 -1.550105 0.029854 -2.074792 -0.002565 0.045363
    36 0.028786 -1.099169 -0.077798 -0.464682 -0.009624 0.007826
    37 0.250027 -2.820665 -0.238396 -0.798963 -0.161345 -0.387124
    38 -0.049759 -1.598510 0.006726 -1.880353 -0.007406 -0.047305
    39 -0.034142 -1.163937 0.049625 -0.971280 0.008042 -0.025168
    40 0.957766 -2.746780 -0.090302 0.047556 -0.152354 -0.131678
    41 -0.033420 -1.397129 -0.026882 -0.834512 0.006675 -0.041048
    42 -0.022360 -0.965249 -0.008561 -1.195824 -0.001606 -0.057023
    43 -1.180681 -2.507217 -0.193859 -1.027090 0.019838 -0.525290
    44 -0.024967 -1.127840 0.017597 -1.714451 -0.017965 -0.066070
    45 -0.020057 -0.906594 0.025715 -0.858796 0.007107 -0.034731
    46 0.618667 -1.197277 0.185379 0.544193 -1.000238 -0.600279
    47 1.442174 -0.255387 0.079230 0.079059 -0.248260 -0.933461
    48 1.022644 -0.171260 0.040104 0.071221 -0.227578 -0.953828
    49 0.120153 -0.050270 -0.054489 0.287569 3.110905 1.561085
    50 -1.805972 -8.180569 -6.388197 0.559018 -4.277570 0.664703
    51 0.096944 -8.458231 -0.009365 0.146588 -0.248602 0.074847
    52 0.447953 -2.798986 -0.200443 -0.655991 -0.095283 0.190274
    53 -0.032909 -1.499736 0.040097 -1.883027 0.020673 -0.040098
    54 -0.027022 -1.108171 -0.028023 -0.819748 0.019559 -0.011637
    55 -0.249534 -2.846964 -0.174213 -0.587811 0.045980 0.078145
    56 0.043235 -1.656596 0.056948 -1.845438 -0.024897 0.015365
    57 0.031729 -1.141298 0.054932 -1.171127 -0.013068 0.006442
    58 -0.963866 -2.785145 -0.085350 -0.590246 0.210214 -0.028122
    59 0.028479 -1.422599 -0.032793 -1.720764 -0.058617 -0.036421
    60 0.021413 -0.942156 0.012233 -1.038955 -0.028439 -0.034959
    61 1.164475 -2.543940 -0.170330 -0.642751 -0.330838 0.151754
    62 0.024032 -1.156387 -0.009538 -1.529426 0.035331 0.068589
    63 0.014898 -0.899614 -0.015942 -0.830963 0.003655 0.042078
    64 -0.586770 -1.264477 0.200161 0.020491 -0.717858 -2.663666
    65 1.577524 0.035243 0.016848 -0.023422 -0.007470 1.055686
    66 1.114041 0.044518 -0.005766 -0.020353 -0.034714 0.772502
    67 -0.139399 -0.119511 -0.005135 0.373864 0.094176 1.499456
    68 -5.088895 7.202408 -0.344905 1.581092 -0.018146 -1.070629
end
