version 1
nodes
  0 "root" -1
  1 "Bone01" 0
  2 "Bone_Lefthand" 1
  3 "Dummy01" 2
  4 "Bone02" 3
  5 "Bone16" 4
  6 "Bone08" 4
  7 "Dummy02" 6
  8 "Bone26" 7
  9 "Bone24" 4
  10 "Bone_L_Upper" 1
  11 "Bone13" 2
  12 "Bone14" 11
  13 "Bone15" 12
  14 "Bone17" 2
  15 "Bone18" 14
  16 "Bone19" 15
  17 "Bone21" 2
  18 "Bone22" 17
  19 "Bone23" 18
  20 "Bone09" 2
  21 "Bone10" 20
  22 "Bone11" 21
  23 "Bone05" 2
  24 "Bone06" 23
  25 "Bone07" 24
  26 "Bone_Se_Hand-L" 2
  27 "Bone04" 0
  28 "Bone_Righthand" 27
  29 "Bone39" 28
  30 "Bone40" 29
  31 "Bone41" 30
  32 "Bone35" 28
  33 "Bone36" 32
  34 "Bone37" 33
  35 "Bone31" 28
  36 "Bone32" 35
  37 "Bone33" 36
  38 "Bone43" 28
  39 "Bone44" 38
  40 "Bone45" 39
  41 "Bone27" 28
  42 "Bone28" 41
  43 "Bone29" 42
  44 "Bone_Se_Hand-R" 28
  45 "Bone_R_Upper" 27
end
skeleton
  time 0
    0 0.000201 1.628956 0.541027 0.000000 0.000000 0.000000
    1 6.486538 -0.102973 -1.994128 1.473312 -1.138679 -2.062101
    2 -0.071918 -8.498730 -0.104137 0.037862 0.158767 -0.790661
    3 0.808075 -4.830654 0.756952 -3.093769 -0.027141 0.489699
    4 0.000000 0.000000 0.000000 0.000001 0.000000 0.000001
    5 0.703327 -0.536058 -0.000002 0.000001 0.000000 3.141592
    6 0.811626 3.081007 -0.000004 0.000000 0.000001 1.570796
    7 -1.722647 -1.260210 0.000000 0.000000 0.000000 0.000000
    8 0.000001 -0.000002 0.000001 0.000000 0.000000 0.000000
    9 2.976683 0.597730 -0.000001 0.000000 0.000000 -1.570795
    10 1.257180 8.762585 -0.153713 -1.570562 0.002683 -1.566807
    11 -0.488518 -2.755602 -0.228260 -1.320406 -0.050058 -0.542545
    12 0.039887 -1.479790 0.029854 -1.116032 0.000000 0.000001
    13 0.028786 -1.075731 -0.023109 -0.846131 0.000000 0.000000
    14 0.250027 -2.820665 -0.238396 -1.045333 -0.016104 -0.535887
    15 -0.049759 -1.680544 0.100479 -1.429528 0.000000 -0.000002
    16 -0.034142 -1.148312 0.084782 -0.962016 0.000000 0.000000
    17 0.957766 -2.746780 -0.090302 -0.092572 -0.053241 -0.151920
    18 -0.033420 -1.397129 -0.011257 -1.002356 0.000000 -0.000001
    19 -0.022360 -0.957436 0.018784 -1.170201 0.000000 0.000000
    20 -1.180681 -2.507217 -0.193859 -1.268303 0.093255 -0.598552
    21 -0.024967 -1.123934 0.017597 -0.855885 0.000000 0.000001
    22 -0.020057 -0.890968 0.010090 -0.795994 0.000000 0.000000
    23 0.583510 -1.197277 0.185379 -0.067153 -0.750033 -0.339554
    24 1.535927 0.010246 0.005009 -0.002964 -0.012979 -0.667594
    25 1.100771 0.004527 -0.010679 -0.015596 0.004420 -1.118029
    26 0.120153 -0.050270 -0.054489 -2.828955 0.020300 -1.076557
    27 -9.310107 17.808506 -17.763544 0.004984 -3.131565 -1.566847
    28 0.096944 -8.450418 -0.009365 -0.032965 -0.297907 -0.004663
    29 0.447953 -2.798986 -0.200443 0.106456 -0.010396 0.265094
    30 -0.032909 -1.480204 0.004940 -0.055403 0.000000 0.000002
    31 -0.027022 -1.076920 -0.020210 0.002094 0.000000 0.000000
    32 -0.249534 -2.846964 -0.174213 0.041903 -0.000125 -0.008396
    33 0.043235 -1.683941 0.096012 0.019757 0.002823 -0.000167
    34 0.031729 -1.160830 0.058838 -0.040181 0.000642 0.008372
    35 -0.963866 -2.785145 -0.085350 -0.017227 0.162276 -0.191556
    36 0.028479 -1.403067 0.006271 0.013941 0.000000 0.000000
    37 0.021413 -0.957781 0.020046 0.003851 0.000000 0.000000
    38 1.164475 -2.543940 -0.170330 0.083003 -0.013294 0.477915
    39 0.024032 -1.129042 0.017807 -0.018074 0.000000 0.000001
    40 0.014898 -0.883989 -0.019848 -0.060801 0.000000 0.000000
    41 -0.586770 -1.264477 0.200161 -0.152092 -0.410513 -2.814816
    42 1.522835 0.058681 0.016848 0.001410 0.008985 -0.046880
    43 1.117947 0.048424 -0.005766 -0.000243 -0.025198 0.065422
    44 -0.139399 -0.111698 0.014397 0.285382 -0.030687 1.580508
    45 -1.393470 8.839177 -0.239433 1.580804 -0.005023 -1.566847
  time 1
    0 0.000201 1.628956 0.541027 0.000000 0.000000 0.000000
    1 6.486538 -1.349105 -0.107352 1.436944 -1.010190 -2.020425
    2 -0.071918 -8.498730 -0.104137 0.040052 0.157280 -0.774620
    3 0.808075 -4.830654 0.756952 -3.093769 -0.027141 0.489699
    4 0.000000 0.000000 0.000000 0.000001 0.000000 0.000001
    5 0.703327 -0.536058 -0.000002 0.000001 0.000000 3.141592
    6 0.811626 3.081007 -0.000004 0.000000 0.000001 1.570796
    7 -1.722647 -1.260210 0.000000 0.000000 0.000000 0.000000
    8 0.000001 -0.000002 0.000001 0.000000 0.000000 0.000000
    9 2.976683 0.597730 -0.000001 0.000000 0.000000 -1.570795
    10 1.257180 8.762585 -0.153713 -1.570562 0.002683 -1.566807
    11 -0.488518 -2.755602 -0.228260 -1.320406 -0.050058 -0.542545
    12 0.039887 -1.479790 0.029854 -1.116032 0.000000 0.000001
    13 0.028786 -1.075731 -0.023109 -0.846131 0.000000 0.000000
    14 0.250027 -2.820665 -0.238396 -1.045333 -0.016104 -0.535887
    15 -0.049759 -1.680544 0.100479 -1.429528 0.000000 -0.000002
    16 -0.034142 -1.148312 0.084782 -0.961988 0.000000 0.000000
    17 0.957766 -2.746780 -0.090302 -0.092572 -0.053241 -0.151920
    18 -0.033420 -1.397129 -0.011257 -1.002356 0.000000 -0.000001
    19 -0.022360 -0.957436 0.018784 -1.170201 0.000000 0.000000
    20 -1.180681 -2.507217 -0.193859 -1.268303 0.093255 -0.598552
    21 -0.024967 -1.123934 0.017597 -0.855885 0.000000 0.000001
    22 -0.020057 -0.890968 0.010090 -0.795994 0.000000 0.000000
    23 0.583510 -1.197277 0.185379 -0.067153 -0.750033 -0.339554
    24 1.535927 0.010246 0.005009 -0.002964 -0.012979 -0.667594
    25 1.100771 0.004527 -0.010679 -0.015596 0.004420 -1.118029
    26 0.120153 -0.050270 -0.054489 -2.829050 0.020395 -1.079322
    27 -9.310107 17.808506 -17.763544 0.004984 -3.131565 -1.566847
    28 0.096944 -8.450418 -0.009365 -0.032965 -0.297907 -0.004663
    29 0.447953 -2.798986 -0.200443 0.106456 -0.010396 0.265094
    30 -0.032909 -1.480204 0.004940 -0.055403 0.000000 0.000002
    31 -0.027022 -1.076920 -0.020210 0.002094 0.000000 0.000000
    32 -0.249534 -2.846964 -0.174213 0.041903 -0.000125 -0.008396
    33 0.043235 -1.683941 0.096012 0.019757 0.002823 -0.000167
    34 0.031729 -1.160830 0.058838 -0.040181 0.000642 0.008372
    35 -0.963866 -2.785145 -0.085350 -0.017227 0.162276 -0.191556
    36 0.028479 -1.403067 0.006271 0.013941 0.000000 0.000000
    37 0.021413 -0.957781 0.020046 0.003851 0.000000 0.000000
    38 1.164475 -2.543940 -0.170330 0.083003 -0.013294 0.477915
    39 0.024032 -1.129042 0.017807 -0.018074 0.000000 0.000001
    40 0.014898 -0.883989 -0.019848 -0.060801 0.000000 0.000000
    41 -0.586770 -1.264477 0.200161 -0.152092 -0.410513 -2.814816
    42 1.522835 0.058681 0.016848 0.001410 0.008985 -0.046880
    43 1.117947 0.048424 -0.005766 -0.000243 -0.025198 0.065422
    44 -0.139399 -0.111698 0.014397 0.285382 -0.030687 1.580508
    45 -1.393470 8.839177 -0.239433 1.580804 -0.005023 -1.566847
  time 2
    0 0.000201 1.628956 0.541027 0.000000 0.000000 0.000000
    1 6.486538 -2.157723 0.654390 1.467114 -0.968534 -2.041972
    2 -0.071918 -8.498730 -0.104137 0.042912 0.155255 -0.753486
    3 0.808075 -4.830654 0.756952 -3.093769 -0.027141 0.489699
    4 0.000000 0.000000 0.000000 0.000001 0.000000 0.000001
    5 0.703327 -0.536058 -0.000002 0.000001 0.000000 3.141592
    6 0.811626 3.081007 -0.000004 0.000000 0.000001 1.570796
    7 -1.722647 -1.260210 0.000000 0.000000 0.000000 0.000000
    8 0.000001 -0.000002 0.000001 0.000000 0.000000 0.000000
    9 2.976683 0.597730 -0.000001 0.000000 0.000000 -1.570795
    10 1.257180 8.762585 -0.153713 -1.570562 0.002683 -1.566807
    11 -0.488518 -2.755602 -0.228260 -1.320406 -0.050058 -0.542545
    12 0.039887 -1.479790 0.029854 -1.116032 0.000000 0.000001
    13 0.028786 -1.075731 -0.023109 -0.846157 0.000000 0.000000
    14 0.250027 -2.820665 -0.238396 -1.045333 -0.016104 -0.535887
    15 -0.049759 -1.680544 0.100479 -1.429528 0.000000 -0.000002
    16 -0.034142 -1.148312 0.084782 -0.962016 0.000000 0.000000
    17 0.957766 -2.746780 -0.090302 -0.092572 -0.053241 -0.151920
    18 -0.033420 -1.397129 -0.011257 -1.002356 0.000000 -0.000001
    19 -0.022360 -0.957436 0.018784 -1.170201 0.000000 0.000000
    20 -1.180681 -2.507217 -0.193859 -1.268303 0.093255 -0.598552
    21 -0.024967 -1.123934 0.017597 -0.855885 0.000000 0.000001
    22 -0.020057 -0.890968 0.010090 -0.795994 0.000000 0.000000
    23 0.583510 -1.197277 0.185379 -0.067153 -0.750033 -0.339554
    24 1.535927 0.010246 0.005009 -0.002964 -0.012979 -0.667594
    25 1.100771 0.004527 -0.010679 -0.015596 0.004420 -1.118029
    26 0.120153 -0.050270 -0.054489 -2.829242 0.020583 -1.084946
    27 -9.310107 17.808506 -17.763544 0.004984 -3.131565 -1.566847
    28 0.096944 -8.450418 -0.009365 -0.032965 -0.297907 -0.004663
    29 0.447953 -2.798986 -0.200443 0.106456 -0.010396 0.265094
    30 -0.032909 -1.480204 0.004940 -0.055403 0.000000 0.000002
    31 -0.027022 -1.076920 -0.020210 0.002094 0.000000 0.000000
    32 -0.249534 -2.846964 -0.174213 0.041903 -0.000125 -0.008396
    33 0.043235 -1.683941 0.096012 0.019757 0.002823 -0.000167
    34 0.031729 -1.160830 0.058838 -0.040181 0.000642 0.008372
    35 -0.963866 -2.785145 -0.085350 -0.017227 0.162276 -0.191556
    36 0.028479 -1.403067 0.006271 0.013941 0.000000 0.000000
    37 0.021413 -0.957781 0.020046 0.003851 0.000000 0.000000
    38 1.164475 -2.543940 -0.170330 0.083003 -0.013294 0.477915
    39 0.024032 -1.129042 0.017807 -0.018074 0.000000 0.000001
    40 0.014898 -0.883989 -0.019848 -0.060801 0.000000 0.000000
    41 -0.586770 -1.264477 0.200161 -0.152092 -0.410513 -2.814816
    42 1.522835 0.058681 0.016848 0.001410 0.008985 -0.046880
    43 1.117947 0.048424 -0.005766 -0.000243 -0.025198 0.065422
    44 -0.139399 -0.111698 0.014397 0.285382 -0.030687 1.580508
    45 -1.393470 8.839177 -0.239433 1.580804 -0.005023 -1.566847
  time 3
    0 0.000201 1.628956 0.541027 0.000000 0.000000 0.000000
    1 6.486538 -2.345229 0.002026 -1.463034 -2.037156 0.895249
    2 -0.071918 -8.498730 -0.104137 0.044851 0.154919 -0.747216
    3 0.808075 -4.830654 0.756952 -3.093769 -0.027141 0.489699
    4 0.000000 0.000000 0.000000 0.000001 0.000000 0.000001
    5 0.703327 -0.536058 -0.000002 0.000001 0.000000 3.141592
    6 0.811626 3.081007 -0.000004 0.000000 0.000001 1.570796
    7 -1.722647 -1.260210 0.000000 0.000000 0.000000 0.000000
    8 0.000001 -0.000002 0.000001 0.000000 0.000000 0.000000
    9 2.976683 0.597730 -0.000001 0.000000 0.000000 -1.570795
    10 1.257180 8.762585 -0.153713 -1.570562 0.002683 -1.566807
    11 -0.488518 -2.755602 -0.228260 -1.320406 -0.050058 -0.542545
    12 0.039887 -1.479790 0.029854 -1.116032 0.000000 0.000001
    13 0.028786 -1.075731 -0.023109 -0.846131 0.000000 0.000000
    14 0.250027 -2.820665 -0.238396 -1.045333 -0.016104 -0.535887
    15 -0.049759 -1.680544 0.100479 -1.429528 0.000000 -0.000002
    16 -0.034142 -1.148312 0.084782 -0.961988 0.000000 0.000000
    17 0.957766 -2.746780 -0.090302 -0.092572 -0.053241 -0.151920
    18 -0.033420 -1.397129 -0.011257 -1.002356 0.000000 -0.000001
    19 -0.022360 -0.957436 0.018784 -1.170201 0.000000 0.000000
    20 -1.180681 -2.507217 -0.193859 -1.268303 0.093255 -0.598552
    21 -0.024967 -1.123934 0.017597 -0.855885 0.000000 0.000001
    22 -0.020057 -0.890968 0.010090 -0.795994 0.000000 0.000000
    23 0.583510 -1.197277 0.185379 -0.067153 -0.750033 -0.339554
    24 1.535927 0.010246 0.005009 -0.002964 -0.012979 -0.667594
    25 1.100771 0.004527 -0.010679 -0.015596 0.004420 -1.118029
    26 0.120153 -0.050270 -0.054489 -2.829530 0.020772 -1.090093
    27 -9.310107 17.808506 -17.763544 0.004984 -3.131565 -1.566847
    28 0.096944 -8.450418 -0.009365 -0.032965 -0.297907 -0.004663
    29 0.447953 -2.798986 -0.200443 0.106456 -0.010396 0.265094
    30 -0.032909 -1.480204 0.004940 -0.055403 0.000000 0.000002
    31 -0.027022 -1.076920 -0.020210 0.002094 0.000000 0.000000
    32 -0.249534 -2.846964 -0.174213 0.041903 -0.000125 -0.008396
    33 0.043235 -1.683941 0.096012 0.019757 0.002823 -0.000167
    34 0.031729 -1.160830 0.058838 -0.040181 0.000642 0.008372
    35 -0.963866 -2.785145 -0.085350 -0.017227 0.162276 -0.191556
    36 0.028479 -1.403067 0.006271 0.013941 0.000000 0.000000
    37 0.021413 -0.957781 0.020046 0.003851 0.000000 0.000000
    38 1.164475 -2.543940 -0.170330 0.083003 -0.013294 0.477915
    39 0.024032 -1.129042 0.017807 -0.018074 0.000000 0.000001
    40 0.014898 -0.883989 -0.019848 -0.060801 0.000000 0.000000
    41 -0.586770 -1.264477 0.200161 -0.152092 -0.410513 -2.814816
    42 1.522835 0.058681 0.016848 0.001410 0.008985 -0.046880
    43 1.117947 0.048424 -0.005766 -0.000243 -0.025198 0.065422
    44 -0.139399 -0.111698 0.014397 0.285382 -0.030687 1.580508
    45 -1.393470 8.839177 -0.239433 1.580804 -0.005023 -1.566847
  time 4
    0 0.000201 1.628956 0.541027 0.000000 0.000000 0.000000
    1 6.486538 -2.271008 -1.310514 -0.906017 -1.890737 0.347609
    2 -0.071918 -8.498730 -0.104137 0.047404 0.154105 -0.736406
    3 0.808075 -4.830654 0.756952 -3.093769 -0.027141 0.489699
    4 0.000000 0.000000 0.000000 0.000001 0.000000 0.000001
    5 0.703327 -0.536058 -0.000002 0.000001 0.000000 3.141592
    6 0.811626 3.081007 -0.000004 0.000000 0.000001 1.570796
    7 -1.722647 -1.260210 0.000000 0.000000 0.000000 0.000000
    8 0.000001 -0.000002 0.000001 0.000000 0.000000 0.000000
    9 2.976683 0.597730 -0.000001 0.000000 0.000000 -1.570795
    10 1.257180 8.762585 -0.153713 -1.570562 0.002683 -1.566807
    11 -0.488518 -2.755602 -0.228260 -1.320406 -0.050058 -0.542545
    12 0.039887 -1.479790 0.029854 -1.116032 0.000000 0.000001
    13 0.028786 -1.075731 -0.023109 -0.846131 0.000000 0.000000
    14 0.250027 -2.820665 -0.238396 -1.045333 -0.016104 -0.535887
    15 -0.049759 -1.680544 0.100479 -1.429528 0.000000 -0.000002
    16 -0.034142 -1.148312 0.084782 -0.961988 0.000000 0.000000
    17 0.957766 -2.746780 -0.090302 -0.092572 -0.053241 -0.151920
    18 -0.033420 -1.397129 -0.011257 -1.002356 0.000000 -0.000001
    19 -0.022360 -0.957436 0.018784 -1.170201 0.000000 0.000000
    20 -1.180681 -2.507217 -0.193859 -1.268344 0.093255 -0.598552
    21 -0.024967 -1.123934 0.017597 -0.855885 0.000000 0.000001
    22 -0.020057 -0.890968 0.010090 -0.795994 0.000000 0.000000
    23 0.583510 -1.197277 0.185379 -0.067153 -0.750033 -0.339554
    24 1.535927 0.010246 0.005009 -0.002964 -0.012979 -0.667594
    25 1.100771 0.004527 -0.010679 -0.015596 0.004420 -1.118029
    26 0.120153 -0.050270 -0.054489 -2.829721 0.021055 -1.095908
    27 -9.310107 17.808506 -17.763544 0.004984 -3.131565 -1.566847
    28 0.096944 -8.450418 -0.009365 -0.032965 -0.297907 -0.004663
    29 0.447953 -2.798986 -0.200443 0.106456 -0.010396 0.265094
    30 -0.032909 -1.480204 0.004940 -0.055403 0.000000 0.000002
    31 -0.027022 -1.076920 -0.020210 0.002094 0.000000 0.000000
    32 -0.249534 -2.846964 -0.174213 0.041903 -0.000125 -0.008396
    33 0.043235 -1.683941 0.096012 0.019757 0.002823 -0.000167
    34 0.031729 -1.160830 0.058838 -0.040181 0.000642 0.008372
    35 -0.963866 -2.785145 -0.085350 -0.017227 0.162276 -0.191556
    36 0.028479 -1.403067 0.006271 0.013941 0.000000 0.000000
    37 0.021413 -0.957781 0.020046 0.003851 0.000000 0.000000
    38 1.164475 -2.543940 -0.170330 0.083003 -0.013294 0.477915
    39 0.024032 -1.129042 0.017807 -0.018074 0.000000 0.000001
    40 0.014898 -0.883989 -0.019848 -0.060801 0.000000 0.000000
    41 -0.586770 -1.264477 0.200161 -0.152092 -0.410513 -2.814816
    42 1.522835 0.058681 0.016848 0.001410 0.008985 -0.046880
    43 1.117947 0.048424 -0.005766 -0.000243 -0.025198 0.065422
    44 -0.139399 -0.111698 0.014397 0.285382 -0.030687 1.580508
    45 -1.393470 8.839177 -0.239433 1.580804 -0.005023 -1.566847
  time 5
    0 0.000201 1.628956 0.541027 0.000000 0.000000 0.000000
    1 6.486538 -2.353042 -2.861342 -0.037426 -1.898989 -0.487412
    2 -0.071918 -8.498730 -0.104137 0.056639 0.144133 -0.646537
    3 0.808075 -4.830654 0.756952 -3.093769 -0.027141 0.489699
    4 0.000000 0.000000 0.000000 0.000001 0.000000 0.000001
    5 0.703327 -0.536058 -0.000002 0.000001 0.000000 3.141592
    6 0.811626 3.081007 -0.000004 0.000000 0.000001 1.570796
    7 -1.722647 -1.260210 0.000000 0.000000 0.000000 0.000000
    8 0.000001 -0.000002 0.000001 0.000000 0.000000 0.000000
    9 2.976683 0.597730 -0.000001 0.000000 0.000000 -1.570795
    10 1.257180 8.762585 -0.153713 -1.570562 0.002683 -1.566807
    11 -0.488518 -2.755602 -0.228260 -1.320406 -0.050058 -0.542545
    12 0.039887 -1.479790 0.029854 -1.116032 0.000000 0.000001
    13 0.028786 -1.075731 -0.023109 -0.846157 0.000000 0.000000
    14 0.250027 -2.820665 -0.238396 -1.045333 -0.016104 -0.535887
    15 -0.049759 -1.680544 0.100479 -1.429528 0.000000 -0.000002
    16 -0.034142 -1.148312 0.084782 -0.961988 0.000000 0.000000
    17 0.957766 -2.746780 -0.090302 -0.092572 -0.053241 -0.151920
    18 -0.033420 -1.397129 -0.011257 -1.002356 0.000000 -0.000001
    19 -0.022360 -0.957436 0.018784 -1.170201 0.000000 0.000000
    20 -1.180681 -2.507217 -0.193859 -1.268303 0.093255 -0.598552
    21 -0.024967 -1.123934 0.017597 -0.855885 0.000000 0.000001
    22 -0.020057 -0.890968 0.010090 -0.795994 0.000000 0.000000
    23 0.583510 -1.197277 0.185379 -0.067153 -0.750033 -0.339554
    24 1.535927 0.010246 0.005009 -0.002964 -0.012979 -0.667594
    25 1.100771 0.004527 -0.010679 -0.015596 0.004420 -1.118029
    26 0.120153 -0.050270 -0.054489 -2.830105 0.021432 -1.105441
    27 -9.310107 17.808506 -17.763544 0.004984 -3.131565 -1.566847
    28 0.096944 -8.450418 -0.009365 -0.032965 -0.297907 -0.004663
    29 0.447953 -2.798986 -0.200443 0.106456 -0.010396 0.265094
    30 -0.032909 -1.480204 0.004940 -0.055403 0.000000 0.000002
    31 -0.027022 -1.076920 -0.020210 0.002094 0.000000 0.000000
    32 -0.249534 -2.846964 -0.174213 0.041903 -0.000125 -0.008396
    33 0.043235 -1.683941 0.096012 0.019757 0.002823 -0.000167
    34 0.031729 -1.160830 0.058838 -0.040181 0.000642 0.008372
    35 -0.963866 -2.785145 -0.085350 -0.017227 0.162276 -0.191556
    36 0.028479 -1.403067 0.006271 0.013941 0.000000 0.000000
    37 0.021413 -0.957781 0.020046 0.003851 0.000000 0.000000
    38 1.164475 -2.543940 -0.170330 0.083003 -0.013294 0.477915
    39 0.024032 -1.129042 0.017807 -0.018074 0.000000 0.000001
    40 0.014898 -0.883989 -0.019848 -0.060801 0.000000 0.000000
    41 -0.586770 -1.264477 0.200161 -0.152092 -0.410513 -2.814816
    42 1.522835 0.058681 0.016848 0.001410 0.008985 -0.046880
    43 1.117947 0.048424 -0.005766 -0.000243 -0.025198 0.065422
    44 -0.139399 -0.111698 0.014397 0.285382 -0.030687 1.580508
    45 -1.393470 8.839177 -0.239433 1.580804 -0.005023 -1.566847
  time 6
    0 0.000201 1.628956 0.541027 0.000000 0.000000 0.000000
    1 6.486538 -2.892120 -4.880935 0.624046 -2.083090 -1.038076
    2 -0.071918 -8.498730 -0.104137 0.077732 0.102607 -0.322189
    3 0.808075 -4.830654 0.756952 -3.093769 -0.027141 0.489699
    4 -0.101566 -1.105502 -0.429701 0.058749 -0.045431 0.242673
    5 0.703327 -0.536058 -0.000002 0.000001 0.000000 3.141592
    6 0.811626 3.081007 -0.000004 0.000000 0.000001 1.570796
    7 -1.722647 -1.260210 0.000000 0.000000 0.000000 0.000000
    8 0.000001 -0.000002 0.000001 0.000000 0.000000 0.000000
    9 2.976683 0.597730 -0.000001 0.000000 0.000000 -1.570795
    10 1.257180 8.762585 -0.153713 -1.570562 0.002683 -1.566807
    11 -0.488518 -2.755602 -0.228260 -0.477363 -0.039620 -0.585809
    12 0.039887 -1.479790 0.029854 -0.725867 0.000000 0.000001
    13 0.028786 -1.075731 -0.023109 -0.465156 0.000000 0.000000
    14 0.250027 -2.820665 -0.238396 -0.309501 -0.016104 -0.535887
    15 -0.049759 -1.680544 0.100479 -0.955669 0.000000 -0.000002
    16 -0.034142 -1.148312 0.084782 -0.759253 0.000000 0.000000
    17 0.957766 -2.746780 -0.090302 -0.092572 -0.053241 -0.151920
    18 -0.033420 -1.397129 -0.011257 -1.002356 0.000000 -0.000001
    19 -0.022360 -0.957436 0.018784 -0.719400 0.000000 0.000000
    20 -1.180681 -2.507217 -0.193859 -0.389979 0.093255 -0.598552
    21 -0.024967 -1.123934 0.017597 -0.697971 0.000000 0.000001
    22 -0.020057 -0.890968 0.010090 -0.408415 0.000000 0.000000
    23 0.583510 -1.197277 0.185379 -0.068181 -0.388750 -0.339302
    24 1.535927 0.010246 0.005009 -0.002964 -0.012979 -0.395269
    25 1.100771 0.004527 -0.010679 -0.010346 0.009909 -0.630991
    26 0.120153 -0.050270 -0.054489 -2.830967 0.022281 -1.125554
    27 -9.310107 17.808506 -17.763544 0.004984 -3.131565 -1.566847
    28 0.096944 -8.450418 -0.009365 -0.032965 -0.297907 -0.004663
    29 0.447953 -2.798986 -0.200443 0.106456 -0.010396 0.265094
    30 -0.032909 -1.480204 0.004940 -0.055403 0.000000 0.000002
    31 -0.027022 -1.076920 -0.020210 0.002094 0.000000 0.000000
    32 -0.249534 -2.846964 -0.174213 0.041903 -0.000125 -0.008396
    33 0.043235 -1.683941 0.096012 0.019757 0.002823 -0.000167
    34 0.031729 -1.160830 0.058838 -0.040181 0.000642 0.008372
    35 -0.963866 -2.785145 -0.085350 -0.017227 0.162276 -0.191556
    36 0.028479 -1.403067 0.006271 0.013941 0.000000 0.000000
    37 0.021413 -0.957781 0.020046 0.003851 0.000000 0.000000
    38 1.164475 -2.543940 -0.170330 0.083003 -0.013294 0.477915
    39 0.024032 -1.129042 0.017807 -0.018074 0.000000 0.000001
    40 0.014898 -0.883989 -0.019848 -0.060801 0.000000 0.000000
    41 -0.586770 -1.264477 0.200161 -0.152092 -0.410513 -2.814816
    42 1.522835 0.058681 0.016848 0.001410 0.008985 -0.046880
    43 1.117947 0.048424 -0.005766 -0.000243 -0.025198 0.065422
    44 -0.139399 -0.111698 0.014397 0.285382 -0.030687 1.580508
    45 -1.393470 8.839177 -0.239433 1.580804 -0.005023 -1.566847
  time 7
    0 0.000201 1.628956 0.541027 0.000000 0.000000 0.000000
    1 6.486538 -3.606986 -6.955217 0.963916 -2.283847 -1.267054
    2 -0.071918 -8.498730 -0.104137 0.083522 0.053614 0.012172
    3 0.808075 -4.830654 0.756952 -3.093769 -0.027141 0.489699
    4 -0.242195 -0.363292 -0.367199 0.200431 -0.114817 0.153711
    5 0.703327 -0.536058 -0.000002 0.000001 0.000000 3.141592
    6 0.811626 3.081007 -0.000004 0.000000 0.000001 1.570796
    7 -1.722647 -1.260210 0.000000 0.000000 0.000000 0.000000
    8 0.000001 -0.000002 0.000001 0.000000 0.000000 0.000000
    9 2.976683 0.597730 -0.000001 0.000000 0.000000 -1.570795
    10 1.257180 8.762585 -0.153713 -1.570562 0.002683 -1.566807
    11 -0.488518 -2.755602 -0.228260 0.365681 -0.029193 -0.629073
    12 0.039887 -1.479790 0.029854 -0.335735 0.000000 0.000001
    13 0.028786 -1.075731 -0.023109 -0.084181 0.000000 0.000000
    14 0.250027 -2.820665 -0.238396 0.426298 -0.016104 -0.535887
    15 -0.049759 -1.680544 0.100479 -0.481766 0.000000 -0.000002
    16 -0.034142 -1.148312 0.084782 -0.556490 0.000000 0.000000
    17 0.957766 -2.746780 -0.090302 -0.092572 -0.053241 -0.151920
    18 -0.033420 -1.397129 -0.011257 -1.002356 0.000000 -0.000001
    19 -0.022360 -0.957436 0.018784 -0.268599 0.000000 0.000000
    20 -1.180681 -2.507217 -0.193859 0.488303 0.093255 -0.598552
    21 -0.024967 -1.123934 0.017597 -0.540031 0.000000 0.000001
    22 -0.020057 -0.890968 0.010090 -0.020837 0.000000 0.000000
    23 0.583510 -1.197277 0.185379 -0.069232 -0.027450 -0.339062
    24 1.535927 0.010246 0.005009 -0.002964 -0.012979 -0.122964
    25 1.100771 0.004527 -0.010679 -0.005109 0.015398 -0.143954
    26 0.120153 -0.050270 -0.054489 -2.831830 0.023130 -1.146526
    27 -9.310107 17.808506 -17.763544 0.004984 -3.131565 -1.566847
    28 0.096944 -8.450418 -0.009365 -0.032965 -0.297907 -0.004663
    29 0.447953 -2.798986 -0.200443 0.106456 -0.010396 0.265094
    30 -0.032909 -1.480204 0.004940 -0.055403 0.000000 0.000002
    31 -0.027022 -1.076920 -0.020210 0.002094 0.000000 0.000000
    32 -0.249534 -2.846964 -0.174213 0.041903 -0.000125 -0.008396
    33 0.043235 -1.683941 0.096012 0.019757 0.002823 -0.000167
    34 0.031729 -1.160830 0.058838 -0.040181 0.000642 0.008372
    35 -0.963866 -2.785145 -0.085350 -0.017227 0.162276 -0.191556
    36 0.028479 -1.403067 0.006271 0.013941 0.000000 0.000000
    37 0.021413 -0.957781 0.020046 0.003851 0.000000 0.000000
    38 1.164475 -2.543940 -0.170330 0.083003 -0.013294 0.477915
    39 0.024032 -1.129042 0.017807 -0.018074 0.000000 0.000001
    40 0.014898 -0.883989 -0.019848 -0.060801 0.000000 0.000000
    41 -0.586770 -1.264477 0.200161 -0.152092 -0.410513 -2.814816
    42 1.522835 0.058681 0.016848 0.001410 0.008985 -0.046880
    43 1.117947 0.048424 -0.005766 -0.000243 -0.025198 0.065422
    44 -0.139399 -0.111698 0.014397 0.285382 -0.030687 1.580508
    45 -1.393470 8.839177 -0.239433 1.580804 -0.005023 -1.566847
  time 8
    0 0.000201 1.628956 0.541027 0.000000 0.000000 0.000000
    1 6.486538 -4.439043 -8.568548 1.159047 -2.367797 -1.445758
    2 -0.071918 -8.498730 -0.104137 0.080104 0.031119 0.140532
    3 0.808075 -4.830654 0.756952 -3.093769 -0.027141 0.489699
    4 -0.546892 -0.617206 -0.105472 0.068337 -0.044584 -0.258078
    5 0.703327 -0.536058 -0.000002 0.000001 0.000000 3.141592
    6 0.811626 3.081007 -0.000004 0.000000 0.000001 1.570796
    7 -1.722647 -1.260210 0.000000 0.000000 0.000000 0.000000
    8 0.000001 -0.000002 0.000001 0.000000 0.000000 0.000000
    9 2.976683 0.597730 -0.000001 0.000000 0.000000 -1.570795
    10 1.257180 8.762585 -0.153713 -1.570562 0.002683 -1.566807
    11 -0.488518 -2.755602 -0.228260 0.365681 -0.029193 -0.629073
    12 0.039887 -1.479790 0.029854 -0.335735 0.000000 0.000001
    13 0.028786 -1.075731 -0.023109 -0.084181 0.000000 0.000000
    14 0.250027 -2.820665 -0.238396 0.426298 -0.016104 -0.535887
    15 -0.049759 -1.680544 0.100479 -0.481766 0.000000 -0.000002
    16 -0.034142 -1.148312 0.084782 -0.556490 0.000000 0.000000
    17 0.957766 -2.746780 -0.090302 -0.092572 -0.053241 -0.151920
    18 -0.033420 -1.397129 -0.011257 -1.002356 0.000000 -0.000001
    19 -0.022360 -0.957436 0.018784 -0.268599 0.000000 0.000000
    20 -1.180681 -2.507217 -0.193859 0.488303 0.093255 -0.598552
    21 -0.024967 -1.123934 0.017597 -0.540031 0.000000 0.000001
    22 -0.020057 -0.890968 0.010090 -0.020837 0.000000 0.000000
    23 0.583510 -1.197277 0.185379 -0.069232 -0.027450 -0.339062
    24 1.535927 0.010246 0.005009 -0.002964 -0.012979 -0.122964
    25 1.100771 0.004527 -0.010679 -0.005109 0.015398 -0.143954
    26 0.120153 -0.050270 -0.054489 -2.832405 0.023602 -1.158155
    27 -9.310107 17.808506 -17.763544 0.004984 -3.131565 -1.566847
    28 0.096944 -8.450418 -0.009365 -0.032965 -0.297907 -0.004663
    29 0.447953 -2.798986 -0.200443 0.106456 -0.010396 0.265094
    30 -0.032909 -1.480204 0.004940 -0.055403 0.000000 0.000002
    31 -0.027022 -1.076920 -0.020210 0.002094 0.000000 0.000000
    32 -0.249534 -2.846964 -0.174213 0.041903 -0.000125 -0.008396
    33 0.043235 -1.683941 0.096012 0.019757 0.002823 -0.000167
    34 0.031729 -1.160830 0.058838 -0.040181 0.000642 0.008372
    35 -0.963866 -2.785145 -0.085350 -0.017227 0.162276 -0.191556
    36 0.028479 -1.403067 0.006271 0.013941 0.000000 0.000000
    37 0.021413 -0.957781 0.020046 0.003851 0.000000 0.000000
    38 1.164475 -2.543940 -0.170330 0.083003 -0.013294 0.477915
    39 0.024032 -1.129042 0.017807 -0.018074 0.000000 0.000001
    40 0.014898 -0.883989 -0.019848 -0.060801 0.000000 0.000000
    41 -0.586770 -1.264477 0.200161 -0.152092 -0.410513 -2.814816
    42 1.522835 0.058681 0.016848 0.001410 0.008985 -0.046880
    43 1.117947 0.048424 -0.005766 -0.000243 -0.025198 0.065422
    44 -0.139399 -0.111698 0.014397 0.285382 -0.030687 1.580508
    45 -1.393470 8.839177 -0.239433 1.580804 -0.005023 -1.566847
  time 9
    0 0.000201 1.628956 0.541027 0.000000 0.000000 0.000000
    1 6.486538 -5.278912 -9.994373 -1.818152 -0.726212 1.515372
    2 -0.071918 -8.498730 -0.104137 0.076198 0.017588 0.201577
    3 0.808075 -4.830654 0.756952 -3.093769 -0.027141 0.489699
    4 -0.183599 -0.492203 0.023438 -0.217855 0.058848 -0.815783
    5 0.703327 -0.536058 -0.000002 0.000001 0.000000 3.141592
    6 0.811626 3.081007 -0.000004 0.000000 0.000001 1.570796
    7 -1.722647 -1.260210 0.000000 0.000000 0.000000 0.000000
    8 0.000001 -0.000002 0.000001 0.000000 0.000000 0.000000
    9 2.976683 0.597730 -0.000001 0.000000 0.000000 -1.570795
    10 1.257180 8.762585 -0.153713 -1.570562 0.002683 -1.566807
    11 -0.488518 -2.755602 -0.228260 0.365681 -0.029193 -0.629073
    12 0.039887 -1.479790 0.029854 -0.335735 0.000000 0.000001
    13 0.028786 -1.075731 -0.023109 -0.084181 0.000000 0.000000
    14 0.250027 -2.820665 -0.238396 0.426298 -0.016104 -0.535887
    15 -0.049759 -1.680544 0.100479 -0.481766 0.000000 -0.000002
    16 -0.034142 -1.148312 0.084782 -0.556490 0.000000 0.000000
    17 0.957766 -2.746780 -0.090302 -0.092572 -0.053241 -0.151920
    18 -0.033420 -1.397129 -0.011257 -1.002356 0.000000 -0.000001
    19 -0.022360 -0.957436 0.018784 -0.268599 0.000000 0.000000
    20 -1.180681 -2.507217 -0.193859 0.488303 0.093255 -0.598552
    21 -0.024967 -1.123934 0.017597 -0.540031 0.000000 0.000001
    22 -0.020057 -0.890968 0.010090 -0.020837 0.000000 0.000000
    23 0.583510 -1.197277 0.185379 -0.069232 -0.027450 -0.339062
    24 1.535927 0.010246 0.005009 -0.002964 -0.012979 -0.122964
    25 1.100771 0.004527 -0.010679 -0.005109 0.015398 -0.143954
    26 0.120153 -0.050270 -0.054489 -2.832692 0.023979 -1.166735
    27 -9.310107 17.808506 -17.763544 0.004984 -3.131565 -1.566847
    28 0.096944 -8.450418 -0.009365 -0.032965 -0.297907 -0.004663
    29 0.447953 -2.798986 -0.200443 0.106456 -0.010396 0.265094
    30 -0.032909 -1.480204 0.004940 -0.055403 0.000000 0.000002
    31 -0.027022 -1.076920 -0.020210 0.002094 0.000000 0.000000
    32 -0.249534 -2.846964 -0.174213 0.041903 -0.000125 -0.008396
    33 0.043235 -1.683941 0.096012 0.019757 0.002823 -0.000167
    34 0.031729 -1.160830 0.058838 -0.040181 0.000642 0.008372
    35 -0.963866 -2.785145 -0.085350 -0.017227 0.162276 -0.191556
    36 0.028479 -1.403067 0.006271 0.013941 0.000000 0.000000
    37 0.021413 -0.957781 0.020046 0.003851 0.000000 0.000000
    38 1.164475 -2.543940 -0.170330 0.083003 -0.013294 0.477915
    39 0.024032 -1.129042 0.017807 -0.018074 0.000000 0.000001
    40 0.014898 -0.883989 -0.019848 -0.060801 0.000000 0.000000
    41 -0.586770 -1.264477 0.200161 -0.152092 -0.410513 -2.814816
    42 1.522835 0.058681 0.016848 0.001410 0.008985 -0.046880
    43 1.117947 0.048424 -0.005766 -0.000243 -0.025198 0.065422
    44 -0.139399 -0.111698 0.014397 0.285382 -0.030687 1.580508
    45 -1.393470 8.839177 -0.239433 1.580804 -0.005023 -1.566847
  time 10
    0 0.000201 1.628956 0.541027 0.000000 0.000000 0.000000
    1 6.486538 -5.552358 -10.994403 -1.701383 -0.691291 1.394693
    2 -0.071918 -8.498730 -0.104137 0.073226 0.009091 0.237746
    3 0.808075 -4.830654 0.756952 -3.093769 -0.027141 0.489699
    4 0.085940 -0.308603 -0.203131 -0.283530 0.086131 -1.361565
    5 0.703327 -0.536058 -0.000002 0.000001 0.000000 3.141592
    6 0.811626 3.081007 -0.000004 0.000000 0.000001 1.570796
    7 -1.722647 -1.260210 0.000000 0.000000 0.000000 0.000000
    8 0.000001 -0.000002 0.000001 0.000000 0.000000 0.000000
    9 2.976683 0.597730 -0.000001 0.000000 0.000000 -1.570795
    10 1.257180 8.762585 -0.153713 -1.570562 0.002683 -1.566807
    11 -0.488518 -2.755602 -0.228260 0.365681 -0.029193 -0.629073
    12 0.039887 -1.479790 0.029854 -0.335735 0.000000 0.000001
    13 0.028786 -1.075731 -0.023109 -0.084181 0.000000 0.000000
    14 0.250027 -2.820665 -0.238396 0.426298 -0.016104 -0.535887
    15 -0.049759 -1.680544 0.100479 -0.481766 0.000000 -0.000002
    16 -0.034142 -1.148312 0.084782 -0.556490 0.000000 0.000000
    17 0.957766 -2.746780 -0.090302 -0.092572 -0.053241 -0.151920
    18 -0.033420 -1.397129 -0.011257 -1.002356 0.000000 -0.000001
    19 -0.022360 -0.957436 0.018784 -0.268599 0.000000 0.000000
    20 -1.180681 -2.507217 -0.193859 0.488303 0.093255 -0.598552
    21 -0.024967 -1.123934 0.017597 -0.540031 0.000000 0.000001
    22 -0.020057 -0.890968 0.010090 -0.020837 0.000000 0.000000
    23 0.583510 -1.197277 0.185379 -0.069232 -0.027450 -0.339062
    24 1.535927 0.010246 0.005009 -0.002964 -0.012979 -0.122964
    25 1.100771 0.004527 -0.010679 -0.005109 0.015398 -0.143954
    26 0.120153 -0.050270 -0.054489 -2.833076 0.024262 -1.174933
    27 -9.310107 17.808506 -17.763544 0.004984 -3.131565 -1.566847
    28 0.096944 -8.450418 -0.009365 -0.032965 -0.297907 -0.004663
    29 0.447953 -2.798986 -0.200443 0.106456 -0.010396 0.265094
    30 -0.032909 -1.480204 0.004940 -0.055403 0.000000 0.000002
    31 -0.027022 -1.076920 -0.020210 0.002094 0.000000 0.000000
    32 -0.249534 -2.846964 -0.174213 0.041903 -0.000125 -0.008396
    33 0.043235 -1.683941 0.096012 0.019757 0.002823 -0.000167
    34 0.031729 -1.160830 0.058838 -0.040181 0.000642 0.008372
    35 -0.963866 -2.785145 -0.085350 -0.017227 0.162276 -0.191556
    36 0.028479 -1.403067 0.006271 0.013941 0.000000 0.000000
    37 0.021413 -0.957781 0.020046 0.003851 0.000000 0.000000
    38 1.164475 -2.543940 -0.170330 0.083003 -0.013294 0.477915
    39 0.024032 -1.129042 0.017807 -0.018074 0.000000 0.000001
    40 0.014898 -0.883989 -0.019848 -0.060801 0.000000 0.000000
    41 -0.586770 -1.264477 0.200161 -0.152092 -0.410513 -2.814816
    42 1.522835 0.058681 0.016848 0.001410 0.008985 -0.046880
    43 1.117947 0.048424 -0.005766 -0.000243 -0.025198 0.065422
    44 -0.139399 -0.111698 0.014397 0.285382 -0.030687 1.580508
    45 -1.393470 8.839177 -0.239433 1.580804 -0.005023 -1.566847
  time 11
    0 0.000201 1.628956 0.541027 0.000000 0.000000 0.000000
    1 6.486538 -4.845305 -11.392853 -1.630115 -0.692292 1.349615
    2 -0.071918 -8.498730 -0.104137 0.072013 0.007030 0.246131
    3 0.808075 -4.830654 0.756952 -3.093769 -0.027141 0.489699
    4 0.015625 -0.332041 -0.503922 -0.102311 -0.122342 -1.942014
    5 0.703327 -0.536058 -0.000002 0.000001 0.000000 3.141592
    6 0.811626 3.081007 -0.000004 0.000000 0.000001 1.570796
    7 -1.722647 -1.260210 0.000000 0.000000 0.000000 0.000000
    8 0.000001 -0.000002 0.000001 0.000000 0.000000 0.000000
    9 2.976683 0.597730 -0.000001 0.000000 0.000000 -1.570795
    10 1.257180 8.762585 -0.153713 -1.570562 0.002683 -1.566807
    11 -0.488518 -2.755602 -0.228260 0.365681 -0.029193 -0.629073
    12 0.039887 -1.479790 0.029854 -0.335735 0.000000 0.000001
    13 0.028786 -1.075731 -0.023109 -0.084181 0.000000 0.000000
    14 0.250027 -2.820665 -0.238396 0.426298 -0.016104 -0.535887
    15 -0.049759 -1.680544 0.100479 -0.481766 0.000000 -0.000002
    16 -0.034142 -1.148312 0.084782 -0.556490 0.000000 0.000000
    17 0.957766 -2.746780 -0.090302 -0.092572 -0.053241 -0.151920
    18 -0.033420 -1.397129 -0.011257 -1.002356 0.000000 -0.000001
    19 -0.022360 -0.957436 0.018784 -0.268599 0.000000 0.000000
    20 -1.180681 -2.507217 -0.193859 0.488303 0.093255 -0.598552
    21 -0.024967 -1.123934 0.017597 -0.540031 0.000000 0.000001
    22 -0.020057 -0.890968 0.010090 -0.020837 0.000000 0.000000
    23 0.583510 -1.197277 0.185379 -0.069232 -0.027450 -0.339062
    24 1.535927 0.010246 0.005009 -0.002964 -0.012979 -0.122964
    25 1.100771 0.004527 -0.010679 -0.005109 0.015398 -0.143954
    26 0.120153 -0.050270 -0.054489 -2.833363 0.024545 -1.182082
    27 -9.310107 17.808506 -17.763544 0.004984 -3.131565 -1.566847
    28 0.096944 -8.450418 -0.009365 -0.032965 -0.297907 -0.004663
    29 0.447953 -2.798986 -0.200443 0.106456 -0.010396 0.265094
    30 -0.032909 -1.480204 0.004940 -0.055403 0.000000 0.000002
    31 -0.027022 -1.076920 -0.020210 0.002094 0.000000 0.000000
    32 -0.249534 -2.846964 -0.174213 0.041903 -0.000125 -0.008396
    33 0.043235 -1.683941 0.096012 0.019757 0.002823 -0.000167
    34 0.031729 -1.160830 0.058838 -0.040181 0.000642 0.008372
    35 -0.963866 -2.785145 -0.085350 -0.017227 0.162276 -0.191556
    36 0.028479 -1.403067 0.006271 0.013941 0.000000 0.000000
    37 0.021413 -0.957781 0.020046 0.003851 0.000000 0.000000
    38 1.164475 -2.543940 -0.170330 0.083003 -0.013294 0.477915
    39 0.024032 -1.129042 0.017807 -0.018074 0.000000 0.000001
    40 0.014898 -0.883989 -0.019848 -0.060801 0.000000 0.000000
    41 -0.586770 -1.264477 0.200161 -0.152092 -0.410513 -2.814816
    42 1.522835 0.058681 0.016848 0.001410 0.008985 -0.046880
    43 1.117947 0.048424 -0.005766 -0.000243 -0.025198 0.065422
    44 -0.139399 -0.111698 0.014397 0.285382 -0.030687 1.580508
    45 -1.393470 8.839177 -0.239433 1.580804 -0.005023 -1.566847
  time 12
    0 0.000201 1.628956 0.541027 0.000000 0.000000 0.000000
    1 6.486538 -3.575735 -11.369415 -1.584043 -0.725362 1.341677
    2 -0.071918 -8.498730 -0.104137 0.072515 0.009750 0.229570
    3 0.808075 -4.830654 0.756952 -3.093769 -0.027141 0.489699
    4 -0.082034 -0.468764 -0.667989 0.082335 -0.396450 -2.684886
    5 0.703327 -0.536058 -0.000002 0.000001 0.000000 3.141592
    6 0.811626 3.081007 -0.000004 0.000000 0.000001 1.570796
    7 -1.722647 -1.260210 0.000000 0.000000 0.000000 0.000000
    8 0.000001 -0.000002 0.000001 0.000000 0.000000 0.000000
    9 2.976683 0.597730 -0.000001 0.000000 0.000000 -1.570795
    10 1.257180 8.762585 -0.153713 -1.570562 0.002683 -1.566807
    11 -0.488518 -2.755602 -0.228260 0.365681 -0.029193 -0.629073
    12 0.039887 -1.479790 0.029854 -0.335735 0.000000 0.000001
    13 0.028786 -1.075731 -0.023109 -0.084181 0.000000 0.000000
    14 0.250027 -2.820665 -0.238396 0.426298 -0.016104 -0.535887
    15 -0.049759 -1.680544 0.100479 -0.481766 0.000000 -0.000002
    16 -0.034142 -1.148312 0.084782 -0.556490 0.000000 0.000000
    17 0.957766 -2.746780 -0.090302 -0.092572 -0.053241 -0.151920
    18 -0.033420 -1.397129 -0.011257 -1.002356 0.000000 -0.000001
    19 -0.022360 -0.957436 0.018784 -0.268599 0.000000 0.000000
    20 -1.180681 -2.507217 -0.193859 0.488303 0.093255 -0.598552
    21 -0.024967 -1.123934 0.017597 -0.540031 0.000000 0.000001
    22 -0.020057 -0.890968 0.010090 -0.020837 0.000000 0.000000
    23 0.583510 -1.197277 0.185379 -0.069232 -0.027450 -0.339062
    24 1.535927 0.010246 0.005009 -0.002964 -0.012979 -0.122964
    25 1.100771 0.004527 -0.010679 -0.005109 0.015398 -0.143954
    26 0.120153 -0.050270 -0.054489 -2.833651 0.024828 -1.188850
    27 -9.310107 17.808506 -17.763544 0.004984 -3.131565 -1.566847
    28 0.096944 -8.450418 -0.009365 -0.032965 -0.297907 -0.004663
    29 0.447953 -2.798986 -0.200443 0.106456 -0.010396 0.265094
    30 -0.032909 -1.480204 0.004940 -0.055403 0.000000 0.000002
    31 -0.027022 -1.076920 -0.020210 0.002094 0.000000 0.000000
    32 -0.249534 -2.846964 -0.174213 0.041903 -0.000125 -0.008396
    33 0.043235 -1.683941 0.096012 0.019757 0.002823 -0.000167
    34 0.031729 -1.160830 0.058838 -0.040181 0.000642 0.008372
    35 -0.963866 -2.785145 -0.085350 -0.017227 0.162276 -0.191556
    36 0.028479 -1.403067 0.006271 0.013941 0.000000 0.000000
    37 0.021413 -0.957781 0.020046 0.003851 0.000000 0.000000
    38 1.164475 -2.543940 -0.170330 0.083003 -0.013294 0.477915
    39 0.024032 -1.129042 0.017807 -0.018074 0.000000 0.000001
    40 0.014898 -0.883989 -0.019848 -0.060801 0.000000 0.000000
    41 -0.586770 -1.264477 0.200161 -0.152092 -0.410513 -2.814816
    42 1.522835 0.058681 0.016848 0.001410 0.008985 -0.046880
    43 1.117947 0.048424 -0.005766 -0.000243 -0.025198 0.065422
    44 -0.139399 -0.111698 0.014397 0.285382 -0.030687 1.580508
    45 -1.393470 8.839177 -0.239433 1.580804 -0.005023 -1.566847
  time 13
    0 0.000201 1.628956 0.541027 0.000000 0.000000 0.000000
    1 6.486538 -2.435075 -11.201441 -1.571159 -0.738772 1.372390
    2 -0.071918 -8.498730 -0.104137 0.073240 0.008971 0.238890
    3 0.808075 -4.830654 0.756952 -3.093769 -0.027141 0.489699
    4 -0.156255 -0.664083 -0.777367 0.099413 -0.389929 3.005057
    5 0.703327 -0.536058 -0.000002 0.000001 0.000000 3.141592
    6 0.811626 3.081007 -0.000004 0.000000 0.000001 1.570796
    7 -1.722647 -1.260210 0.000000 0.000000 0.000000 0.000000
    8 0.000001 -0.000002 0.000001 0.000000 0.000000 0.000000
    9 2.976683 0.597730 -0.000001 0.000000 0.000000 -1.570795
    10 1.257180 8.762585 -0.153713 -1.570562 0.002683 -1.566807
    11 -0.488518 -2.755602 -0.228260 0.365681 -0.029193 -0.629073
    12 0.039887 -1.479790 0.029854 -0.335735 0.000000 0.000001
    13 0.028786 -1.075731 -0.023109 -0.084181 0.000000 0.000000
    14 0.250027 -2.820665 -0.238396 0.426298 -0.016104 -0.535887
    15 -0.049759 -1.680544 0.100479 -0.481766 0.000000 -0.000002
    16 -0.034142 -1.148312 0.084782 -0.556490 0.000000 0.000000
    17 0.957766 -2.746780 -0.090302 -0.092572 -0.053241 -0.151920
    18 -0.033420 -1.397129 -0.011257 -1.002356 0.000000 -0.000001
    19 -0.022360 -0.957436 0.018784 -0.268599 0.000000 0.000000
    20 -1.180681 -2.507217 -0.193859 0.488303 0.093255 -0.598552
    21 -0.024967 -1.123934 0.017597 -0.540031 0.000000 0.000001
    22 -0.020057 -0.890968 0.010090 -0.020837 0.000000 0.000000
    23 0.583510 -1.197277 0.185379 -0.069232 -0.027450 -0.339062
    24 1.535927 0.010246 0.005009 -0.002964 -0.012979 -0.122964
    25 1.100771 0.004527 -0.010679 -0.005109 0.015398 -0.143954
    26 0.120153 -0.050270 -0.054489 -2.834130 0.025299 -1.199431
    27 -9.310107 17.808506 -17.763544 0.004984 -3.131565 -1.566847
    28 0.096944 -8.450418 -0.009365 -0.032965 -0.297907 -0.004663
    29 0.447953 -2.798986 -0.200443 0.106456 -0.010396 0.265094
    30 -0.032909 -1.480204 0.004940 -0.055403 0.000000 0.000002
    31 -0.027022 -1.076920 -0.020210 0.002094 0.000000 0.000000
    32 -0.249534 -2.846964 -0.174213 0.041903 -0.000125 -0.008396
    33 0.043235 -1.683941 0.096012 0.019757 0.002823 -0.000167
    34 0.031729 -1.160830 0.058838 -0.040181 0.000642 0.008372
    35 -0.963866 -2.785145 -0.085350 -0.017227 0.162276 -0.191556
    36 0.028479 -1.403067 0.006271 0.013941 0.000000 0.000000
    37 0.021413 -0.957781 0.020046 0.003851 0.000000 0.000000
    38 1.164475 -2.543940 -0.170330 0.083003 -0.013294 0.477915
    39 0.024032 -1.129042 0.017807 -0.018074 0.000000 0.000001
    40 0.014898 -0.883989 -0.019848 -0.060801 0.000000 0.000000
    41 -0.586770 -1.264477 0.200161 -0.152092 -0.410513 -2.814816
    42 1.522835 0.058681 0.016848 0.001410 0.008985 -0.046880
    43 1.117947 0.048424 -0.005766 -0.000243 -0.025198 0.065422
    44 -0.139399 -0.111698 0.014397 0.285382 -0.030687 1.580508
    45 -1.393470 8.839177 -0.239433 1.580804 -0.005023 -1.566847
  time 14
    0 0.000201 1.628956 0.541027 0.000000 0.000000 0.000000
    1 6.533414 -1.802243 -10.974871 -1.639166 -0.636012 1.503843
    2 -0.071918 -8.498730 -0.104137 0.073491 -0.005255 0.344627
    3 0.808075 -4.830654 0.756952 -3.093769 -0.027141 0.489699
    4 -0.351573 -0.750023 -0.882839 0.153919 -0.195164 2.767155
    5 0.703327 -0.536058 -0.000002 0.000001 0.000000 3.141592
    6 0.811626 3.081007 -0.000004 0.000000 0.000001 1.570796
    7 -1.722647 -1.260210 0.000000 0.000000 0.000000 0.000000
    8 0.000001 -0.000002 0.000001 0.000000 0.000000 0.000000
    9 2.976683 0.597730 -0.000001 0.000000 0.000000 -1.570795
    10 1.257180 8.762585 -0.153713 -1.570562 0.002683 -1.566807
    11 -0.488518 -2.755602 -0.228260 -0.477363 -0.039620 -0.585809
    12 0.039887 -1.479790 0.029854 -0.447631 0.000000 0.000001
    13 0.028786 -1.075731 -0.023109 -0.197669 0.000000 0.000000
    14 0.250027 -2.820665 -0.238396 -0.309501 -0.016104 -0.535887
    15 -0.049759 -1.680544 0.100479 -0.619461 0.000000 -0.000002
    16 -0.034142 -1.148312 0.084782 -0.384506 0.000000 0.000000
    17 0.957766 -2.746780 -0.090302 -0.092572 -0.053241 -0.151920
    18 -0.033420 -1.397129 -0.011257 -1.002356 0.000000 -0.000001
    19 -0.022360 -0.957436 0.018784 -0.268599 0.000000 0.000000
    20 -1.180681 -2.507217 -0.193859 -0.384247 0.082841 -0.537430
    21 -0.024967 -1.123934 0.017597 -0.596641 0.000000 0.000001
    22 -0.020057 -0.890968 0.010090 -0.056153 0.000000 0.000000
    23 0.583510 -1.197277 0.185379 0.019014 -0.018460 -0.282052
    24 1.535927 0.010246 0.005009 -0.002964 -0.012979 -0.194039
    25 1.100771 0.004527 -0.010679 -0.003851 0.015697 -0.064275
    26 0.120153 -0.050270 -0.054489 -2.835184 0.026242 -1.224216
    27 -9.310107 17.808506 -17.763544 0.004984 -3.131565 -1.566847
    28 0.096944 -8.450418 -0.009365 -0.032965 -0.297907 -0.004663
    29 0.447953 -2.798986 -0.200443 0.106456 -0.010396 0.265094
    30 -0.032909 -1.480204 0.004940 -0.055403 0.000000 0.000002
    31 -0.027022 -1.076920 -0.020210 0.002094 0.000000 0.000000
    32 -0.249534 -2.846964 -0.174213 0.041903 -0.000125 -0.008396
    33 0.043235 -1.683941 0.096012 0.019757 0.002823 -0.000167
    34 0.031729 -1.160830 0.058838 -0.040181 0.000642 0.008372
    35 -0.963866 -2.785145 -0.085350 -0.017227 0.162276 -0.191556
    36 0.028479 -1.403067 0.006271 0.013941 0.000000 0.000000
    37 0.021413 -0.957781 0.020046 0.003851 0.000000 0.000000
    38 1.164475 -2.543940 -0.170330 0.083003 -0.013294 0.477915
    39 0.024032 -1.129042 0.017807 -0.018074 0.000000 0.000001
    40 0.014898 -0.883989 -0.019848 -0.060801 0.000000 0.000000
    41 -0.586770 -1.264477 0.200161 -0.152092 -0.410513 -2.814816
    42 1.522835 0.058681 0.016848 0.001410 0.008985 -0.046880
    43 1.117947 0.048424 -0.005766 -0.000243 -0.025198 0.065422
    44 -0.139399 -0.111698 0.014397 0.285382 -0.030687 1.580508
    45 -1.393470 8.839177 -0.239433 1.580804 -0.005023 -1.566847
  time 15
    0 0.000201 1.628956 0.541027 0.000000 0.000000 0.000000
    1 6.486538 -1.302228 -10.252193 1.433437 -2.535818 -1.512382
    2 -0.071918 -8.498730 -0.104137 0.072403 -0.017419 0.433700
    3 0.808075 -4.830654 0.756952 -3.093769 -0.027141 0.489699
    4 -0.101566 -0.601581 -0.683615 0.166575 -0.171765 2.488073
    5 0.703327 -0.536058 -0.000002 0.000001 0.000000 3.141592
    6 0.811626 3.081007 -0.000004 0.000000 0.000001 1.570796
    7 -1.722647 -1.260210 0.000000 0.000000 0.000000 0.000000
    8 0.000001 -0.000002 0.000001 0.000000 0.000000 0.000000
    9 2.976683 0.597730 -0.000001 0.000000 0.000000 -1.570795
    10 1.257180 8.762585 -0.153713 -1.570562 0.002683 -1.566807
    11 -0.488518 -2.755602 -0.228260 -1.320406 -0.050058 -0.542545
    12 0.039887 -1.479790 0.029854 -0.624555 0.000000 0.000001
    13 0.028786 -1.075731 -0.023109 -0.374656 0.000000 0.000000
    14 0.250027 -2.820665 -0.238396 -1.045333 -0.016104 -0.535887
    15 -0.049759 -1.680544 0.100479 -0.836110 0.000000 -0.000002
    16 -0.034142 -1.148312 0.084782 -0.212521 0.000000 0.000000
    17 0.957766 -2.746780 -0.090302 -0.092572 -0.053241 -0.151920
    18 -0.033420 -1.397129 -0.011257 -1.002356 0.000000 -0.000001
    19 -0.022360 -0.957436 0.018784 -0.268599 0.000000 0.000000
    20 -1.180681 -2.507217 -0.193859 -1.259230 0.072414 -0.476321
    21 -0.024967 -1.123934 0.017597 -0.679561 0.000000 0.000001
    22 -0.020057 -0.890968 0.010090 -0.156043 0.000000 0.000000
    23 0.583510 -1.197277 0.185379 0.107259 -0.009487 -0.225029
    24 1.535927 0.010246 0.005009 -0.002964 -0.012979 -0.265134
    25 1.100771 0.004527 -0.010679 -0.002616 0.015997 0.015403
    26 0.120153 -0.050270 -0.054489 -2.836047 0.027186 -1.245378
    27 -9.310107 17.808506 -17.763544 0.004984 -3.131565 -1.566847
    28 0.096944 -8.450418 -0.009365 -0.032965 -0.297907 -0.004663
    29 0.447953 -2.798986 -0.200443 0.106456 -0.010396 0.265094
    30 -0.032909 -1.480204 0.004940 -0.055403 0.000000 0.000002
    31 -0.027022 -1.076920 -0.020210 0.002094 0.000000 0.000000
    32 -0.249534 -2.846964 -0.174213 0.041903 -0.000125 -0.008396
    33 0.043235 -1.683941 0.096012 0.019757 0.002823 -0.000167
    34 0.031729 -1.160830 0.058838 -0.040181 0.000642 0.008372
    35 -0.963866 -2.785145 -0.085350 -0.017227 0.162276 -0.191556
    36 0.028479 -1.403067 0.006271 0.013941 0.000000 0.000000
    37 0.021413 -0.957781 0.020046 0.003851 0.000000 0.000000
    38 1.164475 -2.543940 -0.170330 0.083003 -0.013294 0.477915
    39 0.024032 -1.129042 0.017807 -0.018074 0.000000 0.000001
    40 0.014898 -0.883989 -0.019848 -0.060801 0.000000 0.000000
    41 -0.586770 -1.264477 0.200161 -0.152092 -0.410513 -2.814816
    42 1.522835 0.058681 0.016848 0.001410 0.008985 -0.046880
    43 1.117947 0.048424 -0.005766 -0.000243 -0.025198 0.065422
    44 -0.139399 -0.111698 0.014397 0.285382 -0.030687 1.580508
    45 -1.393470 8.839177 -0.239433 1.580804 -0.005023 -1.566847
  time 16
    0 0.000201 1.628956 0.541027 0.000000 0.000000 0.000000
    1 6.213092 -0.649865 -8.802930 1.371220 -2.337882 -1.432433
    2 -0.071918 -8.498730 -0.104137 0.074482 -0.020415 0.443816
    3 0.808075 -4.830654 0.756952 -3.093769 -0.027141 0.489699
    4 0.726585 -1.199255 -0.304697 -0.029769 -0.182485 1.937064
    5 0.703327 -0.536058 -0.000002 0.000001 0.000000 3.141592
    6 0.811626 3.081007 -0.000004 0.000000 0.000001 1.570796
    7 -1.722647 -1.260210 0.000000 0.000000 0.000000 0.000000
    8 0.000001 -0.000002 0.000001 0.000000 0.000000 0.000000
    9 2.976683 0.597730 -0.000001 0.000000 0.000000 -1.570795
    10 1.257180 8.762585 -0.153713 -1.570562 0.002683 -1.566807
    11 -0.488518 -2.755602 -0.228260 -1.320406 -0.050058 -0.542545
    12 0.039887 -1.479790 0.029854 -0.774484 0.000000 0.000001
    13 0.028786 -1.075731 -0.023109 -0.519777 0.000000 0.000000
    14 0.250027 -2.820665 -0.238396 -1.045333 -0.016104 -0.535887
    15 -0.049759 -1.680544 0.100479 -1.017683 0.000000 -0.000002
    16 -0.034142 -1.148312 0.084782 -0.329644 0.000000 0.000000
    17 0.957766 -2.746780 -0.090302 -0.092572 -0.053241 -0.151920
    18 -0.033420 -1.397129 -0.011257 -1.002356 0.000000 -0.000001
    19 -0.022360 -0.957436 0.018784 -0.409479 0.000000 0.000000
    20 -1.180681 -2.507217 -0.193859 -1.263354 0.075674 -0.495412
    21 -0.024967 -1.123934 0.017597 -0.736734 0.000000 0.000001
    22 -0.020057 -0.890968 0.010090 -0.328696 0.000000 0.000000
    23 0.583510 -1.197277 0.185379 0.107259 -0.009487 -0.225029
    24 1.535927 0.010246 0.005009 -0.002964 -0.012979 -0.265134
    25 1.100771 0.004527 -0.010679 -0.002616 0.015997 0.015403
    26 0.120153 -0.050270 -0.054489 -2.836334 0.027374 -1.251002
    27 -9.310107 17.808506 -17.763544 0.004984 -3.131565 -1.566847
    28 0.096944 -8.450418 -0.009365 -0.032965 -0.297907 -0.004663
    29 0.447953 -2.798986 -0.200443 0.106456 -0.010396 0.265094
    30 -0.032909 -1.480204 0.004940 -0.055403 0.000000 0.000002
    31 -0.027022 -1.076920 -0.020210 0.002094 0.000000 0.000000
    32 -0.249534 -2.846964 -0.174213 0.041903 -0.000125 -0.008396
    33 0.043235 -1.683941 0.096012 0.019757 0.002823 -0.000167
    34 0.031729 -1.160830 0.058838 -0.040181 0.000642 0.008372
    35 -0.963866 -2.785145 -0.085350 -0.017227 0.162276 -0.191556
    36 0.028479 -1.403067 0.006271 0.013941 0.000000 0.000000
    37 0.021413 -0.957781 0.020046 0.003851 0.000000 0.000000
    38 1.164475 -2.543940 -0.170330 0.083003 -0.013294 0.477915
    39 0.024032 -1.129042 0.017807 -0.018074 0.000000 0.000001
    40 0.014898 -0.883989 -0.019848 -0.060801 0.000000 0.000000
    41 -0.586770 -1.264477 0.200161 -0.152092 -0.410513 -2.814816
    42 1.522835 0.058681 0.016848 0.001410 0.008985 -0.046880
    43 1.117947 0.048424 -0.005766 -0.000243 -0.025198 0.065422
    44 -0.139399 -0.111698 0.014397 0.285382 -0.030687 1.580508
    45 -1.393470 8.839177 -0.239433 1.580804 -0.005023 -1.566847
  time 17
    0 0.000201 1.628956 0.541027 0.000000 0.000000 0.000000
    1 5.849800 0.041563 -7.033345 1.239366 -2.070287 -1.294838
    2 -0.071918 -8.498730 -0.104137 0.078458 -0.022584 0.441460
    3 0.808075 -4.830654 0.756952 -3.093769 -0.027141 0.489699
    4 0.500015 -2.015687 0.000000 -0.130955 -0.172660 1.224365
    5 0.703327 -0.536058 -0.000002 0.000001 0.000000 3.141592
    6 0.811626 3.081007 -0.000004 0.000000 0.000001 1.570796
    7 -1.722647 -1.260210 0.000000 0.000000 0.000000 0.000000
    8 0.000001 -0.000002 0.000001 0.000000 0.000000 0.000000
    9 2.976683 0.597730 -0.000001 0.000000 0.000000 -1.570795
    10 1.257180 8.762585 -0.153713 -1.570562 0.002683 -1.566807
    11 -0.488518 -2.755602 -0.228260 -1.320406 -0.050058 -0.542545
    12 0.039887 -1.479790 0.029854 -0.935289 0.000000 0.000001
    13 0.028786 -1.075731 -0.023109 -0.673907 0.000000 0.000000
    14 0.250027 -2.820665 -0.238396 -1.045333 -0.016104 -0.535887
    15 -0.049759 -1.680544 0.100479 -1.211817 0.000000 -0.000002
    16 -0.034142 -1.148312 0.084782 -0.587269 0.000000 0.000000
    17 0.957766 -2.746780 -0.090302 -0.092572 -0.053241 -0.151920
    18 -0.033420 -1.397129 -0.011257 -1.002356 0.000000 -0.000001
    19 -0.022360 -0.957436 0.018784 -0.719400 0.000000 0.000000
    20 -1.180681 -2.507217 -0.193859 -1.266200 0.082841 -0.537430
    21 -0.024967 -1.123934 0.017597 -0.794060 0.000000 0.000001
    22 -0.020057 -0.890968 0.010090 -0.540614 0.000000 0.000000
    23 0.583510 -1.197277 0.185379 0.107259 -0.009487 -0.225029
    24 1.535927 0.010246 0.005009 -0.002964 -0.012979 -0.265134
    25 1.100771 0.004527 -0.010679 -0.002616 0.015997 0.015403
    26 0.120153 -0.050270 -0.054489 -2.836430 0.027469 -1.254243
    27 -9.310107 17.808506 -17.763544 0.004984 -3.131565 -1.566847
    28 0.096944 -8.450418 -0.009365 -0.032965 -0.297907 -0.004663
    29 0.447953 -2.798986 -0.200443 0.106456 -0.010396 0.265094
    30 -0.032909 -1.480204 0.004940 -0.055403 0.000000 0.000002
    31 -0.027022 -1.076920 -0.020210 0.002094 0.000000 0.000000
    32 -0.249534 -2.846964 -0.174213 0.041903 -0.000125 -0.008396
    33 0.043235 -1.683941 0.096012 0.019757 0.002823 -0.000167
    34 0.031729 -1.160830 0.058838 -0.040181 0.000642 0.008372
    35 -0.963866 -2.785145 -0.085350 -0.017227 0.162276 -0.191556
    36 0.028479 -1.403067 0.006271 0.013941 0.000000 0.000000
    37 0.021413 -0.957781 0.020046 0.003851 0.000000 0.000000
    38 1.164475 -2.543940 -0.170330 0.083003 -0.013294 0.477915
    39 0.024032 -1.129042 0.017807 -0.018074 0.000000 0.000001
    40 0.014898 -0.883989 -0.019848 -0.060801 0.000000 0.000000
    41 -0.586770 -1.264477 0.200161 -0.152092 -0.410513 -2.814816
    42 1.522835 0.058681 0.016848 0.001410 0.008985 -0.046880
    43 1.117947 0.048424 -0.005766 -0.000243 -0.025198 0.065422
    44 -0.139399 -0.111698 0.014397 0.285382 -0.030687 1.580508
    45 -1.393470 8.839177 -0.239433 1.580804 -0.005023 -1.566847
  time 18
    0 0.000201 1.628956 0.541027 0.000000 0.000000 0.000000
    1 5.521665 0.666582 -5.396576 0.864108 -1.817194 -0.918909
    2 -0.071918 -8.498730 -0.104137 0.079686 -0.017311 0.395313
    3 0.808075 -4.830654 0.756952 -3.093769 -0.027141 0.489699
    4 -0.339854 -1.625050 0.113285 -0.108304 -0.129468 0.510107
    5 0.703327 -0.536058 -0.000002 0.000001 0.000000 3.141592
    6 0.811626 3.081007 -0.000004 0.000000 0.000001 1.570796
    7 -1.722647 -1.260210 0.000000 0.000000 0.000000 0.000000
    8 0.000001 -0.000002 0.000001 0.000000 0.000000 0.000000
    9 2.976683 0.597730 -0.000001 0.000000 0.000000 -1.570795
    10 1.257180 8.762585 -0.153713 -1.570562 0.002683 -1.566807
    11 -0.488518 -2.755602 -0.228260 -1.320406 -0.050058 -0.542545
    12 0.039887 -1.479790 0.029854 -1.063596 0.000000 0.000001
    13 0.028786 -1.075731 -0.023109 -0.796299 0.000000 0.000000
    14 0.250027 -2.820665 -0.238396 -1.045333 -0.016104 -0.535887
    15 -0.049759 -1.680544 0.100479 -1.366453 0.000000 -0.000002
    16 -0.034142 -1.148312 0.084782 -0.844893 0.000000 0.000000
    17 0.957766 -2.746780 -0.090302 -0.092572 -0.053241 -0.151920
    18 -0.033420 -1.397129 -0.011257 -1.002356 0.000000 -0.000001
    19 -0.022360 -0.957436 0.018784 -1.029321 0.000000 0.000000
    20 -1.180681 -2.507217 -0.193859 -1.267808 0.089995 -0.579448
    21 -0.024967 -1.123934 0.017597 -0.838217 0.000000 0.000001
    22 -0.020057 -0.890968 0.010090 -0.720223 0.000000 0.000000
    23 0.583510 -1.197277 0.185379 0.107259 -0.009487 -0.225029
    24 1.535927 0.010246 0.005009 -0.002964 -0.012979 -0.265134
    25 1.100771 0.004527 -0.010679 -0.002616 0.015997 0.015403
    26 0.120153 -0.050270 -0.054489 -2.836526 0.027563 -1.255673
    27 -9.310107 17.808506 -17.763544 0.004984 -3.131565 -1.566847
    28 0.096944 -8.450418 -0.009365 -0.032965 -0.297907 -0.004663
    29 0.447953 -2.798986 -0.200443 0.106456 -0.010396 0.265094
    30 -0.032909 -1.480204 0.004940 -0.055403 0.000000 0.000002
    31 -0.027022 -1.076920 -0.020210 0.002094 0.000000 0.000000
    32 -0.249534 -2.846964 -0.174213 0.041903 -0.000125 -0.008396
    33 0.043235 -1.683941 0.096012 0.019757 0.002823 -0.000167
    34 0.031729 -1.160830 0.058838 -0.040181 0.000642 0.008372
    35 -0.963866 -2.785145 -0.085350 -0.017227 0.162276 -0.191556
    36 0.028479 -1.403067 0.006271 0.013941 0.000000 0.000000
    37 0.021413 -0.957781 0.020046 0.003851 0.000000 0.000000
    38 1.164475 -2.543940 -0.170330 0.083003 -0.013294 0.477915
    39 0.024032 -1.129042 0.017807 -0.018074 0.000000 0.000001
    40 0.014898 -0.883989 -0.019848 -0.060801 0.000000 0.000000
    41 -0.586770 -1.264477 0.200161 -0.152092 -0.410513 -2.814816
    42 1.522835 0.058681 0.016848 0.001410 0.008985 -0.046880
    43 1.117947 0.048424 -0.005766 -0.000243 -0.025198 0.065422
    44 -0.139399 -0.111698 0.014397 0.285382 -0.030687 1.580508
    45 -1.393470 8.839177 -0.239433 1.580804 -0.005023 -1.566847
  time 19
    0 0.000201 1.628956 0.541027 0.000000 0.000000 0.000000
    1 5.357597 1.119721 -4.337950 -0.218614 -1.721624 0.165787
    2 -0.071918 -8.498730 -0.104137 0.071929 0.001397 0.273985
    3 0.808075 -4.830654 0.756952 -3.093769 -0.027141 0.489699
    4 0.074221 -0.101566 0.121097 -0.057010 -0.053258 -0.007519
    5 0.703327 -0.536058 -0.000002 0.000001 0.000000 3.141592
    6 0.811626 3.081007 -0.000004 0.000000 0.000001 1.570796
    7 -1.722647 -1.260210 0.000000 0.000000 0.000000 0.000000
    8 0.000001 -0.000002 0.000001 0.000000 0.000000 0.000000
    9 2.976683 0.597730 -0.000001 0.000000 0.000000 -1.570795
    10 1.257180 8.762585 -0.153713 -1.570562 0.002683 -1.566807
    11 -0.488518 -2.755602 -0.228260 -1.320406 -0.050058 -0.542545
    12 0.039887 -1.479790 0.029854 -1.116032 0.000000 0.000001
    13 0.028786 -1.075731 -0.023109 -0.846157 0.000000 0.000000
    14 0.250027 -2.820665 -0.238396 -1.045333 -0.016104 -0.535887
    15 -0.049759 -1.680544 0.100479 -1.429528 0.000000 -0.000002
    16 -0.034142 -1.148312 0.084782 -0.962016 0.000000 0.000000
    17 0.957766 -2.746780 -0.090302 -0.092572 -0.053241 -0.151920
    18 -0.033420 -1.397129 -0.011257 -1.002356 0.000000 -0.000001
    19 -0.022360 -0.957436 0.018784 -1.170201 0.000000 0.000000
    20 -1.180681 -2.507217 -0.193859 -1.268303 0.093255 -0.598552
    21 -0.024967 -1.123934 0.017597 -0.855885 0.000000 0.000001
    22 -0.020057 -0.890968 0.010090 -0.795994 0.000000 0.000000
    23 0.583510 -1.197277 0.185379 0.020065 -0.379777 -0.282291
    24 1.535927 0.010246 0.005009 -0.002964 -0.012979 -0.466364
    25 1.100771 0.004527 -0.010679 -0.009100 0.010220 -0.551313
    26 0.120153 -0.050270 -0.054489 -2.836526 0.027563 -1.256054
    27 -9.310107 17.808506 -17.763544 0.004984 -3.131565 -1.566847
    28 0.096944 -8.450418 -0.009365 -0.032965 -0.297907 -0.004663
    29 0.447953 -2.798986 -0.200443 0.106456 -0.010396 0.265094
    30 -0.032909 -1.480204 0.004940 -0.055403 0.000000 0.000002
    31 -0.027022 -1.076920 -0.020210 0.002094 0.000000 0.000000
    32 -0.249534 -2.846964 -0.174213 0.041903 -0.000125 -0.008396
    33 0.043235 -1.683941 0.096012 0.019757 0.002823 -0.000167
    34 0.031729 -1.160830 0.058838 -0.040181 0.000642 0.008372
    35 -0.963866 -2.785145 -0.085350 -0.017227 0.162276 -0.191556
    36 0.028479 -1.403067 0.006271 0.013941 0.000000 0.000000
    37 0.021413 -0.957781 0.020046 0.003851 0.000000 0.000000
    38 1.164475 -2.543940 -0.170330 0.083003 -0.013294 0.477915
    39 0.024032 -1.129042 0.017807 -0.018074 0.000000 0.000001
    40 0.014898 -0.883989 -0.019848 -0.060801 0.000000 0.000000
    41 -0.586770 -1.264477 0.200161 -0.152092 -0.410513 -2.814816
    42 1.522835 0.058681 0.016848 0.001410 0.008985 -0.046880
    43 1.117947 0.048424 -0.005766 -0.000243 -0.025198 0.065422
    44 -0.139399 -0.111698 0.014397 0.285382 -0.030687 1.580508
    45 -1.393470 8.839177 -0.239433 1.580804 -0.005023 -1.566847
  time 20
    0 0.000201 1.628956 0.541027 0.000000 0.000000 0.000000
    1 5.361504 1.400979 -3.876998 -0.680552 -1.689009 0.634990
    2 -0.071918 -8.498730 -0.104137 0.007156 0.059223 -0.165038
    3 0.808075 -4.830654 0.756952 -3.093769 -0.027141 0.489699
    4 0.000000 -0.015625 0.039064 -0.024160 -0.012292 -0.009996
    5 0.703327 -0.536058 -0.000002 0.000001 0.000000 3.141592
    6 0.811626 3.081007 -0.000004 0.000000 0.000001 1.570796
    7 -1.722647 -1.260210 0.000000 0.000000 0.000000 0.000000
    8 0.000001 -0.000002 0.000001 0.000000 0.000000 0.000000
    9 2.976683 0.597730 -0.000001 0.000000 0.000000 -1.570795
    10 1.257180 8.762585 -0.153713 -1.570562 0.002683 -1.566807
    11 -0.488518 -2.755602 -0.228260 -1.320406 -0.050058 -0.542545
    12 0.039887 -1.479790 0.029854 -1.116032 0.000000 0.000001
    13 0.028786 -1.075731 -0.023109 -0.846131 0.000000 0.000000
    14 0.250027 -2.820665 -0.238396 -1.045333 -0.016104 -0.535887
    15 -0.049759 -1.680544 0.100479 -1.429528 0.000000 -0.000002
    16 -0.034142 -1.148312 0.084782 -0.961988 0.000000 0.000000
    17 0.957766 -2.746780 -0.090302 -0.092572 -0.053241 -0.151920
    18 -0.033420 -1.397129 -0.011257 -1.002356 0.000000 -0.000001
    19 -0.022360 -0.957436 0.018784 -1.170201 0.000000 0.000000
    20 -1.180681 -2.507217 -0.193859 -1.268303 0.093255 -0.598552
    21 -0.024967 -1.123934 0.017597 -0.855885 0.000000 0.000001
    22 -0.020057 -0.890968 0.010090 -0.795994 0.000000 0.000000
    23 0.583510 -1.197277 0.185379 -0.067153 -0.750033 -0.339554
    24 1.535927 0.010246 0.005009 -0.002964 -0.012979 -0.667594
    25 1.100771 0.004527 -0.010679 -0.015596 0.004420 -1.118029
    26 0.120153 -0.050270 -0.054489 -2.836526 0.027563 -1.256054
    27 -9.310107 17.808506 -17.763544 0.004984 -3.131565 -1.566847
    28 0.096944 -8.450418 -0.009365 -0.032965 -0.297907 -0.004663
    29 0.447953 -2.798986 -0.200443 0.106456 -0.010396 0.265094
    30 -0.032909 -1.480204 0.004940 -0.055403 0.000000 0.000002
    31 -0.027022 -1.076920 -0.020210 0.002094 0.000000 0.000000
    32 -0.249534 -2.846964 -0.174213 0.041903 -0.000125 -0.008396
    33 0.043235 -1.683941 0.096012 0.019757 0.002823 -0.000167
    34 0.031729 -1.160830 0.058838 -0.040181 0.000642 0.008372
    35 -0.963866 -2.785145 -0.085350 -0.017227 0.162276 -0.191556
    36 0.028479 -1.403067 0.006271 0.013941 0.000000 0.000000
    37 0.021413 -0.957781 0.020046 0.003851 0.000000 0.000000
    38 1.164475 -2.543940 -0.170330 0.083003 -0.013294 0.477915
    39 0.024032 -1.129042 0.017807 -0.018074 0.000000 0.000001
    40 0.014898 -0.883989 -0.019848 -0.060801 0.000000 0.000000
    41 -0.586770 -1.264477 0.200161 -0.152092 -0.410513 -2.814816
    42 1.522835 0.058681 0.016848 0.001410 0.008985 -0.046880
    43 1.117947 0.048424 -0.005766 -0.000243 -0.025198 0.065422
    44 -0.139399 -0.111698 0.014397 0.285382 -0.030687 1.580508
    45 -1.393470 8.839177 -0.239433 1.580804 -0.005023 -1.566847
  time 21
    0 0.000201 1.628956 0.541027 0.000000 0.000000 0.000000
    1 5.451350 1.596298 -3.681680 -0.666527 -1.619743 0.618074
    2 -0.071918 -8.498730 -0.104137 -0.065038 0.089783 -0.591416
    3 0.808075 -4.830654 0.756952 -3.093769 -0.027141 0.489699
    4 0.000000 0.000000 0.000000 0.000001 0.000000 0.000001
    5 0.703327 -0.536058 -0.000002 0.000001 0.000000 3.141592
    6 0.811626 3.081007 -0.000004 0.000000 0.000001 1.570796
    7 -1.722647 -1.260210 0.000000 0.000000 0.000000 0.000000
    8 0.000001 -0.000002 0.000001 0.000000 0.000000 0.000000
    9 2.976683 0.597730 -0.000001 0.000000 0.000000 -1.570795
    10 1.257180 8.762585 -0.153713 -1.570562 0.002683 -1.566807
    11 -0.488518 -2.755602 -0.228260 -1.320406 -0.050058 -0.542545
    12 0.039887 -1.479790 0.029854 -1.116032 0.000000 0.000001
    13 0.028786 -1.075731 -0.023109 -0.846131 0.000000 0.000000
    14 0.250027 -2.820665 -0.238396 -1.045333 -0.016104 -0.535887
    15 -0.049759 -1.680544 0.100479 -1.429528 0.000000 -0.000002
    16 -0.034142 -1.148312 0.084782 -0.961988 0.000000 0.000000
    17 0.957766 -2.746780 -0.090302 -0.092572 -0.053241 -0.151920
    18 -0.033420 -1.397129 -0.011257 -1.002356 0.000000 -0.000001
    19 -0.022360 -0.957436 0.018784 -1.170201 0.000000 0.000000
    20 -1.180681 -2.507217 -0.193859 -1.268303 0.093255 -0.598552
    21 -0.024967 -1.123934 0.017597 -0.855885 0.000000 0.000001
    22 -0.020057 -0.890968 0.010090 -0.795994 0.000000 0.000000
    23 0.583510 -1.197277 0.185379 -0.067153 -0.750033 -0.339554
    24 1.535927 0.010246 0.005009 -0.002964 -0.012979 -0.667594
    25 1.100771 0.004527 -0.010679 -0.015596 0.004420 -1.118029
    26 0.120153 -0.050270 -0.054489 -2.836526 0.027563 -1.256054
    27 -9.310107 17.808506 -17.763544 0.004984 -3.131565 -1.566847
    28 0.096944 -8.450418 -0.009365 -0.032965 -0.297907 -0.004663
    29 0.447953 -2.798986 -0.200443 0.106456 -0.010396 0.265094
    30 -0.032909 -1.480204 0.004940 -0.055403 0.000000 0.000002
    31 -0.027022 -1.076920 -0.020210 0.002094 0.000000 0.000000
    32 -0.249534 -2.846964 -0.174213 0.041903 -0.000125 -0.008396
    33 0.043235 -1.683941 0.096012 0.019757 0.002823 -0.000167
    34 0.031729 -1.160830 0.058838 -0.040181 0.000642 0.008372
    35 -0.963866 -2.785145 -0.085350 -0.017227 0.162276 -0.191556
    36 0.028479 -1.403067 0.006271 0.013941 0.000000 0.000000
    37 0.021413 -0.957781 0.020046 0.003851 0.000000 0.000000
    38 1.164475 -2.543940 -0.170330 0.083003 -0.013294 0.477915
    39 0.024032 -1.129042 0.017807 -0.018074 0.000000 0.000001
    40 0.014898 -0.883989 -0.019848 -0.060801 0.000000 0.000000
    41 -0.586770 -1.264477 0.200161 -0.152092 -0.410513 -2.814816
    42 1.522835 0.058681 0.016848 0.001410 0.008985 -0.046880
    43 1.117947 0.048424 -0.005766 -0.000243 -0.025198 0.065422
    44 -0.139399 -0.111698 0.014397 0.285382 -0.030687 1.580508
    45 -1.393470 8.839177 -0.239433 1.580804 -0.005023 -1.566847
  time 22
    0 0.000201 1.628956 0.541027 0.000000 0.000000 0.000000
    1 5.595886 1.733021 -3.669961 -0.514042 -1.615132 0.444757
    2 -0.071918 -8.498730 -0.104137 -0.054631 0.109210 -0.665106
    3 0.808075 -4.830654 0.756952 -3.093769 -0.027141 0.489699
    4 0.000000 0.000000 0.000000 0.000001 0.000000 0.000001
    5 0.703327 -0.536058 -0.000002 0.000001 0.000000 3.141592
    6 0.811626 3.081007 -0.000004 0.000000 0.000001 1.570796
    7 -1.722647 -1.260210 0.000000 0.000000 0.000000 0.000000
    8 0.000001 -0.000002 0.000001 0.000000 0.000000 0.000000
    9 2.976683 0.597730 -0.000001 0.000000 0.000000 -1.570795
    10 1.257180 8.762585 -0.153713 -1.570562 0.002683 -1.566807
    11 -0.488518 -2.755602 -0.228260 -1.320406 -0.050058 -0.542545
    12 0.039887 -1.479790 0.029854 -1.116032 0.000000 0.000001
    13 0.028786 -1.075731 -0.023109 -0.846131 0.000000 0.000000
    14 0.250027 -2.820665 -0.238396 -1.045333 -0.016104 -0.535887
    15 -0.049759 -1.680544 0.100479 -1.429528 0.000000 -0.000002
    16 -0.034142 -1.148312 0.084782 -0.962016 0.000000 0.000000
    17 0.957766 -2.746780 -0.090302 -0.092572 -0.053241 -0.151920
    18 -0.033420 -1.397129 -0.011257 -1.002356 0.000000 -0.000001
    19 -0.022360 -0.957436 0.018784 -1.170201 0.000000 0.000000
    20 -1.180681 -2.507217 -0.193859 -1.268303 0.093255 -0.598552
    21 -0.024967 -1.123934 0.017597 -0.855885 0.000000 0.000001
    22 -0.020057 -0.890968 0.010090 -0.795994 0.000000 0.000000
    23 0.583510 -1.197277 0.185379 -0.067153 -0.750033 -0.339554
    24 1.535927 0.010246 0.005009 -0.002964 -0.012979 -0.667594
    25 1.100771 0.004527 -0.010679 -0.015596 0.004420 -1.118029
    26 0.120153 -0.050270 -0.054489 -2.836526 0.027563 -1.256054
    27 -9.310107 17.808506 -17.763544 0.004984 -3.131565 -1.566847
    28 0.096944 -8.450418 -0.009365 -0.032965 -0.297907 -0.004663
    29 0.447953 -2.798986 -0.200443 0.106456 -0.010396 0.265094
    30 -0.032909 -1.480204 0.004940 -0.055403 0.000000 0.000002
    31 -0.027022 -1.076920 -0.020210 0.002094 0.000000 0.000000
    32 -0.249534 -2.846964 -0.174213 0.041903 -0.000125 -0.008396
    33 0.043235 -1.683941 0.096012 0.019757 0.002823 -0.000167
    34 0.031729 -1.160830 0.058838 -0.040181 0.000642 0.008372
    35 -0.963866 -2.785145 -0.085350 -0.017227 0.162276 -0.191556
    36 0.028479 -1.403067 0.006271 0.013941 0.000000 0.000000
    37 0.021413 -0.957781 0.020046 0.003851 0.000000 0.000000
    38 1.164475 -2.543940 -0.170330 0.083003 -0.013294 0.477915
    39 0.024032 -1.129042 0.017807 -0.018074 0.000000 0.000001
    40 0.014898 -0.883989 -0.019848 -0.060801 0.000000 0.000000
    41 -0.586770 -1.264477 0.200161 -0.152092 -0.410513 -2.814816
    42 1.522835 0.058681 0.016848 0.001410 0.008985 -0.046880
    43 1.117947 0.048424 -0.005766 -0.000243 -0.025198 0.065422
    44 -0.139399 -0.111698 0.014397 0.285382 -0.030687 1.580508
    45 -1.393470 8.839177 -0.239433 1.580804 -0.005023 -1.566847
  time 23
    0 0.000201 1.628956 0.541027 0.000000 0.000000 0.000000
    1 5.759953 1.830680 -3.779339 -0.220408 -1.625842 0.123544
    2 -0.071918 -8.498730 -0.104137 -0.018555 0.131945 -0.644908
    3 0.808075 -4.830654 0.756952 -3.093769 -0.027141 0.489699
    4 0.000000 0.000000 0.000000 0.000001 0.000000 0.000001
    5 0.703327 -0.536058 -0.000002 0.000001 0.000000 3.141592
    6 0.811626 3.081007 -0.000004 0.000000 0.000001 1.570796
    7 -1.722647 -1.260210 0.000000 0.000000 0.000000 0.000000
    8 0.000001 -0.000002 0.000001 0.000000 0.000000 0.000000
    9 2.976683 0.597730 -0.000001 0.000000 0.000000 -1.570795
    10 1.257180 8.762585 -0.153713 -1.570562 0.002683 -1.566807
    11 -0.488518 -2.755602 -0.228260 -1.320406 -0.050058 -0.542545
    12 0.039887 -1.479790 0.029854 -1.116032 0.000000 0.000001
    13 0.028786 -1.075731 -0.023109 -0.846131 0.000000 0.000000
    14 0.250027 -2.820665 -0.238396 -1.045333 -0.016104 -0.535887
    15 -0.049759 -1.680544 0.100479 -1.429528 0.000000 -0.000002
    16 -0.034142 -1.148312 0.084782 -0.961988 0.000000 0.000000
    17 0.957766 -2.746780 -0.090302 -0.092572 -0.053241 -0.151920
    18 -0.033420 -1.397129 -0.011257 -1.002356 0.000000 -0.000001
    19 -0.022360 -0.957436 0.018784 -1.170201 0.000000 0.000000
    20 -1.180681 -2.507217 -0.193859 -1.268303 0.093255 -0.598552
    21 -0.024967 -1.123934 0.017597 -0.855885 0.000000 0.000001
    22 -0.020057 -0.890968 0.010090 -0.795994 0.000000 0.000000
    23 0.583510 -1.197277 0.185379 -0.067153 -0.750033 -0.339554
    24 1.535927 0.010246 0.005009 -0.002964 -0.012979 -0.667594
    25 1.100771 0.004527 -0.010679 -0.015596 0.004420 -1.118029
    26 0.120153 -0.050270 -0.054489 -2.836526 0.027563 -1.256054
    27 -9.310107 17.808506 -17.763544 0.004984 -3.131565 -1.566847
    28 0.096944 -8.450418 -0.009365 -0.032965 -0.297907 -0.004663
    29 0.447953 -2.798986 -0.200443 0.106456 -0.010396 0.265094
    30 -0.032909 -1.480204 0.004940 -0.055403 0.000000 0.000002
    31 -0.027022 -1.076920 -0.020210 0.002094 0.000000 0.000000
    32 -0.249534 -2.846964 -0.174213 0.041903 -0.000125 -0.008396
    33 0.043235 -1.683941 0.096012 0.019757 0.002823 -0.000167
    34 0.031729 -1.160830 0.058838 -0.040181 0.000642 0.008372
    35 -0.963866 -2.785145 -0.085350 -0.017227 0.162276 -0.191556
    36 0.028479 -1.403067 0.006271 0.013941 0.000000 0.000000
    37 0.021413 -0.957781 0.020046 0.003851 0.000000 0.000000
    38 1.164475 -2.543940 -0.170330 0.083003 -0.013294 0.477915
    39 0.024032 -1.129042 0.017807 -0.018074 0.000000 0.000001
    40 0.014898 -0.883989 -0.019848 -0.060801 0.000000 0.000000
    41 -0.586770 -1.264477 0.200161 -0.152092 -0.410513 -2.814816
    42 1.522835 0.058681 0.016848 0.001410 0.008985 -0.046880
    43 1.117947 0.048424 -0.005766 -0.000243 -0.025198 0.065422
    44 -0.139399 -0.111698 0.014397 0.285382 -0.030687 1.580508
    45 -1.393470 8.839177 -0.239433 1.580804 -0.005023 -1.566847
  time 24
    0 0.000201 1.628956 0.541027 0.000000 0.000000 0.000000
    1 5.924021 1.908807 -3.923875 -0.016470 -1.642771 -0.107513
    2 -0.071918 -8.498730 -0.104137 0.024971 0.149574 -0.586808
    3 0.808075 -4.830654 0.756952 -3.093769 -0.027141 0.489699
    4 0.000000 0.000000 0.000000 0.000001 0.000000 0.000001
    5 0.703327 -0.536058 -0.000002 0.000001 0.000000 3.141592
    6 0.811626 3.081007 -0.000004 0.000000 0.000001 1.570796
    7 -1.722647 -1.260210 0.000000 0.000000 0.000000 0.000000
    8 0.000001 -0.000002 0.000001 0.000000 0.000000 0.000000
    9 2.976683 0.597730 -0.000001 0.000000 0.000000 -1.570795
    10 1.257180 8.762585 -0.153713 -1.570562 0.002683 -1.566807
    11 -0.488518 -2.755602 -0.228260 -1.320406 -0.050058 -0.542545
    12 0.039887 -1.479790 0.029854 -1.116032 0.000000 0.000001
    13 0.028786 -1.075731 -0.023109 -0.846157 0.000000 0.000000
    14 0.250027 -2.820665 -0.238396 -1.045333 -0.016104 -0.535887
    15 -0.049759 -1.680544 0.100479 -1.429528 0.000000 -0.000002
    16 -0.034142 -1.148312 0.084782 -0.961988 0.000000 0.000000
    17 0.957766 -2.746780 -0.090302 -0.092572 -0.053241 -0.151920
    18 -0.033420 -1.397129 -0.011257 -1.002356 0.000000 -0.000001
    19 -0.022360 -0.957436 0.018784 -1.170201 0.000000 0.000000
    20 -1.180681 -2.507217 -0.193859 -1.268344 0.093255 -0.598552
    21 -0.024967 -1.123934 0.017597 -0.855885 0.000000 0.000001
    22 -0.020057 -0.890968 0.010090 -0.795994 0.000000 0.000000
    23 0.583510 -1.197277 0.185379 -0.067153 -0.750033 -0.339554
    24 1.535927 0.010246 0.005009 -0.002964 -0.012979 -0.667594
    25 1.100771 0.004527 -0.010679 -0.015596 0.004420 -1.118029
    26 0.120153 -0.050270 -0.054489 -2.836526 0.027563 -1.256054
    27 -9.310107 17.808506 -17.763544 0.004984 -3.131565 -1.566847
    28 0.096944 -8.450418 -0.009365 -0.032965 -0.297907 -0.004663
    29 0.447953 -2.798986 -0.200443 0.106456 -0.010396 0.265094
    30 -0.032909 -1.480204 0.004940 -0.055403 0.000000 0.000002
    31 -0.027022 -1.076920 -0.020210 0.002094 0.000000 0.000000
    32 -0.249534 -2.846964 -0.174213 0.041903 -0.000125 -0.008396
    33 0.043235 -1.683941 0.096012 0.019757 0.002823 -0.000167
    34 0.031729 -1.160830 0.058838 -0.040181 0.000642 0.008372
    35 -0.963866 -2.785145 -0.085350 -0.017227 0.162276 -0.191556
    36 0.028479 -1.403067 0.006271 0.013941 0.000000 0.000000
    37 0.021413 -0.957781 0.020046 0.003851 0.000000 0.000000
    38 1.164475 -2.543940 -0.170330 0.083003 -0.013294 0.477915
    39 0.024032 -1.129042 0.017807 -0.018074 0.000000 0.000001
    40 0.014898 -0.883989 -0.019848 -0.060801 0.000000 0.000000
    41 -0.586770 -1.264477 0.200161 -0.152092 -0.410513 -2.814816
    42 1.522835 0.058681 0.016848 0.001410 0.008985 -0.046880
    43 1.117947 0.048424 -0.005766 -0.000243 -0.025198 0.065422
    44 -0.139399 -0.111698 0.014397 0.285382 -0.030687 1.580508
    45 -1.393470 8.839177 -0.239433 1.580804 -0.005023 -1.566847
  time 25
    0 0.000201 1.628956 0.541027 0.000000 0.000000 0.000000
    1 6.052931 2.002560 -4.029347 0.138787 -1.652996 -0.281775
    2 -0.071918 -8.498730 -0.104137 0.054798 0.158071 -0.548422
    3 0.808075 -4.830654 0.756952 -3.093769 -0.027141 0.489699
    4 0.000000 0.000000 0.000000 0.000001 0.000000 0.000001
    5 0.703327 -0.536058 -0.000002 0.000001 0.000000 3.141592
    6 0.811626 3.081007 -0.000004 0.000000 0.000001 1.570796
    7 -1.722647 -1.260210 0.000000 0.000000 0.000000 0.000000
    8 0.000001 -0.000002 0.000001 0.000000 0.000000 0.000000
    9 2.976683 0.597730 -0.000001 0.000000 0.000000 -1.570795
    10 1.257180 8.762585 -0.153713 -1.570562 0.002683 -1.566807
    11 -0.488518 -2.755602 -0.228260 -1.320406 -0.050058 -0.542545
    12 0.039887 -1.479790 0.029854 -1.116032 0.000000 0.000001
    13 0.028786 -1.075731 -0.023109 -0.846131 0.000000 0.000000
    14 0.250027 -2.820665 -0.238396 -1.045333 -0.016104 -0.535887
    15 -0.049759 -1.680544 0.100479 -1.429528 0.000000 -0.000002
    16 -0.034142 -1.148312 0.084782 -0.961988 0.000000 0.000000
    17 0.957766 -2.746780 -0.090302 -0.092572 -0.053241 -0.151920
    18 -0.033420 -1.397129 -0.011257 -1.002356 0.000000 -0.000001
    19 -0.022360 -0.957436 0.018784 -1.170201 0.000000 0.000000
    20 -1.180681 -2.507217 -0.193859 -1.268303 0.093255 -0.598552
    21 -0.024967 -1.123934 0.017597 -0.855885 0.000000 0.000001
    22 -0.020057 -0.890968 0.010090 -0.795994 0.000000 0.000000
    23 0.583510 -1.197277 0.185379 -0.067153 -0.750033 -0.339554
    24 1.535927 0.010246 0.005009 -0.002964 -0.012979 -0.667594
    25 1.100771 0.004527 -0.010679 -0.015596 0.004420 -1.118029
    26 0.120153 -0.050270 -0.054489 -2.836526 0.027563 -1.256054
    27 -9.310107 17.808506 -17.763544 0.004984 -3.131565 -1.566847
    28 0.096944 -8.450418 -0.009365 -0.032965 -0.297907 -0.004663
    29 0.447953 -2.798986 -0.200443 0.106456 -0.010396 0.265094
    30 -0.032909 -1.480204 0.004940 -0.055403 0.000000 0.000002
    31 -0.027022 -1.076920 -0.020210 0.002094 0.000000 0.000000
    32 -0.249534 -2.846964 -0.174213 0.041903 -0.000125 -0.008396
    33 0.043235 -1.683941 0.096012 0.019757 0.002823 -0.000167
    34 0.031729 -1.160830 0.058838 -0.040181 0.000642 0.008372
    35 -0.963866 -2.785145 -0.085350 -0.017227 0.162276 -0.191556
    36 0.028479 -1.403067 0.006271 0.013941 0.000000 0.000000
    37 0.021413 -0.957781 0.020046 0.003851 0.000000 0.000000
    38 1.164475 -2.543940 -0.170330 0.083003 -0.013294 0.477915
    39 0.024032 -1.129042 0.017807 -0.018074 0.000000 0.000001
    40 0.014898 -0.883989 -0.019848 -0.060801 0.000000 0.000000
    41 -0.586770 -1.264477 0.200161 -0.152092 -0.410513 -2.814816
    42 1.522835 0.058681 0.016848 0.001410 0.008985 -0.046880
    43 1.117947 0.048424 -0.005766 -0.000243 -0.025198 0.065422
    44 -0.139399 -0.111698 0.014397 0.285382 -0.030687 1.580508
    45 -1.393470 8.839177 -0.239433 1.580804 -0.005023 -1.566847
  time 26
    0 0.000201 1.628956 0.541027 0.000000 0.000000 0.000000
    1 6.150590 2.088500 -4.130912 0.319159 -1.654604 -0.471536
    2 -0.071918 -8.498730 -0.104137 0.065986 0.158479 -0.540072
    3 0.808075 -4.830654 0.756952 -3.093769 -0.027141 0.489699
    4 0.000000 0.000000 0.000000 0.000001 0.000000 0.000001
    5 0.703327 -0.536058 -0.000002 0.000001 0.000000 3.141592
    6 0.811626 3.081007 -0.000004 0.000000 0.000001 1.570796
    7 -1.722647 -1.260210 0.000000 0.000000 0.000000 0.000000
    8 0.000001 -0.000002 0.000001 0.000000 0.000000 0.000000
    9 2.976683 0.597730 -0.000001 0.000000 0.000000 -1.570795
    10 1.257180 8.762585 -0.153713 -1.570562 0.002683 -1.566807
    11 -0.488518 -2.755602 -0.228260 -1.320406 -0.050058 -0.542545
    12 0.039887 -1.479790 0.029854 -1.116032 0.000000 0.000001
    13 0.028786 -1.075731 -0.023109 -0.846157 0.000000 0.000000
    14 0.250027 -2.820665 -0.238396 -1.045333 -0.016104 -0.535887
    15 -0.049759 -1.680544 0.100479 -1.429528 0.000000 -0.000002
    16 -0.034142 -1.148312 0.084782 -0.961988 0.000000 0.000000
    17 0.957766 -2.746780 -0.090302 -0.092572 -0.053241 -0.151920
    18 -0.033420 -1.397129 -0.011257 -1.002356 0.000000 -0.000001
    19 -0.022360 -0.957436 0.018784 -1.170201 0.000000 0.000000
    20 -1.180681 -2.507217 -0.193859 -1.268303 0.093255 -0.598552
    21 -0.024967 -1.123934 0.017597 -0.855885 0.000000 0.000001
    22 -0.020057 -0.890968 0.010090 -0.795994 0.000000 0.000000
    23 0.583510 -1.197277 0.185379 -0.067153 -0.750033 -0.339554
    24 1.535927 0.010246 0.005009 -0.002964 -0.012979 -0.667594
    25 1.100771 0.004527 -0.010679 -0.015596 0.004420 -1.118029
    26 0.120153 -0.050270 -0.054489 -2.836526 0.027563 -1.256054
    27 -9.310107 17.808506 -17.763544 0.004984 -3.131565 -1.566847
    28 0.096944 -8.450418 -0.009365 -0.032965 -0.297907 -0.004663
    29 0.447953 -2.798986 -0.200443 0.106456 -0.010396 0.265094
    30 -0.032909 -1.480204 0.004940 -0.055403 0.000000 0.000002
    31 -0.027022 -1.076920 -0.020210 0.002094 0.000000 0.000000
    32 -0.249534 -2.846964 -0.174213 0.041903 -0.000125 -0.008396
    33 0.043235 -1.683941 0.096012 0.019757 0.002823 -0.000167
    34 0.031729 -1.160830 0.058838 -0.040181 0.000642 0.008372
    35 -0.963866 -2.785145 -0.085350 -0.017227 0.162276 -0.191556
    36 0.028479 -1.403067 0.006271 0.013941 0.000000 0.000000
    37 0.021413 -0.957781 0.020046 0.003851 0.000000 0.000000
    38 1.164475 -2.543940 -0.170330 0.083003 -0.013294 0.477915
    39 0.024032 -1.129042 0.017807 -0.018074 0.000000 0.000001
    40 0.014898 -0.883989 -0.019848 -0.060801 0.000000 0.000000
    41 -0.586770 -1.264477 0.200161 -0.152092 -0.410513 -2.814816
    42 1.522835 0.058681 0.016848 0.001410 0.008985 -0.046880
    43 1.117947 0.048424 -0.005766 -0.000243 -0.025198 0.065422
    44 -0.139399 -0.111698 0.014397 0.285382 -0.030687 1.580508
    45 -1.393470 8.839177 -0.239433 1.580804 -0.005023 -1.566847
  time 27
    0 0.000201 1.628956 0.541027 0.000000 0.000000 0.000000
    1 6.240437 2.154909 -4.294980 0.530843 -1.655696 -0.687662
    2 -0.071918 -8.498730 -0.104137 0.070436 0.153326 -0.533004
    3 0.808075 -4.830654 0.756952 -3.093769 -0.027141 0.489699
    4 0.000000 0.000000 0.000000 0.000001 0.000000 0.000001
    5 0.703327 -0.536058 -0.000002 0.000001 0.000000 3.141592
    6 0.811626 3.081007 -0.000004 0.000000 0.000001 1.570796
    7 -1.722647 -1.260210 0.000000 0.000000 0.000000 0.000000
    8 0.000001 -0.000002 0.000001 0.000000 0.000000 0.000000
    9 2.976683 0.597730 -0.000001 0.000000 0.000000 -1.570795
    10 1.257180 8.762585 -0.153713 -1.570562 0.002683 -1.566807
    11 -0.488518 -2.755602 -0.228260 -1.320406 -0.050058 -0.542545
    12 0.039887 -1.479790 0.029854 -1.116032 0.000000 0.000001
    13 0.028786 -1.075731 -0.023109 -0.846131 0.000000 0.000000
    14 0.250027 -2.820665 -0.238396 -1.045333 -0.016104 -0.535887
    15 -0.049759 -1.680544 0.100479 -1.429528 0.000000 -0.000002
    16 -0.034142 -1.148312 0.084782 -0.961988 0.000000 0.000000
    17 0.957766 -2.746780 -0.090302 -0.092572 -0.053241 -0.151920
    18 -0.033420 -1.397129 -0.011257 -1.002356 0.000000 -0.000001
    19 -0.022360 -0.957436 0.018784 -1.170201 0.000000 0.000000
    20 -1.180681 -2.507217 -0.193859 -1.268303 0.093255 -0.598552
    21 -0.024967 -1.123934 0.017597 -0.855885 0.000000 0.000001
    22 -0.020057 -0.890968 0.010090 -0.795994 0.000000 0.000000
    23 0.583510 -1.197277 0.185379 -0.067153 -0.750033 -0.339554
    24 1.535927 0.010246 0.005009 -0.002964 -0.012979 -0.667594
    25 1.100771 0.004527 -0.010679 -0.015596 0.004420 -1.118029
    26 0.120153 -0.050270 -0.054489 -2.836526 0.027563 -1.256054
    27 -9.310107 17.808506 -17.763544 0.004984 -3.131565 -1.566847
    28 0.096944 -8.450418 -0.009365 -0.032965 -0.297907 -0.004663
    29 0.447953 -2.798986 -0.200443 0.106456 -0.010396 0.265094
    30 -0.032909 -1.480204 0.004940 -0.055403 0.000000 0.000002
    31 -0.027022 -1.076920 -0.020210 0.002094 0.000000 0.000000
    32 -0.249534 -2.846964 -0.174213 0.041903 -0.000125 -0.008396
    33 0.043235 -1.683941 0.096012 0.019757 0.002823 -0.000167
    34 0.031729 -1.160830 0.058838 -0.040181 0.000642 0.008372
    35 -0.963866 -2.785145 -0.085350 -0.017227 0.162276 -0.191556
    36 0.028479 -1.403067 0.006271 0.013941 0.000000 0.000000
    37 0.021413 -0.957781 0.020046 0.003851 0.000000 0.000000
    38 1.164475 -2.543940 -0.170330 0.083003 -0.013294 0.477915
    39 0.024032 -1.129042 0.017807 -0.018074 0.000000 0.000001
    40 0.014898 -0.883989 -0.019848 -0.060801 0.000000 0.000000
    41 -0.586770 -1.264477 0.200161 -0.152092 -0.410513 -2.814816
    42 1.522835 0.058681 0.016848 0.001410 0.008985 -0.046880
    43 1.117947 0.048424 -0.005766 -0.000243 -0.025198 0.065422
    44 -0.139399 -0.111698 0.014397 0.285382 -0.030687 1.580508
    45 -1.393470 8.839177 -0.239433 1.580804 -0.005023 -1.566847
  time 28
    0 0.000201 1.628956 0.541027 0.000000 0.000000 0.000000
    1 6.326377 2.197879 -4.513737 0.756879 -1.659215 -0.915318
    2 -0.071918 -8.498730 -0.104137 0.070980 0.145008 -0.526630
    3 0.808075 -4.830654 0.756952 -3.093769 -0.027141 0.489699
    4 0.000000 0.000000 0.000000 0.000001 0.000000 0.000001
    5 0.703327 -0.536058 -0.000002 0.000001 0.000000 3.141592
    6 0.811626 3.081007 -0.000004 0.000000 0.000001 1.570796
    7 -1.722647 -1.260210 0.000000 0.000000 0.000000 0.000000
    8 0.000001 -0.000002 0.000001 0.000000 0.000000 0.000000
    9 2.976683 0.597730 -0.000001 0.000000 0.000000 -1.570795
    10 1.257180 8.762585 -0.153713 -1.570562 0.002683 -1.566807
    11 -0.488518 -2.755602 -0.228260 -1.320406 -0.050058 -0.542545
    12 0.039887 -1.479790 0.029854 -1.116032 0.000000 0.000001
    13 0.028786 -1.075731 -0.023109 -0.846157 0.000000 0.000000
    14 0.250027 -2.820665 -0.238396 -1.045333 -0.016104 -0.535887
    15 -0.049759 -1.680544 0.100479 -1.429528 0.000000 -0.000002
    16 -0.034142 -1.148312 0.084782 -0.961988 0.000000 0.000000
    17 0.957766 -2.746780 -0.090302 -0.092572 -0.053241 -0.151920
    18 -0.033420 -1.397129 -0.011257 -1.002356 0.000000 -0.000001
    19 -0.022360 -0.957436 0.018784 -1.170201 0.000000 0.000000
    20 -1.180681 -2.507217 -0.193859 -1.268303 0.093255 -0.598552
    21 -0.024967 -1.123934 0.017597 -0.855885 0.000000 0.000001
    22 -0.020057 -0.890968 0.010090 -0.795994 0.000000 0.000000
    23 0.583510 -1.197277 0.185379 -0.067153 -0.750033 -0.339554
    24 1.535927 0.010246 0.005009 -0.002964 -0.012979 -0.667594
    25 1.100771 0.004527 -0.010679 -0.015596 0.004420 -1.118029
    26 0.120153 -0.050270 -0.054489 -2.836526 0.027563 -1.256054
    27 -9.310107 17.808506 -17.763544 0.004984 -3.131565 -1.566847
    28 0.096944 -8.450418 -0.009365 -0.032965 -0.297907 -0.004663
    29 0.447953 -2.798986 -0.200443 0.106456 -0.010396 0.265094
    30 -0.032909 -1.480204 0.004940 -0.055403 0.000000 0.000002
    31 -0.027022 -1.076920 -0.020210 0.002094 0.000000 0.000000
    32 -0.249534 -2.846964 -0.174213 0.041903 -0.000125 -0.008396
    33 0.043235 -1.683941 0.096012 0.019757 0.002823 -0.000167
    34 0.031729 -1.160830 0.058838 -0.040181 0.000642 0.008372
    35 -0.963866 -2.785145 -0.085350 -0.017227 0.162276 -0.191556
    36 0.028479 -1.403067 0.006271 0.013941 0.000000 0.000000
    37 0.021413 -0.957781 0.020046 0.003851 0.000000 0.000000
    38 1.164475 -2.543940 -0.170330 0.083003 -0.013294 0.477915
    39 0.024032 -1.129042 0.017807 -0.018074 0.000000 0.000001
    40 0.014898 -0.883989 -0.019848 -0.060801 0.000000 0.000000
    41 -0.586770 -1.264477 0.200161 -0.152092 -0.410513 -2.814816
    42 1.522835 0.058681 0.016848 0.001410 0.008985 -0.046880
    43 1.117947 0.048424 -0.005766 -0.000243 -0.025198 0.065422
    44 -0.139399 -0.111698 0.014397 0.285382 -0.030687 1.580508
    45 -1.393470 8.839177 -0.239433 1.580804 -0.005023 -1.566847
  time 29
    0 0.000201 1.628956 0.541027 0.000000 0.000000 0.000000
    1 6.408411 2.229130 -4.767651 0.963508 -1.666618 -1.122844
    2 -0.071918 -8.498730 -0.104137 0.070506 0.135912 -0.520463
    3 0.808075 -4.830654 0.756952 -3.093769 -0.027141 0.489699
    4 0.000000 0.000000 0.000000 0.000001 0.000000 0.000001
    5 0.703327 -0.536058 -0.000002 0.000001 0.000000 3.141592
    6 0.811626 3.081007 -0.000004 0.000000 0.000001 1.570796
    7 -1.722647 -1.260210 0.000000 0.000000 0.000000 0.000000
    8 0.000001 -0.000002 0.000001 0.000000 0.000000 0.000000
    9 2.976683 0.597730 -0.000001 0.000000 0.000000 -1.570795
    10 1.257180 8.762585 -0.153713 -1.570562 0.002683 -1.566807
    11 -0.488518 -2.755602 -0.228260 -1.320406 -0.050058 -0.542545
    12 0.039887 -1.479790 0.029854 -1.116032 0.000000 0.000001
    13 0.028786 -1.075731 -0.023109 -0.846157 0.000000 0.000000
    14 0.250027 -2.820665 -0.238396 -1.045333 -0.016104 -0.535887
    15 -0.049759 -1.680544 0.100479 -1.429528 0.000000 -0.000002
    16 -0.034142 -1.148312 0.084782 -0.961988 0.000000 0.000000
    17 0.957766 -2.746780 -0.090302 -0.092572 -0.053241 -0.151920
    18 -0.033420 -1.397129 -0.011257 -1.002356 0.000000 -0.000001
    19 -0.022360 -0.957436 0.018784 -1.170201 0.000000 0.000000
    20 -1.180681 -2.507217 -0.193859 -1.268344 0.093255 -0.598552
    21 -0.024967 -1.123934 0.017597 -0.855885 0.000000 0.000001
    22 -0.020057 -0.890968 0.010090 -0.795994 0.000000 0.000000
    23 0.583510 -1.197277 0.185379 -0.067153 -0.750033 -0.339554
    24 1.535927 0.010246 0.005009 -0.002964 -0.012979 -0.667594
    25 1.100771 0.004527 -0.010679 -0.015596 0.004420 -1.118029
    26 0.120153 -0.050270 -0.054489 -2.836526 0.027563 -1.256054
    27 -9.310107 17.808506 -17.763544 0.004984 -3.131565 -1.566847
    28 0.096944 -8.450418 -0.009365 -0.032965 -0.297907 -0.004663
    29 0.447953 -2.798986 -0.200443 0.106456 -0.010396 0.265094
    30 -0.032909 -1.480204 0.004940 -0.055403 0.000000 0.000002
    31 -0.027022 -1.076920 -0.020210 0.002094 0.000000 0.000000
    32 -0.249534 -2.846964 -0.174213 0.041903 -0.000125 -0.008396
    33 0.043235 -1.683941 0.096012 0.019757 0.002823 -0.000167
    34 0.031729 -1.160830 0.058838 -0.040181 0.000642 0.008372
    35 -0.963866 -2.785145 -0.085350 -0.017227 0.162276 -0.191556
    36 0.028479 -1.403067 0.006271 0.013941 0.000000 0.000000
    37 0.021413 -0.957781 0.020046 0.003851 0.000000 0.000000
    38 1.164475 -2.543940 -0.170330 0.083003 -0.013294 0.477915
    39 0.024032 -1.129042 0.017807 -0.018074 0.000000 0.000001
    40 0.014898 -0.883989 -0.019848 -0.060801 0.000000 0.000000
    41 -0.586770 -1.264477 0.200161 -0.152092 -0.410513 -2.814816
    42 1.522835 0.058681 0.016848 0.001410 0.008985 -0.046880
    43 1.117947 0.048424 -0.005766 -0.000243 -0.025198 0.065422
    44 -0.139399 -0.111698 0.014397 0.285382 -0.030687 1.580508
    45 -1.393470 8.839177 -0.239433 1.580804 -0.005023 -1.566847
  time 30
    0 0.000201 1.628956 0.541027 0.000000 0.000000 0.000000
    1 6.486538 2.252568 -5.037190 1.120885 -1.677601 -1.282553
    2 -0.071918 -8.498730 -0.104137 0.071901 0.128374 -0.513984
    3 0.808075 -4.830654 0.756952 -3.093769 -0.027141 0.489699
    4 0.000000 0.000000 0.000000 0.000001 0.000000 0.000001
    5 0.703327 -0.536058 -0.000002 0.000001 0.000000 3.141592
    6 0.811626 3.081007 -0.000004 0.000000 0.000001 1.570796
    7 -1.722647 -1.260210 0.000000 0.000000 0.000000 0.000000
    8 0.000001 -0.000002 0.000001 0.000000 0.000000 0.000000
    9 2.976683 0.597730 -0.000001 0.000000 0.000000 -1.570795
    10 1.257180 8.762585 -0.153713 -1.570562 0.002683 -1.566807
    11 -0.488518 -2.755602 -0.228260 -1.320406 -0.050058 -0.542545
    12 0.039887 -1.479790 0.029854 -1.116032 0.000000 0.000001
    13 0.028786 -1.075731 -0.023109 -0.846131 0.000000 0.000000
    14 0.250027 -2.820665 -0.238396 -1.045333 -0.016104 -0.535887
    15 -0.049759 -1.680544 0.100479 -1.429528 0.000000 -0.000002
    16 -0.034142 -1.148312 0.084782 -0.961988 0.000000 0.000000
    17 0.957766 -2.746780 -0.090302 -0.092572 -0.053241 -0.151920
    18 -0.033420 -1.397129 -0.011257 -1.002356 0.000000 -0.000001
    19 -0.022360 -0.957436 0.018784 -1.170201 0.000000 0.000000
    20 -1.180681 -2.507217 -0.193859 -1.268303 0.093255 -0.598552
    21 -0.024967 -1.123934 0.017597 -0.855885 0.000000 0.000001
    22 -0.020057 -0.890968 0.010090 -0.795994 0.000000 0.000000
    23 0.583510 -1.197277 0.185379 -0.067153 -0.750033 -0.339554
    24 1.535927 0.010246 0.005009 -0.002964 -0.012979 -0.667594
    25 1.100771 0.004527 -0.010679 -0.015596 0.004420 -1.118029
    26 0.120153 -0.050270 -0.054489 -2.836526 0.027563 -1.256054
    27 -9.310107 17.808506 -17.763544 0.004984 -3.131565 -1.566847
    28 0.096944 -8.450418 -0.009365 -0.032965 -0.297907 -0.004663
    29 0.447953 -2.798986 -0.200443 0.106456 -0.010396 0.265094
    30 -0.032909 -1.480204 0.004940 -0.055403 0.000000 0.000002
    31 -0.027022 -1.076920 -0.020210 0.002094 0.000000 0.000000
    32 -0.249534 -2.846964 -0.174213 0.041903 -0.000125 -0.008396
    33 0.043235 -1.683941 0.096012 0.019757 0.002823 -0.000167
    34 0.031729 -1.160830 0.058838 -0.040181 0.000642 0.008372
    35 -0.963866 -2.785145 -0.085350 -0.017227 0.162276 -0.191556
    36 0.028479 -1.403067 0.006271 0.013941 0.000000 0.000000
    37 0.021413 -0.957781 0.020046 0.003851 0.000000 0.000000
    38 1.164475 -2.543940 -0.170330 0.083003 -0.013294 0.477915
    39 0.024032 -1.129042 0.017807 -0.018074 0.000000 0.000001
    40 0.014898 -0.883989 -0.019848 -0.060801 0.000000 0.000000
    41 -0.586770 -1.264477 0.200161 -0.152092 -0.410513 -2.814816
    42 1.522835 0.058681 0.016848 0.001410 0.008985 -0.046880
    43 1.117947 0.048424 -0.005766 -0.000243 -0.025198 0.065422
    44 -0.139399 -0.111698 0.014397 0.285382 -0.030687 1.580508
    45 -1.393470 8.839177 -0.239433 1.580804 -0.005023 -1.566847
end
