version 1
nodes
  0 "bufffiveseven_root" -1
  1 "bone_R" 0
  2 "bone_R01" 1
  3 "bone_R02" 1
  4 "bone_R03" 1
  5 "triger" 0
  6 "magazine" 0
  7 "bone_L" 0
  8 "bone_L01" 7
  9 "bone_L02" 7
  10 "bone_L03" 7
  11 "bone_up" 0
  12 "bone_up01" 11
  13 "bone_up02" 11
  14 "bone_up03" 11
  15 "bone_up_r" 11
  16 "bone_up_l" 11
  17 "bone_slide" 0
  18 "bone_slide_cover" 17
  19 "bone_up2" 0
  20 "smoke01" 0
  21 "smoke_mesh01" 20
  22 "smoke02" 0
  23 "smoke_mesh02" 22
  24 "muzzle" 0
  25 "muzzle_bone001" 24
  26 "muzzle_bone002" 24
  27 "muzzle_bone003" 24
  28 "muzzle_bone004" 24
  29 "root" -1
  30 "Bone01" 29
  31 "Bone_L_Upper" 30
  32 "Bone_Lefthand" 30
  33 "Bone13" 32
  34 "Bone14" 33
  35 "Bone15" 34
  36 "Bone17" 32
  37 "Bone18" 36
  38 "Bone19" 37
  39 "Bone21" 32
  40 "Bone22" 39
  41 "Bone23" 40
  42 "Bone09" 32
  43 "Bone10" 42
  44 "Bone11" 43
  45 "Bone05" 32
  46 "Bone06" 45
  47 "Bone07" 46
  48 "Bone_Se_Hand-L" 32
  49 "Bone04" 29
  50 "Bone_Righthand" 49
  51 "Bone39" 50
  52 "Bone40" 51
  53 "Bone41" 52
  54 "Bone35" 50
  55 "Bone36" 54
  56 "Bone37" 55
  57 "Bone31" 50
  58 "Bone32" 57
  59 "Bone33" 58
  60 "Bone43" 50
  61 "Bone44" 60
  62 "Bone45" 61
  63 "Bone27" 50
  64 "Bone28" 63
  65 "Bone29" 64
  66 "Bone_Se_Hand-R" 50
  67 "Bone_R_Upper" 49
end
skeleton
  time 0
    0 6.467639 -12.642313 -4.360943 1.570796 0.000000 -0.000071
    1 -1.064977 0.427841 3.494147 -1.570789 1.456595 -2.443453
    2 0.631628 -0.525761 0.000000 -0.000001 0.000000 -1.216116
    3 -0.359356 -0.525757 0.000000 -0.000001 0.000000 -1.216146
    4 -1.349792 -0.525757 0.000000 -0.000001 0.000000 -1.216138
    5 0.000000 0.444557 -0.150236 -1.570796 3.141592 1.570796
    6 0.000000 0.444557 -1.633967 -1.570796 2.879793 1.570796
    7 1.065000 0.427841 3.494147 -1.570792 -1.684999 -0.698137
    8 -0.631627 0.525760 0.000000 0.000000 0.000000 -1.216121
    9 0.359358 0.525757 0.000000 0.000000 0.000000 -1.216121
    10 1.349793 0.525756 0.000000 0.000000 0.000000 -1.216121
    11 0.000000 3.572344 -1.826118 0.000000 -1.570796 0.000000
    12 4.055391 0.787430 -0.000001 0.000001 0.000000 -4.011944
    13 5.638199 0.787432 -0.000001 0.000001 0.000000 -4.011944
    14 7.208800 0.787434 -0.000002 0.000001 0.000000 -4.011944
    15 7.161302 -0.436564 0.784994 -3.141591 -1.570451 0.000000
    16 7.161302 -0.436564 -0.723080 -3.141592 1.570796 0.000000
    17 0.000000 1.803919 -3.985617 0.000000 -1.570796 0.000000
    18 4.656112 0.438828 0.399058 1.570796 0.000000 -1.570796
    19 0.000000 3.600132 0.239865 -1.570796 0.698132 1.570796
    20 -0.624302 5.320284 0.532680 -1.570796 0.000000 0.000000
    21 0.000001 49.921204 -0.000001 1.570796 0.000000 0.000000
    22 -2.098057 0.171298 1.780126 -1.570796 0.000000 0.000000
    23 0.000002 49.921204 -0.000001 1.570796 0.000000 0.000000
    24 0.001787 1.627478 -66.965790 -1.570796 0.000000 0.000000
    25 11.764790 0.000004 5.034005 -0.000001 0.000001 1.570796
    26 -16.920902 -0.000004 5.034000 -0.000001 0.000001 1.570796
    27 -16.920902 -0.000004 -4.642414 -0.000001 0.000001 1.570796
    28 11.764790 0.000004 -4.642411 -0.000001 0.000001 1.570796
    29 0.356633 0.420623 -0.003287 0.000000 0.000000 0.000000
    30 8.825714 0.130239 -5.003041 6.084974 -1.973533 -0.018954
    31 2.151739 8.356322 -0.251372 1.545868 -3.136717 1.482755
    32 -0.032857 -8.494830 -0.084602 0.089914 0.481238 0.146456
    33 -0.488518 -2.755602 -0.228260 -0.242250 0.060691 -0.057732
    34 0.039887 -1.538386 0.018135 -1.634715 -0.010403 0.036650
    35 0.028786 -1.134327 -0.109049 -0.791875 -0.013746 0.015532
    36 0.250027 -2.820665 -0.238396 -0.313985 0.018280 -0.085804
    37 -0.049759 -1.602417 0.049696 -1.312011 0.004662 -0.036064
    38 -0.034142 -1.175657 0.045718 -1.263217 0.005489 -0.033341
    39 0.957766 -2.746780 -0.090302 0.167150 -0.150256 0.099289
    40 -0.033420 -1.393223 -0.019070 -0.517862 0.008329 -0.025205
    41 -0.022360 -0.957436 0.007065 -0.527930 0.007982 -0.025323
    42 -1.180681 -2.507217 -0.193859 -0.150629 0.142428 -0.022092
    43 -0.024967 -1.123934 0.017597 -0.759797 0.006951 -0.032333
    44 -0.020057 -0.906594 0.037435 -1.162008 0.002397 -0.047687
    45 0.603042 -1.197277 0.181473 0.666402 -0.922572 -1.051051
    46 1.504676 -0.177260 -0.006710 0.213418 0.065484 -0.624307
    47 1.049988 -0.147821 0.032291 0.039018 -0.188604 -0.767764
    48 0.120153 -0.050270 -0.054489 0.287569 3.110905 1.561085
    49 0.315187 -2.586648 -10.630514 -1.857769 -5.234742 -1.410544
    50 0.050068 -8.407448 0.002354 0.087353 -0.354933 0.440347
    51 0.447953 -2.798986 -0.200443 -0.244423 -0.056549 0.060325
    52 -0.032909 -1.499736 0.024472 -1.286538 0.022998 -0.023524
    53 -0.027022 -1.096452 -0.028023 -0.524788 0.013722 -0.005621
    54 -0.249534 -2.846964 -0.174213 -0.316339 -0.019324 0.076958
    55 0.043235 -1.656596 0.076480 -1.215719 -0.019648 0.004291
    56 0.031729 -1.149111 0.058838 -0.758918 -0.007903 0.005292
    57 -0.963866 -2.785145 -0.085350 -0.133536 0.264013 -0.032832
    58 0.028479 -1.403067 -0.009354 -0.611716 -0.012368 -0.024940
    59 0.021413 -0.942156 0.012233 -1.051190 -0.028955 -0.035163
    60 1.164475 -2.543940 -0.170330 -0.166618 -0.161408 -0.083733
    61 0.024032 -1.136855 -0.001725 -0.791002 0.004494 0.042151
    62 0.014898 -0.903521 -0.015942 -1.038460 0.010007 0.051857
    63 -0.586770 -1.264477 0.200161 -0.200107 -0.096960 -2.129319
    64 1.530648 0.054775 0.009035 0.154202 -0.079651 0.158040
    65 1.106228 0.052330 -0.001860 0.312988 -0.289446 0.975216
    66 -0.139399 -0.111698 0.014397 0.285382 -0.030687 1.580508
    67 -1.877860 8.909492 -0.309748 1.610346 -0.009098 -1.520335
  time 1
    0 6.471546 -12.626688 -4.224220 1.559839 0.012653 -0.002096
    1 -1.064977 0.427841 3.494147 -1.570789 1.456595 -2.443453
    2 0.631628 -0.525761 0.000000 -0.000001 0.000000 -1.216116
    3 -0.359356 -0.525757 0.000000 -0.000001 0.000000 -1.216146
    4 -1.349792 -0.525757 0.000000 -0.000001 0.000000 -1.216138
    5 0.000000 0.444557 -0.150236 -1.570796 3.141592 1.570796
    6 0.000000 0.444557 -1.633967 -1.570796 2.879793 1.570796
    7 1.065000 0.427841 3.494147 -1.570792 -1.684999 -0.698137
    8 -0.631627 0.525760 0.000000 0.000000 0.000000 -1.216121
    9 0.359358 0.525757 0.000000 0.000000 0.000000 -1.216121
    10 1.349793 0.525756 0.000000 0.000000 0.000000 -1.216121
    11 0.000000 3.572344 -1.826118 0.000000 -1.570796 0.000000
    12 4.055391 0.787430 -0.000001 0.000001 0.000000 -4.011944
    13 5.638199 0.787432 -0.000001 0.000001 0.000000 -4.011944
    14 7.208800 0.787434 -0.000002 0.000001 0.000000 -4.011944
    15 7.161302 -0.436564 0.784994 -3.141591 -1.570451 0.000000
    16 7.161302 -0.436564 -0.723080 -3.141592 1.570796 0.000000
    17 0.000000 1.803919 -3.985617 0.000000 -1.570796 0.000000
    18 4.656112 0.438828 0.399058 1.570796 0.000000 -1.570796
    19 0.000000 3.150899 -0.295308 -1.570796 0.698132 1.570796
    20 -0.624302 5.320284 0.532680 -1.570796 0.000000 0.000000
    21 0.000001 49.921204 -0.000001 1.570796 0.000000 0.000000
    22 -2.098057 0.171298 1.780126 -1.570796 0.000000 0.000000
    23 0.000002 49.921204 -0.000001 1.570796 0.000000 0.000000
    24 0.001787 1.627478 -66.965790 -1.570796 0.000000 0.000000
    25 11.764790 0.000004 5.034005 -0.000001 0.000001 1.570796
    26 -16.920902 -0.000004 5.034000 -0.000001 0.000001 1.570796
    27 -16.920902 -0.000004 -4.642414 -0.000001 0.000001 1.570796
    28 11.764790 0.000004 -4.642411 -0.000001 0.000001 1.570796
    29 0.356633 0.420623 -0.003287 0.000000 0.000000 0.000000
    30 8.829620 0.134146 -4.991321 6.103893 -1.973972 -0.036851
    31 2.151739 8.356322 -0.251372 1.545868 -3.136717 1.482755
    32 -0.028951 -8.494830 -0.080696 0.092063 0.492899 0.153973
    33 -0.488518 -2.755602 -0.228260 -0.242250 0.060691 -0.057732
    34 0.039887 -1.538386 0.018135 -1.634715 -0.010403 0.036650
    35 0.028786 -1.134327 -0.109049 -0.791875 -0.013746 0.015532
    36 0.250027 -2.820665 -0.238396 -0.313985 0.018280 -0.085804
    37 -0.049759 -1.602417 0.049696 -1.312011 0.004662 -0.036064
    38 -0.034142 -1.175657 0.045718 -1.263217 0.005489 -0.033341
    39 0.957766 -2.746780 -0.090302 0.167150 -0.150256 0.099289
    40 -0.033420 -1.393223 -0.019070 -0.517862 0.008329 -0.025205
    41 -0.022360 -0.957436 0.007065 -0.527930 0.007982 -0.025323
    42 -1.180681 -2.507217 -0.193859 -0.150629 0.142428 -0.022092
    43 -0.024967 -1.123934 0.017597 -0.759797 0.006951 -0.032333
    44 -0.020057 -0.906594 0.037435 -1.162008 0.002397 -0.047687
    45 0.603042 -1.197277 0.181473 0.666402 -0.922572 -1.051051
    46 1.504676 -0.177260 -0.006710 0.213418 0.065484 -0.624307
    47 1.049988 -0.147821 0.032291 0.039018 -0.188604 -0.767764
    48 0.120153 -0.050270 -0.054489 0.287569 3.110905 1.561085
    49 0.330812 -2.633524 -10.595357 -1.851808 -5.246782 -1.406757
    50 0.053974 -8.403542 0.002354 0.085856 -0.339018 0.448307
    51 0.447953 -2.798986 -0.200443 -0.244423 -0.056549 0.060325
    52 -0.032909 -1.499736 0.024472 -1.286538 0.022998 -0.023524
    53 -0.027022 -1.096452 -0.028023 -0.524788 0.013722 -0.005621
    54 -0.249534 -2.846964 -0.174213 -0.316339 -0.019324 0.076958
    55 0.043235 -1.656596 0.076480 -1.215719 -0.019648 0.004291
    56 0.031729 -1.149111 0.058838 -0.758918 -0.007903 0.005292
    57 -0.963866 -2.785145 -0.085350 -0.133536 0.264013 -0.032832
    58 0.028479 -1.403067 -0.009354 -0.611716 -0.012368 -0.024940
    59 0.021413 -0.942156 0.012233 -1.051190 -0.028955 -0.035163
    60 1.164475 -2.543940 -0.170330 -0.166618 -0.161408 -0.083733
    61 0.024032 -1.136855 -0.001725 -0.791002 0.004494 0.042151
    62 0.014898 -0.903521 -0.015942 -1.038460 0.010007 0.051857
    63 -0.586770 -1.264477 0.200161 -0.200107 -0.096960 -2.129319
    64 1.530648 0.054775 0.009035 0.154202 -0.079651 0.158040
    65 1.106228 0.052330 -0.001860 0.312988 -0.289446 0.975216
    66 -0.139399 -0.111698 0.014397 0.285382 -0.030687 1.580508
    67 -1.877860 8.909492 -0.309748 1.610346 -0.009098 -1.520335
  time 2
    0 6.479359 -12.611063 -4.103122 1.549809 0.025338 -0.004364
    1 -1.064977 0.427841 3.494147 -1.570789 1.456595 -2.443453
    2 0.631628 -0.525761 0.000000 -0.000001 0.000000 -1.216116
    3 -0.359356 -0.525757 0.000000 -0.000001 0.000000 -1.216146
    4 -1.349792 -0.525757 0.000000 -0.000001 0.000000 -1.216138
    5 0.000000 0.444557 -0.150236 -1.570796 3.141592 1.570796
    6 0.000000 0.444557 -1.633967 -1.570796 2.879793 1.570796
    7 1.065000 0.427841 3.494147 -1.570792 -1.684999 -0.698137
    8 -0.631627 0.525760 0.000000 0.000000 0.000000 -1.216121
    9 0.359358 0.525757 0.000000 0.000000 0.000000 -1.216121
    10 1.349793 0.525756 0.000000 0.000000 0.000000 -1.216121
    11 0.000000 3.572344 -1.826118 0.000000 -1.570796 0.000000
    12 4.055391 0.787430 -0.000001 0.000001 0.000000 -4.011944
    13 5.638199 0.787432 -0.000001 0.000001 0.000000 -4.011944
    14 7.208800 0.787434 -0.000002 0.000001 0.000000 -4.011944
    15 7.161302 -0.436564 0.542799 -3.141591 -1.570451 0.000000
    16 7.161302 -0.436564 -0.539481 -3.141592 1.570796 0.000000
    17 0.000000 1.803919 -3.985617 0.000000 -1.570796 0.000000
    18 4.656112 0.438828 0.399058 1.570796 0.000000 -1.570796
    19 0.000000 2.705573 -0.826574 -1.570796 0.698132 1.570796
    20 -0.624302 5.320284 0.532680 -1.570796 0.000000 0.000000
    21 0.000001 49.921204 -0.000001 1.570796 0.000000 0.000000
    22 -2.098057 0.171298 1.780126 -1.570796 0.000000 0.000000
    23 0.000002 49.921204 -0.000001 1.570796 0.000000 0.000000
    24 0.001787 1.627478 -66.965790 -1.570796 0.000000 0.000000
    25 11.764790 0.000004 5.034005 -0.000001 0.000001 1.570796
    26 -16.920902 -0.000004 5.034000 -0.000001 0.000001 1.570796
    27 -16.920902 -0.000004 -4.642414 -0.000001 0.000001 1.570796
    28 11.764790 0.000004 -4.642411 -0.000001 0.000001 1.570796
    29 0.356633 0.420623 -0.003287 0.000000 0.000000 0.000000
    30 8.833526 0.134146 -4.987415 6.119754 -1.974498 -0.051907
    31 2.151739 8.356322 -0.251372 1.545868 -3.136717 1.482755
    32 -0.028951 -8.498736 -0.080696 0.094400 0.504512 0.161798
    33 -0.488518 -2.755602 -0.228260 -0.242250 0.060691 -0.057732
    34 0.039887 -1.538386 0.018135 -1.634715 -0.010403 0.036650
    35 0.028786 -1.134327 -0.109049 -0.791875 -0.013746 0.015532
    36 0.250027 -2.820665 -0.238396 -0.313985 0.018280 -0.085804
    37 -0.049759 -1.602417 0.049696 -1.312011 0.004662 -0.036064
    38 -0.034142 -1.175657 0.045718 -1.263217 0.005489 -0.033341
    39 0.957766 -2.746780 -0.090302 0.167150 -0.150256 0.099289
    40 -0.033420 -1.393223 -0.019070 -0.517862 0.008329 -0.025205
    41 -0.022360 -0.957436 0.007065 -0.527930 0.007982 -0.025323
    42 -1.180681 -2.507217 -0.193859 -0.150629 0.142428 -0.022092
    43 -0.024967 -1.123934 0.017597 -0.759797 0.006951 -0.032333
    44 -0.020057 -0.906594 0.037435 -1.162008 0.002397 -0.047687
    45 0.603042 -1.197277 0.181473 0.666402 -0.922572 -1.051051
    46 1.504676 -0.177260 -0.006710 0.213418 0.065484 -0.624307
    47 1.049988 -0.147821 0.032291 0.039018 -0.188604 -0.767764
    48 0.120153 -0.050270 -0.054489 0.287569 3.110905 1.561085
    49 0.342531 -2.676494 -10.564106 -1.846496 -5.257825 -1.403349
    50 0.053974 -8.403542 -0.001552 0.084538 -0.323402 0.455976
    51 0.447953 -2.798986 -0.200443 -0.244423 -0.056549 0.060325
    52 -0.032909 -1.499736 0.024472 -1.286538 0.022998 -0.023524
    53 -0.027022 -1.096452 -0.028023 -0.524788 0.013722 -0.005621
    54 -0.249534 -2.846964 -0.174213 -0.316339 -0.019324 0.076958
    55 0.043235 -1.656596 0.076480 -1.215719 -0.019648 0.004291
    56 0.031729 -1.149111 0.058838 -0.758918 -0.007903 0.005292
    57 -0.963866 -2.785145 -0.085350 -0.133536 0.264013 -0.032832
    58 0.028479 -1.403067 -0.009354 -0.611716 -0.012368 -0.024940
    59 0.021413 -0.942156 0.012233 -1.051190 -0.028955 -0.035163
    60 1.164475 -2.543940 -0.170330 -0.166618 -0.161408 -0.083733
    61 0.024032 -1.136855 -0.001725 -0.791002 0.004494 0.042151
    62 0.014898 -0.903521 -0.015942 -1.038460 0.010007 0.051857
    63 -0.586770 -1.264477 0.200161 -0.200107 -0.096960 -2.129319
    64 1.530648 0.054775 0.009035 0.154202 -0.079651 0.158040
    65 1.106228 0.052330 -0.001860 0.312988 -0.289446 0.975216
    66 -0.139399 -0.111698 0.014397 0.285382 -0.030687 1.580508
    67 -1.877860 8.909492 -0.309748 1.610346 -0.009098 -1.520335
  time 3
    0 6.479359 -12.622782 -4.212501 1.557858 0.020469 -0.003068
    1 -1.064977 0.427841 3.494147 -1.570789 1.456595 -2.443453
    2 0.631628 -0.525761 0.000000 -0.000001 0.000000 -1.216116
    3 -0.359356 -0.525757 0.000000 -0.000001 0.000000 -1.216146
    4 -1.349792 -0.525757 0.000000 -0.000001 0.000000 -1.216138
    5 0.000000 0.444557 -0.150236 -1.570796 3.141592 1.570796
    6 0.000000 0.444557 -1.633967 -1.570796 2.879793 1.570796
    7 1.065000 0.427841 3.494147 -1.570792 -1.684999 -0.698137
    8 -0.631627 0.525760 0.000000 0.000000 0.000000 -1.216121
    9 0.359358 0.525757 0.000000 0.000000 0.000000 -1.216121
    10 1.349793 0.525756 0.000000 0.000000 0.000000 -1.216121
    11 0.000000 3.560625 -2.654268 0.000000 -1.570796 0.000000
    12 4.055391 0.787430 -0.000001 0.000001 0.000000 -4.011944
    13 5.638199 0.787432 -0.000001 0.000001 0.000000 -4.011944
    14 7.208800 0.787434 -0.000002 0.000001 0.000000 -4.011944
    15 7.161302 -0.436564 0.542799 -3.141591 -1.570451 0.000000
    16 7.161302 -0.436564 -0.539481 -3.141592 1.570796 0.000000
    17 0.000000 1.803919 -3.985617 0.000000 -1.570796 0.000000
    18 4.656112 0.438828 0.399058 1.570796 0.000000 -1.570796
    19 0.000000 2.705573 -0.826574 -1.570796 0.698132 1.570796
    20 -0.624302 5.320284 0.532680 -1.570796 0.000000 0.000000
    21 0.000001 49.921204 -0.000001 1.570796 0.000000 0.000000
    22 -2.098057 0.171298 1.780126 -1.570796 0.000000 0.000000
    23 0.000002 49.921204 -0.000001 1.570796 0.000000 0.000000
    24 0.001787 1.627478 -66.965790 -1.570796 0.000000 0.000000
    25 11.764790 0.000004 5.034005 -0.000001 0.000001 1.570796
    26 -16.920902 -0.000004 5.034000 -0.000001 0.000001 1.570796
    27 -16.920902 -0.000004 -4.642414 -0.000001 0.000001 1.570796
    28 11.764790 0.000004 -4.642411 -0.000001 0.000001 1.570796
    29 0.356633 0.420623 -0.003287 0.000000 0.000000 0.000000
    30 8.825714 0.134146 -4.995228 6.101887 -1.973884 -0.034957
    31 2.151739 8.356322 -0.251372 1.545868 -3.136717 1.482755
    32 -0.028951 -8.498736 -0.080696 0.093615 0.499742 0.159226
    33 -0.488518 -2.755602 -0.228260 -0.242250 0.060691 -0.057732
    34 0.039887 -1.538386 0.018135 -1.634715 -0.010403 0.036650
    35 0.028786 -1.134327 -0.109049 -0.791875 -0.013746 0.015532
    36 0.250027 -2.820665 -0.238396 -0.313985 0.018280 -0.085804
    37 -0.049759 -1.602417 0.049696 -1.312011 0.004662 -0.036064
    38 -0.034142 -1.175657 0.045718 -1.263217 0.005489 -0.033341
    39 0.957766 -2.746780 -0.090302 0.167150 -0.150256 0.099289
    40 -0.033420 -1.393223 -0.019070 -0.517862 0.008329 -0.025205
    41 -0.022360 -0.957436 0.007065 -0.527930 0.007982 -0.025323
    42 -1.180681 -2.507217 -0.193859 -0.150629 0.142428 -0.022092
    43 -0.024967 -1.123934 0.017597 -0.759797 0.006951 -0.032333
    44 -0.020057 -0.906594 0.037435 -1.162008 0.002397 -0.047687
    45 0.603042 -1.197277 0.181473 0.666402 -0.922572 -1.051051
    46 1.504676 -0.177260 -0.006710 0.213418 0.065484 -0.624307
    47 1.049988 -0.147821 0.032291 0.039018 -0.188604 -0.767764
    48 0.120153 -0.050270 -0.054489 0.287569 3.110905 1.561085
    49 0.330812 -2.641337 -10.591450 -1.850686 -5.249190 -1.406378
    50 0.053974 -8.403542 -0.001552 0.085017 -0.331135 0.452288
    51 0.447953 -2.798986 -0.200443 -0.244423 -0.056549 0.060325
    52 -0.032909 -1.499736 0.024472 -1.286538 0.022998 -0.023524
    53 -0.027022 -1.096452 -0.028023 -0.524788 0.013722 -0.005621
    54 -0.249534 -2.846964 -0.174213 -0.316339 -0.019324 0.076958
    55 0.043235 -1.656596 0.076480 -1.215719 -0.019648 0.004291
    56 0.031729 -1.149111 0.058838 -0.758918 -0.007903 0.005292
    57 -0.963866 -2.785145 -0.085350 -0.133536 0.264013 -0.032832
    58 0.028479 -1.403067 -0.009354 -0.611716 -0.012368 -0.024940
    59 0.021413 -0.942156 0.012233 -1.051190 -0.028955 -0.035163
    60 1.164475 -2.543940 -0.170330 -0.166618 -0.161408 -0.083733
    61 0.024032 -1.136855 -0.001725 -0.791002 0.004494 0.042151
    62 0.014898 -0.903521 -0.015942 -1.038460 0.010007 0.051857
    63 -0.586770 -1.264477 0.200161 -0.200107 -0.096960 -2.129319
    64 1.530648 0.054775 0.009035 0.154202 -0.079651 0.158040
    65 1.106228 0.052330 -0.001860 0.312988 -0.289446 0.975216
    66 -0.139399 -0.111698 0.014397 0.285382 -0.030687 1.580508
    67 -1.877860 8.909492 -0.309748 1.610346 -0.009098 -1.520335
  time 4
    0 6.475452 -12.642313 -4.392194 1.571344 0.009930 -0.000881
    1 -1.064977 0.427841 3.494147 -1.570789 1.456595 -2.443453
    2 0.631628 -0.525761 0.000000 -0.000001 0.000000 -1.216116
    3 -0.359356 -0.525757 0.000000 -0.000001 0.000000 -1.216146
    4 -1.349792 -0.525757 0.000000 -0.000001 0.000000 -1.216138
    5 0.000000 0.444557 -0.150236 -1.570796 3.141592 1.570796
    6 0.000000 0.444557 -1.633967 -1.570796 2.879793 1.570796
    7 1.065000 0.427841 3.494147 -1.570792 -1.684999 -0.698137
    8 -0.631627 0.525760 0.000000 0.000000 0.000000 -1.216121
    9 0.359358 0.525757 0.000000 0.000000 0.000000 -1.216121
    10 1.349793 0.525756 0.000000 0.000000 0.000000 -1.216121
    11 0.000000 3.548906 -3.474606 0.000000 -1.570796 0.000000
    12 4.055391 0.787430 -0.000001 0.000001 0.000000 -4.011944
    13 5.638199 0.787432 -0.000001 0.000001 0.000000 -4.011944
    14 7.208800 0.787434 -0.000002 0.000001 0.000000 -4.011944
    15 7.161302 -0.436564 0.542799 -3.141591 -1.570451 0.000000
    16 7.161302 -0.436564 -0.539481 -3.141592 1.570796 0.000000
    17 0.000000 1.803919 -3.985617 0.000000 -1.570796 0.000000
    18 4.656112 0.438828 0.399058 1.570796 0.000000 -1.570796
    19 0.000000 2.705573 -0.826574 -1.570796 0.698132 1.570796
    20 -0.624302 5.320284 0.532680 -1.570796 0.000000 0.000000
    21 0.000001 49.921204 -0.000001 1.570796 0.000000 0.000000
    22 -2.098057 0.171298 1.780126 -1.570796 0.000000 0.000000
    23 0.000002 49.921204 -0.000001 1.570796 0.000000 0.000000
    24 0.001787 1.627478 -66.965790 -1.570796 0.000000 0.000000
    25 11.764790 0.000004 5.034005 -0.000001 0.000001 1.570796
    26 -16.920902 -0.000004 5.034000 -0.000001 0.000001 1.570796
    27 -16.920902 -0.000004 -4.642414 -0.000001 0.000001 1.570796
    28 11.764790 0.000004 -4.642411 -0.000001 0.000001 1.570796
    29 0.356633 0.420623 -0.003287 0.000000 0.000000 0.000000
    30 8.821807 0.130239 -5.006947 6.073604 -1.973270 -0.008159
    31 2.151739 8.356322 -0.251372 1.545868 -3.136717 1.482755
    32 -0.032857 -8.494830 -0.080696 0.091914 0.489783 0.153484
    33 -0.488518 -2.755602 -0.228260 -0.242250 0.060691 -0.057732
    34 0.039887 -1.538386 0.018135 -1.634715 -0.010403 0.036650
    35 0.028786 -1.134327 -0.109049 -0.791875 -0.013746 0.015532
    36 0.250027 -2.820665 -0.238396 -0.313985 0.018280 -0.085804
    37 -0.049759 -1.602417 0.049696 -1.312011 0.004662 -0.036064
    38 -0.034142 -1.175657 0.045718 -1.263217 0.005489 -0.033341
    39 0.957766 -2.746780 -0.090302 0.167150 -0.150256 0.099289
    40 -0.033420 -1.393223 -0.019070 -0.517862 0.008329 -0.025205
    41 -0.022360 -0.957436 0.007065 -0.527930 0.007982 -0.025323
    42 -1.180681 -2.507217 -0.193859 -0.150629 0.142428 -0.022092
    43 -0.024967 -1.123934 0.017597 -0.759797 0.006951 -0.032333
    44 -0.020057 -0.906594 0.037435 -1.162008 0.002397 -0.047687
    45 0.603042 -1.197277 0.181473 0.666402 -0.922572 -1.051051
    46 1.504676 -0.177260 -0.006710 0.213418 0.065484 -0.624307
    47 1.049988 -0.147821 0.032291 0.039018 -0.188604 -0.767764
    48 0.120153 -0.050270 -0.054489 0.287569 3.110905 1.561085
    49 0.311280 -2.578835 -10.634420 -1.857946 -5.234493 -1.411491
    50 0.050068 -8.407448 0.002354 0.086215 -0.346102 0.444912
    51 0.447953 -2.798986 -0.200443 -0.244423 -0.056549 0.060325
    52 -0.032909 -1.499736 0.024472 -1.286538 0.022998 -0.023524
    53 -0.027022 -1.096452 -0.028023 -0.524788 0.013722 -0.005621
    54 -0.249534 -2.846964 -0.174213 -0.316339 -0.019324 0.076958
    55 0.043235 -1.656596 0.076480 -1.215719 -0.019648 0.004291
    56 0.031729 -1.149111 0.058838 -0.758918 -0.007903 0.005292
    57 -0.963866 -2.785145 -0.085350 -0.133536 0.264013 -0.032832
    58 0.028479 -1.403067 -0.009354 -0.611716 -0.012368 -0.024940
    59 0.021413 -0.942156 0.012233 -1.051190 -0.028955 -0.035163
    60 1.164475 -2.543940 -0.170330 -0.166618 -0.161408 -0.083733
    61 0.024032 -1.136855 -0.001725 -0.791002 0.004494 0.042151
    62 0.014898 -0.903521 -0.015942 -1.038460 0.010007 0.051857
    63 -0.586770 -1.264477 0.200161 -0.200107 -0.096960 -2.129319
    64 1.530648 0.054775 0.009035 0.154202 -0.079651 0.158040
    65 1.106228 0.052330 -0.001860 0.312988 -0.289446 0.975216
    66 -0.139399 -0.111698 0.014397 0.285382 -0.030687 1.580508
    67 -1.877860 8.909492 -0.309748 1.610346 -0.009098 -1.520335
  time 5
    0 6.471546 -12.650126 -4.513291 1.580151 0.000641 0.000496
    1 -1.064977 0.427841 3.494147 -1.570789 1.456595 -2.443453
    2 0.631628 -0.525761 0.000000 -0.000001 0.000000 -1.216116
    3 -0.359356 -0.525757 0.000000 -0.000001 0.000000 -1.216146
    4 -1.349792 -0.525757 0.000000 -0.000001 0.000000 -1.216138
    5 0.000000 0.444557 -0.150236 -1.570796 3.141592 1.570796
    6 0.000000 0.444557 -1.633967 -1.570796 2.879793 1.570796
    7 1.065000 0.427841 3.494147 -1.570792 -1.684999 -0.698137
    8 -0.631627 0.525760 0.000000 0.000000 0.000000 -1.216121
    9 0.359358 0.525757 0.000000 0.000000 0.000000 -1.216121
    10 1.349793 0.525756 0.000000 0.000000 0.000000 -1.216121
    11 0.000000 3.548906 -3.244130 0.000000 -1.570796 0.000000
    12 4.055391 0.787430 -0.000001 0.000001 0.000000 -4.011944
    13 5.638199 0.787432 -0.000001 0.000001 0.000000 -4.011944
    14 7.208800 0.787434 -0.000002 0.000001 0.000000 -4.011944
    15 7.161302 -0.436564 0.542799 -3.141591 -1.570451 0.000000
    16 7.161302 -0.436564 -0.539481 -3.141592 1.570796 0.000000
    17 0.000000 1.803919 -3.985617 0.000000 -1.570796 0.000000
    18 4.656112 0.438828 0.399058 1.570796 0.000000 -1.570796
    19 0.000000 2.705573 -0.826574 -1.570796 0.698132 1.570796
    20 -0.624302 5.320284 0.532680 -1.570796 0.000000 0.000000
    21 0.000001 49.921204 -0.000001 1.570796 0.000000 0.000000
    22 -2.098057 0.171298 1.780126 -1.570796 0.000000 0.000000
    23 0.000002 49.921204 -0.000001 1.570796 0.000000 0.000000
    24 0.001787 1.627478 -66.965790 -1.570796 0.000000 0.000000
    25 11.764790 0.000004 5.034005 -0.000001 0.000001 1.570796
    26 -16.920902 -0.000004 5.034000 -0.000001 0.000001 1.570796
    27 -16.920902 -0.000004 -4.642414 -0.000001 0.000001 1.570796
    28 11.764790 0.000004 -4.642411 -0.000001 0.000001 1.570796
    29 0.356633 0.420623 -0.003287 0.000000 0.000000 0.000000
    30 8.817901 0.126333 -5.014760 6.055545 -1.973094 0.008981
    31 2.151739 8.356322 -0.251372 1.545868 -3.136717 1.482755
    32 -0.032857 -8.494830 -0.084602 0.090512 0.480986 0.148884
    33 -0.488518 -2.755602 -0.228260 -0.242250 0.060691 -0.057732
    34 0.039887 -1.538386 0.018135 -1.634715 -0.010403 0.036650
    35 0.028786 -1.134327 -0.109049 -0.791875 -0.013746 0.015532
    36 0.250027 -2.820665 -0.238396 -0.313985 0.018280 -0.085804
    37 -0.049759 -1.602417 0.049696 -1.312011 0.004662 -0.036064
    38 -0.034142 -1.175657 0.045718 -1.263217 0.005489 -0.033341
    39 0.957766 -2.746780 -0.090302 0.167150 -0.150256 0.099289
    40 -0.033420 -1.393223 -0.019070 -0.517862 0.008329 -0.025205
    41 -0.022360 -0.957436 0.007065 -0.527930 0.007982 -0.025323
    42 -1.180681 -2.507217 -0.193859 -0.150629 0.142428 -0.022092
    43 -0.024967 -1.123934 0.017597 -0.759797 0.006951 -0.032333
    44 -0.020057 -0.906594 0.037435 -1.162008 0.002397 -0.047687
    45 0.603042 -1.197277 0.181473 0.666402 -0.922572 -1.051051
    46 1.504676 -0.177260 -0.006710 0.213418 0.065484 -0.624307
    47 1.049988 -0.147821 0.032291 0.039018 -0.188604 -0.767764
    48 0.120153 -0.050270 -0.054489 0.287569 3.110905 1.561085
    49 0.295655 -2.539771 -10.665671 -1.863200 -5.224197 -1.415088
    50 0.050068 -8.407448 0.006260 0.087533 -0.358026 0.438193
    51 0.447953 -2.798986 -0.200443 -0.244423 -0.056549 0.060325
    52 -0.032909 -1.499736 0.024472 -1.286538 0.022998 -0.023524
    53 -0.027022 -1.096452 -0.028023 -0.524788 0.013722 -0.005621
    54 -0.249534 -2.846964 -0.174213 -0.316339 -0.019324 0.076958
    55 0.043235 -1.656596 0.076480 -1.215719 -0.019648 0.004291
    56 0.031729 -1.149111 0.058838 -0.758918 -0.007903 0.005292
    57 -0.963866 -2.785145 -0.085350 -0.133536 0.264013 -0.032832
    58 0.028479 -1.403067 -0.009354 -0.611716 -0.012368 -0.024940
    59 0.021413 -0.942156 0.012233 -1.051190 -0.028955 -0.035163
    60 1.164475 -2.543940 -0.170330 -0.166618 -0.161408 -0.083733
    61 0.024032 -1.136855 -0.001725 -0.791002 0.004494 0.042151
    62 0.014898 -0.903521 -0.015942 -1.038460 0.010007 0.051857
    63 -0.586770 -1.264477 0.200161 -0.200107 -0.096960 -2.129319
    64 1.530648 0.054775 0.009035 0.154202 -0.079651 0.158040
    65 1.106228 0.052330 -0.001860 0.312988 -0.289446 0.975216
    66 -0.139399 -0.111698 0.014397 0.285382 -0.030687 1.580508
    67 -1.877860 8.909492 -0.309748 1.610346 -0.009098 -1.520335
  time 6
    0 6.467639 -12.654033 -4.532823 1.580784 -0.006118 0.000820
    1 -1.064977 0.427841 3.494147 -1.570789 1.456595 -2.443453
    2 0.631628 -0.525761 0.000000 -0.000001 0.000000 -1.216116
    3 -0.359356 -0.525757 0.000000 -0.000001 0.000000 -1.216146
    4 -1.349792 -0.525757 0.000000 -0.000001 0.000000 -1.216138
    5 0.000000 0.444557 -0.150236 -1.570796 3.141592 1.570796
    6 0.000000 0.444557 -1.633967 -1.570796 2.879793 1.570796
    7 1.065000 0.427841 3.494147 -1.570792 -1.684999 -0.698137
    8 -0.631627 0.525760 0.000000 0.000000 0.000000 -1.216121
    9 0.359358 0.525757 0.000000 0.000000 0.000000 -1.216121
    10 1.349793 0.525756 0.000000 0.000000 0.000000 -1.216121
    11 0.000000 3.548906 -3.244130 0.000000 -1.570796 0.000000
    12 4.055391 0.787430 -0.000001 0.000001 0.000000 -4.011944
    13 5.638199 0.787432 -0.000001 0.000001 0.000000 -4.011944
    14 7.208800 0.787434 -0.000002 0.000001 0.000000 -4.011944
    15 7.161302 -0.436564 0.542799 -3.141591 -1.570451 0.000000
    16 7.161302 -0.436564 -0.539481 -3.141592 1.570796 0.000000
    17 0.000000 1.803919 -3.985617 0.000000 -1.570796 0.000000
    18 4.656112 0.438828 0.399058 1.570796 0.000000 -1.570796
    19 0.000000 2.705573 -0.826574 -1.570796 0.698132 1.570796
    20 -0.624302 5.320284 0.532680 -1.570796 0.000000 0.000000
    21 0.000001 49.921204 -0.000001 1.570796 0.000000 0.000000
    22 -2.098057 0.171298 1.780126 -1.570796 0.000000 0.000000
    23 0.000002 49.921204 -0.000001 1.570796 0.000000 0.000000
    24 0.001787 1.627478 -66.965790 -1.570796 0.000000 0.000000
    25 11.764790 0.000004 5.034005 -0.000001 0.000001 1.570796
    26 -16.920902 -0.000004 5.034000 -0.000001 0.000001 1.570796
    27 -16.920902 -0.000004 -4.642414 -0.000001 0.000001 1.570796
    28 11.764790 0.000004 -4.642411 -0.000001 0.000001 1.570796
    29 0.356633 0.420623 -0.003287 0.000000 0.000000 0.000000
    30 8.817901 0.126333 -5.014760 6.052870 -1.973094 0.011443
    31 2.151739 8.356322 -0.251372 1.545868 -3.136717 1.482755
    32 -0.036764 -8.494830 -0.084602 0.089820 0.474299 0.147344
    33 -0.488518 -2.755602 -0.228260 -0.242250 0.060691 -0.057732
    34 0.039887 -1.538386 0.018135 -1.634715 -0.010403 0.036650
    35 0.028786 -1.134327 -0.109049 -0.791875 -0.013746 0.015532
    36 0.250027 -2.820665 -0.238396 -0.313985 0.018280 -0.085804
    37 -0.049759 -1.602417 0.049696 -1.312011 0.004662 -0.036064
    38 -0.034142 -1.175657 0.045718 -1.263217 0.005489 -0.033341
    39 0.957766 -2.746780 -0.090302 0.167150 -0.150256 0.099289
    40 -0.033420 -1.393223 -0.019070 -0.517862 0.008329 -0.025205
    41 -0.022360 -0.957436 0.007065 -0.527930 0.007982 -0.025323
    42 -1.180681 -2.507217 -0.193859 -0.150629 0.142428 -0.022092
    43 -0.024967 -1.123934 0.017597 -0.759797 0.006951 -0.032333
    44 -0.020057 -0.906594 0.037435 -1.162008 0.002397 -0.047687
    45 0.603042 -1.197277 0.181473 0.666402 -0.922572 -1.051051
    46 1.504676 -0.177260 -0.006710 0.213418 0.065484 -0.624307
    47 1.049988 -0.147821 0.032291 0.039018 -0.188604 -0.767764
    48 0.120153 -0.050270 -0.054489 0.287569 3.110905 1.561085
    49 0.295655 -2.528052 -10.673484 -1.864970 -5.220710 -1.416035
    50 0.050068 -8.411355 0.006260 0.089090 -0.364362 0.432022
    51 0.447953 -2.798986 -0.200443 -0.244423 -0.056549 0.060325
    52 -0.032909 -1.499736 0.024472 -1.286538 0.022998 -0.023524
    53 -0.027022 -1.096452 -0.028023 -0.524788 0.013722 -0.005621
    54 -0.249534 -2.846964 -0.174213 -0.316339 -0.019324 0.076958
    55 0.043235 -1.656596 0.076480 -1.215719 -0.019648 0.004291
    56 0.031729 -1.149111 0.058838 -0.758918 -0.007903 0.005292
    57 -0.963866 -2.785145 -0.085350 -0.133536 0.264013 -0.032832
    58 0.028479 -1.403067 -0.009354 -0.611716 -0.012368 -0.024940
    59 0.021413 -0.942156 0.012233 -1.051190 -0.028955 -0.035163
    60 1.164475 -2.543940 -0.170330 -0.166618 -0.161408 -0.083733
    61 0.024032 -1.136855 -0.001725 -0.791002 0.004494 0.042151
    62 0.014898 -0.903521 -0.015942 -1.038460 0.010007 0.051857
    63 -0.586770 -1.264477 0.200161 -0.200107 -0.096960 -2.129319
    64 1.530648 0.054775 0.009035 0.154202 -0.079651 0.158040
    65 1.106228 0.052330 -0.001860 0.312988 -0.289446 0.975216
    66 -0.139399 -0.111698 0.014397 0.285382 -0.030687 1.580508
    67 -1.877860 8.909492 -0.309748 1.610346 -0.009098 -1.520335
  time 7
    0 6.459827 -12.650126 -4.521104 1.578171 -0.013069 0.000739
    1 -1.064977 0.427841 3.494147 -1.570789 1.456595 -2.443453
    2 0.631628 -0.525761 0.000000 -0.000001 0.000000 -1.216116
    3 -0.359356 -0.525757 0.000000 -0.000001 0.000000 -1.216146
    4 -1.349792 -0.525757 0.000000 -0.000001 0.000000 -1.216138
    5 0.000000 0.444557 -0.150236 -1.570796 3.141592 1.570796
    6 0.000000 0.444557 -1.633967 -1.570796 2.879793 1.570796
    7 1.065000 0.427841 3.494147 -1.570792 -1.684999 -0.698137
    8 -0.631627 0.525760 0.000000 0.000000 0.000000 -1.216121
    9 0.359358 0.525757 0.000000 0.000000 0.000000 -1.216121
    10 1.349793 0.525756 0.000000 0.000000 0.000000 -1.216121
    11 0.000000 3.548906 -3.244130 0.000000 -1.570796 0.000000
    12 4.055391 0.787430 -0.000001 0.000001 0.000000 -4.011944
    13 5.638199 0.787432 -0.000001 0.000001 0.000000 -4.011944
    14 7.208800 0.787434 -0.000002 0.000001 0.000000 -4.011944
    15 7.161302 -0.436564 0.542799 -3.141591 -1.570451 0.000000
    16 7.161302 -0.436564 -0.539481 -3.141592 1.570796 0.000000
    17 0.000000 1.803919 -3.985617 0.000000 -1.570796 0.000000
    18 4.656112 0.438828 0.399058 1.570796 0.000000 -1.570796
    19 0.000000 2.705573 -0.826574 -1.570796 0.698132 1.570796
    20 -0.624302 5.320284 0.532680 -1.570796 0.000000 0.000000
    21 0.000001 49.921204 -0.000001 1.570796 0.000000 0.000000
    22 -2.098057 0.171298 1.780126 -1.570796 0.000000 0.000000
    23 0.000002 49.921204 -0.000001 1.570796 0.000000 0.000000
    24 0.001787 1.627478 -66.965790 -1.570796 0.000000 0.000000
    25 11.764790 0.000004 5.034005 -0.000001 0.000001 1.570796
    26 -16.920902 -0.000004 5.034000 -0.000001 0.000001 1.570796
    27 -16.920902 -0.000004 -4.642414 -0.000001 0.000001 1.570796
    28 11.764790 0.000004 -4.642411 -0.000001 0.000001 1.570796
    29 0.356633 0.420623 -0.003287 0.000000 0.000000 0.000000
    30 8.817901 0.126333 -5.014760 6.055545 -1.973094 0.008981
    31 2.151739 8.356322 -0.251372 1.545868 -3.136717 1.482755
    32 -0.036764 -8.494830 -0.084602 0.089372 0.467216 0.147036
    33 -0.488518 -2.755602 -0.228260 -0.242250 0.060691 -0.057732
    34 0.039887 -1.538386 0.018135 -1.634715 -0.010403 0.036650
    35 0.028786 -1.134327 -0.109049 -0.791875 -0.013746 0.015532
    36 0.250027 -2.820665 -0.238396 -0.313985 0.018280 -0.085804
    37 -0.049759 -1.602417 0.049696 -1.312011 0.004662 -0.036064
    38 -0.034142 -1.175657 0.045718 -1.263217 0.005489 -0.033341
    39 0.957766 -2.746780 -0.090302 0.167150 -0.150256 0.099289
    40 -0.033420 -1.393223 -0.019070 -0.517862 0.008329 -0.025205
    41 -0.022360 -0.957436 0.007065 -0.527930 0.007982 -0.025323
    42 -1.180681 -2.507217 -0.193859 -0.150629 0.142428 -0.022092
    43 -0.024967 -1.123934 0.017597 -0.759797 0.006951 -0.032333
    44 -0.020057 -0.906594 0.037435 -1.162008 0.002397 -0.047687
    45 0.603042 -1.197277 0.181473 0.666402 -0.922572 -1.051051
    46 1.504676 -0.177260 -0.006710 0.213418 0.065484 -0.624307
    47 1.049988 -0.147821 0.032291 0.039018 -0.188604 -0.767764
    48 0.120153 -0.050270 -0.054489 0.287569 3.110905 1.561085
    49 0.295655 -2.524146 -10.677390 -1.865738 -5.219215 -1.416224
    50 0.050068 -8.411355 0.006260 0.091006 -0.369551 0.424755
    51 0.447953 -2.798986 -0.200443 -0.244423 -0.056549 0.060325
    52 -0.032909 -1.499736 0.024472 -1.286538 0.022998 -0.023524
    53 -0.027022 -1.096452 -0.028023 -0.524788 0.013722 -0.005621
    54 -0.249534 -2.846964 -0.174213 -0.316339 -0.019324 0.076958
    55 0.043235 -1.656596 0.076480 -1.215719 -0.019648 0.004291
    56 0.031729 -1.149111 0.058838 -0.758918 -0.007903 0.005292
    57 -0.963866 -2.785145 -0.085350 -0.133536 0.264013 -0.032832
    58 0.028479 -1.403067 -0.009354 -0.611716 -0.012368 -0.024940
    59 0.021413 -0.942156 0.012233 -1.051190 -0.028955 -0.035163
    60 1.164475 -2.543940 -0.170330 -0.166618 -0.161408 -0.083733
    61 0.024032 -1.136855 -0.001725 -0.791002 0.004494 0.042151
    62 0.014898 -0.903521 -0.015942 -1.038460 0.010007 0.051857
    63 -0.586770 -1.264477 0.200161 -0.200107 -0.096960 -2.129319
    64 1.530648 0.054775 0.009035 0.154202 -0.079651 0.158040
    65 1.106228 0.052330 -0.001860 0.312988 -0.289446 0.975216
    66 -0.139399 -0.111698 0.014397 0.285382 -0.030687 1.580508
    67 -1.877860 8.909492 -0.309748 1.610346 -0.009098 -1.520335
  time 8
    0 6.452014 -12.646220 -4.489853 1.574673 -0.019252 0.000658
    1 -1.064977 0.427841 3.494147 -1.570789 1.456595 -2.443453
    2 0.631628 -0.525761 0.000000 -0.000001 0.000000 -1.216116
    3 -0.359356 -0.525757 0.000000 -0.000001 0.000000 -1.216146
    4 -1.349792 -0.525757 0.000000 -0.000001 0.000000 -1.216138
    5 0.000000 0.444557 -0.150236 -1.570796 3.141592 1.570796
    6 0.000000 0.444557 -1.633967 -1.570796 2.879793 1.570796
    7 1.065000 0.427841 3.494147 -1.570792 -1.684999 -0.698137
    8 -0.631627 0.525760 0.000000 0.000000 0.000000 -1.216121
    9 0.359358 0.525757 0.000000 0.000000 0.000000 -1.216121
    10 1.349793 0.525756 0.000000 0.000000 0.000000 -1.216121
    11 0.000000 3.548906 -3.244130 0.000000 -1.570796 0.000000
    12 4.055391 0.787430 -0.000001 0.000001 0.000000 -4.011944
    13 5.638199 0.787432 -0.000001 0.000001 0.000000 -4.011944
    14 7.208800 0.787434 -0.000002 0.000001 0.000000 -4.011944
    15 7.161302 -0.436564 0.542799 -3.141591 -1.570451 0.000000
    16 7.161302 -0.436564 -0.539481 -3.141592 1.570796 0.000000
    17 0.000000 1.803919 -3.985617 0.000000 -1.570796 0.000000
    18 4.656112 0.438828 0.399058 1.570796 0.000000 -1.570796
    19 0.000000 2.705573 -0.826574 -1.570796 0.698132 1.570796
    20 -0.624302 5.320284 0.532680 -1.570796 0.000000 0.000000
    21 0.000001 49.921204 -0.000001 1.570796 0.000000 0.000000
    22 -2.098057 0.171298 1.780126 -1.570796 0.000000 0.000000
    23 0.000002 49.921204 -0.000001 1.570796 0.000000 0.000000
    24 0.001787 1.627478 -66.965790 -1.570796 0.000000 0.000000
    25 11.764790 0.000004 5.034005 -0.000001 0.000001 1.570796
    26 -16.920902 -0.000004 5.034000 -0.000001 0.000001 1.570796
    27 -16.920902 -0.000004 -4.642414 -0.000001 0.000001 1.570796
    28 11.764790 0.000004 -4.642411 -0.000001 0.000001 1.570796
    29 0.356633 0.420623 -0.003287 0.000000 0.000000 0.000000
    30 8.817901 0.126333 -5.010853 6.061087 -1.973182 0.003678
    31 2.151739 8.356322 -0.251372 1.545868 -3.136717 1.482755
    32 -0.036764 -8.494830 -0.084602 0.088923 0.460960 0.146728
    33 -0.488518 -2.755602 -0.228260 -0.242250 0.060691 -0.057732
    34 0.039887 -1.538386 0.018135 -1.634715 -0.010403 0.036650
    35 0.028786 -1.134327 -0.109049 -0.791875 -0.013746 0.015532
    36 0.250027 -2.820665 -0.238396 -0.313985 0.018280 -0.085804
    37 -0.049759 -1.602417 0.049696 -1.312011 0.004662 -0.036064
    38 -0.034142 -1.175657 0.045718 -1.263217 0.005489 -0.033341
    39 0.957766 -2.746780 -0.090302 0.167150 -0.150256 0.099289
    40 -0.033420 -1.393223 -0.019070 -0.517862 0.008329 -0.025205
    41 -0.022360 -0.957436 0.007065 -0.527930 0.007982 -0.025323
    42 -1.180681 -2.507217 -0.193859 -0.150629 0.142428 -0.022092
    43 -0.024967 -1.123934 0.017597 -0.759797 0.006951 -0.032333
    44 -0.020057 -0.906594 0.037435 -1.162008 0.002397 -0.047687
    45 0.603042 -1.197277 0.181473 0.666402 -0.922572 -1.051051
    46 1.504676 -0.177260 -0.006710 0.213418 0.065484 -0.624307
    47 1.049988 -0.147821 0.032291 0.039018 -0.188604 -0.767764
    48 0.120153 -0.050270 -0.054489 0.287569 3.110905 1.561085
    49 0.299561 -2.528052 -10.673484 -1.865738 -5.219049 -1.415845
    50 0.050068 -8.411355 0.006260 0.092803 -0.373692 0.418365
    51 0.447953 -2.798986 -0.200443 -0.244423 -0.056549 0.060325
    52 -0.032909 -1.499736 0.024472 -1.286538 0.022998 -0.023524
    53 -0.027022 -1.096452 -0.028023 -0.524788 0.013722 -0.005621
    54 -0.249534 -2.846964 -0.174213 -0.316339 -0.019324 0.076958
    55 0.043235 -1.656596 0.076480 -1.215719 -0.019648 0.004291
    56 0.031729 -1.149111 0.058838 -0.758918 -0.007903 0.005292
    57 -0.963866 -2.785145 -0.085350 -0.133536 0.264013 -0.032832
    58 0.028479 -1.403067 -0.009354 -0.611716 -0.012368 -0.024940
    59 0.021413 -0.942156 0.012233 -1.051190 -0.028955 -0.035163
    60 1.164475 -2.543940 -0.170330 -0.166618 -0.161408 -0.083733
    61 0.024032 -1.136855 -0.001725 -0.791002 0.004494 0.042151
    62 0.014898 -0.903521 -0.015942 -1.038460 0.010007 0.051857
    63 -0.586770 -1.264477 0.200161 -0.200107 -0.096960 -2.129319
    64 1.530648 0.054775 0.009035 0.154202 -0.079651 0.158040
    65 1.106228 0.052330 -0.001860 0.312988 -0.289446 0.975216
    66 -0.139399 -0.111698 0.014397 0.285382 -0.030687 1.580508
    67 -1.877860 8.909492 -0.309748 1.610346 -0.009098 -1.520335
  time 9
    0 6.444201 -12.642313 -4.462508 1.572566 -0.023736 0.000658
    1 -1.064977 0.427841 3.494147 -1.570789 1.456595 -2.443453
    2 0.631628 -0.525761 0.000000 -0.000001 0.000000 -1.216116
    3 -0.359356 -0.525757 0.000000 -0.000001 0.000000 -1.216146
    4 -1.349792 -0.525757 0.000000 -0.000001 0.000000 -1.216138
    5 0.000000 0.444557 -0.150236 -1.570796 3.141592 1.570796
    6 0.000000 0.444557 -1.633967 -1.570796 2.879793 1.570796
    7 1.065000 0.427841 3.494147 -1.570792 -1.684999 -0.698137
    8 -0.631627 0.525760 0.000000 0.000000 0.000000 -1.216121
    9 0.359358 0.525757 0.000000 0.000000 0.000000 -1.216121
    10 1.349793 0.525756 0.000000 0.000000 0.000000 -1.216121
    11 0.000000 3.162176 -3.267568 0.000000 -1.570796 0.000000
    12 4.055391 0.787430 -0.000001 0.000001 0.000000 -4.011944
    13 5.638199 0.787432 -0.000001 0.000001 0.000000 -4.011944
    14 7.208800 0.787434 -0.000002 0.000001 0.000000 -4.011944
    15 7.161302 -0.436564 0.542799 -3.141591 -1.570451 0.000000
    16 7.161302 -0.436564 -0.539481 -3.141592 1.570796 0.000000
    17 0.000000 1.803919 -3.985617 0.000000 -1.570796 0.000000
    18 4.656112 0.438828 0.399058 1.570796 0.000000 -1.570796
    19 0.000000 2.705573 -0.826574 -1.570796 0.698132 1.570796
    20 -0.624302 5.320284 0.532680 -1.570796 0.000000 0.000000
    21 0.000001 49.921204 -0.000001 1.570796 0.000000 0.000000
    22 -2.098057 0.171298 1.780126 -1.570796 0.000000 0.000000
    23 0.000002 49.921204 -0.000001 1.570796 0.000000 0.000000
    24 0.001787 1.627478 -66.965790 -1.570796 0.000000 0.000000
    25 11.764790 0.000004 5.034005 -0.000001 0.000001 1.570796
    26 -16.920902 -0.000004 5.034000 -0.000001 0.000001 1.570796
    27 -16.920902 -0.000004 -4.642414 -0.000001 0.000001 1.570796
    28 11.764790 0.000004 -4.642411 -0.000001 0.000001 1.570796
    29 0.356633 0.420623 -0.003287 0.000000 0.000000 0.000000
    30 8.817901 0.130239 -5.010853 6.067298 -1.973270 -0.002193
    31 2.151739 8.356322 -0.251372 1.545868 -3.136717 1.482755
    32 -0.040670 -8.494830 -0.084602 0.088288 0.456777 0.145098
    33 -0.488518 -2.755602 -0.228260 -0.242250 0.060691 -0.057732
    34 0.039887 -1.538386 0.018135 -1.634715 -0.010403 0.036650
    35 0.028786 -1.134327 -0.109049 -0.791875 -0.013746 0.015532
    36 0.250027 -2.820665 -0.238396 -0.313985 0.018280 -0.085804
    37 -0.049759 -1.602417 0.049696 -1.312011 0.004662 -0.036064
    38 -0.034142 -1.175657 0.045718 -1.263217 0.005489 -0.033341
    39 0.957766 -2.746780 -0.090302 0.167150 -0.150256 0.099289
    40 -0.033420 -1.393223 -0.019070 -0.517862 0.008329 -0.025205
    41 -0.022360 -0.957436 0.007065 -0.527930 0.007982 -0.025323
    42 -1.180681 -2.507217 -0.193859 -0.150629 0.142428 -0.022092
    43 -0.024967 -1.123934 0.017597 -0.759797 0.006951 -0.032333
    44 -0.020057 -0.906594 0.037435 -1.162008 0.002397 -0.047687
    45 0.603042 -1.197277 0.181473 0.666402 -0.922572 -1.051051
    46 1.504676 -0.177260 -0.006710 0.213418 0.065484 -0.624307
    47 1.049988 -0.147821 0.032291 0.039018 -0.188604 -0.767764
    48 0.120153 -0.050270 -0.054489 0.287569 3.110905 1.561085
    49 0.303467 -2.535865 -10.669578 -1.865384 -5.219631 -1.415183
    50 0.050068 -8.411355 0.006260 0.093821 -0.376885 0.414969
    51 0.447953 -2.798986 -0.200443 -0.244423 -0.056549 0.060325
    52 -0.032909 -1.499736 0.024472 -1.286538 0.022998 -0.023524
    53 -0.027022 -1.096452 -0.028023 -0.524788 0.013722 -0.005621
    54 -0.249534 -2.846964 -0.174213 -0.316339 -0.019324 0.076958
    55 0.043235 -1.656596 0.076480 -1.215719 -0.019648 0.004291
    56 0.031729 -1.149111 0.058838 -0.758918 -0.007903 0.005292
    57 -0.963866 -2.785145 -0.085350 -0.133536 0.264013 -0.032832
    58 0.028479 -1.403067 -0.009354 -0.611716 -0.012368 -0.024940
    59 0.021413 -0.942156 0.012233 -1.051190 -0.028955 -0.035163
    60 1.164475 -2.543940 -0.170330 -0.166618 -0.161408 -0.083733
    61 0.024032 -1.136855 -0.001725 -0.791002 0.004494 0.042151
    62 0.014898 -0.903521 -0.015942 -1.038460 0.010007 0.051857
    63 -0.586770 -1.264477 0.200161 -0.200107 -0.096960 -2.129319
    64 1.530648 0.054775 0.009035 0.154202 -0.079651 0.158040
    65 1.106228 0.052330 -0.001860 0.312988 -0.289446 0.975216
    66 -0.139399 -0.111698 0.014397 0.285382 -0.030687 1.580508
    67 -1.877860 8.909492 -0.309748 1.610346 -0.009098 -1.520335
  time 10
    0 6.448108 -12.646220 -4.458602 1.574294 -0.025562 0.001144
    1 -1.064977 0.427841 3.494147 -1.570789 1.456595 -2.443453
    2 0.631628 -0.525761 0.000000 -0.000001 0.000000 -1.216116
    3 -0.359356 -0.525757 0.000000 -0.000001 0.000000 -1.216146
    4 -1.349792 -0.525757 0.000000 -0.000001 0.000000 -1.216138
    5 0.000000 0.444557 -0.150236 -1.570796 3.141592 1.570796
    6 0.000000 0.444557 -1.633967 -1.570796 2.879793 1.570796
    7 1.065000 0.427841 3.494147 -1.570792 -1.684999 -0.698137
    8 -0.631627 0.525760 0.000000 0.000000 0.000000 -1.216121
    9 0.359358 0.525757 0.000000 0.000000 0.000000 -1.216121
    10 1.349793 0.525756 0.000000 0.000000 0.000000 -1.216121
    11 0.000000 2.775445 -3.287100 0.000000 -1.570796 0.000000
    12 4.055391 0.787430 -0.000001 0.000001 0.000000 -4.011944
    13 5.638199 0.787432 -0.000001 0.000001 0.000000 -4.011944
    14 7.208800 0.787434 -0.000002 0.000001 0.000000 -4.011944
    15 7.161302 -0.436564 0.542799 -3.141591 -1.570451 0.000000
    16 7.161302 -0.436564 -0.539481 -3.141592 1.570796 0.000000
    17 0.000000 1.803919 -3.985617 0.000000 -1.570796 0.000000
    18 4.656112 0.438828 0.399058 1.570796 0.000000 -1.570796
    19 0.000000 2.705573 -0.826574 -1.570796 0.698132 1.570796
    20 -0.624302 5.320284 0.532680 -1.570796 0.000000 0.000000
    21 0.000001 49.921204 -0.000001 1.570796 0.000000 0.000000
    22 -2.098057 0.171298 1.780126 -1.570796 0.000000 0.000000
    23 0.000002 49.921204 -0.000001 1.570796 0.000000 0.000000
    24 0.001787 1.627478 -66.965790 -1.570796 0.000000 0.000000
    25 11.764790 0.000004 5.034005 -0.000001 0.000001 1.570796
    26 -16.920902 -0.000004 5.034000 -0.000001 0.000001 1.570796
    27 -16.920902 -0.000004 -4.642414 -0.000001 0.000001 1.570796
    28 11.764790 0.000004 -4.642411 -0.000001 0.000001 1.570796
    29 0.356633 0.420623 -0.003287 0.000000 0.000000 0.000000
    30 8.821807 0.130239 -5.006947 6.071789 -1.973270 -0.006454
    31 2.151739 8.356322 -0.251372 1.545868 -3.136717 1.482755
    32 -0.040670 -8.494830 -0.084602 0.087241 0.455903 0.140914
    33 -0.488518 -2.755602 -0.228260 -0.242250 0.060691 -0.057732
    34 0.039887 -1.538386 0.018135 -1.634715 -0.010403 0.036650
    35 0.028786 -1.134327 -0.109049 -0.791875 -0.013746 0.015532
    36 0.250027 -2.820665 -0.238396 -0.313985 0.018280 -0.085804
    37 -0.049759 -1.602417 0.049696 -1.312011 0.004662 -0.036064
    38 -0.034142 -1.175657 0.045718 -1.263217 0.005489 -0.033341
    39 0.957766 -2.746780 -0.090302 0.167150 -0.150256 0.099289
    40 -0.033420 -1.393223 -0.019070 -0.517862 0.008329 -0.025205
    41 -0.022360 -0.957436 0.007065 -0.527930 0.007982 -0.025323
    42 -1.180681 -2.507217 -0.193859 -0.150629 0.142428 -0.022092
    43 -0.024967 -1.123934 0.017597 -0.759797 0.006951 -0.032333
    44 -0.020057 -0.906594 0.037435 -1.162008 0.002397 -0.047687
    45 0.603042 -1.197277 0.181473 0.666402 -0.922572 -1.051051
    46 1.504676 -0.177260 -0.006710 0.213418 0.065484 -0.624307
    47 1.049988 -0.147821 0.032291 0.039018 -0.188604 -0.767764
    48 0.120153 -0.050270 -0.054489 0.287569 3.110905 1.561085
    49 0.303467 -2.539771 -10.669578 -1.864970 -5.220378 -1.414615
    50 0.050068 -8.411355 0.006260 0.093521 -0.379230 0.416612
    51 0.447953 -2.798986 -0.200443 -0.244423 -0.056549 0.060325
    52 -0.032909 -1.499736 0.024472 -1.286538 0.022998 -0.023524
    53 -0.027022 -1.096452 -0.028023 -0.524788 0.013722 -0.005621
    54 -0.249534 -2.846964 -0.174213 -0.316339 -0.019324 0.076958
    55 0.043235 -1.656596 0.076480 -1.215719 -0.019648 0.004291
    56 0.031729 -1.149111 0.058838 -0.758918 -0.007903 0.005292
    57 -0.963866 -2.785145 -0.085350 -0.133536 0.264013 -0.032832
    58 0.028479 -1.403067 -0.009354 -0.611716 -0.012368 -0.024940
    59 0.021413 -0.942156 0.012233 -1.051190 -0.028955 -0.035163
    60 1.164475 -2.543940 -0.170330 -0.166618 -0.161408 -0.083733
    61 0.024032 -1.136855 -0.001725 -0.791002 0.004494 0.042151
    62 0.014898 -0.903521 -0.015942 -1.038460 0.010007 0.051857
    63 -0.586770 -1.264477 0.200161 -0.200107 -0.096960 -2.129319
    64 1.530648 0.054775 0.009035 0.154202 -0.079651 0.158040
    65 1.106228 0.052330 -0.001860 0.312988 -0.289446 0.975216
    66 -0.139399 -0.111698 0.014397 0.285382 -0.030687 1.580508
    67 -1.877860 8.909492 -0.309748 1.610346 -0.009098 -1.520335
  time 11
    0 6.471546 -12.669658 -4.521104 1.592668 -0.012845 0.003493
    1 -1.064977 0.427841 3.494147 -1.570789 1.456595 -2.443453
    2 0.631628 -0.525761 0.000000 -0.000001 0.000000 -1.216116
    3 -0.359356 -0.525757 0.000000 -0.000001 0.000000 -1.216146
    4 -1.349792 -0.525757 0.000000 -0.000001 0.000000 -1.216138
    5 0.000000 0.444557 -0.150236 -1.570796 3.141592 1.570796
    6 0.000000 0.444557 -1.633967 -1.570796 2.879793 1.570796
    7 1.065000 0.427841 3.494147 -1.570792 -1.684999 -0.698137
    8 -0.631627 0.525760 0.000000 0.000000 0.000000 -1.216121
    9 0.359358 0.525757 0.000000 0.000000 0.000000 -1.216121
    10 1.349793 0.525756 0.000000 0.000000 0.000000 -1.216121
    11 0.000000 2.830134 -3.287100 0.000000 -1.570796 0.000000
    12 4.055391 0.787430 -0.000001 0.000001 0.000000 -4.011944
    13 5.638199 0.787432 -0.000001 0.000001 0.000000 -4.011944
    14 7.208800 0.787434 -0.000002 0.000001 0.000000 -4.011944
    15 7.161302 -0.436564 0.542799 -3.141591 -1.570451 0.000000
    16 7.161302 -0.436564 -0.539481 -3.141592 1.570796 0.000000
    17 0.000000 1.803919 -3.985617 0.000000 -1.570796 0.000000
    18 4.656112 0.438828 0.399058 1.570796 0.000000 -1.570796
    19 0.000000 2.705573 -0.826574 -1.570796 0.698132 1.570796
    20 -0.624302 5.320284 0.532680 -1.570796 0.000000 0.000000
    21 0.000001 49.921204 -0.000001 1.570796 0.000000 0.000000
    22 -2.098057 0.171298 1.780126 -1.570796 0.000000 0.000000
    23 0.000002 49.921204 -0.000001 1.570796 0.000000 0.000000
    24 0.001787 1.627478 -66.965790 -1.570796 0.000000 0.000000
    25 11.764790 0.000004 5.034005 -0.000001 0.000001 1.570796
    26 -16.920902 -0.000004 5.034000 -0.000001 0.000001 1.570796
    27 -16.920902 -0.000004 -4.642414 -0.000001 0.000001 1.570796
    28 11.764790 0.000004 -4.642411 -0.000001 0.000001 1.570796
    29 0.356633 0.420623 -0.003287 0.000000 0.000000 0.000000
    30 8.821807 0.130239 -5.006947 6.073986 -1.973357 -0.008537
    31 2.151739 8.356322 -0.251372 1.545868 -3.136717 1.482755
    32 -0.036764 -8.490924 -0.084602 0.084231 0.472957 0.123977
    33 -0.488518 -2.755602 -0.228260 -0.242250 0.060691 -0.057732
    34 0.039887 -1.538386 0.018135 -1.634715 -0.010403 0.036650
    35 0.028786 -1.134327 -0.109049 -0.791875 -0.013746 0.015532
    36 0.250027 -2.820665 -0.238396 -0.313985 0.018280 -0.085804
    37 -0.049759 -1.602417 0.049696 -1.312011 0.004662 -0.036064
    38 -0.034142 -1.175657 0.045718 -1.263217 0.005489 -0.033341
    39 0.957766 -2.746780 -0.090302 0.167150 -0.150256 0.099289
    40 -0.033420 -1.393223 -0.019070 -0.517862 0.008329 -0.025205
    41 -0.022360 -0.957436 0.007065 -0.527930 0.007982 -0.025323
    42 -1.180681 -2.507217 -0.193859 -0.150629 0.142428 -0.022092
    43 -0.024967 -1.123934 0.017597 -0.759797 0.006951 -0.032333
    44 -0.020057 -0.906594 0.037435 -1.162008 0.002397 -0.047687
    45 0.603042 -1.197277 0.181473 0.666402 -0.922572 -1.051051
    46 1.504676 -0.177260 -0.006710 0.213418 0.065484 -0.624307
    47 1.049988 -0.147821 0.032291 0.039018 -0.188604 -0.767764
    48 0.120153 -0.050270 -0.054489 0.287569 3.110905 1.561085
    49 0.303467 -2.543678 -10.661765 -1.862845 -5.224529 -1.413289
    50 0.046161 -8.407448 0.006260 0.085856 -0.375438 0.444948
    51 0.447953 -2.798986 -0.200443 -0.244423 -0.056549 0.060325
    52 -0.032909 -1.499736 0.024472 -1.286538 0.022998 -0.023524
    53 -0.027022 -1.096452 -0.028023 -0.524788 0.013722 -0.005621
    54 -0.249534 -2.846964 -0.174213 -0.316339 -0.019324 0.076958
    55 0.043235 -1.656596 0.076480 -1.215719 -0.019648 0.004291
    56 0.031729 -1.149111 0.058838 -0.758918 -0.007903 0.005292
    57 -0.963866 -2.785145 -0.085350 -0.133536 0.264013 -0.032832
    58 0.028479 -1.403067 -0.009354 -0.611716 -0.012368 -0.024940
    59 0.021413 -0.942156 0.012233 -1.051190 -0.028955 -0.035163
    60 1.164475 -2.543940 -0.170330 -0.166618 -0.161408 -0.083733
    61 0.024032 -1.136855 -0.001725 -0.791002 0.004494 0.042151
    62 0.014898 -0.903521 -0.015942 -1.038460 0.010007 0.051857
    63 -0.586770 -1.264477 0.200161 -0.200107 -0.096960 -2.129319
    64 1.530648 0.054775 0.009035 0.154202 -0.079651 0.158040
    65 1.106228 0.052330 -0.001860 0.312988 -0.289446 0.975216
    66 -0.139399 -0.111698 0.014397 0.285382 -0.030687 1.580508
    67 -1.877860 8.909492 -0.309748 1.610346 -0.009098 -1.520335
  time 12
    0 6.494984 -12.689190 -4.587512 1.610831 -0.000833 0.005599
    1 -1.064977 0.427841 3.494147 -1.570789 1.456595 -2.443453
    2 0.631628 -0.525761 0.000000 -0.000001 0.000000 -0.608058
    3 -0.359356 -0.525757 0.000000 -0.000001 0.000000 -1.216146
    4 -1.349792 -0.525757 0.000000 -0.000001 0.000000 -1.216138
    5 0.000000 0.444557 -0.150236 -1.570796 3.141592 1.570796
    6 0.000000 0.444557 -1.633967 -1.570796 2.879793 1.570796
    7 1.065000 0.427841 3.494147 -1.570792 -1.684999 -0.698137
    8 -0.631627 0.525760 0.000000 0.000000 0.000000 -0.666665
    9 0.359358 0.525757 0.000000 0.000000 0.000000 -1.216121
    10 1.349793 0.525756 0.000000 0.000000 0.000000 -1.216121
    11 0.000000 2.775445 -3.287100 0.000000 -1.570796 0.000000
    12 4.055391 0.787430 -0.000001 0.000001 0.000000 -3.576754
    13 5.638199 0.787432 -0.000001 0.000001 0.000000 -4.011944
    14 7.208800 0.787434 -0.000002 0.000001 0.000000 -4.011944
    15 7.161302 -0.436564 0.542799 -3.141591 -1.570451 0.000000
    16 7.161302 -0.436564 -0.539481 -3.141592 1.570796 0.000000
    17 0.000000 1.803919 -3.985617 0.000000 -1.570796 0.000000
    18 4.656112 0.438828 0.399058 1.570796 0.000000 -1.570796
    19 0.000000 2.705573 -0.826574 -1.570796 0.698132 1.570796
    20 -0.624302 5.320284 0.532680 -1.570796 0.000000 0.000000
    21 0.000001 49.921204 -0.000001 1.570796 0.000000 0.000000
    22 -2.098057 0.171298 1.780126 -1.570796 0.000000 0.000000
    23 0.000002 49.921204 -0.000001 1.570796 0.000000 0.000000
    24 0.001787 1.627478 -66.965790 -1.570796 0.000000 0.000000
    25 11.764790 0.000004 5.034005 -0.000001 0.000001 1.570796
    26 -16.920902 -0.000004 5.034000 -0.000001 0.000001 1.570796
    27 -16.920902 -0.000004 -4.642414 -0.000001 0.000001 1.570796
    28 11.764790 0.000004 -4.642411 -0.000001 0.000001 1.570796
    29 0.356633 0.420623 -0.003287 0.000000 0.000000 0.000000
    30 8.821807 0.130239 -5.006947 6.075611 -1.973357 -0.010147
    31 2.151739 8.356322 -0.251372 1.545868 -3.136717 1.482755
    32 -0.032857 -8.490924 -0.084602 0.080418 0.489208 0.107114
    33 -0.488518 -2.755602 -0.228260 -0.242250 0.060691 -0.057732
    34 0.039887 -1.538386 0.018135 -1.634715 -0.010403 0.036650
    35 0.028786 -1.134327 -0.109049 -0.791875 -0.013746 0.015532
    36 0.250027 -2.820665 -0.238396 -0.313985 0.018280 -0.085804
    37 -0.049759 -1.602417 0.049696 -1.312011 0.004662 -0.036064
    38 -0.034142 -1.175657 0.045718 -1.263217 0.005489 -0.033341
    39 0.957766 -2.746780 -0.090302 0.167150 -0.150256 0.099289
    40 -0.033420 -1.393223 -0.019070 -0.517862 0.008329 -0.025205
    41 -0.022360 -0.957436 0.007065 -0.527930 0.007982 -0.025323
    42 -1.180681 -2.507217 -0.193859 -0.150629 0.142428 -0.022092
    43 -0.024967 -1.123934 0.017597 -0.759797 0.006951 -0.032333
    44 -0.020057 -0.906594 0.037435 -1.162008 0.002397 -0.047687
    45 0.603042 -1.197277 0.181473 0.666402 -0.922572 -1.051051
    46 1.504676 -0.177260 -0.006710 0.213418 0.065484 -0.624307
    47 1.049988 -0.147821 0.032291 0.039018 -0.188604 -0.767764
    48 0.120153 -0.050270 -0.054489 0.287569 3.110905 1.561085
    49 0.303467 -2.543678 -10.657858 -1.860898 -5.228349 -1.411964
    50 0.042255 -8.403542 0.006260 0.079088 -0.371896 0.472152
    51 0.447953 -2.798986 -0.200443 -0.244423 -0.056549 0.060325
    52 -0.032909 -1.499736 0.024472 -1.286538 0.022998 -0.023524
    53 -0.027022 -1.096452 -0.028023 -0.524788 0.013722 -0.005621
    54 -0.249534 -2.846964 -0.174213 -0.316339 -0.019324 0.076958
    55 0.043235 -1.656596 0.076480 -1.215719 -0.019648 0.004291
    56 0.031729 -1.149111 0.058838 -0.758918 -0.007903 0.005292
    57 -0.963866 -2.785145 -0.085350 -0.133536 0.264013 -0.032832
    58 0.028479 -1.403067 -0.009354 -0.611716 -0.012368 -0.024940
    59 0.021413 -0.942156 0.012233 -1.051190 -0.028955 -0.035163
    60 1.164475 -2.543940 -0.170330 -0.166618 -0.161408 -0.083733
    61 0.024032 -1.136855 -0.001725 -0.791002 0.004494 0.042151
    62 0.014898 -0.903521 -0.015942 -1.038460 0.010007 0.051857
    63 -0.586770 -1.264477 0.200161 -0.200107 -0.096960 -2.129319
    64 1.530648 0.054775 0.009035 0.154202 -0.079651 0.158040
    65 1.106228 0.052330 -0.001860 0.312988 -0.289446 0.975216
    66 -0.139399 -0.111698 0.014397 0.285382 -0.030687 1.580508
    67 -1.877860 8.909492 -0.309748 1.610346 -0.009098 -1.520335
  time 13
    0 6.479359 -12.685284 -4.587512 1.609145 -0.009930 0.003898
    1 -1.064977 0.427841 3.494147 -1.570789 1.456595 -2.443453
    2 0.631628 -0.525761 0.000000 -0.000001 0.000000 0.000000
    3 -0.359356 -0.525757 0.000000 -0.000001 0.000000 -0.608073
    4 -1.349792 -0.525757 0.000000 -0.000001 0.000000 -1.216138
    5 0.000000 0.444557 -0.150236 -1.570796 3.141592 1.570796
    6 0.000000 0.444557 -1.633967 -1.570796 2.879793 1.570796
    7 1.065000 0.427841 3.494147 -1.570792 -1.684999 -0.698137
    8 -0.631627 0.525760 0.000000 0.000000 0.000000 0.000000
    9 0.359358 0.525757 0.000000 0.000000 0.000000 -0.666665
    10 1.349793 0.525756 0.000000 0.000000 0.000000 -1.216121
    11 0.000000 2.775445 -3.287100 0.000000 -1.570796 0.000000
    12 4.055391 0.787430 -0.000001 0.000001 0.000000 -3.141592
    13 5.638199 0.787432 -0.000001 0.000001 0.000000 -3.576754
    14 7.208800 0.787434 -0.000002 0.000001 0.000000 -4.011944
    15 7.161302 -0.436564 0.542799 -3.141591 -1.570451 0.000000
    16 7.161302 -0.436564 -0.539481 -3.141592 1.570796 0.000000
    17 0.000000 1.803919 -3.985617 0.000000 -1.570796 0.000000
    18 4.656112 0.438828 0.399058 1.570796 0.000000 -1.570796
    19 0.000000 2.705573 -0.826574 -1.570796 0.698132 1.570796
    20 -0.624302 5.320284 0.532680 -1.570796 0.000000 0.000000
    21 0.000001 49.921204 -0.000001 1.570796 0.000000 0.000000
    22 -2.098057 0.171298 1.780126 -1.570796 0.000000 0.000000
    23 0.000002 49.921204 -0.000001 1.570796 0.000000 0.000000
    24 0.001787 1.627478 -66.965790 -1.570796 0.000000 0.000000
    25 11.764790 0.000004 5.034005 -0.000001 0.000001 1.570796
    26 -16.920902 -0.000004 5.034000 -0.000001 0.000001 1.570796
    27 -16.920902 -0.000004 -4.642414 -0.000001 0.000001 1.570796
    28 11.764790 0.000004 -4.642411 -0.000001 0.000001 1.570796
    29 0.356633 0.420623 -0.003287 0.000000 0.000000 0.000000
    30 8.821807 0.130239 -5.003041 6.077331 -1.973357 -0.011662
    31 2.151739 8.356322 -0.251372 1.545868 -3.136717 1.482755
    32 -0.032857 -8.490924 -0.084602 0.077988 0.480195 0.105556
    33 -0.488518 -2.755602 -0.228260 -0.242250 0.060691 -0.057732
    34 0.039887 -1.538386 0.018135 -1.634715 -0.010403 0.036650
    35 0.028786 -1.134327 -0.109049 -0.791875 -0.013746 0.015532
    36 0.250027 -2.820665 -0.238396 -0.313985 0.018280 -0.085804
    37 -0.049759 -1.602417 0.049696 -1.312011 0.004662 -0.036064
    38 -0.034142 -1.175657 0.045718 -1.263217 0.005489 -0.033341
    39 0.957766 -2.746780 -0.090302 0.167150 -0.150256 0.099289
    40 -0.033420 -1.393223 -0.019070 -0.517862 0.008329 -0.025205
    41 -0.022360 -0.957436 0.007065 -0.527930 0.007982 -0.025323
    42 -1.180681 -2.507217 -0.193859 -0.150629 0.142428 -0.022092
    43 -0.024967 -1.123934 0.017597 -0.759797 0.006951 -0.032333
    44 -0.020057 -0.906594 0.037435 -1.162008 0.002397 -0.047687
    45 0.603042 -1.197277 0.181473 0.666402 -0.922572 -1.051051
    46 1.504676 -0.177260 -0.006710 0.213418 0.065484 -0.624307
    47 1.049988 -0.147821 0.032291 0.039018 -0.188604 -0.767764
    48 0.120153 -0.050270 -0.054489 0.287569 3.110905 1.561085
    49 0.299561 -2.535865 -10.665671 -1.862019 -5.225941 -1.412153
    50 0.042255 -8.407448 0.006260 0.083220 -0.379380 0.463461
    51 0.447953 -2.798986 -0.200443 -0.244423 -0.056549 0.060325
    52 -0.032909 -1.499736 0.024472 -1.286538 0.022998 -0.023524
    53 -0.027022 -1.096452 -0.028023 -0.524788 0.013722 -0.005621
    54 -0.249534 -2.846964 -0.174213 -0.316339 -0.019324 0.076958
    55 0.043235 -1.656596 0.076480 -1.215719 -0.019648 0.004291
    56 0.031729 -1.149111 0.058838 -0.758918 -0.007903 0.005292
    57 -0.963866 -2.785145 -0.085350 -0.133536 0.264013 -0.032832
    58 0.028479 -1.403067 -0.009354 -0.611716 -0.012368 -0.024940
    59 0.021413 -0.942156 0.012233 -1.051190 -0.028955 -0.035163
    60 1.164475 -2.543940 -0.170330 -0.166618 -0.161408 -0.083733
    61 0.024032 -1.136855 -0.001725 -0.791002 0.004494 0.042151
    62 0.014898 -0.903521 -0.015942 -1.038460 0.010007 0.051857
    63 -0.586770 -1.264477 0.200161 -0.200107 -0.096960 -2.129319
    64 1.530648 0.054775 0.009035 0.154202 -0.079651 0.158040
    65 1.106228 0.052330 -0.001860 0.312988 -0.289446 0.975216
    66 -0.139399 -0.111698 0.014397 0.285382 -0.030687 1.580508
    67 -1.877860 8.909492 -0.309748 1.610346 -0.009098 -1.520335
  time 14
    0 6.448108 -12.673564 -4.560168 1.601096 -0.025178 0.001063
    1 -1.064977 0.427841 3.494147 -1.570789 1.456595 -2.443453
    2 0.631628 -0.525761 0.000000 -0.000001 0.000000 -0.078159
    3 -0.359356 -0.525757 0.000000 -0.000001 0.000000 0.000000
    4 -1.349792 -0.525757 0.000000 -0.000001 0.000000 -1.216138
    5 0.000000 0.444557 -0.150236 -1.570796 3.141592 1.570796
    6 0.000000 0.444557 -1.633967 -1.570796 2.879793 1.570796
    7 1.065000 0.427841 3.494147 -1.570792 -1.684999 -0.698137
    8 -0.631627 0.525760 0.000000 0.000000 0.000000 0.078138
    9 0.359358 0.525757 0.000000 0.000000 0.000000 0.000000
    10 1.349793 0.525756 0.000000 0.000000 0.000000 -1.216121
    11 0.000000 2.775445 -3.287100 0.000000 -1.570796 0.000000
    12 4.055391 0.787430 -0.000001 0.000001 0.000000 -3.219752
    13 5.638199 0.787432 -0.000001 0.000001 0.000000 -3.141592
    14 7.208800 0.787434 -0.000002 0.000001 0.000000 -4.011944
    15 7.161302 -0.436564 0.542799 -3.141591 -1.570451 0.000000
    16 7.161302 -0.436564 -0.539481 -3.141592 1.570796 0.000000
    17 0.000000 1.803919 -3.985617 0.000000 -1.570796 0.000000
    18 4.656112 0.438828 0.399058 1.570796 0.000000 -1.570796
    19 0.000000 2.705573 -0.826574 -1.570796 0.698132 1.570796
    20 -0.624302 5.320284 0.532680 -1.570796 0.000000 0.000000
    21 0.000001 49.921204 -0.000001 1.570796 0.000000 0.000000
    22 -2.098057 0.171298 1.780126 -1.570796 0.000000 0.000000
    23 0.000002 49.921204 -0.000001 1.570796 0.000000 0.000000
    24 0.001787 1.627478 -66.965790 -1.570796 0.000000 0.000000
    25 11.764790 0.000004 5.034005 -0.000001 0.000001 1.570796
    26 -16.920902 -0.000004 5.034000 -0.000001 0.000001 1.570796
    27 -16.920902 -0.000004 -4.642414 -0.000001 0.000001 1.570796
    28 11.764790 0.000004 -4.642411 -0.000001 0.000001 1.570796
    29 0.356633 0.420623 -0.003287 0.000000 0.000000 0.000000
    30 8.821807 0.130239 -5.003041 6.078859 -1.973445 -0.013177
    31 2.151739 8.356322 -0.251372 1.545868 -3.136717 1.482755
    32 -0.036764 -8.490924 -0.084602 0.076137 0.463669 0.109215
    33 -0.488518 -2.755602 -0.228260 -0.242250 0.060691 -0.057732
    34 0.039887 -1.538386 0.018135 -1.634715 -0.010403 0.036650
    35 0.028786 -1.134327 -0.109049 -0.791875 -0.013746 0.015532
    36 0.250027 -2.820665 -0.238396 -0.313985 0.018280 -0.085804
    37 -0.049759 -1.602417 0.049696 -1.312011 0.004662 -0.036064
    38 -0.034142 -1.175657 0.045718 -1.263217 0.005489 -0.033341
    39 0.957766 -2.746780 -0.090302 0.167150 -0.150256 0.099289
    40 -0.033420 -1.393223 -0.019070 -0.517862 0.008329 -0.025205
    41 -0.022360 -0.957436 0.007065 -0.527930 0.007982 -0.025323
    42 -1.180681 -2.507217 -0.193859 -0.150629 0.142428 -0.022092
    43 -0.024967 -1.123934 0.017597 -0.759797 0.006951 -0.032333
    44 -0.020057 -0.906594 0.037435 -1.162008 0.002397 -0.047687
    45 0.603042 -1.197277 0.181473 0.666402 -0.922572 -1.051051
    46 1.504676 -0.177260 -0.006710 0.213418 0.065484 -0.624307
    47 1.049988 -0.147821 0.032291 0.039018 -0.188604 -0.767764
    48 0.120153 -0.050270 -0.054489 0.287569 3.110905 1.561085
    49 0.299561 -2.520240 -10.677390 -1.864085 -5.221706 -1.412721
    50 0.042255 -8.411355 0.010167 0.090826 -0.389757 0.443524
    51 0.447953 -2.798986 -0.200443 -0.244423 -0.056549 0.060325
    52 -0.032909 -1.499736 0.024472 -1.286538 0.022998 -0.023524
    53 -0.027022 -1.096452 -0.028023 -0.524788 0.013722 -0.005621
    54 -0.249534 -2.846964 -0.174213 -0.316339 -0.019324 0.076958
    55 0.043235 -1.656596 0.076480 -1.215719 -0.019648 0.004291
    56 0.031729 -1.149111 0.058838 -0.758918 -0.007903 0.005292
    57 -0.963866 -2.785145 -0.085350 -0.133536 0.264013 -0.032832
    58 0.028479 -1.403067 -0.009354 -0.611716 -0.012368 -0.024940
    59 0.021413 -0.942156 0.012233 -1.051190 -0.028955 -0.035163
    60 1.164475 -2.543940 -0.170330 -0.166618 -0.161408 -0.083733
    61 0.024032 -1.136855 -0.001725 -0.791002 0.004494 0.042151
    62 0.014898 -0.903521 -0.015942 -1.038460 0.010007 0.051857
    63 -0.586770 -1.264477 0.200161 -0.200107 -0.096960 -2.129319
    64 1.530648 0.054775 0.009035 0.154202 -0.079651 0.158040
    65 1.106228 0.052330 -0.001860 0.312988 -0.289446 0.975216
    66 -0.139399 -0.111698 0.014397 0.285382 -0.030687 1.580508
    67 -1.877860 8.909492 -0.309748 1.610346 -0.009098 -1.520335
  time 15
    0 6.432482 -12.661845 -4.528917 1.593595 -0.033186 -0.000719
    1 -1.064977 0.427841 3.494147 -1.570789 1.456595 -2.443453
    2 0.631628 -0.525761 0.000000 -0.000001 0.000000 0.000000
    3 -0.359356 -0.525757 0.000000 -0.000001 0.000000 -0.078133
    4 -1.349792 -0.525757 0.000000 -0.000001 0.000000 -0.608069
    5 0.000000 0.444557 -0.150236 -1.570796 3.141592 1.570796
    6 0.000000 0.444557 -1.633967 -1.570796 2.879793 1.570796
    7 1.065000 0.427841 3.494147 -1.570792 -1.684999 -0.698137
    8 -0.631627 0.525760 0.000000 0.000000 0.000000 0.000000
    9 0.359358 0.525757 0.000000 0.000000 0.000000 0.078138
    10 1.349793 0.525756 0.000000 0.000000 0.000000 -0.666665
    11 0.000000 2.775445 -3.287100 0.000000 -1.570796 0.000000
    12 4.055391 0.787430 -0.000001 0.000001 0.000000 -3.141592
    13 5.638199 0.787432 -0.000001 0.000001 0.000000 -3.219752
    14 7.208800 0.787434 -0.000002 0.000001 0.000000 -3.576754
    15 7.161302 -0.436564 0.542799 -3.141591 -1.570451 0.000000
    16 7.161302 -0.436564 -0.539481 -3.141592 1.570796 0.000000
    17 0.000000 1.803919 -3.985617 0.000000 -1.570796 0.000000
    18 4.656112 0.438828 0.399058 1.570796 0.000000 -1.570796
    19 0.000000 2.705573 -0.826574 -1.570796 0.698132 1.570796
    20 -0.624302 5.320284 0.532680 -1.570796 0.000000 0.000000
    21 0.000001 49.921204 -0.000001 1.570796 0.000000 0.000000
    22 -2.098057 0.171298 1.780126 -1.570796 0.000000 0.000000
    23 0.000002 49.921204 -0.000001 1.570796 0.000000 0.000000
    24 0.001787 1.627478 -66.965790 -1.570796 0.000000 0.000000
    25 11.764790 0.000004 5.034005 -0.000001 0.000001 1.570796
    26 -16.920902 -0.000004 5.034000 -0.000001 0.000001 1.570796
    27 -16.920902 -0.000004 -4.642414 -0.000001 0.000001 1.570796
    28 11.764790 0.000004 -4.642411 -0.000001 0.000001 1.570796
    29 0.356633 0.420623 -0.003287 0.000000 0.000000 0.000000
    30 8.821807 0.130239 -5.003041 6.080197 -1.973445 -0.014408
    31 2.151739 8.356322 -0.251372 1.545868 -3.136717 1.482755
    32 -0.040670 -8.490924 -0.084602 0.075988 0.454273 0.114468
    33 -0.488518 -2.755602 -0.228260 -0.242250 0.060691 -0.057732
    34 0.039887 -1.538386 0.018135 -1.634715 -0.010403 0.036650
    35 0.028786 -1.134327 -0.109049 -0.791875 -0.013746 0.015532
    36 0.250027 -2.820665 -0.238396 -0.313985 0.018280 -0.085804
    37 -0.049759 -1.602417 0.049696 -1.312011 0.004662 -0.036064
    38 -0.034142 -1.175657 0.045718 -1.263217 0.005489 -0.033341
    39 0.957766 -2.746780 -0.090302 0.167150 -0.150256 0.099289
    40 -0.033420 -1.393223 -0.019070 -0.517862 0.008329 -0.025205
    41 -0.022360 -0.957436 0.007065 -0.527930 0.007982 -0.025323
    42 -1.180681 -2.507217 -0.193859 -0.150629 0.142428 -0.022092
    43 -0.024967 -1.123934 0.017597 -0.759797 0.006951 -0.032333
    44 -0.020057 -0.906594 0.037435 -1.162008 0.002397 -0.047687
    45 0.603042 -1.197277 0.181473 0.666402 -0.922572 -1.051051
    46 1.504676 -0.177260 -0.006710 0.213418 0.065484 -0.624307
    47 1.049988 -0.147821 0.032291 0.039018 -0.188604 -0.767764
    48 0.120153 -0.050270 -0.054489 0.287569 3.110905 1.561085
    49 0.299561 -2.516333 -10.681297 -1.864970 -5.219797 -1.412911
    50 0.046161 -8.411355 0.010167 0.095618 -0.393798 0.430159
    51 0.447953 -2.798986 -0.200443 -0.244423 -0.056549 0.060325
    52 -0.032909 -1.499736 0.024472 -1.286538 0.022998 -0.023524
    53 -0.027022 -1.096452 -0.028023 -0.524788 0.013722 -0.005621
    54 -0.249534 -2.846964 -0.174213 -0.316339 -0.019324 0.076958
    55 0.043235 -1.656596 0.076480 -1.215719 -0.019648 0.004291
    56 0.031729 -1.149111 0.058838 -0.758918 -0.007903 0.005292
    57 -0.963866 -2.785145 -0.085350 -0.133536 0.264013 -0.032832
    58 0.028479 -1.403067 -0.009354 -0.611716 -0.012368 -0.024940
    59 0.021413 -0.942156 0.012233 -1.051190 -0.028955 -0.035163
    60 1.164475 -2.543940 -0.170330 -0.166618 -0.161408 -0.083733
    61 0.024032 -1.136855 -0.001725 -0.791002 0.004494 0.042151
    62 0.014898 -0.903521 -0.015942 -1.038460 0.010007 0.051857
    63 -0.586770 -1.264477 0.200161 -0.200107 -0.096960 -2.129319
    64 1.530648 0.054775 0.009035 0.154202 -0.079651 0.158040
    65 1.106228 0.052330 -0.001860 0.312988 -0.289446 0.975216
    66 -0.139399 -0.111698 0.014397 0.285382 -0.030687 1.580508
    67 -1.877860 8.909492 -0.309748 1.610346 -0.009098 -1.520335
  time 16
    0 6.432482 -12.657939 -4.493759 1.587990 -0.029662 -0.001043
    1 -1.064977 0.427841 3.494147 -1.570789 1.456595 -2.443453
    2 0.631628 -0.525761 0.000000 -0.000001 0.000000 0.000000
    3 -0.359356 -0.525757 0.000000 -0.000001 0.000000 0.000000
    4 -1.349792 -0.525757 0.000000 -0.000001 0.000000 0.000000
    5 0.000000 0.444557 -0.150236 -1.570796 3.141592 1.570796
    6 0.000000 0.444557 -1.633967 -1.570796 2.879793 1.570796
    7 1.065000 0.427841 3.494147 -1.570792 -1.684999 -0.698137
    8 -0.631627 0.525760 0.000000 0.000000 0.000000 0.000000
    9 0.359358 0.525757 0.000000 0.000000 0.000000 0.000000
    10 1.349793 0.525756 0.000000 0.000000 0.000000 0.000000
    11 0.000000 2.775445 -3.287100 0.000000 -1.570796 0.000000
    12 4.055391 0.787430 -0.000001 0.000001 0.000000 -3.141592
    13 5.638199 0.787432 -0.000001 0.000001 0.000000 -3.141592
    14 7.208800 0.787434 -0.000002 0.000001 0.000000 -3.141592
    15 7.161302 -0.436564 0.542799 -3.141591 -1.570451 0.000000
    16 7.161302 -0.436564 -0.539481 -3.141592 1.570796 0.000000
    17 0.000000 1.803919 -3.985617 0.000000 -1.570796 0.000000
    18 4.656112 0.438828 0.399058 1.570796 0.000000 -1.570796
    19 0.000000 2.705573 -0.826574 -1.570796 0.698132 1.570796
    20 -0.624302 5.320284 0.532680 -1.570796 0.000000 0.000000
    21 0.000001 49.921204 -0.000001 1.570796 0.000000 0.000000
    22 -2.098057 0.171298 1.780126 -1.570796 0.000000 0.000000
    23 0.000002 49.921204 -0.000001 1.570796 0.000000 0.000000
    24 0.001787 1.627478 -66.965790 -1.570796 0.000000 0.000000
    25 11.764790 0.000004 5.034005 -0.000001 0.000001 1.570796
    26 -16.920902 -0.000004 5.034000 -0.000001 0.000001 1.570796
    27 -16.920902 -0.000004 -4.642414 -0.000001 0.000001 1.570796
    28 11.764790 0.000004 -4.642411 -0.000001 0.000001 1.570796
    29 0.356633 0.420623 -0.003287 0.000000 0.000000 0.000000
    30 8.821807 0.130239 -5.003041 6.081439 -1.973445 -0.015639
    31 2.151739 8.356322 -0.251372 1.545868 -3.136717 1.482755
    32 -0.040670 -8.490924 -0.084602 0.078081 0.456466 0.120880
    33 -0.488518 -2.755602 -0.228260 -0.242250 0.060691 -0.057732
    34 0.039887 -1.538386 0.018135 -1.634715 -0.010403 0.036650
    35 0.028786 -1.134327 -0.109049 -0.791875 -0.013746 0.015532
    36 0.250027 -2.820665 -0.238396 -0.313985 0.018280 -0.085804
    37 -0.049759 -1.602417 0.049696 -1.312011 0.004662 -0.036064
    38 -0.034142 -1.175657 0.045718 -1.263217 0.005489 -0.033341
    39 0.957766 -2.746780 -0.090302 0.167150 -0.150256 0.099289
    40 -0.033420 -1.393223 -0.019070 -0.517862 0.008329 -0.025205
    41 -0.022360 -0.957436 0.007065 -0.527930 0.007982 -0.025323
    42 -1.180681 -2.507217 -0.193859 -0.150629 0.142428 -0.022092
    43 -0.024967 -1.123934 0.017597 -0.759797 0.006951 -0.032333
    44 -0.020057 -0.906594 0.037435 -1.162008 0.002397 -0.047687
    45 0.603042 -1.197277 0.181473 0.666402 -0.922572 -1.051051
    46 1.504676 -0.177260 -0.006710 0.213418 0.065484 -0.624307
    47 1.049988 -0.147821 0.032291 0.039018 -0.188604 -0.767764
    48 0.120153 -0.050270 -0.054489 0.287569 3.110905 1.561085
    49 0.303467 -2.524146 -10.673484 -1.863967 -5.221872 -1.412627
    50 0.046161 -8.411355 0.010167 0.095438 -0.388360 0.428699
    51 0.447953 -2.798986 -0.200443 -0.244423 -0.056549 0.060325
    52 -0.032909 -1.499736 0.024472 -1.286538 0.022998 -0.023524
    53 -0.027022 -1.096452 -0.028023 -0.524788 0.013722 -0.005621
    54 -0.249534 -2.846964 -0.174213 -0.316339 -0.019324 0.076958
    55 0.043235 -1.656596 0.076480 -1.215719 -0.019648 0.004291
    56 0.031729 -1.149111 0.058838 -0.758918 -0.007903 0.005292
    57 -0.963866 -2.785145 -0.085350 -0.133536 0.264013 -0.032832
    58 0.028479 -1.403067 -0.009354 -0.611716 -0.012368 -0.024940
    59 0.021413 -0.942156 0.012233 -1.051190 -0.028955 -0.035163
    60 1.164475 -2.543940 -0.170330 -0.166618 -0.161408 -0.083733
    61 0.024032 -1.136855 -0.001725 -0.791002 0.004494 0.042151
    62 0.014898 -0.903521 -0.015942 -1.038460 0.010007 0.051857
    63 -0.586770 -1.264477 0.200161 -0.200107 -0.096960 -2.129319
    64 1.530648 0.054775 0.009035 0.154202 -0.079651 0.158040
    65 1.106228 0.052330 -0.001860 0.312988 -0.289446 0.975216
    66 -0.139399 -0.111698 0.014397 0.285382 -0.030687 1.580508
    67 -1.877860 8.909492 -0.309748 1.610346 -0.009098 -1.520335
  time 17
    0 6.440295 -12.650126 -4.446883 1.581964 -0.021430 -0.000881
    1 -1.064977 0.427841 3.494147 -1.570789 1.456595 -2.443453
    2 0.631628 -0.525761 0.000000 -0.000001 0.000000 0.000000
    3 -0.359356 -0.525757 0.000000 -0.000001 0.000000 0.000000
    4 -1.349792 -0.525757 0.000000 -0.000001 0.000000 -0.078128
    5 0.000000 0.444557 -0.150236 -1.570796 3.141592 1.570796
    6 0.000000 0.444557 -1.633967 -1.570796 2.879793 1.570796
    7 1.065000 0.427841 3.494147 -1.570792 -1.684999 -0.698137
    8 -0.631627 0.525760 0.000000 0.000000 0.000000 0.000000
    9 0.359358 0.525757 0.000000 0.000000 0.000000 0.000000
    10 1.349793 0.525756 0.000000 0.000000 0.000000 0.078138
    11 0.000000 2.775445 -3.287100 0.000000 -1.570796 0.000000
    12 4.055391 0.787430 -0.000001 0.000001 0.000000 -3.141592
    13 5.638199 0.787432 -0.000001 0.000001 0.000000 -3.141592
    14 7.208800 0.787434 -0.000002 0.000001 0.000000 -3.219752
    15 7.161302 -0.436564 0.542799 -3.141591 -1.570451 0.000000
    16 7.161302 -0.436564 -0.539481 -3.141592 1.570796 0.000000
    17 0.000000 1.803919 -3.985617 0.000000 -1.570796 0.000000
    18 4.656112 0.438828 0.399058 1.570796 0.000000 -1.570796
    19 0.000000 2.705573 -0.826574 -1.570796 0.698132 1.570796
    20 -0.624302 5.320284 0.532680 -1.570796 0.000000 0.000000
    21 0.000001 49.921204 -0.000001 1.570796 0.000000 0.000000
    22 -2.098057 0.171298 1.780126 -1.570796 0.000000 0.000000
    23 0.000002 49.921204 -0.000001 1.570796 0.000000 0.000000
    24 0.001787 1.627478 -66.965790 -1.570796 0.000000 0.000000
    25 11.764790 0.000004 5.034005 -0.000001 0.000001 1.570796
    26 -16.920902 -0.000004 5.034000 -0.000001 0.000001 1.570796
    27 -16.920902 -0.000004 -4.642414 -0.000001 0.000001 1.570796
    28 11.764790 0.000004 -4.642411 -0.000001 0.000001 1.570796
    29 0.356633 0.420623 -0.003287 0.000000 0.000000 0.000000
    30 8.821807 0.130239 -5.003041 6.082681 -1.973445 -0.016870
    31 2.151739 8.356322 -0.251372 1.545868 -3.136717 1.482755
    32 -0.036764 -8.494830 -0.084602 0.081558 0.463093 0.129140
    33 -0.488518 -2.755602 -0.228260 -0.242250 0.060691 -0.057732
    34 0.039887 -1.538386 0.018135 -1.634715 -0.010403 0.036650
    35 0.028786 -1.134327 -0.109049 -0.791875 -0.013746 0.015532
    36 0.250027 -2.820665 -0.238396 -0.313985 0.018280 -0.085804
    37 -0.049759 -1.602417 0.049696 -1.312011 0.004662 -0.036064
    38 -0.034142 -1.175657 0.045718 -1.263217 0.005489 -0.033341
    39 0.957766 -2.746780 -0.090302 0.167150 -0.150256 0.099289
    40 -0.033420 -1.393223 -0.019070 -0.517862 0.008329 -0.025205
    41 -0.022360 -0.957436 0.007065 -0.527930 0.007982 -0.025323
    42 -1.180681 -2.507217 -0.193859 -0.150629 0.142428 -0.022092
    43 -0.024967 -1.123934 0.017597 -0.759797 0.006951 -0.032333
    44 -0.020057 -0.906594 0.037435 -1.162008 0.002397 -0.047687
    45 0.603042 -1.197277 0.181473 0.666402 -0.922572 -1.051051
    46 1.504676 -0.177260 -0.006710 0.213418 0.065484 -0.624307
    47 1.049988 -0.147821 0.032291 0.039018 -0.188604 -0.767764
    48 0.120153 -0.050270 -0.054489 0.287569 3.110905 1.561085
    49 0.307374 -2.543678 -10.661765 -1.862137 -5.225692 -1.412059
    50 0.046161 -8.411355 0.006260 0.093402 -0.378582 0.430963
    51 0.447953 -2.798986 -0.200443 -0.244423 -0.056549 0.060325
    52 -0.032909 -1.499736 0.024472 -1.286538 0.022998 -0.023524
    53 -0.027022 -1.096452 -0.028023 -0.524788 0.013722 -0.005621
    54 -0.249534 -2.846964 -0.174213 -0.316339 -0.019324 0.076958
    55 0.043235 -1.656596 0.076480 -1.215719 -0.019648 0.004291
    56 0.031729 -1.149111 0.058838 -0.758918 -0.007903 0.005292
    57 -0.963866 -2.785145 -0.085350 -0.133536 0.264013 -0.032832
    58 0.028479 -1.403067 -0.009354 -0.611716 -0.012368 -0.024940
    59 0.021413 -0.942156 0.012233 -1.051190 -0.028955 -0.035163
    60 1.164475 -2.543940 -0.170330 -0.166618 -0.161408 -0.083733
    61 0.024032 -1.136855 -0.001725 -0.791002 0.004494 0.042151
    62 0.014898 -0.903521 -0.015942 -1.038460 0.010007 0.051857
    63 -0.586770 -1.264477 0.200161 -0.200107 -0.096960 -2.129319
    64 1.530648 0.054775 0.009035 0.154202 -0.079651 0.158040
    65 1.106228 0.052330 -0.001860 0.312988 -0.289446 0.975216
    66 -0.139399 -0.111698 0.014397 0.285382 -0.030687 1.580508
    67 -1.877860 8.909492 -0.309748 1.610346 -0.009098 -1.520335
  time 18
    0 6.452014 -12.646220 -4.403913 1.576401 -0.011628 -0.000476
    1 -1.064977 0.427841 3.494147 -1.570789 1.456595 -2.443453
    2 0.631628 -0.525761 0.000000 -0.000001 0.000000 0.000000
    3 -0.359356 -0.525757 0.000000 -0.000001 0.000000 0.000000
    4 -1.349792 -0.525757 0.000000 -0.000001 0.000000 0.000000
    5 0.000000 0.444557 -0.150236 -1.570796 3.141592 1.570796
    6 0.000000 0.444557 -1.633967 -1.570796 2.879793 1.570796
    7 1.065000 0.427841 3.494147 -1.570792 -1.684999 -0.698137
    8 -0.631627 0.525760 0.000000 0.000000 0.000000 0.000000
    9 0.359358 0.525757 0.000000 0.000000 0.000000 0.000000
    10 1.349793 0.525756 0.000000 0.000000 0.000000 0.000000
    11 0.000000 2.775445 -3.287100 0.000000 -1.570796 0.000000
    12 4.055391 0.787430 -0.000001 0.000001 0.000000 -3.141592
    13 5.638199 0.787432 -0.000001 0.000001 0.000000 -3.141592
    14 7.208800 0.787434 -0.000002 0.000001 0.000000 -3.141592
    15 7.161302 -0.436564 0.542799 -3.141591 -1.570451 0.000000
    16 7.161302 -0.436564 -0.539481 -3.141592 1.570796 0.000000
    17 0.000000 1.803919 -3.985617 0.000000 -1.570796 0.000000
    18 4.656112 0.438828 0.399058 1.570796 0.000000 -1.570796
    19 0.000000 2.705573 -0.826574 -1.570796 0.698132 1.570796
    20 -0.624302 5.320284 0.532680 -1.570796 0.000000 0.000000
    21 0.000001 49.921204 -0.000001 1.570796 0.000000 0.000000
    22 -2.098057 0.171298 1.780126 -1.570796 0.000000 0.000000
    23 0.000002 49.921204 -0.000001 1.570796 0.000000 0.000000
    24 0.001787 1.627478 -66.965790 -1.570796 0.000000 0.000000
    25 11.764790 0.000004 5.034005 -0.000001 0.000001 1.570796
    26 -16.920902 -0.000004 5.034000 -0.000001 0.000001 1.570796
    27 -16.920902 -0.000004 -4.642414 -0.000001 0.000001 1.570796
    28 11.764790 0.000004 -4.642411 -0.000001 0.000001 1.570796
    29 0.356633 0.420623 -0.003287 0.000000 0.000000 0.000000
    30 8.821807 0.130239 -5.003041 6.083828 -1.973533 -0.017912
    31 2.151739 8.356322 -0.251372 1.545868 -3.136717 1.482755
    32 -0.036764 -8.494830 -0.084602 0.085428 0.471315 0.137454
    33 -0.488518 -2.755602 -0.228260 -0.242250 0.060691 -0.057732
    34 0.039887 -1.538386 0.018135 -1.634715 -0.010403 0.036650
    35 0.028786 -1.134327 -0.109049 -0.791875 -0.013746 0.015532
    36 0.250027 -2.820665 -0.238396 -0.313985 0.018280 -0.085804
    37 -0.049759 -1.602417 0.049696 -1.312011 0.004662 -0.036064
    38 -0.034142 -1.175657 0.045718 -1.263217 0.005489 -0.033341
    39 0.957766 -2.746780 -0.090302 0.167150 -0.150256 0.099289
    40 -0.033420 -1.393223 -0.019070 -0.517862 0.008329 -0.025205
    41 -0.022360 -0.957436 0.007065 -0.527930 0.007982 -0.025323
    42 -1.180681 -2.507217 -0.193859 -0.150629 0.142428 -0.022092
    43 -0.024967 -1.123934 0.017597 -0.759797 0.006951 -0.032333
    44 -0.020057 -0.906594 0.037435 -1.162008 0.002397 -0.047687
    45 0.603042 -1.197277 0.181473 0.666402 -0.922572 -1.051051
    46 1.504676 -0.177260 -0.006710 0.213418 0.065484 -0.624307
    47 1.049988 -0.147821 0.032291 0.039018 -0.188604 -0.767764
    48 0.120153 -0.050270 -0.054489 0.287569 3.110905 1.561085
    49 0.311280 -2.563210 -10.646139 -1.860130 -5.229843 -1.411396
    50 0.050068 -8.411355 0.006260 0.090647 -0.367605 0.434943
    51 0.447953 -2.798986 -0.200443 -0.244423 -0.056549 0.060325
    52 -0.032909 -1.499736 0.024472 -1.286538 0.022998 -0.023524
    53 -0.027022 -1.096452 -0.028023 -0.524788 0.013722 -0.005621
    54 -0.249534 -2.846964 -0.174213 -0.316339 -0.019324 0.076958
    55 0.043235 -1.656596 0.076480 -1.215719 -0.019648 0.004291
    56 0.031729 -1.149111 0.058838 -0.758918 -0.007903 0.005292
    57 -0.963866 -2.785145 -0.085350 -0.133536 0.264013 -0.032832
    58 0.028479 -1.403067 -0.009354 -0.611716 -0.012368 -0.024940
    59 0.021413 -0.942156 0.012233 -1.051190 -0.028955 -0.035163
    60 1.164475 -2.543940 -0.170330 -0.166618 -0.161408 -0.083733
    61 0.024032 -1.136855 -0.001725 -0.791002 0.004494 0.042151
    62 0.014898 -0.903521 -0.015942 -1.038460 0.010007 0.051857
    63 -0.586770 -1.264477 0.200161 -0.200107 -0.096960 -2.129319
    64 1.530648 0.054775 0.009035 0.154202 -0.079651 0.158040
    65 1.106228 0.052330 -0.001860 0.312988 -0.289446 0.975216
    66 -0.139399 -0.111698 0.014397 0.285382 -0.030687 1.580508
    67 -1.877860 8.909492 -0.309748 1.610346 -0.009098 -1.520335
  time 19
    0 6.463733 -12.642313 -4.372662 1.572355 -0.003427 -0.000152
    1 -1.064977 0.427841 3.494147 -1.570789 1.456595 -2.443453
    2 0.631628 -0.525761 0.000000 -0.000001 0.000000 0.000000
    3 -0.359356 -0.525757 0.000000 -0.000001 0.000000 0.000000
    4 -1.349792 -0.525757 0.000000 -0.000001 0.000000 0.000000
    5 0.000000 0.444557 -0.150236 -1.570796 3.141592 1.570796
    6 0.000000 0.444557 -1.633967 -1.570796 2.879793 1.570796
    7 1.065000 0.427841 3.494147 -1.570792 -1.684999 -0.698137
    8 -0.631627 0.525760 0.000000 0.000000 0.000000 0.000000
    9 0.359358 0.525757 0.000000 0.000000 0.000000 0.000000
    10 1.349793 0.525756 0.000000 0.000000 0.000000 0.000000
    11 0.000000 2.775445 -3.287100 0.000000 -1.570796 0.000000
    12 4.055391 0.787430 -0.000001 0.000001 0.000000 -3.141592
    13 5.638199 0.787432 -0.000001 0.000001 0.000000 -3.141592
    14 7.208800 0.787434 -0.000002 0.000001 0.000000 -3.141592
    15 7.161302 -0.436564 0.542799 -3.141591 -1.570451 0.000000
    16 7.161302 -0.436564 -0.539481 -3.141592 1.570796 0.000000
    17 0.000000 1.803919 -3.985617 0.000000 -1.570796 0.000000
    18 4.656112 0.438828 0.399058 1.570796 0.000000 -1.570796
    19 0.000000 2.705573 -0.826574 -1.570796 0.698132 1.570796
    20 -0.624302 5.320284 0.532680 -1.570796 0.000000 0.000000
    21 0.000001 49.921204 -0.000001 1.570796 0.000000 0.000000
    22 -2.098057 0.171298 1.780126 -1.570796 0.000000 0.000000
    23 0.000002 49.921204 -0.000001 1.570796 0.000000 0.000000
    24 0.001787 1.627478 -66.965790 -1.570796 0.000000 0.000000
    25 11.764790 0.000004 5.034005 -0.000001 0.000001 1.570796
    26 -16.920902 -0.000004 5.034000 -0.000001 0.000001 1.570796
    27 -16.920902 -0.000004 -4.642414 -0.000001 0.000001 1.570796
    28 11.764790 0.000004 -4.642411 -0.000001 0.000001 1.570796
    29 0.356633 0.420623 -0.003287 0.000000 0.000000 0.000000
    30 8.825714 0.130239 -5.003041 6.084688 -1.973533 -0.018669
    31 2.151739 8.356322 -0.251372 1.545868 -3.136717 1.482755
    32 -0.032857 -8.494830 -0.084602 0.088587 0.478290 0.143884
    33 -0.488518 -2.755602 -0.228260 -0.242250 0.060691 -0.057732
    34 0.039887 -1.538386 0.018135 -1.634715 -0.010403 0.036650
    35 0.028786 -1.134327 -0.109049 -0.791875 -0.013746 0.015532
    36 0.250027 -2.820665 -0.238396 -0.313985 0.018280 -0.085804
    37 -0.049759 -1.602417 0.049696 -1.312011 0.004662 -0.036064
    38 -0.034142 -1.175657 0.045718 -1.263217 0.005489 -0.033341
    39 0.957766 -2.746780 -0.090302 0.167150 -0.150256 0.099289
    40 -0.033420 -1.393223 -0.019070 -0.517862 0.008329 -0.025205
    41 -0.022360 -0.957436 0.007065 -0.527930 0.007982 -0.025323
    42 -1.180681 -2.507217 -0.193859 -0.150629 0.142428 -0.022092
    43 -0.024967 -1.123934 0.017597 -0.759797 0.006951 -0.032333
    44 -0.020057 -0.906594 0.037435 -1.162008 0.002397 -0.047687
    45 0.603042 -1.197277 0.181473 0.666402 -0.922572 -1.051051
    46 1.504676 -0.177260 -0.006710 0.213418 0.065484 -0.624307
    47 1.049988 -0.147821 0.032291 0.039018 -0.188604 -0.767764
    48 0.120153 -0.050270 -0.054489 0.287569 3.110905 1.561085
    49 0.315187 -2.578835 -10.634420 -1.858419 -5.233331 -1.410828
    50 0.050068 -8.407448 0.006260 0.088311 -0.358625 0.438704
    51 0.447953 -2.798986 -0.200443 -0.244423 -0.056549 0.060325
    52 -0.032909 -1.499736 0.024472 -1.286538 0.022998 -0.023524
    53 -0.027022 -1.096452 -0.028023 -0.524788 0.013722 -0.005621
    54 -0.249534 -2.846964 -0.174213 -0.316339 -0.019324 0.076958
    55 0.043235 -1.656596 0.076480 -1.215719 -0.019648 0.004291
    56 0.031729 -1.149111 0.058838 -0.758918 -0.007903 0.005292
    57 -0.963866 -2.785145 -0.085350 -0.133536 0.264013 -0.032832
    58 0.028479 -1.403067 -0.009354 -0.611716 -0.012368 -0.024940
    59 0.021413 -0.942156 0.012233 -1.051190 -0.028955 -0.035163
    60 1.164475 -2.543940 -0.170330 -0.166618 -0.161408 -0.083733
    61 0.024032 -1.136855 -0.001725 -0.791002 0.004494 0.042151
    62 0.014898 -0.903521 -0.015942 -1.038460 0.010007 0.051857
    63 -0.586770 -1.264477 0.200161 -0.200107 -0.096960 -2.129319
    64 1.530648 0.054775 0.009035 0.154202 -0.079651 0.158040
    65 1.106228 0.052330 -0.001860 0.312988 -0.289446 0.975216
    66 -0.139399 -0.111698 0.014397 0.285382 -0.030687 1.580508
    67 -1.877860 8.909492 -0.309748 1.610346 -0.009098 -1.520335
  time 20
    0 6.467639 -12.642313 -4.360943 1.570796 0.000000 -0.000071
    1 -1.064977 0.427841 3.494147 -1.570789 1.456595 -2.443453
    2 0.631628 -0.525761 0.000000 -0.000001 0.000000 0.000000
    3 -0.359356 -0.525757 0.000000 -0.000001 0.000000 0.000000
    4 -1.349792 -0.525757 0.000000 -0.000001 0.000000 0.000000
    5 0.000000 0.444557 -0.150236 -1.570796 3.141592 1.570796
    6 0.000000 0.444557 -1.633967 -1.570796 2.879793 1.570796
    7 1.065000 0.427841 3.494147 -1.570792 -1.684999 -0.698137
    8 -0.631627 0.525760 0.000000 0.000000 0.000000 0.000000
    9 0.359358 0.525757 0.000000 0.000000 0.000000 0.000000
    10 1.349793 0.525756 0.000000 0.000000 0.000000 0.000000
    11 0.000000 2.775445 -3.287100 0.000000 -1.570796 0.000000
    12 4.055391 0.787430 -0.000001 0.000001 0.000000 -3.141592
    13 5.638199 0.787432 -0.000001 0.000001 0.000000 -3.141592
    14 7.208800 0.787434 -0.000002 0.000001 0.000000 -3.141592
    15 7.161302 -0.436564 0.542799 -3.141591 -1.570451 0.000000
    16 7.161302 -0.436564 -0.539481 -3.141592 1.570796 0.000000
    17 0.000000 1.803919 -3.985617 0.000000 -1.570796 0.000000
    18 4.656112 0.438828 0.399058 1.570796 0.000000 -1.570796
    19 0.000000 2.705573 -0.826574 -1.570796 0.698132 1.570796
    20 -0.624302 5.320284 0.532680 -1.570796 0.000000 0.000000
    21 0.000001 49.921204 -0.000001 1.570796 0.000000 0.000000
    22 -2.098057 0.171298 1.780126 -1.570796 0.000000 0.000000
    23 0.000002 49.921204 -0.000001 1.570796 0.000000 0.000000
    24 0.001787 1.627478 -66.965790 -1.570796 0.000000 0.000000
    25 11.764790 0.000004 5.034005 -0.000001 0.000001 1.570796
    26 -16.920902 -0.000004 5.034000 -0.000001 0.000001 1.570796
    27 -16.920902 -0.000004 -4.642414 -0.000001 0.000001 1.570796
    28 11.764790 0.000004 -4.642411 -0.000001 0.000001 1.570796
    29 0.356633 0.420623 -0.003287 0.000000 0.000000 0.000000
    30 8.825714 0.130239 -5.003041 6.084974 -1.973533 -0.018954
    31 2.151739 8.356322 -0.251372 1.545868 -3.136717 1.482755
    32 -0.032857 -8.494830 -0.084602 0.089914 0.481238 0.146456
    33 -0.488518 -2.755602 -0.228260 -0.242250 0.060691 -0.057732
    34 0.039887 -1.538386 0.018135 -1.634715 -0.010403 0.036650
    35 0.028786 -1.134327 -0.109049 -0.791875 -0.013746 0.015532
    36 0.250027 -2.820665 -0.238396 -0.313985 0.018280 -0.085804
    37 -0.049759 -1.602417 0.049696 -1.312011 0.004662 -0.036064
    38 -0.034142 -1.175657 0.045718 -1.263217 0.005489 -0.033341
    39 0.957766 -2.746780 -0.090302 0.167150 -0.150256 0.099289
    40 -0.033420 -1.393223 -0.019070 -0.517862 0.008329 -0.025205
    41 -0.022360 -0.957436 0.007065 -0.527930 0.007982 -0.025323
    42 -1.180681 -2.507217 -0.193859 -0.150629 0.142428 -0.022092
    43 -0.024967 -1.123934 0.017597 -0.759797 0.006951 -0.032333
    44 -0.020057 -0.906594 0.037435 -1.162008 0.002397 -0.047687
    45 0.603042 -1.197277 0.181473 0.666402 -0.922572 -1.051051
    46 1.504676 -0.177260 -0.006710 0.213418 0.065484 -0.624307
    47 1.049988 -0.147821 0.032291 0.039018 -0.188604 -0.767764
    48 0.120153 -0.050270 -0.054489 0.287569 3.110905 1.561085
    49 0.315187 -2.586648 -10.630514 -1.857769 -5.234742 -1.410544
    50 0.050068 -8.407448 0.002354 0.087353 -0.354933 0.440347
    51 0.447953 -2.798986 -0.200443 -0.244423 -0.056549 0.060325
    52 -0.032909 -1.499736 0.024472 -1.286538 0.022998 -0.023524
    53 -0.027022 -1.096452 -0.028023 -0.524788 0.013722 -0.005621
    54 -0.249534 -2.846964 -0.174213 -0.316339 -0.019324 0.076958
    55 0.043235 -1.656596 0.076480 -1.215719 -0.019648 0.004291
    56 0.031729 -1.149111 0.058838 -0.758918 -0.007903 0.005292
    57 -0.963866 -2.785145 -0.085350 -0.133536 0.264013 -0.032832
    58 0.028479 -1.403067 -0.009354 -0.611716 -0.012368 -0.024940
    59 0.021413 -0.942156 0.012233 -1.051190 -0.028955 -0.035163
    60 1.164475 -2.543940 -0.170330 -0.166618 -0.161408 -0.083733
    61 0.024032 -1.136855 -0.001725 -0.791002 0.004494 0.042151
    62 0.014898 -0.903521 -0.015942 -1.038460 0.010007 0.051857
    63 -0.586770 -1.264477 0.200161 -0.200107 -0.096960 -2.129319
    64 1.530648 0.054775 0.009035 0.154202 -0.079651 0.158040
    65 1.106228 0.052330 -0.001860 0.312988 -0.289446 0.975216
    66 -0.139399 -0.111698 0.014397 0.285382 -0.030687 1.580508
    67 -1.877860 8.909492 -0.309748 1.610346 -0.009098 -1.520335
end
