version 1
nodes
  0 "bufffiveseven_root" -1
  1 "bone_R" 0
  2 "bone_R01" 1
  3 "bone_R02" 1
  4 "bone_R03" 1
  5 "triger" 0
  6 "magazine" 0
  7 "bone_L" 0
  8 "bone_L01" 7
  9 "bone_L02" 7
  10 "bone_L03" 7
  11 "bone_up" 0
  12 "bone_up01" 11
  13 "bone_up02" 11
  14 "bone_up03" 11
  15 "bone_up_r" 11
  16 "bone_up_l" 11
  17 "bone_slide" 0
  18 "bone_slide_cover" 17
  19 "bone_up2" 0
  20 "smoke01" 0
  21 "smoke_mesh01" 20
  22 "smoke02" 0
  23 "smoke_mesh02" 22
  24 "muzzle" 0
  25 "muzzle_bone001" 24
  26 "muzzle_bone002" 24
  27 "muzzle_bone003" 24
  28 "muzzle_bone004" 24
  29 "root" -1
  30 "Bone01" 29
  31 "Bone_L_Upper" 30
  32 "Bone_Lefthand" 30
  33 "Bone13" 32
  34 "Bone14" 33
  35 "Bone15" 34
  36 "Bone17" 32
  37 "Bone18" 36
  38 "Bone19" 37
  39 "Bone21" 32
  40 "Bone22" 39
  41 "Bone23" 40
  42 "Bone09" 32
  43 "Bone10" 42
  44 "Bone11" 43
  45 "Bone05" 32
  46 "Bone06" 45
  47 "Bone07" 46
  48 "Bone_Se_Hand-L" 32
  49 "Bone04" 29
  50 "Bone_Righthand" 49
  51 "Bone39" 50
  52 "Bone40" 51
  53 "Bone41" 52
  54 "Bone35" 50
  55 "Bone36" 54
  56 "Bone37" 55
  57 "Bone31" 50
  58 "Bone32" 57
  59 "Bone33" 58
  60 "Bone43" 50
  61 "Bone44" 60
  62 "Bone45" 61
  63 "Bone27" 50
  64 "Bone28" 63
  65 "Bone29" 64
  66 "Bone_Se_Hand-R" 50
  67 "Bone_R_Upper" 49
end
skeleton
  time 0
    0 6.467639 -12.642313 -4.360943 1.570796 0.000000 -0.000071
    1 -1.064977 0.427841 3.494147 -1.570789 1.456595 -2.443453
    2 0.631628 -0.525761 0.000000 -0.000001 0.000000 0.000000
    3 -0.359356 -0.525757 0.000000 -0.000001 0.000000 0.000000
    4 -1.349792 -0.525757 0.000000 -0.000001 0.000000 0.000000
    5 0.000000 0.444557 -0.150236 -1.570796 3.141592 1.570796
    6 0.000000 0.444557 -1.633967 -1.570796 2.879793 1.570796
    7 1.065000 0.427841 3.494147 -1.570792 -1.684999 -0.698137
    8 -0.631627 0.525760 0.000000 0.000000 0.000000 0.000000
    9 0.359358 0.525757 0.000000 0.000000 0.000000 0.000000
    10 1.349793 0.525756 0.000000 0.000000 0.000000 0.000000
    11 0.000000 2.775445 -3.287100 0.000000 -1.570796 0.000000
    12 4.055391 0.787430 -0.000001 0.000001 0.000000 -3.141592
    13 5.638199 0.787432 -0.000001 0.000001 0.000000 -3.141592
    14 7.208800 0.787434 -0.000002 0.000001 0.000000 -3.141592
    15 7.161302 -0.436564 0.542799 -3.141591 -1.570451 0.000000
    16 7.161302 -0.436564 -0.539481 -3.141592 1.570796 0.000000
    17 0.000000 1.803919 -3.985617 0.000000 -1.570796 0.000000
    18 4.656112 0.438828 0.399058 1.570796 0.000000 -1.570796
    19 0.000000 2.705573 -0.826574 -1.570796 0.698132 1.570796
    20 -0.624302 5.320284 0.532680 -1.570796 0.000000 0.000000
    21 0.000001 49.921204 -0.000001 1.570796 0.000000 0.000000
    22 -2.098057 0.171298 1.780126 -1.570796 0.000000 0.000000
    23 0.000002 49.921204 -0.000001 1.570796 0.000000 0.000000
    24 0.001787 1.627478 -66.965790 -1.570796 0.000000 0.000000
    25 11.764790 0.000004 5.034005 -0.000001 0.000001 1.570796
    26 -16.920902 -0.000004 5.034000 -0.000001 0.000001 1.570796
    27 -16.920902 -0.000004 -4.642414 -0.000001 0.000001 1.570796
    28 11.764790 0.000004 -4.642411 -0.000001 0.000001 1.570796
    29 0.356633 0.420623 -0.003287 0.000000 0.000000 0.000000
    30 8.825714 0.130239 -5.003041 6.084974 -1.973533 -0.018954
    31 2.151739 8.356322 -0.251372 1.545868 -3.136717 1.482755
    32 -0.032857 -8.494830 -0.084602 0.089895 0.481238 0.146474
    33 -0.488518 -2.755602 -0.228260 -0.242250 0.060691 -0.057732
    34 0.039887 -1.538386 0.018135 -1.634715 -0.010403 0.036650
    35 0.028786 -1.134327 -0.109049 -0.791875 -0.013746 0.015532
    36 0.250027 -2.820665 -0.238396 -0.313985 0.018280 -0.085804
    37 -0.049759 -1.602417 0.049696 -1.312011 0.004662 -0.036064
    38 -0.034142 -1.175657 0.045718 -1.263217 0.005489 -0.033341
    39 0.957766 -2.746780 -0.090302 0.167150 -0.150256 0.099289
    40 -0.033420 -1.393223 -0.019070 -0.517862 0.008329 -0.025205
    41 -0.022360 -0.957436 0.007065 -0.527930 0.007982 -0.025323
    42 -1.180681 -2.507217 -0.193859 -0.150629 0.142428 -0.022092
    43 -0.024967 -1.123934 0.017597 -0.759797 0.006951 -0.032333
    44 -0.020057 -0.906594 0.037435 -1.162008 0.002397 -0.047687
    45 0.603042 -1.197277 0.181473 0.666402 -0.922572 -1.051051
    46 1.504676 -0.177260 -0.006710 0.213418 0.065484 -0.624307
    47 1.049988 -0.147821 0.032291 0.039018 -0.188604 -0.767764
    48 0.120153 -0.050270 -0.054489 0.287569 3.110905 1.561085
    49 0.315187 -2.586648 -10.630514 -1.857769 -5.234742 -1.410544
    50 0.050068 -8.407448 0.002354 0.087353 -0.354933 0.440347
    51 0.447953 -2.798986 -0.200443 -0.244423 -0.056549 0.060325
    52 -0.032909 -1.499736 0.024472 -1.286538 0.022998 -0.023524
    53 -0.027022 -1.096452 -0.028023 -0.524788 0.013722 -0.005621
    54 -0.249534 -2.846964 -0.174213 -0.316339 -0.019324 0.076958
    55 0.043235 -1.656596 0.076480 -1.215719 -0.019648 0.004291
    56 0.031729 -1.149111 0.058838 -0.758918 -0.007903 0.005292
    57 -0.963866 -2.785145 -0.085350 -0.133536 0.264013 -0.032832
    58 0.028479 -1.403067 -0.009354 -0.611716 -0.012368 -0.024940
    59 0.021413 -0.942156 0.012233 -1.051190 -0.028955 -0.035163
    60 1.164475 -2.543940 -0.170330 -0.166618 -0.161408 -0.083733
    61 0.024032 -1.136855 -0.001725 -0.791002 0.004494 0.042151
    62 0.014898 -0.903521 -0.015942 -1.038460 0.010007 0.051857
    63 -0.586770 -1.264477 0.200161 -0.200107 -0.096960 -2.129319
    64 1.530648 0.054775 0.009035 0.154202 -0.079651 0.158040
    65 1.106228 0.052330 -0.001860 0.312988 -0.289446 0.975216
    66 -0.139399 -0.111698 0.014397 0.285382 -0.030687 1.580508
    67 -1.877860 8.909492 -0.309748 1.610346 -0.009098 -1.520335
  time 1
    0 6.467639 -12.665752 -4.325786 1.571597 -0.002114 0.000253
    1 -1.064977 0.427841 3.494147 -1.570789 1.456595 -2.443453
    2 0.631628 -0.525761 0.000000 -0.000001 0.000000 0.000000
    3 -0.359356 -0.525757 0.000000 -0.000001 0.000000 0.000000
    4 -1.349792 -0.525757 0.000000 -0.000001 0.000000 0.000000
    5 0.000000 0.444557 -0.150236 -1.570796 3.141592 1.570796
    6 0.000000 0.444557 -1.633967 -1.570796 2.879793 1.570796
    7 1.065000 0.427841 3.494147 -1.570792 -1.684999 -0.698137
    8 -0.631627 0.525760 0.000000 0.000000 0.000000 0.000000
    9 0.359358 0.525757 0.000000 0.000000 0.000000 0.000000
    10 1.349793 0.525756 0.000000 0.000000 0.000000 0.000000
    11 0.000000 2.775445 -3.287100 0.000000 -1.570796 0.000000
    12 4.055391 0.787430 -0.000001 0.000001 0.000000 -3.141592
    13 5.638199 0.787432 -0.000001 0.000001 0.000000 -3.141592
    14 7.208800 0.787434 -0.000002 0.000001 0.000000 -3.141592
    15 7.161302 -0.436564 0.542799 -3.141591 -1.570451 0.000000
    16 7.161302 -0.436564 -0.539481 -3.141592 1.570796 0.000000
    17 0.000000 1.803919 -3.985617 0.000000 -1.570796 0.000000
    18 4.656112 0.438828 0.399058 1.570796 0.000000 -1.570796
    19 0.000000 2.705573 -0.826574 -1.570796 0.698132 1.570796
    20 -0.624302 5.320284 0.532680 -1.570796 0.000000 0.000000
    21 0.000001 49.921204 -0.000001 1.570796 0.000000 0.000000
    22 -2.098057 0.171298 1.780126 -1.570796 0.000000 0.000000
    23 0.000002 49.921204 -0.000001 1.570796 0.000000 0.000000
    24 0.001787 1.627478 -66.965790 -1.570796 0.000000 0.000000
    25 11.764790 0.000004 5.034005 -0.000001 0.000001 1.570796
    26 -16.920902 -0.000004 5.034000 -0.000001 0.000001 1.570796
    27 -16.920902 -0.000004 -4.642414 -0.000001 0.000001 1.570796
    28 11.764790 0.000004 -4.642411 -0.000001 0.000001 1.570796
    29 0.356633 0.420623 -0.003287 0.000000 0.000000 0.000000
    30 8.825714 0.110707 -5.003041 6.099402 -1.973972 -0.032495
    31 2.151739 8.356322 -0.251372 1.545868 -3.136717 1.482755
    32 -0.032857 -8.494830 -0.084602 0.087559 0.481046 0.138957
    33 -0.488518 -2.755602 -0.228260 -0.242250 0.060691 -0.057732
    34 0.039887 -1.538386 0.018135 -1.634715 -0.010403 0.036650
    35 0.028786 -1.134327 -0.109049 -0.791875 -0.013746 0.015532
    36 0.250027 -2.820665 -0.238396 -0.313985 0.018280 -0.085804
    37 -0.049759 -1.602417 0.049696 -1.312011 0.004662 -0.036064
    38 -0.034142 -1.175657 0.045718 -1.263217 0.005489 -0.033341
    39 0.957766 -2.746780 -0.090302 0.167150 -0.150256 0.099289
    40 -0.033420 -1.393223 -0.019070 -0.517862 0.008329 -0.025205
    41 -0.022360 -0.957436 0.007065 -0.527930 0.007982 -0.025323
    42 -1.180681 -2.507217 -0.193859 -0.150629 0.142428 -0.022092
    43 -0.024967 -1.123934 0.017597 -0.759797 0.006951 -0.032333
    44 -0.020057 -0.906594 0.037435 -1.162008 0.002397 -0.047687
    45 0.603042 -1.197277 0.181473 0.666402 -0.922572 -1.051051
    46 1.504676 -0.177260 -0.006710 0.213418 0.065484 -0.624307
    47 1.049988 -0.147821 0.032291 0.039018 -0.188604 -0.767764
    48 0.120153 -0.050270 -0.054489 0.287569 3.110905 1.561085
    49 0.326906 -2.617899 -10.610982 -1.856707 -5.236984 -1.410544
    50 0.050068 -8.407448 0.006260 0.085975 -0.357328 0.442794
    51 0.447953 -2.798986 -0.200443 -0.244423 -0.056549 0.060325
    52 -0.032909 -1.499736 0.024472 -1.286538 0.022998 -0.023524
    53 -0.027022 -1.096452 -0.028023 -0.524788 0.013722 -0.005621
    54 -0.249534 -2.846964 -0.174213 -0.316339 -0.019324 0.076958
    55 0.043235 -1.656596 0.076480 -1.215719 -0.019648 0.004291
    56 0.031729 -1.149111 0.058838 -0.758918 -0.007903 0.005292
    57 -0.963866 -2.785145 -0.085350 -0.133536 0.264013 -0.032832
    58 0.028479 -1.403067 -0.009354 -0.611716 -0.012368 -0.024940
    59 0.021413 -0.942156 0.012233 -1.051190 -0.028955 -0.035163
    60 1.164475 -2.543940 -0.170330 -0.166618 -0.161408 -0.083733
    61 0.024032 -1.136855 -0.001725 -0.791002 0.004494 0.042151
    62 0.014898 -0.903521 -0.015942 -1.038460 0.010007 0.051857
    63 -0.586770 -1.264477 0.200161 -0.200107 -0.096960 -2.129319
    64 1.530648 0.054775 0.009035 0.154202 -0.079651 0.158040
    65 1.106228 0.052330 -0.001860 0.312988 -0.289446 0.975216
    66 -0.139399 -0.111698 0.014397 0.285382 -0.030687 1.580508
    67 -1.877860 8.909492 -0.309748 1.610346 -0.009098 -1.520335
  time 2
    0 6.467639 -12.638407 -4.282815 1.570796 0.000000 -0.000071
    1 -1.064977 0.427841 3.494147 -1.570789 1.456595 -2.443453
    2 0.631628 -0.525761 0.000000 -0.000001 0.000000 0.000000
    3 -0.359356 -0.525757 0.000000 -0.000001 0.000000 0.000000
    4 -1.349792 -0.525757 0.000000 -0.000001 0.000000 0.000000
    5 0.000000 0.444557 -0.150236 -1.570796 3.141592 1.570796
    6 0.000000 0.444557 -1.633967 -1.570796 2.879793 1.570796
    7 1.065000 0.427841 3.494147 -1.570792 -1.684999 -0.698137
    8 -0.631627 0.525760 0.000000 0.000000 0.000000 0.000000
    9 0.359358 0.525757 0.000000 0.000000 0.000000 0.000000
    10 1.349793 0.525756 0.000000 0.000000 0.000000 0.000000
    11 0.000000 2.775445 -3.287100 0.000000 -1.570796 0.000000
    12 4.055391 0.787430 -0.000001 0.000001 0.000000 -3.141592
    13 5.638199 0.787432 -0.000001 0.000001 0.000000 -3.141592
    14 7.208800 0.787434 -0.000002 0.000001 0.000000 -3.607055
    15 7.161302 -0.436564 0.542799 -3.141591 -1.570451 0.000000
    16 7.161302 -0.436564 -0.539481 -3.141592 1.570796 0.000000
    17 0.000000 1.803919 -3.985617 0.000000 -1.570796 0.000000
    18 4.656112 0.438828 0.399058 1.570796 0.000000 -1.570796
    19 0.000000 2.705573 -0.826574 -1.570796 0.698132 1.570796
    20 -0.624302 5.320284 0.532680 -1.570796 0.000000 0.000000
    21 0.000001 49.921204 -0.000001 1.570796 0.000000 0.000000
    22 -2.098057 0.171298 1.780126 -1.570796 0.000000 0.000000
    23 0.000002 49.921204 -0.000001 1.570796 0.000000 0.000000
    24 0.001787 1.627478 -66.965790 -1.570796 0.000000 0.000000
    25 11.764790 0.000004 5.034005 -0.000001 0.000001 1.570796
    26 -16.920902 -0.000004 5.034000 -0.000001 0.000001 1.570796
    27 -16.920902 -0.000004 -4.642414 -0.000001 0.000001 1.570796
    28 11.764790 0.000004 -4.642411 -0.000001 0.000001 1.570796
    29 0.356633 0.420623 -0.003287 0.000000 0.000000 0.000000
    30 8.829620 0.134146 -4.991321 6.106473 -1.974059 -0.039407
    31 2.151739 8.356322 -0.251372 1.545868 -3.136717 1.482755
    32 -0.032857 -8.494830 -0.084602 0.087129 0.483623 0.137436
    33 -0.488518 -2.755602 -0.228260 -0.242250 0.060691 -0.057732
    34 0.039887 -1.538386 0.018135 -1.634715 -0.010403 0.036650
    35 0.028786 -1.134327 -0.109049 -0.791875 -0.013746 0.015532
    36 0.250027 -2.820665 -0.238396 -0.313985 0.018280 -0.085804
    37 -0.049759 -1.602417 0.049696 -1.312011 0.004662 -0.036064
    38 -0.034142 -1.175657 0.045718 -1.263217 0.005489 -0.033341
    39 0.957766 -2.746780 -0.090302 0.167150 -0.150256 0.099289
    40 -0.033420 -1.393223 -0.019070 -0.517862 0.008329 -0.025205
    41 -0.022360 -0.957436 0.007065 -0.527930 0.007982 -0.025323
    42 -1.180681 -2.507217 -0.193859 -0.150629 0.142428 -0.022092
    43 -0.024967 -1.123934 0.017597 -0.759797 0.006951 -0.032333
    44 -0.020057 -0.906594 0.037435 -1.162008 0.002397 -0.047687
    45 0.603042 -1.197277 0.181473 0.666402 -0.922572 -1.051051
    46 1.504676 -0.177260 -0.006710 0.213418 0.065484 -0.624307
    47 1.049988 -0.147821 0.032291 0.039018 -0.188604 -0.767764
    48 0.120153 -0.050270 -0.054489 0.287569 3.110905 1.561085
    49 0.326906 -2.613992 -10.607076 -1.853992 -5.242132 -1.407325
    50 0.050068 -8.407448 0.002354 0.086215 -0.354983 0.448307
    51 0.447953 -2.798986 -0.200443 -0.244423 -0.056549 0.060325
    52 -0.032909 -1.499736 0.024472 -1.286538 0.022998 -0.023524
    53 -0.027022 -1.096452 -0.028023 -0.524788 0.013722 -0.005621
    54 -0.249534 -2.846964 -0.174213 -0.316339 -0.019324 0.076958
    55 0.043235 -1.656596 0.076480 -1.215719 -0.019648 0.004291
    56 0.031729 -1.149111 0.058838 -0.758918 -0.007903 0.005292
    57 -0.963866 -2.785145 -0.085350 -0.133536 0.264013 -0.032832
    58 0.028479 -1.403067 -0.009354 -0.611716 -0.012368 -0.024940
    59 0.021413 -0.942156 0.012233 -1.051190 -0.028955 -0.035163
    60 1.164475 -2.543940 -0.170330 -0.166618 -0.161408 -0.083733
    61 0.024032 -1.136855 -0.001725 -0.791002 0.004494 0.042151
    62 0.014898 -0.903521 -0.015942 -1.038460 0.010007 0.051857
    63 -0.586770 -1.264477 0.200161 -0.200107 -0.096960 -2.129319
    64 1.530648 0.054775 0.009035 0.154202 -0.079651 0.158040
    65 1.106228 0.052330 -0.001860 0.312988 -0.289446 0.975216
    66 -0.139399 -0.111698 0.014397 0.285382 -0.030687 1.580508
    67 -1.877860 8.909492 -0.309748 1.610346 -0.009098 -1.520335
  time 3
    0 6.475452 -12.415744 -4.208594 1.560977 0.018611 -0.003149
    1 -1.064977 0.427841 3.494147 -1.570789 1.456595 -2.443453
    2 0.631628 -0.525761 0.000000 -0.000001 0.000000 0.000000
    3 -0.359356 -0.525757 0.000000 -0.000001 0.000000 0.000000
    4 -1.349792 -0.525757 0.000000 -0.000001 0.000000 0.000000
    5 0.000000 0.444557 -0.150236 -1.570796 3.141592 1.570796
    6 0.000000 0.444557 -1.633967 -1.570796 2.879793 1.570796
    7 1.065000 0.427841 3.494147 -1.570792 -1.684999 -0.698137
    8 -0.631627 0.525760 0.000000 0.000000 0.000000 0.000000
    9 0.359358 0.525757 0.000000 0.000000 0.000000 0.000000
    10 1.349793 0.525756 0.000000 0.000000 0.000000 0.000000
    11 0.000000 2.775445 -3.287100 0.000000 -1.570796 0.000000
    12 4.055391 0.787430 -0.000001 0.000001 0.000000 -3.141592
    13 5.638199 0.787432 -0.000001 0.000001 0.000000 -3.141592
    14 7.208800 0.787434 -0.000002 0.000001 0.000000 -4.072547
    15 7.161302 -0.436564 0.542799 -3.141591 -1.570451 0.000000
    16 7.161302 -0.436564 -0.539481 -3.141592 1.570796 0.000000
    17 0.000000 1.803919 -3.985617 0.000000 -1.570796 0.000000
    18 4.656112 0.438828 0.399058 1.570796 0.000000 -1.570796
    19 0.000000 2.705573 -0.826574 -1.570796 0.698132 1.570796
    20 -0.624302 5.320284 0.532680 -1.570796 0.000000 0.000000
    21 0.000001 49.921204 -0.000001 1.570796 0.000000 0.000000
    22 -2.098057 0.171298 1.780126 -1.570796 0.000000 0.000000
    23 0.000002 49.921204 -0.000001 1.570796 0.000000 0.000000
    24 0.001787 1.627478 -66.965790 -1.570796 0.000000 0.000000
    25 11.764790 0.000004 5.034005 -0.000001 0.000001 1.570796
    26 -16.920902 -0.000004 5.034000 -0.000001 0.000001 1.570796
    27 -16.920902 -0.000004 -4.642414 -0.000001 0.000001 1.570796
    28 11.764790 0.000004 -4.642411 -0.000001 0.000001 1.570796
    29 0.356633 0.420623 -0.003287 0.000000 0.000000 0.000000
    30 8.833526 0.341183 -4.917100 6.084688 -1.972831 -0.019711
    31 2.151739 8.356322 -0.251372 1.545868 -3.136717 1.482755
    32 -0.028951 -8.498736 -0.080696 0.095036 0.496087 0.162414
    33 -0.488518 -2.755602 -0.228260 -0.242250 0.060691 -0.057732
    34 0.039887 -1.538386 0.018135 -1.634715 -0.010403 0.036650
    35 0.028786 -1.134327 -0.109049 -0.791875 -0.013746 0.015532
    36 0.250027 -2.820665 -0.238396 -0.313985 0.018280 -0.085804
    37 -0.049759 -1.602417 0.049696 -1.312011 0.004662 -0.036064
    38 -0.034142 -1.175657 0.045718 -1.263217 0.005489 -0.033341
    39 0.957766 -2.746780 -0.090302 0.167150 -0.150256 0.099289
    40 -0.033420 -1.393223 -0.019070 -0.517862 0.008329 -0.025205
    41 -0.022360 -0.957436 0.007065 -0.527930 0.007982 -0.025323
    42 -1.180681 -2.507217 -0.193859 -0.150629 0.142428 -0.022092
    43 -0.024967 -1.123934 0.017597 -0.759797 0.006951 -0.032333
    44 -0.020057 -0.906594 0.037435 -1.162008 0.002397 -0.047687
    45 0.603042 -1.197277 0.181473 0.666402 -0.922572 -1.051051
    46 1.504676 -0.177260 -0.006710 0.213418 0.065484 -0.624307
    47 1.049988 -0.147821 0.032291 0.039018 -0.188604 -0.767764
    48 0.120153 -0.050270 -0.054489 0.287569 3.110905 1.561085
    49 0.291748 -2.496801 -10.657858 -1.844961 -5.259652 -1.391988
    50 0.053974 -8.403542 0.002354 0.093402 -0.333180 0.463753
    51 0.447953 -2.798986 -0.200443 -0.244423 -0.056549 0.060325
    52 -0.032909 -1.499736 0.024472 -1.286538 0.022998 -0.023524
    53 -0.027022 -1.096452 -0.028023 -0.524788 0.013722 -0.005621
    54 -0.249534 -2.846964 -0.174213 -0.316339 -0.019324 0.076958
    55 0.043235 -1.656596 0.076480 -1.215719 -0.019648 0.004291
    56 0.031729 -1.149111 0.058838 -0.758918 -0.007903 0.005292
    57 -0.963866 -2.785145 -0.085350 -0.133536 0.264013 -0.032832
    58 0.028479 -1.403067 -0.009354 -0.611716 -0.012368 -0.024940
    59 0.021413 -0.942156 0.012233 -1.051190 -0.028955 -0.035163
    60 1.164475 -2.543940 -0.170330 -0.166618 -0.161408 -0.083733
    61 0.024032 -1.136855 -0.001725 -0.791002 0.004494 0.042151
    62 0.014898 -0.903521 -0.015942 -1.038460 0.010007 0.051857
    63 -0.586770 -1.264477 0.200161 -0.200107 -0.096960 -2.129319
    64 1.530648 0.054775 0.009035 0.154202 -0.079651 0.158040
    65 1.106228 0.052330 -0.001860 0.312988 -0.289446 0.975216
    66 -0.139399 -0.111698 0.014397 0.285382 -0.030687 1.580508
    67 -1.877860 8.909492 -0.309748 1.610346 -0.009098 -1.520335
  time 4
    0 6.483265 -12.232145 -4.161718 1.554150 0.034371 -0.005660
    1 -1.064977 0.427841 3.494147 -1.570789 1.456595 -2.443453
    2 0.631628 -0.525761 0.000000 -0.000001 0.000000 0.000000
    3 -0.359356 -0.525757 0.000000 -0.000001 0.000000 0.000000
    4 -1.349792 -0.525757 0.000000 -0.000001 0.000000 0.000000
    5 0.000000 0.444557 -0.150236 -1.570796 3.141592 1.570796
    6 0.000000 0.444557 -1.633967 -1.570796 2.879793 1.570796
    7 1.065000 0.427841 3.494147 -1.570792 -1.684999 -0.698137
    8 -0.631627 0.525760 0.000000 0.000000 0.000000 0.000000
    9 0.359358 0.525757 0.000000 0.000000 0.000000 0.000000
    10 1.349793 0.525756 0.000000 0.000000 0.000000 0.000000
    11 0.000000 2.775445 -3.287100 0.000000 -1.570796 0.000000
    12 4.055391 0.787430 -0.000001 0.000001 0.000000 -3.141592
    13 5.638199 0.787432 -0.000001 0.000001 0.000000 -3.597661
    14 7.208800 0.787434 -0.000002 0.000001 0.000000 -4.011944
    15 7.161302 -0.436564 0.542799 -3.141591 -1.570451 0.000000
    16 7.161302 -0.436564 -0.539481 -3.141592 1.570796 0.000000
    17 0.000000 1.803919 -3.985617 0.000000 -1.570796 0.000000
    18 4.656112 0.438828 0.399058 1.570796 0.000000 -1.570796
    19 0.000000 2.705573 -0.826574 -1.570796 0.698132 1.570796
    20 -0.624302 5.320284 0.532680 -1.570796 0.000000 0.000000
    21 0.000001 49.921204 -0.000001 1.570796 0.000000 0.000000
    22 -2.098057 0.171298 1.780126 -1.570796 0.000000 0.000000
    23 0.000002 49.921204 -0.000001 1.570796 0.000000 0.000000
    24 0.001787 1.627478 -66.965790 -1.570796 0.000000 0.000000
    25 11.764790 0.000004 5.034005 -0.000001 0.000001 1.570796
    26 -16.920902 -0.000004 5.034000 -0.000001 0.000001 1.570796
    27 -16.920902 -0.000004 -4.642414 -0.000001 0.000001 1.570796
    28 11.764790 0.000004 -4.642411 -0.000001 0.000001 1.570796
    29 0.356633 0.420623 -0.003287 0.000000 0.000000 0.000000
    30 8.833526 0.505251 -4.850692 6.062998 -1.971778 0.000080
    31 2.151739 8.356322 -0.251372 1.545868 -3.136717 1.482755
    32 -0.028951 -8.498736 -0.080696 0.101672 0.506526 0.183390
    33 -0.488518 -2.755602 -0.228260 -0.242250 0.060691 -0.057732
    34 0.039887 -1.538386 0.018135 -1.634715 -0.010403 0.036650
    35 0.028786 -1.134327 -0.109049 -0.791875 -0.013746 0.015532
    36 0.250027 -2.820665 -0.238396 -0.313985 0.018280 -0.085804
    37 -0.049759 -1.602417 0.049696 -1.312011 0.004662 -0.036064
    38 -0.034142 -1.175657 0.045718 -1.263217 0.005489 -0.033341
    39 0.957766 -2.746780 -0.090302 0.167150 -0.150256 0.099289
    40 -0.033420 -1.393223 -0.019070 -0.517862 0.008329 -0.025205
    41 -0.022360 -0.957436 0.007065 -0.527930 0.007982 -0.025323
    42 -1.180681 -2.507217 -0.193859 -0.150629 0.142428 -0.022092
    43 -0.024967 -1.123934 0.017597 -0.759797 0.006951 -0.032333
    44 -0.020057 -0.906594 0.037435 -1.162008 0.002397 -0.047687
    45 0.603042 -1.197277 0.181473 0.666402 -0.922572 -1.051051
    46 1.504676 -0.177260 -0.006710 0.213418 0.065484 -0.624307
    47 1.049988 -0.147821 0.032291 0.039018 -0.188604 -0.767764
    48 0.120153 -0.050270 -0.054489 0.287569 3.110905 1.561085
    49 0.260497 -2.399142 -10.696922 -1.838468 -5.273020 -1.380154
    50 0.053974 -8.399636 -0.001552 0.099091 -0.315319 0.477045
    51 0.447953 -2.798986 -0.200443 -0.244423 -0.056549 0.060325
    52 -0.032909 -1.499736 0.024472 -1.286538 0.022998 -0.023524
    53 -0.027022 -1.096452 -0.028023 -0.524788 0.013722 -0.005621
    54 -0.249534 -2.846964 -0.174213 -0.316339 -0.019324 0.076958
    55 0.043235 -1.656596 0.076480 -1.215719 -0.019648 0.004291
    56 0.031729 -1.149111 0.058838 -0.758918 -0.007903 0.005292
    57 -0.963866 -2.785145 -0.085350 -0.133536 0.264013 -0.032832
    58 0.028479 -1.403067 -0.009354 -0.611716 -0.012368 -0.024940
    59 0.021413 -0.942156 0.012233 -1.051190 -0.028955 -0.035163
    60 1.164475 -2.543940 -0.170330 -0.166618 -0.161408 -0.083733
    61 0.024032 -1.136855 -0.001725 -0.791002 0.004494 0.042151
    62 0.014898 -0.903521 -0.015942 -1.038460 0.010007 0.051857
    63 -0.586770 -1.264477 0.200161 -0.200107 -0.096960 -2.129319
    64 1.530648 0.054775 0.009035 0.154202 -0.079651 0.158040
    65 1.106228 0.052330 -0.001860 0.312988 -0.289446 0.975216
    66 -0.139399 -0.111698 0.014397 0.285382 -0.030687 1.580508
    67 -1.877860 8.909492 -0.309748 1.610346 -0.009098 -1.520335
  time 5
    0 6.483265 -12.232145 -4.165624 1.556594 0.036517 -0.005579
    1 -1.064977 0.427841 3.494147 -1.570789 1.456595 -2.443453
    2 0.631628 -0.525761 0.000000 -0.000001 0.000000 0.000000
    3 -0.359356 -0.525757 0.000000 -0.000001 0.000000 0.000000
    4 -1.349792 -0.525757 0.000000 -0.000001 0.000000 0.000000
    5 0.000000 0.444557 -0.150236 -1.570796 3.141592 1.570796
    6 0.000000 0.444557 -1.633967 -1.570796 2.879793 1.570796
    7 1.065000 0.427841 3.494147 -1.570792 -1.684999 -0.698137
    8 -0.631627 0.525760 0.000000 0.000000 0.000000 0.000000
    9 0.359358 0.525757 0.000000 0.000000 0.000000 0.000000
    10 1.349793 0.525756 0.000000 0.000000 0.000000 0.000000
    11 0.000000 2.775445 -3.287100 0.000000 -1.570796 0.000000
    12 4.055391 0.787430 -0.000001 0.000001 0.000000 -3.603933
    13 5.638199 0.787432 -0.000001 0.000001 0.000000 -4.053730
    14 7.208800 0.787434 -0.000002 0.000001 0.000000 -4.011944
    15 7.161302 -0.436564 0.542799 -3.141591 -1.570451 0.000000
    16 7.161302 -0.436564 -0.539481 -3.141592 1.570796 0.000000
    17 0.000000 1.803919 -3.985617 0.000000 -1.570796 0.000000
    18 4.656112 0.438828 0.399058 1.570796 0.000000 -1.570796
    19 0.000000 2.705573 -0.826574 -1.570796 0.698132 1.570796
    20 -0.624302 5.320284 0.532680 -1.570796 0.000000 0.000000
    21 0.000001 49.921204 -0.000001 1.570796 0.000000 0.000000
    22 -2.098057 0.171298 1.780126 -1.570796 0.000000 0.000000
    23 0.000002 49.921204 -0.000001 1.570796 0.000000 0.000000
    24 0.001787 1.627478 -66.965790 -1.570796 0.000000 0.000000
    25 11.764790 0.000004 5.034005 -0.000001 0.000001 1.570796
    26 -16.920902 -0.000004 5.034000 -0.000001 0.000001 1.570796
    27 -16.920902 -0.000004 -4.642414 -0.000001 0.000001 1.570796
    28 11.764790 0.000004 -4.642411 -0.000001 0.000001 1.570796
    29 0.356633 0.420623 -0.003287 0.000000 0.000000 0.000000
    30 8.833526 0.509157 -4.850692 6.063285 -1.971690 -0.000204
    31 2.151739 8.356322 -0.251372 1.545868 -3.136717 1.482755
    32 -0.028951 -8.498736 -0.080696 0.101204 0.509150 0.181270
    33 -0.488518 -2.755602 -0.228260 -0.242250 0.060691 -0.057732
    34 0.039887 -1.538386 0.018135 -1.634715 -0.010403 0.036650
    35 0.028786 -1.134327 -0.109049 -0.791875 -0.013746 0.015532
    36 0.250027 -2.820665 -0.238396 -0.313985 0.018280 -0.085804
    37 -0.049759 -1.602417 0.049696 -1.312011 0.004662 -0.036064
    38 -0.034142 -1.175657 0.045718 -1.263217 0.005489 -0.033341
    39 0.957766 -2.746780 -0.090302 0.167150 -0.150256 0.099289
    40 -0.033420 -1.393223 -0.019070 -0.517862 0.008329 -0.025205
    41 -0.022360 -0.957436 0.007065 -0.527930 0.007982 -0.025323
    42 -1.180681 -2.507217 -0.193859 -0.150629 0.142428 -0.022092
    43 -0.024967 -1.123934 0.017597 -0.759797 0.006951 -0.032333
    44 -0.020057 -0.906594 0.037435 -1.162008 0.002397 -0.047687
    45 0.603042 -1.197277 0.181473 0.666402 -0.922572 -1.051051
    46 1.504676 -0.177260 -0.006710 0.213418 0.065484 -0.624307
    47 1.049988 -0.147821 0.032291 0.039018 -0.188604 -0.767764
    48 0.120153 -0.050270 -0.054489 0.287569 3.110905 1.561085
    49 0.256591 -2.399142 -10.696922 -1.837996 -5.274099 -1.379776
    50 0.053974 -8.399636 -0.001552 0.098432 -0.314421 0.481427
    51 0.447953 -2.798986 -0.200443 -0.244423 -0.056549 0.060325
    52 -0.032909 -1.499736 0.024472 -1.286538 0.022998 -0.023524
    53 -0.027022 -1.096452 -0.028023 -0.524788 0.013722 -0.005621
    54 -0.249534 -2.846964 -0.174213 -0.316339 -0.019324 0.076958
    55 0.043235 -1.656596 0.076480 -1.215719 -0.019648 0.004291
    56 0.031729 -1.149111 0.058838 -0.758918 -0.007903 0.005292
    57 -0.963866 -2.785145 -0.085350 -0.133536 0.264013 -0.032832
    58 0.028479 -1.403067 -0.009354 -0.611716 -0.012368 -0.024940
    59 0.021413 -0.942156 0.012233 -1.051190 -0.028955 -0.035163
    60 1.164475 -2.543940 -0.170330 -0.166618 -0.161408 -0.083733
    61 0.024032 -1.136855 -0.001725 -0.791002 0.004494 0.042151
    62 0.014898 -0.903521 -0.015942 -1.038460 0.010007 0.051857
    63 -0.586770 -1.264477 0.200161 -0.200107 -0.096960 -2.129319
    64 1.530648 0.054775 0.009035 0.154202 -0.079651 0.158040
    65 1.106228 0.052330 -0.001860 0.312988 -0.289446 0.975216
    66 -0.139399 -0.111698 0.014397 0.285382 -0.030687 1.580508
    67 -1.877860 8.909492 -0.309748 1.610346 -0.009098 -1.520335
  time 6
    0 6.487171 -12.251677 -4.181250 1.560050 0.037190 -0.005174
    1 -1.064977 0.427841 3.494147 -1.570789 1.456595 -2.443453
    2 0.631628 -0.525761 0.000000 -0.000001 0.000000 0.000000
    3 -0.359356 -0.525757 0.000000 -0.000001 0.000000 0.000000
    4 -1.349792 -0.525757 0.000000 -0.000001 0.000000 0.000000
    5 0.000000 0.444557 -0.150236 -1.570796 3.141592 1.570796
    6 0.000000 0.444557 -1.633967 -1.570796 2.879793 1.570796
    7 1.065000 0.427841 3.494147 -1.570792 -1.684999 -0.698137
    8 -0.631627 0.525760 0.000000 0.000000 0.000000 0.000000
    9 0.359358 0.525757 0.000000 0.000000 0.000000 0.000000
    10 1.349793 0.525756 0.000000 0.000000 0.000000 0.000000
    11 0.000000 2.775445 -3.287100 0.000000 -1.570796 0.000000
    12 4.055391 0.787430 -0.000001 0.000001 0.000000 -4.066275
    13 5.638199 0.787432 -0.000001 0.000001 0.000000 -4.011944
    14 7.208800 0.787434 -0.000002 0.000001 0.000000 -4.011944
    15 7.161302 -0.436564 0.542799 -3.141591 -1.570451 0.000000
    16 7.161302 -0.436564 -0.539481 -3.141592 1.570796 0.000000
    17 0.000000 1.803919 -3.985617 0.000000 -1.570796 0.000000
    18 4.656112 0.438828 0.399058 1.570796 0.000000 -1.570796
    19 0.000000 2.705573 -0.826574 -1.570796 0.698132 1.570796
    20 -0.624302 5.320284 0.532680 -1.570796 0.000000 0.000000
    21 0.000001 49.921204 -0.000001 1.570796 0.000000 0.000000
    22 -2.098057 0.171298 1.780126 -1.570796 0.000000 0.000000
    23 0.000002 49.921204 -0.000001 1.570796 0.000000 0.000000
    24 0.001787 1.627478 -66.965790 -1.570796 0.000000 0.000000
    25 11.764790 0.000004 5.034005 -0.000001 0.000001 1.570796
    26 -16.920902 -0.000004 5.034000 -0.000001 0.000001 1.570796
    27 -16.920902 -0.000004 -4.642414 -0.000001 0.000001 1.570796
    28 11.764790 0.000004 -4.642411 -0.000001 0.000001 1.570796
    29 0.356633 0.420623 -0.003287 0.000000 0.000000 0.000000
    30 8.833526 0.497438 -4.854599 6.065769 -1.971690 -0.002666
    31 2.151739 8.356322 -0.251372 1.545868 -3.136717 1.482755
    32 -0.025045 -8.498736 -0.080696 0.099952 0.510960 0.176652
    33 -0.488518 -2.755602 -0.228260 -0.242250 0.060691 -0.057732
    34 0.039887 -1.538386 0.018135 -1.634715 -0.010403 0.036650
    35 0.028786 -1.134327 -0.109049 -0.791875 -0.013746 0.015532
    36 0.250027 -2.820665 -0.238396 -0.313985 0.018280 -0.085804
    37 -0.049759 -1.602417 0.049696 -1.312011 0.004662 -0.036064
    38 -0.034142 -1.175657 0.045718 -1.263217 0.005489 -0.033341
    39 0.957766 -2.746780 -0.090302 0.167150 -0.150256 0.099289
    40 -0.033420 -1.393223 -0.019070 -0.517862 0.008329 -0.025205
    41 -0.022360 -0.957436 0.007065 -0.527930 0.007982 -0.025323
    42 -1.180681 -2.507217 -0.193859 -0.150629 0.142428 -0.022092
    43 -0.024967 -1.123934 0.017597 -0.759797 0.006951 -0.032333
    44 -0.020057 -0.906594 0.037435 -1.162008 0.002397 -0.047687
    45 0.603042 -1.197277 0.181473 0.666402 -0.922572 -1.051051
    46 1.504676 -0.177260 -0.006710 0.213418 0.065484 -0.624307
    47 1.049988 -0.147821 0.032291 0.039018 -0.188604 -0.767764
    48 0.120153 -0.050270 -0.054489 0.287569 3.110905 1.561085
    49 0.260497 -2.406955 -10.693016 -1.838173 -5.273850 -1.380533
    50 0.053974 -8.399636 -0.001552 0.097055 -0.315319 0.484896
    51 0.447953 -2.798986 -0.200443 -0.244423 -0.056549 0.060325
    52 -0.032909 -1.499736 0.024472 -1.286538 0.022998 -0.023524
    53 -0.027022 -1.096452 -0.028023 -0.524788 0.013722 -0.005621
    54 -0.249534 -2.846964 -0.174213 -0.316339 -0.019324 0.076958
    55 0.043235 -1.656596 0.076480 -1.215719 -0.019648 0.004291
    56 0.031729 -1.149111 0.058838 -0.758918 -0.007903 0.005292
    57 -0.963866 -2.785145 -0.085350 -0.133536 0.264013 -0.032832
    58 0.028479 -1.403067 -0.009354 -0.611716 -0.012368 -0.024940
    59 0.021413 -0.942156 0.012233 -1.051190 -0.028955 -0.035163
    60 1.164475 -2.543940 -0.170330 -0.166618 -0.161408 -0.083733
    61 0.024032 -1.136855 -0.001725 -0.791002 0.004494 0.042151
    62 0.014898 -0.903521 -0.015942 -1.038460 0.010007 0.051857
    63 -0.586770 -1.264477 0.200161 -0.200107 -0.096960 -2.129319
    64 1.530648 0.054775 0.009035 0.154202 -0.079651 0.158040
    65 1.106228 0.052330 -0.001860 0.312988 -0.289446 0.975216
    66 -0.139399 -0.111698 0.014397 0.285382 -0.030687 1.580508
    67 -1.877860 8.909492 -0.309748 1.610346 -0.009098 -1.520335
  time 7
    0 6.487171 -12.282928 -4.196875 1.564348 0.036773 -0.004607
    1 -1.064977 0.427841 3.494147 -1.570789 1.456595 -2.443453
    2 0.631628 -0.525761 0.000000 -0.000001 0.000000 0.000000
    3 -0.359356 -0.525757 0.000000 -0.000001 0.000000 0.000000
    4 -1.349792 -0.525757 0.000000 -0.000001 0.000000 0.000000
    5 0.000000 0.444557 -0.150236 -1.570796 3.141592 1.570796
    6 0.000000 0.444557 -1.633967 -1.570796 2.879793 1.570796
    7 1.065000 0.427841 3.494147 -1.570792 -1.684999 -0.698137
    8 -0.631627 0.525760 0.000000 0.000000 0.000000 0.000000
    9 0.359358 0.525757 0.000000 0.000000 0.000000 0.000000
    10 1.349793 0.525756 0.000000 0.000000 0.000000 0.000000
    11 0.000000 2.775445 -3.287100 0.000000 -1.570796 0.000000
    12 4.055391 0.787430 -0.000001 0.000001 0.000000 -4.011944
    13 5.638199 0.787432 -0.000001 0.000001 0.000000 -4.011944
    14 7.208800 0.787434 -0.000002 0.000001 0.000000 -4.011944
    15 7.161302 -0.436564 0.542799 -3.141591 -1.570451 0.000000
    16 7.161302 -0.436564 -0.539481 -3.141592 1.570796 0.000000
    17 0.000000 1.803919 -3.985617 0.000000 -1.570796 0.000000
    18 4.656112 0.438828 0.399058 1.570796 0.000000 -1.570796
    19 0.000000 2.705573 -0.826574 -1.570796 0.698132 1.570796
    20 -0.624302 5.320284 0.532680 -1.570796 0.000000 0.000000
    21 0.000001 49.921204 -0.000001 1.570796 0.000000 0.000000
    22 -2.098057 0.171298 1.780126 -1.570796 0.000000 0.000000
    23 0.000002 49.921204 -0.000001 1.570796 0.000000 0.000000
    24 0.001787 1.627478 -66.965790 -1.570796 0.000000 0.000000
    25 11.764790 0.000004 5.034005 -0.000001 0.000001 1.570796
    26 -16.920902 -0.000004 5.034000 -0.000001 0.000001 1.570796
    27 -16.920902 -0.000004 -4.642414 -0.000001 0.000001 1.570796
    28 11.764790 0.000004 -4.642411 -0.000001 0.000001 1.570796
    29 0.356633 0.420623 -0.003287 0.000000 0.000000 0.000000
    30 8.833526 0.470093 -4.866318 6.070069 -1.971778 -0.006738
    31 2.151739 8.356322 -0.251372 1.545868 -3.136717 1.482755
    32 -0.025045 -8.498736 -0.080696 0.098083 0.512134 0.170094
    33 -0.488518 -2.755602 -0.228260 -0.242250 0.060691 -0.057732
    34 0.039887 -1.538386 0.018135 -1.634715 -0.010403 0.036650
    35 0.028786 -1.134327 -0.109049 -0.791875 -0.013746 0.015532
    36 0.250027 -2.820665 -0.238396 -0.313985 0.018280 -0.085804
    37 -0.049759 -1.602417 0.049696 -1.312011 0.004662 -0.036064
    38 -0.034142 -1.175657 0.045718 -1.263217 0.005489 -0.033341
    39 0.957766 -2.746780 -0.090302 0.167150 -0.150256 0.099289
    40 -0.033420 -1.393223 -0.019070 -0.517862 0.008329 -0.025205
    41 -0.022360 -0.957436 0.007065 -0.527930 0.007982 -0.025323
    42 -1.180681 -2.507217 -0.193859 -0.150629 0.142428 -0.022092
    43 -0.024967 -1.123934 0.017597 -0.759797 0.006951 -0.032333
    44 -0.020057 -0.906594 0.037435 -1.162008 0.002397 -0.047687
    45 0.603042 -1.197277 0.181473 0.666402 -0.922572 -1.051051
    46 1.504676 -0.177260 -0.006710 0.213418 0.065484 -0.624307
    47 1.049988 -0.147821 0.032291 0.039018 -0.188604 -0.767764
    48 0.120153 -0.050270 -0.054489 0.287569 3.110905 1.561085
    49 0.264404 -2.422580 -10.685203 -1.838823 -5.272521 -1.382237
    50 0.053974 -8.399636 -0.001552 0.095138 -0.317614 0.487634
    51 0.447953 -2.798986 -0.200443 -0.244423 -0.056549 0.060325
    52 -0.032909 -1.499736 0.024472 -1.286538 0.022998 -0.023524
    53 -0.027022 -1.096452 -0.028023 -0.524788 0.013722 -0.005621
    54 -0.249534 -2.846964 -0.174213 -0.316339 -0.019324 0.076958
    55 0.043235 -1.656596 0.076480 -1.215719 -0.019648 0.004291
    56 0.031729 -1.149111 0.058838 -0.758918 -0.007903 0.005292
    57 -0.963866 -2.785145 -0.085350 -0.133536 0.264013 -0.032832
    58 0.028479 -1.403067 -0.009354 -0.611716 -0.012368 -0.024940
    59 0.021413 -0.942156 0.012233 -1.051190 -0.028955 -0.035163
    60 1.164475 -2.543940 -0.170330 -0.166618 -0.161408 -0.083733
    61 0.024032 -1.136855 -0.001725 -0.791002 0.004494 0.042151
    62 0.014898 -0.903521 -0.015942 -1.038460 0.010007 0.051857
    63 -0.586770 -1.264477 0.200161 -0.200107 -0.096960 -2.129319
    64 1.530648 0.054775 0.009035 0.154202 -0.079651 0.158040
    65 1.106228 0.052330 -0.001860 0.312988 -0.289446 0.975216
    66 -0.139399 -0.111698 0.014397 0.285382 -0.030687 1.580508
    67 -1.877860 8.909492 -0.309748 1.610346 -0.009098 -1.520335
  time 8
    0 6.487171 -12.325898 -4.220314 1.569195 0.035556 -0.003797
    1 -1.064977 0.427841 3.494147 -1.570789 1.456595 -2.443453
    2 0.631628 -0.525761 0.000000 -0.000001 0.000000 0.000000
    3 -0.359356 -0.525757 0.000000 -0.000001 0.000000 0.000000
    4 -1.349792 -0.525757 0.000000 -0.000001 0.000000 0.000000
    5 0.000000 0.444557 -0.150236 -1.570796 3.141592 1.570796
    6 0.000000 0.444557 -1.633967 -1.570796 2.879793 1.570796
    7 1.065000 0.427841 3.494147 -1.570792 -1.684999 -0.698137
    8 -0.631627 0.525760 0.000000 0.000000 0.000000 0.000000
    9 0.359358 0.525757 0.000000 0.000000 0.000000 0.000000
    10 1.349793 0.525756 0.000000 0.000000 0.000000 0.000000
    11 0.000000 2.775445 -3.287100 0.000000 -1.570796 0.000000
    12 4.055391 0.787430 -0.000001 0.000001 0.000000 -4.011944
    13 5.638199 0.787432 -0.000001 0.000001 0.000000 -4.011944
    14 7.208800 0.787434 -0.000002 0.000001 0.000000 -4.011944
    15 7.161302 -0.436564 0.542799 -3.141591 -1.570451 0.000000
    16 7.161302 -0.436564 -0.539481 -3.141592 1.570796 0.000000
    17 0.000000 1.803919 -3.985617 0.000000 -1.570796 0.000000
    18 4.656112 0.438828 0.399058 1.570796 0.000000 -1.570796
    19 0.000000 2.705573 -0.826574 -1.570796 0.698132 1.570796
    20 -0.624302 5.320284 0.532680 -1.570796 0.000000 0.000000
    21 0.000001 49.921204 -0.000001 1.570796 0.000000 0.000000
    22 -2.098057 0.171298 1.780126 -1.570796 0.000000 0.000000
    23 0.000002 49.921204 -0.000001 1.570796 0.000000 0.000000
    24 0.001787 1.627478 -66.965790 -1.570796 0.000000 0.000000
    25 11.764790 0.000004 5.034005 -0.000001 0.000001 1.570796
    26 -16.920902 -0.000004 5.034000 -0.000001 0.000001 1.570796
    27 -16.920902 -0.000004 -4.642414 -0.000001 0.000001 1.570796
    28 11.764790 0.000004 -4.642411 -0.000001 0.000001 1.570796
    29 0.356633 0.420623 -0.003287 0.000000 0.000000 0.000000
    30 8.833526 0.434936 -4.881943 6.075515 -1.971953 -0.011852
    31 2.151739 8.356322 -0.251372 1.545868 -3.136717 1.482755
    32 -0.025045 -8.498736 -0.080696 0.095802 0.512853 0.162197
    33 -0.488518 -2.755602 -0.228260 -0.242250 0.060691 -0.057732
    34 0.039887 -1.538386 0.018135 -1.634715 -0.010403 0.036650
    35 0.028786 -1.134327 -0.109049 -0.791875 -0.013746 0.015532
    36 0.250027 -2.820665 -0.238396 -0.313985 0.018280 -0.085804
    37 -0.049759 -1.602417 0.049696 -1.312011 0.004662 -0.036064
    38 -0.034142 -1.175657 0.045718 -1.263217 0.005489 -0.033341
    39 0.957766 -2.746780 -0.090302 0.167150 -0.150256 0.099289
    40 -0.033420 -1.393223 -0.019070 -0.517862 0.008329 -0.025205
    41 -0.022360 -0.957436 0.007065 -0.527930 0.007982 -0.025323
    42 -1.180681 -2.507217 -0.193859 -0.150629 0.142428 -0.022092
    43 -0.024967 -1.123934 0.017597 -0.759797 0.006951 -0.032333
    44 -0.020057 -0.906594 0.037435 -1.162008 0.002397 -0.047687
    45 0.603042 -1.197277 0.181473 0.666402 -0.922572 -1.051051
    46 1.504676 -0.177260 -0.006710 0.213418 0.065484 -0.624307
    47 1.049988 -0.147821 0.032291 0.039018 -0.188604 -0.767764
    48 0.120153 -0.050270 -0.054489 0.287569 3.110905 1.561085
    49 0.272216 -2.446019 -10.677390 -1.839826 -5.270529 -1.384604
    50 0.050068 -8.399636 -0.001552 0.092863 -0.320907 0.489862
    51 0.447953 -2.798986 -0.200443 -0.244423 -0.056549 0.060325
    52 -0.032909 -1.499736 0.024472 -1.286538 0.022998 -0.023524
    53 -0.027022 -1.096452 -0.028023 -0.524788 0.013722 -0.005621
    54 -0.249534 -2.846964 -0.174213 -0.316339 -0.019324 0.076958
    55 0.043235 -1.656596 0.076480 -1.215719 -0.019648 0.004291
    56 0.031729 -1.149111 0.058838 -0.758918 -0.007903 0.005292
    57 -0.963866 -2.785145 -0.085350 -0.133536 0.264013 -0.032832
    58 0.028479 -1.403067 -0.009354 -0.611716 -0.012368 -0.024940
    59 0.021413 -0.942156 0.012233 -1.051190 -0.028955 -0.035163
    60 1.164475 -2.543940 -0.170330 -0.166618 -0.161408 -0.083733
    61 0.024032 -1.136855 -0.001725 -0.791002 0.004494 0.042151
    62 0.014898 -0.903521 -0.015942 -1.038460 0.010007 0.051857
    63 -0.586770 -1.264477 0.200161 -0.200107 -0.096960 -2.129319
    64 1.530648 0.054775 0.009035 0.154202 -0.079651 0.158040
    65 1.106228 0.052330 -0.001860 0.312988 -0.289446 0.975216
    66 -0.139399 -0.111698 0.014397 0.285382 -0.030687 1.580508
    67 -1.877860 8.909492 -0.309748 1.610346 -0.009098 -1.520335
  time 9
    0 6.487171 -12.376680 -4.243752 1.574294 0.033923 -0.002987
    1 -1.064977 0.427841 3.494147 -1.570789 1.456595 -2.443453
    2 0.631628 -0.525761 0.000000 -0.000001 0.000000 0.000000
    3 -0.359356 -0.525757 0.000000 -0.000001 0.000000 0.000000
    4 -1.349792 -0.525757 0.000000 -0.000001 0.000000 0.000000
    5 0.000000 0.444557 -0.150236 -1.570796 3.141592 1.570796
    6 0.000000 0.444557 -1.633967 -1.570796 2.879793 1.570796
    7 1.065000 0.427841 3.494147 -1.570792 -1.684999 -0.698137
    8 -0.631627 0.525760 0.000000 0.000000 0.000000 0.000000
    9 0.359358 0.525757 0.000000 0.000000 0.000000 0.000000
    10 1.349793 0.525756 0.000000 0.000000 0.000000 0.000000
    11 0.000000 2.775445 -3.287100 0.000000 -1.570796 0.000000
    12 4.055391 0.787430 -0.000001 0.000001 0.000000 -4.011944
    13 5.638199 0.787432 -0.000001 0.000001 0.000000 -4.011944
    14 7.208800 0.787434 -0.000002 0.000001 0.000000 -4.011944
    15 7.161302 -0.436564 0.542799 -3.141591 -1.570451 0.000000
    16 7.161302 -0.436564 -0.539481 -3.141592 1.570796 0.000000
    17 0.000000 1.803919 -3.985617 0.000000 -1.570796 0.000000
    18 4.656112 0.438828 0.399058 1.570796 0.000000 -1.570796
    19 0.000000 2.705573 -0.826574 -1.570796 0.698132 1.570796
    20 -0.624302 5.320284 0.532680 -1.570796 0.000000 0.000000
    21 0.000001 49.921204 -0.000001 1.570796 0.000000 0.000000
    22 -2.098057 0.171298 1.780126 -1.570796 0.000000 0.000000
    23 0.000002 49.921204 -0.000001 1.570796 0.000000 0.000000
    24 0.001787 1.627478 -66.965790 -1.570796 0.000000 0.000000
    25 11.764790 0.000004 5.034005 -0.000001 0.000001 1.570796
    26 -16.920902 -0.000004 5.034000 -0.000001 0.000001 1.570796
    27 -16.920902 -0.000004 -4.642414 -0.000001 0.000001 1.570796
    28 11.764790 0.000004 -4.642411 -0.000001 0.000001 1.570796
    29 0.356633 0.420623 -0.003287 0.000000 0.000000 0.000000
    30 8.833526 0.391966 -4.897569 6.081535 -1.972129 -0.017533
    31 2.151739 8.356322 -0.251372 1.545868 -3.136717 1.482755
    32 -0.025045 -8.494830 -0.080696 0.093279 0.513285 0.153575
    33 -0.488518 -2.755602 -0.228260 -0.242250 0.060691 -0.057732
    34 0.039887 -1.538386 0.018135 -1.634715 -0.010403 0.036650
    35 0.028786 -1.134327 -0.109049 -0.791875 -0.013746 0.015532
    36 0.250027 -2.820665 -0.238396 -0.313985 0.018280 -0.085804
    37 -0.049759 -1.602417 0.049696 -1.312011 0.004662 -0.036064
    38 -0.034142 -1.175657 0.045718 -1.263217 0.005489 -0.033341
    39 0.957766 -2.746780 -0.090302 0.167150 -0.150256 0.099289
    40 -0.033420 -1.393223 -0.019070 -0.517862 0.008329 -0.025205
    41 -0.022360 -0.957436 0.007065 -0.527930 0.007982 -0.025323
    42 -1.180681 -2.507217 -0.193859 -0.150629 0.142428 -0.022092
    43 -0.024967 -1.123934 0.017597 -0.759797 0.006951 -0.032333
    44 -0.020057 -0.906594 0.037435 -1.162008 0.002397 -0.047687
    45 0.603042 -1.197277 0.181473 0.666402 -0.922572 -1.051051
    46 1.504676 -0.177260 -0.006710 0.213418 0.065484 -0.624307
    47 1.049988 -0.147821 0.032291 0.039018 -0.188604 -0.767764
    48 0.120153 -0.050270 -0.054489 0.287569 3.110905 1.561085
    49 0.280029 -2.469457 -10.665671 -1.841065 -5.268038 -1.387444
    50 0.050068 -8.399636 -0.001552 0.090287 -0.324699 0.491797
    51 0.447953 -2.798986 -0.200443 -0.244423 -0.056549 0.060325
    52 -0.032909 -1.499736 0.024472 -1.286538 0.022998 -0.023524
    53 -0.027022 -1.096452 -0.028023 -0.524788 0.013722 -0.005621
    54 -0.249534 -2.846964 -0.174213 -0.316339 -0.019324 0.076958
    55 0.043235 -1.656596 0.076480 -1.215719 -0.019648 0.004291
    56 0.031729 -1.149111 0.058838 -0.758918 -0.007903 0.005292
    57 -0.963866 -2.785145 -0.085350 -0.133536 0.264013 -0.032832
    58 0.028479 -1.403067 -0.009354 -0.611716 -0.012368 -0.024940
    59 0.021413 -0.942156 0.012233 -1.051190 -0.028955 -0.035163
    60 1.164475 -2.543940 -0.170330 -0.166618 -0.161408 -0.083733
    61 0.024032 -1.136855 -0.001725 -0.791002 0.004494 0.042151
    62 0.014898 -0.903521 -0.015942 -1.038460 0.010007 0.051857
    63 -0.586770 -1.264477 0.200161 -0.200107 -0.096960 -2.129319
    64 1.530648 0.054775 0.009035 0.154202 -0.079651 0.158040
    65 1.106228 0.052330 -0.001860 0.312988 -0.289446 0.975216
    66 -0.139399 -0.111698 0.014397 0.285382 -0.030687 1.580508
    67 -1.877860 8.909492 -0.309748 1.610346 -0.009098 -1.520335
  time 10
    0 6.487171 -12.427463 -4.267190 1.579562 0.032161 -0.002096
    1 -1.064977 0.427841 3.494147 -1.570789 1.456595 -2.443453
    2 0.631628 -0.525761 0.000000 -0.000001 0.000000 0.000000
    3 -0.359356 -0.525757 0.000000 -0.000001 0.000000 0.000000
    4 -1.349792 -0.525757 0.000000 -0.000001 0.000000 0.000000
    5 0.000000 0.444557 -0.150236 -1.570796 3.141592 1.570796
    6 0.000000 0.444557 -1.633967 -1.570796 2.879793 1.570796
    7 1.065000 0.427841 3.494147 -1.570792 -1.684999 -0.698137
    8 -0.631627 0.525760 0.000000 0.000000 0.000000 0.000000
    9 0.359358 0.525757 0.000000 0.000000 0.000000 0.000000
    10 1.349793 0.525756 0.000000 0.000000 0.000000 0.000000
    11 0.000000 2.775445 -3.287100 0.000000 -1.570796 0.000000
    12 4.055391 0.787430 -0.000001 0.000001 0.000000 -4.011944
    13 5.638199 0.787432 -0.000001 0.000001 0.000000 -4.011944
    14 7.208800 0.787434 -0.000002 0.000001 0.000000 -4.011944
    15 7.161302 -0.436564 0.542799 -3.141591 -1.570451 0.000000
    16 7.161302 -0.436564 -0.539481 -3.141592 1.570796 0.000000
    17 0.000000 1.803919 -3.985617 0.000000 -1.570796 0.000000
    18 4.656112 0.438828 0.399058 1.570796 0.000000 -1.570796
    19 0.000000 2.705573 -0.826574 -1.570796 0.698132 1.570796
    20 -0.624302 5.320284 0.532680 -1.570796 0.000000 0.000000
    21 0.000001 49.921204 -0.000001 1.570796 0.000000 0.000000
    22 -2.098057 0.171298 1.780126 -1.570796 0.000000 0.000000
    23 0.000002 49.921204 -0.000001 1.570796 0.000000 0.000000
    24 0.001787 1.627478 -66.965790 -1.570796 0.000000 0.000000
    25 11.764790 0.000004 5.034005 -0.000001 0.000001 1.570796
    26 -16.920902 -0.000004 5.034000 -0.000001 0.000001 1.570796
    27 -16.920902 -0.000004 -4.642414 -0.000001 0.000001 1.570796
    28 11.764790 0.000004 -4.642411 -0.000001 0.000001 1.570796
    29 0.356633 0.420623 -0.003287 0.000000 0.000000 0.000000
    30 8.833526 0.348996 -4.913194 6.087650 -1.972304 -0.023215
    31 2.151739 8.356322 -0.251372 1.545868 -3.136717 1.482755
    32 -0.025045 -8.494830 -0.080696 0.090680 0.513620 0.144808
    33 -0.488518 -2.755602 -0.228260 -0.242250 0.060691 -0.057732
    34 0.039887 -1.538386 0.018135 -1.634715 -0.010403 0.036650
    35 0.028786 -1.134327 -0.109049 -0.791875 -0.013746 0.015532
    36 0.250027 -2.820665 -0.238396 -0.313985 0.018280 -0.085804
    37 -0.049759 -1.602417 0.049696 -1.312011 0.004662 -0.036064
    38 -0.034142 -1.175657 0.045718 -1.263217 0.005489 -0.033341
    39 0.957766 -2.746780 -0.090302 0.167150 -0.150256 0.099289
    40 -0.033420 -1.393223 -0.019070 -0.517862 0.008329 -0.025205
    41 -0.022360 -0.957436 0.007065 -0.527930 0.007982 -0.025323
    42 -1.180681 -2.507217 -0.193859 -0.150629 0.142428 -0.022092
    43 -0.024967 -1.123934 0.017597 -0.759797 0.006951 -0.032333
    44 -0.020057 -0.906594 0.037435 -1.162008 0.002397 -0.047687
    45 0.603042 -1.197277 0.181473 0.666402 -0.922572 -1.051051
    46 1.504676 -0.177260 -0.006710 0.213418 0.065484 -0.624307
    47 1.049988 -0.147821 0.032291 0.039018 -0.188604 -0.767764
    48 0.120153 -0.050270 -0.054489 0.287569 3.110905 1.561085
    49 0.283936 -2.496801 -10.653952 -1.842364 -5.265464 -1.390284
    50 0.050068 -8.399636 -0.001552 0.087712 -0.328590 0.493659
    51 0.447953 -2.798986 -0.200443 -0.244423 -0.056549 0.060325
    52 -0.032909 -1.499736 0.024472 -1.286538 0.022998 -0.023524
    53 -0.027022 -1.096452 -0.028023 -0.524788 0.013722 -0.005621
    54 -0.249534 -2.846964 -0.174213 -0.316339 -0.019324 0.076958
    55 0.043235 -1.656596 0.076480 -1.215719 -0.019648 0.004291
    56 0.031729 -1.149111 0.058838 -0.758918 -0.007903 0.005292
    57 -0.963866 -2.785145 -0.085350 -0.133536 0.264013 -0.032832
    58 0.028479 -1.403067 -0.009354 -0.611716 -0.012368 -0.024940
    59 0.021413 -0.942156 0.012233 -1.051190 -0.028955 -0.035163
    60 1.164475 -2.543940 -0.170330 -0.166618 -0.161408 -0.083733
    61 0.024032 -1.136855 -0.001725 -0.791002 0.004494 0.042151
    62 0.014898 -0.903521 -0.015942 -1.038460 0.010007 0.051857
    63 -0.586770 -1.264477 0.200161 -0.200107 -0.096960 -2.129319
    64 1.530648 0.054775 0.009035 0.154202 -0.079651 0.158040
    65 1.106228 0.052330 -0.001860 0.312988 -0.289446 0.975216
    66 -0.139399 -0.111698 0.014397 0.285382 -0.030687 1.580508
    67 -1.877860 8.909492 -0.309748 1.610346 -0.009098 -1.520335
  time 11
    0 6.487171 -12.474340 -4.290628 1.584619 0.030591 -0.001286
    1 -1.064977 0.427841 3.494147 -1.570789 1.456595 -2.443453
    2 0.631628 -0.525761 0.000000 -0.000001 0.000000 0.000000
    3 -0.359356 -0.525757 0.000000 -0.000001 0.000000 0.000000
    4 -1.349792 -0.525757 0.000000 -0.000001 0.000000 -0.687455
    5 0.000000 0.444557 -0.150236 -1.570796 3.141592 1.570796
    6 0.000000 0.444557 -1.633967 -1.570796 2.879793 1.570796
    7 1.065000 0.427841 3.494147 -1.570792 -1.684999 -0.698137
    8 -0.631627 0.525760 0.000000 0.000000 0.000000 0.000000
    9 0.359358 0.525757 0.000000 0.000000 0.000000 0.000000
    10 1.349793 0.525756 0.000000 0.000000 0.000000 -0.668173
    11 0.000000 2.775445 -3.287100 0.000000 -1.570796 0.000000
    12 4.055391 0.787430 -0.000001 0.000001 0.000000 -4.011944
    13 5.638199 0.787432 -0.000001 0.000001 0.000000 -4.011944
    14 7.208800 0.787434 -0.000002 0.000001 0.000000 -4.011944
    15 7.161302 -0.436564 0.542799 -3.141591 -1.570451 0.000000
    16 7.161302 -0.436564 -0.539481 -3.141592 1.570796 0.000000
    17 0.000000 1.803919 -3.985617 0.000000 -1.570796 0.000000
    18 4.656112 0.438828 0.399058 1.570796 0.000000 -1.570796
    19 0.000000 2.705573 -0.826574 -1.570796 0.698132 1.570796
    20 -0.624302 5.320284 0.532680 -1.570796 0.000000 0.000000
    21 0.000001 49.921204 -0.000001 1.570796 0.000000 0.000000
    22 -2.098057 0.171298 1.780126 -1.570796 0.000000 0.000000
    23 0.000002 49.921204 -0.000001 1.570796 0.000000 0.000000
    24 0.001787 1.627478 -66.965790 -1.570796 0.000000 0.000000
    25 11.764790 0.000004 5.034005 -0.000001 0.000001 1.570796
    26 -16.920902 -0.000004 5.034000 -0.000001 0.000001 1.570796
    27 -16.920902 -0.000004 -4.642414 -0.000001 0.000001 1.570796
    28 11.764790 0.000004 -4.642411 -0.000001 0.000001 1.570796
    29 0.356633 0.420623 -0.003287 0.000000 0.000000 0.000000
    30 8.829620 0.309932 -4.928820 6.093383 -1.972480 -0.028518
    31 2.151739 8.356322 -0.251372 1.545868 -3.136717 1.482755
    32 -0.025045 -8.494830 -0.080696 0.088194 0.514064 0.136440
    33 -0.488518 -2.755602 -0.228260 -0.242250 0.060691 -0.057732
    34 0.039887 -1.538386 0.018135 -1.634715 -0.010403 0.036650
    35 0.028786 -1.134327 -0.109049 -0.791875 -0.013746 0.015532
    36 0.250027 -2.820665 -0.238396 -0.313985 0.018280 -0.085804
    37 -0.049759 -1.602417 0.049696 -1.312011 0.004662 -0.036064
    38 -0.034142 -1.175657 0.045718 -1.263217 0.005489 -0.033341
    39 0.957766 -2.746780 -0.090302 0.167150 -0.150256 0.099289
    40 -0.033420 -1.393223 -0.019070 -0.517862 0.008329 -0.025205
    41 -0.022360 -0.957436 0.007065 -0.527930 0.007982 -0.025323
    42 -1.180681 -2.507217 -0.193859 -0.150629 0.142428 -0.022092
    43 -0.024967 -1.123934 0.017597 -0.759797 0.006951 -0.032333
    44 -0.020057 -0.906594 0.037435 -1.162008 0.002397 -0.047687
    45 0.603042 -1.197277 0.181473 0.666402 -0.922572 -1.051051
    46 1.504676 -0.177260 -0.006710 0.213418 0.065484 -0.624307
    47 1.049988 -0.147821 0.032291 0.039018 -0.188604 -0.767764
    48 0.120153 -0.050270 -0.054489 0.287569 3.110905 1.561085
    49 0.291748 -2.520240 -10.642233 -1.843544 -5.263056 -1.393030
    50 0.050068 -8.399636 0.002354 0.085197 -0.332232 0.495668
    51 0.447953 -2.798986 -0.200443 -0.244423 -0.056549 0.060325
    52 -0.032909 -1.499736 0.024472 -1.286538 0.022998 -0.023524
    53 -0.027022 -1.096452 -0.028023 -0.524788 0.013722 -0.005621
    54 -0.249534 -2.846964 -0.174213 -0.316339 -0.019324 0.076958
    55 0.043235 -1.656596 0.076480 -1.215719 -0.019648 0.004291
    56 0.031729 -1.149111 0.058838 -0.758918 -0.007903 0.005292
    57 -0.963866 -2.785145 -0.085350 -0.133536 0.264013 -0.032832
    58 0.028479 -1.403067 -0.009354 -0.611716 -0.012368 -0.024940
    59 0.021413 -0.942156 0.012233 -1.051190 -0.028955 -0.035163
    60 1.164475 -2.543940 -0.170330 -0.166618 -0.161408 -0.083733
    61 0.024032 -1.136855 -0.001725 -0.791002 0.004494 0.042151
    62 0.014898 -0.903521 -0.015942 -1.038460 0.010007 0.051857
    63 -0.586770 -1.264477 0.200161 -0.200107 -0.096960 -2.129319
    64 1.530648 0.054775 0.009035 0.154202 -0.079651 0.158040
    65 1.106228 0.052330 -0.001860 0.312988 -0.289446 0.975216
    66 -0.139399 -0.111698 0.014397 0.285382 -0.030687 1.580508
    67 -1.877860 8.909492 -0.309748 1.610346 -0.009098 -1.520335
  time 12
    0 6.487171 -12.517310 -4.310160 1.589296 0.029598 -0.000638
    1 -1.064977 0.427841 3.494147 -1.570789 1.456595 -2.443453
    2 0.631628 -0.525761 0.000000 -0.000001 0.000000 0.000000
    3 -0.359356 -0.525757 0.000000 -0.000001 0.000000 0.000000
    4 -1.349792 -0.525757 0.000000 -0.000001 0.000000 -1.374911
    5 0.000000 0.444557 -0.150236 -1.570796 3.141592 1.570796
    6 0.000000 0.444557 -1.633967 -1.570796 2.879793 1.570796
    7 1.065000 0.427841 3.494147 -1.570792 -1.684999 -0.698137
    8 -0.631627 0.525760 0.000000 0.000000 0.000000 0.000000
    9 0.359358 0.525757 0.000000 0.000000 0.000000 0.000000
    10 1.349793 0.525756 0.000000 0.000000 0.000000 -1.336347
    11 0.000000 2.775445 -3.287100 0.000000 -1.570796 0.000000
    12 4.055391 0.787430 -0.000001 0.000001 0.000000 -4.011944
    13 5.638199 0.787432 -0.000001 0.000001 0.000000 -4.011944
    14 7.208800 0.787434 -0.000002 0.000001 0.000000 -4.011944
    15 7.161302 -0.436564 0.542799 -3.141591 -1.570451 0.000000
    16 7.161302 -0.436564 -0.539481 -3.141592 1.570796 0.000000
    17 0.000000 1.803919 -3.985617 0.000000 -1.570796 0.000000
    18 4.656112 0.438828 0.399058 1.570796 0.000000 -1.570796
    19 0.000000 2.705573 -0.826574 -1.570796 0.698132 1.570796
    20 -0.624302 5.320284 0.532680 -1.570796 0.000000 0.000000
    21 0.000001 49.921204 -0.000001 1.570796 0.000000 0.000000
    22 -2.098057 0.171298 1.780126 -1.570796 0.000000 0.000000
    23 0.000002 49.921204 -0.000001 1.570796 0.000000 0.000000
    24 0.001787 1.627478 -66.965790 -1.570796 0.000000 0.000000
    25 11.764790 0.000004 5.034005 -0.000001 0.000001 1.570796
    26 -16.920902 -0.000004 5.034000 -0.000001 0.000001 1.570796
    27 -16.920902 -0.000004 -4.642414 -0.000001 0.000001 1.570796
    28 11.764790 0.000004 -4.642411 -0.000001 0.000001 1.570796
    29 0.356633 0.420623 -0.003287 0.000000 0.000000 0.000000
    30 8.829620 0.274775 -4.940539 6.098160 -1.972655 -0.033063
    31 2.151739 8.356322 -0.251372 1.545868 -3.136717 1.482755
    32 -0.025045 -8.490924 -0.080696 0.085988 0.514807 0.129031
    33 -0.488518 -2.755602 -0.228260 -0.242250 0.060691 -0.057732
    34 0.039887 -1.538386 0.018135 -1.634715 -0.010403 0.036650
    35 0.028786 -1.134327 -0.109049 -0.791875 -0.013746 0.015532
    36 0.250027 -2.820665 -0.238396 -0.313985 0.018280 -0.085804
    37 -0.049759 -1.602417 0.049696 -1.312011 0.004662 -0.036064
    38 -0.034142 -1.175657 0.045718 -1.263217 0.005489 -0.033341
    39 0.957766 -2.746780 -0.090302 0.167150 -0.150256 0.099289
    40 -0.033420 -1.393223 -0.019070 -0.517862 0.008329 -0.025205
    41 -0.022360 -0.957436 0.007065 -0.527930 0.007982 -0.025323
    42 -1.180681 -2.507217 -0.193859 -0.150629 0.142428 -0.022092
    43 -0.024967 -1.123934 0.017597 -0.759797 0.006951 -0.032333
    44 -0.020057 -0.906594 0.037435 -1.162008 0.002397 -0.047687
    45 0.603042 -1.197277 0.181473 0.666402 -0.922572 -1.051051
    46 1.504676 -0.177260 -0.006710 0.213418 0.065484 -0.624307
    47 1.049988 -0.147821 0.032291 0.039018 -0.188604 -0.767764
    48 0.120153 -0.050270 -0.054489 0.287569 3.110905 1.561085
    49 0.299561 -2.539771 -10.634420 -1.844548 -5.261146 -1.395207
    50 0.046161 -8.399636 0.002354 0.082921 -0.335126 0.498041
    51 0.447953 -2.798986 -0.200443 -0.244423 -0.056549 0.060325
    52 -0.032909 -1.499736 0.024472 -1.286538 0.022998 -0.023524
    53 -0.027022 -1.096452 -0.028023 -0.524788 0.013722 -0.005621
    54 -0.249534 -2.846964 -0.174213 -0.316339 -0.019324 0.076958
    55 0.043235 -1.656596 0.076480 -1.215719 -0.019648 0.004291
    56 0.031729 -1.149111 0.058838 -0.758918 -0.007903 0.005292
    57 -0.963866 -2.785145 -0.085350 -0.133536 0.264013 -0.032832
    58 0.028479 -1.403067 -0.009354 -0.611716 -0.012368 -0.024940
    59 0.021413 -0.942156 0.012233 -1.051190 -0.028955 -0.035163
    60 1.164475 -2.543940 -0.170330 -0.166618 -0.161408 -0.083733
    61 0.024032 -1.136855 -0.001725 -0.791002 0.004494 0.042151
    62 0.014898 -0.903521 -0.015942 -1.038460 0.010007 0.051857
    63 -0.586770 -1.264477 0.200161 -0.200107 -0.096960 -2.129319
    64 1.530648 0.054775 0.009035 0.154202 -0.079651 0.158040
    65 1.106228 0.052330 -0.001860 0.312988 -0.289446 0.975216
    66 -0.139399 -0.111698 0.014397 0.285382 -0.030687 1.580508
    67 -1.877860 8.909492 -0.309748 1.610346 -0.009098 -1.520335
  time 13
    0 6.463733 -12.657939 -4.317973 1.568815 0.008585 -0.001610
    1 -1.064977 0.427841 3.494147 -1.570789 1.456595 -2.443453
    2 0.631628 -0.525761 0.000000 -0.000001 0.000000 0.000000
    3 -0.359356 -0.525757 0.000000 -0.000001 0.000000 -0.669134
    4 -1.349792 -0.525757 0.000000 -0.000001 0.000000 -1.216138
    5 0.000000 0.444557 -0.150236 -1.570796 3.141592 1.570796
    6 0.000000 0.444557 -1.633967 -1.570796 2.879793 1.570796
    7 1.065000 0.427841 3.494147 -1.570792 -1.684999 -0.698137
    8 -0.631627 0.525760 0.000000 0.000000 0.000000 0.000000
    9 0.359358 0.525757 0.000000 0.000000 0.000000 -0.668173
    10 1.349793 0.525756 0.000000 0.000000 0.000000 -1.216121
    11 0.000000 2.775445 -3.287100 0.000000 -1.570796 0.000000
    12 4.055391 0.787430 -0.000001 0.000001 0.000000 -4.011944
    13 5.638199 0.787432 -0.000001 0.000001 0.000000 -4.011944
    14 7.208800 0.787434 -0.000002 0.000001 0.000000 -4.011944
    15 7.161302 -0.436564 0.542799 -3.141591 -1.570451 0.000000
    16 7.161302 -0.436564 -0.539481 -3.141592 1.570796 0.000000
    17 0.000000 1.803919 -3.985617 0.000000 -1.570796 0.000000
    18 4.656112 0.438828 0.399058 1.570796 0.000000 -1.570796
    19 0.000000 2.705573 -0.826574 -1.570796 0.698132 1.570796
    20 -0.624302 5.320284 0.532680 -1.570796 0.000000 0.000000
    21 0.000001 49.921204 -0.000001 1.570796 0.000000 0.000000
    22 -2.098057 0.171298 1.780126 -1.570796 0.000000 0.000000
    23 0.000002 49.921204 -0.000001 1.570796 0.000000 0.000000
    24 0.001787 1.627478 -66.965790 -1.570796 0.000000 0.000000
    25 11.764790 0.000004 5.034005 -0.000001 0.000001 1.570796
    26 -16.920902 -0.000004 5.034000 -0.000001 0.000001 1.570796
    27 -16.920902 -0.000004 -4.642414 -0.000001 0.000001 1.570796
    28 11.764790 0.000004 -4.642411 -0.000001 0.000001 1.570796
    29 0.356633 0.420623 -0.003287 0.000000 0.000000 0.000000
    30 8.821807 0.110707 -5.006947 6.094052 -1.973357 -0.028139
    31 2.151739 8.356322 -0.251372 1.545868 -3.136717 1.482755
    32 -0.032857 -8.494830 -0.080696 0.089839 0.489735 0.147127
    33 -0.488518 -2.755602 -0.228260 -0.242250 0.060691 -0.057732
    34 0.039887 -1.538386 0.018135 -1.634715 -0.010403 0.036650
    35 0.028786 -1.134327 -0.109049 -0.791875 -0.013746 0.015532
    36 0.250027 -2.820665 -0.238396 -0.313985 0.018280 -0.085804
    37 -0.049759 -1.602417 0.049696 -1.312011 0.004662 -0.036064
    38 -0.034142 -1.175657 0.045718 -1.263217 0.005489 -0.033341
    39 0.957766 -2.746780 -0.090302 0.167150 -0.150256 0.099289
    40 -0.033420 -1.393223 -0.019070 -0.517862 0.008329 -0.025205
    41 -0.022360 -0.957436 0.007065 -0.527930 0.007982 -0.025323
    42 -1.180681 -2.507217 -0.193859 -0.150629 0.142428 -0.022092
    43 -0.024967 -1.123934 0.017597 -0.759797 0.006951 -0.032333
    44 -0.020057 -0.906594 0.037435 -1.162008 0.002397 -0.047687
    45 0.603042 -1.197277 0.181473 0.666402 -0.922572 -1.051051
    46 1.504676 -0.177260 -0.006710 0.213418 0.065484 -0.624307
    47 1.049988 -0.147821 0.032291 0.039018 -0.188604 -0.767764
    48 0.120153 -0.050270 -0.054489 0.287569 3.110905 1.561085
    49 0.322999 -2.617899 -10.610982 -1.855349 -5.239890 -1.410639
    50 0.050068 -8.403542 0.002354 0.085137 -0.346451 0.447869
    51 0.447953 -2.798986 -0.200443 -0.244423 -0.056549 0.060325
    52 -0.032909 -1.499736 0.024472 -1.286538 0.022998 -0.023524
    53 -0.027022 -1.096452 -0.028023 -0.524788 0.013722 -0.005621
    54 -0.249534 -2.846964 -0.174213 -0.316339 -0.019324 0.076958
    55 0.043235 -1.656596 0.076480 -1.215719 -0.019648 0.004291
    56 0.031729 -1.149111 0.058838 -0.758918 -0.007903 0.005292
    57 -0.963866 -2.785145 -0.085350 -0.133536 0.264013 -0.032832
    58 0.028479 -1.403067 -0.009354 -0.611716 -0.012368 -0.024940
    59 0.021413 -0.942156 0.012233 -1.051190 -0.028955 -0.035163
    60 1.164475 -2.543940 -0.170330 -0.166618 -0.161408 -0.083733
    61 0.024032 -1.136855 -0.001725 -0.791002 0.004494 0.042151
    62 0.014898 -0.903521 -0.015942 -1.038460 0.010007 0.051857
    63 -0.586770 -1.264477 0.200161 -0.200107 -0.096960 -2.129319
    64 1.530648 0.054775 0.009035 0.154202 -0.079651 0.158040
    65 1.106228 0.052330 -0.001860 0.312988 -0.289446 0.975216
    66 -0.139399 -0.111698 0.014397 0.285382 -0.030687 1.580508
    67 -1.877860 8.909492 -0.309748 1.610346 -0.009098 -1.520335
  time 14
    0 6.444201 -12.736066 -4.321879 1.552844 -0.006599 -0.002177
    1 -1.064977 0.427841 3.494147 -1.570789 1.456595 -2.443453
    2 0.631628 -0.525761 0.000000 -0.000001 0.000000 -0.656027
    3 -0.359356 -0.525757 0.000000 -0.000001 0.000000 -1.338349
    4 -1.349792 -0.525757 0.000000 -0.000001 0.000000 -1.216138
    5 0.000000 0.444557 -0.150236 -1.570796 3.141592 1.570796
    6 0.000000 0.444557 -1.633967 -1.570796 2.879793 1.570796
    7 1.065000 0.427841 3.494147 -1.570792 -1.684999 -0.698137
    8 -0.631627 0.525760 0.000000 0.000000 0.000000 -0.668173
    9 0.359358 0.525757 0.000000 0.000000 0.000000 -1.336347
    10 1.349793 0.525756 0.000000 0.000000 0.000000 -1.216121
    11 0.000000 2.775445 -3.287100 0.000000 -1.570796 0.000000
    12 4.055391 0.787430 -0.000001 0.000001 0.000000 -4.011944
    13 5.638199 0.787432 -0.000001 0.000001 0.000000 -4.011944
    14 7.208800 0.787434 -0.000002 0.000001 0.000000 -4.011944
    15 7.161302 -0.436564 0.542799 -3.141591 -1.570451 0.000000
    16 7.161302 -0.436564 -0.539481 -3.141592 1.570796 0.000000
    17 0.000000 1.803919 -3.985617 0.000000 -1.570796 0.000000
    18 4.656112 0.438828 0.399058 1.570796 0.000000 -1.570796
    19 0.000000 2.705573 -0.826574 -1.570796 0.698132 1.570796
    20 -0.624302 5.320284 0.532680 -1.570796 0.000000 0.000000
    21 0.000001 49.921204 -0.000001 1.570796 0.000000 0.000000
    22 -2.098057 0.171298 1.780126 -1.570796 0.000000 0.000000
    23 0.000002 49.921204 -0.000001 1.570796 0.000000 0.000000
    24 0.001787 1.627478 -66.965790 -1.570796 0.000000 0.000000
    25 11.764790 0.000004 5.034005 -0.000001 0.000001 1.570796
    26 -16.920902 -0.000004 5.034000 -0.000001 0.000001 1.570796
    27 -16.920902 -0.000004 -4.642414 -0.000001 0.000001 1.570796
    28 11.764790 0.000004 -4.642411 -0.000001 0.000001 1.570796
    29 0.356633 0.420623 -0.003287 0.000000 0.000000 0.000000
    30 8.817901 0.013048 -5.046011 6.086981 -1.973796 -0.020469
    31 2.151739 8.356322 -0.251372 1.545868 -3.136717 1.482755
    32 -0.036764 -8.498736 -0.084602 0.093036 0.470859 0.162994
    33 -0.488518 -2.755602 -0.228260 -0.242250 0.060691 -0.057732
    34 0.039887 -1.538386 0.018135 -1.634715 -0.010403 0.036650
    35 0.028786 -1.134327 -0.109049 -0.791875 -0.013746 0.015532
    36 0.250027 -2.820665 -0.238396 -0.313985 0.018280 -0.085804
    37 -0.049759 -1.602417 0.049696 -1.312011 0.004662 -0.036064
    38 -0.034142 -1.175657 0.045718 -1.263217 0.005489 -0.033341
    39 0.957766 -2.746780 -0.090302 0.167150 -0.150256 0.099289
    40 -0.033420 -1.393223 -0.019070 -0.517862 0.008329 -0.025205
    41 -0.022360 -0.957436 0.007065 -0.527930 0.007982 -0.025323
    42 -1.180681 -2.507217 -0.193859 -0.150629 0.142428 -0.022092
    43 -0.024967 -1.123934 0.017597 -0.759797 0.006951 -0.032333
    44 -0.020057 -0.906594 0.037435 -1.162008 0.002397 -0.047687
    45 0.603042 -1.197277 0.181473 0.666402 -0.922572 -1.051051
    46 1.504676 -0.177260 -0.006710 0.213418 0.065484 -0.624307
    47 1.049988 -0.147821 0.032291 0.039018 -0.188604 -0.767764
    48 0.120153 -0.050270 -0.054489 0.287569 3.110905 1.561085
    49 0.334718 -2.660869 -10.599263 -1.863554 -5.224945 -1.421147
    50 0.053974 -8.411355 0.002354 0.088191 -0.354035 0.410551
    51 0.447953 -2.798986 -0.200443 -0.244423 -0.056549 0.060325
    52 -0.032909 -1.499736 0.024472 -1.286538 0.022998 -0.023524
    53 -0.027022 -1.096452 -0.028023 -0.524788 0.013722 -0.005621
    54 -0.249534 -2.846964 -0.174213 -0.316339 -0.019324 0.076958
    55 0.043235 -1.656596 0.076480 -1.215719 -0.019648 0.004291
    56 0.031729 -1.149111 0.058838 -0.758918 -0.007903 0.005292
    57 -0.963866 -2.785145 -0.085350 -0.133536 0.264013 -0.032832
    58 0.028479 -1.403067 -0.009354 -0.611716 -0.012368 -0.024940
    59 0.021413 -0.942156 0.012233 -1.051190 -0.028955 -0.035163
    60 1.164475 -2.543940 -0.170330 -0.166618 -0.161408 -0.083733
    61 0.024032 -1.136855 -0.001725 -0.791002 0.004494 0.042151
    62 0.014898 -0.903521 -0.015942 -1.038460 0.010007 0.051857
    63 -0.586770 -1.264477 0.200161 -0.200107 -0.096960 -2.129319
    64 1.530648 0.054775 0.009035 0.154202 -0.079651 0.158040
    65 1.106228 0.052330 -0.001860 0.312988 -0.289446 0.975216
    66 -0.139399 -0.111698 0.014397 0.285382 -0.030687 1.580508
    67 -1.877860 8.909492 -0.309748 1.610346 -0.009098 -1.520335
  time 15
    0 6.448108 -12.607156 -4.317973 1.549599 -0.003363 -0.003230
    1 -1.064977 0.427841 3.494147 -1.570789 1.456595 -2.443453
    2 0.631628 -0.525761 0.000000 -0.000001 0.000000 -1.312054
    3 -0.359356 -0.525757 0.000000 -0.000001 0.000000 -1.216146
    4 -1.349792 -0.525757 0.000000 -0.000001 0.000000 -1.216138
    5 0.000000 0.444557 -0.150236 -1.570796 3.141592 1.570796
    6 0.000000 0.444557 -1.633967 -1.570796 2.879793 1.570796
    7 1.065000 0.427841 3.494147 -1.570792 -1.684999 -0.698137
    8 -0.631627 0.525760 0.000000 0.000000 0.000000 -1.336347
    9 0.359358 0.525757 0.000000 0.000000 0.000000 -1.216121
    10 1.349793 0.525756 0.000000 0.000000 0.000000 -1.216121
    11 0.000000 2.775445 -3.287100 0.000000 -1.570796 0.000000
    12 4.055391 0.787430 -0.000001 0.000001 0.000000 -4.011944
    13 5.638199 0.787432 -0.000001 0.000001 0.000000 -4.011944
    14 7.208800 0.787434 -0.000002 0.000001 0.000000 -4.011944
    15 7.161302 -0.436564 0.542799 -3.141591 -1.570451 0.000000
    16 7.161302 -0.436564 -0.539481 -3.141592 1.570796 0.000000
    17 0.000000 1.803919 -3.985617 0.000000 -1.570796 0.000000
    18 4.656112 0.438828 0.399058 1.570796 0.000000 -1.570796
    19 0.000000 2.705573 -0.826574 -1.570796 0.698132 1.570796
    20 -0.624302 5.320284 0.532680 -1.570796 0.000000 0.000000
    21 0.000001 49.921204 -0.000001 1.570796 0.000000 0.000000
    22 -2.098057 0.171298 1.780126 -1.570796 0.000000 0.000000
    23 0.000002 49.921204 -0.000001 1.570796 0.000000 0.000000
    24 0.001787 1.627478 -66.965790 -1.570796 0.000000 0.000000
    25 11.764790 0.000004 5.034005 -0.000001 0.000001 1.570796
    26 -16.920902 -0.000004 5.034000 -0.000001 0.000001 1.570796
    27 -16.920902 -0.000004 -4.642414 -0.000001 0.000001 1.570796
    28 11.764790 0.000004 -4.642411 -0.000001 0.000001 1.570796
    29 0.356633 0.420623 -0.003287 0.000000 0.000000 0.000000
    30 8.821807 0.134146 -5.006947 6.070355 -1.973094 -0.005318
    31 2.151739 8.356322 -0.251372 1.545868 -3.136717 1.482755
    32 -0.036764 -8.498736 -0.084602 0.096456 0.470859 0.174206
    33 -0.488518 -2.755602 -0.228260 -0.242250 0.060691 -0.057732
    34 0.039887 -1.538386 0.018135 -1.634715 -0.010403 0.036650
    35 0.028786 -1.134327 -0.109049 -0.791875 -0.013746 0.015532
    36 0.250027 -2.820665 -0.238396 -0.313985 0.018280 -0.085804
    37 -0.049759 -1.602417 0.049696 -1.312011 0.004662 -0.036064
    38 -0.034142 -1.175657 0.045718 -1.263217 0.005489 -0.033341
    39 0.957766 -2.746780 -0.090302 0.167150 -0.150256 0.099289
    40 -0.033420 -1.393223 -0.019070 -0.517862 0.008329 -0.025205
    41 -0.022360 -0.957436 0.007065 -0.527930 0.007982 -0.025323
    42 -1.180681 -2.507217 -0.193859 -0.150629 0.142428 -0.022092
    43 -0.024967 -1.123934 0.017597 -0.759797 0.006951 -0.032333
    44 -0.020057 -0.906594 0.037435 -1.162008 0.002397 -0.047687
    45 0.603042 -1.197277 0.181473 0.666402 -0.922572 -1.051051
    46 1.504676 -0.177260 -0.006710 0.213418 0.065484 -0.624307
    47 1.049988 -0.147821 0.032291 0.039018 -0.188604 -0.767764
    48 0.120153 -0.050270 -0.054489 0.287569 3.110905 1.561085
    49 0.307374 -2.571022 -10.642233 -1.860012 -5.230425 -1.413005
    50 0.053974 -8.411355 0.002354 0.093641 -0.349096 0.413545
    51 0.447953 -2.798986 -0.200443 -0.244423 -0.056549 0.060325
    52 -0.032909 -1.499736 0.024472 -1.286538 0.022998 -0.023524
    53 -0.027022 -1.096452 -0.028023 -0.524788 0.013722 -0.005621
    54 -0.249534 -2.846964 -0.174213 -0.316339 -0.019324 0.076958
    55 0.043235 -1.656596 0.076480 -1.215719 -0.019648 0.004291
    56 0.031729 -1.149111 0.058838 -0.758918 -0.007903 0.005292
    57 -0.963866 -2.785145 -0.085350 -0.133536 0.264013 -0.032832
    58 0.028479 -1.403067 -0.009354 -0.611716 -0.012368 -0.024940
    59 0.021413 -0.942156 0.012233 -1.051190 -0.028955 -0.035163
    60 1.164475 -2.543940 -0.170330 -0.166618 -0.161408 -0.083733
    61 0.024032 -1.136855 -0.001725 -0.791002 0.004494 0.042151
    62 0.014898 -0.903521 -0.015942 -1.038460 0.010007 0.051857
    63 -0.586770 -1.264477 0.200161 -0.200107 -0.096960 -2.129319
    64 1.530648 0.054775 0.009035 0.154202 -0.079651 0.158040
    65 1.106228 0.052330 -0.001860 0.312988 -0.289446 0.975216
    66 -0.139399 -0.111698 0.014397 0.285382 -0.030687 1.580508
    67 -1.877860 8.909492 -0.309748 1.610346 -0.009098 -1.520335
  time 16
    0 6.452014 -12.474340 -4.317973 1.552464 0.003620 -0.003716
    1 -1.064977 0.427841 3.494147 -1.570789 1.456595 -2.443453
    2 0.631628 -0.525761 0.000000 -0.000001 0.000000 -1.216116
    3 -0.359356 -0.525757 0.000000 -0.000001 0.000000 -1.216146
    4 -1.349792 -0.525757 0.000000 -0.000001 0.000000 -1.216138
    5 0.000000 0.444557 -0.150236 -1.570796 3.141592 1.570796
    6 0.000000 0.444557 -1.633967 -1.570796 2.879793 1.570796
    7 1.065000 0.427841 3.494147 -1.570792 -1.684999 -0.698137
    8 -0.631627 0.525760 0.000000 0.000000 0.000000 -1.216121
    9 0.359358 0.525757 0.000000 0.000000 0.000000 -1.216121
    10 1.349793 0.525756 0.000000 0.000000 0.000000 -1.216121
    11 0.000000 2.775445 -3.287100 0.000000 -1.570796 0.000000
    12 4.055391 0.787430 -0.000001 0.000001 0.000000 -4.011944
    13 5.638199 0.787432 -0.000001 0.000001 0.000000 -4.011944
    14 7.208800 0.787434 -0.000002 0.000001 0.000000 -4.011944
    15 7.161302 -0.436564 0.542799 -3.141591 -1.570451 0.000000
    16 7.161302 -0.436564 -0.539481 -3.141592 1.570796 0.000000
    17 0.000000 1.803919 -3.985617 0.000000 -1.570796 0.000000
    18 4.656112 0.438828 0.399058 1.570796 0.000000 -1.570796
    19 0.000000 2.705573 -0.826574 -1.570796 0.698132 1.570796
    20 -0.624302 5.320284 0.532680 -1.570796 0.000000 0.000000
    21 0.000001 49.921204 -0.000001 1.570796 0.000000 0.000000
    22 -2.098057 0.171298 1.780126 -1.570796 0.000000 0.000000
    23 0.000002 49.921204 -0.000001 1.570796 0.000000 0.000000
    24 0.001787 1.627478 -66.965790 -1.570796 0.000000 0.000000
    25 11.764790 0.000004 5.034005 -0.000001 0.000001 1.570796
    26 -16.920902 -0.000004 5.034000 -0.000001 0.000001 1.570796
    27 -16.920902 -0.000004 -4.642414 -0.000001 0.000001 1.570796
    28 11.764790 0.000004 -4.642411 -0.000001 0.000001 1.570796
    29 0.356633 0.420623 -0.003287 0.000000 0.000000 0.000000
    30 8.821807 0.263056 -4.960070 6.057552 -1.972392 0.006140
    31 2.151739 8.356322 -0.251372 1.545868 -3.136717 1.482755
    32 -0.032857 -8.498736 -0.084602 0.098251 0.476408 0.178372
    33 -0.488518 -2.755602 -0.228260 -0.242250 0.060691 -0.057732
    34 0.039887 -1.538386 0.018135 -1.634715 -0.010403 0.036650
    35 0.028786 -1.134327 -0.109049 -0.791875 -0.013746 0.015532
    36 0.250027 -2.820665 -0.238396 -0.313985 0.018280 -0.085804
    37 -0.049759 -1.602417 0.049696 -1.312011 0.004662 -0.036064
    38 -0.034142 -1.175657 0.045718 -1.263217 0.005489 -0.033341
    39 0.957766 -2.746780 -0.090302 0.167150 -0.150256 0.099289
    40 -0.033420 -1.393223 -0.019070 -0.517862 0.008329 -0.025205
    41 -0.022360 -0.957436 0.007065 -0.527930 0.007982 -0.025323
    42 -1.180681 -2.507217 -0.193859 -0.150629 0.142428 -0.022092
    43 -0.024967 -1.123934 0.017597 -0.759797 0.006951 -0.032333
    44 -0.020057 -0.906594 0.037435 -1.162008 0.002397 -0.047687
    45 0.603042 -1.197277 0.181473 0.666402 -0.922572 -1.051051
    46 1.504676 -0.177260 -0.006710 0.213418 0.065484 -0.624307
    47 1.049988 -0.147821 0.032291 0.039018 -0.188604 -0.767764
    48 0.120153 -0.050270 -0.054489 0.287569 3.110905 1.561085
    49 0.283936 -2.485082 -10.681297 -1.854877 -5.239226 -1.402970
    50 0.053974 -8.407448 0.002354 0.097235 -0.343208 0.427676
    51 0.447953 -2.798986 -0.200443 -0.244423 -0.056549 0.060325
    52 -0.032909 -1.499736 0.024472 -1.286538 0.022998 -0.023524
    53 -0.027022 -1.096452 -0.028023 -0.524788 0.013722 -0.005621
    54 -0.249534 -2.846964 -0.174213 -0.316339 -0.019324 0.076958
    55 0.043235 -1.656596 0.076480 -1.215719 -0.019648 0.004291
    56 0.031729 -1.149111 0.058838 -0.758918 -0.007903 0.005292
    57 -0.963866 -2.785145 -0.085350 -0.133536 0.264013 -0.032832
    58 0.028479 -1.403067 -0.009354 -0.611716 -0.012368 -0.024940
    59 0.021413 -0.942156 0.012233 -1.051190 -0.028955 -0.035163
    60 1.164475 -2.543940 -0.170330 -0.166618 -0.161408 -0.083733
    61 0.024032 -1.136855 -0.001725 -0.791002 0.004494 0.042151
    62 0.014898 -0.903521 -0.015942 -1.038460 0.010007 0.051857
    63 -0.586770 -1.264477 0.200161 -0.200107 -0.096960 -2.129319
    64 1.530648 0.054775 0.009035 0.154202 -0.079651 0.158040
    65 1.106228 0.052330 -0.001860 0.312988 -0.289446 0.975216
    66 -0.139399 -0.111698 0.014397 0.285382 -0.030687 1.580508
    67 -1.877860 8.909492 -0.309748 1.610346 -0.009098 -1.520335
  time 17
    0 6.455920 -12.486059 -4.325786 1.556426 0.003780 -0.003068
    1 -1.064977 0.427841 3.494147 -1.570789 1.456595 -2.443453
    2 0.631628 -0.525761 0.000000 -0.000001 0.000000 -1.216116
    3 -0.359356 -0.525757 0.000000 -0.000001 0.000000 -1.216146
    4 -1.349792 -0.525757 0.000000 -0.000001 0.000000 -1.216138
    5 0.000000 0.444557 -0.150236 -1.570796 3.141592 1.570796
    6 0.000000 0.444557 -1.633967 -1.570796 2.879793 1.570796
    7 1.065000 0.427841 3.494147 -1.570792 -1.684999 -0.698137
    8 -0.631627 0.525760 0.000000 0.000000 0.000000 -1.216121
    9 0.359358 0.525757 0.000000 0.000000 0.000000 -1.216121
    10 1.349793 0.525756 0.000000 0.000000 0.000000 -1.216121
    11 0.000000 2.775445 -3.287100 0.000000 -1.570796 0.000000
    12 4.055391 0.787430 -0.000001 0.000001 0.000000 -4.011944
    13 5.638199 0.787432 -0.000001 0.000001 0.000000 -4.011944
    14 7.208800 0.787434 -0.000002 0.000001 0.000000 -4.011944
    15 7.161302 -0.436564 0.542799 -3.141591 -1.570451 0.000000
    16 7.161302 -0.436564 -0.539481 -3.141592 1.570796 0.000000
    17 0.000000 1.803919 -3.985617 0.000000 -1.570796 0.000000
    18 4.656112 0.438828 0.399058 1.570796 0.000000 -1.570796
    19 0.000000 2.705573 -0.826574 -1.570796 0.698132 1.570796
    20 -0.624302 5.320284 0.532680 -1.570796 0.000000 0.000000
    21 0.000001 49.921204 -0.000001 1.570796 0.000000 0.000000
    22 -2.098057 0.171298 1.780126 -1.570796 0.000000 0.000000
    23 0.000002 49.921204 -0.000001 1.570796 0.000000 0.000000
    24 0.001787 1.627478 -66.965790 -1.570796 0.000000 0.000000
    25 11.764790 0.000004 5.034005 -0.000001 0.000001 1.570796
    26 -16.920902 -0.000004 5.034000 -0.000001 0.000001 1.570796
    27 -16.920902 -0.000004 -4.642414 -0.000001 0.000001 1.570796
    28 11.764790 0.000004 -4.642411 -0.000001 0.000001 1.570796
    29 0.356633 0.420623 -0.003287 0.000000 0.000000 0.000000
    30 8.825714 0.259149 -4.960070 6.060801 -1.972480 0.003205
    31 2.151739 8.356322 -0.251372 1.545868 -3.136717 1.482755
    32 -0.032857 -8.498736 -0.084602 0.096942 0.478002 0.172884
    33 -0.488518 -2.755602 -0.228260 -0.242250 0.060691 -0.057732
    34 0.039887 -1.538386 0.018135 -1.634715 -0.010403 0.036650
    35 0.028786 -1.134327 -0.109049 -0.791875 -0.013746 0.015532
    36 0.250027 -2.820665 -0.238396 -0.313985 0.018280 -0.085804
    37 -0.049759 -1.602417 0.049696 -1.312011 0.004662 -0.036064
    38 -0.034142 -1.175657 0.045718 -1.263217 0.005489 -0.033341
    39 0.957766 -2.746780 -0.090302 0.167150 -0.150256 0.099289
    40 -0.033420 -1.393223 -0.019070 -0.517862 0.008329 -0.025205
    41 -0.022360 -0.957436 0.007065 -0.527930 0.007982 -0.025323
    42 -1.180681 -2.507217 -0.193859 -0.150629 0.142428 -0.022092
    43 -0.024967 -1.123934 0.017597 -0.759797 0.006951 -0.032333
    44 -0.020057 -0.906594 0.037435 -1.162008 0.002397 -0.047687
    45 0.603042 -1.197277 0.181473 0.666402 -0.922572 -1.051051
    46 1.504676 -0.177260 -0.006710 0.213418 0.065484 -0.624307
    47 1.049988 -0.147821 0.032291 0.039018 -0.188604 -0.767764
    48 0.120153 -0.050270 -0.054489 0.287569 3.110905 1.561085
    49 0.283936 -2.492895 -10.677390 -1.854700 -5.239641 -1.402970
    50 0.053974 -8.407448 0.002354 0.095977 -0.344805 0.432022
    51 0.447953 -2.798986 -0.200443 -0.244423 -0.056549 0.060325
    52 -0.032909 -1.499736 0.024472 -1.286538 0.022998 -0.023524
    53 -0.027022 -1.096452 -0.028023 -0.524788 0.013722 -0.005621
    54 -0.249534 -2.846964 -0.174213 -0.316339 -0.019324 0.076958
    55 0.043235 -1.656596 0.076480 -1.215719 -0.019648 0.004291
    56 0.031729 -1.149111 0.058838 -0.758918 -0.007903 0.005292
    57 -0.963866 -2.785145 -0.085350 -0.133536 0.264013 -0.032832
    58 0.028479 -1.403067 -0.009354 -0.611716 -0.012368 -0.024940
    59 0.021413 -0.942156 0.012233 -1.051190 -0.028955 -0.035163
    60 1.164475 -2.543940 -0.170330 -0.166618 -0.161408 -0.083733
    61 0.024032 -1.136855 -0.001725 -0.791002 0.004494 0.042151
    62 0.014898 -0.903521 -0.015942 -1.038460 0.010007 0.051857
    63 -0.586770 -1.264477 0.200161 -0.200107 -0.096960 -2.129319
    64 1.530648 0.054775 0.009035 0.154202 -0.079651 0.158040
    65 1.106228 0.052330 -0.001860 0.312988 -0.289446 0.975216
    66 -0.139399 -0.111698 0.014397 0.285382 -0.030687 1.580508
    67 -1.877860 8.909492 -0.309748 1.610346 -0.009098 -1.520335
  time 18
    0 6.459827 -12.536842 -4.337505 1.561609 0.002659 -0.002015
    1 -1.064977 0.427841 3.494147 -1.570789 1.456595 -2.443453
    2 0.631628 -0.525761 0.000000 -0.000001 0.000000 -1.216116
    3 -0.359356 -0.525757 0.000000 -0.000001 0.000000 -1.216146
    4 -1.349792 -0.525757 0.000000 -0.000001 0.000000 -1.216138
    5 0.000000 0.444557 -0.150236 -1.570796 3.141592 1.570796
    6 0.000000 0.444557 -1.633967 -1.570796 2.879793 1.570796
    7 1.065000 0.427841 3.494147 -1.570792 -1.684999 -0.698137
    8 -0.631627 0.525760 0.000000 0.000000 0.000000 -1.216121
    9 0.359358 0.525757 0.000000 0.000000 0.000000 -1.216121
    10 1.349793 0.525756 0.000000 0.000000 0.000000 -1.216121
    11 0.000000 2.775445 -3.287100 0.000000 -1.570796 0.000000
    12 4.055391 0.787430 -0.000001 0.000001 0.000000 -4.011944
    13 5.638199 0.787432 -0.000001 0.000001 0.000000 -4.011944
    14 7.208800 0.787434 -0.000002 0.000001 0.000000 -4.011944
    15 7.161302 -0.436564 0.542799 -3.141591 -1.570451 0.000000
    16 7.161302 -0.436564 -0.539481 -3.141592 1.570796 0.000000
    17 0.000000 1.803919 -3.985617 0.000000 -1.570796 0.000000
    18 4.656112 0.438828 0.399058 1.570796 0.000000 -1.570796
    19 0.000000 2.705573 -0.826574 -1.570796 0.698132 1.570796
    20 -0.624302 5.320284 0.532680 -1.570796 0.000000 0.000000
    21 0.000001 49.921204 -0.000001 1.570796 0.000000 0.000000
    22 -2.098057 0.171298 1.780126 -1.570796 0.000000 0.000000
    23 0.000002 49.921204 -0.000001 1.570796 0.000000 0.000000
    24 0.001787 1.627478 -66.965790 -1.570796 0.000000 0.000000
    25 11.764790 0.000004 5.034005 -0.000001 0.000001 1.570796
    26 -16.920902 -0.000004 5.034000 -0.000001 0.000001 1.570796
    27 -16.920902 -0.000004 -4.642414 -0.000001 0.000001 1.570796
    28 11.764790 0.000004 -4.642411 -0.000001 0.000001 1.570796
    29 0.356633 0.420623 -0.003287 0.000000 0.000000 0.000000
    30 8.825714 0.220086 -4.971790 6.068922 -1.972831 -0.004276
    31 2.151739 8.356322 -0.251372 1.545868 -3.136717 1.482755
    32 -0.032857 -8.498736 -0.084602 0.094550 0.479332 0.163700
    33 -0.488518 -2.755602 -0.228260 -0.242250 0.060691 -0.057732
    34 0.039887 -1.538386 0.018135 -1.634715 -0.010403 0.036650
    35 0.028786 -1.134327 -0.109049 -0.791875 -0.013746 0.015532
    36 0.250027 -2.820665 -0.238396 -0.313985 0.018280 -0.085804
    37 -0.049759 -1.602417 0.049696 -1.312011 0.004662 -0.036064
    38 -0.034142 -1.175657 0.045718 -1.263217 0.005489 -0.033341
    39 0.957766 -2.746780 -0.090302 0.167150 -0.150256 0.099289
    40 -0.033420 -1.393223 -0.019070 -0.517862 0.008329 -0.025205
    41 -0.022360 -0.957436 0.007065 -0.527930 0.007982 -0.025323
    42 -1.180681 -2.507217 -0.193859 -0.150629 0.142428 -0.022092
    43 -0.024967 -1.123934 0.017597 -0.759797 0.006951 -0.032333
    44 -0.020057 -0.906594 0.037435 -1.162008 0.002397 -0.047687
    45 0.603042 -1.197277 0.181473 0.666402 -0.922572 -1.051051
    46 1.504676 -0.177260 -0.006710 0.213418 0.065484 -0.624307
    47 1.049988 -0.147821 0.032291 0.039018 -0.188604 -0.767764
    48 0.120153 -0.050270 -0.054489 0.287569 3.110905 1.561085
    49 0.295655 -2.520240 -10.661765 -1.855585 -5.238230 -1.405242
    50 0.053974 -8.407448 0.002354 0.093102 -0.348198 0.435418
    51 0.447953 -2.798986 -0.200443 -0.244423 -0.056549 0.060325
    52 -0.032909 -1.499736 0.024472 -1.286538 0.022998 -0.023524
    53 -0.027022 -1.096452 -0.028023 -0.524788 0.013722 -0.005621
    54 -0.249534 -2.846964 -0.174213 -0.316339 -0.019324 0.076958
    55 0.043235 -1.656596 0.076480 -1.215719 -0.019648 0.004291
    56 0.031729 -1.149111 0.058838 -0.758918 -0.007903 0.005292
    57 -0.963866 -2.785145 -0.085350 -0.133536 0.264013 -0.032832
    58 0.028479 -1.403067 -0.009354 -0.611716 -0.012368 -0.024940
    59 0.021413 -0.942156 0.012233 -1.051190 -0.028955 -0.035163
    60 1.164475 -2.543940 -0.170330 -0.166618 -0.161408 -0.083733
    61 0.024032 -1.136855 -0.001725 -0.791002 0.004494 0.042151
    62 0.014898 -0.903521 -0.015942 -1.038460 0.010007 0.051857
    63 -0.586770 -1.264477 0.200161 -0.200107 -0.096960 -2.129319
    64 1.530648 0.054775 0.009035 0.154202 -0.079651 0.158040
    65 1.106228 0.052330 -0.001860 0.312988 -0.289446 0.975216
    66 -0.139399 -0.111698 0.014397 0.285382 -0.030687 1.580508
    67 -1.877860 8.909492 -0.309748 1.610346 -0.009098 -1.520335
  time 19
    0 6.463733 -12.595437 -4.353130 1.566793 0.001089 -0.000881
    1 -1.064977 0.427841 3.494147 -1.570789 1.456595 -2.443453
    2 0.631628 -0.525761 0.000000 -0.000001 0.000000 -1.216116
    3 -0.359356 -0.525757 0.000000 -0.000001 0.000000 -1.216146
    4 -1.349792 -0.525757 0.000000 -0.000001 0.000000 -1.216138
    5 0.000000 0.444557 -0.150236 -1.570796 3.141592 1.570796
    6 0.000000 0.444557 -1.633967 -1.570796 2.879793 1.570796
    7 1.065000 0.427841 3.494147 -1.570792 -1.684999 -0.698137
    8 -0.631627 0.525760 0.000000 0.000000 0.000000 -1.216121
    9 0.359358 0.525757 0.000000 0.000000 0.000000 -1.216121
    10 1.349793 0.525756 0.000000 0.000000 0.000000 -1.216121
    11 0.000000 2.775445 -3.287100 0.000000 -1.570796 0.000000
    12 4.055391 0.787430 -0.000001 0.000001 0.000000 -4.011944
    13 5.638199 0.787432 -0.000001 0.000001 0.000000 -4.011944
    14 7.208800 0.787434 -0.000002 0.000001 0.000000 -4.011944
    15 7.161302 -0.436564 0.542799 -3.141591 -1.570451 0.000000
    16 7.161302 -0.436564 -0.539481 -3.141592 1.570796 0.000000
    17 0.000000 1.803919 -3.985617 0.000000 -1.570796 0.000000
    18 4.656112 0.438828 0.399058 1.570796 0.000000 -1.570796
    19 0.000000 2.705573 -0.826574 -1.570796 0.698132 1.570796
    20 -0.624302 5.320284 0.532680 -1.570796 0.000000 0.000000
    21 0.000001 49.921204 -0.000001 1.570796 0.000000 0.000000
    22 -2.098057 0.171298 1.780126 -1.570796 0.000000 0.000000
    23 0.000002 49.921204 -0.000001 1.570796 0.000000 0.000000
    24 0.001787 1.627478 -66.965790 -1.570796 0.000000 0.000000
    25 11.764790 0.000004 5.034005 -0.000001 0.000001 1.570796
    26 -16.920902 -0.000004 5.034000 -0.000001 0.000001 1.570796
    27 -16.920902 -0.000004 -4.642414 -0.000001 0.000001 1.570796
    28 11.764790 0.000004 -4.642411 -0.000001 0.000001 1.570796
    29 0.356633 0.420623 -0.003287 0.000000 0.000000 0.000000
    30 8.825714 0.169303 -4.991321 6.078190 -1.973182 -0.012704
    31 2.151739 8.356322 -0.251372 1.545868 -3.136717 1.482755
    32 -0.032857 -8.498736 -0.084602 0.091914 0.480387 0.153919
    33 -0.488518 -2.755602 -0.228260 -0.242250 0.060691 -0.057732
    34 0.039887 -1.538386 0.018135 -1.634715 -0.010403 0.036650
    35 0.028786 -1.134327 -0.109049 -0.791875 -0.013746 0.015532
    36 0.250027 -2.820665 -0.238396 -0.313985 0.018280 -0.085804
    37 -0.049759 -1.602417 0.049696 -1.312011 0.004662 -0.036064
    38 -0.034142 -1.175657 0.045718 -1.263217 0.005489 -0.033341
    39 0.957766 -2.746780 -0.090302 0.167150 -0.150256 0.099289
    40 -0.033420 -1.393223 -0.019070 -0.517862 0.008329 -0.025205
    41 -0.022360 -0.957436 0.007065 -0.527930 0.007982 -0.025323
    42 -1.180681 -2.507217 -0.193859 -0.150629 0.142428 -0.022092
    43 -0.024967 -1.123934 0.017597 -0.759797 0.006951 -0.032333
    44 -0.020057 -0.906594 0.037435 -1.162008 0.002397 -0.047687
    45 0.603042 -1.197277 0.181473 0.666402 -0.922572 -1.051051
    46 1.504676 -0.177260 -0.006710 0.213418 0.065484 -0.624307
    47 1.049988 -0.147821 0.032291 0.039018 -0.188604 -0.767764
    48 0.120153 -0.050270 -0.054489 0.287569 3.110905 1.561085
    49 0.307374 -2.559303 -10.646139 -1.856825 -5.236237 -1.408366
    50 0.050068 -8.407448 0.002354 0.089808 -0.352039 0.438120
    51 0.447953 -2.798986 -0.200443 -0.244423 -0.056549 0.060325
    52 -0.032909 -1.499736 0.024472 -1.286538 0.022998 -0.023524
    53 -0.027022 -1.096452 -0.028023 -0.524788 0.013722 -0.005621
    54 -0.249534 -2.846964 -0.174213 -0.316339 -0.019324 0.076958
    55 0.043235 -1.656596 0.076480 -1.215719 -0.019648 0.004291
    56 0.031729 -1.149111 0.058838 -0.758918 -0.007903 0.005292
    57 -0.963866 -2.785145 -0.085350 -0.133536 0.264013 -0.032832
    58 0.028479 -1.403067 -0.009354 -0.611716 -0.012368 -0.024940
    59 0.021413 -0.942156 0.012233 -1.051190 -0.028955 -0.035163
    60 1.164475 -2.543940 -0.170330 -0.166618 -0.161408 -0.083733
    61 0.024032 -1.136855 -0.001725 -0.791002 0.004494 0.042151
    62 0.014898 -0.903521 -0.015942 -1.038460 0.010007 0.051857
    63 -0.586770 -1.264477 0.200161 -0.200107 -0.096960 -2.129319
    64 1.530648 0.054775 0.009035 0.154202 -0.079651 0.158040
    65 1.106228 0.052330 -0.001860 0.312988 -0.289446 0.975216
    66 -0.139399 -0.111698 0.014397 0.285382 -0.030687 1.580508
    67 -1.877860 8.909492 -0.309748 1.610346 -0.009098 -1.520335
  time 20
    0 6.467639 -12.638407 -4.360943 1.570796 0.000000 -0.000071
    1 -1.064977 0.427841 3.494147 -1.570789 1.456595 -2.443453
    2 0.631628 -0.525761 0.000000 -0.000001 0.000000 -1.216116
    3 -0.359356 -0.525757 0.000000 -0.000001 0.000000 -1.216146
    4 -1.349792 -0.525757 0.000000 -0.000001 0.000000 -1.216138
    5 0.000000 0.444557 -0.150236 -1.570796 3.141592 1.570796
    6 0.000000 0.444557 -1.633967 -1.570796 2.879793 1.570796
    7 1.065000 0.427841 3.494147 -1.570792 -1.684999 -0.698137
    8 -0.631627 0.525760 0.000000 0.000000 0.000000 -1.216121
    9 0.359358 0.525757 0.000000 0.000000 0.000000 -1.216121
    10 1.349793 0.525756 0.000000 0.000000 0.000000 -1.216121
    11 0.000000 2.775445 -3.287100 0.000000 -1.570796 0.000000
    12 4.055391 0.787430 -0.000001 0.000001 0.000000 -4.011944
    13 5.638199 0.787432 -0.000001 0.000001 0.000000 -4.011944
    14 7.208800 0.787434 -0.000002 0.000001 0.000000 -4.011944
    15 7.161302 -0.436564 0.542799 -3.141591 -1.570451 0.000000
    16 7.161302 -0.436564 -0.539481 -3.141592 1.570796 0.000000
    17 0.000000 1.803919 -3.985617 0.000000 -1.570796 0.000000
    18 4.656112 0.438828 0.399058 1.570796 0.000000 -1.570796
    19 0.000000 2.705573 -0.826574 -1.570796 0.698132 1.570796
    20 -0.624302 5.320284 0.532680 -1.570796 0.000000 0.000000
    21 0.000001 49.921204 -0.000001 1.570796 0.000000 0.000000
    22 -2.098057 0.171298 1.780126 -1.570796 0.000000 0.000000
    23 0.000002 49.921204 -0.000001 1.570796 0.000000 0.000000
    24 0.001787 1.627478 -66.965790 -1.570796 0.000000 0.000000
    25 11.764790 0.000004 5.034005 -0.000001 0.000001 1.570796
    26 -16.920902 -0.000004 5.034000 -0.000001 0.000001 1.570796
    27 -16.920902 -0.000004 -4.642414 -0.000001 0.000001 1.570796
    28 11.764790 0.000004 -4.642411 -0.000001 0.000001 1.570796
    29 0.356633 0.420623 -0.003287 0.000000 0.000000 0.000000
    30 8.825714 0.130239 -5.003041 6.084974 -1.973533 -0.018954
    31 2.151739 8.356322 -0.251372 1.545868 -3.136717 1.482755
    32 -0.032857 -8.494830 -0.084602 0.089895 0.481238 0.146456
    33 -0.488518 -2.755602 -0.228260 -0.242250 0.060691 -0.057732
    34 0.039887 -1.538386 0.018135 -1.634715 -0.010403 0.036650
    35 0.028786 -1.134327 -0.109049 -0.791875 -0.013746 0.015532
    36 0.250027 -2.820665 -0.238396 -0.313985 0.018280 -0.085804
    37 -0.049759 -1.602417 0.049696 -1.312011 0.004662 -0.036064
    38 -0.034142 -1.175657 0.045718 -1.263217 0.005489 -0.033341
    39 0.957766 -2.746780 -0.090302 0.167150 -0.150256 0.099289
    40 -0.033420 -1.393223 -0.019070 -0.517862 0.008329 -0.025205
    41 -0.022360 -0.957436 0.007065 -0.527930 0.007982 -0.025323
    42 -1.180681 -2.507217 -0.193859 -0.150629 0.142428 -0.022092
    43 -0.024967 -1.123934 0.017597 -0.759797 0.006951 -0.032333
    44 -0.020057 -0.906594 0.037435 -1.162008 0.002397 -0.047687
    45 0.603042 -1.197277 0.181473 0.666402 -0.922572 -1.051051
    46 1.504676 -0.177260 -0.006710 0.213418 0.065484 -0.624307
    47 1.049988 -0.147821 0.032291 0.039018 -0.188604 -0.767764
    48 0.120153 -0.050270 -0.054489 0.287569 3.110905 1.561085
    49 0.315187 -2.586648 -10.630514 -1.857769 -5.234742 -1.410544
    50 0.050068 -8.407448 0.002354 0.087353 -0.354933 0.440347
    51 0.447953 -2.798986 -0.200443 -0.244423 -0.056549 0.060325
    52 -0.032909 -1.499736 0.024472 -1.286538 0.022998 -0.023524
    53 -0.027022 -1.096452 -0.028023 -0.524788 0.013722 -0.005621
    54 -0.249534 -2.846964 -0.174213 -0.316339 -0.019324 0.076958
    55 0.043235 -1.656596 0.076480 -1.215719 -0.019648 0.004291
    56 0.031729 -1.149111 0.058838 -0.758918 -0.007903 0.005292
    57 -0.963866 -2.785145 -0.085350 -0.133536 0.264013 -0.032832
    58 0.028479 -1.403067 -0.009354 -0.611716 -0.012368 -0.024940
    59 0.021413 -0.942156 0.012233 -1.051190 -0.028955 -0.035163
    60 1.164475 -2.543940 -0.170330 -0.166618 -0.161408 -0.083733
    61 0.024032 -1.136855 -0.001725 -0.791002 0.004494 0.042151
    62 0.014898 -0.903521 -0.015942 -1.038460 0.010007 0.051857
    63 -0.586770 -1.264477 0.200161 -0.200107 -0.096960 -2.129319
    64 1.530648 0.054775 0.009035 0.154202 -0.079651 0.158040
    65 1.106228 0.052330 -0.001860 0.312988 -0.289446 0.975216
    66 -0.139399 -0.111698 0.014397 0.285382 -0.030687 1.580508
    67 -1.877860 8.909492 -0.309748 1.610346 -0.009098 -1.520335
end
