// Created by Crowbar 0.68

$modelname "weapons/tfa_cso/c_sapientia.mdl"

$include "csonline_gmod.qci"

$bodygroup "weapon"
{
	studio "v_sapientia"
}

$cdmaterials "models/weapons/tfa_cso/sapientia"

$attachment 0 "sapientia_root" 1.483 0 6 rotate -90 0 0
//$attachment 1 "sapientia_root" 1.455 -0.516 1.333

$definebone "sapientia_root" "" 0.000000 0.000000 0.000000 -89.999985 90.000038 0.000000 0.000000 0.000000 0.000000 -0.000000 0.000000 0.000000
$definebone "line" "sapientia_root" 0.315932 0.026510 1.555147 -0.000036 -90.000015 -90.000015 0.000000 0.000000 0.000000 -0.000000 -0.000000 -0.000000
$definebone "megazine" "line" 0.047959 1.681015 0.792227 -0.000000 -0.000000 -0.000000 0.000000 0.000000 0.000000 -0.000000 -0.000000 -0.000000
$definebone "reload" "sapientia_root" 1.060922 -0.000001 -0.686406 -0.000036 -90.000015 -90.000015 0.000000 0.000000 0.000000 -0.000000 -0.000000 -0.000000
$definebone "triger" "sapientia_root" 0.143420 0.000000 -0.076547 -0.000057 -89.999985 -90.000038 0.000000 0.000000 0.000000 -0.000000 0.000000 0.000000
$definebone "bullets01" "" -0.119176 5.767416 4.551773 0.000057 -89.999985 0.000000 0.000000 0.000000 0.000000 -0.000000 0.000000 0.000000
$definebone "bullets07" "" -0.420806 5.767416 4.324621 0.000057 -89.999985 0.000000 0.000000 0.000000 0.000000 -0.000000 0.000000 0.000000
$definebone "bullets06" "" -0.420806 5.767416 3.920113 0.000057 -89.999985 0.000000 0.000000 0.000000 0.000000 -0.000000 0.000000 0.000000
$definebone "bullets05" "" -0.119576 5.767416 3.686343 0.000057 -89.999985 0.000000 0.000000 0.000000 0.000000 -0.000000 0.000000 0.000000
$definebone "bullets04" "" 0.250292 5.767416 3.784597 0.000057 -89.999985 0.000000 0.000000 0.000000 0.000000 -0.000000 0.000000 0.000000
$definebone "bullets03" "" 0.418595 5.767416 4.120586 0.000057 -89.999985 0.000000 0.000000 0.000000 0.000000 -0.000000 0.000000 0.000000
$definebone "bullets02" "" 0.250666 5.767416 4.463231 0.000057 -89.999985 0.000000 0.000000 0.000000 0.000000 -0.000000 0.000000 0.000000
$definebone "megazine02" "" 0.021449 6.085512 1.108160 -0.000057 89.999985 179.999969 0.000000 0.000000 0.000000 0.000000 0.000000 0.000000
$definebone "bullets" "megazine02" 0.001289 0.000000 0.000000 -0.000000 89.999985 179.999969 0.000000 0.000000 0.000000 -0.000000 0.000000 0.000000

$sequence "idle1" {
	"v_sapientia_anims\idle1"
	fps 30
	activity "ACT_VM_IDLE" 1
	loop
	snap
}
$sequence "shoot1" {
	"v_sapientia_anims\shoot1"
	{ event 5001 0 "21" }
	fps 30
	activity "ACT_VM_PRIMARYATTACK" 1
	snap
}
$sequence "shoot2" {
	"v_sapientia_anims\shoot2"
	{ event 5001 0 "21" }
	fps 30
	activity "ACT_VM_PRIMARYATTACK" 1
	snap
}
$sequence "shoot_empty" {
	"v_sapientia_anims\shoot_empty"
	fps 30
}
$sequence "reload" {
	"v_sapientia_anims\reload"
	{ event 5004 6 "Sapientia.ClipOut" }
	{ event 5004 28 "Sapientia.ClipIn" }
	fps 30
	activity "ACT_VM_RELOAD" 1
	snap
}
$sequence "draw" {
	"v_sapientia_anims\draw"
	{ event 5004 8 "Sapientia.Draw" }
	fps 30
	activity "ACT_VM_DRAW" 1
	snap
}
