version 1
nodes
  0 "root_leapstrikegun" -1
  1 "leapstrikegun_triger" 0
  2 "leapstrikegun_megazine" 0
  3 "v_muzzle" -1
  4 "root" -1
  5 "Bone01" 4
  6 "Bone_L_Upper" 5
  7 "Bone_Lefthand" 5
  8 "Bone13" 7
  9 "Bone14" 8
  10 "Bone15" 9
  11 "Bone17" 7
  12 "Bone18" 11
  13 "Bone19" 12
  14 "Bone21" 7
  15 "Bone22" 14
  16 "Bone23" 15
  17 "Bone09" 7
  18 "Bone10" 17
  19 "Bone11" 18
  20 "Bone05" 7
  21 "Bone06" 20
  22 "Bone07" 21
  23 "Bone_Se_Hand-L" 7
  24 "Bone04" 4
  25 "Bone_Righthand" 24
  26 "Bone39" 25
  27 "Bone40" 26
  28 "Bone41" 27
  29 "Bone35" 25
  30 "Bone36" 29
  31 "Bone37" 30
  32 "Bone31" 25
  33 "Bone32" 32
  34 "Bone33" 33
  35 "Bone43" 25
  36 "Bone44" 35
  37 "Bone45" 36
  38 "Bone27" 25
  39 "Bone28" 38
  40 "Bone29" 39
  41 "Bone_Se_Hand-R" 25
  42 "Bone_R_Upper" 24
end
skeleton
  time 0
    0 4.894681 -7.449446 -16.906766 0.135656 -2.089555 1.456394
    1 2.402625 -0.000001 -1.436759 1.570796 0.285022 3.141592
    2 3.404631 1.320370 5.094492 0.000008 0.000011 1.253012
    3 -48.614594 -2.156932 -0.465896 0.310757 1.066653 -4.530667
    4 -0.002752 5.280146 -5.886279 0.000000 0.000000 0.278312
    5 6.696742 -2.154987 -5.827284 5.208207 -1.825987 0.646181
    6 7.628468 3.399140 -0.329500 1.566067 -3.122804 0.501456
    7 -0.099266 -8.440141 -0.143198 -0.006626 0.065849 -0.153092
    8 -0.488518 -2.755602 -0.228260 -1.457408 0.104759 -0.238184
    9 0.039887 -1.511041 0.010322 -1.048267 -0.013782 0.021513
    10 0.028786 -1.157765 -0.120768 -0.990763 -0.014957 0.020721
    11 0.250027 -2.820665 -0.238396 -1.168725 0.085537 -0.258430
    12 -0.049759 -1.598510 0.049696 -1.331547 0.004362 -0.036555
    13 -0.034142 -1.156125 0.061344 -0.679287 0.008126 -0.016599
    14 0.957766 -2.746780 -0.090302 0.028344 0.062434 -0.143124
    15 -0.033420 -1.397129 -0.034695 -1.244450 -0.002601 -0.059409
    16 -0.022360 -0.957436 -0.000748 -0.722290 0.007418 -0.035103
    17 -1.180681 -2.507217 -0.193859 -1.252043 0.293314 -0.285646
    18 -0.024967 -1.123934 0.017597 -0.819857 0.006436 -0.035030
    19 -0.020057 -0.906594 0.033528 -1.086330 0.003931 -0.044607
    20 0.603042 -1.205090 0.189285 0.109296 -0.907913 -0.382291
    21 1.469519 -0.228043 0.059698 0.236800 -0.154122 -0.818621
    22 1.003112 -0.182979 0.044010 0.092266 -0.246466 -1.058321
    23 0.120153 -0.050270 -0.054489 0.339271 3.123980 1.491167
    24 -3.110699 -1.016287 -9.017183 0.541133 -4.994666 1.060373
    25 -0.246816 -8.411355 -0.040616 0.469437 -1.899889 -0.559538
    26 0.447953 -2.798986 -0.200443 -0.311821 0.049958 0.096459
    27 -0.032909 -1.499736 0.016659 -1.030459 0.020949 -0.016537
    28 -0.027022 -1.084733 -0.024116 -0.250539 0.006951 -0.001786
    29 -0.249534 -2.846964 -0.174213 -0.032941 0.125342 0.030590
    30 0.043235 -1.656596 0.072574 -1.247726 -0.020080 0.004759
    31 0.031729 -1.160830 0.058838 -0.228217 -0.001335 0.006982
    32 -0.963866 -2.785145 -0.085350 -0.079039 0.297402 -0.009606
    33 0.028479 -1.403067 -0.017167 -0.886235 -0.022148 -0.032538
    34 0.021413 -0.953875 0.020046 -0.231814 -0.002924 -0.010223
    35 1.164475 -2.543940 -0.170330 -0.350293 -0.013773 0.057711
    36 0.024032 -1.132948 0.002182 -0.689691 0.002061 0.036997
    37 0.014898 -0.891802 -0.019848 -0.535411 -0.001606 0.026390
    38 -0.586770 -1.264477 0.200161 0.134574 -0.602308 -2.585623
    39 1.546273 0.039149 0.016848 -0.010047 -0.003611 0.561285
    40 1.114041 0.048424 -0.005766 -0.015032 -0.033791 0.604336
    41 -0.139399 -0.111698 0.014397 1.285356 -0.030523 1.265604
    42 -8.061642 2.428825 -0.454283 1.571192 -0.033474 -0.374196
  time 1
    0 4.875149 -8.754173 -15.785638 3.150005 -1.177141 -1.543837
    1 2.402625 -0.000001 -1.436759 1.570796 0.285022 3.141592
    2 3.404631 1.320370 5.094492 0.000008 0.000011 1.253012
    3 -48.614594 -2.156932 -0.465896 0.310757 1.066653 -4.530667
    4 -0.002752 5.280146 -5.886279 0.000000 0.000000 0.278312
    5 6.540488 -2.920635 -5.964007 5.415327 -1.766042 0.444165
    6 7.620655 3.426484 -0.329500 1.566067 -3.122900 0.504637
    7 -0.095359 -8.451860 -0.131479 0.010884 0.120495 -0.099896
    8 -0.488518 -2.755602 -0.228260 -1.457408 0.104759 -0.238184
    9 0.039887 -1.511041 0.010322 -1.049009 -0.013782 0.021537
    10 0.028786 -1.157765 -0.120768 -0.991510 -0.014957 0.020733
    11 0.250027 -2.820665 -0.238396 -1.168725 0.085537 -0.258430
    12 -0.049759 -1.598510 0.049696 -1.332261 0.004350 -0.036567
    13 -0.034142 -1.156125 0.061344 -0.680039 0.008126 -0.016623
    14 0.957766 -2.746780 -0.090302 0.028344 0.062434 -0.143124
    15 -0.033420 -1.397129 -0.034695 -1.244450 -0.002601 -0.059409
    16 -0.022360 -0.957436 -0.000748 -0.722290 0.007418 -0.035103
    17 -1.180681 -2.507217 -0.193859 -1.252043 0.293314 -0.285646
    18 -0.024967 -1.123934 0.017597 -0.820609 0.006436 -0.035054
    19 -0.020057 -0.906594 0.033528 -1.087099 0.003919 -0.044631
    20 0.603042 -1.205090 0.189285 0.109296 -0.907913 -0.382291
    21 1.469519 -0.228043 0.059698 0.236800 -0.154122 -0.818621
    22 1.003112 -0.182979 0.044010 0.092266 -0.246466 -1.058321
    23 0.120153 -0.050270 -0.054489 0.339271 3.123980 1.491167
    24 -2.845066 -1.508490 -8.907805 0.235164 -4.970036 0.718626
    25 -0.242910 -8.481669 -0.009365 0.138172 -1.734018 0.052678
    26 0.447953 -2.798986 -0.200443 -0.277326 0.049096 0.096902
    27 -0.032909 -1.495829 0.016659 -0.891363 0.019103 -0.013037
    28 -0.027022 -1.080826 -0.024116 -0.155259 0.004386 -0.000899
    29 -0.249534 -2.846964 -0.174213 0.007112 0.126061 0.030794
    30 0.043235 -1.656596 0.080387 -1.101249 -0.018006 0.002733
    31 0.031729 -1.160830 0.058838 -0.081729 0.000235 0.008036
    32 -0.963866 -2.785145 -0.085350 -0.010088 0.292009 -0.048316
    33 0.028479 -1.403067 -0.013261 -0.707646 -0.015544 -0.027900
    34 0.021413 -0.957781 0.020046 -0.053164 -0.000479 -0.002529
    35 1.164475 -2.543940 -0.170330 -0.314164 -0.013881 0.055691
    36 0.024032 -1.132948 0.002182 -0.689691 0.002061 0.036997
    37 0.014898 -0.891802 -0.019848 -0.460930 -0.002181 0.022243
    38 -0.586770 -1.264477 0.200161 0.146598 -0.551580 -2.608753
    39 1.538460 0.043056 0.016848 -0.005829 -0.000603 0.378852
    40 1.117947 0.048424 -0.005766 -0.009531 -0.031790 0.421753
    41 -0.139399 -0.111698 0.014397 1.033554 -0.020059 1.348267
    42 -8.057736 2.440544 -0.454283 1.571228 -0.033450 -0.375980
  time 2
    0 4.832179 -11.129246 -12.773827 2.289993 -1.391817 -0.670335
    1 2.402625 -0.000001 -1.436759 1.570796 0.285022 3.141592
    2 3.404631 1.320370 5.094492 0.000008 0.000011 1.253012
    3 -48.614594 -2.156932 -0.465896 0.310757 1.066653 -4.530667
    4 -0.002752 5.280146 -5.886279 0.000000 0.000000 0.278312
    5 6.075630 -4.537872 -6.042135 0.214566 -1.711437 -0.624068
    6 7.605030 3.473361 -0.329500 1.565972 -3.122996 0.510998
    7 -0.083640 -8.479205 -0.111947 0.054879 0.219568 0.018789
    8 -0.488518 -2.755602 -0.228260 -1.457408 0.104759 -0.238184
    9 0.039887 -1.511041 0.010322 -1.049750 -0.013782 0.021549
    10 0.028786 -1.157765 -0.120768 -0.992257 -0.014957 0.020757
    11 0.250027 -2.820665 -0.238396 -1.168725 0.085537 -0.258430
    12 -0.049759 -1.598510 0.049696 -1.333021 0.004338 -0.036591
    13 -0.034142 -1.156125 0.061344 -0.680771 0.008138 -0.016647
    14 0.957766 -2.746780 -0.090302 0.028344 0.062434 -0.143124
    15 -0.033420 -1.397129 -0.034695 -1.244450 -0.002601 -0.059409
    16 -0.022360 -0.957436 -0.000748 -0.722290 0.007418 -0.035103
    17 -1.180681 -2.507217 -0.193859 -1.252043 0.293314 -0.285646
    18 -0.024967 -1.123934 0.017597 -0.821362 0.006424 -0.035090
    19 -0.020057 -0.906594 0.033528 -1.087836 0.003907 -0.044667
    20 0.603042 -1.205090 0.189285 0.109296 -0.907913 -0.382291
    21 1.469519 -0.228043 0.059698 0.236800 -0.154122 -0.818621
    22 1.003112 -0.182979 0.044010 0.092266 -0.246466 -1.058321
    23 0.120153 -0.050270 -0.054489 0.339271 3.123980 1.491167
    24 -2.434897 -3.145259 -8.439041 -0.328493 -4.967860 0.066166
    25 -0.180408 -8.528546 0.029699 0.947745 -1.409163 -0.525410
    26 0.447953 -2.798986 -0.200443 -0.242845 0.048197 0.097322
    27 -0.032909 -1.495829 0.012753 -0.752267 0.016790 -0.009825
    28 -0.027022 -1.076920 -0.020210 -0.060019 0.001738 -0.000276
    29 -0.249534 -2.846964 -0.174213 0.047152 0.126768 0.031033
    30 0.043235 -1.660503 0.084293 -0.954732 -0.015657 0.001043
    31 0.031729 -1.160830 0.058838 0.064723 0.001625 0.009295
    32 -0.963866 -2.785145 -0.085350 0.058952 0.289193 -0.087278
    33 0.028479 -1.403067 -0.009354 -0.529057 -0.009863 -0.022160
    34 0.021413 -0.957781 0.020046 0.125502 0.000551 0.005465
    35 1.164475 -2.543940 -0.170330 -0.278035 -0.013917 0.053658
    36 0.024032 -1.132948 0.002182 -0.689691 0.002061 0.036997
    37 0.014898 -0.887895 -0.019848 -0.386449 -0.002457 0.018061
    38 -0.586770 -1.264477 0.200161 0.156922 -0.500641 -2.630505
    39 1.530648 0.050868 0.016848 -0.002221 0.003125 0.196440
    40 1.117947 0.048424 -0.005766 -0.004474 -0.028829 0.239207
    41 -0.139399 -0.111698 0.014397 0.781783 -0.009596 1.430931
    42 -7.756945 3.506983 -0.438658 1.573937 -0.031089 -0.510315
  time 3
    0 4.879055 -12.480850 -9.035432 0.914108 -1.237435 0.700863
    1 2.402625 -0.000001 -1.436759 1.570796 0.285022 3.141592
    2 3.404631 1.320370 5.094492 0.000008 0.000011 1.253012
    3 -48.614594 -2.156932 -0.465896 0.310757 1.066653 -4.530667
    4 -0.002752 5.280146 -5.886279 0.000000 0.000000 0.278312
    5 5.559989 -5.920727 -5.924944 1.010596 -1.847506 -1.401235
    6 7.690970 3.219447 -0.333406 1.566259 -3.122325 0.478071
    7 -0.071921 -8.502643 -0.104134 0.112837 0.294504 0.161815
    8 -0.488518 -2.755602 -0.228260 -1.457408 0.104759 -0.238184
    9 0.039887 -1.511041 0.010322 -1.048267 -0.013782 0.021513
    10 0.028786 -1.157765 -0.120768 -0.990763 -0.014957 0.020721
    11 0.250027 -2.820665 -0.238396 -1.168725 0.085537 -0.258430
    12 -0.049759 -1.598510 0.049696 -1.331547 0.004362 -0.036555
    13 -0.034142 -1.156125 0.061344 -0.679287 0.008126 -0.016599
    14 0.957766 -2.746780 -0.090302 0.028344 0.062434 -0.143124
    15 -0.033420 -1.397129 -0.034695 -1.244450 -0.002601 -0.059409
    16 -0.022360 -0.957436 -0.000748 -0.722290 0.007418 -0.035103
    17 -1.180681 -2.507217 -0.193859 -1.252043 0.293314 -0.285646
    18 -0.024967 -1.123934 0.017597 -0.819857 0.006436 -0.035030
    19 -0.020057 -0.906594 0.033528 -1.086330 0.003931 -0.044607
    20 0.603042 -1.205090 0.189285 0.109296 -0.907913 -0.382291
    21 1.469519 -0.228043 0.059698 0.236800 -0.154122 -0.818621
    22 1.003112 -0.182979 0.044010 0.092266 -0.246466 -1.058321
    23 0.120153 -0.050270 -0.054489 0.339271 3.123980 1.491167
    24 -2.192703 -4.754683 -7.442917 -0.657677 -5.030640 -0.319123
    25 -0.102281 -8.544171 0.053137 0.697739 -1.098136 -0.241130
    26 0.447953 -2.798986 -0.200443 -0.216790 0.047526 0.097621
    27 -0.032909 -1.491923 0.008846 -0.647234 0.014765 -0.007620
    28 -0.027022 -1.076920 -0.020210 0.011878 -0.000276 0.000024
    29 -0.249534 -2.846964 -0.174213 0.077401 0.127295 0.031225
    30 0.043235 -1.660503 0.084293 -0.844121 -0.013740 0.000001
    31 0.031729 -1.164736 0.058838 0.175329 0.002548 0.010385
    32 -0.963866 -2.785145 -0.085350 0.111097 0.288761 -0.116772
    33 0.028479 -1.403067 -0.005448 -0.394198 -0.006304 -0.017210
    34 0.021413 -0.961687 0.020046 0.260412 0.000384 0.011565
    35 1.164475 -2.543940 -0.170330 -0.250773 -0.013881 0.052126
    36 0.024032 -1.132948 0.002182 -0.689691 0.002061 0.036997
    37 0.014898 -0.887895 -0.019848 -0.330239 -0.002457 0.014897
    38 -0.586770 -1.264477 0.200161 0.166089 -0.477089 -2.649405
    39 1.522835 0.054775 0.016848 0.000008 0.006336 0.058710
    40 1.117947 0.048424 -0.005766 -0.001058 -0.026001 0.101374
    41 -0.139399 -0.111698 0.014397 0.529981 0.000867 1.513576
    42 -7.045986 4.999216 -0.411313 1.577328 -0.026931 -0.711275
  time 4
    0 5.343913 -11.598010 -3.996216 0.449066 -0.798890 1.154201
    1 2.402625 -0.000001 -1.436759 1.570796 0.285022 3.141592
    2 3.404631 1.320370 5.094492 0.000008 0.000011 1.253012
    3 -48.614594 -2.156932 -0.465896 0.310757 1.066653 -4.530667
    4 -0.002752 5.280146 -5.886279 0.000000 0.000000 0.278312
    5 5.239667 -6.846536 -5.702281 4.419863 -1.019445 1.509816
    6 7.999573 1.875656 -0.356844 1.567697 -3.118969 0.308296
    7 -0.068015 -8.541706 -0.104134 0.182503 0.287348 0.374372
    8 -0.488518 -2.755602 -0.228260 -1.457408 0.104759 -0.238184
    9 0.039887 -1.511041 0.010322 -1.028850 -0.013746 0.020998
    10 0.028786 -1.153858 -0.120768 -0.978126 -0.014909 0.020386
    11 0.250027 -2.820665 -0.238396 -1.168725 0.085537 -0.258430
    12 -0.049759 -1.602417 0.049696 -1.312124 0.004662 -0.036064
    13 -0.034142 -1.156125 0.061344 -0.666660 0.008078 -0.016239
    14 0.957766 -2.746780 -0.090302 0.028344 0.062434 -0.143124
    15 -0.033420 -1.397129 -0.034695 -1.244450 -0.002601 -0.059409
    16 -0.022360 -0.957436 -0.000748 -0.722290 0.007418 -0.035103
    17 -1.180681 -2.507217 -0.193859 -1.252043 0.293314 -0.285646
    18 -0.024967 -1.123934 0.017597 -0.800454 0.006627 -0.034155
    19 -0.020057 -0.906594 0.033528 -1.111077 0.003452 -0.045625
    20 0.603042 -1.205090 0.189285 0.109296 -0.907913 -0.382291
    21 1.469519 -0.228043 0.059698 0.236800 -0.154122 -0.818621
    22 1.003112 -0.182979 0.044010 0.092266 -0.246466 -1.058321
    23 0.120153 -0.050270 -0.054489 0.339271 3.123980 1.491167
    24 -2.036448 -6.035972 -5.806148 -0.906035 -5.137784 -0.567006
    25 -0.024153 -8.516827 0.057043 0.404104 -0.805877 -0.160691
    26 0.447953 -2.798986 -0.200443 -0.203654 0.047178 0.097765
    27 -0.032909 -1.491923 0.008846 -0.594203 0.013650 -0.006602
    28 -0.027022 -1.076920 -0.020210 0.048212 -0.001306 0.000132
    29 -0.249534 -2.846964 -0.174213 0.092682 0.127571 0.031333
    30 0.043235 -1.664409 0.088199 -0.788266 -0.012721 -0.000443
    31 0.031729 -1.164736 0.058838 0.231166 0.002967 0.010973
    32 -0.963866 -2.785145 -0.085350 0.137427 0.289109 -0.131657
    33 0.028479 -1.403067 -0.001542 -0.326077 -0.004770 -0.014537
    34 0.021413 -0.961687 0.020046 0.328530 -0.000012 0.014621
    35 1.164475 -2.543940 -0.170330 -0.236990 -0.013857 0.051354
    36 0.024032 -1.132948 0.002182 -0.689691 0.002061 0.036997
    37 0.014898 -0.887895 -0.019848 -0.301841 -0.002385 0.013303
    38 -0.586770 -1.264477 0.200161 0.183066 -0.536352 -2.675303
    39 1.522835 0.058681 0.016848 0.000967 0.008074 -0.010849
    40 1.117947 0.048424 -0.005766 0.000488 -0.024419 0.031824
    41 -0.139399 -0.111698 0.014397 0.278241 0.011331 1.596222
    42 -5.960016 6.413322 -0.372250 1.579989 -0.021789 -0.928135
  time 5
    0 5.550951 -9.730766 -1.179724 0.336874 -0.479568 1.236035
    1 2.402625 -0.000001 -1.436759 1.570796 0.285022 3.141592
    2 3.404631 1.320370 5.094492 0.000008 0.000011 1.253012
    3 -48.614594 -2.156932 -0.465896 0.310757 1.066653 -4.530667
    4 -0.002752 5.280146 -5.886279 0.000000 0.000000 0.278312
    5 5.083412 -7.248892 -5.561651 4.486467 -0.820923 1.464668
    6 8.081607 0.731090 -0.376376 1.569326 -3.116477 0.167799
    7 -0.056296 -8.569051 -0.104134 0.222268 0.279165 0.510935
    8 -0.488518 -2.755602 -0.228260 -1.457408 0.104759 -0.238184
    9 0.039887 -1.511041 0.010322 -1.031479 -0.013746 0.021070
    10 0.028786 -1.153858 -0.120768 -0.973986 -0.014897 0.020278
    11 0.250027 -2.820665 -0.238396 -1.168725 0.085537 -0.258430
    12 -0.049759 -1.602417 0.049696 -1.314759 0.004626 -0.036136
    13 -0.034142 -1.156125 0.061344 -0.662512 0.008054 -0.016119
    14 0.957766 -2.746780 -0.090302 0.028344 0.062434 -0.143124
    15 -0.033420 -1.397129 -0.034695 -1.244450 -0.002601 -0.059409
    16 -0.022360 -0.957436 -0.000748 -0.722290 0.007418 -0.035103
    17 -1.180681 -2.507217 -0.193859 -1.252043 0.293314 -0.285646
    18 -0.024967 -1.123934 0.017597 -0.803075 0.006604 -0.034275
    19 -0.020057 -0.906594 0.033528 -1.069564 0.004243 -0.043900
    20 0.603042 -1.205090 0.189285 0.109296 -0.907913 -0.382291
    21 1.469519 -0.228043 0.059698 0.236800 -0.154122 -0.818621
    22 1.003112 -0.182979 0.044010 0.092266 -0.246466 -1.058321
    23 0.120153 -0.050270 -0.054489 0.339271 3.123980 1.491167
    24 -1.985665 -6.364107 -4.884245 -1.076113 -5.257515 -0.723795
    25 0.022723 -8.466044 0.037511 0.077622 -0.640269 -0.036019
    26 0.447953 -2.798986 -0.200443 -0.216790 0.047526 0.097621
    27 -0.032909 -1.491923 0.008846 -0.647234 0.014765 -0.007620
    28 -0.027022 -1.076920 -0.020210 0.011878 -0.000276 0.000024
    29 -0.249534 -2.846964 -0.174213 0.077401 0.127295 0.031225
    30 0.043235 -1.660503 0.084293 -0.844121 -0.013740 0.000001
    31 0.031729 -1.164736 0.058838 0.175329 0.002548 0.010385
    32 -0.963866 -2.785145 -0.085350 0.111097 0.288761 -0.116772
    33 0.028479 -1.403067 -0.005448 -0.394198 -0.006304 -0.017210
    34 0.021413 -0.961687 0.020046 0.260412 0.000384 0.011565
    35 1.164475 -2.543940 -0.170330 -0.250773 -0.013881 0.052126
    36 0.024032 -1.132948 0.002182 -0.689691 0.002061 0.036997
    37 0.014898 -0.887895 -0.019848 -0.330239 -0.002457 0.014897
    38 -0.586770 -1.264477 0.200161 0.188364 -0.599500 -2.678527
    39 1.522835 0.054775 0.016848 0.000008 0.006336 0.058710
    40 1.117947 0.048424 -0.005766 -0.001058 -0.026001 0.101374
    41 -0.139399 -0.111698 0.014397 0.381299 -0.059380 1.512355
    42 -5.858450 6.518794 -0.368343 1.580157 -0.021346 -0.945896
  time 6
    0 5.304849 -9.797174 -1.277383 0.364922 -0.497044 1.166151
    1 2.402625 -0.000001 -1.436759 1.570796 0.285022 3.141592
    2 3.404631 1.320370 5.094492 0.000008 0.000011 1.253012
    3 -48.614594 -2.156932 -0.465896 0.310757 1.066653 -4.530667
    4 -0.002752 5.280146 -5.886279 0.000000 0.000000 0.278312
    5 5.036536 -7.241079 -5.585090 4.482482 -0.821732 1.455390
    6 8.081607 0.719370 -0.376376 1.569326 -3.116477 0.166022
    7 -0.048483 -8.561238 -0.100228 0.225228 0.330523 0.494979
    8 -0.488518 -2.755602 -0.228260 -1.457360 0.104759 -0.238184
    9 0.039887 -1.514947 0.010322 -1.072909 -0.013830 0.022172
    10 0.028786 -1.157765 -0.120768 -0.988086 -0.014945 0.020649
    11 0.250027 -2.820665 -0.238396 -1.168725 0.085537 -0.258430
    12 -0.049759 -1.598510 0.045790 -1.356194 0.003979 -0.037166
    13 -0.034142 -1.156125 0.061344 -0.676603 0.008114 -0.016527
    14 0.957766 -2.746780 -0.090302 0.028344 0.062434 -0.143124
    15 -0.033420 -1.397129 -0.034695 -1.244450 -0.002601 -0.059409
    16 -0.022360 -0.957436 -0.000748 -0.722290 0.007418 -0.035103
    17 -1.180681 -2.507217 -0.193859 -1.252043 0.293314 -0.285646
    18 -0.024967 -1.123934 0.017597 -0.844500 0.006184 -0.036121
    19 -0.020057 -0.906594 0.029622 -0.932782 0.006328 -0.038015
    20 0.603042 -1.205090 0.189285 0.109296 -0.907913 -0.382291
    21 1.469519 -0.228043 0.059698 0.236800 -0.154122 -0.818621
    22 1.003112 -0.182979 0.044010 0.092266 -0.246466 -1.058321
    23 0.120153 -0.050270 -0.054489 0.339271 3.123980 1.491167
    24 -2.106762 -6.289886 -5.118627 -1.126834 -5.315477 -0.808206
    25 0.018817 -8.407448 0.017980 -0.220751 -0.614665 0.201141
    26 0.447953 -2.798986 -0.200443 -0.256083 0.048544 0.097166
    27 -0.032909 -1.495829 0.012753 -0.805693 0.017725 -0.011012
    28 -0.027022 -1.076920 -0.020210 -0.096597 0.002768 -0.000479
    29 -0.249534 -2.846964 -0.174213 0.031788 0.126504 0.030937
    30 0.043235 -1.660503 0.080387 -1.010994 -0.016592 0.001655
    31 0.031729 -1.160830 0.058838 0.008458 0.001109 0.008779
    32 -0.963866 -2.785145 -0.085350 0.032425 0.289972 -0.072297
    33 0.028479 -1.403067 -0.009354 -0.597628 -0.011925 -0.024485
    34 0.021413 -0.957781 0.020046 0.056884 0.000312 0.002373
    35 1.164475 -2.543940 -0.170330 -0.291919 -0.013905 0.054431
    36 0.024032 -1.132948 0.002182 -0.689691 0.002061 0.036997
    37 0.014898 -0.891802 -0.019848 -0.415071 -0.002385 0.019667
    38 -0.586770 -1.264477 0.200161 0.166631 -0.603695 -2.640752
    39 1.534554 0.046962 0.016848 -0.003528 0.001614 0.266474
    40 1.117947 0.048424 -0.005766 -0.006343 -0.030076 0.309300
    41 -0.139399 -0.111698 0.014397 0.484388 -0.130108 1.428452
    42 -6.506907 5.776584 -0.391781 1.578874 -0.024282 -0.826220
  time 7
    0 5.047029 -9.984680 -1.527390 0.400916 -0.531953 1.093590
    1 2.402625 -0.000001 -1.436759 1.570796 0.285022 3.141592
    2 3.404631 1.320370 5.094492 0.000008 0.000011 1.253012
    3 -48.614594 -2.156932 -0.465896 0.310757 1.066653 -4.530667
    4 -0.002752 5.280146 -5.886279 0.000000 0.000000 0.278312
    5 5.005285 -7.202016 -5.612434 4.475367 -0.834838 1.448312
    6 8.081607 0.766247 -0.376376 1.569230 -3.116573 0.172102
    7 -0.040670 -8.553426 -0.092415 0.224090 0.380219 0.470622
    8 -0.488518 -2.755602 -0.228260 -1.457408 0.104759 -0.238184
    9 0.039887 -1.514947 0.010322 -1.112721 -0.013854 0.023239
    10 0.028786 -1.157765 -0.124675 -1.001907 -0.014993 0.021021
    11 0.250027 -2.820665 -0.238396 -1.168725 0.085537 -0.258430
    12 -0.049759 -1.598510 0.045790 -1.395977 0.003320 -0.038125
    13 -0.034142 -1.156125 0.061344 -0.690429 0.008173 -0.016934
    14 0.957766 -2.746780 -0.090302 0.028344 0.062434 -0.143124
    15 -0.033420 -1.397129 -0.034695 -1.244450 -0.002601 -0.059409
    16 -0.022360 -0.957436 -0.000748 -0.722290 0.007418 -0.035103
    17 -1.180681 -2.507217 -0.193859 -1.252043 0.293314 -0.285646
    18 -0.024967 -1.127840 0.017597 -0.884280 0.005705 -0.037870
    19 -0.020057 -0.902687 0.025715 -0.803276 0.007526 -0.032239
    20 0.603042 -1.205090 0.189285 0.109296 -0.907913 -0.382291
    21 1.469519 -0.228043 0.059698 0.236800 -0.154122 -0.818621
    22 1.003112 -0.182979 0.044010 0.092266 -0.246466 -1.058321
    23 0.120153 -0.050270 -0.054489 0.339271 3.123980 1.491167
    24 -2.231766 -6.305511 -5.169410 -1.154871 -5.348654 -0.862824
    25 0.011004 -8.360572 -0.009365 -0.484337 -0.571239 0.397822
    26 0.447953 -2.798986 -0.200443 -0.294090 0.049515 0.096687
    27 -0.032909 -1.495829 0.016659 -0.958935 0.020062 -0.014703
    28 -0.027022 -1.080826 -0.024116 -0.201539 0.005645 -0.001306
    29 -0.249534 -2.846964 -0.174213 -0.012351 0.125713 0.030698
    30 0.043235 -1.656596 0.076480 -1.172411 -0.019049 0.003680
    31 0.031729 -1.160830 0.058838 -0.152924 -0.000509 0.007497
    32 -0.963866 -2.785145 -0.085350 -0.043593 0.294310 -0.029464
    33 0.028479 -1.403067 -0.017167 -0.794415 -0.018648 -0.030297
    34 0.021413 -0.957781 0.020046 -0.139972 -0.001498 -0.006316
    35 1.164475 -2.543940 -0.170330 -0.331713 -0.013833 0.056667
    36 0.024032 -1.132948 0.002182 -0.689691 0.002061 0.036997
    37 0.014898 -0.891802 -0.019848 -0.497113 -0.001942 0.024257
    38 -0.586770 -1.264477 0.200161 0.144826 -0.603369 -2.603240
    39 1.542367 0.043056 0.016848 -0.007806 -0.002161 0.467492
    40 1.114041 0.048424 -0.005766 -0.012156 -0.032880 0.510456
    41 -0.139399 -0.111698 0.014397 0.587507 -0.200837 1.344568
    42 -6.760821 5.432823 -0.399594 1.578215 -0.025505 -0.774409
  time 8
    0 4.836085 -10.137028 -1.742241 0.432697 -0.560237 1.034509
    1 2.402625 -0.000001 -1.436759 1.570796 0.285022 3.141592
    2 3.404631 1.320370 5.094492 0.000008 0.000011 1.253012
    3 -48.614594 -2.156932 -0.465896 0.310757 1.066653 -4.530667
    4 -0.002752 5.280146 -5.886279 0.000000 0.000000 0.278312
    5 4.977940 -7.174671 -5.631966 4.469674 -0.845435 1.442669
    6 8.077701 0.820936 -0.376376 1.569230 -3.116668 0.178369
    7 -0.036764 -8.545613 -0.088509 0.221777 0.418854 0.448747
    8 -0.488518 -2.755602 -0.228260 -1.457408 0.104759 -0.238184
    9 0.039887 -1.518854 0.010322 -1.146061 -0.013854 0.024138
    10 0.028786 -1.161671 -0.124675 -1.013486 -0.015029 0.021321
    11 0.250027 -2.820665 -0.238396 -1.168725 0.085537 -0.258430
    12 -0.049759 -1.598510 0.041883 -1.429286 0.002732 -0.038916
    13 -0.034142 -1.156125 0.061344 -0.702019 0.008209 -0.017270
    14 0.957766 -2.746780 -0.090302 0.028344 0.062434 -0.143124
    15 -0.033420 -1.397129 -0.034695 -1.244450 -0.002601 -0.059409
    16 -0.022360 -0.957436 -0.000748 -0.722290 0.007418 -0.035103
    17 -1.180681 -2.507217 -0.193859 -1.252043 0.293314 -0.285646
    18 -0.024967 -1.127840 0.017597 -0.917565 0.005261 -0.039320
    19 -0.020057 -0.902687 0.021809 -0.694895 0.007970 -0.027313
    20 0.603042 -1.205090 0.189285 0.109296 -0.907913 -0.382291
    21 1.469519 -0.228043 0.059698 0.236800 -0.154122 -0.818621
    22 1.003112 -0.182979 0.044010 0.092266 -0.246466 -1.058321
    23 0.120153 -0.050270 -0.054489 0.339271 3.123980 1.491167
    24 -2.290362 -6.301605 -5.212380 -1.168015 -5.365825 -0.889560
    25 -0.000715 -8.341040 -0.017178 -0.578410 -0.546687 0.484151
    26 0.447953 -2.798986 -0.200443 -0.311821 0.049958 0.096459
    27 -0.032909 -1.499736 0.016659 -1.030459 0.020949 -0.016537
    28 -0.027022 -1.084733 -0.024116 -0.250539 0.006951 -0.001786
    29 -0.249534 -2.846964 -0.174213 -0.032941 0.125342 0.030590
    30 0.043235 -1.656596 0.072574 -1.247726 -0.020080 0.004759
    31 0.031729 -1.160830 0.058838 -0.228217 -0.001335 0.006982
    32 -0.963866 -2.785145 -0.085350 -0.079039 0.297402 -0.009606
    33 0.028479 -1.403067 -0.017167 -0.886235 -0.022148 -0.032538
    34 0.021413 -0.953875 0.020046 -0.231814 -0.002924 -0.010223
    35 1.164475 -2.543940 -0.170330 -0.350293 -0.013773 0.057711
    36 0.024032 -1.132948 0.002182 -0.689691 0.002061 0.036997
    37 0.014898 -0.891802 -0.019848 -0.535411 -0.001606 0.026390
    38 -0.586770 -1.264477 0.200161 0.134574 -0.602308 -2.585623
    39 1.546273 0.039149 0.016848 -0.010047 -0.003611 0.561285
    40 1.114041 0.048424 -0.005766 -0.015032 -0.033791 0.604336
    41 -0.139399 -0.111698 0.014397 0.690596 -0.271566 1.260683
    42 -6.897544 5.229692 -0.407407 1.577808 -0.026188 -0.744471
  time 9
    0 4.800928 -10.179998 -1.718802 0.433846 -0.566242 1.034796
    1 2.402625 -0.000001 -1.436759 1.570796 0.285022 3.141592
    2 3.404631 1.320370 5.094492 0.000008 0.000011 1.253012
    3 -48.614594 -2.156932 -0.465896 0.310757 1.066653 -4.530667
    4 -0.002752 5.280146 -5.886279 0.000000 0.000000 0.278312
    5 4.950595 -7.209828 -5.608528 4.470243 -0.841876 1.440469
    6 8.077701 0.852187 -0.376376 1.569135 -3.116764 0.182391
    7 -0.036764 -8.545613 -0.088509 0.220566 0.417060 0.438604
    8 -0.488518 -2.755602 -0.228260 -1.457360 0.104759 -0.238184
    9 0.039887 -1.518854 0.010322 -1.160017 -0.013842 0.024509
    10 0.028786 -1.161671 -0.124675 -1.017875 -0.015041 0.021440
    11 0.250027 -2.820665 -0.238396 -1.168725 0.085537 -0.258430
    12 -0.049759 -1.598510 0.041883 -1.443261 0.002481 -0.039240
    13 -0.034142 -1.156125 0.061344 -0.706391 0.008221 -0.017402
    14 0.957766 -2.746780 -0.090302 0.028344 0.062434 -0.143124
    15 -0.033420 -1.397129 -0.034695 -1.244450 -0.002601 -0.059409
    16 -0.022360 -0.957436 -0.000748 -0.722290 0.007418 -0.035103
    17 -1.180681 -2.507217 -0.193859 -1.252043 0.293314 -0.285646
    18 -0.024967 -1.127840 0.017597 -0.931531 0.005057 -0.039932
    19 -0.020057 -0.902687 0.021809 -0.653511 0.007982 -0.025419
    20 0.603042 -1.205090 0.189285 0.109296 -0.907913 -0.382291
    21 1.469519 -0.228043 0.059698 0.236800 -0.154122 -0.818621
    22 1.003112 -0.182979 0.044010 0.092266 -0.246466 -1.058321
    23 0.120153 -0.050270 -0.054489 0.339271 3.123980 1.491167
    24 -2.305987 -6.325043 -5.177222 -1.168386 -5.367068 -0.892234
    25 -0.000715 -8.341040 -0.017178 -0.587976 -0.549894 0.493506
    26 0.447953 -2.798986 -0.200443 -0.312819 0.049994 0.096435
    27 -0.032909 -1.499736 0.020565 -1.034490 0.020985 -0.016645
    28 -0.027022 -1.084733 -0.024116 -0.253300 0.007023 -0.001810
    29 -0.249534 -2.846964 -0.174213 -0.034103 0.125318 0.030590
    30 0.043235 -1.656596 0.072574 -1.252001 -0.020127 0.004819
    31 0.031729 -1.160830 0.058838 -0.232458 -0.001383 0.006958
    32 -0.963866 -2.785145 -0.085350 -0.081033 0.297606 -0.008491
    33 0.028479 -1.403067 -0.017167 -0.891424 -0.022351 -0.032658
    34 0.021413 -0.953875 0.020046 -0.237003 -0.003020 -0.010439
    35 1.164475 -2.543940 -0.170330 -0.351340 -0.013773 0.057765
    36 0.024032 -1.132948 0.002182 -0.689691 0.002061 0.036997
    37 0.014898 -0.891802 -0.019848 -0.537571 -0.001582 0.026510
    38 -0.586770 -1.264477 0.200161 0.133996 -0.602308 -2.584640
    39 1.550180 0.039149 0.016848 -0.010179 -0.003683 0.566583
    40 1.114041 0.048424 -0.005766 -0.015200 -0.033827 0.609622
    41 -0.139399 -0.111698 0.014397 0.690596 -0.271566 1.260683
    42 -6.878012 5.260943 -0.403501 1.577880 -0.026080 -0.749357
  time 10
    0 4.918119 -10.168279 -1.550829 0.411829 -0.558581 1.082309
    1 2.402625 -0.000001 -1.436759 1.570796 0.285022 3.141592
    2 3.404631 1.320370 5.094492 0.000008 0.000011 1.253012
    3 -48.614594 -2.156932 -0.465896 0.310757 1.066653 -4.530667
    4 -0.002752 5.280146 -5.886279 0.000000 0.000000 0.278312
    5 4.934970 -7.284050 -5.557745 4.474987 -0.830874 1.441903
    6 8.077701 0.887344 -0.376376 1.569135 -3.116764 0.186788
    7 -0.044576 -8.549519 -0.092415 0.220075 0.382928 0.437529
    8 -0.488518 -2.755602 -0.228260 -1.457408 0.104759 -0.238184
    9 0.039887 -1.518854 0.010322 -1.154960 -0.013842 0.024378
    10 0.028786 -1.161671 -0.124675 -1.015665 -0.015029 0.021381
    11 0.250027 -2.820665 -0.238396 -1.168725 0.085537 -0.258430
    12 -0.049759 -1.598510 0.041883 -1.438216 0.002565 -0.039120
    13 -0.034142 -1.156125 0.061344 -0.704195 0.008221 -0.017330
    14 0.957766 -2.746780 -0.090302 0.028344 0.062434 -0.143124
    15 -0.033420 -1.397129 -0.034695 -1.244450 -0.002601 -0.059409
    16 -0.022360 -0.957436 -0.000748 -0.722290 0.007418 -0.035103
    17 -1.180681 -2.507217 -0.193859 -1.252043 0.293314 -0.285646
    18 -0.024967 -1.127840 0.017597 -0.926485 0.005129 -0.039716
    19 -0.020057 -0.902687 0.021809 -0.674219 0.007982 -0.026366
    20 0.603042 -1.205090 0.189285 0.109296 -0.907913 -0.382291
    21 1.469519 -0.228043 0.059698 0.236800 -0.154122 -0.818621
    22 1.003112 -0.182979 0.044010 0.092266 -0.246466 -1.058321
    23 0.120153 -0.050270 -0.054489 0.339271 3.123980 1.491167
    24 -2.317706 -6.434422 -4.970185 -1.161390 -5.353083 -0.881539
    25 -0.000715 -8.337134 -0.021084 -0.636298 -0.554731 0.491485
    26 0.447953 -2.798986 -0.200443 -0.313353 0.050006 0.096435
    27 -0.032909 -1.499736 0.020565 -1.036663 0.021009 -0.016705
    28 -0.027022 -1.084733 -0.024116 -0.254761 0.007059 -0.001834
    29 -0.249534 -2.846964 -0.174213 -0.034726 0.125306 0.030590
    30 0.043235 -1.656596 0.072574 -1.254240 -0.020163 0.004855
    31 0.031729 -1.160830 0.058838 -0.234738 -0.001407 0.006946
    32 -0.963866 -2.785145 -0.085350 -0.082101 0.297702 -0.007892
    33 0.028479 -1.403067 -0.017167 -0.894192 -0.022459 -0.032718
    34 0.021413 -0.953875 0.020046 -0.239762 -0.003068 -0.010546
    35 1.164475 -2.543940 -0.170330 -0.351898 -0.013761 0.057806
    36 0.024032 -1.132948 0.002182 -0.689691 0.002061 0.036997
    37 0.014898 -0.891802 -0.019848 -0.538696 -0.001570 0.026570
    38 -0.586770 -1.264477 0.200161 0.133707 -0.602308 -2.584113
    39 1.550180 0.039149 0.016848 -0.010251 -0.003719 0.569377
    40 1.114041 0.048424 -0.005766 -0.015284 -0.033851 0.612446
    41 -0.139399 -0.111698 0.014397 0.690596 -0.271566 1.260683
    42 -6.604567 5.651580 -0.395688 1.578635 -0.024738 -0.806985
  time 11
    0 4.992340 -10.164373 -1.445357 0.399288 -0.552659 1.109747
    1 2.402625 -0.000001 -1.436759 1.570796 0.285022 3.141592
    2 3.404631 1.320370 5.094492 0.000008 0.000011 1.253012
    3 -48.614594 -2.156932 -0.465896 0.310757 1.066653 -4.530667
    4 -0.002752 5.280146 -5.886279 0.000000 0.000000 0.278312
    5 4.923251 -7.330926 -5.518681 4.477549 -0.825373 1.443338
    6 8.077701 0.930314 -0.372470 1.569039 -3.116860 0.191932
    7 -0.048483 -8.549519 -0.096321 0.219907 0.363311 0.438877
    8 -0.488518 -2.755602 -0.228260 -1.457408 0.104759 -0.238184
    9 0.039887 -1.518854 0.010322 -1.146061 -0.013854 0.024138
    10 0.028786 -1.161671 -0.124675 -1.013486 -0.015029 0.021321
    11 0.250027 -2.820665 -0.238396 -1.168725 0.085537 -0.258430
    12 -0.049759 -1.598510 0.041883 -1.429286 0.002732 -0.038916
    13 -0.034142 -1.156125 0.061344 -0.702019 0.008209 -0.017270
    14 0.957766 -2.746780 -0.090302 0.028344 0.062434 -0.143124
    15 -0.033420 -1.397129 -0.034695 -1.244450 -0.002601 -0.059409
    16 -0.022360 -0.957436 -0.000748 -0.722290 0.007418 -0.035103
    17 -1.180681 -2.507217 -0.193859 -1.252043 0.293314 -0.285646
    18 -0.024967 -1.127840 0.017597 -0.917565 0.005261 -0.039320
    19 -0.020057 -0.902687 0.021809 -0.694895 0.007970 -0.027313
    20 0.603042 -1.205090 0.189285 0.109296 -0.907913 -0.382291
    21 1.469519 -0.228043 0.059698 0.236800 -0.154122 -0.818621
    22 1.003112 -0.182979 0.044010 0.092266 -0.246466 -1.058321
    23 0.120153 -0.050270 -0.054489 0.339271 3.123980 1.491167
    24 -2.329425 -6.500830 -4.833462 -1.156143 -5.343138 -0.873709
    25 -0.000715 -8.333227 -0.024990 -0.663189 -0.556992 0.486981
    26 0.447953 -2.798986 -0.200443 -0.313512 0.050006 0.096435
    27 -0.032909 -1.499736 0.020565 -1.037296 0.021021 -0.016717
    28 -0.027022 -1.084733 -0.024116 -0.255208 0.007071 -0.001834
    29 -0.249534 -2.846964 -0.174213 -0.034906 0.125306 0.030590
    30 0.043235 -1.656596 0.072574 -1.254932 -0.020175 0.004867
    31 0.031729 -1.160830 0.058838 -0.235380 -0.001419 0.006934
    32 -0.963866 -2.785145 -0.085350 -0.082404 0.297738 -0.007712
    33 0.028479 -1.403067 -0.017167 -0.894988 -0.022495 -0.032742
    34 0.021413 -0.953875 0.020046 -0.240572 -0.003080 -0.010582
    35 1.164475 -2.543940 -0.170330 -0.352050 -0.013761 0.057806
    36 0.024032 -1.132948 0.002182 -0.689691 0.002061 0.036997
    37 0.014898 -0.891802 -0.019848 -0.539057 -0.001570 0.026582
    38 -0.586770 -1.264477 0.200161 0.133616 -0.602308 -2.583969
    39 1.550180 0.039149 0.016848 -0.010263 -0.003731 0.570205
    40 1.114041 0.048424 -0.005766 -0.015308 -0.033863 0.613279
    41 -0.139399 -0.111698 0.014397 0.690596 -0.271566 1.260683
    42 -6.409248 5.901587 -0.387875 1.579114 -0.023815 -0.845765
  time 12
    0 4.980621 -10.172185 -1.429731 0.401203 -0.550174 1.104584
    1 2.402625 -0.000001 -1.436759 1.570796 0.285022 3.141592
    2 3.404631 1.320370 5.094492 0.000008 0.000011 1.253012
    3 -48.614594 -2.156932 -0.465896 0.310757 1.066653 -4.530667
    4 -0.002752 5.280146 -5.886279 0.000000 0.000000 0.278312
    5 4.915438 -7.346551 -5.510869 4.477454 -0.825454 1.442955
    6 8.077701 0.953753 -0.372470 1.568943 -3.116956 0.195113
    7 -0.044576 -8.549519 -0.092415 0.220998 0.367533 0.441420
    8 -0.488518 -2.755602 -0.228260 -1.457408 0.104759 -0.238184
    9 0.039887 -1.514947 0.010322 -1.140701 -0.013854 0.023994
    10 0.028786 -1.161671 -0.124675 -1.013579 -0.015029 0.021333
    11 0.250027 -2.820665 -0.238396 -1.168725 0.085537 -0.258430
    12 -0.049759 -1.598510 0.041883 -1.423928 0.002828 -0.038796
    13 -0.034142 -1.156125 0.061344 -0.702101 0.008209 -0.017270
    14 0.957766 -2.746780 -0.090302 0.028344 0.062434 -0.143124
    15 -0.033420 -1.397129 -0.034695 -1.244450 -0.002601 -0.059409
    16 -0.022360 -0.957436 -0.000748 -0.722290 0.007418 -0.035103
    17 -1.180681 -2.507217 -0.193859 -1.252043 0.293314 -0.285646
    18 -0.024967 -1.127840 0.017597 -0.912240 0.005333 -0.039093
    19 -0.020057 -0.902687 0.021809 -0.693452 0.007970 -0.027253
    20 0.603042 -1.205090 0.189285 0.109296 -0.907913 -0.382291
    21 1.469519 -0.228043 0.059698 0.236800 -0.154122 -0.818621
    22 1.003112 -0.182979 0.044010 0.092266 -0.246466 -1.058321
    23 0.120153 -0.050270 -0.054489 0.339271 3.123980 1.491167
    24 -2.333332 -6.504736 -4.825649 -1.156620 -5.344458 -0.875142
    25 0.003191 -8.333227 -0.024990 -0.658361 -0.554363 0.484786
    26 0.447953 -2.798986 -0.200443 -0.313382 0.050006 0.096435
    27 -0.032909 -1.499736 0.020565 -1.036782 0.021021 -0.016705
    28 -0.027022 -1.084733 -0.024116 -0.254842 0.007059 -0.001834
    29 -0.249534 -2.846964 -0.174213 -0.034762 0.125306 0.030590
    30 0.043235 -1.656596 0.072574 -1.254403 -0.020163 0.004855
    31 0.031729 -1.160830 0.058838 -0.234845 -0.001407 0.006946
    32 -0.963866 -2.785145 -0.085350 -0.082154 0.297714 -0.007856
    33 0.028479 -1.403067 -0.017167 -0.894331 -0.022471 -0.032718
    34 0.021413 -0.953875 0.020046 -0.239917 -0.003068 -0.010558
    35 1.164475 -2.543940 -0.170330 -0.351931 -0.013761 0.057806
    36 0.024032 -1.132948 0.002182 -0.689691 0.002061 0.036997
    37 0.014898 -0.891802 -0.019848 -0.538787 -0.001570 0.026570
    38 -0.586770 -1.264477 0.200161 0.133689 -0.602308 -2.584089
    39 1.550180 0.039149 0.016848 -0.010251 -0.003731 0.569542
    40 1.114041 0.048424 -0.005766 -0.015296 -0.033851 0.612627
    41 -0.139399 -0.111698 0.014397 0.690596 -0.271566 1.260683
    42 -6.409248 5.901587 -0.387875 1.579102 -0.023827 -0.845300
  time 13
    0 4.964995 -10.148747 -1.398480 0.402830 -0.542555 1.098179
    1 2.402625 -0.000001 -1.436759 1.570796 0.285022 3.141592
    2 3.404631 1.320370 5.094492 0.000008 0.000011 1.253012
    3 -48.614594 -2.156932 -0.465896 0.310757 1.066653 -4.530667
    4 -0.002752 5.280146 -5.886279 0.000000 0.000000 0.278312
    5 4.895906 -7.362177 -5.514775 4.477928 -0.823269 1.441999
    6 8.077701 0.949846 -0.372470 1.569039 -3.116956 0.194365
    7 -0.044576 -8.549519 -0.092415 0.223838 0.373157 0.447233
    8 -0.488518 -2.755602 -0.228260 -1.457408 0.104759 -0.238184
    9 0.039887 -1.514947 0.010322 -1.136049 -0.013854 0.023874
    10 0.028786 -1.161671 -0.124675 -1.013797 -0.015029 0.021333
    11 0.250027 -2.820665 -0.238396 -1.168725 0.085537 -0.258430
    12 -0.049759 -1.598510 0.041883 -1.419284 0.002912 -0.038676
    13 -0.034142 -1.156125 0.061344 -0.702304 0.008209 -0.017282
    14 0.957766 -2.746780 -0.090302 0.028344 0.062434 -0.143124
    15 -0.033420 -1.397129 -0.034695 -1.244450 -0.002601 -0.059409
    16 -0.022360 -0.957436 -0.000748 -0.722290 0.007418 -0.035103
    17 -1.180681 -2.507217 -0.193859 -1.252043 0.293314 -0.285646
    18 -0.024967 -1.127840 0.017597 -0.907585 0.005393 -0.038889
    19 -0.020057 -0.902687 0.021809 -0.689798 0.007970 -0.027085
    20 0.603042 -1.205090 0.189285 0.109296 -0.907913 -0.382291
    21 1.469519 -0.228043 0.059698 0.236800 -0.154122 -0.818621
    22 1.003112 -0.182979 0.044010 0.092266 -0.246466 -1.058321
    23 0.120153 -0.050270 -0.054489 0.339271 3.123980 1.491167
    24 -2.337238 -6.500830 -4.825649 -1.158581 -5.348343 -0.878197
    25 0.003191 -8.333227 -0.024990 -0.651639 -0.547371 0.481841
    26 0.447953 -2.798986 -0.200443 -0.313079 0.049994 0.096435
    27 -0.032909 -1.499736 0.020565 -1.035517 0.020997 -0.016669
    28 -0.027022 -1.084733 -0.024116 -0.253990 0.007035 -0.001822
    29 -0.249534 -2.846964 -0.174213 -0.034391 0.125318 0.030590
    30 0.043235 -1.656596 0.072574 -1.253059 -0.020151 0.004831
    31 0.031729 -1.160830 0.058838 -0.233527 -0.001395 0.006946
    32 -0.963866 -2.785145 -0.085350 -0.081531 0.297654 -0.008204
    33 0.028479 -1.403067 -0.017167 -0.892704 -0.022399 -0.032682
    34 0.021413 -0.953875 0.020046 -0.238296 -0.003044 -0.010487
    35 1.164475 -2.543940 -0.170330 -0.351594 -0.013773 0.057779
    36 0.024032 -1.132948 0.002182 -0.689691 0.002061 0.036997
    37 0.014898 -0.891802 -0.019848 -0.538111 -0.001582 0.026534
    38 -0.586770 -1.264477 0.200161 0.133869 -0.602308 -2.584388
    39 1.550180 0.039149 0.016848 -0.010203 -0.003707 0.567907
    40 1.114041 0.048424 -0.005766 -0.015236 -0.033839 0.610962
    41 -0.139399 -0.111698 0.014397 0.690596 -0.271566 1.260683
    42 -6.436593 5.870337 -0.387875 1.579042 -0.023935 -0.840491
  time 14
    0 4.945463 -10.109684 -1.355510 0.404362 -0.532367 1.091104
    1 2.402625 -0.000001 -1.436759 1.570796 0.285022 3.141592
    2 3.404631 1.320370 5.094492 0.000008 0.000011 1.253012
    3 -48.614594 -2.156932 -0.465896 0.310757 1.066653 -4.530667
    4 -0.002752 5.280146 -5.886279 0.000000 0.000000 0.278312
    5 4.876374 -7.377802 -5.526494 4.478687 -0.820034 1.440564
    6 8.077701 0.926408 -0.372470 1.569039 -3.116860 0.191558
    7 -0.040670 -8.553426 -0.092415 0.227625 0.379583 0.454772
    8 -0.488518 -2.755602 -0.228260 -1.457360 0.104759 -0.238184
    9 0.039887 -1.514947 0.010322 -1.131835 -0.013854 0.023754
    10 0.028786 -1.161671 -0.124675 -1.014077 -0.015029 0.021345
    11 0.250027 -2.820665 -0.238396 -1.168725 0.085537 -0.258430
    12 -0.049759 -1.598510 0.041883 -1.415087 0.002984 -0.038580
    13 -0.034142 -1.156125 0.061344 -0.702589 0.008209 -0.017282
    14 0.957766 -2.746780 -0.090302 0.028344 0.062434 -0.143124
    15 -0.033420 -1.397129 -0.034695 -1.244450 -0.002601 -0.059409
    16 -0.022360 -0.957436 -0.000748 -0.722290 0.007418 -0.035103
    17 -1.180681 -2.507217 -0.193859 -1.252043 0.293314 -0.285646
    18 -0.024967 -1.127840 0.017597 -0.903375 0.005453 -0.038709
    19 -0.020057 -0.902687 0.021809 -0.685022 0.007982 -0.026857
    20 0.603042 -1.205090 0.189285 0.109296 -0.907913 -0.382291
    21 1.469519 -0.228043 0.059698 0.236800 -0.154122 -0.818621
    22 1.003112 -0.182979 0.044010 0.092266 -0.246466 -1.058321
    23 0.120153 -0.050270 -0.054489 0.339271 3.123980 1.491167
    24 -2.337238 -6.496923 -4.833462 -1.161284 -5.353549 -0.882112
    25 0.003191 -8.333227 -0.024990 -0.644014 -0.538012 0.478896
    26 0.447953 -2.798986 -0.200443 -0.312660 0.049982 0.096447
    27 -0.032909 -1.499736 0.016659 -1.033858 0.020985 -0.016633
    28 -0.027022 -1.084733 -0.024116 -0.252853 0.007011 -0.001810
    29 -0.249534 -2.846964 -0.174213 -0.033924 0.125330 0.030590
    30 0.043235 -1.656596 0.072574 -1.251308 -0.020127 0.004807
    31 0.031729 -1.160830 0.058838 -0.231816 -0.001383 0.006958
    32 -0.963866 -2.785145 -0.085350 -0.080712 0.297570 -0.008659
    33 0.028479 -1.403067 -0.017167 -0.890629 -0.022315 -0.032634
    34 0.021413 -0.953875 0.020046 -0.236193 -0.003008 -0.010403
    35 1.164475 -2.543940 -0.170330 -0.351171 -0.013773 0.057765
    36 0.024032 -1.132948 0.002182 -0.689691 0.002061 0.036997
    37 0.014898 -0.891802 -0.019848 -0.537211 -0.001582 0.026486
    38 -0.586770 -1.264477 0.200161 0.134086 -0.602308 -2.584796
    39 1.550180 0.039149 0.016848 -0.010155 -0.003671 0.565755
    40 1.114041 0.048424 -0.005766 -0.015176 -0.033827 0.608826
    41 -0.139399 -0.111698 0.014397 0.690596 -0.271566 1.260683
    42 -6.471750 5.823460 -0.391781 1.578958 -0.024114 -0.833200
  time 15
    0 4.929838 -10.066713 -1.316446 0.405798 -0.522180 1.083743
    1 2.402625 -0.000001 -1.436759 1.570796 0.285022 3.141592
    2 3.404631 1.320370 5.094492 0.000008 0.000011 1.253012
    3 -48.614594 -2.156932 -0.465896 0.310757 1.066653 -4.530667
    4 -0.002752 5.280146 -5.886279 0.000000 0.000000 0.278312
    5 4.852936 -7.393428 -5.542120 4.479446 -0.816798 1.439225
    6 8.077701 0.902970 -0.372470 1.569039 -3.116860 0.188472
    7 -0.040670 -8.553426 -0.092415 0.231496 0.386197 0.462402
    8 -0.488518 -2.755602 -0.228260 -1.457408 0.104759 -0.238184
    9 0.039887 -1.514947 0.010322 -1.127857 -0.013854 0.023647
    10 0.028786 -1.161671 -0.124675 -1.014326 -0.015029 0.021345
    11 0.250027 -2.820665 -0.238396 -1.168725 0.085537 -0.258430
    12 -0.049759 -1.598510 0.041883 -1.411113 0.003056 -0.038485
    13 -0.034142 -1.156125 0.061344 -0.702873 0.008209 -0.017294
    14 0.957766 -2.746780 -0.090302 0.028344 0.062434 -0.143124
    15 -0.033420 -1.397129 -0.034695 -1.244450 -0.002601 -0.059409
    16 -0.022360 -0.957436 -0.000748 -0.722290 0.007418 -0.035103
    17 -1.180681 -2.507217 -0.193859 -1.252043 0.293314 -0.285646
    18 -0.024967 -1.127840 0.017597 -0.899417 0.005513 -0.038529
    19 -0.020057 -0.902687 0.021809 -0.680277 0.007982 -0.026642
    20 0.603042 -1.205090 0.189285 0.109296 -0.907913 -0.382291
    21 1.469519 -0.228043 0.059698 0.236800 -0.154122 -0.818621
    22 1.003112 -0.182979 0.044010 0.092266 -0.246466 -1.058321
    23 0.120153 -0.050270 -0.054489 0.339271 3.123980 1.491167
    24 -2.341145 -6.493017 -4.837368 -1.164093 -5.359066 -0.886218
    25 0.007098 -8.333227 -0.024990 -0.636388 -0.528234 0.476760
    26 0.447953 -2.798986 -0.200443 -0.312255 0.049970 0.096447
    27 -0.032909 -1.499736 0.016659 -1.032238 0.020961 -0.016585
    28 -0.027022 -1.084733 -0.024116 -0.251757 0.006975 -0.001798
    29 -0.249534 -2.846964 -0.174213 -0.033456 0.125330 0.030590
    30 0.043235 -1.656596 0.072574 -1.249599 -0.020104 0.004783
    31 0.031729 -1.160830 0.058838 -0.230070 -0.001359 0.006970
    32 -0.963866 -2.785145 -0.085350 -0.079911 0.297486 -0.009115
    33 0.028479 -1.403067 -0.017167 -0.888518 -0.022243 -0.032598
    34 0.021413 -0.953875 0.020046 -0.234089 -0.002960 -0.010319
    35 1.164475 -2.543940 -0.170330 -0.350749 -0.013773 0.057738
    36 0.024032 -1.132948 0.002182 -0.689691 0.002061 0.036997
    37 0.014898 -0.891802 -0.019848 -0.536356 -0.001594 0.026438
    38 -0.586770 -1.264477 0.200161 0.134321 -0.602308 -2.585191
    39 1.550180 0.039149 0.016848 -0.010107 -0.003647 0.563603
    40 1.114041 0.048424 -0.005766 -0.015104 -0.033803 0.606653
    41 -0.139399 -0.111698 0.014397 0.690596 -0.271566 1.260683
    42 -6.514720 5.768771 -0.391781 1.578862 -0.024306 -0.825211
  time 16
    0 4.914212 -10.035462 -1.285195 0.407617 -0.514602 1.076573
    1 2.402625 -0.000001 -1.436759 1.570796 0.285022 3.141592
    2 3.404631 1.320370 5.094492 0.000008 0.000011 1.253012
    3 -48.614594 -2.156932 -0.465896 0.310757 1.066653 -4.530667
    4 -0.002752 5.280146 -5.886279 0.000000 0.000000 0.278312
    5 4.837311 -7.405147 -5.553839 4.479826 -0.814856 1.438269
    6 8.077701 0.887344 -0.376376 1.569135 -3.116764 0.186881
    7 -0.036764 -8.553426 -0.092415 0.234540 0.392418 0.468472
    8 -0.488518 -2.755602 -0.228260 -1.457408 0.104759 -0.238184
    9 0.039887 -1.514947 0.010322 -1.123846 -0.013854 0.023539
    10 0.028786 -1.161671 -0.124675 -1.014544 -0.015029 0.021357
    11 0.250027 -2.820665 -0.238396 -1.168725 0.085537 -0.258430
    12 -0.049759 -1.598510 0.041883 -1.407095 0.003128 -0.038389
    13 -0.034142 -1.156125 0.061344 -0.703077 0.008209 -0.017294
    14 0.957766 -2.746780 -0.090302 0.028344 0.062434 -0.143124
    15 -0.033420 -1.397129 -0.034695 -1.244450 -0.002601 -0.059409
    16 -0.022360 -0.957436 -0.000748 -0.722290 0.007418 -0.035103
    17 -1.180681 -2.507217 -0.193859 -1.252043 0.293314 -0.285646
    18 -0.024967 -1.127840 0.017597 -0.895403 0.005561 -0.038362
    19 -0.020057 -0.902687 0.021809 -0.676623 0.007982 -0.026486
    20 0.603042 -1.205090 0.189285 0.109296 -0.907913 -0.382291
    21 1.469519 -0.228043 0.059698 0.236800 -0.154122 -0.818621
    22 1.003112 -0.182979 0.044010 0.092266 -0.246466 -1.058321
    23 0.120153 -0.050270 -0.054489 0.339271 3.123980 1.491167
    24 -2.341145 -6.485204 -4.845181 -1.166319 -5.363727 -0.889656
    25 0.007098 -8.333227 -0.024990 -0.629485 -0.519979 0.476125
    26 0.447953 -2.798986 -0.200443 -0.311951 0.049970 0.096447
    27 -0.032909 -1.499736 0.016659 -1.030973 0.020949 -0.016549
    28 -0.027022 -1.084733 -0.024116 -0.250864 0.006963 -0.001786
    29 -0.249534 -2.846964 -0.174213 -0.033085 0.125342 0.030590
    30 0.043235 -1.656596 0.072574 -1.248255 -0.020080 0.004759
    31 0.031729 -1.160830 0.058838 -0.228752 -0.001347 0.006982
    32 -0.963866 -2.785145 -0.085350 -0.079288 0.297426 -0.009462
    33 0.028479 -1.403067 -0.017167 -0.886892 -0.022171 -0.032550
    34 0.021413 -0.953875 0.020046 -0.232469 -0.002936 -0.010247
    35 1.164475 -2.543940 -0.170330 -0.350411 -0.013773 0.057724
    36 0.024032 -1.132948 0.002182 -0.689691 0.002061 0.036997
    37 0.014898 -0.891802 -0.019848 -0.535681 -0.001606 0.026402
    38 -0.586770 -1.264477 0.200161 0.134502 -0.602308 -2.585491
    39 1.546273 0.039149 0.016848 -0.010059 -0.003623 0.561947
    40 1.114041 0.048424 -0.005766 -0.015056 -0.033791 0.604988
    41 -0.139399 -0.111698 0.014397 0.690596 -0.271566 1.260683
    42 -6.545971 5.725801 -0.391781 1.578779 -0.024474 -0.818231
  time 17
    0 4.898587 -10.039369 -1.281289 0.409818 -0.512159 1.070168
    1 2.402625 -0.000001 -1.436759 1.570796 0.285022 3.141592
    2 3.404631 1.320370 5.094492 0.000008 0.000011 1.253012
    3 -48.614594 -2.156932 -0.465896 0.310757 1.066653 -4.530667
    4 -0.002752 5.280146 -5.886279 0.000000 0.000000 0.278312
    5 4.829498 -7.412960 -5.549932 4.479541 -0.815180 1.437886
    6 8.077701 0.902970 -0.372470 1.569039 -3.116860 0.188565
    7 -0.036764 -8.553426 -0.088509 0.235835 0.397649 0.471348
    8 -0.488518 -2.755602 -0.228260 -1.457408 0.104759 -0.238184
    9 0.039887 -1.514947 0.010322 -1.119598 -0.013854 0.023431
    10 0.028786 -1.161671 -0.124675 -1.014638 -0.015029 0.021357
    11 0.250027 -2.820665 -0.238396 -1.168725 0.085537 -0.258430
    12 -0.049759 -1.598510 0.045790 -1.402853 0.003200 -0.038293
    13 -0.034142 -1.156125 0.061344 -0.703158 0.008209 -0.017306
    14 0.957766 -2.746780 -0.090302 0.028344 0.062434 -0.143124
    15 -0.033420 -1.397129 -0.034695 -1.244450 -0.002601 -0.059409
    16 -0.022360 -0.957436 -0.000748 -0.722290 0.007418 -0.035103
    17 -1.180681 -2.507217 -0.193859 -1.252043 0.293314 -0.285646
    18 -0.024967 -1.127840 0.017597 -0.891138 0.005621 -0.038170
    19 -0.020057 -0.902687 0.021809 -0.675148 0.007982 -0.026414
    20 0.603042 -1.205090 0.189285 0.109296 -0.907913 -0.382291
    21 1.469519 -0.228043 0.059698 0.236800 -0.154122 -0.818621
    22 1.003112 -0.182979 0.044010 0.092266 -0.246466 -1.058321
    23 0.120153 -0.050270 -0.054489 0.339271 3.123980 1.491167
    24 -2.345051 -6.485204 -4.849087 -1.167379 -5.366291 -0.891852
    25 0.007098 -8.333227 -0.024990 -0.624116 -0.515248 0.477568
    26 0.447953 -2.798986 -0.200443 -0.311821 0.049958 0.096459
    27 -0.032909 -1.499736 0.016659 -1.030459 0.020949 -0.016537
    28 -0.027022 -1.084733 -0.024116 -0.250539 0.006951 -0.001786
    29 -0.249534 -2.846964 -0.174213 -0.032941 0.125342 0.030590
    30 0.043235 -1.656596 0.072574 -1.247726 -0.020080 0.004759
    31 0.031729 -1.160830 0.058838 -0.228217 -0.001335 0.006982
    32 -0.963866 -2.785145 -0.085350 -0.079039 0.297402 -0.009606
    33 0.028479 -1.403067 -0.017167 -0.886235 -0.022148 -0.032538
    34 0.021413 -0.953875 0.020046 -0.231814 -0.002924 -0.010223
    35 1.164475 -2.543940 -0.170330 -0.350293 -0.013773 0.057711
    36 0.024032 -1.132948 0.002182 -0.689691 0.002061 0.036997
    37 0.014898 -0.891802 -0.019848 -0.535411 -0.001606 0.026390
    38 -0.586770 -1.264477 0.200161 0.134574 -0.602308 -2.585623
    39 1.546273 0.039149 0.016848 -0.010047 -0.003611 0.561285
    40 1.114041 0.048424 -0.005766 -0.015032 -0.033791 0.604336
    41 -0.139399 -0.111698 0.014397 0.690596 -0.271566 1.260683
    42 -6.569409 5.698456 -0.391781 1.578731 -0.024570 -0.814275
  time 18
    0 4.882962 -10.086245 -1.308634 0.412977 -0.517501 1.064719
    1 2.402625 -0.000001 -1.436759 1.570796 0.285022 3.141592
    2 3.404631 1.320370 5.094492 0.000008 0.000011 1.253012
    3 -48.614594 -2.156932 -0.465896 0.310757 1.066653 -4.530667
    4 -0.002752 5.280146 -5.886279 0.000000 0.000000 0.278312
    5 4.833404 -7.416866 -5.534307 4.478403 -0.819063 1.438460
    6 8.077701 0.957659 -0.372470 1.568943 -3.116956 0.195206
    7 -0.036764 -8.553426 -0.088509 0.234444 0.401367 0.469335
    8 -0.488518 -2.755602 -0.228260 -1.457408 0.104759 -0.238184
    9 0.039887 -1.514947 0.010322 -1.114811 -0.013854 0.023299
    10 0.028786 -1.161671 -0.124675 -1.014544 -0.015029 0.021357
    11 0.250027 -2.820665 -0.238396 -1.168725 0.085537 -0.258430
    12 -0.049759 -1.598510 0.045790 -1.398075 0.003284 -0.038173
    13 -0.034142 -1.156125 0.061344 -0.703056 0.008209 -0.017294
    14 0.957766 -2.746780 -0.090302 0.028344 0.062434 -0.143124
    15 -0.033420 -1.397129 -0.034695 -1.244450 -0.002601 -0.059409
    16 -0.022360 -0.957436 -0.000748 -0.722290 0.007418 -0.035103
    17 -1.180681 -2.507217 -0.193859 -1.252043 0.293314 -0.285646
    18 -0.024967 -1.127840 0.017597 -0.886371 0.005681 -0.037966
    19 -0.020057 -0.902687 0.021809 -0.676976 0.007982 -0.026498
    20 0.603042 -1.205090 0.189285 0.109296 -0.907913 -0.382291
    21 1.469519 -0.228043 0.059698 0.236800 -0.154122 -0.818621
    22 1.003112 -0.182979 0.044010 0.092266 -0.246466 -1.058321
    23 0.120153 -0.050270 -0.054489 0.339271 3.123980 1.491167
    24 -2.348957 -6.485204 -4.852994 -1.166637 -5.365981 -0.892329
    25 0.007098 -8.333227 -0.024990 -0.620416 -0.515143 0.483343
    26 0.447953 -2.798986 -0.200443 -0.311821 0.049958 0.096459
    27 -0.032909 -1.499736 0.016659 -1.030459 0.020949 -0.016537
    28 -0.027022 -1.084733 -0.024116 -0.250539 0.006951 -0.001786
    29 -0.249534 -2.846964 -0.174213 -0.032941 0.125342 0.030590
    30 0.043235 -1.656596 0.072574 -1.247726 -0.020080 0.004759
    31 0.031729 -1.160830 0.058838 -0.228217 -0.001335 0.006982
    32 -0.963866 -2.785145 -0.085350 -0.079039 0.297402 -0.009606
    33 0.028479 -1.403067 -0.017167 -0.886235 -0.022148 -0.032538
    34 0.021413 -0.953875 0.020046 -0.231814 -0.002924 -0.010223
    35 1.164475 -2.543940 -0.170330 -0.350293 -0.013773 0.057711
    36 0.024032 -1.132948 0.002182 -0.689691 0.002061 0.036997
    37 0.014898 -0.891802 -0.019848 -0.535411 -0.001606 0.026390
    38 -0.586770 -1.264477 0.200161 0.134574 -0.602308 -2.585623
    39 1.546273 0.039149 0.016848 -0.010047 -0.003611 0.561285
    40 1.114041 0.048424 -0.005766 -0.015032 -0.033791 0.604336
    41 -0.139399 -0.111698 0.014397 0.690596 -0.271566 1.260683
    42 -6.565503 5.702363 -0.391781 1.578731 -0.024558 -0.814663
  time 19
    0 4.875149 -10.187811 -1.375042 0.417285 -0.533154 1.060608
    1 2.402625 -0.000001 -1.436759 1.570796 0.285022 3.141592
    2 3.404631 1.320370 5.094492 0.000008 0.000011 1.253012
    3 -48.614594 -2.156932 -0.465896 0.310757 1.066653 -4.530667
    4 -0.002752 5.280146 -5.886279 0.000000 0.000000 0.278312
    5 4.852936 -7.412960 -5.491337 4.475841 -0.827395 1.440469
    6 8.073794 1.067037 -0.372470 1.568847 -3.117148 0.208676
    7 -0.036764 -8.549519 -0.088509 0.229411 0.402936 0.460752
    8 -0.488518 -2.755602 -0.228260 -1.457408 0.104759 -0.238184
    9 0.039887 -1.514947 0.010322 -1.109283 -0.013854 0.023155
    10 0.028786 -1.161671 -0.124675 -1.014171 -0.015029 0.021345
    11 0.250027 -2.820665 -0.238396 -1.168725 0.085537 -0.258430
    12 -0.049759 -1.598510 0.045790 -1.392539 0.003368 -0.038041
    13 -0.034142 -1.156125 0.061344 -0.702690 0.008209 -0.017294
    14 0.957766 -2.746780 -0.090302 0.028344 0.062434 -0.143124
    15 -0.033420 -1.397129 -0.034695 -1.244450 -0.002601 -0.059409
    16 -0.022360 -0.957436 -0.000748 -0.722290 0.007418 -0.035103
    17 -1.180681 -2.507217 -0.193859 -1.252002 0.293314 -0.285646
    18 -0.024967 -1.127840 0.017597 -0.880851 0.005753 -0.037726
    19 -0.020057 -0.902687 0.021809 -0.683195 0.007982 -0.026786
    20 0.603042 -1.205090 0.189285 0.109296 -0.907913 -0.382291
    21 1.469519 -0.228043 0.059698 0.236800 -0.154122 -0.818621
    22 1.003112 -0.182979 0.044010 0.092266 -0.246466 -1.058321
    23 0.120153 -0.050270 -0.054489 0.339271 3.123980 1.491167
    24 -2.360676 -6.496923 -4.845181 -1.163563 -5.362018 -0.890515
    25 0.003191 -8.333227 -0.024990 -0.617935 -0.521346 0.495180
    26 0.447953 -2.798986 -0.200443 -0.311821 0.049958 0.096459
    27 -0.032909 -1.499736 0.016659 -1.030459 0.020949 -0.016537
    28 -0.027022 -1.084733 -0.024116 -0.250539 0.006951 -0.001786
    29 -0.249534 -2.846964 -0.174213 -0.032941 0.125342 0.030590
    30 0.043235 -1.656596 0.072574 -1.247726 -0.020080 0.004759
    31 0.031729 -1.160830 0.058838 -0.228217 -0.001335 0.006982
    32 -0.963866 -2.785145 -0.085350 -0.079039 0.297402 -0.009606
    33 0.028479 -1.403067 -0.017167 -0.886235 -0.022148 -0.032538
    34 0.021413 -0.953875 0.020046 -0.231814 -0.002924 -0.010223
    35 1.164475 -2.543940 -0.170330 -0.350293 -0.013773 0.057711
    36 0.024032 -1.132948 0.002182 -0.689691 0.002061 0.036997
    37 0.014898 -0.891802 -0.019848 -0.535411 -0.001606 0.026390
    38 -0.586770 -1.264477 0.200161 0.134574 -0.602308 -2.585623
    39 1.546273 0.039149 0.016848 -0.010047 -0.003611 0.561285
    40 1.114041 0.048424 -0.005766 -0.015032 -0.033791 0.604336
    41 -0.139399 -0.111698 0.014397 0.690596 -0.271566 1.260683
    42 -6.534252 5.741426 -0.391781 1.578815 -0.024414 -0.820558
  time 20
    0 4.867336 -10.363598 -1.500046 0.423029 -0.561728 1.058218
    1 2.402625 -0.000001 -1.436759 1.570796 0.285022 3.141592
    2 3.404631 1.320370 5.094492 0.000008 0.000011 1.253012
    3 -48.614594 -2.156932 -0.465896 0.310757 1.066653 -4.530667
    4 -0.002752 5.280146 -5.886279 0.000000 0.000000 0.278312
    5 4.888093 -7.397334 -5.421022 4.471666 -0.841552 1.444295
    6 8.062075 1.242824 -0.368563 1.568559 -3.117627 0.230658
    7 -0.040670 -8.549519 -0.088509 0.219871 0.401647 0.444009
    8 -0.488518 -2.755602 -0.228260 -1.457408 0.104759 -0.238184
    9 0.039887 -1.514947 0.010322 -1.102777 -0.013854 0.022975
    10 0.028786 -1.161671 -0.124675 -1.013486 -0.015029 0.021321
    11 0.250027 -2.820665 -0.238396 -1.168725 0.085537 -0.258430
    12 -0.049759 -1.598510 0.045790 -1.386020 0.003488 -0.037885
    13 -0.034142 -1.156125 0.061344 -0.702019 0.008209 -0.017270
    14 0.957766 -2.746780 -0.090302 0.028344 0.062434 -0.143124
    15 -0.033420 -1.397129 -0.034695 -1.244450 -0.002601 -0.059409
    16 -0.022360 -0.957436 -0.000748 -0.722290 0.007418 -0.035103
    17 -1.180681 -2.507217 -0.193859 -1.252043 0.293314 -0.285646
    18 -0.024967 -1.127840 0.017597 -0.874356 0.005836 -0.037439
    19 -0.020057 -0.902687 0.021809 -0.694895 0.007970 -0.027313
    20 0.603042 -1.205090 0.189285 0.109296 -0.907913 -0.382291
    21 1.469519 -0.228043 0.059698 0.236800 -0.154122 -0.818621
    22 1.003112 -0.182979 0.044010 0.092266 -0.246466 -1.058321
    23 0.120153 -0.050270 -0.054489 0.339271 3.123980 1.491167
    24 -2.372396 -6.512549 -4.837368 -1.157415 -5.353316 -0.885645
    25 -0.000715 -8.333227 -0.021084 -0.617123 -0.536593 0.512966
    26 0.447953 -2.798986 -0.200443 -0.311821 0.049958 0.096459
    27 -0.032909 -1.499736 0.016659 -1.030459 0.020949 -0.016537
    28 -0.027022 -1.084733 -0.024116 -0.250539 0.006951 -0.001786
    29 -0.249534 -2.846964 -0.174213 -0.032941 0.125342 0.030590
    30 0.043235 -1.656596 0.072574 -1.247726 -0.020080 0.004759
    31 0.031729 -1.160830 0.058838 -0.228217 -0.001335 0.006982
    32 -0.963866 -2.785145 -0.085350 -0.079039 0.297402 -0.009606
    33 0.028479 -1.403067 -0.017167 -0.886235 -0.022148 -0.032538
    34 0.021413 -0.953875 0.020046 -0.231814 -0.002924 -0.010223
    35 1.164475 -2.543940 -0.170330 -0.350293 -0.013773 0.057711
    36 0.024032 -1.132948 0.002182 -0.689691 0.002061 0.036997
    37 0.014898 -0.891802 -0.019848 -0.535411 -0.001606 0.026390
    38 -0.586770 -1.264477 0.200161 0.134574 -0.602308 -2.585623
    39 1.546273 0.039149 0.016848 -0.010047 -0.003611 0.561285
    40 1.114041 0.048424 -0.005766 -0.015032 -0.033791 0.604336
    41 -0.139399 -0.111698 0.014397 0.690596 -0.271566 1.260683
    42 -6.475656 5.819554 -0.391781 1.578958 -0.024126 -0.832890
  time 21
    0 4.890774 -11.062838 -2.148503 0.440547 -0.699752 1.067778
    1 2.402625 -0.000001 -1.436759 1.570796 0.285022 3.141592
    2 3.404631 1.320370 5.094492 0.000008 0.000011 1.253012
    3 -48.614594 -2.156932 -0.465896 0.310757 1.066653 -4.530667
    4 -0.002752 5.280146 -5.886279 0.000000 0.000000 0.278312
    5 5.071693 -7.272330 -5.108513 4.451457 -0.903357 1.464955
    6 7.983948 1.977221 -0.356844 1.567601 -3.119257 0.321205
    7 -0.048483 -8.533894 -0.092415 0.174306 0.374801 0.359264
    8 -0.488518 -2.755602 -0.228260 -1.457408 0.104759 -0.238184
    9 0.039887 -1.514947 0.010322 -1.091720 -0.013842 0.022676
    10 0.028786 -1.157765 -0.124675 -1.010062 -0.015017 0.021237
    11 0.250027 -2.820665 -0.238396 -1.168725 0.085537 -0.258430
    12 -0.049759 -1.598510 0.045790 -1.374991 0.003667 -0.037622
    13 -0.034142 -1.156125 0.061344 -0.698583 0.008197 -0.017174
    14 0.957766 -2.746780 -0.090302 0.028344 0.062434 -0.143124
    15 -0.033420 -1.397129 -0.034695 -1.244450 -0.002601 -0.059409
    16 -0.022360 -0.957436 -0.000748 -0.722290 0.007418 -0.035103
    17 -1.180681 -2.507217 -0.193859 -1.252043 0.293314 -0.285646
    18 -0.024967 -1.123934 0.017597 -0.863317 0.005968 -0.036947
    19 -0.020057 -0.902687 0.025715 -0.753910 0.007790 -0.029997
    20 0.603042 -1.205090 0.189285 0.109296 -0.907913 -0.382291
    21 1.469519 -0.228043 0.059698 0.236800 -0.154122 -0.818621
    22 1.003112 -0.182979 0.044010 0.092266 -0.246466 -1.058321
    23 0.120153 -0.050270 -0.054489 0.339271 3.123980 1.491167
    24 -2.380208 -6.532081 -4.884245 -1.125085 -5.305221 -0.850315
    25 -0.024153 -8.341040 -0.009365 -0.623575 -0.645211 0.552291
    26 0.447953 -2.798986 -0.200443 -0.311821 0.049958 0.096459
    27 -0.032909 -1.499736 0.016659 -1.030459 0.020949 -0.016537
    28 -0.027022 -1.084733 -0.024116 -0.250539 0.006951 -0.001786
    29 -0.249534 -2.846964 -0.174213 -0.032941 0.125342 0.030590
    30 0.043235 -1.656596 0.072574 -1.247726 -0.020080 0.004759
    31 0.031729 -1.160830 0.058838 -0.228217 -0.001335 0.006982
    32 -0.963866 -2.785145 -0.085350 -0.079039 0.297402 -0.009606
    33 0.028479 -1.403067 -0.017167 -0.886235 -0.022148 -0.032538
    34 0.021413 -0.953875 0.020046 -0.231814 -0.002924 -0.010223
    35 1.164475 -2.543940 -0.170330 -0.350293 -0.013773 0.057711
    36 0.024032 -1.132948 0.002182 -0.689691 0.002061 0.036997
    37 0.014898 -0.891802 -0.019848 -0.535411 -0.001606 0.026378
    38 -0.586770 -1.264477 0.200161 0.134574 -0.602308 -2.585623
    39 1.546273 0.039149 0.016848 -0.010047 -0.003611 0.561285
    40 1.114041 0.048424 -0.005766 -0.015032 -0.033791 0.604336
    41 -0.139399 -0.111698 0.014397 0.750075 -0.247467 1.261168
    42 -6.210023 6.139876 -0.380062 1.579534 -0.022904 -0.883304
  time 22
    0 4.902493 -12.031617 -3.652455 0.468595 -0.973025 1.082787
    1 2.402625 -0.000001 -1.436759 1.570796 0.285022 3.141592
    2 3.404631 1.320370 5.094492 0.000008 0.000011 1.253012
    3 -48.614594 -2.156932 -0.465896 0.310757 1.066653 -4.530667
    4 -0.002752 5.280146 -5.886279 0.000000 0.000000 0.278312
    5 5.333420 -6.905132 -4.483493 4.398325 -1.021952 1.519572
    6 7.648000 3.348357 -0.333406 1.566067 -3.122708 0.494628
    7 -0.071921 -8.506549 -0.104134 0.094333 0.306330 0.198753
    8 -0.488518 -2.755602 -0.228260 -1.457408 0.104759 -0.238184
    9 0.039887 -1.514947 0.010322 -1.075876 -0.013830 0.022256
    10 0.028786 -1.157765 -0.124675 -1.003307 -0.014993 0.021057
    11 0.250027 -2.820665 -0.238396 -1.168725 0.085537 -0.258430
    12 -0.049759 -1.598510 0.045790 -1.359141 0.003931 -0.037238
    13 -0.034142 -1.156125 0.061344 -0.691853 0.008173 -0.016970
    14 0.957766 -2.746780 -0.090302 0.028344 0.062434 -0.143124
    15 -0.033420 -1.397129 -0.034695 -1.244450 -0.002601 -0.059409
    16 -0.022360 -0.957436 -0.000748 -0.722290 0.007418 -0.035103
    17 -1.180681 -2.507217 -0.193859 -1.252043 0.293314 -0.285646
    18 -0.024967 -1.123934 0.017597 -0.847455 0.006148 -0.036252
    19 -0.020057 -0.906594 0.025715 -0.870080 0.006999 -0.035235
    20 0.603042 -1.205090 0.189285 0.109296 -0.907913 -0.382291
    21 1.469519 -0.228043 0.059698 0.236800 -0.154122 -0.818621
    22 1.003112 -0.182979 0.044010 0.092266 -0.246466 -1.058321
    23 0.120153 -0.050270 -0.054489 0.339271 3.123980 1.491167
    24 -2.333332 -6.418796 -5.220193 -1.070177 -5.236692 -0.784620
    25 -0.078843 -8.360572 0.006260 -0.667791 -0.870017 0.662642
    26 0.447953 -2.798986 -0.200443 -0.311821 0.049958 0.096459
    27 -0.032909 -1.499736 0.016659 -1.030459 0.020949 -0.016537
    28 -0.027022 -1.084733 -0.024116 -0.250539 0.006951 -0.001786
    29 -0.249534 -2.846964 -0.174213 -0.032941 0.125342 0.030590
    30 0.043235 -1.656596 0.072574 -1.247726 -0.020080 0.004759
    31 0.031729 -1.160830 0.058838 -0.228217 -0.001335 0.006982
    32 -0.963866 -2.785145 -0.085350 -0.079039 0.297402 -0.009606
    33 0.028479 -1.403067 -0.017167 -0.886235 -0.022148 -0.032538
    34 0.021413 -0.953875 0.020046 -0.231814 -0.002924 -0.010223
    35 1.164475 -2.543940 -0.170330 -0.350293 -0.013773 0.057711
    36 0.024032 -1.132948 0.002182 -0.689691 0.002061 0.036997
    37 0.014898 -0.891802 -0.019848 -0.535411 -0.001606 0.026390
    38 -0.586770 -1.264477 0.200161 0.134574 -0.602308 -2.585623
    39 1.546273 0.039149 0.016848 -0.010047 -0.003611 0.561285
    40 1.114041 0.048424 -0.005766 -0.015032 -0.033791 0.604336
    41 -0.139399 -0.111698 0.014397 0.809524 -0.223368 1.261653
    42 -6.092832 6.268786 -0.376156 1.579749 -0.022389 -0.904246
  time 23
    0 4.847804 -12.492569 -5.558763 0.502099 -1.275575 1.080206
    1 2.402625 -0.000001 -1.436759 1.570796 0.285022 3.141592
    2 3.404631 1.320370 5.094492 0.000008 0.000011 1.253012
    3 -48.614594 -2.156932 -0.465896 0.310757 1.066653 -4.530667
    4 -0.002752 5.280146 -5.886279 0.000000 0.000000 0.278312
    5 5.431079 -6.373865 -3.784253 1.162686 -1.993201 -1.526060
    6 7.015168 4.750744 -0.302155 1.565205 -3.126639 0.683672
    7 -0.083640 -8.475298 -0.115853 0.022581 0.215234 0.033291
    8 -0.488518 -2.755602 -0.228260 -1.457408 0.104759 -0.238184
    9 0.039887 -1.514947 0.010322 -1.059830 -0.013806 0.021825
    10 0.028786 -1.157765 -0.120768 -0.995961 -0.014969 0.020853
    11 0.250027 -2.820665 -0.238396 -1.168725 0.085537 -0.258430
    12 -0.049759 -1.598510 0.049696 -1.343111 0.004183 -0.036843
    13 -0.034142 -1.156125 0.061344 -0.684513 0.008150 -0.016754
    14 0.957766 -2.746780 -0.090302 0.028344 0.062434 -0.143124
    15 -0.033420 -1.397129 -0.034695 -1.244450 -0.002601 -0.059409
    16 -0.022360 -0.957436 -0.000748 -0.722290 0.007418 -0.035103
    17 -1.180681 -2.507217 -0.193859 -1.252043 0.293314 -0.285646
    18 -0.024967 -1.123934 0.017597 -0.831426 0.006316 -0.035545
    19 -0.020057 -0.906594 0.029622 -0.996509 0.005453 -0.040796
    20 0.603042 -1.205090 0.189285 0.109296 -0.907913 -0.382291
    21 1.469519 -0.228043 0.059698 0.236800 -0.154122 -0.818621
    22 1.003112 -0.182979 0.044010 0.092266 -0.246466 -1.058321
    23 0.120153 -0.050270 -0.054489 0.339271 3.123980 1.491167
    24 -2.231766 -6.035972 -5.884275 -1.034666 -5.199786 -0.734203
    25 -0.145251 -8.387917 0.014073 -0.818489 -1.112961 0.908175
    26 0.447953 -2.798986 -0.200443 -0.311821 0.049958 0.096459
    27 -0.032909 -1.499736 0.016659 -1.030459 0.020949 -0.016537
    28 -0.027022 -1.084733 -0.024116 -0.250539 0.006951 -0.001786
    29 -0.249534 -2.846964 -0.174213 -0.032941 0.125342 0.030590
    30 0.043235 -1.656596 0.072574 -1.247726 -0.020080 0.004759
    31 0.031729 -1.160830 0.058838 -0.228217 -0.001335 0.006982
    32 -0.963866 -2.785145 -0.085350 -0.079039 0.297402 -0.009606
    33 0.028479 -1.403067 -0.017167 -0.886235 -0.022148 -0.032538
    34 0.021413 -0.953875 0.020046 -0.231814 -0.002924 -0.010223
    35 1.164475 -2.543940 -0.170330 -0.350293 -0.013773 0.057711
    36 0.024032 -1.132948 0.002182 -0.689691 0.002061 0.036997
    37 0.014898 -0.891802 -0.019848 -0.535411 -0.001606 0.026390
    38 -0.586770 -1.264477 0.200161 0.134574 -0.602308 -2.585623
    39 1.546273 0.039149 0.016848 -0.010047 -0.003611 0.561285
    40 1.114041 0.048424 -0.005766 -0.015032 -0.033791 0.604336
    41 -0.139399 -0.111698 0.014397 0.869003 -0.199251 1.262156
    42 -6.549877 5.721895 -0.391781 1.578767 -0.024486 -0.817533
  time 24
    0 4.765770 -12.445692 -7.035371 0.571118 -1.498451 1.024567
    1 2.402625 -0.000001 -1.436759 1.570796 0.285022 3.141592
    2 3.404631 1.320370 5.094492 0.000008 0.000011 1.253012
    3 -48.614594 -2.156932 -0.465896 0.310757 1.066653 -4.530667
    4 -0.002752 5.280146 -5.886279 0.000000 0.000000 0.278312
    5 5.356858 -5.944165 -3.264706 1.048453 -1.905428 -1.410417
    6 6.397962 5.684366 -0.278717 1.565013 -3.129611 0.821363
    7 -0.095359 -8.451860 -0.131479 -0.018898 0.137365 -0.080912
    8 -0.488518 -2.755602 -0.228260 -1.457408 0.104759 -0.238184
    9 0.039887 -1.511041 0.010322 -1.048267 -0.013782 0.021513
    10 0.028786 -1.157765 -0.120768 -0.990763 -0.014957 0.020721
    11 0.250027 -2.820665 -0.238396 -1.168725 0.085537 -0.258430
    12 -0.049759 -1.598510 0.049696 -1.331547 0.004362 -0.036555
    13 -0.034142 -1.156125 0.061344 -0.679287 0.008126 -0.016599
    14 0.957766 -2.746780 -0.090302 0.028344 0.062434 -0.143124
    15 -0.033420 -1.397129 -0.034695 -1.244450 -0.002601 -0.059409
    16 -0.022360 -0.957436 -0.000748 -0.722290 0.007418 -0.035103
    17 -1.180681 -2.507217 -0.193859 -1.252043 0.293314 -0.285646
    18 -0.024967 -1.123934 0.017597 -0.819857 0.006436 -0.035030
    19 -0.020057 -0.906594 0.033528 -1.086330 0.003931 -0.044607
    20 0.603042 -1.205090 0.189285 0.109296 -0.907913 -0.382291
    21 1.469519 -0.228043 0.059698 0.236800 -0.154122 -0.818621
    22 1.003112 -0.182979 0.044010 0.092266 -0.246466 -1.058321
    23 0.120153 -0.050270 -0.054489 0.339271 3.123980 1.491167
    24 -2.173171 -5.594552 -6.454605 -1.021310 -5.188443 -0.708804
    25 -0.192127 -8.415261 0.006260 -1.136128 -1.263428 1.300554
    26 0.447953 -2.798986 -0.200443 -0.311821 0.049958 0.096459
    27 -0.032909 -1.499736 0.016659 -1.030459 0.020949 -0.016537
    28 -0.027022 -1.084733 -0.024116 -0.250539 0.006951 -0.001786
    29 -0.249534 -2.846964 -0.174213 -0.032941 0.125342 0.030590
    30 0.043235 -1.656596 0.072574 -1.247726 -0.020080 0.004759
    31 0.031729 -1.160830 0.058838 -0.228217 -0.001335 0.006982
    32 -0.963866 -2.785145 -0.085350 -0.079039 0.297402 -0.009606
    33 0.028479 -1.403067 -0.017167 -0.886235 -0.022148 -0.032538
    34 0.021413 -0.953875 0.020046 -0.231814 -0.002924 -0.010223
    35 1.164475 -2.543940 -0.170330 -0.350293 -0.013773 0.057711
    36 0.024032 -1.132948 0.002182 -0.689691 0.002061 0.036997
    37 0.014898 -0.891802 -0.019848 -0.535411 -0.001606 0.026390
    38 -0.586770 -1.264477 0.200161 0.134574 -0.602308 -2.585623
    39 1.546273 0.039149 0.016848 -0.010047 -0.003611 0.561285
    40 1.114041 0.048424 -0.005766 -0.015032 -0.033791 0.604336
    41 -0.139399 -0.111698 0.014397 0.928482 -0.175152 1.262640
    42 -7.057705 4.979684 -0.411313 1.577293 -0.026991 -0.708560
  time 25
    0 4.750145 -12.359752 -7.578356 1.017111 -1.586118 0.583657
    1 2.402625 -0.000001 -1.436759 1.570796 0.285022 3.141592
    2 3.404631 1.320370 5.094492 0.000008 0.000011 1.253012
    3 -48.614594 -2.156932 -0.465896 0.310757 1.066653 -4.530667
    4 -0.002752 5.280146 -5.886279 0.000000 0.000000 0.278312
    5 5.302169 -5.791816 -3.077201 0.991431 -1.875577 -1.352835
    6 6.144048 5.996875 -0.266998 1.565109 -3.130666 0.870846
    7 -0.099266 -8.440141 -0.139291 -0.031290 0.093368 -0.120560
    8 -0.488518 -2.755602 -0.228260 -1.457408 0.104759 -0.238184
    9 0.039887 -1.511041 0.010322 -1.044795 -0.013782 0.021417
    10 0.028786 -1.157765 -0.120768 -0.989331 -0.014945 0.020685
    11 0.250027 -2.820665 -0.238396 -1.168725 0.085537 -0.258430
    12 -0.049759 -1.598510 0.049696 -1.328064 0.004422 -0.036459
    13 -0.034142 -1.156125 0.061344 -0.677843 0.008126 -0.016563
    14 0.957766 -2.746780 -0.090302 0.028344 0.062434 -0.143124
    15 -0.033420 -1.397129 -0.034695 -1.244450 -0.002601 -0.059409
    16 -0.022360 -0.957436 -0.000748 -0.722290 0.007418 -0.035103
    17 -1.180681 -2.507217 -0.193859 -1.252043 0.293314 -0.285646
    18 -0.024967 -1.123934 0.017597 -0.816400 0.006472 -0.034874
    19 -0.020057 -0.906594 0.033528 -1.111205 0.003452 -0.045625
    20 0.603042 -1.205090 0.189285 0.109296 -0.907913 -0.382291
    21 1.469519 -0.228043 0.059698 0.236800 -0.154122 -0.818621
    22 1.003112 -0.182979 0.044010 0.092266 -0.246466 -1.058321
    23 0.120153 -0.050270 -0.054489 0.339271 3.123980 1.491167
    24 -2.169264 -5.422672 -6.646017 -1.011028 -5.181217 -0.694958
    25 -0.207753 -8.423074 -0.005459 -1.388389 -1.286298 1.566934
    26 0.447953 -2.798986 -0.200443 -0.311821 0.049958 0.096459
    27 -0.032909 -1.499736 0.016659 -1.030459 0.020949 -0.016537
    28 -0.027022 -1.084733 -0.024116 -0.250539 0.006951 -0.001786
    29 -0.249534 -2.846964 -0.174213 -0.032941 0.125342 0.030590
    30 0.043235 -1.656596 0.072574 -1.247726 -0.020080 0.004759
    31 0.031729 -1.160830 0.058838 -0.228217 -0.001335 0.006982
    32 -0.963866 -2.785145 -0.085350 -0.079039 0.297402 -0.009606
    33 0.028479 -1.403067 -0.017167 -0.886235 -0.022148 -0.032538
    34 0.021413 -0.953875 0.020046 -0.231814 -0.002924 -0.010223
    35 1.164475 -2.543940 -0.170330 -0.350293 -0.013773 0.057711
    36 0.024032 -1.132948 0.002182 -0.689691 0.002061 0.036997
    37 0.014898 -0.891802 -0.019848 -0.535411 -0.001606 0.026390
    38 -0.586770 -1.264477 0.200161 0.134574 -0.602308 -2.585623
    39 1.546273 0.039149 0.016848 -0.010047 -0.003611 0.561285
    40 1.114041 0.048424 -0.005766 -0.015032 -0.033791 0.604336
    41 -0.139399 -0.111698 0.014397 0.987961 -0.151035 1.263143
    42 -7.198335 4.729677 -0.415220 1.576765 -0.027758 -0.673813
  time 26
    0 4.793115 -12.371471 -7.578356 1.514317 -1.606989 0.090167
    1 2.402625 -0.000001 -1.436759 1.570796 0.285022 3.141592
    2 3.404631 1.320370 5.094492 0.000008 0.000011 1.253012
    3 -48.614594 -2.156932 -0.465896 0.310757 1.066653 -4.530667
    4 -0.002752 5.280146 -5.886279 0.000000 0.000000 0.278312
    5 5.306075 -5.795723 -3.085013 0.994087 -1.876871 -1.355513
    6 6.155767 5.985156 -0.270904 1.565109 -3.130570 0.868695
    7 -0.103172 -8.440141 -0.143198 -0.030487 0.069436 -0.118788
    8 -0.488518 -2.755602 -0.228260 -1.457408 0.104759 -0.238184
    9 0.039887 -1.511041 0.010322 -1.046514 -0.013782 0.021465
    10 0.028786 -1.157765 -0.120768 -0.990047 -0.014957 0.020697
    11 0.250027 -2.820665 -0.238396 -1.168725 0.085537 -0.258430
    12 -0.049759 -1.598510 0.049696 -1.329806 0.004398 -0.036507
    13 -0.034142 -1.156125 0.061344 -0.678575 0.008126 -0.016587
    14 0.957766 -2.746780 -0.090302 0.028344 0.062434 -0.143124
    15 -0.033420 -1.397129 -0.034695 -1.244450 -0.002601 -0.059409
    16 -0.022360 -0.957436 -0.000748 -0.722290 0.007418 -0.035103
    17 -1.180681 -2.507217 -0.193859 -1.252043 0.293314 -0.285646
    18 -0.024967 -1.123934 0.017597 -0.818128 0.006460 -0.034946
    19 -0.020057 -0.906594 0.033528 -1.098767 0.003703 -0.045122
    20 0.603042 -1.205090 0.189285 0.109296 -0.907913 -0.382291
    21 1.469519 -0.228043 0.059698 0.236800 -0.154122 -0.818621
    22 1.003112 -0.182979 0.044010 0.092266 -0.246466 -1.058321
    23 0.120153 -0.050270 -0.054489 0.339271 3.123980 1.491167
    24 -2.177077 -5.469548 -6.614766 -0.998573 -5.171971 -0.684168
    25 -0.211659 -8.415261 -0.009365 -1.455978 -1.257540 1.611167
    26 0.447953 -2.798986 -0.200443 -0.311821 0.049958 0.096459
    27 -0.032909 -1.499736 0.016659 -1.030459 0.020949 -0.016537
    28 -0.027022 -1.084733 -0.024116 -0.250539 0.006951 -0.001786
    29 -0.249534 -2.846964 -0.174213 -0.032941 0.125342 0.030590
    30 0.043235 -1.656596 0.072574 -1.247726 -0.020080 0.004759
    31 0.031729 -1.160830 0.058838 -0.228217 -0.001335 0.006982
    32 -0.963866 -2.785145 -0.085350 -0.079039 0.297402 -0.009606
    33 0.028479 -1.403067 -0.017167 -0.886235 -0.022148 -0.032538
    34 0.021413 -0.953875 0.020046 -0.231814 -0.002924 -0.010223
    35 1.164475 -2.543940 -0.170330 -0.350293 -0.013773 0.057711
    36 0.024032 -1.132948 0.002182 -0.689691 0.002061 0.036997
    37 0.014898 -0.891802 -0.019848 -0.535411 -0.001606 0.026390
    38 -0.586770 -1.264477 0.200161 0.134574 -0.602308 -2.585623
    39 1.546273 0.039149 0.016848 -0.010047 -0.003611 0.561285
    40 1.114041 0.048424 -0.005766 -0.015032 -0.033791 0.604336
    41 -0.139399 -0.111698 0.014397 1.047440 -0.126936 1.263628
    42 -7.116301 4.874212 -0.415220 1.577065 -0.027314 -0.693901
  time 27
    0 4.836085 -12.398816 -7.484603 -1.263969 -1.520730 -3.411871
    1 2.402625 -0.000001 -1.436759 1.570796 0.285022 3.141592
    2 3.404631 1.320370 5.094492 0.000008 0.000011 1.253012
    3 -48.614594 -2.156932 -0.465896 0.310757 1.066653 -4.530667
    4 -0.002752 5.280146 -5.886279 0.000000 0.000000 0.278312
    5 5.317794 -5.830880 -3.124077 1.006801 -1.883019 -1.368426
    6 6.210456 5.918748 -0.270904 1.565013 -3.130378 0.858312
    7 -0.107078 -8.444047 -0.143198 -0.027922 0.055648 -0.110583
    8 -0.488518 -2.755602 -0.228260 -1.457408 0.104759 -0.238184
    9 0.039887 -1.511041 0.010322 -1.048267 -0.013782 0.021513
    10 0.028786 -1.157765 -0.120768 -0.990763 -0.014957 0.020721
    11 0.250027 -2.820665 -0.238396 -1.168725 0.085537 -0.258430
    12 -0.049759 -1.598510 0.049696 -1.331547 0.004362 -0.036555
    13 -0.034142 -1.156125 0.061344 -0.679287 0.008126 -0.016599
    14 0.957766 -2.746780 -0.090302 0.028344 0.062434 -0.143124
    15 -0.033420 -1.397129 -0.034695 -1.244450 -0.002601 -0.059409
    16 -0.022360 -0.957436 -0.000748 -0.722290 0.007418 -0.035103
    17 -1.180681 -2.507217 -0.193859 -1.252043 0.293314 -0.285646
    18 -0.024967 -1.123934 0.017597 -0.819857 0.006436 -0.035030
    19 -0.020057 -0.906594 0.033528 -1.086330 0.003931 -0.044607
    20 0.603042 -1.205090 0.189285 0.109296 -0.907913 -0.382291
    21 1.469519 -0.228043 0.059698 0.236800 -0.154122 -0.818621
    22 1.003112 -0.182979 0.044010 0.092266 -0.246466 -1.058321
    23 0.120153 -0.050270 -0.054489 0.339271 3.123980 1.491167
    24 -2.192703 -5.547676 -6.548358 -0.988291 -5.164667 -0.677198
    25 -0.207753 -8.403542 -0.009365 -1.469107 -1.222158 1.602736
    26 0.447953 -2.798986 -0.200443 -0.311821 0.049958 0.096459
    27 -0.032909 -1.499736 0.016659 -1.030459 0.020949 -0.016537
    28 -0.027022 -1.084733 -0.024116 -0.250539 0.006951 -0.001786
    29 -0.249534 -2.846964 -0.174213 -0.032941 0.125342 0.030590
    30 0.043235 -1.656596 0.072574 -1.247726 -0.020080 0.004759
    31 0.031729 -1.160830 0.058838 -0.228217 -0.001335 0.006982
    32 -0.963866 -2.785145 -0.085350 -0.079039 0.297402 -0.009606
    33 0.028479 -1.403067 -0.017167 -0.886235 -0.022148 -0.032538
    34 0.021413 -0.953875 0.020046 -0.231814 -0.002924 -0.010223
    35 1.164475 -2.543940 -0.170330 -0.350293 -0.013773 0.057711
    36 0.024032 -1.132948 0.002182 -0.689691 0.002061 0.036997
    37 0.014898 -0.891802 -0.019848 -0.535411 -0.001606 0.026390
    38 -0.586770 -1.264477 0.200161 0.134574 -0.602308 -2.585623
    39 1.546273 0.039149 0.016848 -0.010047 -0.003611 0.561285
    40 1.114041 0.048424 -0.005766 -0.015032 -0.033791 0.604336
    41 -0.139399 -0.111698 0.014397 1.106919 -0.102819 1.264131
    42 -7.006923 5.057812 -0.411313 1.577460 -0.026739 -0.720117
  time 28
    0 4.855617 -12.418348 -7.390851 -1.024556 -1.513690 -3.650108
    1 2.402625 -0.000001 -1.436759 1.570796 0.285022 3.141592
    2 3.404631 1.320370 5.094492 0.000008 0.000011 1.253012
    3 -48.614594 -2.156932 -0.465896 0.310757 1.066653 -4.530667
    4 -0.002752 5.280146 -5.886279 0.000000 0.000000 0.278312
    5 5.329513 -5.858225 -3.163141 1.018092 -1.888682 -1.379713
    6 6.257333 5.860152 -0.270904 1.565013 -3.130187 0.848864
    7 -0.107078 -8.444047 -0.143198 -0.025609 0.052659 -0.103120
    8 -0.488518 -2.755602 -0.228260 -1.457408 0.104759 -0.238184
    9 0.039887 -1.511041 0.010322 -1.048267 -0.013782 0.021513
    10 0.028786 -1.157765 -0.120768 -0.990763 -0.014957 0.020721
    11 0.250027 -2.820665 -0.238396 -1.168725 0.085537 -0.258430
    12 -0.049759 -1.598510 0.049696 -1.331547 0.004362 -0.036555
    13 -0.034142 -1.156125 0.061344 -0.679287 0.008126 -0.016599
    14 0.957766 -2.746780 -0.090302 0.028344 0.062434 -0.143124
    15 -0.033420 -1.397129 -0.034695 -1.244450 -0.002601 -0.059409
    16 -0.022360 -0.957436 -0.000748 -0.722290 0.007418 -0.035103
    17 -1.180681 -2.507217 -0.193859 -1.252043 0.293314 -0.285646
    18 -0.024967 -1.123934 0.017597 -0.819857 0.006436 -0.035030
    19 -0.020057 -0.906594 0.033528 -1.086330 0.003931 -0.044607
    20 0.603042 -1.205090 0.189285 0.109296 -0.907913 -0.382291
    21 1.469519 -0.228043 0.059698 0.236800 -0.154122 -0.818621
    22 1.003112 -0.182979 0.044010 0.092266 -0.246466 -1.058321
    23 0.120153 -0.050270 -0.054489 0.339271 3.123980 1.491167
    24 -2.212234 -5.617990 -6.485856 -0.983097 -5.161171 -0.676434
    25 -0.207753 -8.395729 -0.013271 -1.459226 -1.187879 1.584719
    26 0.447953 -2.798986 -0.200443 -0.311821 0.049958 0.096459
    27 -0.032909 -1.499736 0.016659 -1.030459 0.020949 -0.016537
    28 -0.027022 -1.084733 -0.024116 -0.250539 0.006951 -0.001786
    29 -0.249534 -2.846964 -0.174213 -0.032941 0.125342 0.030590
    30 0.043235 -1.656596 0.072574 -1.247726 -0.020080 0.004759
    31 0.031729 -1.160830 0.058838 -0.228217 -0.001335 0.006982
    32 -0.963866 -2.785145 -0.085350 -0.079039 0.297402 -0.009606
    33 0.028479 -1.403067 -0.017167 -0.886235 -0.022148 -0.032538
    34 0.021413 -0.953875 0.020046 -0.231814 -0.002924 -0.010223
    35 1.164475 -2.543940 -0.170330 -0.350293 -0.013773 0.057711
    36 0.024032 -1.132948 0.002182 -0.689691 0.002061 0.036997
    37 0.014898 -0.891802 -0.019848 -0.535411 -0.001606 0.026390
    38 -0.586770 -1.264477 0.200161 0.134574 -0.602308 -2.585623
    39 1.546273 0.039149 0.016848 -0.010047 -0.003611 0.561285
    40 1.114041 0.048424 -0.005766 -0.015032 -0.033791 0.604336
    41 -0.139399 -0.111698 0.014397 1.166398 -0.078721 1.264616
    42 -6.920982 5.194535 -0.407407 1.577736 -0.026296 -0.739507
  time 29
    0 4.871242 -12.453505 -7.203345 -0.606803 -1.503544 -4.067786
    1 2.402625 -0.000001 -1.436759 1.570796 0.285022 3.141592
    2 3.404631 1.320370 5.094492 0.000008 0.000011 1.253012
    3 -48.614594 -2.156932 -0.465896 0.310757 1.066653 -4.530667
    4 -0.002752 5.280146 -5.886279 0.000000 0.000000 0.278312
    5 5.349045 -5.916820 -3.229549 1.038016 -1.899441 -1.399800
    6 6.347179 5.746868 -0.274810 1.565013 -3.129803 0.831185
    7 -0.107078 -8.447954 -0.143198 -0.021415 0.059758 -0.089163
    8 -0.488518 -2.755602 -0.228260 -1.457408 0.104759 -0.238184
    9 0.039887 -1.511041 0.010322 -1.048267 -0.013782 0.021513
    10 0.028786 -1.157765 -0.120768 -0.990763 -0.014957 0.020721
    11 0.250027 -2.820665 -0.238396 -1.168725 0.085537 -0.258430
    12 -0.049759 -1.598510 0.049696 -1.331547 0.004362 -0.036555
    13 -0.034142 -1.156125 0.061344 -0.679287 0.008126 -0.016599
    14 0.957766 -2.746780 -0.090302 0.028344 0.062434 -0.143124
    15 -0.033420 -1.397129 -0.034695 -1.244450 -0.002601 -0.059409
    16 -0.022360 -0.957436 -0.000748 -0.722290 0.007418 -0.035103
    17 -1.180681 -2.507217 -0.193859 -1.252043 0.293314 -0.285646
    18 -0.024967 -1.123934 0.017597 -0.819857 0.006436 -0.035030
    19 -0.020057 -0.906594 0.033528 -1.086330 0.003931 -0.044607
    20 0.603042 -1.205090 0.189285 0.109296 -0.907913 -0.382291
    21 1.469519 -0.228043 0.059698 0.236800 -0.154122 -0.818621
    22 1.003112 -0.182979 0.044010 0.092266 -0.246466 -1.058321
    23 0.120153 -0.050270 -0.054489 0.339271 3.123980 1.491167
    24 -2.235673 -5.719556 -6.384291 -0.981030 -5.160005 -0.680253
    25 -0.203846 -8.387917 -0.017178 -1.415280 -1.148764 1.535174
    26 0.447953 -2.798986 -0.200443 -0.311821 0.049958 0.096459
    27 -0.032909 -1.499736 0.016659 -1.030459 0.020949 -0.016537
    28 -0.027022 -1.084733 -0.024116 -0.250539 0.006951 -0.001786
    29 -0.249534 -2.846964 -0.174213 -0.032941 0.125342 0.030590
    30 0.043235 -1.656596 0.072574 -1.247726 -0.020080 0.004759
    31 0.031729 -1.160830 0.058838 -0.228217 -0.001335 0.006982
    32 -0.963866 -2.785145 -0.085350 -0.079039 0.297402 -0.009606
    33 0.028479 -1.403067 -0.017167 -0.886235 -0.022148 -0.032538
    34 0.021413 -0.953875 0.020046 -0.231814 -0.002924 -0.010223
    35 1.164475 -2.543940 -0.170330 -0.350293 -0.013773 0.057711
    36 0.024032 -1.132948 0.002182 -0.689691 0.002061 0.036997
    37 0.014898 -0.891802 -0.019848 -0.535411 -0.001606 0.026390
    38 -0.586770 -1.264477 0.200161 0.134574 -0.602308 -2.585623
    39 1.546273 0.039149 0.016848 -0.010047 -0.003611 0.561285
    40 1.114041 0.048424 -0.005766 -0.015032 -0.033791 0.604336
    41 -0.139399 -0.111698 0.014397 1.225877 -0.054622 1.265101
    42 -6.807698 5.362509 -0.403501 1.578083 -0.025744 -0.764016
  time 30
    0 4.879055 -12.469131 -7.097873 -0.426070 -1.494848 -4.248662
    1 2.402625 -0.000001 -1.436759 1.570796 0.285022 3.141592
    2 3.404631 1.320370 5.094492 0.000008 0.000011 1.253012
    3 -48.614594 -2.156932 -0.465896 0.310757 1.066653 -4.530667
    4 -0.002752 5.280146 -5.886279 0.000000 0.000000 0.278312
    5 5.356858 -5.944165 -3.264706 1.048453 -1.905428 -1.410417
    6 6.397962 5.684366 -0.278717 1.565013 -3.129611 0.821363
    7 -0.107078 -8.447954 -0.143198 -0.019042 0.064840 -0.081503
    8 -0.488518 -2.755602 -0.228260 -1.457408 0.104759 -0.238184
    9 0.039887 -1.511041 0.010322 -1.048267 -0.013782 0.021513
    10 0.028786 -1.157765 -0.120768 -0.990763 -0.014957 0.020721
    11 0.250027 -2.820665 -0.238396 -1.168725 0.085537 -0.258430
    12 -0.049759 -1.598510 0.049696 -1.331547 0.004362 -0.036555
    13 -0.034142 -1.156125 0.061344 -0.679287 0.008126 -0.016599
    14 0.957766 -2.746780 -0.090302 0.028344 0.062434 -0.143124
    15 -0.033420 -1.397129 -0.034695 -1.244450 -0.002601 -0.059409
    16 -0.022360 -0.957436 -0.000748 -0.722290 0.007418 -0.035103
    17 -1.180681 -2.507217 -0.193859 -1.252043 0.293314 -0.285646
    18 -0.024967 -1.123934 0.017597 -0.819857 0.006436 -0.035030
    19 -0.020057 -0.906594 0.033528 -1.086330 0.003931 -0.044607
    20 0.603042 -1.205090 0.189285 0.109296 -0.907913 -0.382291
    21 1.469519 -0.228043 0.059698 0.236800 -0.154122 -0.818621
    22 1.003112 -0.182979 0.044010 0.092266 -0.246466 -1.058321
    23 0.120153 -0.050270 -0.054489 0.339271 3.123980 1.491167
    24 -2.259111 -5.782058 -6.321789 -0.979970 -5.159539 -0.683882
    25 -0.199940 -8.384010 -0.017178 -1.394074 -1.117746 1.514674
    26 0.447953 -2.798986 -0.200443 -0.311821 0.049958 0.096459
    27 -0.032909 -1.499736 0.016659 -1.030459 0.020949 -0.016537
    28 -0.027022 -1.084733 -0.024116 -0.250539 0.006951 -0.001786
    29 -0.249534 -2.846964 -0.174213 -0.032941 0.125342 0.030590
    30 0.043235 -1.656596 0.072574 -1.247726 -0.020080 0.004759
    31 0.031729 -1.160830 0.058838 -0.228217 -0.001335 0.006982
    32 -0.963866 -2.785145 -0.085350 -0.079039 0.297402 -0.009606
    33 0.028479 -1.403067 -0.017167 -0.886235 -0.022148 -0.032538
    34 0.021413 -0.953875 0.020046 -0.231814 -0.002924 -0.010223
    35 1.164475 -2.543940 -0.170330 -0.350293 -0.013773 0.057711
    36 0.024032 -1.132948 0.002182 -0.689691 0.002061 0.036997
    37 0.014898 -0.891802 -0.019848 -0.535411 -0.001606 0.026390
    38 -0.586770 -1.264477 0.200161 0.134574 -0.602308 -2.585623
    39 1.546273 0.039149 0.016848 -0.010047 -0.003611 0.561285
    40 1.114041 0.048424 -0.005766 -0.015032 -0.033791 0.604336
    41 -0.139399 -0.111698 0.014397 1.285356 -0.030523 1.265604
    42 -6.737383 5.464074 -0.399594 1.578275 -0.025397 -0.778985
end
