// Created by Crowbar 0.34.0.0

$ModelName "weapons/tfa_cso/w_savery.mdl"

$BodyGroup "studio"
{
	studio "v_sprifle"
}

$collisionmodel "v_sprifle.smd"
{
	$mass 9
}

$CDMaterials "models\weapons\tfa_cso\savery"

$attachment "0" "root" -0.40 -25.20 0.50 rotate -0 0 0

$Sequence "idle" {
	"anims\idle.smd"
	fps 30
}