version 1
nodes
  0 "root" -1
  1 "epic_dual" 0
  2 "epic_bone_L" 1
  3 "epic_bone_L001" 2
  4 "epic_bone_L002" 2
  5 "epic_bone_L003" 2
  6 "epic_bone_R" 1
  7 "epic_bone_R001" 6
  8 "epic_bone_R002" 6
  9 "epic_bone_R003" 6
  10 "ef_blade_bone01" 0
  11 "ef_blade01" 10
  12 "ef_blade_bone02" 0
  13 "ef_blade02" 12
  14 "ef_blade_bone03" 0
  15 "ef_blade03" 14
  16 "ef_blade_bone04" 0
  17 "ef_blade04" 16
  18 "ef_blade_bone005" 0
  19 "ef_blade005" 18
  20 "ef_blade_bone006" 0
  21 "ef_blade006" 20
  22 "ef_blade_bone007" 0
  23 "ef_blade007" 22
  24 "ef_blade_bone008" 0
  25 "ef_blade008" 24
  26 "ef_blade_bone009" 0
  27 "ef_blade009" 26
  28 "ef_blade_bone010" 0
  29 "ef_blade010" 28
  30 "ef_blade_bone011" 0
  31 "ef_blade011" 30
  32 "ef_blade_bone012" 0
  33 "ef_blade012" 32
  34 "ef_summon_knifeR" -1
  35 "Bfxoner" 34
  36 "Bfxoner02" 35
  37 "Bfxoner03" 35
  38 "Bfxoner07" 35
  39 "Bfxoner08" 35
  40 "ef_summon_knifeL" -1
  41 "Bfxoner009" 40
  42 "Bfxoner010" 41
  43 "Bfxoner011" 41
  44 "Bfxoner012" 41
  45 "Bfxoner013" 41
  46 "Bone01" 0
  47 "Bone_L_Upper" 46
  48 "Bone_Lefthand" 46
  49 "Bone13" 48
  50 "Bone14" 49
  51 "Bone15" 50
  52 "Bone17" 48
  53 "Bone18" 52
  54 "Bone19" 53
  55 "Bone21" 48
  56 "Bone22" 55
  57 "Bone23" 56
  58 "Bone09" 48
  59 "Bone10" 58
  60 "Bone11" 59
  61 "Bone05" 48
  62 "Bone06" 61
  63 "Bone07" 62
  64 "Bone_Se_Hand-L" 48
  65 "Bone04" 0
  66 "Bone_Righthand" 65
  67 "Bone39" 66
  68 "Bone40" 67
  69 "Bone41" 68
  70 "Bone35" 66
  71 "Bone36" 70
  72 "Bone37" 71
  73 "Bone31" 66
  74 "Bone32" 73
  75 "Bone33" 74
  76 "Bone43" 66
  77 "Bone44" 76
  78 "Bone45" 77
  79 "Bone27" 66
  80 "Bone28" 79
  81 "Bone29" 80
  82 "Bone_Se_Hand-R" 66
  83 "Bone_R_Upper" 65
end
skeleton
  time 0
    0 0.000000 0.000000 0.000000 0.000000 0.000000 0.000000
    1 -15.641102 -9.035432 -7.571786 1.346720 1.111327 -0.004615
    2 0.750644 -0.002178 -0.002510 -0.000048 -1.570475 0.000085
    3 7.823532 -0.000001 -2.774512 0.000000 2.280097 0.000000
    4 9.955613 -0.000001 -2.456370 0.000000 1.947516 0.000000
    5 11.527069 -0.000001 -2.206737 0.000000 1.731862 0.000000
    6 -0.751759 -0.003835 -0.001723 -3.141569 -1.570365 -0.000057
    7 7.967486 -0.000008 -2.756911 0.000000 2.276551 0.000000
    8 9.927893 -0.000007 -2.511483 0.000000 1.946382 0.000000
    9 11.471870 -0.000006 -2.109706 0.000000 1.720198 0.000000
    10 363.630920 -36.188972 -417.284973 0.701279 -2.286385 0.009784
    11 -64.204224 37.781082 -94.711914 -1.570796 3.141592 1.308997
    12 -280.114655 -40.574203 -335.931580 0.446195 0.873810 3.131394
    13 78.145020 -9.869530 -97.519104 -1.570796 0.000000 1.832596
    14 -76.630074 -42.649666 -92.850639 -1.560934 0.873810 3.131394
    15 78.144997 -9.869522 -97.519089 1.570796 -3.141592 -1.308996
    16 162.131989 -38.160355 -185.477844 -1.567649 -0.855207 -3.131809
    17 -64.204254 37.781113 -94.711922 -1.570796 3.141592 1.308997
    18 162.131989 -38.160355 -185.477844 -1.567649 -0.855207 -3.131809
    19 -64.204254 37.781113 -94.711922 -1.570796 3.141592 1.308997
    20 -75.698128 -42.649666 -92.198082 -1.560934 0.873810 3.131394
    21 78.144989 -9.869526 -97.519089 1.570796 -3.141592 -1.308996
    22 -76.630074 -42.649666 -92.850639 -1.560934 0.873810 3.131394
    23 78.144997 -9.869522 -97.519089 1.570796 -3.141592 -1.308996
    24 162.131989 -38.160355 -185.477844 -1.567649 -0.855207 -3.131809
    25 -64.204254 37.781113 -94.711922 -1.570796 3.141592 1.308997
    26 76.533279 -38.997852 -87.003876 -1.567649 -0.855207 -3.131809
    27 -64.204247 37.781116 -94.711922 -1.570796 3.141592 1.308997
    28 -76.651741 -42.639935 -93.337265 -1.560934 0.873810 3.131394
    29 78.144997 -9.869541 -97.519089 1.570796 -3.141592 -1.308996
    30 89.868225 -38.867386 -102.344589 -1.567649 -0.855207 -3.131809
    31 -64.204254 37.781113 -94.711922 -1.570796 3.141592 1.308997
    32 -105.267426 -42.320679 -123.191902 -1.560934 0.873810 3.131394
    33 78.144989 -9.869537 -97.519089 1.570796 -3.141592 -1.308996
    34 -53.190844 -20.108797 -9.623953 0.959931 0.000000 0.000000
    35 0.000000 -0.223381 1.775354 0.000000 0.000000 -1.570796
    36 -0.012394 -4.026657 1.394995 0.000000 0.000000 0.000000
    37 -0.017323 3.896206 1.394999 0.000000 0.000000 0.000000
    38 -0.012283 -4.026653 -3.702257 0.000000 0.000000 0.000000
    39 0.010439 3.896206 -3.702265 0.000000 0.000000 0.000000
    40 68.417290 -22.833020 -5.571128 0.523599 0.000000 0.000000
    41 0.000000 -0.223379 1.775353 0.000000 0.000000 -1.570796
    42 -0.012392 -4.026657 1.394996 0.000000 0.000000 0.000000
    43 -0.017323 3.896210 1.394998 0.000000 0.000000 0.000000
    44 -0.012285 -4.026657 -3.702257 0.000000 0.000000 0.000000
    45 0.010439 3.896210 -3.702263 0.000000 0.000000 0.000000
    46 -14.862509 -1.170582 -16.897935 4.998763 -0.580541 1.057357
    47 0.057925 9.371978 -0.141994 -1.522863 -0.001560 -1.408682
    48 -0.001606 -8.557332 -0.002568 0.075184 0.663452 -0.569939
    49 -0.488518 -2.755602 -0.228260 -0.677820 -0.238456 -0.093494
    50 0.039887 -1.479790 0.029854 -1.066457 0.016275 0.002626
    51 0.028786 -1.075731 -0.023109 -0.984114 0.000000 0.000000
    52 0.250027 -2.820665 -0.238396 -0.672294 -0.224756 -0.107256
    53 -0.049759 -1.680544 0.100479 -1.084327 0.000000 -0.000002
    54 -0.034142 -1.148312 0.084782 -1.180073 0.000000 0.000000
    55 0.957766 -2.746780 -0.090302 -0.685376 -0.290752 -0.088318
    56 -0.033420 -1.397129 -0.011257 -0.872207 0.000000 -0.000001
    57 -0.022360 -0.957436 0.018784 -0.640728 0.000000 0.000000
    58 -1.180681 -2.507217 -0.193859 -0.452510 0.057961 -0.001219
    59 -0.024967 -1.291908 0.009784 -1.201444 -0.115783 -0.273248
    60 -0.020057 -0.890968 0.010090 -0.804999 -0.162415 0.086960
    61 0.778828 -1.009771 0.478357 -0.303590 -1.026094 -0.375857
    62 1.535927 0.010246 0.005009 -0.167165 -0.528146 -0.571468
    63 1.100771 0.004527 -0.010679 0.099241 0.038947 -1.000699
    64 0.002962 -0.003394 -0.003706 3.384508 5.950548 -1.103641
    65 -22.271440 -2.363985 -5.728021 -0.269586 -4.087977 0.405854
    66 0.065693 -8.450418 0.017980 -0.855803 -0.892274 1.188563
    67 0.447953 -2.798986 -0.200443 -1.463722 -0.096529 0.118617
    68 -0.032909 -1.480204 0.004940 -0.975560 0.000000 0.000002
    69 -0.027022 -1.076920 -0.020210 -1.130500 0.000000 0.000000
    70 -0.249534 -2.846964 -0.174213 -1.160622 -0.083130 0.082475
    71 0.043235 -1.683941 0.096012 -1.643971 0.002823 -0.000167
    72 0.031729 -1.160830 0.058838 -0.427990 0.000642 0.008372
    73 -0.963866 -2.785145 -0.085350 -1.275251 -0.007972 -0.028649
    74 0.028479 -1.403067 0.006271 -1.093331 0.000000 0.000000
    75 0.021413 -0.957781 0.020046 -0.777463 0.000000 0.000000
    76 1.164475 -2.543940 -0.170330 -1.338179 -0.319341 0.100343
    77 0.024032 -1.129042 0.017807 -0.972175 0.000000 0.000001
    78 0.014898 -0.883989 -0.019848 -0.717050 0.000000 0.000000
    79 -0.586770 -1.264477 0.200161 0.570897 -0.524917 -3.501771
    80 1.522835 0.058681 0.016848 -0.005325 -0.298863 1.306723
    81 1.117947 0.048424 -0.005766 -0.019263 -0.014699 0.950442
    82 -0.069084 -0.111698 0.100337 0.624091 0.212612 1.166105
    83 -1.569257 8.940743 -0.657415 1.632086 -0.044057 -1.550380
  time 1
    0 0.000000 0.000000 0.000000 0.000000 0.000000 0.000000
    1 -15.641102 -9.035432 -7.638194 1.350859 1.110221 -0.000308
    2 0.750644 -0.002178 -0.002510 -0.000048 -1.570804 0.000085
    3 7.823532 -0.000001 -2.774512 0.000000 2.280097 0.000000
    4 9.955613 -0.000001 -2.456370 0.000000 1.947516 0.000000
    5 11.527069 -0.000001 -2.206737 0.000000 1.731862 0.000000
    6 -0.751759 -0.003835 -0.001723 -3.141569 -1.570720 -0.000057
    7 7.967486 -0.000008 -2.756911 0.000000 2.276551 0.000000
    8 9.927893 -0.000007 -2.511483 0.000000 1.946382 0.000000
    9 11.471870 -0.000006 -2.109706 0.000000 1.720198 0.000000
    10 363.630920 -36.188972 -417.284973 0.701279 -2.286385 0.009784
    11 -64.204224 37.781082 -94.711914 -1.570796 3.141592 1.308997
    12 -280.114655 -40.574203 -335.931580 0.446195 0.873810 3.131394
    13 78.145020 -9.869530 -97.519104 -1.570796 0.000000 1.832596
    14 -76.630074 -42.649666 -92.850639 -1.560934 0.873810 3.131394
    15 78.144997 -9.869522 -97.519089 1.570796 -3.141592 -1.308996
    16 162.131989 -38.160355 -185.477844 -1.567649 -0.855207 -3.131809
    17 -64.204254 37.781113 -94.711922 -1.570796 3.141592 1.308997
    18 162.131989 -38.160355 -185.477844 -1.567649 -0.855207 -3.131809
    19 -64.204254 37.781113 -94.711922 -1.570796 3.141592 1.308997
    20 -75.698128 -42.649666 -92.198082 -1.560934 0.873810 3.131394
    21 78.144989 -9.869526 -97.519089 1.570796 -3.141592 -1.308996
    22 -76.630074 -42.649666 -92.850639 -1.560934 0.873810 3.131394
    23 78.144997 -9.869522 -97.519089 1.570796 -3.141592 -1.308996
    24 162.131989 -38.160355 -185.477844 -1.567649 -0.855207 -3.131809
    25 -64.204254 37.781113 -94.711922 -1.570796 3.141592 1.308997
    26 76.533279 -38.997852 -87.003876 -1.567649 -0.855207 -3.131809
    27 -64.204247 37.781116 -94.711922 -1.570796 3.141592 1.308997
    28 -76.651741 -42.639935 -93.337265 -1.560934 0.873810 3.131394
    29 78.144997 -9.869541 -97.519089 1.570796 -3.141592 -1.308996
    30 89.868225 -38.867386 -102.344589 -1.567649 -0.855207 -3.131809
    31 -64.204254 37.781113 -94.711922 -1.570796 3.141592 1.308997
    32 -105.267426 -42.320679 -123.191902 -1.560934 0.873810 3.131394
    33 78.144989 -9.869537 -97.519089 1.570796 -3.141592 -1.308996
    34 -53.190844 -20.108797 -9.623953 0.959931 0.000000 0.000000
    35 0.000000 -0.223381 1.775354 0.000000 0.000000 -1.570796
    36 -0.012394 -4.026657 1.394995 0.000000 0.000000 0.000000
    37 -0.017323 3.896206 1.394999 0.000000 0.000000 0.000000
    38 -0.012283 -4.026653 -3.702257 0.000000 0.000000 0.000000
    39 0.010439 3.896206 -3.702265 0.000000 0.000000 0.000000
    40 68.417290 -22.833020 -5.571128 0.523599 0.000000 0.000000
    41 0.000000 -0.223379 1.775353 0.000000 0.000000 -1.570796
    42 -0.012392 -4.026657 1.394996 0.000000 0.000000 0.000000
    43 -0.017323 3.896210 1.394998 0.000000 0.000000 0.000000
    44 -0.012285 -4.026657 -3.702257 0.000000 0.000000 0.000000
    45 0.010439 3.896210 -3.702263 0.000000 0.000000 0.000000
    46 -14.858603 -1.151050 -16.948718 4.998667 -0.582704 1.058016
    47 0.057925 9.371978 -0.141994 -1.522863 -0.001560 -1.408682
    48 -0.001606 -8.557332 -0.002568 0.075184 0.663452 -0.569939
    49 -0.488518 -2.755602 -0.228260 -0.677820 -0.238456 -0.093494
    50 0.039887 -1.479790 0.029854 -1.066457 0.016275 0.002626
    51 0.028786 -1.075731 -0.023109 -0.984114 0.000000 0.000000
    52 0.250027 -2.820665 -0.238396 -0.672294 -0.224756 -0.107256
    53 -0.049759 -1.680544 0.100479 -1.084327 0.000000 -0.000002
    54 -0.034142 -1.148312 0.084782 -1.180073 0.000000 0.000000
    55 0.957766 -2.746780 -0.090302 -0.685376 -0.290752 -0.088318
    56 -0.033420 -1.397129 -0.011257 -0.872207 0.000000 -0.000001
    57 -0.022360 -0.957436 0.018784 -0.640728 0.000000 0.000000
    58 -1.180681 -2.507217 -0.193859 -0.452510 0.057961 -0.001219
    59 -0.024967 -1.291908 0.009784 -1.201444 -0.115783 -0.273248
    60 -0.020057 -0.890968 0.010090 -0.804999 -0.162415 0.086960
    61 0.778828 -1.009771 0.478357 -0.303590 -1.026094 -0.375857
    62 1.535927 0.010246 0.005009 -0.167165 -0.528146 -0.571468
    63 1.100771 0.004527 -0.010679 0.099241 0.038947 -1.000699
    64 0.002962 -0.003394 -0.003706 3.384508 5.950548 -1.103641
    65 -22.279253 -2.371798 -5.786616 -0.271736 -4.089647 0.404717
    66 0.065693 -8.450418 0.017980 -0.855803 -0.892274 1.188563
    67 0.447953 -2.798986 -0.200443 -1.463722 -0.096529 0.118617
    68 -0.032909 -1.480204 0.004940 -0.975560 0.000000 0.000002
    69 -0.027022 -1.076920 -0.020210 -1.130500 0.000000 0.000000
    70 -0.249534 -2.846964 -0.174213 -1.160622 -0.083130 0.082475
    71 0.043235 -1.683941 0.096012 -1.643971 0.002823 -0.000167
    72 0.031729 -1.160830 0.058838 -0.427990 0.000642 0.008372
    73 -0.963866 -2.785145 -0.085350 -1.275251 -0.007972 -0.028649
    74 0.028479 -1.403067 0.006271 -1.093331 0.000000 0.000000
    75 0.021413 -0.957781 0.020046 -0.777463 0.000000 0.000000
    76 1.164475 -2.543940 -0.170330 -1.338179 -0.319341 0.100343
    77 0.024032 -1.129042 0.017807 -0.972175 0.000000 0.000001
    78 0.014898 -0.883989 -0.019848 -0.717050 0.000000 0.000000
    79 -0.586770 -1.264477 0.200161 0.570897 -0.524917 -3.501771
    80 1.522835 0.058681 0.016848 -0.005325 -0.298863 1.306723
    81 1.117947 0.048424 -0.005766 -0.019263 -0.014699 0.950442
    82 -0.069084 -0.111698 0.100337 0.624091 0.212612 1.166105
    83 -1.569257 8.940743 -0.657415 1.632086 -0.044057 -1.550380
  time 2
    0 0.000000 0.000000 0.000000 0.000000 0.000000 0.000000
    1 -15.703604 -9.035432 -7.634288 1.354926 1.110037 0.003508
    2 0.750644 -0.002178 -0.002510 -0.000048 -1.570475 0.000085
    3 7.823532 -0.000001 -2.774512 0.000000 2.280097 0.000000
    4 9.955613 -0.000001 -2.456370 0.000000 1.947516 0.000000
    5 11.527069 -0.000001 -2.206737 0.000000 1.731862 0.000000
    6 -0.751759 -0.003835 -0.001723 -3.141569 -1.570720 -0.000057
    7 7.967486 -0.000008 -2.756911 0.000000 2.276551 0.000000
    8 9.927893 -0.000007 -2.511483 0.000000 1.946382 0.000000
    9 11.471870 -0.000006 -2.109706 0.000000 1.720198 0.000000
    10 363.630920 -36.188972 -417.284973 0.701279 -2.286385 0.009784
    11 -64.204224 37.781082 -94.711914 -1.570796 3.141592 1.308997
    12 -280.114655 -40.574203 -335.931580 0.446195 0.873810 3.131394
    13 78.145020 -9.869530 -97.519104 -1.570796 0.000000 1.832596
    14 -76.630074 -42.649666 -92.850639 -1.560934 0.873810 3.131394
    15 78.144997 -9.869522 -97.519089 1.570796 -3.141592 -1.308996
    16 162.131989 -38.160355 -185.477844 -1.567649 -0.855207 -3.131809
    17 -64.204254 37.781113 -94.711922 -1.570796 3.141592 1.308997
    18 162.131989 -38.160355 -185.477844 -1.567649 -0.855207 -3.131809
    19 -64.204254 37.781113 -94.711922 -1.570796 3.141592 1.308997
    20 -75.698128 -42.649666 -92.198082 -1.560934 0.873810 3.131394
    21 78.144989 -9.869526 -97.519089 1.570796 -3.141592 -1.308996
    22 -76.630074 -42.649666 -92.850639 -1.560934 0.873810 3.131394
    23 78.144997 -9.869522 -97.519089 1.570796 -3.141592 -1.308996
    24 162.131989 -38.160355 -185.477844 -1.567649 -0.855207 -3.131809
    25 -64.204254 37.781113 -94.711922 -1.570796 3.141592 1.308997
    26 76.533279 -38.997852 -87.003876 -1.567649 -0.855207 -3.131809
    27 -64.204247 37.781116 -94.711922 -1.570796 3.141592 1.308997
    28 -76.651741 -42.639935 -93.337265 -1.560934 0.873810 3.131394
    29 78.144997 -9.869541 -97.519089 1.570796 -3.141592 -1.308996
    30 89.868225 -38.867386 -102.344589 -1.567649 -0.855207 -3.131809
    31 -64.204254 37.781113 -94.711922 -1.570796 3.141592 1.308997
    32 -105.267426 -42.320679 -123.191902 -1.560934 0.873810 3.131394
    33 78.144989 -9.869537 -97.519089 1.570796 -3.141592 -1.308996
    34 -53.190844 -20.108797 -9.623953 0.959931 0.000000 0.000000
    35 0.000000 -0.223381 1.775354 0.000000 0.000000 -1.570796
    36 -0.012394 -4.026657 1.394995 0.000000 0.000000 0.000000
    37 -0.017323 3.896206 1.394999 0.000000 0.000000 0.000000
    38 -0.012283 -4.026653 -3.702257 0.000000 0.000000 0.000000
    39 0.010439 3.896206 -3.702265 0.000000 0.000000 0.000000
    40 68.417290 -22.833020 -5.571128 0.523599 0.000000 0.000000
    41 0.000000 -0.223379 1.775353 0.000000 0.000000 -1.570796
    42 -0.012392 -4.026657 1.394996 0.000000 0.000000 0.000000
    43 -0.017323 3.896210 1.394998 0.000000 0.000000 0.000000
    44 -0.012285 -4.026657 -3.702257 0.000000 0.000000 0.000000
    45 0.010439 3.896210 -3.702263 0.000000 0.000000 0.000000
    46 -14.921105 -1.135424 -16.933092 4.999529 -0.584303 1.057640
    47 0.057925 9.371978 -0.141994 -1.522863 -0.001560 -1.408682
    48 -0.001606 -8.557332 -0.002568 0.075184 0.663452 -0.569939
    49 -0.488518 -2.755602 -0.228260 -0.677820 -0.238456 -0.093494
    50 0.039887 -1.479790 0.029854 -1.066457 0.016275 0.002626
    51 0.028786 -1.075731 -0.023109 -0.984114 0.000000 0.000000
    52 0.250027 -2.820665 -0.238396 -0.672294 -0.224756 -0.107256
    53 -0.049759 -1.680544 0.100479 -1.084327 0.000000 -0.000002
    54 -0.034142 -1.148312 0.084782 -1.180073 0.000000 0.000000
    55 0.957766 -2.746780 -0.090302 -0.685376 -0.290752 -0.088318
    56 -0.033420 -1.397129 -0.011257 -0.872207 0.000000 -0.000001
    57 -0.022360 -0.957436 0.018784 -0.640728 0.000000 0.000000
    58 -1.180681 -2.507217 -0.193859 -0.452510 0.057961 -0.001219
    59 -0.024967 -1.291908 0.009784 -1.201444 -0.115783 -0.273248
    60 -0.020057 -0.890968 0.010090 -0.804999 -0.162415 0.086960
    61 0.778828 -1.009771 0.478357 -0.303590 -1.026094 -0.375857
    62 1.535927 0.010246 0.005009 -0.167165 -0.528146 -0.571468
    63 1.100771 0.004527 -0.010679 0.099241 0.038947 -1.000699
    64 0.002962 -0.003394 -0.003706 3.384508 5.950548 -1.103641
    65 -22.341755 -2.375704 -5.774897 -0.274523 -4.090574 0.402632
    66 0.065693 -8.450418 0.017980 -0.855803 -0.892274 1.188563
    67 0.447953 -2.798986 -0.200443 -1.463722 -0.096529 0.118617
    68 -0.032909 -1.480204 0.004940 -0.975560 0.000000 0.000002
    69 -0.027022 -1.076920 -0.020210 -1.130500 0.000000 0.000000
    70 -0.249534 -2.846964 -0.174213 -1.160622 -0.083130 0.082475
    71 0.043235 -1.683941 0.096012 -1.643971 0.002823 -0.000167
    72 0.031729 -1.160830 0.058838 -0.427990 0.000642 0.008372
    73 -0.963866 -2.785145 -0.085350 -1.275251 -0.007972 -0.028649
    74 0.028479 -1.403067 0.006271 -1.093331 0.000000 0.000000
    75 0.021413 -0.957781 0.020046 -0.777463 0.000000 0.000000
    76 1.164475 -2.543940 -0.170330 -1.338179 -0.319341 0.100343
    77 0.024032 -1.129042 0.017807 -0.972175 0.000000 0.000001
    78 0.014898 -0.883989 -0.019848 -0.717050 0.000000 0.000000
    79 -0.586770 -1.264477 0.200161 0.570897 -0.524917 -3.501771
    80 1.522835 0.058681 0.016848 -0.005325 -0.298863 1.306723
    81 1.117947 0.048424 -0.005766 -0.019263 -0.014699 0.950442
    82 -0.069084 -0.111698 0.100337 0.624091 0.212612 1.166105
    83 -1.569257 8.940743 -0.657415 1.632086 -0.044057 -1.550380
  time 3
    0 0.000000 0.000000 0.000000 0.000000 0.000000 0.000000
    1 -15.645009 -9.094028 -7.630381 1.354926 1.122447 -0.002646
    2 0.750644 -0.002178 -0.002510 -0.000048 -1.571216 0.000085
    3 7.823532 -0.000001 -2.774512 0.000000 2.280097 0.000000
    4 9.955613 -0.000001 -2.456370 0.000000 1.947516 0.000000
    5 11.527069 -0.000001 -2.206737 0.000000 1.731862 0.000000
    6 -0.751759 -0.003835 -0.001723 -3.141569 -1.570720 -0.000057
    7 7.967486 -0.000008 -2.756911 0.000000 2.276551 0.000000
    8 9.927893 -0.000007 -2.511483 0.000000 1.946382 0.000000
    9 11.471870 -0.000006 -2.109706 0.000000 1.720198 0.000000
    10 363.630920 -36.188972 -417.284973 0.701279 -2.286385 0.009784
    11 -64.204224 37.781082 -94.711914 -1.570796 3.141592 1.308997
    12 -280.114655 -40.574203 -335.931580 0.446195 0.873810 3.131394
    13 78.145020 -9.869530 -97.519104 -1.570796 0.000000 1.832596
    14 -76.630074 -42.649666 -92.850639 -1.560934 0.873810 3.131394
    15 78.144997 -9.869522 -97.519089 1.570796 -3.141592 -1.308996
    16 162.131989 -38.160355 -185.477844 -1.567649 -0.855207 -3.131809
    17 -64.204254 37.781113 -94.711922 -1.570796 3.141592 1.308997
    18 162.131989 -38.160355 -185.477844 -1.567649 -0.855207 -3.131809
    19 -64.204254 37.781113 -94.711922 -1.570796 3.141592 1.308997
    20 -75.698128 -42.649666 -92.198082 -1.560934 0.873810 3.131394
    21 78.144989 -9.869526 -97.519089 1.570796 -3.141592 -1.308996
    22 -76.630074 -42.649666 -92.850639 -1.560934 0.873810 3.131394
    23 78.144997 -9.869522 -97.519089 1.570796 -3.141592 -1.308996
    24 162.131989 -38.160355 -185.477844 -1.567649 -0.855207 -3.131809
    25 -64.204254 37.781113 -94.711922 -1.570796 3.141592 1.308997
    26 76.533279 -38.997852 -87.003876 -1.567649 -0.855207 -3.131809
    27 -64.204247 37.781116 -94.711922 -1.570796 3.141592 1.308997
    28 -76.651741 -42.639935 -93.337265 -1.560934 0.873810 3.131394
    29 78.144997 -9.869541 -97.519089 1.570796 -3.141592 -1.308996
    30 89.868225 -38.867386 -102.344589 -1.567649 -0.855207 -3.131809
    31 -64.204254 37.781113 -94.711922 -1.570796 3.141592 1.308997
    32 -105.267426 -42.320679 -123.191902 -1.560934 0.873810 3.131394
    33 78.144989 -9.869537 -97.519089 1.570796 -3.141592 -1.308996
    34 -53.190844 -20.108797 -9.623953 0.959931 0.000000 0.000000
    35 0.000000 -0.223381 1.775354 0.000000 0.000000 -1.570796
    36 -0.012394 -4.026657 1.394995 0.000000 0.000000 0.000000
    37 -0.017323 3.896206 1.394999 0.000000 0.000000 0.000000
    38 -0.012283 -4.026653 -3.702257 0.000000 0.000000 0.000000
    39 0.010439 3.896206 -3.702265 0.000000 0.000000 0.000000
    40 68.417290 -22.833020 -5.571128 0.523599 0.000000 0.000000
    41 0.000000 -0.223379 1.775353 0.000000 0.000000 -1.570796
    42 -0.012392 -4.026657 1.394996 0.000000 0.000000 0.000000
    43 -0.017323 3.896210 1.394998 0.000000 0.000000 0.000000
    44 -0.012285 -4.026657 -3.702257 0.000000 0.000000 0.000000
    45 0.010439 3.896210 -3.702263 0.000000 0.000000 0.000000
    46 -14.928918 -1.197926 -16.936998 5.012454 -0.578190 1.044458
    47 0.057925 9.371978 -0.141994 -1.522863 -0.001560 -1.408682
    48 -0.001606 -8.557332 -0.002568 0.075184 0.663452 -0.569939
    49 -0.488518 -2.755602 -0.228260 -0.677820 -0.238456 -0.093494
    50 0.039887 -1.479790 0.029854 -1.066457 0.016275 0.002626
    51 0.028786 -1.075731 -0.023109 -0.984114 0.000000 0.000000
    52 0.250027 -2.820665 -0.238396 -0.672294 -0.224756 -0.107256
    53 -0.049759 -1.680544 0.100479 -1.084327 0.000000 -0.000002
    54 -0.034142 -1.148312 0.084782 -1.180073 0.000000 0.000000
    55 0.957766 -2.746780 -0.090302 -0.685376 -0.290752 -0.088318
    56 -0.033420 -1.397129 -0.011257 -0.872207 0.000000 -0.000001
    57 -0.022360 -0.957436 0.018784 -0.640728 0.000000 0.000000
    58 -1.180681 -2.507217 -0.193859 -0.452510 0.057961 -0.001219
    59 -0.024967 -1.291908 0.009784 -1.201444 -0.115783 -0.273248
    60 -0.020057 -0.890968 0.010090 -0.804999 -0.162415 0.086960
    61 0.778828 -1.009771 0.478357 -0.303590 -1.026094 -0.375857
    62 1.535927 0.010246 0.005009 -0.167165 -0.528146 -0.571468
    63 1.100771 0.004527 -0.010679 0.099241 0.038947 -1.000699
    64 0.002962 -0.003394 -0.003706 3.384508 5.950548 -1.103641
    65 -22.220657 -2.395236 -5.688957 -0.282645 -4.079075 0.389836
    66 0.065693 -8.450418 0.017980 -0.855803 -0.892274 1.188563
    67 0.447953 -2.798986 -0.200443 -1.463722 -0.096529 0.118617
    68 -0.032909 -1.480204 0.004940 -0.975560 0.000000 0.000002
    69 -0.027022 -1.076920 -0.020210 -1.130500 0.000000 0.000000
    70 -0.249534 -2.846964 -0.174213 -1.160622 -0.083130 0.082475
    71 0.043235 -1.683941 0.096012 -1.643971 0.002823 -0.000167
    72 0.031729 -1.160830 0.058838 -0.427990 0.000642 0.008372
    73 -0.963866 -2.785145 -0.085350 -1.275251 -0.007972 -0.028649
    74 0.028479 -1.403067 0.006271 -1.093331 0.000000 0.000000
    75 0.021413 -0.957781 0.020046 -0.777463 0.000000 0.000000
    76 1.164475 -2.543940 -0.170330 -1.338179 -0.319341 0.100343
    77 0.024032 -1.129042 0.017807 -0.972175 0.000000 0.000001
    78 0.014898 -0.883989 -0.019848 -0.717050 0.000000 0.000000
    79 -0.586770 -1.264477 0.200161 0.570897 -0.524917 -3.501771
    80 1.522835 0.058681 0.016848 -0.005325 -0.298863 1.306723
    81 1.117947 0.048424 -0.005766 -0.019263 -0.014699 0.950442
    82 -0.069084 -0.111698 0.100337 0.624091 0.212612 1.166105
    83 -1.569257 8.940743 -0.657415 1.632086 -0.044057 -1.550380
  time 4
    0 0.000000 0.000000 0.000000 0.000000 0.000000 0.000000
    1 -15.645009 -9.090121 -7.704602 1.354781 1.134796 -0.008985
    2 0.750644 -0.002178 -0.002510 -0.000048 -1.570475 0.000085
    3 7.823532 -0.000001 -2.774512 0.000000 2.280097 0.000000
    4 9.955613 -0.000001 -2.456370 0.000000 1.947516 0.000000
    5 11.527069 -0.000001 -2.206737 0.000000 1.731862 0.000000
    6 -0.751759 -0.003835 -0.001723 -3.141569 -1.570720 -0.000057
    7 7.967486 -0.000008 -2.756911 0.000000 2.276551 0.000000
    8 9.927893 -0.000007 -2.511483 0.000000 1.946382 0.000000
    9 11.471870 -0.000006 -2.109706 0.000000 1.720198 0.000000
    10 363.630920 -36.188972 -417.284973 0.701279 -2.286385 0.009784
    11 -64.204224 37.781082 -94.711914 -1.570796 3.141592 1.308997
    12 -280.114655 -40.574203 -335.931580 0.446195 0.873810 3.131394
    13 78.145020 -9.869530 -97.519104 -1.570796 0.000000 1.832596
    14 -76.630074 -42.649666 -92.850639 -1.560934 0.873810 3.131394
    15 78.144997 -9.869522 -97.519089 1.570796 -3.141592 -1.308996
    16 162.131989 -38.160355 -185.477844 -1.567649 -0.855207 -3.131809
    17 -64.204254 37.781113 -94.711922 -1.570796 3.141592 1.308997
    18 162.131989 -38.160355 -185.477844 -1.567649 -0.855207 -3.131809
    19 -64.204254 37.781113 -94.711922 -1.570796 3.141592 1.308997
    20 -75.698128 -42.649666 -92.198082 -1.560934 0.873810 3.131394
    21 78.144989 -9.869526 -97.519089 1.570796 -3.141592 -1.308996
    22 -76.630074 -42.649666 -92.850639 -1.560934 0.873810 3.131394
    23 78.144997 -9.869522 -97.519089 1.570796 -3.141592 -1.308996
    24 162.131989 -38.160355 -185.477844 -1.567649 -0.855207 -3.131809
    25 -64.204254 37.781113 -94.711922 -1.570796 3.141592 1.308997
    26 76.533279 -38.997852 -87.003876 -1.567649 -0.855207 -3.131809
    27 -64.204247 37.781116 -94.711922 -1.570796 3.141592 1.308997
    28 -76.651741 -42.639935 -93.337265 -1.560934 0.873810 3.131394
    29 78.144997 -9.869541 -97.519089 1.570796 -3.141592 -1.308996
    30 89.868225 -38.867386 -102.344589 -1.567649 -0.855207 -3.131809
    31 -64.204254 37.781113 -94.711922 -1.570796 3.141592 1.308997
    32 -105.267426 -42.320679 -123.191902 -1.560934 0.873810 3.131394
    33 78.144989 -9.869537 -97.519089 1.570796 -3.141592 -1.308996
    34 -53.190844 -20.108797 -9.623953 0.959931 0.000000 0.000000
    35 0.000000 -0.223381 1.775354 0.000000 0.000000 -1.570796
    36 -0.012394 -4.026657 1.394995 0.000000 0.000000 0.000000
    37 -0.017323 3.896206 1.394999 0.000000 0.000000 0.000000
    38 -0.012283 -4.026653 -3.702257 0.000000 0.000000 0.000000
    39 0.010439 3.896206 -3.702265 0.000000 0.000000 0.000000
    40 68.417290 -22.833020 -5.571128 0.523599 0.000000 0.000000
    41 0.000000 -0.223379 1.775353 0.000000 0.000000 -1.570796
    42 -0.012392 -4.026657 1.394996 0.000000 0.000000 0.000000
    43 -0.017323 3.896210 1.394998 0.000000 0.000000 0.000000
    44 -0.012285 -4.026657 -3.702257 0.000000 0.000000 0.000000
    45 0.010439 3.896210 -3.702263 0.000000 0.000000 0.000000
    46 -14.995326 -1.197926 -17.019032 5.025187 -0.571889 1.031277
    47 0.057925 9.371978 -0.141994 -1.522863 -0.001560 -1.408682
    48 -0.001606 -8.557332 -0.002568 0.075184 0.663452 -0.569939
    49 -0.488518 -2.755602 -0.228260 -0.677820 -0.238456 -0.093494
    50 0.039887 -1.479790 0.029854 -1.066457 0.016275 0.002626
    51 0.028786 -1.075731 -0.023109 -0.984114 0.000000 0.000000
    52 0.250027 -2.820665 -0.238396 -0.672294 -0.224756 -0.107256
    53 -0.049759 -1.680544 0.100479 -1.084327 0.000000 -0.000002
    54 -0.034142 -1.148312 0.084782 -1.180073 0.000000 0.000000
    55 0.957766 -2.746780 -0.090302 -0.685376 -0.290752 -0.088318
    56 -0.033420 -1.397129 -0.011257 -0.872207 0.000000 -0.000001
    57 -0.022360 -0.957436 0.018784 -0.640728 0.000000 0.000000
    58 -1.180681 -2.507217 -0.193859 -0.452510 0.057961 -0.001219
    59 -0.024967 -1.291908 0.009784 -1.201444 -0.115783 -0.273248
    60 -0.020057 -0.890968 0.010090 -0.804999 -0.162415 0.086960
    61 0.778828 -1.009771 0.478357 -0.303590 -1.026094 -0.375857
    62 1.535927 0.010246 0.005009 -0.167165 -0.528146 -0.571468
    63 1.100771 0.004527 -0.010679 0.099241 0.038947 -1.000699
    64 0.002962 -0.003394 -0.003706 3.384508 5.950548 -1.103641
    65 -22.150343 -2.348359 -5.681144 -0.290449 -4.067670 0.377419
    66 0.065693 -8.450418 0.017980 -0.855803 -0.892292 1.188563
    67 0.447953 -2.798986 -0.200443 -1.463722 -0.096529 0.118617
    68 -0.032909 -1.480204 0.004940 -0.975560 0.000000 0.000002
    69 -0.027022 -1.076920 -0.020210 -1.130500 0.000000 0.000000
    70 -0.249534 -2.846964 -0.174213 -1.160622 -0.083130 0.082475
    71 0.043235 -1.683941 0.096012 -1.643971 0.002823 -0.000167
    72 0.031729 -1.160830 0.058838 -0.427990 0.000642 0.008372
    73 -0.963866 -2.785145 -0.085350 -1.275251 -0.007972 -0.028649
    74 0.028479 -1.403067 0.006271 -1.093331 0.000000 0.000000
    75 0.021413 -0.957781 0.020046 -0.777463 0.000000 0.000000
    76 1.164475 -2.543940 -0.170330 -1.338179 -0.319341 0.100343
    77 0.024032 -1.129042 0.017807 -0.972175 0.000000 0.000001
    78 0.014898 -0.883989 -0.019848 -0.717050 0.000000 0.000000
    79 -0.586770 -1.264477 0.200161 0.570897 -0.524917 -3.501771
    80 1.522835 0.058681 0.016848 -0.005325 -0.298863 1.306723
    81 1.117947 0.048424 -0.005766 -0.019263 -0.014699 0.950442
    82 -0.069084 -0.111698 0.100337 0.624091 0.212612 1.166105
    83 -1.569257 8.940743 -0.657415 1.632086 -0.044057 -1.550380
  time 5
    0 0.000000 0.000000 0.000000 0.000000 0.000000 0.000000
    1 -15.680166 -9.082308 -7.692883 1.354926 1.112248 0.002400
    2 0.750644 -0.002178 -0.002510 -0.000048 -1.571216 0.000085
    3 7.823532 -0.000001 -2.774512 0.000000 2.280097 0.000000
    4 9.955613 -0.000001 -2.456370 0.000000 1.947516 0.000000
    5 11.527069 -0.000001 -2.206737 0.000000 1.731862 0.000000
    6 -0.751759 -0.003835 -0.001723 -3.141569 -1.570365 -0.000057
    7 7.967486 -0.000008 -2.756911 0.000000 2.276551 0.000000
    8 9.927893 -0.000007 -2.511483 0.000000 1.946382 0.000000
    9 11.471870 -0.000006 -2.109706 0.000000 1.720198 0.000000
    10 363.630920 -36.188972 -417.284973 0.701279 -2.286385 0.009784
    11 -64.204224 37.781082 -94.711914 -1.570796 3.141592 1.308997
    12 -280.114655 -40.574203 -335.931580 0.446195 0.873810 3.131394
    13 78.145020 -9.869530 -97.519104 -1.570796 0.000000 1.832596
    14 -76.630074 -42.649666 -92.850639 -1.560934 0.873810 3.131394
    15 78.144997 -9.869522 -97.519089 1.570796 -3.141592 -1.308996
    16 162.131989 -38.160355 -185.477844 -1.567649 -0.855207 -3.131809
    17 -64.204254 37.781113 -94.711922 -1.570796 3.141592 1.308997
    18 162.131989 -38.160355 -185.477844 -1.567649 -0.855207 -3.131809
    19 -64.204254 37.781113 -94.711922 -1.570796 3.141592 1.308997
    20 -75.698128 -42.649666 -92.198082 -1.560934 0.873810 3.131394
    21 78.144989 -9.869526 -97.519089 1.570796 -3.141592 -1.308996
    22 -76.630074 -42.649666 -92.850639 -1.560934 0.873810 3.131394
    23 78.144997 -9.869522 -97.519089 1.570796 -3.141592 -1.308996
    24 162.131989 -38.160355 -185.477844 -1.567649 -0.855207 -3.131809
    25 -64.204254 37.781113 -94.711922 -1.570796 3.141592 1.308997
    26 76.533279 -38.997852 -87.003876 -1.567649 -0.855207 -3.131809
    27 -64.204247 37.781116 -94.711922 -1.570796 3.141592 1.308997
    28 -76.651741 -42.639935 -93.337265 -1.560934 0.873810 3.131394
    29 78.144997 -9.869541 -97.519089 1.570796 -3.141592 -1.308996
    30 89.868225 -38.867386 -102.344589 -1.567649 -0.855207 -3.131809
    31 -64.204254 37.781113 -94.711922 -1.570796 3.141592 1.308997
    32 -105.267426 -42.320679 -123.191902 -1.560934 0.873810 3.131394
    33 78.144989 -9.869537 -97.519089 1.570796 -3.141592 -1.308996
    34 -53.190844 -20.108797 -9.623953 0.959931 0.000000 0.000000
    35 0.000000 -0.223381 1.775354 0.000000 0.000000 -1.570796
    36 -0.012394 -4.026657 1.394995 0.000000 0.000000 0.000000
    37 -0.017323 3.896206 1.394999 0.000000 0.000000 0.000000
    38 -0.012283 -4.026653 -3.702257 0.000000 0.000000 0.000000
    39 0.010439 3.896206 -3.702265 0.000000 0.000000 0.000000
    40 68.417290 -22.833020 -5.571128 0.523599 0.000000 0.000000
    41 0.000000 -0.223379 1.775353 0.000000 0.000000 -1.570796
    42 -0.012392 -4.026657 1.394996 0.000000 0.000000 0.000000
    43 -0.017323 3.896210 1.394998 0.000000 0.000000 0.000000
    44 -0.012285 -4.026657 -3.702257 0.000000 0.000000 0.000000
    45 0.010439 3.896210 -3.702263 0.000000 0.000000 0.000000
    46 -14.905479 -1.182301 -16.991688 5.001827 -0.583268 1.055286
    47 0.057925 9.371978 -0.141994 -1.522863 -0.001560 -1.408682
    48 -0.001606 -8.557332 -0.002568 0.075184 0.663452 -0.569939
    49 -0.488518 -2.755602 -0.228260 -0.677820 -0.238456 -0.093494
    50 0.039887 -1.479790 0.029854 -1.066457 0.016275 0.002626
    51 0.028786 -1.075731 -0.023109 -0.984114 0.000000 0.000000
    52 0.250027 -2.820665 -0.238396 -0.672294 -0.224756 -0.107256
    53 -0.049759 -1.680544 0.100479 -1.084327 0.000000 -0.000002
    54 -0.034142 -1.148312 0.084782 -1.180073 0.000000 0.000000
    55 0.957766 -2.746780 -0.090302 -0.685376 -0.290752 -0.088318
    56 -0.033420 -1.397129 -0.011257 -0.872207 0.000000 -0.000001
    57 -0.022360 -0.957436 0.018784 -0.640728 0.000000 0.000000
    58 -1.180681 -2.507217 -0.193859 -0.452510 0.057961 -0.001219
    59 -0.024967 -1.291908 0.009784 -1.201444 -0.115783 -0.273248
    60 -0.020057 -0.890968 0.010090 -0.804999 -0.162415 0.086960
    61 0.778828 -1.009771 0.478357 -0.303590 -1.026094 -0.375857
    62 1.535927 0.010246 0.005009 -0.167165 -0.528146 -0.571468
    63 1.100771 0.004527 -0.010679 0.099241 0.038947 -1.000699
    64 0.002962 -0.003394 -0.003706 3.384508 5.950548 -1.103641
    65 -22.306598 -2.414768 -5.821773 -0.275956 -4.088534 0.400357
    66 0.065693 -8.450418 0.017980 -0.855803 -0.892274 1.188563
    67 0.447953 -2.798986 -0.200443 -1.463722 -0.096529 0.118617
    68 -0.032909 -1.480204 0.004940 -0.975560 0.000000 0.000002
    69 -0.027022 -1.076920 -0.020210 -1.130500 0.000000 0.000000
    70 -0.249534 -2.846964 -0.174213 -1.160622 -0.083130 0.082475
    71 0.043235 -1.683941 0.096012 -1.643971 0.002823 -0.000167
    72 0.031729 -1.160830 0.058838 -0.427990 0.000642 0.008372
    73 -0.963866 -2.785145 -0.085350 -1.275251 -0.007972 -0.028649
    74 0.028479 -1.403067 0.006271 -1.093331 0.000000 0.000000
    75 0.021413 -0.957781 0.020046 -0.777463 0.000000 0.000000
    76 1.164475 -2.543940 -0.170330 -1.338179 -0.319341 0.100343
    77 0.024032 -1.129042 0.017807 -0.972175 0.000000 0.000001
    78 0.014898 -0.883989 -0.019848 -0.717050 0.000000 0.000000
    79 -0.586770 -1.264477 0.200161 0.570897 -0.524917 -3.501771
    80 1.522835 0.058681 0.016848 -0.005325 -0.298863 1.306723
    81 1.117947 0.048424 -0.005766 -0.019263 -0.014699 0.950442
    82 -0.069084 -0.111698 0.100337 0.624091 0.212612 1.166105
    83 -1.569257 8.940743 -0.657415 1.632086 -0.044057 -1.550380
  time 6
    0 0.000000 0.000000 0.000000 0.000000 0.000000 0.000000
    1 -15.676260 -9.031526 -7.720228 1.354781 1.133198 -0.008123
    2 0.750644 -0.002178 -0.002510 -0.000048 -1.570475 0.000085
    3 7.823532 -0.000001 -2.774512 0.000000 2.280097 0.000000
    4 9.955613 -0.000001 -2.456370 0.000000 1.947516 0.000000
    5 11.527069 -0.000001 -2.206737 0.000000 1.731862 0.000000
    6 -0.751759 -0.003835 -0.001723 -3.141569 -1.570720 -0.000057
    7 7.967486 -0.000008 -2.756911 0.000000 2.276551 0.000000
    8 9.927893 -0.000007 -2.511483 0.000000 1.946382 0.000000
    9 11.471870 -0.000006 -2.109706 0.000000 1.720198 0.000000
    10 363.630920 -36.188972 -417.284973 0.701279 -2.286385 0.009784
    11 -64.204224 37.781082 -94.711914 -1.570796 3.141592 1.308997
    12 -280.114655 -40.574203 -335.931580 0.446195 0.873810 3.131394
    13 78.145020 -9.869530 -97.519104 -1.570796 0.000000 1.832596
    14 -76.630074 -42.649666 -92.850639 -1.560934 0.873810 3.131394
    15 78.144997 -9.869522 -97.519089 1.570796 -3.141592 -1.308996
    16 162.131989 -38.160355 -185.477844 -1.567649 -0.855207 -3.131809
    17 -64.204254 37.781113 -94.711922 -1.570796 3.141592 1.308997
    18 162.131989 -38.160355 -185.477844 -1.567649 -0.855207 -3.131809
    19 -64.204254 37.781113 -94.711922 -1.570796 3.141592 1.308997
    20 -75.698128 -42.649666 -92.198082 -1.560934 0.873810 3.131394
    21 78.144989 -9.869526 -97.519089 1.570796 -3.141592 -1.308996
    22 -76.630074 -42.649666 -92.850639 -1.560934 0.873810 3.131394
    23 78.144997 -9.869522 -97.519089 1.570796 -3.141592 -1.308996
    24 162.131989 -38.160355 -185.477844 -1.567649 -0.855207 -3.131809
    25 -64.204254 37.781113 -94.711922 -1.570796 3.141592 1.308997
    26 76.533279 -38.997852 -87.003876 -1.567649 -0.855207 -3.131809
    27 -64.204247 37.781116 -94.711922 -1.570796 3.141592 1.308997
    28 -76.651741 -42.639935 -93.337265 -1.560934 0.873810 3.131394
    29 78.144997 -9.869541 -97.519089 1.570796 -3.141592 -1.308996
    30 89.868225 -38.867386 -102.344589 -1.567649 -0.855207 -3.131809
    31 -64.204254 37.781113 -94.711922 -1.570796 3.141592 1.308997
    32 -105.267426 -42.320679 -123.191902 -1.560934 0.873810 3.131394
    33 78.144989 -9.869537 -97.519089 1.570796 -3.141592 -1.308996
    34 -53.190844 -20.108797 -9.623953 0.959931 0.000000 0.000000
    35 0.000000 -0.223381 1.775354 0.000000 0.000000 -1.570796
    36 -0.012394 -4.026657 1.394995 0.000000 0.000000 0.000000
    37 -0.017323 3.896206 1.394999 0.000000 0.000000 0.000000
    38 -0.012283 -4.026653 -3.702257 0.000000 0.000000 0.000000
    39 0.010439 3.896206 -3.702265 0.000000 0.000000 0.000000
    40 68.417290 -22.833020 -5.571128 0.523599 0.000000 0.000000
    41 0.000000 -0.223379 1.775353 0.000000 0.000000 -1.570796
    42 -0.012392 -4.026657 1.394996 0.000000 0.000000 0.000000
    43 -0.017323 3.896210 1.394998 0.000000 0.000000 0.000000
    44 -0.012285 -4.026657 -3.702257 0.000000 0.000000 0.000000
    45 0.010439 3.896210 -3.702263 0.000000 0.000000 0.000000
    46 -15.018764 -1.139331 -17.034658 5.023464 -0.572736 1.033066
    47 0.057925 9.371978 -0.141994 -1.522863 -0.001560 -1.408682
    48 -0.001606 -8.557332 -0.002568 0.075184 0.663452 -0.569939
    49 -0.488518 -2.755602 -0.228260 -0.677820 -0.238456 -0.093494
    50 0.039887 -1.479790 0.029854 -1.066457 0.016275 0.002626
    51 0.028786 -1.075731 -0.023109 -0.984114 0.000000 0.000000
    52 0.250027 -2.820665 -0.238396 -0.672294 -0.224756 -0.107256
    53 -0.049759 -1.680544 0.100479 -1.084327 0.000000 -0.000002
    54 -0.034142 -1.148312 0.084782 -1.180073 0.000000 0.000000
    55 0.957766 -2.746780 -0.090302 -0.685376 -0.290752 -0.088318
    56 -0.033420 -1.397129 -0.011257 -0.872207 0.000000 -0.000001
    57 -0.022360 -0.957436 0.018784 -0.640728 0.000000 0.000000
    58 -1.180681 -2.507217 -0.193859 -0.452510 0.057961 -0.001219
    59 -0.024967 -1.291908 0.009784 -1.201444 -0.115783 -0.273248
    60 -0.020057 -0.890968 0.010090 -0.804999 -0.162415 0.086960
    61 0.778828 -1.009771 0.478357 -0.303590 -1.026094 -0.375857
    62 1.535927 0.010246 0.005009 -0.167165 -0.528146 -0.571468
    63 1.100771 0.004527 -0.010679 0.099241 0.038947 -1.000699
    64 0.002962 -0.003394 -0.003706 3.384508 5.950548 -1.103641
    65 -22.193313 -2.293670 -5.708489 -0.289414 -4.069153 0.379031
    66 0.065693 -8.450418 0.017980 -0.855803 -0.892292 1.188563
    67 0.447953 -2.798986 -0.200443 -1.463722 -0.096529 0.118617
    68 -0.032909 -1.480204 0.004940 -0.975560 0.000000 0.000002
    69 -0.027022 -1.076920 -0.020210 -1.130500 0.000000 0.000000
    70 -0.249534 -2.846964 -0.174213 -1.160622 -0.083130 0.082475
    71 0.043235 -1.683941 0.096012 -1.643971 0.002823 -0.000167
    72 0.031729 -1.160830 0.058838 -0.427990 0.000642 0.008372
    73 -0.963866 -2.785145 -0.085350 -1.275251 -0.007972 -0.028649
    74 0.028479 -1.403067 0.006271 -1.093331 0.000000 0.000000
    75 0.021413 -0.957781 0.020046 -0.777463 0.000000 0.000000
    76 1.164475 -2.543940 -0.170330 -1.338179 -0.319341 0.100343
    77 0.024032 -1.129042 0.017807 -0.972175 0.000000 0.000001
    78 0.014898 -0.883989 -0.019848 -0.717050 0.000000 0.000000
    79 -0.586770 -1.264477 0.200161 0.570897 -0.524917 -3.501771
    80 1.522835 0.058681 0.016848 -0.005325 -0.298863 1.306723
    81 1.117947 0.048424 -0.005766 -0.019263 -0.014699 0.950442
    82 -0.069084 -0.111698 0.100337 0.624091 0.212612 1.166105
    83 -1.569257 8.940743 -0.657415 1.632086 -0.044057 -1.550380
  time 7
    0 0.000000 0.000000 0.000000 0.000000 0.000000 0.000000
    1 -15.703604 -9.035432 -7.634288 1.354926 1.125212 -0.004062
    2 0.750644 -0.002178 -0.002510 -0.000048 -1.571216 0.000085
    3 7.823532 -0.000001 -2.774512 0.000000 2.280097 0.000000
    4 9.955613 -0.000001 -2.456370 0.000000 1.947516 0.000000
    5 11.527069 -0.000001 -2.206737 0.000000 1.731862 0.000000
    6 -0.751759 -0.003835 -0.001723 -3.141569 -1.570720 -0.000057
    7 7.967486 -0.000008 -2.756911 0.000000 2.276551 0.000000
    8 9.927893 -0.000007 -2.511483 0.000000 1.946382 0.000000
    9 11.471870 -0.000006 -2.109706 0.000000 1.720198 0.000000
    10 363.630920 -36.188972 -417.284973 0.701279 -2.286385 0.009784
    11 -64.204224 37.781082 -94.711914 -1.570796 3.141592 1.308997
    12 -280.114655 -40.574203 -335.931580 0.446195 0.873810 3.131394
    13 78.145020 -9.869530 -97.519104 -1.570796 0.000000 1.832596
    14 -76.630074 -42.649666 -92.850639 -1.560934 0.873810 3.131394
    15 78.144997 -9.869522 -97.519089 1.570796 -3.141592 -1.308996
    16 162.131989 -38.160355 -185.477844 -1.567649 -0.855207 -3.131809
    17 -64.204254 37.781113 -94.711922 -1.570796 3.141592 1.308997
    18 162.131989 -38.160355 -185.477844 -1.567649 -0.855207 -3.131809
    19 -64.204254 37.781113 -94.711922 -1.570796 3.141592 1.308997
    20 -75.698128 -42.649666 -92.198082 -1.560934 0.873810 3.131394
    21 78.144989 -9.869526 -97.519089 1.570796 -3.141592 -1.308996
    22 -76.630074 -42.649666 -92.850639 -1.560934 0.873810 3.131394
    23 78.144997 -9.869522 -97.519089 1.570796 -3.141592 -1.308996
    24 162.131989 -38.160355 -185.477844 -1.567649 -0.855207 -3.131809
    25 -64.204254 37.781113 -94.711922 -1.570796 3.141592 1.308997
    26 76.533279 -38.997852 -87.003876 -1.567649 -0.855207 -3.131809
    27 -64.204247 37.781116 -94.711922 -1.570796 3.141592 1.308997
    28 -76.651741 -42.639935 -93.337265 -1.560934 0.873810 3.131394
    29 78.144997 -9.869541 -97.519089 1.570796 -3.141592 -1.308996
    30 89.868225 -38.867386 -102.344589 -1.567649 -0.855207 -3.131809
    31 -64.204254 37.781113 -94.711922 -1.570796 3.141592 1.308997
    32 -105.267426 -42.320679 -123.191902 -1.560934 0.873810 3.131394
    33 78.144989 -9.869537 -97.519089 1.570796 -3.141592 -1.308996
    34 -53.190844 -20.108797 -9.623953 0.959931 0.000000 0.000000
    35 0.000000 -0.223381 1.775354 0.000000 0.000000 -1.570796
    36 -0.012394 -4.026657 1.394995 0.000000 0.000000 0.000000
    37 -0.017323 3.896206 1.394999 0.000000 0.000000 0.000000
    38 -0.012283 -4.026653 -3.702257 0.000000 0.000000 0.000000
    39 0.010439 3.896206 -3.702265 0.000000 0.000000 0.000000
    40 68.417290 -22.833020 -5.571128 0.523599 0.000000 0.000000
    41 0.000000 -0.223379 1.775353 0.000000 0.000000 -1.570796
    42 -0.012392 -4.026657 1.394996 0.000000 0.000000 0.000000
    43 -0.017323 3.896210 1.394998 0.000000 0.000000 0.000000
    44 -0.012285 -4.026657 -3.702257 0.000000 0.000000 0.000000
    45 0.010439 3.896210 -3.702263 0.000000 0.000000 0.000000
    46 -15.003139 -1.139331 -16.940905 5.015326 -0.576780 1.041446
    47 0.057925 9.371978 -0.141994 -1.522863 -0.001560 -1.408682
    48 -0.001606 -8.557332 -0.002568 0.075184 0.663452 -0.569939
    49 -0.488518 -2.755602 -0.228260 -0.677820 -0.238456 -0.093494
    50 0.039887 -1.479790 0.029854 -1.066457 0.016275 0.002626
    51 0.028786 -1.075731 -0.023109 -0.984114 0.000000 0.000000
    52 0.250027 -2.820665 -0.238396 -0.672294 -0.224756 -0.107256
    53 -0.049759 -1.680544 0.100479 -1.084327 0.000000 -0.000002
    54 -0.034142 -1.148312 0.084782 -1.180073 0.000000 0.000000
    55 0.957766 -2.746780 -0.090302 -0.685376 -0.290752 -0.088318
    56 -0.033420 -1.397129 -0.011257 -0.872207 0.000000 -0.000001
    57 -0.022360 -0.957436 0.018784 -0.640728 0.000000 0.000000
    58 -1.180681 -2.507217 -0.193859 -0.452510 0.057961 -0.001219
    59 -0.024967 -1.291908 0.009784 -1.201444 -0.115783 -0.273248
    60 -0.020057 -0.890968 0.010090 -0.804999 -0.162415 0.086960
    61 0.778828 -1.009771 0.478357 -0.303590 -1.026094 -0.375857
    62 1.535927 0.010246 0.005009 -0.167165 -0.528146 -0.571468
    63 1.100771 0.004527 -0.010679 0.099241 0.038947 -1.000699
    64 0.002962 -0.003394 -0.003706 3.384508 5.950548 -1.103641
    65 -22.263628 -2.324921 -5.673331 -0.284397 -4.076572 0.387087
    66 0.065693 -8.450418 0.017980 -0.855803 -0.892274 1.188563
    67 0.447953 -2.798986 -0.200443 -1.463722 -0.096529 0.118617
    68 -0.032909 -1.480204 0.004940 -0.975560 0.000000 0.000002
    69 -0.027022 -1.076920 -0.020210 -1.130500 0.000000 0.000000
    70 -0.249534 -2.846964 -0.174213 -1.160622 -0.083130 0.082475
    71 0.043235 -1.683941 0.096012 -1.643971 0.002823 -0.000167
    72 0.031729 -1.160830 0.058838 -0.427990 0.000642 0.008372
    73 -0.963866 -2.785145 -0.085350 -1.275251 -0.007972 -0.028649
    74 0.028479 -1.403067 0.006271 -1.093331 0.000000 0.000000
    75 0.021413 -0.957781 0.020046 -0.777463 0.000000 0.000000
    76 1.164475 -2.543940 -0.170330 -1.338179 -0.319341 0.100343
    77 0.024032 -1.129042 0.017807 -0.972175 0.000000 0.000001
    78 0.014898 -0.883989 -0.019848 -0.717050 0.000000 0.000000
    79 -0.586770 -1.264477 0.200161 0.570897 -0.524917 -3.501771
    80 1.522835 0.058681 0.016848 -0.005325 -0.298863 1.306723
    81 1.117947 0.048424 -0.005766 -0.019263 -0.014699 0.950442
    82 -0.069084 -0.111698 0.100337 0.624091 0.212612 1.166105
    83 -1.569257 8.940743 -0.657415 1.632086 -0.044057 -1.550380
  time 8
    0 0.000000 0.000000 0.000000 0.000000 0.000000 0.000000
    1 -15.645009 -9.094028 -7.630381 1.354998 1.117225 0.000000
    2 0.750644 -0.002178 -0.002510 -0.000048 -1.570475 0.000085
    3 7.823532 -0.000001 -2.774512 0.000000 2.280097 0.000000
    4 9.955613 -0.000001 -2.456370 0.000000 1.947516 0.000000
    5 11.527069 -0.000001 -2.206737 0.000000 1.731862 0.000000
    6 -0.751759 -0.003835 -0.001723 -3.141569 -1.570365 -0.000057
    7 7.967486 -0.000008 -2.756911 0.000000 2.276551 0.000000
    8 9.927893 -0.000007 -2.511483 0.000000 1.946382 0.000000
    9 11.471870 -0.000006 -2.109706 0.000000 1.720198 0.000000
    10 363.630920 -36.188972 -417.284973 0.701279 -2.286385 0.009784
    11 -64.204224 37.781082 -94.711914 -1.570796 3.141592 1.308997
    12 -280.114655 -40.574203 -335.931580 0.446195 0.873810 3.131394
    13 78.145020 -9.869530 -97.519104 -1.570796 0.000000 1.832596
    14 -76.630074 -42.649666 -92.850639 -1.560934 0.873810 3.131394
    15 78.144997 -9.869522 -97.519089 1.570796 -3.141592 -1.308996
    16 162.131989 -38.160355 -185.477844 -1.567649 -0.855207 -3.131809
    17 -64.204254 37.781113 -94.711922 -1.570796 3.141592 1.308997
    18 162.131989 -38.160355 -185.477844 -1.567649 -0.855207 -3.131809
    19 -64.204254 37.781113 -94.711922 -1.570796 3.141592 1.308997
    20 -75.698128 -42.649666 -92.198082 -1.560934 0.873810 3.131394
    21 78.144989 -9.869526 -97.519089 1.570796 -3.141592 -1.308996
    22 -76.630074 -42.649666 -92.850639 -1.560934 0.873810 3.131394
    23 78.144997 -9.869522 -97.519089 1.570796 -3.141592 -1.308996
    24 162.131989 -38.160355 -185.477844 -1.567649 -0.855207 -3.131809
    25 -64.204254 37.781113 -94.711922 -1.570796 3.141592 1.308997
    26 76.533279 -38.997852 -87.003876 -1.567649 -0.855207 -3.131809
    27 -64.204247 37.781116 -94.711922 -1.570796 3.141592 1.308997
    28 -76.651741 -42.639935 -93.337265 -1.560934 0.873810 3.131394
    29 78.144997 -9.869541 -97.519089 1.570796 -3.141592 -1.308996
    30 89.868225 -38.867386 -102.344589 -1.567649 -0.855207 -3.131809
    31 -64.204254 37.781113 -94.711922 -1.570796 3.141592 1.308997
    32 -105.267426 -42.320679 -123.191902 -1.560934 0.873810 3.131394
    33 78.144989 -9.869537 -97.519089 1.570796 -3.141592 -1.308996
    34 -53.190844 -20.108797 -9.623953 0.959931 0.000000 0.000000
    35 0.000000 -0.223381 1.775354 0.000000 0.000000 -1.570796
    36 -0.012394 -4.026657 1.394995 0.000000 0.000000 0.000000
    37 -0.017323 3.896206 1.394999 0.000000 0.000000 0.000000
    38 -0.012283 -4.026653 -3.702257 0.000000 0.000000 0.000000
    39 0.010439 3.896206 -3.702265 0.000000 0.000000 0.000000
    40 68.417290 -22.833020 -5.571128 0.523599 0.000000 0.000000
    41 0.000000 -0.223379 1.775353 0.000000 0.000000 -1.570796
    42 -0.012392 -4.026657 1.394996 0.000000 0.000000 0.000000
    43 -0.017323 3.896210 1.394998 0.000000 0.000000 0.000000
    44 -0.012285 -4.026657 -3.702257 0.000000 0.000000 0.000000
    45 0.010439 3.896210 -3.702263 0.000000 0.000000 0.000000
    46 -14.901573 -1.197926 -16.933092 5.006997 -0.580823 1.050013
    47 0.057925 9.371978 -0.141994 -1.522863 -0.001560 -1.408682
    48 -0.001606 -8.557332 -0.002568 0.075184 0.663452 -0.569939
    49 -0.488518 -2.755602 -0.228260 -0.677820 -0.238456 -0.093494
    50 0.039887 -1.479790 0.029854 -1.066457 0.016275 0.002626
    51 0.028786 -1.075731 -0.023109 -0.984114 0.000000 0.000000
    52 0.250027 -2.820665 -0.238396 -0.672294 -0.224756 -0.107256
    53 -0.049759 -1.680544 0.100479 -1.084327 0.000000 -0.000002
    54 -0.034142 -1.148312 0.084782 -1.180073 0.000000 0.000000
    55 0.957766 -2.746780 -0.090302 -0.685376 -0.290752 -0.088318
    56 -0.033420 -1.397129 -0.011257 -0.872207 0.000000 -0.000001
    57 -0.022360 -0.957436 0.018784 -0.640728 0.000000 0.000000
    58 -1.180681 -2.507217 -0.193859 -0.452510 0.057961 -0.001219
    59 -0.024967 -1.291908 0.009784 -1.201444 -0.115783 -0.273248
    60 -0.020057 -0.890968 0.010090 -0.804999 -0.162415 0.086960
    61 0.778828 -1.009771 0.478357 -0.303590 -1.026094 -0.375857
    62 1.535927 0.010246 0.005009 -0.167165 -0.528146 -0.571468
    63 1.100771 0.004527 -0.010679 0.099241 0.038947 -1.000699
    64 0.002962 -0.003394 -0.003706 3.384508 5.950548 -1.103641
    65 -22.248002 -2.410861 -5.724114 -0.279301 -4.083897 0.395239
    66 0.065693 -8.450418 0.017980 -0.855803 -0.892274 1.188563
    67 0.447953 -2.798986 -0.200443 -1.463722 -0.096529 0.118617
    68 -0.032909 -1.480204 0.004940 -0.975560 0.000000 0.000002
    69 -0.027022 -1.076920 -0.020210 -1.130500 0.000000 0.000000
    70 -0.249534 -2.846964 -0.174213 -1.160622 -0.083130 0.082475
    71 0.043235 -1.683941 0.096012 -1.643971 0.002823 -0.000167
    72 0.031729 -1.160830 0.058838 -0.427990 0.000642 0.008372
    73 -0.963866 -2.785145 -0.085350 -1.275251 -0.007972 -0.028649
    74 0.028479 -1.403067 0.006271 -1.093331 0.000000 0.000000
    75 0.021413 -0.957781 0.020046 -0.777463 0.000000 0.000000
    76 1.164475 -2.543940 -0.170330 -1.338179 -0.319341 0.100343
    77 0.024032 -1.129042 0.017807 -0.972175 0.000000 0.000001
    78 0.014898 -0.883989 -0.019848 -0.717050 0.000000 0.000000
    79 -0.586770 -1.264477 0.200161 0.570897 -0.524917 -3.501771
    80 1.522835 0.058681 0.016848 -0.005325 -0.298863 1.306723
    81 1.117947 0.048424 -0.005766 -0.019263 -0.014699 0.950442
    82 -0.069084 -0.111698 0.100337 0.624091 0.212612 1.166105
    83 -1.569257 8.940743 -0.657415 1.632086 -0.044057 -1.550380
  time 9
    0 0.000000 0.000000 0.000000 0.000000 0.000000 0.000000
    1 -15.645009 -9.090121 -7.704602 1.354998 1.118945 -0.000862
    2 0.750644 -0.002178 -0.002510 -0.000048 -1.571216 0.000085
    3 7.823532 -0.000001 -2.774512 0.000000 2.280097 0.000000
    4 9.955613 -0.000001 -2.456370 0.000000 1.947516 0.000000
    5 11.527069 -0.000001 -2.206737 0.000000 1.731862 0.000000
    6 -0.751759 -0.003835 -0.001723 -3.141569 -1.570365 -0.000057
    7 7.967486 -0.000008 -2.756911 0.000000 2.276551 0.000000
    8 9.927893 -0.000007 -2.511483 0.000000 1.946382 0.000000
    9 11.471870 -0.000006 -2.109706 0.000000 1.720198 0.000000
    10 363.630920 -36.188972 -417.284973 0.701279 -2.286385 0.009784
    11 -64.204224 37.781082 -94.711914 -1.570796 3.141592 1.308997
    12 -280.114655 -40.574203 -335.931580 0.446195 0.873810 3.131394
    13 78.145020 -9.869530 -97.519104 -1.570796 0.000000 1.832596
    14 -76.630074 -42.649666 -92.850639 -1.560934 0.873810 3.131394
    15 78.144997 -9.869522 -97.519089 1.570796 -3.141592 -1.308996
    16 162.131989 -38.160355 -185.477844 -1.567649 -0.855207 -3.131809
    17 -64.204254 37.781113 -94.711922 -1.570796 3.141592 1.308997
    18 162.131989 -38.160355 -185.477844 -1.567649 -0.855207 -3.131809
    19 -64.204254 37.781113 -94.711922 -1.570796 3.141592 1.308997
    20 -75.698128 -42.649666 -92.198082 -1.560934 0.873810 3.131394
    21 78.144989 -9.869526 -97.519089 1.570796 -3.141592 -1.308996
    22 -76.630074 -42.649666 -92.850639 -1.560934 0.873810 3.131394
    23 78.144997 -9.869522 -97.519089 1.570796 -3.141592 -1.308996
    24 162.131989 -38.160355 -185.477844 -1.567649 -0.855207 -3.131809
    25 -64.204254 37.781113 -94.711922 -1.570796 3.141592 1.308997
    26 76.533279 -38.997852 -87.003876 -1.567649 -0.855207 -3.131809
    27 -64.204247 37.781116 -94.711922 -1.570796 3.141592 1.308997
    28 -76.651741 -42.639935 -93.337265 -1.560934 0.873810 3.131394
    29 78.144997 -9.869541 -97.519089 1.570796 -3.141592 -1.308996
    30 89.868225 -38.867386 -102.344589 -1.567649 -0.855207 -3.131809
    31 -64.204254 37.781113 -94.711922 -1.570796 3.141592 1.308997
    32 -105.267426 -42.320679 -123.191902 -1.560934 0.873810 3.131394
    33 78.144989 -9.869537 -97.519089 1.570796 -3.141592 -1.308996
    34 -53.190844 -20.108797 -9.623953 0.959931 0.000000 0.000000
    35 0.000000 -0.223381 1.775354 0.000000 0.000000 -1.570796
    36 -0.012394 -4.026657 1.394995 0.000000 0.000000 0.000000
    37 -0.017323 3.896206 1.394999 0.000000 0.000000 0.000000
    38 -0.012283 -4.026653 -3.702257 0.000000 0.000000 0.000000
    39 0.010439 3.896206 -3.702265 0.000000 0.000000 0.000000
    40 68.417290 -22.833020 -5.571128 0.523599 0.000000 0.000000
    41 0.000000 -0.223379 1.775353 0.000000 0.000000 -1.570796
    42 -0.012392 -4.026657 1.394996 0.000000 0.000000 0.000000
    43 -0.017323 3.896210 1.394998 0.000000 0.000000 0.000000
    44 -0.012285 -4.026657 -3.702257 0.000000 0.000000 0.000000
    45 0.010439 3.896210 -3.702263 0.000000 0.000000 0.000000
    46 -14.909386 -1.194020 -17.007313 5.008816 -0.579977 1.048130
    47 0.057925 9.371978 -0.141994 -1.522863 -0.001560 -1.408682
    48 -0.001606 -8.557332 -0.002568 0.075184 0.663452 -0.569939
    49 -0.488518 -2.755602 -0.228260 -0.677820 -0.238456 -0.093494
    50 0.039887 -1.479790 0.029854 -1.066457 0.016275 0.002626
    51 0.028786 -1.075731 -0.023109 -0.984114 0.000000 0.000000
    52 0.250027 -2.820665 -0.238396 -0.672294 -0.224756 -0.107256
    53 -0.049759 -1.680544 0.100479 -1.084327 0.000000 -0.000002
    54 -0.034142 -1.148312 0.084782 -1.180073 0.000000 0.000000
    55 0.957766 -2.746780 -0.090302 -0.685376 -0.290752 -0.088318
    56 -0.033420 -1.397129 -0.011257 -0.872207 0.000000 -0.000001
    57 -0.022360 -0.957436 0.018784 -0.640728 0.000000 0.000000
    58 -1.180681 -2.507217 -0.193859 -0.452510 0.057961 -0.001219
    59 -0.024967 -1.291908 0.009784 -1.201444 -0.115783 -0.273248
    60 -0.020057 -0.890968 0.010090 -0.804999 -0.162415 0.086960
    61 0.778828 -1.009771 0.478357 -0.303590 -1.026094 -0.375857
    62 1.535927 0.010246 0.005009 -0.167165 -0.528146 -0.571468
    63 1.100771 0.004527 -0.010679 0.099241 0.038947 -1.000699
    64 0.002962 -0.003394 -0.003706 3.384508 5.950548 -1.103641
    65 -22.236283 -2.403049 -5.786616 -0.280416 -4.082414 0.393438
    66 0.065693 -8.450418 0.017980 -0.855803 -0.892274 1.188563
    67 0.447953 -2.798986 -0.200443 -1.463722 -0.096529 0.118617
    68 -0.032909 -1.480204 0.004940 -0.975560 0.000000 0.000002
    69 -0.027022 -1.076920 -0.020210 -1.130500 0.000000 0.000000
    70 -0.249534 -2.846964 -0.174213 -1.160622 -0.083130 0.082475
    71 0.043235 -1.683941 0.096012 -1.643971 0.002823 -0.000167
    72 0.031729 -1.160830 0.058838 -0.427990 0.000642 0.008372
    73 -0.963866 -2.785145 -0.085350 -1.275251 -0.007972 -0.028649
    74 0.028479 -1.403067 0.006271 -1.093331 0.000000 0.000000
    75 0.021413 -0.957781 0.020046 -0.777463 0.000000 0.000000
    76 1.164475 -2.543940 -0.170330 -1.338179 -0.319341 0.100343
    77 0.024032 -1.129042 0.017807 -0.972175 0.000000 0.000001
    78 0.014898 -0.883989 -0.019848 -0.717050 0.000000 0.000000
    79 -0.586770 -1.264477 0.200161 0.570897 -0.524917 -3.501771
    80 1.522835 0.058681 0.016848 -0.005325 -0.298863 1.306723
    81 1.117947 0.048424 -0.005766 -0.019263 -0.014699 0.950442
    82 -0.069084 -0.111698 0.100337 0.624091 0.212612 1.166105
    83 -1.569257 8.940743 -0.657415 1.632086 -0.044057 -1.550380
  time 10
    0 0.000000 0.000000 0.000000 0.000000 0.000000 0.000000
    1 -15.641102 -9.035432 -7.571786 1.346720 1.111327 -0.004615
    2 0.750644 -0.002178 -0.002510 -0.000048 -1.570475 0.000085
    3 7.823532 -0.000001 -2.774512 0.000000 2.280097 0.000000
    4 9.955613 -0.000001 -2.456370 0.000000 1.947516 0.000000
    5 11.527069 -0.000001 -2.206737 0.000000 1.731862 0.000000
    6 -0.751759 -0.003835 -0.001723 -3.141569 -1.570365 -0.000057
    7 7.967486 -0.000008 -2.756911 0.000000 2.276551 0.000000
    8 9.927893 -0.000007 -2.511483 0.000000 1.946382 0.000000
    9 11.471870 -0.000006 -2.109706 0.000000 1.720198 0.000000
    10 363.630920 -36.188972 -417.284973 0.701279 -2.286385 0.009784
    11 -64.204224 37.781082 -94.711914 -1.570796 3.141592 1.308997
    12 -280.114655 -40.574203 -335.931580 0.446195 0.873810 3.131394
    13 78.145020 -9.869530 -97.519104 -1.570796 0.000000 1.832596
    14 -76.630074 -42.649666 -92.850639 -1.560934 0.873810 3.131394
    15 78.144997 -9.869522 -97.519089 1.570796 -3.141592 -1.308996
    16 162.131989 -38.160355 -185.477844 -1.567649 -0.855207 -3.131809
    17 -64.204254 37.781113 -94.711922 -1.570796 3.141592 1.308997
    18 162.131989 -38.160355 -185.477844 -1.567649 -0.855207 -3.131809
    19 -64.204254 37.781113 -94.711922 -1.570796 3.141592 1.308997
    20 -75.698128 -42.649666 -92.198082 -1.560934 0.873810 3.131394
    21 78.144989 -9.869526 -97.519089 1.570796 -3.141592 -1.308996
    22 -76.630074 -42.649666 -92.850639 -1.560934 0.873810 3.131394
    23 78.144997 -9.869522 -97.519089 1.570796 -3.141592 -1.308996
    24 162.131989 -38.160355 -185.477844 -1.567649 -0.855207 -3.131809
    25 -64.204254 37.781113 -94.711922 -1.570796 3.141592 1.308997
    26 76.533279 -38.997852 -87.003876 -1.567649 -0.855207 -3.131809
    27 -64.204247 37.781116 -94.711922 -1.570796 3.141592 1.308997
    28 -76.651741 -42.639935 -93.337265 -1.560934 0.873810 3.131394
    29 78.144997 -9.869541 -97.519089 1.570796 -3.141592 -1.308996
    30 89.868225 -38.867386 -102.344589 -1.567649 -0.855207 -3.131809
    31 -64.204254 37.781113 -94.711922 -1.570796 3.141592 1.308997
    32 -105.267426 -42.320679 -123.191902 -1.560934 0.873810 3.131394
    33 78.144989 -9.869537 -97.519089 1.570796 -3.141592 -1.308996
    34 -53.190844 -20.108797 -9.623953 0.959931 0.000000 0.000000
    35 0.000000 -0.223381 1.775354 0.000000 0.000000 -1.570796
    36 -0.012394 -4.026657 1.394995 0.000000 0.000000 0.000000
    37 -0.017323 3.896206 1.394999 0.000000 0.000000 0.000000
    38 -0.012283 -4.026653 -3.702257 0.000000 0.000000 0.000000
    39 0.010439 3.896206 -3.702265 0.000000 0.000000 0.000000
    40 68.417290 -22.833020 -5.571128 0.523599 0.000000 0.000000
    41 0.000000 -0.223379 1.775353 0.000000 0.000000 -1.570796
    42 -0.012392 -4.026657 1.394996 0.000000 0.000000 0.000000
    43 -0.017323 3.896210 1.394998 0.000000 0.000000 0.000000
    44 -0.012285 -4.026657 -3.702257 0.000000 0.000000 0.000000
    45 0.010439 3.896210 -3.702263 0.000000 0.000000 0.000000
    46 -14.862509 -1.170582 -16.897935 4.998763 -0.580541 1.057357
    47 0.057925 9.371978 -0.141994 -1.522863 -0.001560 -1.408682
    48 -0.001606 -8.557332 -0.002568 0.075184 0.663452 -0.569939
    49 -0.488518 -2.755602 -0.228260 -0.677820 -0.238456 -0.093494
    50 0.039887 -1.479790 0.029854 -1.066457 0.016275 0.002626
    51 0.028786 -1.075731 -0.023109 -0.984114 0.000000 0.000000
    52 0.250027 -2.820665 -0.238396 -0.672294 -0.224756 -0.107256
    53 -0.049759 -1.680544 0.100479 -1.084327 0.000000 -0.000002
    54 -0.034142 -1.148312 0.084782 -1.180073 0.000000 0.000000
    55 0.957766 -2.746780 -0.090302 -0.685376 -0.290752 -0.088318
    56 -0.033420 -1.397129 -0.011257 -0.872207 0.000000 -0.000001
    57 -0.022360 -0.957436 0.018784 -0.640728 0.000000 0.000000
    58 -1.180681 -2.507217 -0.193859 -0.452510 0.057961 -0.001219
    59 -0.024967 -1.291908 0.009784 -1.201444 -0.115783 -0.273248
    60 -0.020057 -0.890968 0.010090 -0.804999 -0.162415 0.086960
    61 0.778828 -1.009771 0.478357 -0.303590 -1.026094 -0.375857
    62 1.535927 0.010246 0.005009 -0.167165 -0.528146 -0.571468
    63 1.100771 0.004527 -0.010679 0.099241 0.038947 -1.000699
    64 0.002962 -0.003394 -0.003706 3.384508 5.950548 -1.103641
    65 -22.271440 -2.363985 -5.728021 -0.269586 -4.087977 0.405854
    66 0.065693 -8.450418 0.017980 -0.855803 -0.892274 1.188563
    67 0.447953 -2.798986 -0.200443 -1.463722 -0.096529 0.118617
    68 -0.032909 -1.480204 0.004940 -0.975560 0.000000 0.000002
    69 -0.027022 -1.076920 -0.020210 -1.130500 0.000000 0.000000
    70 -0.249534 -2.846964 -0.174213 -1.160622 -0.083130 0.082475
    71 0.043235 -1.683941 0.096012 -1.643971 0.002823 -0.000167
    72 0.031729 -1.160830 0.058838 -0.427990 0.000642 0.008372
    73 -0.963866 -2.785145 -0.085350 -1.275251 -0.007972 -0.028649
    74 0.028479 -1.403067 0.006271 -1.093331 0.000000 0.000000
    75 0.021413 -0.957781 0.020046 -0.777463 0.000000 0.000000
    76 1.164475 -2.543940 -0.170330 -1.338179 -0.319341 0.100343
    77 0.024032 -1.129042 0.017807 -0.972175 0.000000 0.000001
    78 0.014898 -0.883989 -0.019848 -0.717050 0.000000 0.000000
    79 -0.586770 -1.264477 0.200161 0.570897 -0.524917 -3.501771
    80 1.522835 0.058681 0.016848 -0.005325 -0.298863 1.306723
    81 1.117947 0.048424 -0.005766 -0.019263 -0.014699 0.950442
    82 -0.069084 -0.111698 0.100337 0.624091 0.212612 1.166105
    83 -1.569257 8.940743 -0.657415 1.632086 -0.044057 -1.550380
end
