version 1
nodes
  0 "Bone01" -1
  1 "Bone_Lefthand" 0
  2 "Bone_M134" 1
  3 "Bone_Handle_Front" 2
  4 "Bone_Barrel" 3
  5 "Bone_Swich" 3
  6 "Bone_Magazine_Pin" 3
  7 "Bone_Magazine_Ring" 6
  8 "Bone_Bullet00" 2
  9 "Bone_Bullet01" 8
  10 "Bone_Bullet02" 9
  11 "Bone_Bullet03" 10
  12 "Bone_Bullet04" 11
  13 "Bone_Bullet05" 12
  14 "Bone_R_Upper" -1
  15 "Bone04" 14
  16 "Bone_Righthand" 15
  17 "Bone27" 16
  18 "Bone28" 17
  19 "Bone29" 18
  20 "Bone31" 16
  21 "Bone32" 20
  22 "Bone33" 21
  23 "Bone35" 16
  24 "Bone36" 23
  25 "Bone37" 24
  26 "Bone39" 16
  27 "Bone40" 26
  28 "Bone41" 27
  29 "Bone43" 16
  30 "Bone44" 29
  31 "Bone45" 30
  32 "Bone_Se_Hand-R" 16
  33 "Bone05" 1
  34 "Bone06" 33
  35 "Bone07" 34
  36 "Bone21" 1
  37 "Bone22" 36
  38 "Bone23" 37
  39 "Bone17" 1
  40 "Bone18" 39
  41 "Bone19" 40
  42 "Bone13" 1
  43 "Bone14" 42
  44 "Bone15" 43
  45 "Bone09" 1
  46 "Bone10" 45
  47 "Bone11" 46
  48 "Bone_Se_Hand-L" 1
end
skeleton
  time 0
    0 10.325613 4.375819 -0.537458 -0.642555 -2.140264 0.259374
    1 -0.071918 -8.498734 -0.104135 -0.496673 0.396956 -0.581407
    2 0.905662 -2.864319 0.551975 1.139257 1.326962 1.104567
    3 -0.000001 -12.629979 7.375443 -0.467747 0.000000 0.000000
    4 0.000002 -6.940917 -4.748858 0.000000 0.000000 0.000000
    5 -0.000002 14.232141 1.630652 -0.926992 0.000000 0.000000
    6 -3.961862 10.013004 -7.304515 1.570797 0.000000 0.000001
    7 -0.001366 0.001477 3.589092 0.000000 0.000000 0.000000
    8 -3.772527 -8.158155 -1.854879 0.628104 -2.445420 -0.435841
    9 0.062478 0.000000 1.425783 0.000000 -0.354719 0.000000
    10 -0.026257 0.000000 1.400207 0.000000 -0.186690 0.000000
    11 -0.023174 0.000001 1.707046 0.000000 0.000000 0.000000
    12 -0.043764 0.000000 1.936484 0.000000 -0.117869 0.000000
    13 -0.159953 0.000001 2.091296 0.000000 -0.081107 0.000000
    14 -5.175022 -0.191768 -6.988495 1.053041 -1.128608 -2.608545
    15 -0.085749 -0.255579 -8.907138 1.633652 0.597543 -1.486976
    16 0.096946 -8.450419 -0.009364 -0.314942 -0.150754 0.527038
    17 -0.591284 -1.257741 0.232708 -0.332619 -0.727338 -2.455737
    18 1.522835 0.058680 0.016851 0.000916 -0.604842 1.084862
    19 1.117948 0.048424 -0.005765 -0.017752 -0.017886 0.837603
    20 -0.963867 -2.785143 -0.085346 -0.518444 0.249512 0.077714
    21 0.028478 -1.403067 0.006271 -1.982635 0.000000 0.000000
    22 0.021414 -0.957782 0.020047 -0.828378 0.000000 0.000000
    23 -0.249534 -2.846964 -0.174215 -0.582568 0.189339 0.156524
    24 0.043234 -1.683941 0.096014 -2.290566 0.002823 -0.000167
    25 0.031729 -1.160830 0.058836 -0.397437 0.000642 0.008372
    26 0.447952 -2.798983 -0.200441 -1.000615 0.126731 0.357302
    27 -0.032910 -1.480208 0.004936 -2.042292 0.000000 0.000002
    28 -0.027022 -1.076920 -0.020212 -0.781662 0.000000 0.000000
    29 1.164475 -2.543939 -0.170327 -1.029806 -0.013294 0.477914
    30 0.024033 -1.129040 0.017806 -1.505504 0.000000 0.000000
    31 0.014896 -0.883991 -0.019845 -0.844587 0.000000 0.000000
    32 -0.037833 -0.127324 -0.012948 0.291011 0.021783 1.397692
    33 0.583509 -1.197273 0.185379 0.113034 -0.759692 -0.394084
    34 1.535925 0.010247 0.005009 0.007020 -0.011313 -0.779872
    35 1.100770 0.004527 -0.010675 -0.013090 0.009573 -0.763152
    36 0.957766 -2.746777 -0.090301 -0.065910 0.226036 0.255712
    37 -0.033419 -1.397129 -0.011256 -1.320160 0.000000 -0.000001
    38 -0.022362 -0.957434 0.018782 -1.212891 0.000000 0.000000
    39 0.250028 -2.820664 -0.238397 -0.351554 0.323527 0.088427
    40 -0.049759 -1.680546 0.100479 -1.768838 0.000000 -0.000002
    41 -0.034141 -1.148309 0.084778 -1.256851 0.000000 0.000000
    42 -0.488517 -2.755600 -0.228262 -0.026880 0.205465 0.134464
    43 0.039889 -1.479791 0.029853 -1.802101 0.000000 0.000001
    44 0.028786 -1.075733 -0.023111 -0.828849 0.000000 0.000000
    45 -1.180679 -2.507216 -0.193861 0.389766 0.205059 0.256395
    46 -0.024966 -1.123935 0.017594 -1.277148 0.000000 0.000001
    47 -0.020058 -0.890966 0.010091 -1.347617 0.000000 0.000000
    48 -0.122043 -0.069799 -0.124803 3.425927 6.230253 -1.298177
  time 1
    0 10.563901 4.348475 -0.142915 -0.623558 -2.133129 0.241220
    1 -0.071918 -8.498734 -0.104135 -0.500459 0.393799 -0.585689
    2 0.905662 -2.864319 0.551975 1.139257 1.326962 1.104567
    3 -0.000001 -12.629979 7.375443 -0.467747 0.000000 0.000000
    4 0.000002 -6.940917 -4.748858 0.000000 0.000000 0.000000
    5 -0.000002 14.232141 1.630652 -0.926992 0.000000 0.000000
    6 -3.961862 10.013004 -7.304515 1.570797 0.000000 0.000001
    7 -0.001366 0.001477 3.589092 0.000000 0.000000 0.000000
    8 -3.772527 -8.158155 -1.854879 0.628104 -2.445420 -0.435841
    9 0.062478 0.000000 1.425783 0.000000 -0.354719 0.000000
    10 -0.026257 0.000000 1.400207 0.000000 -0.186690 0.000000
    11 -0.023174 0.000001 1.707046 0.000000 0.000000 0.000000
    12 -0.043764 0.000000 1.936484 0.000000 -0.117869 0.000000
    13 -0.159953 0.000001 2.091296 0.000000 -0.081107 0.000000
    14 -5.178929 -0.223019 -6.925993 1.129612 -1.144202 -2.666563
    15 -0.085749 -0.255579 -8.907138 1.633003 0.591642 -1.486883
    16 0.096946 -8.450419 -0.009364 -0.318102 -0.155092 0.533435
    17 -0.591284 -1.257741 0.232708 -0.333772 -0.728716 -2.455944
    18 1.522835 0.058680 0.016851 0.003245 -0.604585 1.080716
    19 1.117948 0.048424 -0.005765 -0.017009 -0.018593 0.796853
    20 -0.963867 -2.785143 -0.085346 -0.516715 0.248673 0.076479
    21 0.028478 -1.403067 0.006271 -1.982556 0.000000 0.000000
    22 0.021414 -0.957782 0.020047 -0.821083 0.000000 0.000000
    23 -0.249534 -2.846964 -0.174215 -0.583135 0.188417 0.156380
    24 0.043234 -1.683941 0.096014 -2.286321 0.002823 -0.000167
    25 0.031729 -1.160830 0.058836 -0.398771 0.000642 0.008372
    26 0.447952 -2.798983 -0.200441 -1.000615 0.126731 0.357302
    27 -0.032910 -1.480208 0.004936 -2.042292 0.000000 0.000002
    28 -0.027022 -1.076920 -0.020212 -0.781662 0.000000 0.000000
    29 1.164475 -2.543939 -0.170327 -1.029806 -0.013294 0.477914
    30 0.024033 -1.129040 0.017806 -1.505504 0.000000 0.000000
    31 0.014896 -0.883991 -0.019845 -0.844587 0.000000 0.000000
    32 -0.037833 -0.131231 -0.016854 0.294127 0.017804 1.392802
    33 0.583509 -1.197273 0.185379 0.113666 -0.759320 -0.393748
    34 1.535925 0.010247 0.005009 0.006757 -0.011469 -0.756659
    35 1.100770 0.004527 -0.010675 -0.012850 0.009897 -0.738563
    36 0.957766 -2.746777 -0.090301 -0.065910 0.226036 0.255712
    37 -0.033419 -1.397129 -0.011256 -1.320160 0.000000 -0.000001
    38 -0.022362 -0.957434 0.018782 -1.212891 0.000000 0.000000
    39 0.250028 -2.820664 -0.238397 -0.351554 0.323527 0.088427
    40 -0.049759 -1.680546 0.100479 -1.768838 0.000000 -0.000002
    41 -0.034141 -1.148309 0.084778 -1.256851 0.000000 0.000000
    42 -0.488517 -2.755600 -0.228262 -0.026880 0.205465 0.134464
    43 0.039889 -1.479791 0.029853 -1.802101 0.000000 0.000001
    44 0.028786 -1.075733 -0.023111 -0.828849 0.000000 0.000000
    45 -1.180679 -2.507216 -0.193861 0.389766 0.205059 0.256395
    46 -0.024966 -1.123935 0.017594 -1.277148 0.000000 0.000001
    47 -0.020058 -0.890966 0.010091 -1.347617 0.000000 0.000000
    48 -0.122043 -0.069799 -0.124803 3.426022 6.230540 -1.299036
  time 2
    0 10.786564 4.332849 0.200846 -0.604434 -2.126472 0.223147
    1 -0.071918 -8.498734 -0.104135 -0.502982 0.391694 -0.588532
    2 0.905662 -2.864319 0.551975 1.139257 1.326962 1.104567
    3 -0.000001 -12.629979 7.375443 -0.467747 0.000000 0.000000
    4 0.000002 -6.940917 -4.748858 0.000000 0.000000 0.000000
    5 -0.000002 14.232141 1.630652 -0.926992 0.000000 0.000000
    6 -3.961862 10.013004 -7.304515 1.570797 0.000000 0.000001
    7 -0.001366 0.001477 3.589092 0.000000 0.000000 0.000000
    8 -3.772527 -8.158155 -1.854879 0.628104 -2.445420 -0.435841
    9 0.062478 0.000000 1.425783 0.000000 -0.354719 0.000000
    10 -0.026257 0.000000 1.400207 0.000000 -0.186690 0.000000
    11 -0.023174 0.000001 1.707046 0.000000 0.000000 0.000000
    12 -0.043764 0.000000 1.936484 0.000000 -0.117869 0.000000
    13 -0.159953 0.000001 2.091296 0.000000 -0.081107 0.000000
    14 -5.186742 -0.308960 -6.758019 1.182078 -1.173216 -2.702298
    15 -0.085749 -0.255579 -8.907138 1.632840 0.590658 -1.486883
    16 0.096946 -8.450419 -0.009364 -0.326741 -0.166948 0.551234
    17 -0.591284 -1.257741 0.232708 -0.336982 -0.732551 -2.456482
    18 1.522835 0.058680 0.016851 0.009736 -0.603908 1.069250
    19 1.117948 0.048424 -0.005765 -0.015116 -0.020163 0.699689
    20 -0.963867 -2.785143 -0.085346 -0.511722 0.246300 0.072980
    21 0.028478 -1.403067 0.006271 -1.982240 0.000000 0.000000
    22 0.021414 -0.957782 0.020047 -0.800765 0.000000 0.000000
    23 -0.249534 -2.846964 -0.174215 -0.584673 0.185864 0.155901
    24 0.043234 -1.683941 0.096014 -2.274580 0.002823 -0.000167
    25 0.031729 -1.160830 0.058836 -0.402531 0.000642 0.008372
    26 0.447952 -2.798983 -0.200441 -1.000615 0.126731 0.357302
    27 -0.032910 -1.480208 0.004936 -2.042292 0.000000 0.000002
    28 -0.027022 -1.076920 -0.020212 -0.781662 0.000000 0.000000
    29 1.164475 -2.543939 -0.170327 -1.029806 -0.013294 0.477914
    30 0.024033 -1.129040 0.017806 -1.505504 0.000000 0.000000
    31 0.014896 -0.883991 -0.019845 -0.844587 0.000000 0.000000
    32 -0.030021 -0.135137 -0.020760 0.302828 0.007497 1.379846
    33 0.583509 -1.197273 0.185379 0.115176 -0.757810 -0.392406
    34 1.535925 0.010247 0.005009 0.006037 -0.011864 -0.694489
    35 1.100770 0.004527 -0.010675 -0.012251 0.010628 -0.679933
    36 0.957766 -2.746777 -0.090301 -0.065910 0.226036 0.255712
    37 -0.033419 -1.397129 -0.011256 -1.320160 0.000000 -0.000001
    38 -0.022362 -0.957434 0.018782 -1.212891 0.000000 0.000000
    39 0.250028 -2.820664 -0.238397 -0.351554 0.323527 0.088427
    40 -0.049759 -1.680546 0.100479 -1.768838 0.000000 -0.000002
    41 -0.034141 -1.148309 0.084778 -1.256851 0.000000 0.000000
    42 -0.488517 -2.755600 -0.228262 -0.026880 0.205465 0.134464
    43 0.039889 -1.479791 0.029853 -1.802101 0.000000 0.000001
    44 0.028786 -1.075733 -0.023111 -0.828849 0.000000 0.000000
    45 -1.180679 -2.507216 -0.193861 0.389766 0.205059 0.256395
    46 -0.024966 -1.123935 0.017594 -1.277148 0.000000 0.000001
    47 -0.020058 -0.890966 0.010091 -1.347617 0.000000 0.000000
    48 -0.118137 -0.069799 -0.124803 3.426118 6.231307 -1.301805
  time 3
    0 10.989695 4.325037 0.493823 -0.585246 -2.120337 0.205318
    1 -0.071918 -8.498734 -0.104135 -0.504244 0.390642 -0.589954
    2 0.905662 -2.864319 0.551975 1.139257 1.326962 1.104567
    3 -0.000001 -12.629979 7.375443 -0.467747 0.000000 0.000000
    4 0.000002 -6.940917 -4.748858 0.000000 0.000000 0.000000
    5 -0.000002 14.232141 1.630652 -0.926992 0.000000 0.000000
    6 -3.961862 10.013004 -7.304515 1.570797 0.000000 0.000001
    7 -0.001366 0.001477 3.589092 0.000000 0.000000 0.000000
    8 -3.772527 -8.158155 -1.854879 0.628104 -2.445420 -0.435841
    9 0.062478 0.000000 1.425783 0.000000 -0.354719 0.000000
    10 -0.026257 0.000000 1.400207 0.000000 -0.186690 0.000000
    11 -0.023174 0.000001 1.707046 0.000000 0.000000 0.000000
    12 -0.043764 0.000000 1.936484 0.000000 -0.117869 0.000000
    13 -0.159953 0.000001 2.091296 0.000000 -0.081107 0.000000
    14 -5.198461 -0.437870 -6.519730 1.216960 -1.214309 -2.723096
    15 -0.085749 -0.255579 -8.907138 1.633409 0.595658 -1.486976
    16 0.096946 -8.450419 -0.009364 -0.339467 -0.184494 0.578553
    17 -0.591284 -1.257741 0.232708 -0.341876 -0.738388 -2.457331
    18 1.522835 0.058680 0.016851 0.019638 -0.602881 1.051733
    19 1.117948 0.048424 -0.005765 -0.012683 -0.021769 0.583711
    20 -0.963867 -2.785143 -0.085346 -0.503749 0.242597 0.067539
    21 0.028478 -1.403067 0.006271 -1.981609 0.000000 0.000000
    22 0.021414 -0.957782 0.020047 -0.769778 0.000000 0.000000
    23 -0.249534 -2.846964 -0.174215 -0.587049 0.181921 0.155062
    24 0.043234 -1.683941 0.096014 -2.256518 0.002823 -0.000167
    25 0.031729 -1.160830 0.058836 -0.408231 0.000642 0.008372
    26 0.447952 -2.798983 -0.200441 -1.000615 0.126731 0.357302
    27 -0.032910 -1.480208 0.004936 -2.042292 0.000000 0.000002
    28 -0.027022 -1.076920 -0.020212 -0.781662 0.000000 0.000000
    29 1.164475 -2.543939 -0.170327 -1.029806 -0.013294 0.477914
    30 0.024033 -1.129040 0.017806 -1.505504 0.000000 0.000000
    31 0.014896 -0.883991 -0.019845 -0.844587 0.000000 0.000000
    32 -0.022208 -0.142950 -0.024667 0.316107 -0.006693 1.361402
    33 0.583509 -1.197273 0.185379 0.116948 -0.754515 -0.389494
    34 1.535925 0.010247 0.005009 0.004947 -0.012368 -0.604442
    35 1.100770 0.004527 -0.010675 -0.011472 0.011455 -0.609956
    36 0.957766 -2.746777 -0.090301 -0.065910 0.226036 0.255712
    37 -0.033419 -1.397129 -0.011256 -1.320160 0.000000 -0.000001
    38 -0.022362 -0.957434 0.018782 -1.212891 0.000000 0.000000
    39 0.250028 -2.820664 -0.238397 -0.351554 0.323527 0.088427
    40 -0.049759 -1.680546 0.100479 -1.768838 0.000000 -0.000002
    41 -0.034141 -1.148309 0.084778 -1.256851 0.000000 0.000000
    42 -0.488517 -2.755600 -0.228262 -0.026880 0.205465 0.134464
    43 0.039889 -1.479791 0.029853 -1.802101 0.000000 0.000001
    44 0.028786 -1.075733 -0.023111 -0.828849 0.000000 0.000000
    45 -1.180679 -2.507216 -0.193861 0.389766 0.205059 0.256395
    46 -0.024966 -1.123935 0.017594 -1.277148 0.000000 0.000001
    47 -0.020058 -0.890966 0.010091 -1.347617 0.000000 0.000000
    48 -0.114230 -0.069799 -0.124803 3.426406 6.232553 -1.306100
  time 4
    0 11.173295 4.325037 0.736018 -0.566057 -2.114638 0.187815
    1 -0.071918 -8.498734 -0.104135 -0.504244 0.390642 -0.589954
    2 0.905662 -2.864319 0.551975 1.139257 1.326962 1.104567
    3 -0.000001 -12.629979 7.375443 -0.467747 0.000000 0.000000
    4 0.000002 -6.940917 -4.748858 0.000000 0.000000 0.000000
    5 -0.000002 14.232141 1.630652 -0.926992 0.000000 0.000000
    6 -3.961862 10.013004 -7.304515 1.570797 0.000000 0.000001
    7 -0.001366 0.001477 3.589092 0.000000 0.000000 0.000000
    8 -3.772527 -8.158155 -1.854879 0.628104 -2.445420 -0.435841
    9 0.062478 0.000000 1.425783 0.000000 -0.354719 0.000000
    10 -0.026257 0.000000 1.400207 0.000000 -0.186690 0.000000
    11 -0.023174 0.000001 1.707046 0.000000 0.000000 0.000000
    12 -0.043764 0.000000 1.936484 0.000000 -0.117869 0.000000
    13 -0.159953 0.000001 2.091296 0.000000 -0.081107 0.000000
    14 -5.217993 -0.601937 -6.234565 1.240593 -1.265404 -2.734567
    15 -0.085749 -0.255579 -8.907138 1.634545 0.605657 -1.487068
    16 0.096946 -8.450419 -0.009364 -0.354953 -0.205898 0.613473
    17 -0.591284 -1.257741 0.232708 -0.348079 -0.745782 -2.458407
    18 1.522835 0.058680 0.016851 0.032199 -0.601597 1.029521
    19 1.117948 0.048424 -0.005765 -0.010514 -0.022908 0.486548
    20 -0.963867 -2.785143 -0.085346 -0.493129 0.237779 0.060456
    21 0.028478 -1.403067 0.006271 -1.980426 0.000000 0.000000
    22 0.021414 -0.957782 0.020047 -0.730472 0.000000 0.000000
    23 -0.249534 -2.846964 -0.174215 -0.590071 0.176863 0.153827
    24 0.043234 -1.683941 0.096014 -2.233759 0.002823 -0.000167
    25 0.031729 -1.160830 0.058836 -0.415468 0.000642 0.008372
    26 0.447952 -2.798983 -0.200441 -1.000615 0.126731 0.357302
    27 -0.032910 -1.480208 0.004936 -2.042292 0.000000 0.000002
    28 -0.027022 -1.076920 -0.020212 -0.781662 0.000000 0.000000
    29 1.164475 -2.543939 -0.170327 -1.029806 -0.013294 0.477914
    30 0.024033 -1.129040 0.017806 -1.505504 0.000000 0.000000
    31 0.014896 -0.883991 -0.019845 -0.844587 0.000000 0.000000
    32 -0.010489 -0.154669 -0.032479 0.332921 -0.022356 1.340034
    33 0.583509 -1.197273 0.185379 0.118411 -0.748834 -0.384484
    34 1.535925 0.010247 0.005009 0.003593 -0.012823 -0.497704
    35 1.100770 0.004527 -0.010675 -0.010789 0.012114 -0.551303
    36 0.957766 -2.746777 -0.090301 -0.065910 0.226036 0.255712
    37 -0.033419 -1.397129 -0.011256 -1.320160 0.000000 -0.000001
    38 -0.022362 -0.957434 0.018782 -1.212891 0.000000 0.000000
    39 0.250028 -2.820664 -0.238397 -0.351554 0.323527 0.088427
    40 -0.049759 -1.680546 0.100479 -1.768838 0.000000 -0.000002
    41 -0.034141 -1.148309 0.084778 -1.256851 0.000000 0.000000
    42 -0.488517 -2.755600 -0.228262 -0.026880 0.205465 0.134464
    43 0.039889 -1.479791 0.029853 -1.802101 0.000000 0.000001
    44 0.028786 -1.075733 -0.023111 -0.828849 0.000000 0.000000
    45 -1.180679 -2.507216 -0.193861 0.389766 0.205059 0.256395
    46 -0.024966 -1.123935 0.017594 -1.277148 0.000000 0.000001
    47 -0.020058 -0.890966 0.010091 -1.347617 0.000000 0.000000
    48 -0.110324 -0.069799 -0.120896 3.426694 6.234279 -1.311923
  time 5
    0 11.337362 4.332849 0.927430 -0.546933 -2.109460 0.170556
    1 -0.071918 -8.498734 -0.104135 -0.502982 0.391694 -0.588532
    2 0.905662 -2.864319 0.551975 1.139257 1.326962 1.104567
    3 -0.000001 -12.629979 7.375443 -0.467747 0.000000 0.000000
    4 0.000002 -6.940917 -4.748858 0.000000 0.000000 0.000000
    5 -0.000002 14.232141 1.630652 -0.926992 0.000000 0.000000
    6 -3.961862 10.013004 -7.304515 1.570797 0.000000 0.000001
    7 -0.001366 0.001477 3.589092 0.000000 0.000000 0.000000
    8 -3.772527 -8.158155 -1.854879 0.628104 -2.445420 -0.435841
    9 0.062478 0.000000 1.425783 0.000000 -0.354719 0.000000
    10 -0.026257 0.000000 1.400207 0.000000 -0.186690 0.000000
    11 -0.023174 0.000001 1.707046 0.000000 0.000000 0.000000
    12 -0.043764 0.000000 1.936484 0.000000 -0.117869 0.000000
    13 -0.159953 0.000001 2.091296 0.000000 -0.081107 0.000000
    14 -5.245337 -0.797256 -5.937681 1.259972 -1.323944 -2.743233
    15 -0.085749 -0.255579 -8.907138 1.636088 0.619672 -1.487161
    16 0.096946 -8.450419 -0.009364 -0.371851 -0.229357 0.654000
    17 -0.591284 -1.257741 0.232708 -0.355217 -0.754303 -2.459648
    18 1.522835 0.058680 0.016851 0.046631 -0.600103 1.003966
    19 1.117948 0.048424 -0.005765 -0.009579 -0.023315 0.445798
    20 -0.963867 -2.785143 -0.085346 -0.480163 0.232026 0.052055
    21 0.028478 -1.403067 0.006271 -1.978611 0.000000 0.000000
    22 0.021414 -0.957782 0.020047 -0.685304 0.000000 0.000000
    23 -0.249534 -2.846964 -0.174215 -0.593526 0.170967 0.152174
    24 0.043234 -1.683941 0.096014 -2.207477 0.002823 -0.000167
    25 0.031729 -1.160830 0.058836 -0.423796 0.000642 0.008372
    26 0.447952 -2.798983 -0.200441 -1.000615 0.126731 0.357302
    27 -0.032910 -1.480208 0.004936 -2.042292 0.000000 0.000002
    28 -0.027022 -1.076920 -0.020212 -0.781662 0.000000 0.000000
    29 1.164475 -2.543939 -0.170327 -1.029806 -0.013294 0.477914
    30 0.024033 -1.129040 0.017806 -1.505504 0.000000 0.000000
    31 0.014896 -0.883991 -0.019845 -0.844587 0.000000 0.000000
    32 0.001230 -0.166388 -0.040292 0.352264 -0.037050 1.318294
    33 0.583509 -1.197273 0.185379 0.118997 -0.740121 -0.376898
    34 1.535925 0.010247 0.005009 0.002142 -0.013135 -0.385355
    35 1.100770 0.004527 -0.010675 -0.010477 0.012378 -0.526714
    36 0.957766 -2.746777 -0.090301 -0.065910 0.226036 0.255712
    37 -0.033419 -1.397129 -0.011256 -1.320160 0.000000 -0.000001
    38 -0.022362 -0.957434 0.018782 -1.212891 0.000000 0.000000
    39 0.250028 -2.820664 -0.238397 -0.351554 0.323527 0.088427
    40 -0.049759 -1.680546 0.100479 -1.768838 0.000000 -0.000002
    41 -0.034141 -1.148309 0.084778 -1.256851 0.000000 0.000000
    42 -0.488517 -2.755600 -0.228262 -0.026880 0.205465 0.134464
    43 0.039889 -1.479791 0.029853 -1.802101 0.000000 0.000001
    44 0.028786 -1.075733 -0.023111 -0.828849 0.000000 0.000000
    45 -1.180679 -2.507216 -0.193861 0.389766 0.205059 0.256395
    46 -0.024966 -1.123935 0.017594 -1.277148 0.000000 0.000001
    47 -0.020058 -0.890966 0.010091 -1.347617 0.000000 0.000000
    48 -0.102511 -0.065892 -0.120896 3.426981 6.236387 -1.319082
  time 6
    0 11.481898 4.348475 1.068060 -0.527873 -2.104674 0.153704
    1 -0.071918 -8.498734 -0.104135 -0.500459 0.393799 -0.585689
    2 0.905662 -2.864319 0.551975 1.139257 1.326962 1.104567
    3 -0.000001 -12.629979 7.375443 -0.467747 0.000000 0.000000
    4 0.000002 -6.940917 -4.748858 0.000000 0.000000 0.000000
    5 -0.000002 14.232141 1.630652 -0.926992 0.000000 0.000000
    6 -3.961862 10.013004 -7.304515 1.570797 0.000000 0.000001
    7 -0.001366 0.001477 3.589092 0.000000 0.000000 0.000000
    8 -3.772527 -8.158155 -1.854879 0.628104 -2.445420 -0.435841
    9 0.062478 0.000000 1.425783 0.000000 -0.354719 0.000000
    10 -0.026257 0.000000 1.400207 0.000000 -0.186690 0.000000
    11 -0.023174 0.000001 1.707046 0.000000 0.000000 0.000000
    12 -0.043764 0.000000 1.936484 0.000000 -0.117869 0.000000
    13 -0.159953 0.000001 2.091296 0.000000 -0.081107 0.000000
    14 -5.280494 -1.008200 -5.660329 1.289845 -1.387085 -2.761224
    15 -0.085749 -0.255579 -8.907138 1.637468 0.632540 -1.487254
    16 0.096946 -8.450419 -0.009364 -0.388791 -0.253127 0.698063
    17 -0.591284 -1.257741 0.232708 -0.362916 -0.763484 -2.460993
    18 1.522835 0.058680 0.016851 0.062181 -0.598492 0.976422
    19 1.117948 0.048424 -0.005765 -0.009795 -0.023220 0.455030
    20 -0.963867 -2.785143 -0.085346 -0.465133 0.225555 0.042635
    21 0.028478 -1.403067 0.006271 -1.976087 0.000000 0.000000
    22 0.021414 -0.957782 0.020047 -0.636556 0.000000 0.000000
    23 -0.249534 -2.846964 -0.174215 -0.597251 0.164495 0.150052
    24 0.043234 -1.683941 0.096014 -2.179209 0.002823 -0.000167
    25 0.031729 -1.160830 0.058836 -0.432771 0.000642 0.008372
    26 0.447952 -2.798983 -0.200441 -1.000615 0.126731 0.357302
    27 -0.032910 -1.480208 0.004936 -2.042292 0.000000 0.000002
    28 -0.027022 -1.076920 -0.020212 -0.781662 0.000000 0.000000
    29 1.164475 -2.543939 -0.170327 -1.029806 -0.013294 0.477914
    30 0.024033 -1.129040 0.017806 -1.505504 0.000000 0.000000
    31 0.014896 -0.883991 -0.019845 -0.844587 0.000000 0.000000
    32 0.016856 -0.174201 -0.048105 0.373093 -0.048327 1.298747
    33 0.583509 -1.197273 0.185379 0.118180 -0.727753 -0.366267
    34 1.535925 0.010247 0.005009 0.000728 -0.013291 -0.278617
    35 1.100770 0.004527 -0.010675 -0.010717 0.012174 -0.545571
    36 0.957766 -2.746777 -0.090301 -0.065910 0.226036 0.255712
    37 -0.033419 -1.397129 -0.011256 -1.320160 0.000000 -0.000001
    38 -0.022362 -0.957434 0.018782 -1.212891 0.000000 0.000000
    39 0.250028 -2.820664 -0.238397 -0.351554 0.323527 0.088427
    40 -0.049759 -1.680546 0.100479 -1.768838 0.000000 -0.000002
    41 -0.034141 -1.148309 0.084778 -1.256851 0.000000 0.000000
    42 -0.488517 -2.755600 -0.228262 -0.026880 0.205465 0.134464
    43 0.039889 -1.479791 0.029853 -1.802101 0.000000 0.000001
    44 0.028786 -1.075733 -0.023111 -0.828849 0.000000 0.000000
    45 -1.180679 -2.507216 -0.193861 0.389766 0.205059 0.256395
    46 -0.024966 -1.123935 0.017594 -1.277148 0.000000 0.000001
    47 -0.020058 -0.890966 0.010091 -1.347617 0.000000 0.000000
    48 -0.098605 -0.065892 -0.116990 3.427365 6.238880 -1.327577
  time 7
    0 11.606902 4.375819 1.157906 -0.508940 -2.100280 0.137340
    1 -0.071918 -8.498734 -0.104135 -0.496673 0.396956 -0.581407
    2 0.905662 -2.864319 0.551975 1.139257 1.326962 1.104567
    3 -0.000001 -12.629979 7.375443 -0.467747 0.000000 0.000000
    4 0.000002 -6.940917 -4.748858 0.000000 0.000000 0.000000
    5 -0.000002 14.232141 1.630652 -0.926992 0.000000 0.000000
    6 -3.961862 10.013004 -7.304515 1.570797 0.000000 0.000001
    7 -0.001366 0.001477 3.589092 0.000000 0.000000 0.000000
    8 -3.772527 -8.158155 -1.854879 0.628104 -2.445420 -0.435841
    9 0.062478 0.000000 1.425783 0.000000 -0.354719 0.000000
    10 -0.026257 0.000000 1.400207 0.000000 -0.186690 0.000000
    11 -0.023174 0.000001 1.707046 0.000000 0.000000 0.000000
    12 -0.043764 0.000000 1.936484 0.000000 -0.117869 0.000000
    13 -0.159953 0.000001 2.091296 0.000000 -0.081107 0.000000
    14 -5.323465 -1.230863 -5.429853 1.365849 -1.451633 -2.823946
    15 -0.085749 -0.255579 -8.907138 1.638686 0.643441 -1.487346
    16 0.096946 -8.450419 -0.009364 -0.404341 -0.275545 0.743557
    17 -0.591284 -1.257741 0.232708 -0.370833 -0.772891 -2.462359
    18 1.522835 0.058680 0.016851 0.078116 -0.596834 0.948202
    19 1.117948 0.048424 -0.005765 -0.010370 -0.022968 0.480053
    20 -0.963867 -2.785143 -0.085346 -0.448356 0.218568 0.032508
    21 0.028478 -1.403067 0.006271 -1.972615 0.000000 0.000000
    22 0.021414 -0.957782 0.020047 -0.586614 0.000000 0.000000
    23 -0.249534 -2.846964 -0.174215 -0.601056 0.157724 0.147452
    24 0.043234 -1.683941 0.096014 -2.150218 0.002823 -0.000167
    25 0.031729 -1.160830 0.058836 -0.441948 0.000642 0.008372
    26 0.447952 -2.798983 -0.200441 -1.000615 0.126731 0.357302
    27 -0.032910 -1.480208 0.004936 -2.042292 0.000000 0.000002
    28 -0.027022 -1.076920 -0.020212 -0.781662 0.000000 0.000000
    29 1.164475 -2.543939 -0.170327 -1.029806 -0.013294 0.477914
    30 0.024033 -1.129040 0.017806 -1.505504 0.000000 0.000000
    31 0.014896 -0.883991 -0.019845 -0.844587 0.000000 0.000000
    32 0.032481 -0.185920 -0.055918 0.394366 -0.053756 1.283934
    33 0.583509 -1.197273 0.185379 0.115453 -0.711058 -0.352198
    34 1.535925 0.010247 0.005009 -0.000470 -0.013303 -0.188570
    35 1.100770 0.004527 -0.010675 -0.011208 0.011718 -0.587005
    36 0.957766 -2.746777 -0.090301 -0.065910 0.226036 0.255712
    37 -0.033419 -1.397129 -0.011256 -1.320160 0.000000 -0.000001
    38 -0.022362 -0.957434 0.018782 -1.212891 0.000000 0.000000
    39 0.250028 -2.820664 -0.238397 -0.351554 0.323527 0.088427
    40 -0.049759 -1.680546 0.100479 -1.768838 0.000000 -0.000002
    41 -0.034141 -1.148309 0.084778 -1.256851 0.000000 0.000000
    42 -0.488517 -2.755600 -0.228262 -0.026880 0.205465 0.134464
    43 0.039889 -1.479791 0.029853 -1.802101 0.000000 0.000001
    44 0.028786 -1.075733 -0.023111 -0.828849 0.000000 0.000000
    45 -1.180679 -2.507216 -0.193861 0.389766 0.205059 0.256395
    46 -0.024966 -1.123935 0.017594 -1.277148 0.000000 0.000001
    47 -0.020058 -0.890966 0.010091 -1.347617 0.000000 0.000000
    48 -0.086886 -0.065892 -0.116990 3.427748 6.241660 -1.337123
  time 8
    0 11.704561 4.414883 1.150093 -0.488728 -2.096234 0.120570
    1 -0.071918 -8.498734 -0.104135 -0.490461 0.402190 -0.574208
    2 0.905662 -2.864319 0.551975 1.139257 1.326962 1.104567
    3 -0.000001 -12.629979 7.375443 -0.467747 0.000000 0.000000
    4 0.000002 -6.940917 -4.748858 0.000000 0.000000 0.000000
    5 -0.000002 14.232141 1.630652 -0.926992 0.000000 0.000000
    6 -3.961862 10.013004 -7.304515 1.570797 0.000000 0.000001
    7 -0.001366 0.001477 3.589092 0.000000 0.000000 0.000000
    8 -3.772527 -8.158155 -1.854879 0.628104 -2.445420 -0.435841
    9 0.062478 0.000000 1.425783 0.000000 -0.354719 0.000000
    10 -0.026257 0.000000 1.400207 0.000000 -0.186690 0.000000
    11 -0.023174 0.000001 1.707046 0.000000 0.000000 0.000000
    12 -0.043764 0.000000 1.936484 0.000000 -0.117869 0.000000
    13 -0.159953 0.000001 2.091296 0.000000 -0.081107 0.000000
    14 -5.378154 -1.453526 -5.273598 -1.479862 -1.629905 0.040067
    15 -0.085749 -0.255579 -8.907138 1.638686 0.643850 -1.487346
    16 0.096946 -8.450419 -0.009364 -0.417130 -0.295005 0.788110
    17 -0.591284 -1.257741 0.232708 -0.378532 -0.782072 -2.463724
    18 1.522835 0.058680 0.016851 0.093666 -0.595224 0.920658
    19 1.117948 0.048424 -0.005765 -0.011209 -0.022572 0.516792
    20 -0.963867 -2.785143 -0.085346 -0.430150 0.211281 0.021985
    21 0.028478 -1.403067 0.006271 -1.968118 0.000000 0.000000
    22 0.021414 -0.957782 0.020047 -0.537866 0.000000 0.000000
    23 -0.249534 -2.846964 -0.174215 -0.604781 0.150917 0.144312
    24 0.043234 -1.683941 0.096014 -2.121950 0.002823 -0.000167
    25 0.031729 -1.160830 0.058836 -0.450923 0.000642 0.008372
    26 0.447952 -2.798983 -0.200441 -1.000615 0.126731 0.357302
    27 -0.032910 -1.480208 0.004936 -2.042292 0.000000 0.000002
    28 -0.027022 -1.076920 -0.020212 -0.781662 0.000000 0.000000
    29 1.164475 -2.543939 -0.170327 -1.029806 -0.013294 0.477914
    30 0.024033 -1.129040 0.017806 -1.505504 0.000000 0.000000
    31 0.014896 -0.883991 -0.019845 -0.844587 0.000000 0.000000
    32 0.048107 -0.193733 -0.067637 0.415087 -0.050880 1.276407
    33 0.583509 -1.197273 0.185379 0.110338 -0.689354 -0.334364
    34 1.535925 0.010247 0.005009 -0.001297 -0.013243 -0.126364
    35 1.100770 0.004527 -0.010675 -0.011688 0.011239 -0.628439
    36 0.957766 -2.746777 -0.090301 -0.065910 0.226036 0.255712
    37 -0.033419 -1.397129 -0.011256 -1.320160 0.000000 -0.000001
    38 -0.022362 -0.957434 0.018782 -1.212891 0.000000 0.000000
    39 0.250028 -2.820664 -0.238397 -0.351554 0.323527 0.088427
    40 -0.049759 -1.680546 0.100479 -1.768838 0.000000 -0.000002
    41 -0.034141 -1.148309 0.084778 -1.256851 0.000000 0.000000
    42 -0.488517 -2.755600 -0.228262 -0.026880 0.205465 0.134464
    43 0.039889 -1.479791 0.029853 -1.802101 0.000000 0.000001
    44 0.028786 -1.075733 -0.023111 -0.828849 0.000000 0.000000
    45 -1.180679 -2.507216 -0.193861 0.389766 0.205059 0.256395
    46 -0.024966 -1.123935 0.017594 -1.277148 0.000000 0.000001
    47 -0.020058 -0.890966 0.010091 -1.347617 0.000000 0.000000
    48 -0.079073 -0.065892 -0.113084 3.428228 6.244823 -1.347718
  time 9
    0 11.755344 4.469572 1.013370 -0.466278 -2.092405 0.102741
    1 -0.071918 -8.498734 -0.104135 -0.480883 0.410268 -0.562948
    2 0.905662 -2.864319 0.551975 1.139257 1.326962 1.104567
    3 -0.000001 -12.629979 7.375443 -0.467747 0.000000 0.000000
    4 0.000002 -6.940917 -4.748858 0.000000 0.000000 0.000000
    5 -0.000002 14.232141 1.630652 -0.926992 0.000000 0.000000
    6 -3.961862 10.013004 -7.304515 1.570797 0.000000 0.000001
    7 -0.001366 0.001477 3.589092 0.000000 0.000000 0.000000
    8 -3.772527 -8.158155 -1.854879 0.628104 -2.445420 -0.435841
    9 0.062478 0.000000 1.425783 0.000000 -0.354719 0.000000
    10 -0.026257 0.000000 1.400207 0.000000 -0.186690 0.000000
    11 -0.023174 0.000001 1.707046 0.000000 0.000000 0.000000
    12 -0.043764 0.000000 1.936484 0.000000 -0.117869 0.000000
    13 -0.159953 0.000001 2.091296 0.000000 -0.081107 0.000000
    14 -5.456281 -1.703533 -5.191565 -0.148845 -1.606802 -1.267692
    15 -0.085749 -0.255579 -8.907138 1.637956 0.636966 -1.487254
    16 0.096946 -8.450419 -0.009364 -0.425790 -0.309988 0.829427
    17 -0.591284 -1.257741 0.232708 -0.385701 -0.790581 -2.464966
    18 1.522835 0.058680 0.016851 0.108061 -0.593753 0.895145
    19 1.117948 0.048424 -0.005765 -0.012192 -0.022057 0.561076
    20 -0.963867 -2.785143 -0.085346 -0.410781 0.203886 0.011379
    21 0.028478 -1.403067 0.006271 -1.962517 0.000000 0.000000
    22 0.021414 -0.957782 0.020047 -0.492664 0.000000 0.000000
    23 -0.249534 -2.846964 -0.174215 -0.608209 0.144349 0.140620
    24 0.043234 -1.683941 0.096014 -2.095668 0.002823 -0.000167
    25 0.031729 -1.160830 0.058836 -0.459251 0.000642 0.008372
    26 0.447952 -2.798983 -0.200441 -1.000615 0.126731 0.357302
    27 -0.032910 -1.480208 0.004936 -2.042292 0.000000 0.000002
    28 -0.027022 -1.076920 -0.020212 -0.781662 0.000000 0.000000
    29 1.164475 -2.543939 -0.170327 -1.029806 -0.013294 0.477914
    30 0.024033 -1.129040 0.017806 -1.505504 0.000000 0.000000
    31 0.014896 -0.883991 -0.019845 -0.844587 0.000000 0.000000
    32 0.063732 -0.201545 -0.075449 0.440507 -0.037972 1.276875
    33 0.583509 -1.197273 0.185379 0.102449 -0.661970 -0.312517
    34 1.535925 0.010247 0.005009 -0.001609 -0.013207 -0.103186
    35 1.100770 0.004527 -0.010675 -0.011891 0.011023 -0.647272
    36 0.957766 -2.746777 -0.090301 -0.065910 0.226036 0.255712
    37 -0.033419 -1.397129 -0.011256 -1.320160 0.000000 -0.000001
    38 -0.022362 -0.957434 0.018782 -1.212891 0.000000 0.000000
    39 0.250028 -2.820664 -0.238397 -0.351554 0.323527 0.088427
    40 -0.049759 -1.680546 0.100479 -1.768838 0.000000 -0.000002
    41 -0.034141 -1.148309 0.084778 -1.256851 0.000000 0.000000
    42 -0.488517 -2.755600 -0.228262 -0.026880 0.205465 0.134464
    43 0.039889 -1.479791 0.029853 -1.802101 0.000000 0.000001
    44 0.028786 -1.075733 -0.023111 -0.828849 0.000000 0.000000
    45 -1.180679 -2.507216 -0.193861 0.389766 0.205059 0.256395
    46 -0.024966 -1.123935 0.017594 -1.277148 0.000000 0.000001
    47 -0.020058 -0.890966 0.010091 -1.347617 0.000000 0.000000
    48 -0.071260 -0.065892 -0.109177 3.428611 6.248178 -1.359173
  time 10
    0 11.774876 4.543793 0.759456 -0.441909 -2.088881 0.084261
    1 -0.071918 -8.498734 -0.104135 -0.468323 0.420849 -0.548051
    2 0.905662 -2.864319 0.551975 1.139257 1.326962 1.104567
    3 -0.000001 -12.629979 7.375443 -0.467747 0.000000 0.000000
    4 0.000002 -6.940917 -4.748858 0.000000 0.000000 0.000000
    5 -0.000002 14.232141 1.630652 -0.926992 0.000000 0.000000
    6 -3.961862 10.013004 -7.304515 1.570797 0.000000 0.000001
    7 -0.001366 0.001477 3.589092 0.000000 0.000000 0.000000
    8 -3.772527 -8.158155 -1.854879 0.628104 -2.445420 -0.435841
    9 0.062478 0.000000 1.425783 0.000000 -0.354719 0.000000
    10 -0.026257 0.000000 1.400207 0.000000 -0.186690 0.000000
    11 -0.023174 0.000001 1.707046 0.000000 0.000000 0.000000
    12 -0.043764 0.000000 1.936484 0.000000 -0.117869 0.000000
    13 -0.159953 0.000001 2.091296 0.000000 -0.081107 0.000000
    14 -5.565659 -2.004324 -5.152501 3.722543 -1.494771 1.168325
    15 -0.085749 -0.255579 -8.907138 1.637387 0.631966 -1.487254
    16 0.096946 -8.450419 -0.009364 -0.428887 -0.319056 0.864987
    17 -0.591284 -1.257741 0.232708 -0.391935 -0.797975 -2.466062
    18 1.522835 0.058680 0.016851 0.120586 -0.592469 0.872975
    19 1.117948 0.048424 -0.005765 -0.013234 -0.021446 0.608893
    20 -0.963867 -2.785143 -0.085346 -0.390599 0.196612 0.000976
    21 0.028478 -1.403067 0.006271 -1.955574 0.000000 0.000000
    22 0.021414 -0.957782 0.020047 -0.453392 0.000000 0.000000
    23 -0.249534 -2.846964 -0.174215 -0.611205 0.138273 0.136330
    24 0.043234 -1.683941 0.096014 -2.072909 0.002823 -0.000167
    25 0.031729 -1.160830 0.058836 -0.466487 0.000642 0.008372
    26 0.447952 -2.798983 -0.200441 -1.000615 0.126731 0.357302
    27 -0.032910 -1.480208 0.004936 -2.042292 0.000000 0.000002
    28 -0.027022 -1.076920 -0.020212 -0.781662 0.000000 0.000000
    29 1.164475 -2.543939 -0.170327 -1.029806 -0.013294 0.477914
    30 0.024033 -1.129040 0.017806 -1.505504 0.000000 0.000000
    31 0.014896 -0.883991 -0.019845 -0.844587 0.000000 0.000000
    32 0.079358 -0.205452 -0.083262 0.471930 -0.017874 1.282364
    33 0.583509 -1.197273 0.185379 0.073620 -0.614031 -0.275964
    34 1.535925 0.010247 0.005009 -0.001477 -0.013231 -0.113285
    35 1.100770 0.004527 -0.010675 -0.011448 0.011479 -0.607944
    36 0.957766 -2.746777 -0.090301 -0.065910 0.226036 0.255712
    37 -0.033419 -1.397129 -0.011256 -1.320160 0.000000 -0.000001
    38 -0.022362 -0.957434 0.018782 -1.212891 0.000000 0.000000
    39 0.250028 -2.820664 -0.238397 -0.351554 0.323527 0.088427
    40 -0.049759 -1.680546 0.100479 -1.768838 0.000000 -0.000002
    41 -0.034141 -1.148309 0.084778 -1.256851 0.000000 0.000000
    42 -0.488517 -2.755600 -0.228262 -0.026880 0.205465 0.134464
    43 0.039889 -1.479791 0.029853 -1.802101 0.000000 0.000001
    44 0.028786 -1.075733 -0.023111 -0.828874 0.000000 0.000000
    45 -1.180679 -2.507216 -0.193861 0.389766 0.205059 0.256395
    46 -0.024966 -1.123935 0.017594 -1.277148 0.000000 0.000001
    47 -0.020058 -0.890966 0.010091 -1.347617 0.000000 0.000000
    48 -0.059541 -0.061986 -0.105271 3.428995 6.251724 -1.371391
  time 11
    0 11.759250 4.625827 0.407883 -0.416260 -2.085661 0.065293
    1 -0.071918 -8.498734 -0.104135 -0.453107 0.433506 -0.529961
    2 0.905662 -2.864319 0.551975 1.139257 1.326962 1.104567
    3 -0.000001 -12.629979 7.375443 -0.467747 0.000000 0.000000
    4 0.000002 -6.940917 -4.748858 0.000000 0.000000 0.000000
    5 -0.000002 14.232141 1.630652 -0.926992 0.000000 0.000000
    6 -3.961862 10.013004 -7.304515 1.570797 0.000000 0.000001
    7 -0.001366 0.001477 3.589092 0.000000 0.000000 0.000000
    8 -3.772527 -8.158155 -1.854879 0.628104 -2.445420 -0.435841
    9 0.062478 0.000000 1.425783 0.000000 -0.354719 0.000000
    10 -0.026257 0.000000 1.400207 0.000000 -0.186690 0.000000
    11 -0.023174 0.000001 1.707046 0.000000 0.000000 0.000000
    12 -0.043764 0.000000 1.936484 0.000000 -0.117869 0.000000
    13 -0.159953 0.000001 2.091296 0.000000 -0.081107 0.000000
    14 -5.690663 -2.332459 -5.144688 3.874740 -1.452080 1.041312
    15 -0.085749 -0.255579 -8.907138 1.636981 0.628360 -1.487254
    16 0.096946 -8.450419 -0.009364 -0.425158 -0.320803 0.892419
    17 -0.591284 -1.257741 0.232708 -0.396859 -0.803812 -2.466931
    18 1.522835 0.058680 0.016851 0.130451 -0.591442 0.855459
    19 1.117948 0.048424 -0.005765 -0.014229 -0.020799 0.656074
    20 -0.963867 -2.785143 -0.085346 -0.369889 0.189649 -0.008911
    21 0.028478 -1.403067 0.006271 -1.947211 0.000000 0.000000
    22 0.021414 -0.957782 0.020047 -0.422405 0.000000 0.000000
    23 -0.249534 -2.846964 -0.174215 -0.613553 0.132976 0.131404
    24 0.043234 -1.683941 0.096014 -2.054846 0.002823 -0.000167
    25 0.031729 -1.160830 0.058836 -0.472228 0.000642 0.008372
    26 0.447952 -2.798983 -0.200441 -1.000615 0.126731 0.357302
    27 -0.032910 -1.480208 0.004936 -2.042292 0.000000 0.000002
    28 -0.027022 -1.076920 -0.020212 -0.781662 0.000000 0.000000
    29 1.164475 -2.543939 -0.170327 -1.029806 -0.013294 0.477914
    30 0.024033 -1.129040 0.017806 -1.505504 0.000000 0.000000
    31 0.014896 -0.883991 -0.019845 -0.844587 0.000000 0.000000
    32 0.091077 -0.201545 -0.087169 0.502323 0.005004 1.289866
    33 0.583509 -1.197273 0.185379 0.017196 -0.540614 -0.223651
    34 1.535925 0.010247 0.005009 -0.001117 -0.013255 -0.139759
    35 1.100770 0.004527 -0.010675 -0.010225 0.012593 -0.505845
    36 0.957766 -2.746777 -0.090301 -0.065910 0.226036 0.255712
    37 -0.033419 -1.397129 -0.011256 -1.320160 0.000000 -0.000001
    38 -0.022362 -0.957434 0.018782 -1.212891 0.000000 0.000000
    39 0.250028 -2.820664 -0.238397 -0.351554 0.323527 0.088427
    40 -0.049759 -1.680546 0.100479 -1.768838 0.000000 -0.000002
    41 -0.034141 -1.148309 0.084778 -1.256851 0.000000 0.000000
    42 -0.488517 -2.755600 -0.228262 -0.026880 0.205465 0.134464
    43 0.039889 -1.479791 0.029853 -1.802101 0.000000 0.000001
    44 0.028786 -1.075733 -0.023111 -0.828849 0.000000 0.000000
    45 -1.180679 -2.507216 -0.193861 0.389766 0.205059 0.256395
    46 -0.024966 -1.123935 0.017594 -1.277148 0.000000 0.000001
    47 -0.020058 -0.890966 0.010091 -1.347617 0.000000 0.000000
    48 -0.047822 -0.061986 -0.101364 -2.853665 -0.027518 -1.384278
  time 12
    0 11.716280 4.723486 -0.033537 -0.389716 -2.082876 0.046243
    1 -0.071918 -8.498734 -0.104135 -0.435596 0.447927 -0.509121
    2 0.905662 -2.864319 0.551975 1.139257 1.326962 1.104567
    3 -0.000001 -12.629979 7.375443 -0.467747 0.000000 0.000000
    4 0.000002 -6.940917 -4.748858 0.000000 0.000000 0.000000
    5 -0.000002 14.232141 1.630652 -0.926992 0.000000 0.000000
    6 -3.961862 10.013004 -7.304515 1.570797 0.000000 0.000001
    7 -0.001366 0.001477 3.589092 0.000000 0.000000 0.000000
    8 -3.772527 -8.158155 -1.854879 0.628104 -2.445420 -0.435841
    9 0.062478 0.000000 1.425783 0.000000 -0.354719 0.000000
    10 -0.026257 0.000000 1.400207 0.000000 -0.186690 0.000000
    11 -0.023174 0.000001 1.707046 0.000000 0.000000 0.000000
    12 -0.043764 0.000000 1.936484 0.000000 -0.117869 0.000000
    13 -0.159953 0.000001 2.091296 0.000000 -0.081107 0.000000
    14 -5.823480 -2.668407 -5.160314 3.910663 -1.419615 1.030831
    15 -0.085749 -0.255579 -8.907138 1.636738 0.625573 -1.487161
    16 0.096946 -8.450419 -0.009364 -0.413316 -0.313790 0.909314
    17 -0.591284 -1.257741 0.232708 -0.400101 -0.807647 -2.467490
    18 1.522835 0.058680 0.016851 0.136924 -0.590788 0.843993
    19 1.117948 0.048424 -0.005765 -0.015104 -0.020175 0.698607
    20 -0.963867 -2.785143 -0.085346 -0.348949 0.183237 -0.017995
    21 0.028478 -1.403067 0.006271 -1.937271 0.000000 0.000000
    22 0.021414 -0.957782 0.020047 -0.402054 0.000000 0.000000
    23 -0.249534 -2.846964 -0.174215 -0.615091 0.128721 0.125831
    24 0.043234 -1.683941 0.096014 -2.043106 0.002823 -0.000167
    25 0.031729 -1.160830 0.058836 -0.475947 0.000642 0.008372
    26 0.447952 -2.798983 -0.200441 -1.000615 0.126731 0.357302
    27 -0.032910 -1.480208 0.004936 -2.042292 0.000000 0.000002
    28 -0.027022 -1.076920 -0.020212 -0.781662 0.000000 0.000000
    29 1.164475 -2.543939 -0.170327 -1.029806 -0.013294 0.477914
    30 0.024033 -1.129040 0.017806 -1.505504 0.000000 0.000000
    31 0.014896 -0.883991 -0.019845 -0.844587 0.000000 0.000000
    32 0.098890 -0.197639 -0.091075 0.524591 0.026205 1.296398
    33 0.583509 -1.197273 0.185379 -0.051062 -0.456254 -0.168318
    34 1.535925 0.010247 0.005009 -0.000626 -0.013291 -0.176893
    35 1.100770 0.004527 -0.010675 -0.008356 0.013900 -0.364792
    36 0.957766 -2.746777 -0.090301 -0.065910 0.226036 0.255712
    37 -0.033419 -1.397129 -0.011256 -1.320160 0.000000 -0.000001
    38 -0.022362 -0.957434 0.018782 -1.212891 0.000000 0.000000
    39 0.250028 -2.820664 -0.238397 -0.351554 0.323527 0.088427
    40 -0.049759 -1.680546 0.100479 -1.768838 0.000000 -0.000002
    41 -0.034141 -1.148309 0.084778 -1.256851 0.000000 0.000000
    42 -0.488517 -2.755600 -0.228262 -0.026880 0.205465 0.134464
    43 0.039889 -1.479791 0.029853 -1.802101 0.000000 0.000001
    44 0.028786 -1.075733 -0.023111 -0.828849 0.000000 0.000000
    45 -1.180679 -2.507216 -0.193861 0.389766 0.205059 0.256395
    46 -0.024966 -1.123935 0.017594 -1.277148 0.000000 0.000001
    47 -0.020058 -0.890966 0.010091 -1.347617 0.000000 0.000000
    48 -0.036103 -0.061986 -0.101364 -2.853281 -0.023588 -1.397642
  time 13
    0 11.645965 4.832865 -0.545271 -0.362853 -2.080440 0.027437
    1 -0.071918 -8.498734 -0.104135 -0.416135 0.463714 -0.485955
    2 0.905662 -2.864319 0.551975 1.139257 1.326962 1.104567
    3 -0.000001 -12.629979 7.375443 -0.467747 0.000000 0.000000
    4 0.000002 -6.940917 -4.748858 0.000000 0.000000 0.000000
    5 -0.000002 14.232141 1.630652 -0.926992 0.000000 0.000000
    6 -3.961862 10.013004 -7.304515 1.570797 0.000000 0.000001
    7 -0.001366 0.001477 3.589092 0.000000 0.000000 0.000000
    8 -3.772527 -8.158155 -1.854879 0.628104 -2.445420 -0.435841
    9 0.062478 0.000000 1.425783 0.000000 -0.354719 0.000000
    10 -0.026257 0.000000 1.400207 0.000000 -0.186690 0.000000
    11 -0.023174 0.000001 1.707046 0.000000 0.000000 0.000000
    12 -0.043764 0.000000 1.936484 0.000000 -0.117869 0.000000
    13 -0.159953 0.000001 2.091296 0.000000 -0.081107 0.000000
    14 -5.944577 -2.992635 -5.195471 3.895443 -1.401241 1.071188
    15 -0.085749 -0.255579 -8.907138 1.636494 0.623606 -1.487161
    16 0.096946 -8.450419 -0.009364 -0.392226 -0.296611 0.913378
    17 -0.591284 -1.257741 0.232708 -0.401254 -0.809013 -2.467697
    18 1.522835 0.058680 0.016851 0.139253 -0.590531 0.839846
    19 1.117948 0.048424 -0.005765 -0.015775 -0.019660 0.732353
    20 -0.963867 -2.785143 -0.085346 -0.328097 0.177580 -0.025989
    21 0.028478 -1.403067 0.006271 -1.925673 0.000000 0.000000
    22 0.021414 -0.957782 0.020047 -0.394758 0.000000 0.000000
    23 -0.249534 -2.846964 -0.174215 -0.615604 0.125773 0.119551
    24 0.043234 -1.683941 0.096014 -2.038861 0.002823 -0.000167
    25 0.031729 -1.160830 0.058836 -0.477322 0.000642 0.008372
    26 0.447952 -2.798983 -0.200441 -1.000615 0.126731 0.357302
    27 -0.032910 -1.480208 0.004936 -2.042292 0.000000 0.000002
    28 -0.027022 -1.076920 -0.020212 -0.781662 0.000000 0.000000
    29 1.164475 -2.543939 -0.170327 -1.029806 -0.013294 0.477914
    30 0.024033 -1.129040 0.017806 -1.505504 0.000000 0.000000
    31 0.014896 -0.883991 -0.019845 -0.844587 0.000000 0.000000
    32 0.106702 -0.182014 -0.094981 0.531506 0.041330 1.298939
    33 0.583509 -1.197273 0.185379 -0.116839 -0.376221 -0.119888
    34 1.535925 0.010247 0.005009 -0.000075 -0.013303 -0.218866
    35 1.100770 0.004527 -0.010675 -0.006091 0.015026 -0.208648
    36 0.957766 -2.746777 -0.090301 -0.065910 0.226036 0.255712
    37 -0.033419 -1.397129 -0.011256 -1.320160 0.000000 -0.000001
    38 -0.022362 -0.957434 0.018782 -1.212891 0.000000 0.000000
    39 0.250028 -2.820664 -0.238397 -0.351554 0.323527 0.088427
    40 -0.049759 -1.680546 0.100479 -1.768838 0.000000 -0.000002
    41 -0.034141 -1.148309 0.084778 -1.256851 0.000000 0.000000
    42 -0.488517 -2.755600 -0.228262 -0.026880 0.205465 0.134464
    43 0.039889 -1.479791 0.029853 -1.802101 0.000000 0.000001
    44 0.028786 -1.075733 -0.023111 -0.828849 0.000000 0.000000
    45 -1.180679 -2.507216 -0.193861 0.389766 0.205059 0.256395
    46 -0.024966 -1.123935 0.017594 -1.277148 0.000000 0.000001
    47 -0.020058 -0.890966 0.010091 -1.347617 0.000000 0.000000
    48 -0.024384 -0.061986 -0.097458 -2.852994 -0.019466 -1.411292
  time 14
    0 11.556119 4.946149 -1.111694 -0.336181 -2.078351 0.009283
    1 -0.071918 -8.498734 -0.104135 -0.395107 0.480524 -0.460906
    2 0.905662 -2.864319 0.551975 1.139257 1.326962 1.104567
    3 -0.000001 -12.629979 7.375443 -0.467747 0.000000 0.000000
    4 0.000002 -6.940917 -4.748858 0.000000 0.000000 0.000000
    5 -0.000002 14.232141 1.630652 -0.926992 0.000000 0.000000
    6 -3.961862 10.013004 -7.304515 1.570797 0.000000 0.000001
    7 -0.001366 0.001477 3.589092 0.000000 0.000000 0.000000
    8 -3.772527 -8.158155 -1.854879 0.628104 -2.445420 -0.435841
    9 0.062478 0.000000 1.425783 0.000000 -0.354719 0.000000
    10 -0.026257 0.000000 1.400207 0.000000 -0.186690 0.000000
    11 -0.023174 0.000001 1.707046 0.000000 0.000000 0.000000
    12 -0.043764 0.000000 1.936484 0.000000 -0.117869 0.000000
    13 -0.159953 0.000001 2.091296 0.000000 -0.081107 0.000000
    14 -6.046143 -3.289519 -5.234535 3.846003 -1.396288 1.144639
    15 -0.085749 -0.255579 -8.907138 1.636413 0.622623 -1.487161
    16 0.096946 -8.450419 -0.009364 -0.358682 -0.266082 0.905777
    17 -0.591284 -1.257741 0.232708 -0.396142 -0.802973 -2.466807
    18 1.522835 0.058680 0.016851 0.124895 -0.592025 0.865317
    19 1.117948 0.048424 -0.005765 -0.016302 -0.019217 0.759573
    20 -0.963867 -2.785143 -0.085346 -0.302641 0.172019 -0.033791
    21 0.028478 -1.403067 0.006271 -1.907133 0.000000 0.000000
    22 0.021414 -0.957782 0.020047 -0.416030 0.000000 0.000000
    23 -0.249534 -2.846964 -0.174215 -0.564188 0.124131 0.108274
    24 0.043234 -1.683941 0.096014 -2.050421 0.002823 -0.000167
    25 0.031729 -1.160830 0.058836 -0.474573 0.000642 0.008372
    26 0.447952 -2.798983 -0.200441 -1.000615 0.126731 0.357302
    27 -0.032910 -1.480208 0.004936 -2.042292 0.000000 0.000002
    28 -0.027022 -1.076920 -0.020212 -0.781662 0.000000 0.000000
    29 1.164475 -2.543939 -0.170327 -1.029806 -0.013294 0.477914
    30 0.024033 -1.129040 0.017806 -1.505504 0.000000 0.000000
    31 0.014896 -0.883991 -0.019845 -0.844587 0.000000 0.000000
    32 0.110609 -0.162482 -0.094981 0.514212 0.048413 1.295930
    33 0.583509 -1.197273 0.185379 -0.166422 -0.316382 -0.086020
    34 1.535925 0.010247 0.005009 0.000477 -0.013303 -0.259962
    35 1.100770 0.004527 -0.010675 -0.003814 0.015769 -0.061231
    36 0.957766 -2.746777 -0.090301 -0.065910 0.226036 0.255712
    37 -0.033419 -1.397129 -0.011256 -1.320160 0.000000 -0.000001
    38 -0.022362 -0.957434 0.018782 -1.212891 0.000000 0.000000
    39 0.250028 -2.820664 -0.238397 -0.351554 0.323527 0.088427
    40 -0.049759 -1.680546 0.100479 -1.768838 0.000000 -0.000002
    41 -0.034141 -1.148309 0.084778 -1.256851 0.000000 0.000000
    42 -0.488517 -2.755600 -0.228262 -0.026880 0.205465 0.134464
    43 0.039889 -1.479791 0.029853 -1.802101 0.000000 0.000001
    44 0.028786 -1.075733 -0.023111 -0.828849 0.000000 0.000000
    45 -1.180679 -2.507216 -0.193861 0.389766 0.205059 0.256395
    46 -0.024966 -1.123935 0.017594 -1.277148 0.000000 0.000001
    47 -0.020058 -0.890966 0.010091 -1.347617 0.000000 0.000000
    48 -0.012665 -0.058080 -0.093552 -2.852802 -0.015344 -1.425323
  time 15
    0 11.450647 5.071153 -1.717182 -0.310341 -2.076655 -0.007976
    1 -0.071918 -8.498734 -0.104135 -0.372855 0.497960 -0.434454
    2 0.905662 -2.864319 0.551975 1.139257 1.326962 1.104567
    3 -0.000001 -12.629979 7.375443 -0.467747 0.000000 0.000000
    4 0.000002 -6.940917 -4.748858 0.000000 0.000000 0.000000
    5 -0.000002 14.232141 1.630652 -0.926992 0.000000 0.000000
    6 -3.961862 10.013004 -7.304515 1.570797 0.000000 0.000001
    7 -0.001366 0.001477 3.589092 0.000000 0.000000 0.000000
    8 -3.772527 -8.158155 -1.854879 0.628104 -2.445420 -0.435841
    9 0.062478 0.000000 1.425783 0.000000 -0.354719 0.000000
    10 -0.026257 0.000000 1.400207 0.000000 -0.186690 0.000000
    11 -0.023174 0.000001 1.707046 0.000000 0.000000 0.000000
    12 -0.043764 0.000000 1.936484 0.000000 -0.117869 0.000000
    13 -0.159953 0.000001 2.091296 0.000000 -0.081107 0.000000
    14 -6.112551 -3.531714 -5.277505 3.772645 -1.400762 1.240703
    15 -0.085749 -0.255579 -8.907138 1.636332 0.621885 -1.487161
    16 0.096946 -8.450419 -0.009364 -0.313088 -0.222711 0.890274
    17 -0.591284 -1.257741 0.232708 -0.383394 -0.787848 -2.464572
    18 1.522835 0.058680 0.016851 0.090622 -0.595550 0.926074
    19 1.117948 0.048424 -0.005765 -0.016770 -0.018809 0.784500
    20 -0.963867 -2.785143 -0.085346 -0.269582 0.165967 -0.042264
    21 0.028478 -1.403067 0.006271 -1.878573 0.000000 0.000000
    22 0.021414 -0.957782 0.020047 -0.472994 0.000000 0.000000
    23 -0.249534 -2.846964 -0.174215 -0.435688 0.123388 0.090297
    24 0.043234 -1.683941 0.096014 -2.081489 0.002823 -0.000167
    25 0.031729 -1.160830 0.058836 -0.467215 0.000642 0.008372
    26 0.447952 -2.798983 -0.200441 -1.000615 0.126731 0.357302
    27 -0.032910 -1.480208 0.004936 -2.042292 0.000000 0.000002
    28 -0.027022 -1.076920 -0.020212 -0.781662 0.000000 0.000000
    29 1.164475 -2.543939 -0.170327 -1.029806 -0.013294 0.477914
    30 0.024033 -1.129040 0.017806 -1.505504 0.000000 0.000000
    31 0.014896 -0.883991 -0.019845 -0.844587 0.000000 0.000000
    32 0.114515 -0.135137 -0.091075 0.473069 0.049443 1.288548
    33 0.583509 -1.197273 0.185379 -0.186067 -0.292868 -0.073208
    34 1.535925 0.010247 0.005009 0.000932 -0.013279 -0.294431
    35 1.100770 0.004527 -0.010675 -0.001992 0.016093 0.053548
    36 0.957766 -2.746777 -0.090301 -0.065910 0.226036 0.255712
    37 -0.033419 -1.397129 -0.011256 -1.320160 0.000000 -0.000001
    38 -0.022362 -0.957434 0.018782 -1.212891 0.000000 0.000000
    39 0.250028 -2.820664 -0.238397 -0.351554 0.323527 0.088427
    40 -0.049759 -1.680546 0.100479 -1.768838 0.000000 -0.000002
    41 -0.034141 -1.148309 0.084778 -1.256851 0.000000 0.000000
    42 -0.488517 -2.755600 -0.228262 -0.026880 0.205465 0.134464
    43 0.039889 -1.479791 0.029853 -1.802101 0.000000 0.000001
    44 0.028786 -1.075733 -0.023111 -0.828849 0.000000 0.000000
    45 -1.180679 -2.507216 -0.193861 0.389766 0.205059 0.256395
    46 -0.024966 -1.123935 0.017594 -1.277148 0.000000 0.000001
    47 -0.020058 -0.890966 0.010091 -1.347617 0.000000 0.000000
    48 -0.000945 -0.058080 -0.089645 -2.852610 -0.011127 -1.439355
  time 16
    0 11.333456 5.203970 -2.350013 -0.285652 -2.075306 -0.023933
    1 -0.071918 -8.498734 -0.104135 -0.349781 0.515680 -0.407060
    2 0.905662 -2.864319 0.551975 1.139257 1.326962 1.104567
    3 -0.000001 -12.629979 7.375443 -0.467747 0.000000 0.000000
    4 0.000002 -6.940917 -4.748858 0.000000 0.000000 0.000000
    5 -0.000002 14.232141 1.630652 -0.926992 0.000000 0.000000
    6 -3.961862 10.013004 -7.304515 1.570797 0.000000 0.000001
    7 -0.001366 0.001477 3.589092 0.000000 0.000000 0.000000
    8 -3.772527 -8.158155 -1.854879 0.628104 -2.445420 -0.435841
    9 0.062478 0.000000 1.425783 0.000000 -0.354719 0.000000
    10 -0.026257 0.000000 1.400207 0.000000 -0.186690 0.000000
    11 -0.023174 0.000001 1.707046 0.000000 0.000000 0.000000
    12 -0.043764 0.000000 1.936484 0.000000 -0.117869 0.000000
    13 -0.159953 0.000001 2.091296 0.000000 -0.081107 0.000000
    14 -6.132083 -3.707501 -5.308756 3.673764 -1.412169 1.360041
    15 -0.085749 -0.255579 -8.907138 1.636088 0.619918 -1.487161
    16 0.096946 -8.450419 -0.009364 -0.259676 -0.170271 0.868637
    17 -0.591284 -1.257741 0.232708 -0.366874 -0.768193 -2.461676
    18 1.522835 0.058680 0.016851 0.049675 -0.599776 0.998592
    19 1.117948 0.048424 -0.005765 -0.017177 -0.018438 0.805958
    20 -0.963867 -2.785143 -0.085346 -0.231759 0.159735 -0.050965
    21 0.028478 -1.403067 0.006271 -1.843229 0.000000 0.000000
    22 0.021414 -0.957782 0.020047 -0.555457 0.000000 0.000000
    23 -0.249534 -2.846964 -0.174215 -0.268673 0.123304 0.069540
    24 0.043234 -1.683941 0.096014 -2.126556 0.002823 -0.000167
    25 0.031729 -1.160830 0.058836 -0.456583 0.000642 0.008372
    26 0.447952 -2.798983 -0.200441 -1.000615 0.126731 0.357302
    27 -0.032910 -1.480208 0.004936 -2.042292 0.000000 0.000002
    28 -0.027022 -1.076920 -0.020212 -0.781662 0.000000 0.000000
    29 1.164475 -2.543939 -0.170327 -1.029806 -0.013294 0.477914
    30 0.024033 -1.129040 0.017806 -1.505504 0.000000 0.000000
    31 0.014896 -0.883991 -0.019845 -0.844587 0.000000 0.000000
    32 0.118421 -0.103886 -0.091075 0.414608 0.045872 1.278013
    33 0.583509 -1.197273 0.185379 -0.186067 -0.292868 -0.073208
    34 1.535925 0.010247 0.005009 0.001232 -0.013255 -0.316487
    35 1.100770 0.004527 -0.010675 -0.001057 0.016177 0.111921
    36 0.957766 -2.746777 -0.090301 -0.065910 0.226036 0.255712
    37 -0.033419 -1.397129 -0.011256 -1.320160 0.000000 -0.000001
    38 -0.022362 -0.957434 0.018782 -1.212891 0.000000 0.000000
    39 0.250028 -2.820664 -0.238397 -0.351554 0.323527 0.088427
    40 -0.049759 -1.680546 0.100479 -1.768838 0.000000 -0.000002
    41 -0.034141 -1.148309 0.084778 -1.256851 0.000000 0.000000
    42 -0.488517 -2.755600 -0.228262 -0.026880 0.205465 0.134464
    43 0.039889 -1.479791 0.029853 -1.802101 0.000000 0.000001
    44 0.028786 -1.075733 -0.023111 -0.828849 0.000000 0.000000
    45 -1.180679 -2.507216 -0.193861 0.389766 0.205059 0.256395
    46 -0.024966 -1.123935 0.017594 -1.277148 0.000000 0.000001
    47 -0.020058 -0.890966 0.010091 -1.347617 0.000000 0.000000
    48 0.010774 -0.058080 -0.085739 -2.852514 -0.007005 -1.453483
  time 17
    0 11.204546 5.336786 -2.994564 -0.262817 -2.074262 -0.038179
    1 -0.071918 -8.498734 -0.104135 -0.326267 0.533372 -0.379242
    2 0.905662 -2.864319 0.551975 1.139257 1.326962 1.104567
    3 -0.000001 -12.629979 7.375443 -0.467747 0.000000 0.000000
    4 0.000002 -6.940917 -4.748858 0.000000 0.000000 0.000000
    5 -0.000002 14.232141 1.630652 -0.926992 0.000000 0.000000
    6 -3.961862 10.013004 -7.304515 1.570797 0.000000 0.000001
    7 -0.001366 0.001477 3.589092 0.000000 0.000000 0.000000
    8 -3.772527 -8.158155 -1.854879 0.628104 -2.445420 -0.435841
    9 0.062478 0.000000 1.425783 0.000000 -0.354719 0.000000
    10 -0.026257 0.000000 1.400207 0.000000 -0.186690 0.000000
    11 -0.023174 0.000001 1.707046 0.000000 0.000000 0.000000
    12 -0.043764 0.000000 1.936484 0.000000 -0.117869 0.000000
    13 -0.159953 0.000001 2.091296 0.000000 -0.081107 0.000000
    14 -6.096926 -3.816879 -5.340007 3.538867 -1.427347 1.510739
    15 -0.085749 -0.255579 -8.907138 1.636088 0.620246 -1.487161
    16 0.096946 -8.450419 -0.009364 -0.202429 -0.112650 0.842447
    17 -0.591284 -1.257741 0.232708 -0.350354 -0.748527 -2.458800
    18 1.522835 0.058680 0.016851 0.015329 -0.603348 1.059349
    19 1.117948 0.048424 -0.005765 -0.017477 -0.018150 0.822735
    20 -0.963867 -2.785143 -0.085346 -0.191997 0.153611 -0.059486
    21 0.028478 -1.403067 0.006271 -1.804492 0.000000 0.000000
    22 0.021414 -0.957782 0.020047 -0.653225 0.000000 0.000000
    23 -0.249534 -2.846964 -0.174215 -0.101658 0.123580 0.049873
    24 0.043234 -1.683941 0.096014 -2.179931 0.002823 -0.000167
    25 0.031729 -1.160830 0.058836 -0.444010 0.000642 0.008372
    26 0.447952 -2.798983 -0.200441 -1.000615 0.126731 0.357302
    27 -0.032910 -1.480208 0.004936 -2.042292 0.000000 0.000002
    28 -0.027022 -1.076920 -0.020212 -0.781662 0.000000 0.000000
    29 1.164475 -2.543939 -0.170327 -1.029806 -0.013294 0.477914
    30 0.024033 -1.129040 0.017806 -1.505504 0.000000 0.000000
    31 0.014896 -0.883991 -0.019845 -0.844587 0.000000 0.000000
    32 0.118421 -0.068729 -0.087169 0.345445 0.039160 1.265502
    33 0.583509 -1.197273 0.185379 -0.186067 -0.292868 -0.073208
    34 1.535925 0.010247 0.005009 0.001399 -0.013231 -0.329707
    35 1.100770 0.004527 -0.010675 -0.000710 0.016189 0.132930
    36 0.957766 -2.746777 -0.090301 -0.065910 0.226036 0.255712
    37 -0.033419 -1.397129 -0.011256 -1.320160 0.000000 -0.000001
    38 -0.022362 -0.957434 0.018782 -1.212891 0.000000 0.000000
    39 0.250028 -2.820664 -0.238397 -0.351554 0.323527 0.088427
    40 -0.049759 -1.680546 0.100479 -1.768838 0.000000 -0.000002
    41 -0.034141 -1.148309 0.084778 -1.256851 0.000000 0.000000
    42 -0.488517 -2.755600 -0.228262 -0.026880 0.205465 0.134464
    43 0.039889 -1.479791 0.029853 -1.802101 0.000000 0.000001
    44 0.028786 -1.075733 -0.023111 -0.828849 0.000000 0.000000
    45 -1.180679 -2.507216 -0.193861 0.389766 0.205059 0.256395
    46 -0.024966 -1.123935 0.017594 -1.277148 0.000000 0.000001
    47 -0.020058 -0.890966 0.010091 -1.347617 0.000000 0.000000
    48 0.022493 -0.058080 -0.081833 -2.852418 -0.002787 -1.467419
  time 18
    0 11.071729 5.477415 -3.635209 -0.242286 -2.073522 -0.050472
    1 -0.071918 -8.498734 -0.104135 -0.302716 0.550694 -0.351498
    2 0.905662 -2.864319 0.551975 1.139257 1.326962 1.104567
    3 -0.000001 -12.629979 7.375443 -0.467747 0.000000 0.000000
    4 0.000002 -6.940917 -4.748858 0.000000 0.000000 0.000000
    5 -0.000002 14.232141 1.630652 -0.926992 0.000000 0.000000
    6 -3.961862 10.013004 -7.304515 1.570797 0.000000 0.000001
    7 -0.001366 0.001477 3.589092 0.000000 0.000000 0.000000
    8 -3.772527 -8.158155 -1.854879 0.628104 -2.445420 -0.435841
    9 0.062478 0.000000 1.425783 0.000000 -0.354719 0.000000
    10 -0.026257 0.000000 1.400207 0.000000 -0.186690 0.000000
    11 -0.023174 0.000001 1.707046 0.000000 0.000000 0.000000
    12 -0.043764 0.000000 1.936484 0.000000 -0.117869 0.000000
    13 -0.159953 0.000001 2.091296 0.000000 -0.081107 0.000000
    14 -6.014892 -3.879381 -5.371258 0.214254 -1.699022 -1.437207
    15 -0.085749 -0.255579 -8.907138 1.636738 0.626147 -1.487161
    16 0.096946 -8.450419 -0.009364 -0.145183 -0.053649 0.813171
    17 -0.591284 -1.257741 0.232708 -0.337699 -0.733390 -2.456607
    18 1.522835 0.058680 0.016851 0.000916 -0.604842 1.084862
    19 1.117948 0.048424 -0.005765 -0.017681 -0.017958 0.833687
    20 -0.963867 -2.785143 -0.085346 -0.153116 0.147906 -0.067384
    21 0.028478 -1.403067 0.006271 -1.765439 0.000000 0.000000
    22 0.021414 -0.957782 0.020047 -0.756074 0.000000 0.000000
    23 -0.249534 -2.846964 -0.174215 0.026815 0.123951 0.035216
    24 0.043234 -1.683941 0.096014 -2.236016 0.002823 -0.000167
    25 0.031729 -1.160830 0.058836 -0.430750 0.000642 0.008372
    26 0.447952 -2.798983 -0.200441 -1.000615 0.126731 0.357302
    27 -0.032910 -1.480208 0.004936 -2.042292 0.000000 0.000002
    28 -0.027022 -1.076920 -0.020212 -0.781662 0.000000 0.000000
    29 1.164475 -2.543939 -0.170327 -1.029806 -0.013294 0.477914
    30 0.024033 -1.129040 0.017806 -1.505504 0.000000 0.000000
    31 0.014896 -0.883991 -0.019845 -0.844587 0.000000 0.000000
    32 0.122328 -0.029665 -0.083262 0.272171 0.030759 1.252211
    33 0.583509 -1.197273 0.185379 -0.186067 -0.292868 -0.073208
    34 1.535925 0.010247 0.005009 0.001555 -0.013219 -0.341418
    35 1.100770 0.004527 -0.010675 -0.000410 0.016201 0.151577
    36 0.957766 -2.746777 -0.090301 -0.065910 0.226036 0.255712
    37 -0.033419 -1.397129 -0.011256 -1.320160 0.000000 -0.000001
    38 -0.022362 -0.957434 0.018782 -1.212891 0.000000 0.000000
    39 0.250028 -2.820664 -0.238397 -0.351554 0.323527 0.088427
    40 -0.049759 -1.680546 0.100479 -1.768838 0.000000 -0.000002
    41 -0.034141 -1.148309 0.084778 -1.256851 0.000000 0.000000
    42 -0.488517 -2.755600 -0.228262 -0.026880 0.205465 0.134464
    43 0.039889 -1.479791 0.029853 -1.802101 0.000000 0.000001
    44 0.028786 -1.075733 -0.023111 -0.828849 0.000000 0.000000
    45 -1.180679 -2.507216 -0.193861 0.389766 0.205059 0.256395
    46 -0.024966 -1.123935 0.017594 -1.277148 0.000000 0.000001
    47 -0.020058 -0.890966 0.010091 -1.347617 0.000000 0.000000
    48 0.034212 -0.054173 -0.077926 -2.852418 0.001239 -1.481165
  time 19
    0 10.938913 5.618045 -4.256322 -0.224633 -2.073000 -0.060323
    1 -0.071918 -8.498734 -0.104135 -0.279565 0.567362 -0.324363
    2 0.905662 -2.864319 0.551975 1.139257 1.326962 1.104567
    3 -0.000001 -12.629979 7.375443 -0.467747 0.000000 0.000000
    4 0.000002 -6.940917 -4.748858 0.000000 0.000000 0.000000
    5 -0.000002 14.232141 1.630652 -0.926992 0.000000 0.000000
    6 -3.961862 10.013004 -7.304515 1.570797 0.000000 0.000001
    7 -0.001366 0.001477 3.589092 0.000000 0.000000 0.000000
    8 -3.772527 -8.158155 -1.854879 0.628104 -2.445420 -0.435841
    9 0.062478 0.000000 1.425783 0.000000 -0.354719 0.000000
    10 -0.026257 0.000000 1.400207 0.000000 -0.186690 0.000000
    11 -0.023174 0.000001 1.707046 0.000000 0.000000 0.000000
    12 -0.043764 0.000000 1.936484 0.000000 -0.117869 0.000000
    13 -0.159953 0.000001 2.091296 0.000000 -0.081107 0.000000
    14 -5.909420 -3.906726 -5.410321 -0.015554 -1.687071 -1.200595
    15 -0.085749 -0.255579 -8.907138 1.637793 0.635490 -1.487254
    16 0.096946 -8.450419 -0.009364 -0.091497 0.002846 0.782240
    17 -0.591284 -1.257741 0.232708 -0.332619 -0.727338 -2.455737
    18 1.522835 0.058680 0.016851 0.000916 -0.604842 1.084862
    19 1.117948 0.048424 -0.005765 -0.017752 -0.017886 0.837603
    20 -0.963867 -2.785143 -0.085346 -0.117940 0.142921 -0.074251
    21 0.028478 -1.403067 0.006271 -1.729463 0.000000 0.000000
    22 0.021414 -0.957782 0.020047 -0.853843 0.000000 0.000000
    23 -0.249534 -2.846964 -0.174215 0.078177 0.124143 0.029463
    24 0.043234 -1.683941 0.096014 -2.289392 0.002823 -0.000167
    25 0.031729 -1.160830 0.058836 -0.418136 0.000642 0.008372
    26 0.447952 -2.798983 -0.200441 -1.000615 0.126731 0.357302
    27 -0.032910 -1.480208 0.004936 -2.042292 0.000000 0.000002
    28 -0.027022 -1.076920 -0.020212 -0.781662 0.000000 0.000000
    29 1.164475 -2.543939 -0.170327 -1.029806 -0.013294 0.477914
    30 0.024033 -1.129040 0.017806 -1.505504 0.000000 0.000000
    31 0.014896 -0.883991 -0.019845 -0.844587 0.000000 0.000000
    32 0.118421 0.005492 -0.079356 0.201330 0.022130 1.239315
    33 0.583509 -1.197273 0.185379 -0.186067 -0.292868 -0.073208
    34 1.535925 0.010247 0.005009 0.001699 -0.013195 -0.351763
    35 1.100770 0.004527 -0.010675 -0.000146 0.016213 0.168001
    36 0.957766 -2.746777 -0.090301 -0.065910 0.226036 0.255712
    37 -0.033419 -1.397129 -0.011256 -1.320160 0.000000 -0.000001
    38 -0.022362 -0.957434 0.018782 -1.212891 0.000000 0.000000
    39 0.250028 -2.820664 -0.238397 -0.351554 0.323527 0.088427
    40 -0.049759 -1.680546 0.100479 -1.768838 0.000000 -0.000002
    41 -0.034141 -1.148309 0.084778 -1.256851 0.000000 0.000000
    42 -0.488517 -2.755600 -0.228262 -0.026880 0.205465 0.134464
    43 0.039889 -1.479791 0.029853 -1.802101 0.000000 0.000001
    44 0.028786 -1.075733 -0.023111 -0.828849 0.000000 0.000000
    45 -1.180679 -2.507216 -0.193861 0.389766 0.205059 0.256395
    46 -0.024966 -1.123935 0.017594 -1.277148 0.000000 0.000001
    47 -0.020058 -0.890966 0.010091 -1.347617 0.000000 0.000000
    48 0.045931 -0.054173 -0.074020 -2.852418 0.005169 -1.494433
  time 20
    0 10.810002 5.758674 -4.846183 -0.210305 -2.072695 -0.067487
    1 -0.071918 -8.498734 -0.104135 -0.257256 0.583034 -0.298428
    2 0.905662 -2.864319 0.551975 1.139257 1.326962 1.104567
    3 -0.000001 -12.629979 7.375443 -0.467747 0.000000 0.000000
    4 0.000002 -6.940917 -4.748858 0.000000 0.000000 0.000000
    5 -0.000002 14.232141 1.630652 -0.926992 0.000000 0.000000
    6 -3.961862 10.013004 -7.304515 1.570797 0.000000 0.000001
    7 -0.001366 0.001477 3.589092 0.000000 0.000000 0.000000
    8 -3.772527 -8.158155 -1.854879 0.628104 -2.445420 -0.435841
    9 0.062478 0.000000 1.425783 0.000000 -0.354719 0.000000
    10 -0.026257 0.000000 1.400207 0.000000 -0.186690 0.000000
    11 -0.023174 0.000001 1.707046 0.000000 0.000000 0.000000
    12 -0.043764 0.000000 1.936484 0.000000 -0.117869 0.000000
    13 -0.159953 0.000001 2.091296 0.000000 -0.081107 0.000000
    14 -5.796135 -3.902819 -5.457198 -0.269185 -1.680776 -0.941701
    15 -0.085749 -0.255579 -8.907138 1.638849 0.645244 -1.487346
    16 0.096946 -8.450419 -0.009364 -0.044680 0.052920 0.750933
    17 -0.591284 -1.257741 0.232708 -0.332619 -0.727338 -2.455737
    18 1.522835 0.058680 0.016851 0.000916 -0.604842 1.084862
    19 1.117948 0.048424 -0.005765 -0.017752 -0.017886 0.837603
    20 -0.963867 -2.785143 -0.085346 -0.089326 0.138978 -0.079668
    21 0.028478 -1.403067 0.006271 -1.699720 0.000000 0.000000
    22 0.021414 -0.957782 0.020047 -0.936305 0.000000 0.000000
    23 -0.249534 -2.846964 -0.174215 0.070916 0.126121 0.033322
    24 0.043234 -1.683941 0.096014 -2.334368 0.002823 -0.000167
    25 0.031729 -1.160830 0.058836 -0.407504 0.000642 0.008372
    26 0.447952 -2.798983 -0.200441 -1.000615 0.126731 0.357302
    27 -0.032910 -1.480208 0.004936 -2.042292 0.000000 0.000002
    28 -0.027022 -1.076920 -0.020212 -0.781662 0.000000 0.000000
    29 1.164475 -2.543939 -0.170327 -1.029806 -0.013294 0.477914
    30 0.024033 -1.129040 0.017806 -1.505504 0.000000 0.000000
    31 0.014896 -0.883991 -0.019845 -0.844587 0.000000 0.000000
    32 0.118421 0.036743 -0.075449 0.139526 0.014736 1.228014
    33 0.583509 -1.197273 0.185379 -0.186067 -0.292868 -0.073208
    34 1.535925 0.010247 0.005009 0.001819 -0.013183 -0.360809
    35 1.100770 0.004527 -0.010675 0.000081 0.016213 0.182342
    36 0.957766 -2.746777 -0.090301 -0.065910 0.226036 0.255712
    37 -0.033419 -1.397129 -0.011256 -1.320160 0.000000 -0.000001
    38 -0.022362 -0.957434 0.018782 -1.212891 0.000000 0.000000
    39 0.250028 -2.820664 -0.238397 -0.351554 0.323527 0.088427
    40 -0.049759 -1.680546 0.100479 -1.768838 0.000000 -0.000002
    41 -0.034141 -1.148309 0.084778 -1.256851 0.000000 0.000000
    42 -0.488517 -2.755600 -0.228262 -0.026880 0.205465 0.134464
    43 0.039889 -1.479791 0.029853 -1.802101 0.000000 0.000001
    44 0.028786 -1.075733 -0.023111 -0.828849 0.000000 0.000000
    45 -1.180679 -2.507216 -0.193861 0.389766 0.205059 0.256395
    46 -0.024966 -1.123935 0.017594 -1.277148 0.000000 0.000001
    47 -0.020058 -0.890966 0.010091 -1.347617 0.000000 0.000000
    48 0.057650 -0.054173 -0.070113 -2.852514 0.009003 -1.507319
  time 21
    0 10.688905 5.899303 -5.385262 -0.199880 -2.072565 -0.071639
    1 -0.071918 -8.498734 -0.104135 -0.236228 0.597455 -0.274265
    2 0.905662 -2.864319 0.551975 1.139257 1.326962 1.104567
    3 -0.000001 -12.629979 7.375443 -0.467747 0.000000 0.000000
    4 0.000002 -6.940917 -4.748858 0.000000 0.000000 0.000000
    5 -0.000002 14.232141 1.630652 -0.926992 0.000000 0.000000
    6 -3.961862 10.013004 -7.304515 1.570797 0.000000 0.000001
    7 -0.001366 0.001477 3.589092 0.000000 0.000000 0.000000
    8 -3.772527 -8.158155 -1.854879 0.628104 -2.445420 -0.435841
    9 0.062478 0.000000 1.425783 0.000000 -0.354719 0.000000
    10 -0.026257 0.000000 1.400207 0.000000 -0.186690 0.000000
    11 -0.023174 0.000001 1.707046 0.000000 0.000000 0.000000
    12 -0.043764 0.000000 1.936484 0.000000 -0.117869 0.000000
    13 -0.159953 0.000001 2.091296 0.000000 -0.081107 0.000000
    14 -5.698476 -3.883287 -5.507981 -0.504098 -1.679881 -0.700881
    15 -0.085749 -0.255579 -8.907138 1.639579 0.651882 -1.487439
    16 0.096946 -8.450419 -0.009364 -0.008018 0.092714 0.720603
    17 -0.591284 -1.257741 0.232708 -0.332619 -0.727338 -2.455737
    18 1.522835 0.058680 0.016851 0.000916 -0.604842 1.084862
    19 1.117948 0.048424 -0.005765 -0.017752 -0.017886 0.837603
    20 -0.963867 -2.785143 -0.085346 -0.070079 0.136389 -0.083227
    21 0.028478 -1.403067 0.006271 -1.679444 0.000000 0.000000
    22 0.021414 -0.957782 0.020047 -0.993269 0.000000 0.000000
    23 -0.249534 -2.846964 -0.174215 0.049918 0.131202 0.043246
    24 0.043234 -1.683941 0.096014 -2.365527 0.002823 -0.000167
    25 0.031729 -1.160830 0.058836 -0.400146 0.000642 0.008372
    26 0.447952 -2.798983 -0.200441 -1.000615 0.126731 0.357302
    27 -0.032910 -1.480208 0.004936 -2.042292 0.000000 0.000002
    28 -0.027022 -1.076920 -0.020212 -0.781662 0.000000 0.000000
    29 1.164475 -2.543939 -0.170327 -1.029806 -0.013294 0.477914
    30 0.024033 -1.129040 0.017806 -1.505504 0.000000 0.000000
    31 0.014896 -0.883991 -0.019845 -0.844587 0.000000 0.000000
    32 0.114515 0.060181 -0.071543 0.093349 0.010050 1.219469
    33 0.583509 -1.197273 0.185379 -0.186067 -0.292868 -0.073208
    34 1.535925 0.010247 0.005009 0.001915 -0.013171 -0.368594
    35 1.100770 0.004527 -0.010675 0.000285 0.016213 0.194719
    36 0.957766 -2.746777 -0.090301 -0.065910 0.226036 0.255712
    37 -0.033419 -1.397129 -0.011256 -1.320160 0.000000 -0.000001
    38 -0.022362 -0.957434 0.018782 -1.212891 0.000000 0.000000
    39 0.250028 -2.820664 -0.238397 -0.351554 0.323527 0.088427
    40 -0.049759 -1.680546 0.100479 -1.768838 0.000000 -0.000002
    41 -0.034141 -1.148309 0.084778 -1.256851 0.000000 0.000000
    42 -0.488517 -2.755600 -0.228262 -0.026880 0.205465 0.134464
    43 0.039889 -1.479791 0.029853 -1.802101 0.000000 0.000001
    44 0.028786 -1.075733 -0.023111 -0.828849 0.000000 0.000000
    45 -1.180679 -2.507216 -0.193861 0.389766 0.205059 0.256395
    46 -0.024966 -1.123935 0.017594 -1.277148 0.000000 0.000001
    47 -0.020058 -0.890966 0.010091 -1.347617 0.000000 0.000000
    48 0.069369 -0.054173 -0.070113 -2.852610 0.012645 -1.519538
  time 22
    0 10.575620 6.036026 -5.857933 -0.193867 -2.072608 -0.072453
    1 -0.071918 -8.498734 -0.104135 -0.216939 0.610340 -0.252465
    2 0.905662 -2.864319 0.551975 1.139257 1.326962 1.104567
    3 -0.000001 -12.629979 7.375443 -0.467747 0.000000 0.000000
    4 0.000002 -6.940917 -4.748858 0.000000 0.000000 0.000000
    5 -0.000002 14.232141 1.630652 -0.926992 0.000000 0.000000
    6 -3.961862 10.013004 -7.304515 1.570797 0.000000 0.000001
    7 -0.001366 0.001477 3.589092 0.000000 0.000000 0.000000
    8 -3.772527 -8.158155 -1.854879 0.628104 -2.445420 -0.435841
    9 0.062478 0.000000 1.425783 0.000000 -0.354719 0.000000
    10 -0.026257 0.000000 1.400207 0.000000 -0.186690 0.000000
    11 -0.023174 0.000001 1.707046 0.000000 0.000000 0.000000
    12 -0.043764 0.000000 1.936484 0.000000 -0.117869 0.000000
    13 -0.159953 0.000001 2.091296 0.000000 -0.081107 0.000000
    14 -5.628161 -3.852036 -5.566576 -0.681536 -1.681638 -0.514199
    15 -0.085749 -0.255579 -8.907138 1.639579 0.651473 -1.487439
    16 0.096946 -8.450419 -0.009364 0.015432 0.118343 0.692494
    17 -0.591284 -1.257741 0.232708 -0.332619 -0.727338 -2.455737
    18 1.522835 0.058680 0.016851 0.000916 -0.604842 1.084862
    19 1.117948 0.048424 -0.005765 -0.017752 -0.017886 0.837603
    20 -0.963867 -2.785143 -0.085346 -0.063023 0.135454 -0.084510
    21 0.028478 -1.403067 0.006271 -1.671949 0.000000 0.000000
    22 0.021414 -0.957782 0.020047 -1.014541 0.000000 0.000000
    23 -0.249534 -2.846964 -0.174215 0.016369 0.138117 0.056716
    24 0.043234 -1.683941 0.096014 -2.377087 0.002823 -0.000167
    25 0.031729 -1.160830 0.058836 -0.397437 0.000642 0.008372
    26 0.447952 -2.798983 -0.200441 -1.000615 0.126731 0.357302
    27 -0.032910 -1.480208 0.004936 -2.042292 0.000000 0.000002
    28 -0.027022 -1.076920 -0.020212 -0.781662 0.000000 0.000000
    29 1.164475 -2.543939 -0.170327 -1.029806 -0.013294 0.477914
    30 0.024033 -1.129040 0.017806 -1.505504 0.000000 0.000000
    31 0.014896 -0.883991 -0.019845 -0.844587 0.000000 0.000000
    32 0.110609 0.075807 -0.067637 0.069356 0.009535 1.214855
    33 0.583509 -1.197273 0.185379 -0.186067 -0.292868 -0.073208
    34 1.535925 0.010247 0.005009 0.002011 -0.013159 -0.375256
    35 1.100770 0.004527 -0.010675 0.000453 0.016201 0.205247
    36 0.957766 -2.746777 -0.090301 -0.065910 0.226036 0.255712
    37 -0.033419 -1.397129 -0.011256 -1.320160 0.000000 -0.000001
    38 -0.022362 -0.957434 0.018782 -1.212891 0.000000 0.000000
    39 0.250028 -2.820664 -0.238397 -0.351554 0.323527 0.088427
    40 -0.049759 -1.680546 0.100479 -1.768838 0.000000 -0.000002
    41 -0.034141 -1.148309 0.084778 -1.256851 0.000000 0.000000
    42 -0.488517 -2.755600 -0.228262 -0.026880 0.205465 0.134464
    43 0.039889 -1.479791 0.029853 -1.802101 0.000000 0.000001
    44 0.028786 -1.075733 -0.023111 -0.828849 0.000000 0.000000
    45 -1.180679 -2.507216 -0.193861 0.389766 0.205059 0.256395
    46 -0.024966 -1.123935 0.017594 -1.277148 0.000000 0.000001
    47 -0.020058 -0.890966 0.010091 -1.347617 0.000000 0.000000
    48 0.081088 -0.050267 -0.066207 -2.852802 0.016096 -1.530992
  time 23
    0 10.481867 6.172749 -6.256383 -0.192652 -2.072782 -0.069604
    1 -0.071918 -8.498734 -0.104135 -0.199906 0.621433 -0.233673
    2 0.905662 -2.864319 0.551975 1.139257 1.326962 1.104567
    3 -0.000001 -12.629979 7.375443 -0.467747 0.000000 0.000000
    4 0.000002 -6.940917 -4.748858 0.000000 0.000000 0.000000
    5 -0.000002 14.232141 1.630652 -0.926992 0.000000 0.000000
    6 -3.961862 10.013004 -7.304515 1.570797 0.000000 0.000001
    7 -0.001366 0.001477 3.589092 0.000000 0.000000 0.000000
    8 -3.772527 -8.158155 -1.854879 0.628104 -2.445420 -0.435841
    9 0.062478 0.000000 1.425783 0.000000 -0.354719 0.000000
    10 -0.026257 0.000000 1.400207 0.000000 -0.186690 0.000000
    11 -0.023174 0.000001 1.707046 0.000000 0.000000 0.000000
    12 -0.043764 0.000000 1.936484 0.000000 -0.117869 0.000000
    13 -0.159953 0.000001 2.091296 0.000000 -0.081107 0.000000
    14 -5.589098 -3.789535 -5.640797 -0.811990 -1.685185 -0.368700
    15 -0.085749 -0.255579 -8.907138 1.637793 0.635326 -1.487254
    16 0.096946 -8.450419 -0.009364 0.024661 0.128538 0.662090
    17 -0.591284 -1.257741 0.232708 -0.332619 -0.727338 -2.455737
    18 1.522835 0.058680 0.016851 0.000916 -0.604842 1.084862
    19 1.117948 0.048424 -0.005765 -0.017752 -0.017886 0.837603
    20 -0.963867 -2.785143 -0.085346 -0.079235 0.138199 -0.082424
    21 0.028478 -1.403067 0.006271 -1.685362 0.000000 0.000000
    22 0.021414 -0.957782 0.020047 -1.006530 0.000000 0.000000
    23 -0.249534 -2.846964 -0.174215 -0.028650 0.145572 0.071266
    24 0.043234 -1.683941 0.096014 -2.373384 0.002823 -0.000167
    25 0.031729 -1.160830 0.058836 -0.397437 0.000642 0.008372
    26 0.447952 -2.798983 -0.200441 -1.000615 0.126731 0.357302
    27 -0.032910 -1.480208 0.004936 -2.042292 0.000000 0.000002
    28 -0.027022 -1.076920 -0.020212 -0.781662 0.000000 0.000000
    29 1.164475 -2.543939 -0.170327 -1.029806 -0.013294 0.477914
    30 0.024033 -1.129040 0.017806 -1.505504 0.000000 0.000000
    31 0.014896 -0.883991 -0.019845 -0.844587 0.000000 0.000000
    32 0.098890 0.083619 -0.063730 0.069919 0.013549 1.214519
    33 0.583509 -1.197273 0.185379 -0.186067 -0.292868 -0.073208
    34 1.535925 0.010247 0.005009 0.002083 -0.013147 -0.380832
    35 1.100770 0.004527 -0.010675 0.000597 0.016201 0.214067
    36 0.957766 -2.746777 -0.090301 -0.065910 0.226036 0.255712
    37 -0.033419 -1.397129 -0.011256 -1.320160 0.000000 -0.000001
    38 -0.022362 -0.957434 0.018782 -1.212891 0.000000 0.000000
    39 0.250028 -2.820664 -0.238397 -0.351554 0.323527 0.088427
    40 -0.049759 -1.680546 0.100479 -1.768838 0.000000 -0.000002
    41 -0.034141 -1.148309 0.084778 -1.256851 0.000000 0.000000
    42 -0.488517 -2.755600 -0.228262 -0.026880 0.205465 0.134464
    43 0.039889 -1.479791 0.029853 -1.802101 0.000000 0.000001
    44 0.028786 -1.075733 -0.023111 -0.828849 0.000000 0.000000
    45 -1.180679 -2.507216 -0.193861 0.389766 0.205059 0.256395
    46 -0.024966 -1.123935 0.017594 -1.277148 0.000000 0.000001
    47 -0.020058 -0.890966 0.010091 -1.347617 0.000000 0.000000
    48 0.088901 -0.050267 -0.062301 -2.852994 0.019164 -1.541492
  time 24
    0 10.403740 6.301659 -6.553267 -0.196809 -2.073174 -0.062684
    1 -0.071918 -8.498734 -0.104135 -0.185588 0.630478 -0.218518
    2 0.905662 -2.864319 0.551975 1.139257 1.326962 1.104567
    3 -0.000001 -12.629979 7.375443 -0.467747 0.000000 0.000000
    4 0.000002 -6.940917 -4.748858 0.000000 0.000000 0.000000
    5 -0.000002 14.232141 1.630652 -0.926992 0.000000 0.000000
    6 -3.961862 10.013004 -7.304515 1.570797 0.000000 0.000001
    7 -0.001366 0.001477 3.589092 0.000000 0.000000 0.000000
    8 -3.772527 -8.158155 -1.854879 0.628104 -2.445420 -0.435841
    9 0.062478 0.000000 1.425783 0.000000 -0.354719 0.000000
    10 -0.026257 0.000000 1.400207 0.000000 -0.186690 0.000000
    11 -0.023174 0.000001 1.707046 0.000000 0.000000 0.000000
    12 -0.043764 0.000000 1.936484 0.000000 -0.117869 0.000000
    13 -0.159953 0.000001 2.091296 0.000000 -0.081107 0.000000
    14 -5.569566 -3.676250 -5.734550 -0.916260 -1.691608 -0.242926
    15 -0.085749 -0.255579 -8.907138 1.633815 0.599182 -1.486976
    16 0.096946 -8.450419 -0.009364 0.022975 0.127073 0.626041
    17 -0.591284 -1.257741 0.232708 -0.332619 -0.727338 -2.455737
    18 1.522835 0.058680 0.016851 0.000916 -0.604842 1.084862
    19 1.117948 0.048424 -0.005765 -0.017752 -0.017886 0.837603
    20 -0.963867 -2.785143 -0.085346 -0.121979 0.145426 -0.076935
    21 0.028478 -1.403067 0.006271 -1.720548 0.000000 0.000000
    22 0.021414 -0.957782 0.020047 -0.985428 0.000000 0.000000
    23 -0.249534 -2.846964 -0.174215 -0.083953 0.152295 0.084365
    24 0.043234 -1.683941 0.096014 -2.363540 0.002823 -0.000167
    25 0.031729 -1.160830 0.058836 -0.397437 0.000642 0.008372
    26 0.447952 -2.798983 -0.200441 -1.000615 0.126731 0.357302
    27 -0.032910 -1.480208 0.004936 -2.042292 0.000000 0.000002
    28 -0.027022 -1.076920 -0.020212 -0.781662 0.000000 0.000000
    29 1.164475 -2.543939 -0.170327 -1.029806 -0.013294 0.477914
    30 0.024033 -1.129040 0.017806 -1.505504 0.000000 0.000000
    31 0.014896 -0.883991 -0.019845 -0.844587 0.000000 0.000000
    32 0.087170 0.079713 -0.055918 0.089178 0.020692 1.217359
    33 0.583509 -1.197273 0.185379 -0.186067 -0.292868 -0.073208
    34 1.535925 0.010247 0.005009 0.002142 -0.013135 -0.385390
    35 1.100770 0.004527 -0.010675 0.000716 0.016189 0.221296
    36 0.957766 -2.746777 -0.090301 -0.065910 0.226036 0.255712
    37 -0.033419 -1.397129 -0.011256 -1.320160 0.000000 -0.000001
    38 -0.022362 -0.957434 0.018782 -1.212891 0.000000 0.000000
    39 0.250028 -2.820664 -0.238397 -0.351554 0.323527 0.088427
    40 -0.049759 -1.680546 0.100479 -1.768838 0.000000 -0.000002
    41 -0.034141 -1.148309 0.084778 -1.256851 0.000000 0.000000
    42 -0.488517 -2.755600 -0.228262 -0.026880 0.205465 0.134464
    43 0.039889 -1.479791 0.029853 -1.802101 0.000000 0.000001
    44 0.028786 -1.075733 -0.023111 -0.828849 0.000000 0.000000
    45 -1.180679 -2.507216 -0.193861 0.389766 0.205059 0.256395
    46 -0.024966 -1.123935 0.017594 -1.277148 0.000000 0.000001
    47 -0.020058 -0.890966 0.010091 -1.347617 0.000000 0.000000
    48 0.096714 -0.050267 -0.058394 -2.853185 0.022039 -1.551133
  time 25
    0 10.349051 6.422757 -6.748585 -0.206787 -2.073739 -0.051612
    1 -0.071918 -8.498734 -0.104135 -0.174481 0.637219 -0.207627
    2 0.905662 -2.864319 0.551975 1.139257 1.326962 1.104567
    3 -0.000001 -12.629979 7.375443 -0.467747 0.000000 0.000000
    4 0.000002 -6.940917 -4.748858 0.000000 0.000000 0.000000
    5 -0.000002 14.232141 1.630652 -0.926992 0.000000 0.000000
    6 -3.961862 10.013004 -7.304515 1.570797 0.000000 0.000001
    7 -0.001366 0.001477 3.589092 0.000000 0.000000 0.000000
    8 -3.772527 -8.158155 -1.854879 0.628104 -2.445420 -0.435841
    9 0.062478 0.000000 1.425783 0.000000 -0.354719 0.000000
    10 -0.026257 0.000000 1.400207 0.000000 -0.186690 0.000000
    11 -0.023174 0.000001 1.707046 0.000000 0.000000 0.000000
    12 -0.043764 0.000000 1.936484 0.000000 -0.117869 0.000000
    13 -0.159953 0.000001 2.091296 0.000000 -0.081107 0.000000
    14 -5.565659 -3.531714 -5.843928 -0.993493 -1.699533 -0.140177
    15 -0.085749 -0.255579 -8.907138 1.628131 0.548694 -1.486513
    16 0.096946 -8.450419 -0.009364 0.013515 0.117301 0.587170
    17 -0.591284 -1.257741 0.232708 -0.332619 -0.727338 -2.455737
    18 1.522835 0.058680 0.016851 0.000916 -0.604842 1.084862
    19 1.117948 0.048424 -0.005765 -0.017752 -0.017886 0.837603
    20 -0.963867 -2.785143 -0.085346 -0.182400 0.155637 -0.069145
    21 0.028478 -1.403067 0.006271 -1.770252 0.000000 0.000000
    22 0.021414 -0.957782 0.020047 -0.955634 0.000000 0.000000
    23 -0.249534 -2.846964 -0.174215 -0.162602 0.159150 0.097740
    24 0.043234 -1.683941 0.096014 -2.349722 0.002823 -0.000167
    25 0.031729 -1.160830 0.058836 -0.397437 0.000642 0.008372
    26 0.447952 -2.798983 -0.200441 -1.000615 0.126731 0.357302
    27 -0.032910 -1.480208 0.004936 -2.042292 0.000000 0.000002
    28 -0.027022 -1.076920 -0.020212 -0.781662 0.000000 0.000000
    29 1.164475 -2.543939 -0.170327 -1.029806 -0.013294 0.477914
    30 0.024033 -1.129040 0.017806 -1.505504 0.000000 0.000000
    31 0.014896 -0.883991 -0.019845 -0.844587 0.000000 0.000000
    32 0.071545 0.075807 -0.048105 0.121381 0.029824 1.222429
    33 0.583509 -1.197273 0.185379 -0.186067 -0.292868 -0.073208
    34 1.535925 0.010247 0.005009 0.002190 -0.013123 -0.389037
    35 1.100770 0.004527 -0.010675 0.000812 0.016189 0.227052
    36 0.957766 -2.746777 -0.090301 -0.065910 0.226036 0.255712
    37 -0.033419 -1.397129 -0.011256 -1.320160 0.000000 -0.000001
    38 -0.022362 -0.957434 0.018782 -1.212891 0.000000 0.000000
    39 0.250028 -2.820664 -0.238397 -0.351554 0.323527 0.088427
    40 -0.049759 -1.680546 0.100479 -1.768838 0.000000 -0.000002
    41 -0.034141 -1.148309 0.084778 -1.256851 0.000000 0.000000
    42 -0.488517 -2.755600 -0.228262 -0.026880 0.205465 0.134464
    43 0.039889 -1.479791 0.029853 -1.802101 0.000000 0.000001
    44 0.028786 -1.075733 -0.023111 -0.828849 0.000000 0.000000
    45 -1.180679 -2.507216 -0.193861 0.389766 0.205059 0.256395
    46 -0.024966 -1.123935 0.017594 -1.277148 0.000000 0.000001
    47 -0.020058 -0.890966 0.010091 -1.347617 0.000000 0.000000
    48 0.104527 -0.050267 -0.058394 -2.853377 0.024532 -1.559533
  time 26
    0 10.325613 6.536041 -6.818900 -0.223098 -2.074653 -0.035981
    1 -0.071918 -8.498734 -0.104135 -0.167064 0.641372 -0.201628
    2 0.905662 -2.864319 0.551975 1.139257 1.326962 1.104567
    3 -0.000001 -12.629979 7.375443 -0.467747 0.000000 0.000000
    4 0.000002 -6.940917 -4.748858 0.000000 0.000000 0.000000
    5 -0.000002 14.232141 1.630652 -0.926992 0.000000 0.000000
    6 -3.961862 10.013004 -7.304515 1.570797 0.000000 0.000001
    7 -0.001366 0.001477 3.589092 0.000000 0.000000 0.000000
    8 -3.772527 -8.158155 -1.854879 0.628104 -2.445420 -0.435841
    9 0.062478 0.000000 1.425783 0.000000 -0.354719 0.000000
    10 -0.026257 0.000000 1.400207 0.000000 -0.186690 0.000000
    11 -0.023174 0.000001 1.707046 0.000000 0.000000 0.000000
    12 -0.043764 0.000000 1.936484 0.000000 -0.117869 0.000000
    13 -0.159953 0.000001 2.091296 0.000000 -0.081107 0.000000
    14 -5.573472 -3.379366 -5.957213 -1.047093 -1.707649 -0.058143
    15 -0.085749 -0.255579 -8.907138 1.621067 0.487306 -1.486050
    16 0.096946 -8.450419 -0.009364 -0.000686 0.102431 0.548337
    17 -0.591284 -1.257741 0.232708 -0.332619 -0.727338 -2.455737
    18 1.522835 0.058680 0.016851 0.000916 -0.604842 1.084862
    19 1.117948 0.048424 -0.005765 -0.017752 -0.017886 0.837603
    20 -0.963867 -2.785143 -0.085346 -0.251659 0.167322 -0.060181
    21 0.028478 -1.403067 0.006271 -1.827292 0.000000 0.000000
    22 0.021414 -0.957782 0.020047 -0.921442 0.000000 0.000000
    23 -0.249534 -2.846964 -0.174215 -0.266622 0.167168 0.113343
    24 0.043234 -1.683941 0.096014 -2.333826 0.002823 -0.000167
    25 0.031729 -1.160830 0.058836 -0.397437 0.000642 0.008372
    26 0.447952 -2.798983 -0.200441 -1.000615 0.126731 0.357302
    27 -0.032910 -1.480208 0.004936 -2.042292 0.000000 0.000002
    28 -0.027022 -1.076920 -0.020212 -0.781662 0.000000 0.000000
    29 1.164475 -2.543939 -0.170327 -1.029806 -0.013294 0.477914
    30 0.024033 -1.129040 0.017806 -1.505504 0.000000 0.000000
    31 0.014896 -0.883991 -0.019845 -0.844587 0.000000 0.000000
    32 0.055919 0.064088 -0.044199 0.160714 0.039844 1.228745
    33 0.583509 -1.197273 0.185379 -0.186067 -0.292868 -0.073208
    34 1.535925 0.010247 0.005009 0.002226 -0.013123 -0.391877
    35 1.100770 0.004527 -0.010675 0.000884 0.016189 0.231497
    36 0.957766 -2.746777 -0.090301 -0.065910 0.226036 0.255712
    37 -0.033419 -1.397129 -0.011256 -1.320160 0.000000 -0.000001
    38 -0.022362 -0.957434 0.018782 -1.212891 0.000000 0.000000
    39 0.250028 -2.820664 -0.238397 -0.351554 0.323527 0.088427
    40 -0.049759 -1.680546 0.100479 -1.768838 0.000000 -0.000002
    41 -0.034141 -1.148309 0.084778 -1.256851 0.000000 0.000000
    42 -0.488517 -2.755600 -0.228262 -0.026880 0.205465 0.134464
    43 0.039889 -1.479791 0.029853 -1.802101 0.000000 0.000001
    44 0.028786 -1.075733 -0.023111 -0.828849 0.000000 0.000000
    45 -1.180679 -2.507216 -0.193861 0.389766 0.205059 0.256395
    46 -0.024966 -1.123935 0.017594 -1.277148 0.000000 0.000001
    47 -0.020058 -0.890966 0.010091 -1.347617 0.000000 0.000000
    48 0.108433 -0.050267 -0.054488 -2.853569 0.026640 -1.566788
  time 27
    0 10.317800 6.664952 -6.768117 -0.250857 -2.076350 -0.011070
    1 -0.071918 -8.498734 -0.104135 -0.162342 0.643448 -0.200041
    2 0.905662 -2.864319 0.551975 1.139257 1.326962 1.104567
    3 -0.000001 -12.629979 7.375443 -0.467747 0.000000 0.000000
    4 0.000002 -6.940917 -4.748858 0.000000 0.000000 0.000000
    5 -0.000002 14.232141 1.630652 -0.926992 0.000000 0.000000
    6 -3.961862 10.013004 -7.304515 1.570797 0.000000 0.000001
    7 -0.001366 0.001477 3.589092 0.000000 0.000000 0.000000
    8 -3.772527 -8.158155 -1.854879 0.628104 -2.445420 -0.435841
    9 0.062478 0.000000 1.425783 0.000000 -0.354719 0.000000
    10 -0.026257 0.000000 1.400207 0.000000 -0.186690 0.000000
    11 -0.023174 0.000001 1.707046 0.000000 0.000000 0.000000
    12 -0.043764 0.000000 1.936484 0.000000 -0.117869 0.000000
    13 -0.159953 0.000001 2.091296 0.000000 -0.081107 0.000000
    14 -5.585191 -3.227017 -6.058779 -1.108633 -1.712378 0.029834
    15 -0.085749 -0.255579 -8.907138 1.614003 0.428704 -1.485494
    16 0.096946 -8.450419 -0.009364 -0.016720 0.085674 0.512514
    17 -0.591284 -1.257741 0.232708 -0.332619 -0.727338 -2.455737
    18 1.522835 0.058680 0.016851 0.000916 -0.604842 1.084862
    19 1.117948 0.048424 -0.005765 -0.017752 -0.017886 0.837603
    20 -0.963867 -2.785143 -0.085346 -0.320917 0.179006 -0.051180
    21 0.028478 -1.403067 0.006271 -1.884333 0.000000 0.000000
    22 0.021414 -0.957782 0.020047 -0.887284 0.000000 0.000000
    23 -0.249534 -2.846964 -0.174215 -0.378307 0.175258 0.129115
    24 0.043234 -1.683941 0.096014 -2.317931 0.002823 -0.000167
    25 0.031729 -1.160830 0.058836 -0.397437 0.000642 0.008372
    26 0.447952 -2.798983 -0.200441 -1.000615 0.126731 0.357302
    27 -0.032910 -1.480208 0.004936 -2.042292 0.000000 0.000002
    28 -0.027022 -1.076920 -0.020212 -0.781662 0.000000 0.000000
    29 1.164475 -2.543939 -0.170327 -1.029806 -0.013294 0.477914
    30 0.024033 -1.129040 0.017806 -1.505504 0.000000 0.000000
    31 0.014896 -0.883991 -0.019845 -0.844587 0.000000 0.000000
    32 0.040294 0.052369 -0.036386 0.201414 0.049587 1.235360
    33 0.583509 -1.197273 0.185379 -0.186067 -0.292868 -0.073208
    34 1.535925 0.010247 0.005009 0.002250 -0.013111 -0.393911
    35 1.100770 0.004527 -0.010675 0.000932 0.016177 0.234725
    36 0.957766 -2.746777 -0.090301 -0.065910 0.226036 0.255712
    37 -0.033419 -1.397129 -0.011256 -1.320160 0.000000 -0.000001
    38 -0.022362 -0.957434 0.018782 -1.212891 0.000000 0.000000
    39 0.250028 -2.820664 -0.238397 -0.351554 0.323527 0.088427
    40 -0.049759 -1.680546 0.100479 -1.768838 0.000000 -0.000002
    41 -0.034141 -1.148309 0.084778 -1.256851 0.000000 0.000000
    42 -0.488517 -2.755600 -0.228262 -0.026880 0.205465 0.134464
    43 0.039889 -1.479791 0.029853 -1.802101 0.000000 0.000001
    44 0.028786 -1.075733 -0.023111 -0.828849 0.000000 0.000000
    45 -1.180679 -2.507216 -0.193861 0.389766 0.205059 0.256395
    46 -0.024966 -1.123935 0.017594 -1.277148 0.000000 0.000001
    47 -0.020058 -0.890966 0.010091 -1.347617 0.000000 0.000000
    48 0.116246 -0.050267 -0.054488 0.287761 3.113205 1.568912
  time 28
    0 10.317800 6.805581 -6.650926 -0.286291 -2.079091 0.020029
    1 -0.071918 -8.498734 -0.104135 -0.158997 0.644444 -0.200927
    2 0.905662 -2.864319 0.551975 1.139257 1.326962 1.104567
    3 -0.000001 -12.629979 7.375443 -0.467747 0.000000 0.000000
    4 0.000002 -6.940917 -4.748858 0.000000 0.000000 0.000000
    5 -0.000002 14.232141 1.630652 -0.926992 0.000000 0.000000
    6 -3.961862 10.013004 -7.304515 1.570797 0.000000 0.000001
    7 -0.001366 0.001477 3.589092 0.000000 0.000000 0.000000
    8 -3.772527 -8.158155 -1.854879 0.628104 -2.445420 -0.435841
    9 0.062478 0.000000 1.425783 0.000000 -0.354719 0.000000
    10 -0.026257 0.000000 1.400207 0.000000 -0.186690 0.000000
    11 -0.023174 0.000001 1.707046 0.000000 0.000000 0.000000
    12 -0.043764 0.000000 1.936484 0.000000 -0.117869 0.000000
    13 -0.159953 0.000001 2.091296 0.000000 -0.081107 0.000000
    14 -5.600817 -3.094201 -6.148625 -1.189837 -1.713369 0.131180
    15 -0.085749 -0.255579 -8.907138 1.608644 0.384364 -1.485124
    16 0.096946 -8.450419 -0.009364 -0.031743 0.070043 0.482862
    17 -0.591284 -1.257741 0.232708 -0.332619 -0.727338 -2.455737
    18 1.522835 0.058680 0.016851 0.000916 -0.604842 1.084862
    19 1.117948 0.048424 -0.005765 -0.017752 -0.017886 0.837603
    20 -0.963867 -2.785143 -0.085346 -0.381320 0.189181 -0.043295
    21 0.028478 -1.403067 0.006271 -1.934115 0.000000 0.000000
    22 0.021414 -0.957782 0.020047 -0.857456 0.000000 0.000000
    23 -0.249534 -2.846964 -0.174215 -0.479979 0.182364 0.142957
    24 0.043234 -1.683941 0.096014 -2.304113 0.002823 -0.000167
    25 0.031729 -1.160830 0.058836 -0.397437 0.000642 0.008372
    26 0.447952 -2.798983 -0.200441 -1.000615 0.126731 0.357302
    27 -0.032910 -1.480208 0.004936 -2.042292 0.000000 0.000002
    28 -0.027022 -1.076920 -0.020212 -0.781662 0.000000 0.000000
    29 1.164475 -2.543939 -0.170327 -1.029806 -0.013294 0.477914
    30 0.024033 -1.129040 0.017806 -1.505504 0.000000 0.000000
    31 0.014896 -0.883991 -0.019845 -0.844587 0.000000 0.000000
    32 0.028575 0.040649 -0.032479 0.237680 0.057952 1.241281
    33 0.583509 -1.197273 0.185379 -0.186067 -0.292868 -0.073208
    34 1.535925 0.010247 0.005009 0.002274 -0.013111 -0.395278
    35 1.100770 0.004527 -0.010675 0.000968 0.016177 0.236878
    36 0.957766 -2.746777 -0.090301 -0.065910 0.226036 0.255712
    37 -0.033419 -1.397129 -0.011256 -1.320160 0.000000 -0.000001
    38 -0.022362 -0.957434 0.018782 -1.212891 0.000000 0.000000
    39 0.250028 -2.820664 -0.238397 -0.351554 0.323527 0.088427
    40 -0.049759 -1.680546 0.100479 -1.768838 0.000000 -0.000002
    41 -0.034141 -1.148309 0.084778 -1.256851 0.000000 0.000000
    42 -0.488517 -2.755600 -0.228262 -0.026880 0.205465 0.134464
    43 0.039889 -1.479791 0.029853 -1.802101 0.000000 0.000001
    44 0.028786 -1.075733 -0.023111 -0.828849 0.000000 0.000000
    45 -1.180679 -2.507216 -0.193861 0.389766 0.205059 0.256395
    46 -0.024966 -1.123935 0.017594 -1.277148 0.000000 0.000001
    47 -0.020058 -0.890966 0.010091 -1.347617 0.000000 0.000000
    48 0.120152 -0.050267 -0.054488 0.287665 3.111959 1.564617
  time 29
    0 10.321706 6.918866 -6.533735 -0.316609 -2.081832 0.046324
    1 -0.071918 -8.498734 -0.104135 -0.156989 0.644728 -0.202662
    2 0.905662 -2.864319 0.551975 1.139257 1.326962 1.104567
    3 -0.000001 -12.629979 7.375443 -0.467747 0.000000 0.000000
    4 0.000002 -6.940917 -4.748858 0.000000 0.000000 0.000000
    5 -0.000002 14.232141 1.630652 -0.926992 0.000000 0.000000
    6 -3.961862 10.013004 -7.304515 1.570797 0.000000 0.000001
    7 -0.001366 0.001477 3.589092 0.000000 0.000000 0.000000
    8 -3.772527 -8.158155 -1.854879 0.628104 -2.445420 -0.435841
    9 0.062478 0.000000 1.425783 0.000000 -0.354719 0.000000
    10 -0.026257 0.000000 1.400207 0.000000 -0.186690 0.000000
    11 -0.023174 0.000001 1.707046 0.000000 0.000000 0.000000
    12 -0.043764 0.000000 1.936484 0.000000 -0.117869 0.000000
    13 -0.159953 0.000001 2.091296 0.000000 -0.081107 0.000000
    14 -5.612536 -3.004354 -6.207221 -1.265085 -1.713145 0.217670
    15 -0.085749 -0.255579 -8.907138 1.605559 0.359448 -1.484938
    16 0.096946 -8.450419 -0.009364 -0.042826 0.058496 0.462617
    17 -0.591284 -1.257741 0.232708 -0.332619 -0.727338 -2.455737
    18 1.522835 0.058680 0.016851 0.000916 -0.604842 1.084862
    19 1.117948 0.048424 -0.005765 -0.017752 -0.017886 0.837603
    20 -0.963867 -2.785143 -0.085346 -0.424047 0.196372 -0.037710
    21 0.028478 -1.403067 0.006271 -1.969302 0.000000 0.000000
    22 0.021414 -0.957782 0.020047 -0.836389 0.000000 0.000000
    23 -0.249534 -2.846964 -0.174215 -0.553986 0.187410 0.152785
    24 0.043234 -1.683941 0.096014 -2.294269 0.002823 -0.000167
    25 0.031729 -1.160830 0.058836 -0.397437 0.000642 0.008372
    26 0.447952 -2.798983 -0.200441 -1.000615 0.126731 0.357302
    27 -0.032910 -1.480208 0.004936 -2.042292 0.000000 0.000002
    28 -0.027022 -1.076920 -0.020212 -0.781662 0.000000 0.000000
    29 1.164475 -2.543939 -0.170327 -1.029806 -0.013294 0.477914
    30 0.024033 -1.129040 0.017806 -1.505504 0.000000 0.000000
    31 0.014896 -0.883991 -0.019845 -0.844587 0.000000 0.000000
    32 0.016856 0.032837 -0.028573 0.263698 0.063801 1.245559
    33 0.583509 -1.197273 0.185379 -0.186067 -0.292868 -0.073208
    34 1.535925 0.010247 0.005009 0.002274 -0.013111 -0.396050
    35 1.100770 0.004527 -0.010675 0.000992 0.016177 0.238071
    36 0.957766 -2.746777 -0.090301 -0.065910 0.226036 0.255712
    37 -0.033419 -1.397129 -0.011256 -1.320160 0.000000 -0.000001
    38 -0.022362 -0.957434 0.018782 -1.212891 0.000000 0.000000
    39 0.250028 -2.820664 -0.238397 -0.351554 0.323527 0.088427
    40 -0.049759 -1.680546 0.100479 -1.768838 0.000000 -0.000002
    41 -0.034141 -1.148309 0.084778 -1.256851 0.000000 0.000000
    42 -0.488517 -2.755600 -0.228262 -0.026880 0.205465 0.134464
    43 0.039889 -1.479791 0.029853 -1.802101 0.000000 0.000001
    44 0.028786 -1.075733 -0.023111 -0.828849 0.000000 0.000000
    45 -1.180679 -2.507216 -0.193861 0.389766 0.205059 0.256395
    46 -0.024966 -1.123935 0.017594 -1.277148 0.000000 0.000001
    47 -0.020058 -0.890966 0.010091 -1.347617 0.000000 0.000000
    48 0.120152 -0.050267 -0.054488 0.287569 3.111097 1.561944
  time 30
    0 10.325613 6.965742 -6.482952 -0.329401 -2.083094 0.057396
    1 -0.071918 -8.498734 -0.104135 -0.156339 0.644757 -0.203585
    2 0.905662 -2.864319 0.551975 1.139257 1.326962 1.104567
    3 -0.000001 -12.629979 7.375443 -0.467747 0.000000 0.000000
    4 0.000002 -6.940917 -4.748858 0.000000 0.000000 0.000000
    5 -0.000002 14.232141 1.630652 -0.926992 0.000000 0.000000
    6 -3.961862 10.013004 -7.304515 1.570797 0.000000 0.000001
    7 -0.001366 0.001477 3.589092 0.000000 0.000000 0.000000
    8 -3.772527 -8.158155 -1.854879 0.628104 -2.445420 -0.435841
    9 0.062478 0.000000 1.425783 0.000000 -0.354719 0.000000
    10 -0.026257 0.000000 1.400207 0.000000 -0.186690 0.000000
    11 -0.023174 0.000001 1.707046 0.000000 0.000000 0.000000
    12 -0.043764 0.000000 1.936484 0.000000 -0.117869 0.000000
    13 -0.159953 0.000001 2.091296 0.000000 -0.081107 0.000000
    14 -5.616442 -2.969197 -6.226753 -1.297415 -1.712954 0.254726
    15 -0.085749 -0.255579 -8.907138 1.604341 0.349448 -1.484846
    16 0.096946 -8.450419 -0.009364 -0.047166 0.053990 0.455129
    17 -0.591284 -1.257741 0.232708 -0.332619 -0.727338 -2.455737
    18 1.522835 0.058680 0.016851 0.000916 -0.604842 1.084862
    19 1.117948 0.048424 -0.005765 -0.017752 -0.017886 0.837603
    20 -0.963867 -2.785143 -0.085346 -0.440241 0.199105 -0.035589
    21 0.028478 -1.403067 0.006271 -1.982635 0.000000 0.000000
    22 0.021414 -0.957782 0.020047 -0.828378 0.000000 0.000000
    23 -0.249534 -2.846964 -0.174215 -0.582568 0.189339 0.156524
    24 0.043234 -1.683941 0.096014 -2.290566 0.002823 -0.000167
    25 0.031729 -1.160830 0.058836 -0.397437 0.000642 0.008372
    26 0.447952 -2.798983 -0.200441 -1.000615 0.126731 0.357302
    27 -0.032910 -1.480208 0.004936 -2.042292 0.000000 0.000002
    28 -0.027022 -1.076920 -0.020212 -0.781662 0.000000 0.000000
    29 1.164475 -2.543939 -0.170327 -1.029806 -0.013294 0.477914
    30 0.024033 -1.129040 0.017806 -1.505504 0.000000 0.000000
    31 0.014896 -0.883991 -0.019845 -0.844587 0.000000 0.000000
    32 0.012949 0.028930 -0.024667 0.273657 0.065994 1.247189
    33 0.583509 -1.197273 0.185379 -0.186067 -0.292868 -0.073208
    34 1.535925 0.010247 0.005009 0.002286 -0.013111 -0.396295
    35 1.100770 0.004527 -0.010675 0.000992 0.016177 0.238445
    36 0.957766 -2.746777 -0.090301 -0.065910 0.226036 0.255712
    37 -0.033419 -1.397129 -0.011256 -1.320160 0.000000 -0.000001
    38 -0.022362 -0.957434 0.018782 -1.212891 0.000000 0.000000
    39 0.250028 -2.820664 -0.238397 -0.351554 0.323527 0.088427
    40 -0.049759 -1.680546 0.100479 -1.768838 0.000000 -0.000002
    41 -0.034141 -1.148309 0.084778 -1.256851 0.000000 0.000000
    42 -0.488517 -2.755600 -0.228262 -0.026880 0.205465 0.134464
    43 0.039889 -1.479791 0.029853 -1.802101 0.000000 0.000001
    44 0.028786 -1.075733 -0.023111 -0.828849 0.000000 0.000000
    45 -1.180679 -2.507216 -0.193861 0.389766 0.205059 0.256395
    46 -0.024966 -1.123935 0.017594 -1.277148 0.000000 0.000001
    47 -0.020058 -0.890966 0.010091 -1.347617 0.000000 0.000000
    48 0.120152 -0.050267 -0.054488 0.287569 3.110905 1.561085
end
