version 1
nodes
  0 "Bone01" -1
  1 "Bone_Lefthand" 0
  2 "Bone_M134" 1
  3 "Bone_Handle_Front" 2
  4 "Bone_Barrel" 3
  5 "Bone_Swich" 3
  6 "Bone_Magazine_Pin" 3
  7 "Bone_Magazine_Ring" 6
  8 "Bone_Bullet00" 2
  9 "Bone_Bullet01" 8
  10 "Bone_Bullet02" 9
  11 "Bone_Bullet03" 10
  12 "Bone_Bullet04" 11
  13 "Bone_Bullet05" 12
  14 "Bone_R_Upper" -1
  15 "Bone04" 14
  16 "Bone_Righthand" 15
  17 "Bone27" 16
  18 "Bone28" 17
  19 "Bone29" 18
  20 "Bone31" 16
  21 "Bone32" 20
  22 "Bone33" 21
  23 "Bone35" 16
  24 "Bone36" 23
  25 "Bone37" 24
  26 "Bone39" 16
  27 "Bone40" 26
  28 "Bone41" 27
  29 "Bone43" 16
  30 "Bone44" 29
  31 "Bone45" 30
  32 "Bone_Se_Hand-R" 16
  33 "Bone05" 1
  34 "Bone06" 33
  35 "Bone07" 34
  36 "Bone21" 1
  37 "Bone22" 36
  38 "Bone23" 37
  39 "Bone17" 1
  40 "Bone18" 39
  41 "Bone19" 40
  42 "Bone13" 1
  43 "Bone14" 42
  44 "Bone15" 43
  45 "Bone09" 1
  46 "Bone10" 45
  47 "Bone11" 46
  48 "Bone_Se_Hand-L" 1
end
skeleton
  time 0
    0 10.325613 6.965742 -6.482952 -0.329401 -2.083094 0.057396
    1 -0.071918 -8.498734 -0.104135 -0.156339 0.644757 -0.203585
    2 0.905662 -2.864319 0.551975 1.139257 1.326962 1.104567
    3 -0.000001 -12.629979 7.375443 -0.467747 0.000000 0.000000
    4 0.000002 -6.940917 -4.748858 0.000000 0.000000 0.000000
    5 -0.000002 14.232141 1.630652 -0.926992 0.000000 0.000000
    6 -3.961862 10.013004 -7.304515 1.570797 0.000000 0.000001
    7 -0.001366 0.001477 3.589092 0.000000 0.000000 0.000000
    8 -3.772527 -8.158155 -1.854879 0.628104 -2.445420 -0.435841
    9 0.062478 0.000000 1.425783 0.000000 -0.354719 0.000000
    10 -0.026257 0.000000 1.400207 0.000000 -0.186690 0.000000
    11 -0.023174 0.000001 1.707046 0.000000 0.000000 0.000000
    12 -0.043764 0.000000 1.936484 0.000000 -0.117869 0.000000
    13 -0.159953 0.000001 2.091296 0.000000 -0.081107 0.000000
    14 -5.616442 -2.969197 -6.226753 -1.287016 -1.709726 0.244162
    15 -0.085749 -0.255579 -8.907138 1.604341 0.349448 -1.484846
    16 0.096946 -8.450419 -0.009364 -0.048072 0.050554 0.455167
    17 -0.591284 -1.257741 0.232708 -0.332619 -0.727338 -2.455737
    18 1.522835 0.058680 0.016851 0.000916 -0.604842 1.084862
    19 1.117948 0.048424 -0.005765 -0.017752 -0.017886 0.837603
    20 -0.963867 -2.785143 -0.085346 -0.440241 0.199105 -0.035589
    21 0.028478 -1.403067 0.006271 -1.982635 0.000000 0.000000
    22 0.021414 -0.957782 0.020047 -0.828378 0.000000 0.000000
    23 -0.249534 -2.846964 -0.174215 -0.582568 0.189339 0.156524
    24 0.043234 -1.683941 0.096014 -2.290566 0.002823 -0.000167
    25 0.031729 -1.160830 0.058836 -0.397437 0.000642 0.008372
    26 0.447952 -2.798983 -0.200441 -1.000615 0.126731 0.357302
    27 -0.032910 -1.480208 0.004936 -2.042292 0.000000 0.000002
    28 -0.027022 -1.076920 -0.020212 -0.781662 0.000000 0.000000
    29 1.164475 -2.543939 -0.170327 -1.029806 -0.013294 0.477914
    30 0.024033 -1.129040 0.017806 -1.505504 0.000000 0.000000
    31 0.014896 -0.883991 -0.019845 -0.844587 0.000000 0.000000
    32 0.012949 0.028930 -0.024667 0.273657 0.065994 1.247189
    33 0.583509 -1.197273 0.185379 -0.186067 -0.292868 -0.073208
    34 1.535925 0.010247 0.005009 0.002286 -0.013111 -0.396295
    35 1.100770 0.004527 -0.010675 0.000992 0.016177 0.238445
    36 0.957766 -2.746777 -0.090301 -0.065910 0.226036 0.255712
    37 -0.033419 -1.397129 -0.011256 -1.320160 0.000000 -0.000001
    38 -0.022362 -0.957434 0.018782 -1.212891 0.000000 0.000000
    39 0.250028 -2.820664 -0.238397 -0.351554 0.323527 0.088427
    40 -0.049759 -1.680546 0.100479 -1.768838 0.000000 -0.000002
    41 -0.034141 -1.148309 0.084778 -1.256851 0.000000 0.000000
    42 -0.488517 -2.755600 -0.228262 -0.026880 0.205465 0.134464
    43 0.039889 -1.479791 0.029853 -1.802101 0.000000 0.000001
    44 0.028786 -1.075733 -0.023111 -0.828849 0.000000 0.000000
    45 -1.180679 -2.507216 -0.193861 0.389766 0.205059 0.256395
    46 -0.024966 -1.123935 0.017594 -1.277148 0.000000 0.000001
    47 -0.020058 -0.890966 0.010091 -1.347617 0.000000 0.000000
    48 0.120152 -0.050267 -0.054488 0.287569 3.110905 1.561085
  time 1
    0 10.325613 7.407162 -6.482952 -0.329401 -2.083094 0.057396
    1 -0.071918 -8.498734 -0.104135 -0.168822 0.674822 -0.194503
    2 0.905662 -2.864319 0.551975 1.139257 1.326962 1.104567
    3 -0.000001 -12.629979 7.375443 -0.467747 0.000000 0.000000
    4 0.000002 -7.050295 -4.748858 0.000000 3.141496 0.000000
    5 -0.000002 14.232141 1.630652 -0.926992 0.000000 0.000000
    6 -3.961862 10.013004 -7.304515 1.570797 0.000000 0.000001
    7 -0.001366 0.001477 3.589092 0.000000 0.000000 0.000000
    8 -3.772527 -8.158155 -1.854879 0.628104 -2.445420 -0.435841
    9 0.062478 0.000000 1.425783 0.000000 -0.354719 0.000000
    10 -0.026257 0.000000 1.400207 0.000000 -0.186690 0.000000
    11 -0.023174 0.000001 1.707046 0.000000 0.000000 0.000000
    12 -0.043764 0.000000 1.936484 0.000000 -0.117869 0.000000
    13 -0.159953 0.000001 2.091296 0.000000 -0.081107 0.000000
    14 -5.776603 -2.969197 -6.226753 -1.061273 -1.673490 -0.021252
    15 -0.085749 -0.255579 -8.907138 1.620336 0.480995 -1.485957
    16 0.096946 -8.450419 -0.009364 -0.085576 0.052948 0.551385
    17 -0.591284 -1.257741 0.232708 -0.332619 -0.727338 -2.455737
    18 1.522835 0.058680 0.016851 0.000916 -0.604842 1.084862
    19 1.117948 0.048424 -0.005765 -0.017752 -0.017886 0.837603
    20 -0.963867 -2.785143 -0.085346 -0.440241 0.199105 -0.035589
    21 0.028478 -1.403067 0.006271 -1.982635 0.000000 0.000000
    22 0.021414 -0.957782 0.020047 -0.828378 0.000000 0.000000
    23 -0.249534 -2.846964 -0.174215 -0.582568 0.189339 0.156524
    24 0.043234 -1.683941 0.096014 -2.290566 0.002823 -0.000167
    25 0.031729 -1.160830 0.058836 -0.397437 0.000642 0.008372
    26 0.447952 -2.798983 -0.200441 -1.000615 0.126731 0.357302
    27 -0.032910 -1.480208 0.004936 -2.042292 0.000000 0.000002
    28 -0.027022 -1.076920 -0.020212 -0.781662 0.000000 0.000000
    29 1.164475 -2.543939 -0.170327 -1.029806 -0.013294 0.477914
    30 0.024033 -1.129040 0.017806 -1.505504 0.000000 0.000000
    31 0.014896 -0.883991 -0.019845 -0.844587 0.000000 0.000000
    32 0.012949 0.028930 -0.024667 0.273657 0.065994 1.247189
    33 0.583509 -1.197273 0.185379 -0.186067 -0.292868 -0.073208
    34 1.535925 0.010247 0.005009 0.002286 -0.013111 -0.396295
    35 1.100770 0.004527 -0.010675 0.000992 0.016177 0.238445
    36 0.957766 -2.746777 -0.090301 -0.065910 0.226036 0.255712
    37 -0.033419 -1.397129 -0.011256 -1.320160 0.000000 -0.000001
    38 -0.022362 -0.957434 0.018782 -1.212891 0.000000 0.000000
    39 0.250028 -2.820664 -0.238397 -0.351554 0.323527 0.088427
    40 -0.049759 -1.680546 0.100479 -1.768838 0.000000 -0.000002
    41 -0.034141 -1.148309 0.084778 -1.256851 0.000000 0.000000
    42 -0.488517 -2.755600 -0.228262 -0.026880 0.205465 0.134464
    43 0.039889 -1.479791 0.029853 -1.802101 0.000000 0.000001
    44 0.028786 -1.075733 -0.023111 -0.828849 0.000000 0.000000
    45 -1.180679 -2.507216 -0.193861 0.389766 0.205059 0.256395
    46 -0.024966 -1.123935 0.017594 -1.277148 0.000000 0.000001
    47 -0.020058 -0.890966 0.010091 -1.347617 0.000000 0.000000
    48 0.120152 -0.050267 -0.054488 0.287569 3.110905 1.561085
  time 2
    0 10.325613 7.204031 -6.482952 -0.329401 -2.083094 0.057396
    1 -0.071918 -8.498734 -0.104135 -0.156339 0.644757 -0.203585
    2 0.905662 -2.864319 0.551975 1.139257 1.326962 1.104567
    3 -0.000001 -12.629979 7.375443 -0.467747 0.000000 0.000000
    4 0.000002 -6.800288 -4.748858 0.000000 0.000000 0.000000
    5 -0.000002 14.232141 1.630652 -0.926992 0.000000 0.000000
    6 -3.961862 10.013004 -7.304515 1.570797 0.000000 0.000001
    7 -0.001366 0.001477 3.589092 0.000000 0.000000 0.000000
    8 -3.772527 -8.158155 -1.854879 0.628104 -2.445420 -0.435841
    9 0.062478 0.000000 1.425783 0.000000 -0.354719 0.000000
    10 -0.026257 0.000000 1.400207 0.000000 -0.186690 0.000000
    11 -0.023174 0.000001 1.707046 0.000000 0.000000 0.000000
    12 -0.043764 0.000000 1.936484 0.000000 -0.117869 0.000000
    13 -0.159953 0.000001 2.091296 0.000000 -0.081107 0.000000
    14 -5.737540 -2.969197 -6.226753 -1.237292 -1.687326 0.177561
    15 -0.085749 -0.255579 -8.907138 1.612055 0.412066 -1.485401
    16 0.096946 -8.450419 -0.009364 -0.055973 0.031798 0.497161
    17 -0.591284 -1.257741 0.232708 -0.332619 -0.727338 -2.455737
    18 1.522835 0.058680 0.016851 0.000916 -0.604842 1.084862
    19 1.117948 0.048424 -0.005765 -0.017752 -0.017886 0.837603
    20 -0.963867 -2.785143 -0.085346 -0.440241 0.199105 -0.035589
    21 0.028478 -1.403067 0.006271 -1.982635 0.000000 0.000000
    22 0.021414 -0.957782 0.020047 -0.828378 0.000000 0.000000
    23 -0.249534 -2.846964 -0.174215 -0.582568 0.189339 0.156524
    24 0.043234 -1.683941 0.096014 -2.290566 0.002823 -0.000167
    25 0.031729 -1.160830 0.058836 -0.397437 0.000642 0.008372
    26 0.447952 -2.798983 -0.200441 -1.000615 0.126731 0.357302
    27 -0.032910 -1.480208 0.004936 -2.042292 0.000000 0.000002
    28 -0.027022 -1.076920 -0.020212 -0.781662 0.000000 0.000000
    29 1.164475 -2.543939 -0.170327 -1.029806 -0.013294 0.477914
    30 0.024033 -1.129040 0.017806 -1.505504 0.000000 0.000000
    31 0.014896 -0.883991 -0.019845 -0.844587 0.000000 0.000000
    32 0.012949 0.028930 -0.024667 0.273657 0.065994 1.247189
    33 0.583509 -1.197273 0.185379 -0.186067 -0.292868 -0.073208
    34 1.535925 0.010247 0.005009 0.002286 -0.013111 -0.396295
    35 1.100770 0.004527 -0.010675 0.000992 0.016177 0.238445
    36 0.957766 -2.746777 -0.090301 -0.065910 0.226036 0.255712
    37 -0.033419 -1.397129 -0.011256 -1.320160 0.000000 -0.000001
    38 -0.022362 -0.957434 0.018782 -1.212891 0.000000 0.000000
    39 0.250028 -2.820664 -0.238397 -0.351554 0.323527 0.088427
    40 -0.049759 -1.680546 0.100479 -1.768838 0.000000 -0.000002
    41 -0.034141 -1.148309 0.084778 -1.256851 0.000000 0.000000
    42 -0.488517 -2.755600 -0.228262 -0.026880 0.205465 0.134464
    43 0.039889 -1.479791 0.029853 -1.802101 0.000000 0.000001
    44 0.028786 -1.075733 -0.023111 -0.828849 0.000000 0.000000
    45 -1.180679 -2.507216 -0.193861 0.389766 0.205059 0.256395
    46 -0.024966 -1.123935 0.017594 -1.277148 0.000000 0.000001
    47 -0.020058 -0.890966 0.010091 -1.347617 0.000000 0.000000
    48 0.120152 -0.050267 -0.054488 0.287569 3.110905 1.561085
  time 3
    0 10.325613 6.965742 -6.482952 -0.329401 -2.083094 0.057396
    1 -0.071918 -8.498734 -0.104135 -0.162361 0.676813 -0.193303
    2 0.905662 -2.864319 0.551975 1.139257 1.326962 1.104567
    3 -0.000001 -12.629979 7.375443 -0.467747 0.000000 0.000000
    4 0.000002 -6.940917 -4.748858 0.000000 3.141592 0.000000
    5 -0.000002 14.232141 1.630652 -0.926992 0.000000 0.000000
    6 -3.961862 10.013004 -7.304515 1.570797 0.000000 0.000001
    7 -0.001366 0.001477 3.589092 0.000000 0.000000 0.000000
    8 -3.772527 -8.158155 -1.854879 0.628104 -2.445420 -0.435841
    9 0.062478 0.000000 1.425783 0.000000 -0.354719 0.000000
    10 -0.026257 0.000000 1.400207 0.000000 -0.186690 0.000000
    11 -0.023174 0.000001 1.707046 0.000000 0.000000 0.000000
    12 -0.043764 0.000000 1.936484 0.000000 -0.117869 0.000000
    13 -0.159953 0.000001 2.091296 0.000000 -0.081107 0.000000
    14 -5.616442 -2.969197 -6.226753 -1.190498 -1.715510 0.172857
    15 -0.085749 -0.255579 -8.907138 1.599388 0.309206 -1.484568
    16 0.096946 -8.450419 -0.009364 -0.066677 0.085308 0.436804
    17 -0.591284 -1.257741 0.232708 -0.332619 -0.727338 -2.455737
    18 1.522835 0.058680 0.016851 0.000916 -0.604842 1.084862
    19 1.117948 0.048424 -0.005765 -0.017752 -0.017886 0.837603
    20 -0.963867 -2.785143 -0.085346 -0.440241 0.199105 -0.035589
    21 0.028478 -1.403067 0.006271 -1.982635 0.000000 0.000000
    22 0.021414 -0.957782 0.020047 -0.828378 0.000000 0.000000
    23 -0.249534 -2.846964 -0.174215 -0.582568 0.189339 0.156524
    24 0.043234 -1.683941 0.096014 -2.290566 0.002823 -0.000167
    25 0.031729 -1.160830 0.058836 -0.397437 0.000642 0.008372
    26 0.447952 -2.798983 -0.200441 -1.000615 0.126731 0.357302
    27 -0.032910 -1.480208 0.004936 -2.042292 0.000000 0.000002
    28 -0.027022 -1.076920 -0.020212 -0.781662 0.000000 0.000000
    29 1.164475 -2.543939 -0.170327 -1.029806 -0.013294 0.477914
    30 0.024033 -1.129040 0.017806 -1.505504 0.000000 0.000000
    31 0.014896 -0.883991 -0.019845 -0.844587 0.000000 0.000000
    32 0.012949 0.028930 -0.024667 0.273657 0.065994 1.247189
    33 0.583509 -1.197273 0.185379 -0.186067 -0.292868 -0.073208
    34 1.535925 0.010247 0.005009 0.002286 -0.013111 -0.396295
    35 1.100770 0.004527 -0.010675 0.000992 0.016177 0.238445
    36 0.957766 -2.746777 -0.090301 -0.065910 0.226036 0.255712
    37 -0.033419 -1.397129 -0.011256 -1.320160 0.000000 -0.000001
    38 -0.022362 -0.957434 0.018782 -1.212891 0.000000 0.000000
    39 0.250028 -2.820664 -0.238397 -0.351554 0.323527 0.088427
    40 -0.049759 -1.680546 0.100479 -1.768838 0.000000 -0.000002
    41 -0.034141 -1.148309 0.084778 -1.256851 0.000000 0.000000
    42 -0.488517 -2.755600 -0.228262 -0.026880 0.205465 0.134464
    43 0.039889 -1.479791 0.029853 -1.802101 0.000000 0.000001
    44 0.028786 -1.075733 -0.023111 -0.828849 0.000000 0.000000
    45 -1.180679 -2.507216 -0.193861 0.389766 0.205059 0.256395
    46 -0.024966 -1.123935 0.017594 -1.277148 0.000000 0.000001
    47 -0.020058 -0.890966 0.010091 -1.347617 0.000000 0.000000
    48 0.120152 -0.050267 -0.054488 0.287569 3.110905 1.561085
  time 4
    0 10.325613 7.293877 -6.482952 -0.329401 -2.083094 0.057396
    1 -0.071918 -8.498734 -0.104135 -0.156339 0.644757 -0.203585
    2 0.905662 -2.864319 0.551975 1.139257 1.326962 1.104567
    3 -0.000001 -12.629979 7.375443 -0.467747 0.000000 0.000000
    4 0.000002 -7.050295 -4.748858 0.000000 0.000000 0.000000
    5 -0.000002 14.232141 1.630652 -0.926992 0.000000 0.000000
    6 -3.961862 10.013004 -7.304515 1.570797 0.000000 0.000001
    7 -0.001366 0.001477 3.589092 0.000000 0.000000 0.000000
    8 -3.772527 -8.158155 -1.854879 0.628104 -2.445420 -0.435841
    9 0.062478 0.000000 1.425783 0.000000 -0.354719 0.000000
    10 -0.026257 0.000000 1.400207 0.000000 -0.186690 0.000000
    11 -0.023174 0.000001 1.707046 0.000000 0.000000 0.000000
    12 -0.043764 0.000000 1.936484 0.000000 -0.117869 0.000000
    13 -0.159953 0.000001 2.091296 0.000000 -0.081107 0.000000
    14 -5.776603 -2.969197 -6.226753 -1.128107 -1.666908 0.062433
    15 -0.085749 -0.255579 -8.907138 1.614653 0.433704 -1.485587
    16 0.096946 -8.450419 -0.009364 -0.063327 0.011323 0.518685
    17 -0.591284 -1.257741 0.232708 -0.332619 -0.727338 -2.455737
    18 1.522835 0.058680 0.016851 0.000916 -0.604842 1.084862
    19 1.117948 0.048424 -0.005765 -0.017752 -0.017886 0.837603
    20 -0.963867 -2.785143 -0.085346 -0.440241 0.199105 -0.035589
    21 0.028478 -1.403067 0.006271 -1.982635 0.000000 0.000000
    22 0.021414 -0.957782 0.020047 -0.828378 0.000000 0.000000
    23 -0.249534 -2.846964 -0.174215 -0.582568 0.189339 0.156524
    24 0.043234 -1.683941 0.096014 -2.290566 0.002823 -0.000167
    25 0.031729 -1.160830 0.058836 -0.397437 0.000642 0.008372
    26 0.447952 -2.798983 -0.200441 -1.000615 0.126731 0.357302
    27 -0.032910 -1.480208 0.004936 -2.042292 0.000000 0.000002
    28 -0.027022 -1.076920 -0.020212 -0.781662 0.000000 0.000000
    29 1.164475 -2.543939 -0.170327 -1.029806 -0.013294 0.477914
    30 0.024033 -1.129040 0.017806 -1.505504 0.000000 0.000000
    31 0.014896 -0.883991 -0.019845 -0.844587 0.000000 0.000000
    32 0.012949 0.028930 -0.024667 0.273657 0.065994 1.247189
    33 0.583509 -1.197273 0.185379 -0.186067 -0.292868 -0.073208
    34 1.535925 0.010247 0.005009 0.002286 -0.013111 -0.396295
    35 1.100770 0.004527 -0.010675 0.000992 0.016177 0.238445
    36 0.957766 -2.746777 -0.090301 -0.065910 0.226036 0.255712
    37 -0.033419 -1.397129 -0.011256 -1.320160 0.000000 -0.000001
    38 -0.022362 -0.957434 0.018782 -1.212891 0.000000 0.000000
    39 0.250028 -2.820664 -0.238397 -0.351554 0.323527 0.088427
    40 -0.049759 -1.680546 0.100479 -1.768838 0.000000 -0.000002
    41 -0.034141 -1.148309 0.084778 -1.256851 0.000000 0.000000
    42 -0.488517 -2.755600 -0.228262 -0.026880 0.205465 0.134464
    43 0.039889 -1.479791 0.029853 -1.802101 0.000000 0.000001
    44 0.028786 -1.075733 -0.023111 -0.828849 0.000000 0.000000
    45 -1.180679 -2.507216 -0.193861 0.389766 0.205059 0.256395
    46 -0.024966 -1.123935 0.017594 -1.277148 0.000000 0.000001
    47 -0.020058 -0.890966 0.010091 -1.347617 0.000000 0.000000
    48 0.120152 -0.050267 -0.054488 0.287569 3.110905 1.561085
  time 5
    0 10.325613 7.110278 -6.482952 -0.329401 -2.083094 0.057396
    1 -0.071918 -8.498734 -0.104135 -0.168822 0.674822 -0.194503
    2 0.905662 -2.864319 0.551975 1.139257 1.326962 1.104567
    3 -0.000001 -12.629979 7.375443 -0.467747 0.000000 0.000000
    4 0.000002 -6.800288 -4.748858 0.000000 3.141496 0.000000
    5 -0.000002 14.232141 1.630652 -0.926992 0.000000 0.000000
    6 -3.961862 10.013004 -7.304515 1.570797 0.000000 0.000001
    7 -0.001366 0.001477 3.589092 0.000000 0.000000 0.000000
    8 -3.772527 -8.158155 -1.854879 0.628104 -2.445420 -0.435841
    9 0.062478 0.000000 1.425783 0.000000 -0.354719 0.000000
    10 -0.026257 0.000000 1.400207 0.000000 -0.186690 0.000000
    11 -0.023174 0.000001 1.707046 0.000000 0.000000 0.000000
    12 -0.043764 0.000000 1.936484 0.000000 -0.117869 0.000000
    13 -0.159953 0.000001 2.091296 0.000000 -0.081107 0.000000
    14 -5.737540 -2.969197 -6.226753 -1.135859 -1.694069 0.090575
    15 -0.085749 -0.255579 -8.907138 1.608076 0.379446 -1.485124
    16 0.096946 -8.450419 -0.009364 -0.075842 0.068184 0.490990
    17 -0.591284 -1.257741 0.232708 -0.332619 -0.727338 -2.455737
    18 1.522835 0.058680 0.016851 0.000916 -0.604842 1.084862
    19 1.117948 0.048424 -0.005765 -0.017752 -0.017886 0.837603
    20 -0.963867 -2.785143 -0.085346 -0.440241 0.199105 -0.035589
    21 0.028478 -1.403067 0.006271 -1.982635 0.000000 0.000000
    22 0.021414 -0.957782 0.020047 -0.828378 0.000000 0.000000
    23 -0.249534 -2.846964 -0.174215 -0.582568 0.189339 0.156524
    24 0.043234 -1.683941 0.096014 -2.290566 0.002823 -0.000167
    25 0.031729 -1.160830 0.058836 -0.397437 0.000642 0.008372
    26 0.447952 -2.798983 -0.200441 -1.000615 0.126731 0.357302
    27 -0.032910 -1.480208 0.004936 -2.042292 0.000000 0.000002
    28 -0.027022 -1.076920 -0.020212 -0.781662 0.000000 0.000000
    29 1.164475 -2.543939 -0.170327 -1.029806 -0.013294 0.477914
    30 0.024033 -1.129040 0.017806 -1.505504 0.000000 0.000000
    31 0.014896 -0.883991 -0.019845 -0.844587 0.000000 0.000000
    32 0.012949 0.028930 -0.024667 0.273657 0.065994 1.247189
    33 0.583509 -1.197273 0.185379 -0.186067 -0.292868 -0.073208
    34 1.535925 0.010247 0.005009 0.002286 -0.013111 -0.396295
    35 1.100770 0.004527 -0.010675 0.000992 0.016177 0.238445
    36 0.957766 -2.746777 -0.090301 -0.065910 0.226036 0.255712
    37 -0.033419 -1.397129 -0.011256 -1.320160 0.000000 -0.000001
    38 -0.022362 -0.957434 0.018782 -1.212891 0.000000 0.000000
    39 0.250028 -2.820664 -0.238397 -0.351554 0.323527 0.088427
    40 -0.049759 -1.680546 0.100479 -1.768838 0.000000 -0.000002
    41 -0.034141 -1.148309 0.084778 -1.256851 0.000000 0.000000
    42 -0.488517 -2.755600 -0.228262 -0.026880 0.205465 0.134464
    43 0.039889 -1.479791 0.029853 -1.802101 0.000000 0.000001
    44 0.028786 -1.075733 -0.023111 -0.828849 0.000000 0.000000
    45 -1.180679 -2.507216 -0.193861 0.389766 0.205059 0.256395
    46 -0.024966 -1.123935 0.017594 -1.277148 0.000000 0.000001
    47 -0.020058 -0.890966 0.010091 -1.347617 0.000000 0.000000
    48 0.120152 -0.050267 -0.054488 0.287569 3.110905 1.561085
  time 6
    0 10.325613 6.965742 -6.482952 -0.329401 -2.083094 0.057396
    1 -0.071918 -8.498734 -0.104135 -0.156339 0.644757 -0.203585
    2 0.905662 -2.864319 0.551975 1.139257 1.326962 1.104567
    3 -0.000001 -12.629979 7.375443 -0.467747 0.000000 0.000000
    4 0.000002 -6.940917 -4.748858 0.000000 0.000000 0.000000
    5 -0.000002 14.232141 1.630652 -0.926992 0.000000 0.000000
    6 -3.961862 10.013004 -7.304515 1.570797 0.000000 0.000001
    7 -0.001366 0.001477 3.589092 0.000000 0.000000 0.000000
    8 -3.772527 -8.158155 -1.854879 0.628104 -2.445420 -0.435841
    9 0.062478 0.000000 1.425783 0.000000 -0.354719 0.000000
    10 -0.026257 0.000000 1.400207 0.000000 -0.186690 0.000000
    11 -0.023174 0.000001 1.707046 0.000000 0.000000 0.000000
    12 -0.043764 0.000000 1.936484 0.000000 -0.117869 0.000000
    13 -0.159953 0.000001 2.091296 0.000000 -0.081107 0.000000
    14 -5.616442 -2.969197 -6.226753 -1.287016 -1.709726 0.244162
    15 -0.085749 -0.255579 -8.907138 1.604341 0.349448 -1.484846
    16 0.096946 -8.450419 -0.009364 -0.048072 0.050554 0.455167
    17 -0.591284 -1.257741 0.232708 -0.332619 -0.727338 -2.455737
    18 1.522835 0.058680 0.016851 0.000916 -0.604842 1.084862
    19 1.117948 0.048424 -0.005765 -0.017752 -0.017886 0.837603
    20 -0.963867 -2.785143 -0.085346 -0.440241 0.199105 -0.035589
    21 0.028478 -1.403067 0.006271 -1.982635 0.000000 0.000000
    22 0.021414 -0.957782 0.020047 -0.828378 0.000000 0.000000
    23 -0.249534 -2.846964 -0.174215 -0.582568 0.189339 0.156524
    24 0.043234 -1.683941 0.096014 -2.290566 0.002823 -0.000167
    25 0.031729 -1.160830 0.058836 -0.397437 0.000642 0.008372
    26 0.447952 -2.798983 -0.200441 -1.000615 0.126731 0.357302
    27 -0.032910 -1.480208 0.004936 -2.042292 0.000000 0.000002
    28 -0.027022 -1.076920 -0.020212 -0.781662 0.000000 0.000000
    29 1.164475 -2.543939 -0.170327 -1.029806 -0.013294 0.477914
    30 0.024033 -1.129040 0.017806 -1.505504 0.000000 0.000000
    31 0.014896 -0.883991 -0.019845 -0.844587 0.000000 0.000000
    32 0.012949 0.028930 -0.024667 0.273657 0.065994 1.247189
    33 0.583509 -1.197273 0.185379 -0.186067 -0.292868 -0.073208
    34 1.535925 0.010247 0.005009 0.002286 -0.013111 -0.396295
    35 1.100770 0.004527 -0.010675 0.000992 0.016177 0.238445
    36 0.957766 -2.746777 -0.090301 -0.065910 0.226036 0.255712
    37 -0.033419 -1.397129 -0.011256 -1.320160 0.000000 -0.000001
    38 -0.022362 -0.957434 0.018782 -1.212891 0.000000 0.000000
    39 0.250028 -2.820664 -0.238397 -0.351554 0.323527 0.088427
    40 -0.049759 -1.680546 0.100479 -1.768838 0.000000 -0.000002
    41 -0.034141 -1.148309 0.084778 -1.256851 0.000000 0.000000
    42 -0.488517 -2.755600 -0.228262 -0.026880 0.205465 0.134464
    43 0.039889 -1.479791 0.029853 -1.802101 0.000000 0.000001
    44 0.028786 -1.075733 -0.023111 -0.828849 0.000000 0.000000
    45 -1.180679 -2.507216 -0.193861 0.389766 0.205059 0.256395
    46 -0.024966 -1.123935 0.017594 -1.277148 0.000000 0.000001
    47 -0.020058 -0.890966 0.010091 -1.347617 0.000000 0.000000
    48 0.120152 -0.050267 -0.054488 0.287569 3.110905 1.561085
  time 7
    0 10.325613 7.407162 -6.482952 -0.329401 -2.083094 0.057396
    1 -0.071918 -8.498734 -0.104135 -0.168822 0.674822 -0.194503
    2 0.905662 -2.864319 0.551975 1.139257 1.326962 1.104567
    3 -0.000001 -12.629979 7.375443 -0.467747 0.000000 0.000000
    4 0.000002 -7.050295 -4.748858 0.000000 3.141496 0.000000
    5 -0.000002 14.232141 1.630652 -0.926992 0.000000 0.000000
    6 -3.961862 10.013004 -7.304515 1.570797 0.000000 0.000001
    7 -0.001366 0.001477 3.589092 0.000000 0.000000 0.000000
    8 -3.772527 -8.158155 -1.854879 0.628104 -2.445420 -0.435841
    9 0.062478 0.000000 1.425783 0.000000 -0.354719 0.000000
    10 -0.026257 0.000000 1.400207 0.000000 -0.186690 0.000000
    11 -0.023174 0.000001 1.707046 0.000000 0.000000 0.000000
    12 -0.043764 0.000000 1.936484 0.000000 -0.117869 0.000000
    13 -0.159953 0.000001 2.091296 0.000000 -0.081107 0.000000
    14 -5.776603 -2.969197 -6.226753 -1.061273 -1.673490 -0.021252
    15 -0.085749 -0.255579 -8.907138 1.620336 0.480995 -1.485957
    16 0.096946 -8.450419 -0.009364 -0.085576 0.052948 0.551385
    17 -0.591284 -1.257741 0.232708 -0.332619 -0.727338 -2.455737
    18 1.522835 0.058680 0.016851 0.000916 -0.604842 1.084862
    19 1.117948 0.048424 -0.005765 -0.017752 -0.017886 0.837603
    20 -0.963867 -2.785143 -0.085346 -0.440241 0.199105 -0.035589
    21 0.028478 -1.403067 0.006271 -1.982635 0.000000 0.000000
    22 0.021414 -0.957782 0.020047 -0.828378 0.000000 0.000000
    23 -0.249534 -2.846964 -0.174215 -0.582568 0.189339 0.156524
    24 0.043234 -1.683941 0.096014 -2.290566 0.002823 -0.000167
    25 0.031729 -1.160830 0.058836 -0.397437 0.000642 0.008372
    26 0.447952 -2.798983 -0.200441 -1.000615 0.126731 0.357302
    27 -0.032910 -1.480208 0.004936 -2.042292 0.000000 0.000002
    28 -0.027022 -1.076920 -0.020212 -0.781662 0.000000 0.000000
    29 1.164475 -2.543939 -0.170327 -1.029806 -0.013294 0.477914
    30 0.024033 -1.129040 0.017806 -1.505504 0.000000 0.000000
    31 0.014896 -0.883991 -0.019845 -0.844587 0.000000 0.000000
    32 0.012949 0.028930 -0.024667 0.273657 0.065994 1.247189
    33 0.583509 -1.197273 0.185379 -0.186067 -0.292868 -0.073208
    34 1.535925 0.010247 0.005009 0.002286 -0.013111 -0.396295
    35 1.100770 0.004527 -0.010675 0.000992 0.016177 0.238445
    36 0.957766 -2.746777 -0.090301 -0.065910 0.226036 0.255712
    37 -0.033419 -1.397129 -0.011256 -1.320160 0.000000 -0.000001
    38 -0.022362 -0.957434 0.018782 -1.212891 0.000000 0.000000
    39 0.250028 -2.820664 -0.238397 -0.351554 0.323527 0.088427
    40 -0.049759 -1.680546 0.100479 -1.768838 0.000000 -0.000002
    41 -0.034141 -1.148309 0.084778 -1.256851 0.000000 0.000000
    42 -0.488517 -2.755600 -0.228262 -0.026880 0.205465 0.134464
    43 0.039889 -1.479791 0.029853 -1.802101 0.000000 0.000001
    44 0.028786 -1.075733 -0.023111 -0.828849 0.000000 0.000000
    45 -1.180679 -2.507216 -0.193861 0.389766 0.205059 0.256395
    46 -0.024966 -1.123935 0.017594 -1.277148 0.000000 0.000001
    47 -0.020058 -0.890966 0.010091 -1.347617 0.000000 0.000000
    48 0.120152 -0.050267 -0.054488 0.287569 3.110905 1.561085
  time 8
    0 10.325613 7.204031 -6.482952 -0.329401 -2.083094 0.057396
    1 -0.071918 -8.498734 -0.104135 -0.156339 0.644757 -0.203585
    2 0.905662 -2.864319 0.551975 1.139257 1.326962 1.104567
    3 -0.000001 -12.629979 7.375443 -0.467747 0.000000 0.000000
    4 0.000002 -6.800288 -4.748858 0.000000 0.000000 0.000000
    5 -0.000002 14.232141 1.630652 -0.926992 0.000000 0.000000
    6 -3.961862 10.013004 -7.304515 1.570797 0.000000 0.000001
    7 -0.001366 0.001477 3.589092 0.000000 0.000000 0.000000
    8 -3.772527 -8.158155 -1.854879 0.628104 -2.445420 -0.435841
    9 0.062478 0.000000 1.425783 0.000000 -0.354719 0.000000
    10 -0.026257 0.000000 1.400207 0.000000 -0.186690 0.000000
    11 -0.023174 0.000001 1.707046 0.000000 0.000000 0.000000
    12 -0.043764 0.000000 1.936484 0.000000 -0.117869 0.000000
    13 -0.159953 0.000001 2.091296 0.000000 -0.081107 0.000000
    14 -5.737540 -2.969197 -6.226753 -1.237292 -1.687326 0.177561
    15 -0.085749 -0.255579 -8.907138 1.612055 0.412066 -1.485401
    16 0.096946 -8.450419 -0.009364 -0.055973 0.031798 0.497161
    17 -0.591284 -1.257741 0.232708 -0.332619 -0.727338 -2.455737
    18 1.522835 0.058680 0.016851 0.000916 -0.604842 1.084862
    19 1.117948 0.048424 -0.005765 -0.017752 -0.017886 0.837603
    20 -0.963867 -2.785143 -0.085346 -0.440241 0.199105 -0.035589
    21 0.028478 -1.403067 0.006271 -1.982635 0.000000 0.000000
    22 0.021414 -0.957782 0.020047 -0.828378 0.000000 0.000000
    23 -0.249534 -2.846964 -0.174215 -0.582568 0.189339 0.156524
    24 0.043234 -1.683941 0.096014 -2.290566 0.002823 -0.000167
    25 0.031729 -1.160830 0.058836 -0.397437 0.000642 0.008372
    26 0.447952 -2.798983 -0.200441 -1.000615 0.126731 0.357302
    27 -0.032910 -1.480208 0.004936 -2.042292 0.000000 0.000002
    28 -0.027022 -1.076920 -0.020212 -0.781662 0.000000 0.000000
    29 1.164475 -2.543939 -0.170327 -1.029806 -0.013294 0.477914
    30 0.024033 -1.129040 0.017806 -1.505504 0.000000 0.000000
    31 0.014896 -0.883991 -0.019845 -0.844587 0.000000 0.000000
    32 0.012949 0.028930 -0.024667 0.273657 0.065994 1.247189
    33 0.583509 -1.197273 0.185379 -0.186067 -0.292868 -0.073208
    34 1.535925 0.010247 0.005009 0.002286 -0.013111 -0.396295
    35 1.100770 0.004527 -0.010675 0.000992 0.016177 0.238445
    36 0.957766 -2.746777 -0.090301 -0.065910 0.226036 0.255712
    37 -0.033419 -1.397129 -0.011256 -1.320160 0.000000 -0.000001
    38 -0.022362 -0.957434 0.018782 -1.212891 0.000000 0.000000
    39 0.250028 -2.820664 -0.238397 -0.351554 0.323527 0.088427
    40 -0.049759 -1.680546 0.100479 -1.768838 0.000000 -0.000002
    41 -0.034141 -1.148309 0.084778 -1.256851 0.000000 0.000000
    42 -0.488517 -2.755600 -0.228262 -0.026880 0.205465 0.134464
    43 0.039889 -1.479791 0.029853 -1.802101 0.000000 0.000001
    44 0.028786 -1.075733 -0.023111 -0.828849 0.000000 0.000000
    45 -1.180679 -2.507216 -0.193861 0.389766 0.205059 0.256395
    46 -0.024966 -1.123935 0.017594 -1.277148 0.000000 0.000001
    47 -0.020058 -0.890966 0.010091 -1.347617 0.000000 0.000000
    48 0.120152 -0.050267 -0.054488 0.287569 3.110905 1.561085
  time 9
    0 10.325613 6.965742 -6.482952 -0.329401 -2.083094 0.057396
    1 -0.071918 -8.498734 -0.104135 -0.162361 0.676813 -0.193303
    2 0.905662 -2.864319 0.551975 1.139257 1.326962 1.104567
    3 -0.000001 -12.629979 7.375443 -0.467747 0.000000 0.000000
    4 0.000002 -6.940917 -4.748858 0.000000 3.141496 0.000000
    5 -0.000002 14.232141 1.630652 -0.926992 0.000000 0.000000
    6 -3.961862 10.013004 -7.304515 1.570797 0.000000 0.000001
    7 -0.001366 0.001477 3.589092 0.000000 0.000000 0.000000
    8 -3.772527 -8.158155 -1.854879 0.628104 -2.445420 -0.435841
    9 0.062478 0.000000 1.425783 0.000000 -0.354719 0.000000
    10 -0.026257 0.000000 1.400207 0.000000 -0.186690 0.000000
    11 -0.023174 0.000001 1.707046 0.000000 0.000000 0.000000
    12 -0.043764 0.000000 1.936484 0.000000 -0.117869 0.000000
    13 -0.159953 0.000001 2.091296 0.000000 -0.081107 0.000000
    14 -5.616442 -2.969197 -6.226753 -1.190498 -1.715510 0.172857
    15 -0.085749 -0.255579 -8.907138 1.599388 0.309206 -1.484568
    16 0.096946 -8.450419 -0.009364 -0.066677 0.085308 0.436804
    17 -0.591284 -1.257741 0.232708 -0.332619 -0.727338 -2.455737
    18 1.522835 0.058680 0.016851 0.000916 -0.604842 1.084862
    19 1.117948 0.048424 -0.005765 -0.017752 -0.017886 0.837603
    20 -0.963867 -2.785143 -0.085346 -0.440241 0.199105 -0.035589
    21 0.028478 -1.403067 0.006271 -1.982635 0.000000 0.000000
    22 0.021414 -0.957782 0.020047 -0.828378 0.000000 0.000000
    23 -0.249534 -2.846964 -0.174215 -0.582568 0.189339 0.156524
    24 0.043234 -1.683941 0.096014 -2.290566 0.002823 -0.000167
    25 0.031729 -1.160830 0.058836 -0.397437 0.000642 0.008372
    26 0.447952 -2.798983 -0.200441 -1.000615 0.126731 0.357302
    27 -0.032910 -1.480208 0.004936 -2.042292 0.000000 0.000002
    28 -0.027022 -1.076920 -0.020212 -0.781662 0.000000 0.000000
    29 1.164475 -2.543939 -0.170327 -1.029806 -0.013294 0.477914
    30 0.024033 -1.129040 0.017806 -1.505504 0.000000 0.000000
    31 0.014896 -0.883991 -0.019845 -0.844587 0.000000 0.000000
    32 0.012949 0.028930 -0.024667 0.273657 0.065994 1.247189
    33 0.583509 -1.197273 0.185379 -0.186067 -0.292868 -0.073208
    34 1.535925 0.010247 0.005009 0.002286 -0.013111 -0.396295
    35 1.100770 0.004527 -0.010675 0.000992 0.016177 0.238445
    36 0.957766 -2.746777 -0.090301 -0.065910 0.226036 0.255712
    37 -0.033419 -1.397129 -0.011256 -1.320160 0.000000 -0.000001
    38 -0.022362 -0.957434 0.018782 -1.212891 0.000000 0.000000
    39 0.250028 -2.820664 -0.238397 -0.351554 0.323527 0.088427
    40 -0.049759 -1.680546 0.100479 -1.768838 0.000000 -0.000002
    41 -0.034141 -1.148309 0.084778 -1.256851 0.000000 0.000000
    42 -0.488517 -2.755600 -0.228262 -0.026880 0.205465 0.134464
    43 0.039889 -1.479791 0.029853 -1.802101 0.000000 0.000001
    44 0.028786 -1.075733 -0.023111 -0.828849 0.000000 0.000000
    45 -1.180679 -2.507216 -0.193861 0.389766 0.205059 0.256395
    46 -0.024966 -1.123935 0.017594 -1.277148 0.000000 0.000001
    47 -0.020058 -0.890966 0.010091 -1.347617 0.000000 0.000000
    48 0.120152 -0.050267 -0.054488 0.287569 3.110905 1.561085
  time 10
    0 10.325613 7.293877 -6.482952 -0.329401 -2.083094 0.057396
    1 -0.071918 -8.498734 -0.104135 -0.156339 0.644757 -0.203585
    2 0.905662 -2.864319 0.551975 1.139257 1.326962 1.104567
    3 -0.000001 -12.629979 7.375443 -0.467747 0.000000 0.000000
    4 0.000002 -7.050295 -4.748858 0.000000 0.000000 0.000000
    5 -0.000002 14.232141 1.630652 -0.926992 0.000000 0.000000
    6 -3.961862 10.013004 -7.304515 1.570797 0.000000 0.000001
    7 -0.001366 0.001477 3.589092 0.000000 0.000000 0.000000
    8 -3.772527 -8.158155 -1.854879 0.628104 -2.445420 -0.435841
    9 0.062478 0.000000 1.425783 0.000000 -0.354719 0.000000
    10 -0.026257 0.000000 1.400207 0.000000 -0.186690 0.000000
    11 -0.023174 0.000001 1.707046 0.000000 0.000000 0.000000
    12 -0.043764 0.000000 1.936484 0.000000 -0.117869 0.000000
    13 -0.159953 0.000001 2.091296 0.000000 -0.081107 0.000000
    14 -5.776603 -2.969197 -6.226753 -1.128107 -1.666908 0.062433
    15 -0.085749 -0.255579 -8.907138 1.614653 0.433704 -1.485587
    16 0.096946 -8.450419 -0.009364 -0.063327 0.011323 0.518685
    17 -0.591284 -1.257741 0.232708 -0.332619 -0.727338 -2.455737
    18 1.522835 0.058680 0.016851 0.000916 -0.604842 1.084862
    19 1.117948 0.048424 -0.005765 -0.017752 -0.017886 0.837603
    20 -0.963867 -2.785143 -0.085346 -0.440241 0.199105 -0.035589
    21 0.028478 -1.403067 0.006271 -1.982635 0.000000 0.000000
    22 0.021414 -0.957782 0.020047 -0.828378 0.000000 0.000000
    23 -0.249534 -2.846964 -0.174215 -0.582568 0.189339 0.156524
    24 0.043234 -1.683941 0.096014 -2.290566 0.002823 -0.000167
    25 0.031729 -1.160830 0.058836 -0.397437 0.000642 0.008372
    26 0.447952 -2.798983 -0.200441 -1.000615 0.126731 0.357302
    27 -0.032910 -1.480208 0.004936 -2.042292 0.000000 0.000002
    28 -0.027022 -1.076920 -0.020212 -0.781662 0.000000 0.000000
    29 1.164475 -2.543939 -0.170327 -1.029806 -0.013294 0.477914
    30 0.024033 -1.129040 0.017806 -1.505504 0.000000 0.000000
    31 0.014896 -0.883991 -0.019845 -0.844587 0.000000 0.000000
    32 0.012949 0.028930 -0.024667 0.273657 0.065994 1.247189
    33 0.583509 -1.197273 0.185379 -0.186067 -0.292868 -0.073208
    34 1.535925 0.010247 0.005009 0.002286 -0.013111 -0.396295
    35 1.100770 0.004527 -0.010675 0.000992 0.016177 0.238445
    36 0.957766 -2.746777 -0.090301 -0.065910 0.226036 0.255712
    37 -0.033419 -1.397129 -0.011256 -1.320160 0.000000 -0.000001
    38 -0.022362 -0.957434 0.018782 -1.212891 0.000000 0.000000
    39 0.250028 -2.820664 -0.238397 -0.351554 0.323527 0.088427
    40 -0.049759 -1.680546 0.100479 -1.768838 0.000000 -0.000002
    41 -0.034141 -1.148309 0.084778 -1.256851 0.000000 0.000000
    42 -0.488517 -2.755600 -0.228262 -0.026880 0.205465 0.134464
    43 0.039889 -1.479791 0.029853 -1.802101 0.000000 0.000001
    44 0.028786 -1.075733 -0.023111 -0.828849 0.000000 0.000000
    45 -1.180679 -2.507216 -0.193861 0.389766 0.205059 0.256395
    46 -0.024966 -1.123935 0.017594 -1.277148 0.000000 0.000001
    47 -0.020058 -0.890966 0.010091 -1.347617 0.000000 0.000000
    48 0.120152 -0.050267 -0.054488 0.287569 3.110905 1.561085
  time 11
    0 10.325613 7.110278 -6.482952 -0.329401 -2.083094 0.057396
    1 -0.071918 -8.498734 -0.104135 -0.168822 0.674822 -0.194503
    2 0.905662 -2.864319 0.551975 1.139257 1.326962 1.104567
    3 -0.000001 -12.629979 7.375443 -0.467747 0.000000 0.000000
    4 0.000002 -6.800288 -4.748858 0.000000 3.141496 0.000000
    5 -0.000002 14.232141 1.630652 -0.926992 0.000000 0.000000
    6 -3.961862 10.013004 -7.304515 1.570797 0.000000 0.000001
    7 -0.001366 0.001477 3.589092 0.000000 0.000000 0.000000
    8 -3.772527 -8.158155 -1.854879 0.628104 -2.445420 -0.435841
    9 0.062478 0.000000 1.425783 0.000000 -0.354719 0.000000
    10 -0.026257 0.000000 1.400207 0.000000 -0.186690 0.000000
    11 -0.023174 0.000001 1.707046 0.000000 0.000000 0.000000
    12 -0.043764 0.000000 1.936484 0.000000 -0.117869 0.000000
    13 -0.159953 0.000001 2.091296 0.000000 -0.081107 0.000000
    14 -5.737540 -2.969197 -6.226753 -1.135859 -1.694069 0.090575
    15 -0.085749 -0.255579 -8.907138 1.608076 0.379446 -1.485124
    16 0.096946 -8.450419 -0.009364 -0.075842 0.068184 0.490990
    17 -0.591284 -1.257741 0.232708 -0.332619 -0.727338 -2.455737
    18 1.522835 0.058680 0.016851 0.000916 -0.604842 1.084862
    19 1.117948 0.048424 -0.005765 -0.017752 -0.017886 0.837603
    20 -0.963867 -2.785143 -0.085346 -0.440241 0.199105 -0.035589
    21 0.028478 -1.403067 0.006271 -1.982635 0.000000 0.000000
    22 0.021414 -0.957782 0.020047 -0.828378 0.000000 0.000000
    23 -0.249534 -2.846964 -0.174215 -0.582568 0.189339 0.156524
    24 0.043234 -1.683941 0.096014 -2.290566 0.002823 -0.000167
    25 0.031729 -1.160830 0.058836 -0.397437 0.000642 0.008372
    26 0.447952 -2.798983 -0.200441 -1.000615 0.126731 0.357302
    27 -0.032910 -1.480208 0.004936 -2.042292 0.000000 0.000002
    28 -0.027022 -1.076920 -0.020212 -0.781662 0.000000 0.000000
    29 1.164475 -2.543939 -0.170327 -1.029806 -0.013294 0.477914
    30 0.024033 -1.129040 0.017806 -1.505504 0.000000 0.000000
    31 0.014896 -0.883991 -0.019845 -0.844587 0.000000 0.000000
    32 0.012949 0.028930 -0.024667 0.273657 0.065994 1.247189
    33 0.583509 -1.197273 0.185379 -0.186067 -0.292868 -0.073208
    34 1.535925 0.010247 0.005009 0.002286 -0.013111 -0.396295
    35 1.100770 0.004527 -0.010675 0.000992 0.016177 0.238445
    36 0.957766 -2.746777 -0.090301 -0.065910 0.226036 0.255712
    37 -0.033419 -1.397129 -0.011256 -1.320160 0.000000 -0.000001
    38 -0.022362 -0.957434 0.018782 -1.212891 0.000000 0.000000
    39 0.250028 -2.820664 -0.238397 -0.351554 0.323527 0.088427
    40 -0.049759 -1.680546 0.100479 -1.768838 0.000000 -0.000002
    41 -0.034141 -1.148309 0.084778 -1.256851 0.000000 0.000000
    42 -0.488517 -2.755600 -0.228262 -0.026880 0.205465 0.134464
    43 0.039889 -1.479791 0.029853 -1.802101 0.000000 0.000001
    44 0.028786 -1.075733 -0.023111 -0.828849 0.000000 0.000000
    45 -1.180679 -2.507216 -0.193861 0.389766 0.205059 0.256395
    46 -0.024966 -1.123935 0.017594 -1.277148 0.000000 0.000001
    47 -0.020058 -0.890966 0.010091 -1.347617 0.000000 0.000000
    48 0.120152 -0.050267 -0.054488 0.287569 3.110905 1.561085
  time 12
    0 10.325613 6.965742 -6.482952 -0.329401 -2.083094 0.057396
    1 -0.071918 -8.498734 -0.104135 -0.156339 0.644757 -0.203585
    2 0.905662 -2.864319 0.551975 1.139257 1.326962 1.104567
    3 -0.000001 -12.629979 7.375443 -0.467747 0.000000 0.000000
    4 0.000002 -6.940917 -4.748858 0.000000 0.000000 0.000000
    5 -0.000002 14.232141 1.630652 -0.926992 0.000000 0.000000
    6 -3.961862 10.013004 -7.304515 1.570797 0.000000 0.000001
    7 -0.001366 0.001477 3.589092 0.000000 0.000000 0.000000
    8 -3.772527 -8.158155 -1.854879 0.628104 -2.445420 -0.435841
    9 0.062478 0.000000 1.425783 0.000000 -0.354719 0.000000
    10 -0.026257 0.000000 1.400207 0.000000 -0.186690 0.000000
    11 -0.023174 0.000001 1.707046 0.000000 0.000000 0.000000
    12 -0.043764 0.000000 1.936484 0.000000 -0.117869 0.000000
    13 -0.159953 0.000001 2.091296 0.000000 -0.081107 0.000000
    14 -5.616442 -2.969197 -6.226753 -1.287016 -1.709726 0.244162
    15 -0.085749 -0.255579 -8.907138 1.604341 0.349448 -1.484846
    16 0.096946 -8.450419 -0.009364 -0.048072 0.050554 0.455167
    17 -0.591284 -1.257741 0.232708 -0.332619 -0.727338 -2.455737
    18 1.522835 0.058680 0.016851 0.000916 -0.604842 1.084862
    19 1.117948 0.048424 -0.005765 -0.017752 -0.017886 0.837603
    20 -0.963867 -2.785143 -0.085346 -0.440241 0.199105 -0.035589
    21 0.028478 -1.403067 0.006271 -1.982635 0.000000 0.000000
    22 0.021414 -0.957782 0.020047 -0.828378 0.000000 0.000000
    23 -0.249534 -2.846964 -0.174215 -0.582568 0.189339 0.156524
    24 0.043234 -1.683941 0.096014 -2.290566 0.002823 -0.000167
    25 0.031729 -1.160830 0.058836 -0.397437 0.000642 0.008372
    26 0.447952 -2.798983 -0.200441 -1.000615 0.126731 0.357302
    27 -0.032910 -1.480208 0.004936 -2.042292 0.000000 0.000002
    28 -0.027022 -1.076920 -0.020212 -0.781662 0.000000 0.000000
    29 1.164475 -2.543939 -0.170327 -1.029806 -0.013294 0.477914
    30 0.024033 -1.129040 0.017806 -1.505504 0.000000 0.000000
    31 0.014896 -0.883991 -0.019845 -0.844587 0.000000 0.000000
    32 0.012949 0.028930 -0.024667 0.273657 0.065994 1.247189
    33 0.583509 -1.197273 0.185379 -0.186067 -0.292868 -0.073208
    34 1.535925 0.010247 0.005009 0.002286 -0.013111 -0.396295
    35 1.100770 0.004527 -0.010675 0.000992 0.016177 0.238445
    36 0.957766 -2.746777 -0.090301 -0.065910 0.226036 0.255712
    37 -0.033419 -1.397129 -0.011256 -1.320160 0.000000 -0.000001
    38 -0.022362 -0.957434 0.018782 -1.212891 0.000000 0.000000
    39 0.250028 -2.820664 -0.238397 -0.351554 0.323527 0.088427
    40 -0.049759 -1.680546 0.100479 -1.768838 0.000000 -0.000002
    41 -0.034141 -1.148309 0.084778 -1.256851 0.000000 0.000000
    42 -0.488517 -2.755600 -0.228262 -0.026880 0.205465 0.134464
    43 0.039889 -1.479791 0.029853 -1.802101 0.000000 0.000001
    44 0.028786 -1.075733 -0.023111 -0.828849 0.000000 0.000000
    45 -1.180679 -2.507216 -0.193861 0.389766 0.205059 0.256395
    46 -0.024966 -1.123935 0.017594 -1.277148 0.000000 0.000001
    47 -0.020058 -0.890966 0.010091 -1.347617 0.000000 0.000000
    48 0.120152 -0.050267 -0.054488 0.287569 3.110905 1.561085
  time 13
    0 10.325613 7.407162 -6.482952 -0.329401 -2.083094 0.057396
    1 -0.071918 -8.498734 -0.104135 -0.168822 0.674822 -0.194503
    2 0.905662 -2.864319 0.551975 1.139257 1.326962 1.104567
    3 -0.000001 -12.629979 7.375443 -0.467747 0.000000 0.000000
    4 0.000002 -7.050295 -4.748858 0.000000 3.141496 0.000000
    5 -0.000002 14.232141 1.630652 -0.926992 0.000000 0.000000
    6 -3.961862 10.013004 -7.304515 1.570797 0.000000 0.000001
    7 -0.001366 0.001477 3.589092 0.000000 0.000000 0.000000
    8 -3.772527 -8.158155 -1.854879 0.628104 -2.445420 -0.435841
    9 0.062478 0.000000 1.425783 0.000000 -0.354719 0.000000
    10 -0.026257 0.000000 1.400207 0.000000 -0.186690 0.000000
    11 -0.023174 0.000001 1.707046 0.000000 0.000000 0.000000
    12 -0.043764 0.000000 1.936484 0.000000 -0.117869 0.000000
    13 -0.159953 0.000001 2.091296 0.000000 -0.081107 0.000000
    14 -5.776603 -2.969197 -6.226753 -1.061273 -1.673490 -0.021252
    15 -0.085749 -0.255579 -8.907138 1.620336 0.480995 -1.485957
    16 0.096946 -8.450419 -0.009364 -0.085576 0.052948 0.551385
    17 -0.591284 -1.257741 0.232708 -0.332619 -0.727338 -2.455737
    18 1.522835 0.058680 0.016851 0.000916 -0.604842 1.084862
    19 1.117948 0.048424 -0.005765 -0.017752 -0.017886 0.837603
    20 -0.963867 -2.785143 -0.085346 -0.440241 0.199105 -0.035589
    21 0.028478 -1.403067 0.006271 -1.982635 0.000000 0.000000
    22 0.021414 -0.957782 0.020047 -0.828378 0.000000 0.000000
    23 -0.249534 -2.846964 -0.174215 -0.582568 0.189339 0.156524
    24 0.043234 -1.683941 0.096014 -2.290566 0.002823 -0.000167
    25 0.031729 -1.160830 0.058836 -0.397437 0.000642 0.008372
    26 0.447952 -2.798983 -0.200441 -1.000615 0.126731 0.357302
    27 -0.032910 -1.480208 0.004936 -2.042292 0.000000 0.000002
    28 -0.027022 -1.076920 -0.020212 -0.781662 0.000000 0.000000
    29 1.164475 -2.543939 -0.170327 -1.029806 -0.013294 0.477914
    30 0.024033 -1.129040 0.017806 -1.505504 0.000000 0.000000
    31 0.014896 -0.883991 -0.019845 -0.844587 0.000000 0.000000
    32 0.012949 0.028930 -0.024667 0.273657 0.065994 1.247189
    33 0.583509 -1.197273 0.185379 -0.186067 -0.292868 -0.073208
    34 1.535925 0.010247 0.005009 0.002286 -0.013111 -0.396295
    35 1.100770 0.004527 -0.010675 0.000992 0.016177 0.238445
    36 0.957766 -2.746777 -0.090301 -0.065910 0.226036 0.255712
    37 -0.033419 -1.397129 -0.011256 -1.320160 0.000000 -0.000001
    38 -0.022362 -0.957434 0.018782 -1.212891 0.000000 0.000000
    39 0.250028 -2.820664 -0.238397 -0.351554 0.323527 0.088427
    40 -0.049759 -1.680546 0.100479 -1.768838 0.000000 -0.000002
    41 -0.034141 -1.148309 0.084778 -1.256851 0.000000 0.000000
    42 -0.488517 -2.755600 -0.228262 -0.026880 0.205465 0.134464
    43 0.039889 -1.479791 0.029853 -1.802101 0.000000 0.000001
    44 0.028786 -1.075733 -0.023111 -0.828849 0.000000 0.000000
    45 -1.180679 -2.507216 -0.193861 0.389766 0.205059 0.256395
    46 -0.024966 -1.123935 0.017594 -1.277148 0.000000 0.000001
    47 -0.020058 -0.890966 0.010091 -1.347617 0.000000 0.000000
    48 0.120152 -0.050267 -0.054488 0.287569 3.110905 1.561085
  time 14
    0 10.325613 7.204031 -6.482952 -0.329401 -2.083094 0.057396
    1 -0.071918 -8.498734 -0.104135 -0.156339 0.644757 -0.203585
    2 0.905662 -2.864319 0.551975 1.139257 1.326962 1.104567
    3 -0.000001 -12.629979 7.375443 -0.467747 0.000000 0.000000
    4 0.000002 -6.800288 -4.748858 0.000000 0.000000 0.000000
    5 -0.000002 14.232141 1.630652 -0.926992 0.000000 0.000000
    6 -3.961862 10.013004 -7.304515 1.570797 0.000000 0.000001
    7 -0.001366 0.001477 3.589092 0.000000 0.000000 0.000000
    8 -3.772527 -8.158155 -1.854879 0.628104 -2.445420 -0.435841
    9 0.062478 0.000000 1.425783 0.000000 -0.354719 0.000000
    10 -0.026257 0.000000 1.400207 0.000000 -0.186690 0.000000
    11 -0.023174 0.000001 1.707046 0.000000 0.000000 0.000000
    12 -0.043764 0.000000 1.936484 0.000000 -0.117869 0.000000
    13 -0.159953 0.000001 2.091296 0.000000 -0.081107 0.000000
    14 -5.737540 -2.969197 -6.226753 -1.237292 -1.687326 0.177561
    15 -0.085749 -0.255579 -8.907138 1.612055 0.412066 -1.485401
    16 0.096946 -8.450419 -0.009364 -0.055973 0.031798 0.497161
    17 -0.591284 -1.257741 0.232708 -0.332619 -0.727338 -2.455737
    18 1.522835 0.058680 0.016851 0.000916 -0.604842 1.084862
    19 1.117948 0.048424 -0.005765 -0.017752 -0.017886 0.837603
    20 -0.963867 -2.785143 -0.085346 -0.440241 0.199105 -0.035589
    21 0.028478 -1.403067 0.006271 -1.982635 0.000000 0.000000
    22 0.021414 -0.957782 0.020047 -0.828378 0.000000 0.000000
    23 -0.249534 -2.846964 -0.174215 -0.582568 0.189339 0.156524
    24 0.043234 -1.683941 0.096014 -2.290566 0.002823 -0.000167
    25 0.031729 -1.160830 0.058836 -0.397437 0.000642 0.008372
    26 0.447952 -2.798983 -0.200441 -1.000615 0.126731 0.357302
    27 -0.032910 -1.480208 0.004936 -2.042292 0.000000 0.000002
    28 -0.027022 -1.076920 -0.020212 -0.781662 0.000000 0.000000
    29 1.164475 -2.543939 -0.170327 -1.029806 -0.013294 0.477914
    30 0.024033 -1.129040 0.017806 -1.505504 0.000000 0.000000
    31 0.014896 -0.883991 -0.019845 -0.844587 0.000000 0.000000
    32 0.012949 0.028930 -0.024667 0.273657 0.065994 1.247189
    33 0.583509 -1.197273 0.185379 -0.186067 -0.292868 -0.073208
    34 1.535925 0.010247 0.005009 0.002286 -0.013111 -0.396295
    35 1.100770 0.004527 -0.010675 0.000992 0.016177 0.238445
    36 0.957766 -2.746777 -0.090301 -0.065910 0.226036 0.255712
    37 -0.033419 -1.397129 -0.011256 -1.320160 0.000000 -0.000001
    38 -0.022362 -0.957434 0.018782 -1.212891 0.000000 0.000000
    39 0.250028 -2.820664 -0.238397 -0.351554 0.323527 0.088427
    40 -0.049759 -1.680546 0.100479 -1.768838 0.000000 -0.000002
    41 -0.034141 -1.148309 0.084778 -1.256851 0.000000 0.000000
    42 -0.488517 -2.755600 -0.228262 -0.026880 0.205465 0.134464
    43 0.039889 -1.479791 0.029853 -1.802101 0.000000 0.000001
    44 0.028786 -1.075733 -0.023111 -0.828849 0.000000 0.000000
    45 -1.180679 -2.507216 -0.193861 0.389766 0.205059 0.256395
    46 -0.024966 -1.123935 0.017594 -1.277148 0.000000 0.000001
    47 -0.020058 -0.890966 0.010091 -1.347617 0.000000 0.000000
    48 0.120152 -0.050267 -0.054488 0.287569 3.110905 1.561085
  time 15
    0 10.325613 6.965742 -6.482952 -0.329401 -2.083094 0.057396
    1 -0.071918 -8.498734 -0.104135 -0.162361 0.676813 -0.193303
    2 0.905662 -2.864319 0.551975 1.139257 1.326962 1.104567
    3 -0.000001 -12.629979 7.375443 -0.467747 0.000000 0.000000
    4 0.000002 -6.940917 -4.748858 0.000000 3.141496 0.000000
    5 -0.000002 14.232141 1.630652 -0.926992 0.000000 0.000000
    6 -3.961862 10.013004 -7.304515 1.570797 0.000000 0.000001
    7 -0.001366 0.001477 3.589092 0.000000 0.000000 0.000000
    8 -3.772527 -8.158155 -1.854879 0.628104 -2.445420 -0.435841
    9 0.062478 0.000000 1.425783 0.000000 -0.354719 0.000000
    10 -0.026257 0.000000 1.400207 0.000000 -0.186690 0.000000
    11 -0.023174 0.000001 1.707046 0.000000 0.000000 0.000000
    12 -0.043764 0.000000 1.936484 0.000000 -0.117869 0.000000
    13 -0.159953 0.000001 2.091296 0.000000 -0.081107 0.000000
    14 -5.616442 -2.969197 -6.226753 -1.190498 -1.715510 0.172857
    15 -0.085749 -0.255579 -8.907138 1.599388 0.309206 -1.484568
    16 0.096946 -8.450419 -0.009364 -0.066677 0.085308 0.436804
    17 -0.591284 -1.257741 0.232708 -0.332619 -0.727338 -2.455737
    18 1.522835 0.058680 0.016851 0.000916 -0.604842 1.084862
    19 1.117948 0.048424 -0.005765 -0.017752 -0.017886 0.837603
    20 -0.963867 -2.785143 -0.085346 -0.440241 0.199105 -0.035589
    21 0.028478 -1.403067 0.006271 -1.982635 0.000000 0.000000
    22 0.021414 -0.957782 0.020047 -0.828378 0.000000 0.000000
    23 -0.249534 -2.846964 -0.174215 -0.582568 0.189339 0.156524
    24 0.043234 -1.683941 0.096014 -2.290566 0.002823 -0.000167
    25 0.031729 -1.160830 0.058836 -0.397437 0.000642 0.008372
    26 0.447952 -2.798983 -0.200441 -1.000615 0.126731 0.357302
    27 -0.032910 -1.480208 0.004936 -2.042292 0.000000 0.000002
    28 -0.027022 -1.076920 -0.020212 -0.781662 0.000000 0.000000
    29 1.164475 -2.543939 -0.170327 -1.029806 -0.013294 0.477914
    30 0.024033 -1.129040 0.017806 -1.505504 0.000000 0.000000
    31 0.014896 -0.883991 -0.019845 -0.844587 0.000000 0.000000
    32 0.012949 0.028930 -0.024667 0.273657 0.065994 1.247189
    33 0.583509 -1.197273 0.185379 -0.186067 -0.292868 -0.073208
    34 1.535925 0.010247 0.005009 0.002286 -0.013111 -0.396295
    35 1.100770 0.004527 -0.010675 0.000992 0.016177 0.238445
    36 0.957766 -2.746777 -0.090301 -0.065910 0.226036 0.255712
    37 -0.033419 -1.397129 -0.011256 -1.320160 0.000000 -0.000001
    38 -0.022362 -0.957434 0.018782 -1.212891 0.000000 0.000000
    39 0.250028 -2.820664 -0.238397 -0.351554 0.323527 0.088427
    40 -0.049759 -1.680546 0.100479 -1.768838 0.000000 -0.000002
    41 -0.034141 -1.148309 0.084778 -1.256851 0.000000 0.000000
    42 -0.488517 -2.755600 -0.228262 -0.026880 0.205465 0.134464
    43 0.039889 -1.479791 0.029853 -1.802101 0.000000 0.000001
    44 0.028786 -1.075733 -0.023111 -0.828849 0.000000 0.000000
    45 -1.180679 -2.507216 -0.193861 0.389766 0.205059 0.256395
    46 -0.024966 -1.123935 0.017594 -1.277148 0.000000 0.000001
    47 -0.020058 -0.890966 0.010091 -1.347617 0.000000 0.000000
    48 0.120152 -0.050267 -0.054488 0.287569 3.110905 1.561085
  time 16
    0 10.325613 7.293877 -6.482952 -0.329401 -2.083094 0.057396
    1 -0.071918 -8.498734 -0.104135 -0.156339 0.644757 -0.203585
    2 0.905662 -2.864319 0.551975 1.139257 1.326962 1.104567
    3 -0.000001 -12.629979 7.375443 -0.467747 0.000000 0.000000
    4 0.000002 -7.050295 -4.748858 0.000000 0.000000 0.000000
    5 -0.000002 14.232141 1.630652 -0.926992 0.000000 0.000000
    6 -3.961862 10.013004 -7.304515 1.570797 0.000000 0.000001
    7 -0.001366 0.001477 3.589092 0.000000 0.000000 0.000000
    8 -3.772527 -8.158155 -1.854879 0.628104 -2.445420 -0.435841
    9 0.062478 0.000000 1.425783 0.000000 -0.354719 0.000000
    10 -0.026257 0.000000 1.400207 0.000000 -0.186690 0.000000
    11 -0.023174 0.000001 1.707046 0.000000 0.000000 0.000000
    12 -0.043764 0.000000 1.936484 0.000000 -0.117869 0.000000
    13 -0.159953 0.000001 2.091296 0.000000 -0.081107 0.000000
    14 -5.776603 -2.969197 -6.226753 -1.128107 -1.666908 0.062433
    15 -0.085749 -0.255579 -8.907138 1.614653 0.433704 -1.485587
    16 0.096946 -8.450419 -0.009364 -0.063327 0.011323 0.518685
    17 -0.591284 -1.257741 0.232708 -0.332619 -0.727338 -2.455737
    18 1.522835 0.058680 0.016851 0.000916 -0.604842 1.084862
    19 1.117948 0.048424 -0.005765 -0.017752 -0.017886 0.837603
    20 -0.963867 -2.785143 -0.085346 -0.440241 0.199105 -0.035589
    21 0.028478 -1.403067 0.006271 -1.982635 0.000000 0.000000
    22 0.021414 -0.957782 0.020047 -0.828378 0.000000 0.000000
    23 -0.249534 -2.846964 -0.174215 -0.582568 0.189339 0.156524
    24 0.043234 -1.683941 0.096014 -2.290566 0.002823 -0.000167
    25 0.031729 -1.160830 0.058836 -0.397437 0.000642 0.008372
    26 0.447952 -2.798983 -0.200441 -1.000615 0.126731 0.357302
    27 -0.032910 -1.480208 0.004936 -2.042292 0.000000 0.000002
    28 -0.027022 -1.076920 -0.020212 -0.781662 0.000000 0.000000
    29 1.164475 -2.543939 -0.170327 -1.029806 -0.013294 0.477914
    30 0.024033 -1.129040 0.017806 -1.505504 0.000000 0.000000
    31 0.014896 -0.883991 -0.019845 -0.844587 0.000000 0.000000
    32 0.012949 0.028930 -0.024667 0.273657 0.065994 1.247189
    33 0.583509 -1.197273 0.185379 -0.186067 -0.292868 -0.073208
    34 1.535925 0.010247 0.005009 0.002286 -0.013111 -0.396295
    35 1.100770 0.004527 -0.010675 0.000992 0.016177 0.238445
    36 0.957766 -2.746777 -0.090301 -0.065910 0.226036 0.255712
    37 -0.033419 -1.397129 -0.011256 -1.320160 0.000000 -0.000001
    38 -0.022362 -0.957434 0.018782 -1.212891 0.000000 0.000000
    39 0.250028 -2.820664 -0.238397 -0.351554 0.323527 0.088427
    40 -0.049759 -1.680546 0.100479 -1.768838 0.000000 -0.000002
    41 -0.034141 -1.148309 0.084778 -1.256851 0.000000 0.000000
    42 -0.488517 -2.755600 -0.228262 -0.026880 0.205465 0.134464
    43 0.039889 -1.479791 0.029853 -1.802101 0.000000 0.000001
    44 0.028786 -1.075733 -0.023111 -0.828849 0.000000 0.000000
    45 -1.180679 -2.507216 -0.193861 0.389766 0.205059 0.256395
    46 -0.024966 -1.123935 0.017594 -1.277148 0.000000 0.000001
    47 -0.020058 -0.890966 0.010091 -1.347617 0.000000 0.000000
    48 0.120152 -0.050267 -0.054488 0.287569 3.110905 1.561085
  time 17
    0 10.325613 7.110278 -6.482952 -0.329401 -2.083094 0.057396
    1 -0.071918 -8.498734 -0.104135 -0.168822 0.674822 -0.194503
    2 0.905662 -2.864319 0.551975 1.139257 1.326962 1.104567
    3 -0.000001 -12.629979 7.375443 -0.467747 0.000000 0.000000
    4 0.000002 -6.800288 -4.748858 0.000000 3.141496 0.000000
    5 -0.000002 14.232141 1.630652 -0.926992 0.000000 0.000000
    6 -3.961862 10.013004 -7.304515 1.570797 0.000000 0.000001
    7 -0.001366 0.001477 3.589092 0.000000 0.000000 0.000000
    8 -3.772527 -8.158155 -1.854879 0.628104 -2.445420 -0.435841
    9 0.062478 0.000000 1.425783 0.000000 -0.354719 0.000000
    10 -0.026257 0.000000 1.400207 0.000000 -0.186690 0.000000
    11 -0.023174 0.000001 1.707046 0.000000 0.000000 0.000000
    12 -0.043764 0.000000 1.936484 0.000000 -0.117869 0.000000
    13 -0.159953 0.000001 2.091296 0.000000 -0.081107 0.000000
    14 -5.737540 -2.969197 -6.226753 -1.135859 -1.694069 0.090575
    15 -0.085749 -0.255579 -8.907138 1.608076 0.379446 -1.485124
    16 0.096946 -8.450419 -0.009364 -0.075842 0.068184 0.490990
    17 -0.591284 -1.257741 0.232708 -0.332619 -0.727338 -2.455737
    18 1.522835 0.058680 0.016851 0.000916 -0.604842 1.084862
    19 1.117948 0.048424 -0.005765 -0.017752 -0.017886 0.837603
    20 -0.963867 -2.785143 -0.085346 -0.440241 0.199105 -0.035589
    21 0.028478 -1.403067 0.006271 -1.982635 0.000000 0.000000
    22 0.021414 -0.957782 0.020047 -0.828378 0.000000 0.000000
    23 -0.249534 -2.846964 -0.174215 -0.582568 0.189339 0.156524
    24 0.043234 -1.683941 0.096014 -2.290566 0.002823 -0.000167
    25 0.031729 -1.160830 0.058836 -0.397437 0.000642 0.008372
    26 0.447952 -2.798983 -0.200441 -1.000615 0.126731 0.357302
    27 -0.032910 -1.480208 0.004936 -2.042292 0.000000 0.000002
    28 -0.027022 -1.076920 -0.020212 -0.781662 0.000000 0.000000
    29 1.164475 -2.543939 -0.170327 -1.029806 -0.013294 0.477914
    30 0.024033 -1.129040 0.017806 -1.505504 0.000000 0.000000
    31 0.014896 -0.883991 -0.019845 -0.844587 0.000000 0.000000
    32 0.012949 0.028930 -0.024667 0.273657 0.065994 1.247189
    33 0.583509 -1.197273 0.185379 -0.186067 -0.292868 -0.073208
    34 1.535925 0.010247 0.005009 0.002286 -0.013111 -0.396295
    35 1.100770 0.004527 -0.010675 0.000992 0.016177 0.238445
    36 0.957766 -2.746777 -0.090301 -0.065910 0.226036 0.255712
    37 -0.033419 -1.397129 -0.011256 -1.320160 0.000000 -0.000001
    38 -0.022362 -0.957434 0.018782 -1.212891 0.000000 0.000000
    39 0.250028 -2.820664 -0.238397 -0.351554 0.323527 0.088427
    40 -0.049759 -1.680546 0.100479 -1.768838 0.000000 -0.000002
    41 -0.034141 -1.148309 0.084778 -1.256851 0.000000 0.000000
    42 -0.488517 -2.755600 -0.228262 -0.026880 0.205465 0.134464
    43 0.039889 -1.479791 0.029853 -1.802101 0.000000 0.000001
    44 0.028786 -1.075733 -0.023111 -0.828849 0.000000 0.000000
    45 -1.180679 -2.507216 -0.193861 0.389766 0.205059 0.256395
    46 -0.024966 -1.123935 0.017594 -1.277148 0.000000 0.000001
    47 -0.020058 -0.890966 0.010091 -1.347617 0.000000 0.000000
    48 0.120152 -0.050267 -0.054488 0.287569 3.110905 1.561085
  time 18
    0 10.325613 6.965742 -6.482952 -0.329401 -2.083094 0.057396
    1 -0.071918 -8.498734 -0.104135 -0.156339 0.644757 -0.203585
    2 0.905662 -2.864319 0.551975 1.139257 1.326962 1.104567
    3 -0.000001 -12.629979 7.375443 -0.467747 0.000000 0.000000
    4 0.000002 -6.940917 -4.748858 0.000000 0.000000 0.000000
    5 -0.000002 14.232141 1.630652 -0.926992 0.000000 0.000000
    6 -3.961862 10.013004 -7.304515 1.570797 0.000000 0.000001
    7 -0.001366 0.001477 3.589092 0.000000 0.000000 0.000000
    8 -3.772527 -8.158155 -1.854879 0.628104 -2.445420 -0.435841
    9 0.062478 0.000000 1.425783 0.000000 -0.354719 0.000000
    10 -0.026257 0.000000 1.400207 0.000000 -0.186690 0.000000
    11 -0.023174 0.000001 1.707046 0.000000 0.000000 0.000000
    12 -0.043764 0.000000 1.936484 0.000000 -0.117869 0.000000
    13 -0.159953 0.000001 2.091296 0.000000 -0.081107 0.000000
    14 -5.616442 -2.969197 -6.226753 -1.287016 -1.709726 0.244162
    15 -0.085749 -0.255579 -8.907138 1.604341 0.349448 -1.484846
    16 0.096946 -8.450419 -0.009364 -0.048072 0.050554 0.455167
    17 -0.591284 -1.257741 0.232708 -0.332619 -0.727338 -2.455737
    18 1.522835 0.058680 0.016851 0.000916 -0.604842 1.084862
    19 1.117948 0.048424 -0.005765 -0.017752 -0.017886 0.837603
    20 -0.963867 -2.785143 -0.085346 -0.440241 0.199105 -0.035589
    21 0.028478 -1.403067 0.006271 -1.982635 0.000000 0.000000
    22 0.021414 -0.957782 0.020047 -0.828378 0.000000 0.000000
    23 -0.249534 -2.846964 -0.174215 -0.582568 0.189339 0.156524
    24 0.043234 -1.683941 0.096014 -2.290566 0.002823 -0.000167
    25 0.031729 -1.160830 0.058836 -0.397437 0.000642 0.008372
    26 0.447952 -2.798983 -0.200441 -1.000615 0.126731 0.357302
    27 -0.032910 -1.480208 0.004936 -2.042292 0.000000 0.000002
    28 -0.027022 -1.076920 -0.020212 -0.781662 0.000000 0.000000
    29 1.164475 -2.543939 -0.170327 -1.029806 -0.013294 0.477914
    30 0.024033 -1.129040 0.017806 -1.505504 0.000000 0.000000
    31 0.014896 -0.883991 -0.019845 -0.844587 0.000000 0.000000
    32 0.012949 0.028930 -0.024667 0.273657 0.065994 1.247189
    33 0.583509 -1.197273 0.185379 -0.186067 -0.292868 -0.073208
    34 1.535925 0.010247 0.005009 0.002286 -0.013111 -0.396295
    35 1.100770 0.004527 -0.010675 0.000992 0.016177 0.238445
    36 0.957766 -2.746777 -0.090301 -0.065910 0.226036 0.255712
    37 -0.033419 -1.397129 -0.011256 -1.320160 0.000000 -0.000001
    38 -0.022362 -0.957434 0.018782 -1.212891 0.000000 0.000000
    39 0.250028 -2.820664 -0.238397 -0.351554 0.323527 0.088427
    40 -0.049759 -1.680546 0.100479 -1.768838 0.000000 -0.000002
    41 -0.034141 -1.148309 0.084778 -1.256851 0.000000 0.000000
    42 -0.488517 -2.755600 -0.228262 -0.026880 0.205465 0.134464
    43 0.039889 -1.479791 0.029853 -1.802101 0.000000 0.000001
    44 0.028786 -1.075733 -0.023111 -0.828849 0.000000 0.000000
    45 -1.180679 -2.507216 -0.193861 0.389766 0.205059 0.256395
    46 -0.024966 -1.123935 0.017594 -1.277148 0.000000 0.000001
    47 -0.020058 -0.890966 0.010091 -1.347617 0.000000 0.000000
    48 0.120152 -0.050267 -0.054488 0.287569 3.110905 1.561085
  time 19
    0 10.325613 7.407162 -6.482952 -0.329401 -2.083094 0.057396
    1 -0.071918 -8.498734 -0.104135 -0.168822 0.674822 -0.194503
    2 0.905662 -2.864319 0.551975 1.139257 1.326962 1.104567
    3 -0.000001 -12.629979 7.375443 -0.467747 0.000000 0.000000
    4 0.000002 -7.050295 -4.748858 0.000000 3.141496 0.000000
    5 -0.000002 14.232141 1.630652 -0.926992 0.000000 0.000000
    6 -3.961862 10.013004 -7.304515 1.570797 0.000000 0.000001
    7 -0.001366 0.001477 3.589092 0.000000 0.000000 0.000000
    8 -3.772527 -8.158155 -1.854879 0.628104 -2.445420 -0.435841
    9 0.062478 0.000000 1.425783 0.000000 -0.354719 0.000000
    10 -0.026257 0.000000 1.400207 0.000000 -0.186690 0.000000
    11 -0.023174 0.000001 1.707046 0.000000 0.000000 0.000000
    12 -0.043764 0.000000 1.936484 0.000000 -0.117869 0.000000
    13 -0.159953 0.000001 2.091296 0.000000 -0.081107 0.000000
    14 -5.776603 -2.969197 -6.226753 -1.061273 -1.673490 -0.021252
    15 -0.085749 -0.255579 -8.907138 1.620336 0.480995 -1.485957
    16 0.096946 -8.450419 -0.009364 -0.085576 0.052948 0.551385
    17 -0.591284 -1.257741 0.232708 -0.332619 -0.727338 -2.455737
    18 1.522835 0.058680 0.016851 0.000916 -0.604842 1.084862
    19 1.117948 0.048424 -0.005765 -0.017752 -0.017886 0.837603
    20 -0.963867 -2.785143 -0.085346 -0.440241 0.199105 -0.035589
    21 0.028478 -1.403067 0.006271 -1.982635 0.000000 0.000000
    22 0.021414 -0.957782 0.020047 -0.828378 0.000000 0.000000
    23 -0.249534 -2.846964 -0.174215 -0.582568 0.189339 0.156524
    24 0.043234 -1.683941 0.096014 -2.290566 0.002823 -0.000167
    25 0.031729 -1.160830 0.058836 -0.397437 0.000642 0.008372
    26 0.447952 -2.798983 -0.200441 -1.000615 0.126731 0.357302
    27 -0.032910 -1.480208 0.004936 -2.042292 0.000000 0.000002
    28 -0.027022 -1.076920 -0.020212 -0.781662 0.000000 0.000000
    29 1.164475 -2.543939 -0.170327 -1.029806 -0.013294 0.477914
    30 0.024033 -1.129040 0.017806 -1.505504 0.000000 0.000000
    31 0.014896 -0.883991 -0.019845 -0.844587 0.000000 0.000000
    32 0.012949 0.028930 -0.024667 0.273657 0.065994 1.247189
    33 0.583509 -1.197273 0.185379 -0.186067 -0.292868 -0.073208
    34 1.535925 0.010247 0.005009 0.002286 -0.013111 -0.396295
    35 1.100770 0.004527 -0.010675 0.000992 0.016177 0.238445
    36 0.957766 -2.746777 -0.090301 -0.065910 0.226036 0.255712
    37 -0.033419 -1.397129 -0.011256 -1.320160 0.000000 -0.000001
    38 -0.022362 -0.957434 0.018782 -1.212891 0.000000 0.000000
    39 0.250028 -2.820664 -0.238397 -0.351554 0.323527 0.088427
    40 -0.049759 -1.680546 0.100479 -1.768838 0.000000 -0.000002
    41 -0.034141 -1.148309 0.084778 -1.256851 0.000000 0.000000
    42 -0.488517 -2.755600 -0.228262 -0.026880 0.205465 0.134464
    43 0.039889 -1.479791 0.029853 -1.802101 0.000000 0.000001
    44 0.028786 -1.075733 -0.023111 -0.828849 0.000000 0.000000
    45 -1.180679 -2.507216 -0.193861 0.389766 0.205059 0.256395
    46 -0.024966 -1.123935 0.017594 -1.277148 0.000000 0.000001
    47 -0.020058 -0.890966 0.010091 -1.347617 0.000000 0.000000
    48 0.120152 -0.050267 -0.054488 0.287569 3.110905 1.561085
  time 20
    0 10.325613 7.204031 -6.482952 -0.329401 -2.083094 0.057396
    1 -0.071918 -8.498734 -0.104135 -0.156339 0.644757 -0.203585
    2 0.905662 -2.864319 0.551975 1.139257 1.326962 1.104567
    3 -0.000001 -12.629979 7.375443 -0.467747 0.000000 0.000000
    4 0.000002 -6.800288 -4.748858 0.000000 0.000000 0.000000
    5 -0.000002 14.232141 1.630652 -0.926992 0.000000 0.000000
    6 -3.961862 10.013004 -7.304515 1.570797 0.000000 0.000001
    7 -0.001366 0.001477 3.589092 0.000000 0.000000 0.000000
    8 -3.772527 -8.158155 -1.854879 0.628104 -2.445420 -0.435841
    9 0.062478 0.000000 1.425783 0.000000 -0.354719 0.000000
    10 -0.026257 0.000000 1.400207 0.000000 -0.186690 0.000000
    11 -0.023174 0.000001 1.707046 0.000000 0.000000 0.000000
    12 -0.043764 0.000000 1.936484 0.000000 -0.117869 0.000000
    13 -0.159953 0.000001 2.091296 0.000000 -0.081107 0.000000
    14 -5.737540 -2.969197 -6.226753 -1.237292 -1.687326 0.177561
    15 -0.085749 -0.255579 -8.907138 1.612055 0.412066 -1.485401
    16 0.096946 -8.450419 -0.009364 -0.055973 0.031798 0.497161
    17 -0.591284 -1.257741 0.232708 -0.332619 -0.727338 -2.455737
    18 1.522835 0.058680 0.016851 0.000916 -0.604842 1.084862
    19 1.117948 0.048424 -0.005765 -0.017752 -0.017886 0.837603
    20 -0.963867 -2.785143 -0.085346 -0.440241 0.199105 -0.035589
    21 0.028478 -1.403067 0.006271 -1.982635 0.000000 0.000000
    22 0.021414 -0.957782 0.020047 -0.828378 0.000000 0.000000
    23 -0.249534 -2.846964 -0.174215 -0.582568 0.189339 0.156524
    24 0.043234 -1.683941 0.096014 -2.290566 0.002823 -0.000167
    25 0.031729 -1.160830 0.058836 -0.397437 0.000642 0.008372
    26 0.447952 -2.798983 -0.200441 -1.000615 0.126731 0.357302
    27 -0.032910 -1.480208 0.004936 -2.042292 0.000000 0.000002
    28 -0.027022 -1.076920 -0.020212 -0.781662 0.000000 0.000000
    29 1.164475 -2.543939 -0.170327 -1.029806 -0.013294 0.477914
    30 0.024033 -1.129040 0.017806 -1.505504 0.000000 0.000000
    31 0.014896 -0.883991 -0.019845 -0.844587 0.000000 0.000000
    32 0.012949 0.028930 -0.024667 0.273657 0.065994 1.247189
    33 0.583509 -1.197273 0.185379 -0.186067 -0.292868 -0.073208
    34 1.535925 0.010247 0.005009 0.002286 -0.013111 -0.396295
    35 1.100770 0.004527 -0.010675 0.000992 0.016177 0.238445
    36 0.957766 -2.746777 -0.090301 -0.065910 0.226036 0.255712
    37 -0.033419 -1.397129 -0.011256 -1.320160 0.000000 -0.000001
    38 -0.022362 -0.957434 0.018782 -1.212891 0.000000 0.000000
    39 0.250028 -2.820664 -0.238397 -0.351554 0.323527 0.088427
    40 -0.049759 -1.680546 0.100479 -1.768838 0.000000 -0.000002
    41 -0.034141 -1.148309 0.084778 -1.256851 0.000000 0.000000
    42 -0.488517 -2.755600 -0.228262 -0.026880 0.205465 0.134464
    43 0.039889 -1.479791 0.029853 -1.802101 0.000000 0.000001
    44 0.028786 -1.075733 -0.023111 -0.828849 0.000000 0.000000
    45 -1.180679 -2.507216 -0.193861 0.389766 0.205059 0.256395
    46 -0.024966 -1.123935 0.017594 -1.277148 0.000000 0.000001
    47 -0.020058 -0.890966 0.010091 -1.347617 0.000000 0.000000
    48 0.120152 -0.050267 -0.054488 0.287569 3.110905 1.561085
  time 21
    0 10.325613 6.965742 -6.482952 -0.329401 -2.083094 0.057396
    1 -0.071918 -8.498734 -0.104135 -0.162361 0.676813 -0.193303
    2 0.905662 -2.864319 0.551975 1.139257 1.326962 1.104567
    3 -0.000001 -12.629979 7.375443 -0.467747 0.000000 0.000000
    4 0.000002 -6.940917 -4.748858 0.000000 3.141592 0.000000
    5 -0.000002 14.232141 1.630652 -0.926992 0.000000 0.000000
    6 -3.961862 10.013004 -7.304515 1.570797 0.000000 0.000001
    7 -0.001366 0.001477 3.589092 0.000000 0.000000 0.000000
    8 -3.772527 -8.158155 -1.854879 0.628104 -2.445420 -0.435841
    9 0.062478 0.000000 1.425783 0.000000 -0.354719 0.000000
    10 -0.026257 0.000000 1.400207 0.000000 -0.186690 0.000000
    11 -0.023174 0.000001 1.707046 0.000000 0.000000 0.000000
    12 -0.043764 0.000000 1.936484 0.000000 -0.117869 0.000000
    13 -0.159953 0.000001 2.091296 0.000000 -0.081107 0.000000
    14 -5.616442 -2.969197 -6.226753 -1.190498 -1.715510 0.172857
    15 -0.085749 -0.255579 -8.907138 1.599388 0.309206 -1.484568
    16 0.096946 -8.450419 -0.009364 -0.066677 0.085308 0.436804
    17 -0.591284 -1.257741 0.232708 -0.332619 -0.727338 -2.455737
    18 1.522835 0.058680 0.016851 0.000916 -0.604842 1.084862
    19 1.117948 0.048424 -0.005765 -0.017752 -0.017886 0.837603
    20 -0.963867 -2.785143 -0.085346 -0.440241 0.199105 -0.035589
    21 0.028478 -1.403067 0.006271 -1.982635 0.000000 0.000000
    22 0.021414 -0.957782 0.020047 -0.828378 0.000000 0.000000
    23 -0.249534 -2.846964 -0.174215 -0.582568 0.189339 0.156524
    24 0.043234 -1.683941 0.096014 -2.290566 0.002823 -0.000167
    25 0.031729 -1.160830 0.058836 -0.397437 0.000642 0.008372
    26 0.447952 -2.798983 -0.200441 -1.000615 0.126731 0.357302
    27 -0.032910 -1.480208 0.004936 -2.042292 0.000000 0.000002
    28 -0.027022 -1.076920 -0.020212 -0.781662 0.000000 0.000000
    29 1.164475 -2.543939 -0.170327 -1.029806 -0.013294 0.477914
    30 0.024033 -1.129040 0.017806 -1.505504 0.000000 0.000000
    31 0.014896 -0.883991 -0.019845 -0.844587 0.000000 0.000000
    32 0.012949 0.028930 -0.024667 0.273657 0.065994 1.247189
    33 0.583509 -1.197273 0.185379 -0.186067 -0.292868 -0.073208
    34 1.535925 0.010247 0.005009 0.002286 -0.013111 -0.396295
    35 1.100770 0.004527 -0.010675 0.000992 0.016177 0.238445
    36 0.957766 -2.746777 -0.090301 -0.065910 0.226036 0.255712
    37 -0.033419 -1.397129 -0.011256 -1.320160 0.000000 -0.000001
    38 -0.022362 -0.957434 0.018782 -1.212891 0.000000 0.000000
    39 0.250028 -2.820664 -0.238397 -0.351554 0.323527 0.088427
    40 -0.049759 -1.680546 0.100479 -1.768838 0.000000 -0.000002
    41 -0.034141 -1.148309 0.084778 -1.256851 0.000000 0.000000
    42 -0.488517 -2.755600 -0.228262 -0.026880 0.205465 0.134464
    43 0.039889 -1.479791 0.029853 -1.802101 0.000000 0.000001
    44 0.028786 -1.075733 -0.023111 -0.828849 0.000000 0.000000
    45 -1.180679 -2.507216 -0.193861 0.389766 0.205059 0.256395
    46 -0.024966 -1.123935 0.017594 -1.277148 0.000000 0.000001
    47 -0.020058 -0.890966 0.010091 -1.347617 0.000000 0.000000
    48 0.120152 -0.050267 -0.054488 0.287569 3.110905 1.561085
  time 22
    0 10.325613 7.293877 -6.482952 -0.329401 -2.083094 0.057396
    1 -0.071918 -8.498734 -0.104135 -0.156339 0.644757 -0.203585
    2 0.905662 -2.864319 0.551975 1.139257 1.326962 1.104567
    3 -0.000001 -12.629979 7.375443 -0.467747 0.000000 0.000000
    4 0.000002 -7.050295 -4.748858 0.000000 0.000000 0.000000
    5 -0.000002 14.232141 1.630652 -0.926992 0.000000 0.000000
    6 -3.961862 10.013004 -7.304515 1.570797 0.000000 0.000001
    7 -0.001366 0.001477 3.589092 0.000000 0.000000 0.000000
    8 -3.772527 -8.158155 -1.854879 0.628104 -2.445420 -0.435841
    9 0.062478 0.000000 1.425783 0.000000 -0.354719 0.000000
    10 -0.026257 0.000000 1.400207 0.000000 -0.186690 0.000000
    11 -0.023174 0.000001 1.707046 0.000000 0.000000 0.000000
    12 -0.043764 0.000000 1.936484 0.000000 -0.117869 0.000000
    13 -0.159953 0.000001 2.091296 0.000000 -0.081107 0.000000
    14 -5.776603 -2.969197 -6.226753 -1.128107 -1.666908 0.062433
    15 -0.085749 -0.255579 -8.907138 1.614653 0.433704 -1.485587
    16 0.096946 -8.450419 -0.009364 -0.063327 0.011323 0.518685
    17 -0.591284 -1.257741 0.232708 -0.332619 -0.727338 -2.455737
    18 1.522835 0.058680 0.016851 0.000916 -0.604842 1.084862
    19 1.117948 0.048424 -0.005765 -0.017752 -0.017886 0.837603
    20 -0.963867 -2.785143 -0.085346 -0.440241 0.199105 -0.035589
    21 0.028478 -1.403067 0.006271 -1.982635 0.000000 0.000000
    22 0.021414 -0.957782 0.020047 -0.828378 0.000000 0.000000
    23 -0.249534 -2.846964 -0.174215 -0.582568 0.189339 0.156524
    24 0.043234 -1.683941 0.096014 -2.290566 0.002823 -0.000167
    25 0.031729 -1.160830 0.058836 -0.397437 0.000642 0.008372
    26 0.447952 -2.798983 -0.200441 -1.000615 0.126731 0.357302
    27 -0.032910 -1.480208 0.004936 -2.042292 0.000000 0.000002
    28 -0.027022 -1.076920 -0.020212 -0.781662 0.000000 0.000000
    29 1.164475 -2.543939 -0.170327 -1.029806 -0.013294 0.477914
    30 0.024033 -1.129040 0.017806 -1.505504 0.000000 0.000000
    31 0.014896 -0.883991 -0.019845 -0.844587 0.000000 0.000000
    32 0.012949 0.028930 -0.024667 0.273657 0.065994 1.247189
    33 0.583509 -1.197273 0.185379 -0.186067 -0.292868 -0.073208
    34 1.535925 0.010247 0.005009 0.002286 -0.013111 -0.396295
    35 1.100770 0.004527 -0.010675 0.000992 0.016177 0.238445
    36 0.957766 -2.746777 -0.090301 -0.065910 0.226036 0.255712
    37 -0.033419 -1.397129 -0.011256 -1.320160 0.000000 -0.000001
    38 -0.022362 -0.957434 0.018782 -1.212891 0.000000 0.000000
    39 0.250028 -2.820664 -0.238397 -0.351554 0.323527 0.088427
    40 -0.049759 -1.680546 0.100479 -1.768838 0.000000 -0.000002
    41 -0.034141 -1.148309 0.084778 -1.256851 0.000000 0.000000
    42 -0.488517 -2.755600 -0.228262 -0.026880 0.205465 0.134464
    43 0.039889 -1.479791 0.029853 -1.802101 0.000000 0.000001
    44 0.028786 -1.075733 -0.023111 -0.828849 0.000000 0.000000
    45 -1.180679 -2.507216 -0.193861 0.389766 0.205059 0.256395
    46 -0.024966 -1.123935 0.017594 -1.277148 0.000000 0.000001
    47 -0.020058 -0.890966 0.010091 -1.347617 0.000000 0.000000
    48 0.120152 -0.050267 -0.054488 0.287569 3.110905 1.561085
  time 23
    0 10.325613 7.110278 -6.482952 -0.329401 -2.083094 0.057396
    1 -0.071918 -8.498734 -0.104135 -0.168822 0.674822 -0.194503
    2 0.905662 -2.864319 0.551975 1.139257 1.326962 1.104567
    3 -0.000001 -12.629979 7.375443 -0.467747 0.000000 0.000000
    4 0.000002 -6.800288 -4.748858 0.000000 -3.141496 0.000000
    5 -0.000002 14.232141 1.630652 -0.926992 0.000000 0.000000
    6 -3.961862 10.013004 -7.304515 1.570797 0.000000 0.000001
    7 -0.001366 0.001477 3.589092 0.000000 0.000000 0.000000
    8 -3.772527 -8.158155 -1.854879 0.628104 -2.445420 -0.435841
    9 0.062478 0.000000 1.425783 0.000000 -0.354719 0.000000
    10 -0.026257 0.000000 1.400207 0.000000 -0.186690 0.000000
    11 -0.023174 0.000001 1.707046 0.000000 0.000000 0.000000
    12 -0.043764 0.000000 1.936484 0.000000 -0.117869 0.000000
    13 -0.159953 0.000001 2.091296 0.000000 -0.081107 0.000000
    14 -5.737540 -2.969197 -6.226753 -1.135859 -1.694069 0.090575
    15 -0.085749 -0.255579 -8.907138 1.608076 0.379446 -1.485124
    16 0.096946 -8.450419 -0.009364 -0.075842 0.068184 0.490990
    17 -0.591284 -1.257741 0.232708 -0.332619 -0.727338 -2.455737
    18 1.522835 0.058680 0.016851 0.000916 -0.604842 1.084862
    19 1.117948 0.048424 -0.005765 -0.017752 -0.017886 0.837603
    20 -0.963867 -2.785143 -0.085346 -0.440241 0.199105 -0.035589
    21 0.028478 -1.403067 0.006271 -1.982635 0.000000 0.000000
    22 0.021414 -0.957782 0.020047 -0.828378 0.000000 0.000000
    23 -0.249534 -2.846964 -0.174215 -0.582568 0.189339 0.156524
    24 0.043234 -1.683941 0.096014 -2.290566 0.002823 -0.000167
    25 0.031729 -1.160830 0.058836 -0.397437 0.000642 0.008372
    26 0.447952 -2.798983 -0.200441 -1.000615 0.126731 0.357302
    27 -0.032910 -1.480208 0.004936 -2.042292 0.000000 0.000002
    28 -0.027022 -1.076920 -0.020212 -0.781662 0.000000 0.000000
    29 1.164475 -2.543939 -0.170327 -1.029806 -0.013294 0.477914
    30 0.024033 -1.129040 0.017806 -1.505504 0.000000 0.000000
    31 0.014896 -0.883991 -0.019845 -0.844587 0.000000 0.000000
    32 0.012949 0.028930 -0.024667 0.273657 0.065994 1.247189
    33 0.583509 -1.197273 0.185379 -0.186067 -0.292868 -0.073208
    34 1.535925 0.010247 0.005009 0.002286 -0.013111 -0.396295
    35 1.100770 0.004527 -0.010675 0.000992 0.016177 0.238445
    36 0.957766 -2.746777 -0.090301 -0.065910 0.226036 0.255712
    37 -0.033419 -1.397129 -0.011256 -1.320160 0.000000 -0.000001
    38 -0.022362 -0.957434 0.018782 -1.212891 0.000000 0.000000
    39 0.250028 -2.820664 -0.238397 -0.351554 0.323527 0.088427
    40 -0.049759 -1.680546 0.100479 -1.768838 0.000000 -0.000002
    41 -0.034141 -1.148309 0.084778 -1.256851 0.000000 0.000000
    42 -0.488517 -2.755600 -0.228262 -0.026880 0.205465 0.134464
    43 0.039889 -1.479791 0.029853 -1.802101 0.000000 0.000001
    44 0.028786 -1.075733 -0.023111 -0.828849 0.000000 0.000000
    45 -1.180679 -2.507216 -0.193861 0.389766 0.205059 0.256395
    46 -0.024966 -1.123935 0.017594 -1.277148 0.000000 0.000001
    47 -0.020058 -0.890966 0.010091 -1.347617 0.000000 0.000000
    48 0.120152 -0.050267 -0.054488 0.287569 3.110905 1.561085
  time 24
    0 10.325613 6.965742 -6.482952 -0.329401 -2.083094 0.057396
    1 -0.071918 -8.498734 -0.104135 -0.156339 0.644757 -0.203585
    2 0.905662 -2.864319 0.551975 1.139257 1.326962 1.104567
    3 -0.000001 -12.629979 7.375443 -0.467747 0.000000 0.000000
    4 0.000002 -6.940917 -4.748858 0.000000 0.000000 0.000000
    5 -0.000002 14.232141 1.630652 -0.926992 0.000000 0.000000
    6 -3.961862 10.013004 -7.304515 1.570797 0.000000 0.000001
    7 -0.001366 0.001477 3.589092 0.000000 0.000000 0.000000
    8 -3.772527 -8.158155 -1.854879 0.628104 -2.445420 -0.435841
    9 0.062478 0.000000 1.425783 0.000000 -0.354719 0.000000
    10 -0.026257 0.000000 1.400207 0.000000 -0.186690 0.000000
    11 -0.023174 0.000001 1.707046 0.000000 0.000000 0.000000
    12 -0.043764 0.000000 1.936484 0.000000 -0.117869 0.000000
    13 -0.159953 0.000001 2.091296 0.000000 -0.081107 0.000000
    14 -5.616442 -2.969197 -6.226753 -1.287016 -1.709726 0.244162
    15 -0.085749 -0.255579 -8.907138 1.604341 0.349448 -1.484846
    16 0.096946 -8.450419 -0.009364 -0.048072 0.050554 0.455167
    17 -0.591284 -1.257741 0.232708 -0.332619 -0.727338 -2.455737
    18 1.522835 0.058680 0.016851 0.000916 -0.604842 1.084862
    19 1.117948 0.048424 -0.005765 -0.017752 -0.017886 0.837603
    20 -0.963867 -2.785143 -0.085346 -0.440241 0.199105 -0.035589
    21 0.028478 -1.403067 0.006271 -1.982635 0.000000 0.000000
    22 0.021414 -0.957782 0.020047 -0.828378 0.000000 0.000000
    23 -0.249534 -2.846964 -0.174215 -0.582568 0.189339 0.156524
    24 0.043234 -1.683941 0.096014 -2.290566 0.002823 -0.000167
    25 0.031729 -1.160830 0.058836 -0.397437 0.000642 0.008372
    26 0.447952 -2.798983 -0.200441 -1.000615 0.126731 0.357302
    27 -0.032910 -1.480208 0.004936 -2.042292 0.000000 0.000002
    28 -0.027022 -1.076920 -0.020212 -0.781662 0.000000 0.000000
    29 1.164475 -2.543939 -0.170327 -1.029806 -0.013294 0.477914
    30 0.024033 -1.129040 0.017806 -1.505504 0.000000 0.000000
    31 0.014896 -0.883991 -0.019845 -0.844587 0.000000 0.000000
    32 0.012949 0.028930 -0.024667 0.273657 0.065994 1.247189
    33 0.583509 -1.197273 0.185379 -0.186067 -0.292868 -0.073208
    34 1.535925 0.010247 0.005009 0.002286 -0.013111 -0.396295
    35 1.100770 0.004527 -0.010675 0.000992 0.016177 0.238445
    36 0.957766 -2.746777 -0.090301 -0.065910 0.226036 0.255712
    37 -0.033419 -1.397129 -0.011256 -1.320160 0.000000 -0.000001
    38 -0.022362 -0.957434 0.018782 -1.212891 0.000000 0.000000
    39 0.250028 -2.820664 -0.238397 -0.351554 0.323527 0.088427
    40 -0.049759 -1.680546 0.100479 -1.768838 0.000000 -0.000002
    41 -0.034141 -1.148309 0.084778 -1.256851 0.000000 0.000000
    42 -0.488517 -2.755600 -0.228262 -0.026880 0.205465 0.134464
    43 0.039889 -1.479791 0.029853 -1.802101 0.000000 0.000001
    44 0.028786 -1.075733 -0.023111 -0.828849 0.000000 0.000000
    45 -1.180679 -2.507216 -0.193861 0.389766 0.205059 0.256395
    46 -0.024966 -1.123935 0.017594 -1.277148 0.000000 0.000001
    47 -0.020058 -0.890966 0.010091 -1.347617 0.000000 0.000000
    48 0.120152 -0.050267 -0.054488 0.287569 3.110905 1.561085
  time 25
    0 10.325613 7.407162 -6.482952 -0.329401 -2.083094 0.057396
    1 -0.071918 -8.498734 -0.104135 -0.168822 0.674822 -0.194503
    2 0.905662 -2.864319 0.551975 1.139257 1.326962 1.104567
    3 -0.000001 -12.629979 7.375443 -0.467747 0.000000 0.000000
    4 0.000002 -7.050295 -4.748858 0.000000 -3.141496 0.000000
    5 -0.000002 14.232141 1.630652 -0.926992 0.000000 0.000000
    6 -3.961862 10.013004 -7.304515 1.570797 0.000000 0.000001
    7 -0.001366 0.001477 3.589092 0.000000 0.000000 0.000000
    8 -3.772527 -8.158155 -1.854879 0.628104 -2.445420 -0.435841
    9 0.062478 0.000000 1.425783 0.000000 -0.354719 0.000000
    10 -0.026257 0.000000 1.400207 0.000000 -0.186690 0.000000
    11 -0.023174 0.000001 1.707046 0.000000 0.000000 0.000000
    12 -0.043764 0.000000 1.936484 0.000000 -0.117869 0.000000
    13 -0.159953 0.000001 2.091296 0.000000 -0.081107 0.000000
    14 -5.776603 -2.969197 -6.226753 -1.061273 -1.673490 -0.021252
    15 -0.085749 -0.255579 -8.907138 1.620336 0.480995 -1.485957
    16 0.096946 -8.450419 -0.009364 -0.085576 0.052948 0.551385
    17 -0.591284 -1.257741 0.232708 -0.332619 -0.727338 -2.455737
    18 1.522835 0.058680 0.016851 0.000916 -0.604842 1.084862
    19 1.117948 0.048424 -0.005765 -0.017752 -0.017886 0.837603
    20 -0.963867 -2.785143 -0.085346 -0.440241 0.199105 -0.035589
    21 0.028478 -1.403067 0.006271 -1.982635 0.000000 0.000000
    22 0.021414 -0.957782 0.020047 -0.828378 0.000000 0.000000
    23 -0.249534 -2.846964 -0.174215 -0.582568 0.189339 0.156524
    24 0.043234 -1.683941 0.096014 -2.290566 0.002823 -0.000167
    25 0.031729 -1.160830 0.058836 -0.397437 0.000642 0.008372
    26 0.447952 -2.798983 -0.200441 -1.000615 0.126731 0.357302
    27 -0.032910 -1.480208 0.004936 -2.042292 0.000000 0.000002
    28 -0.027022 -1.076920 -0.020212 -0.781662 0.000000 0.000000
    29 1.164475 -2.543939 -0.170327 -1.029806 -0.013294 0.477914
    30 0.024033 -1.129040 0.017806 -1.505504 0.000000 0.000000
    31 0.014896 -0.883991 -0.019845 -0.844587 0.000000 0.000000
    32 0.012949 0.028930 -0.024667 0.273657 0.065994 1.247189
    33 0.583509 -1.197273 0.185379 -0.186067 -0.292868 -0.073208
    34 1.535925 0.010247 0.005009 0.002286 -0.013111 -0.396295
    35 1.100770 0.004527 -0.010675 0.000992 0.016177 0.238445
    36 0.957766 -2.746777 -0.090301 -0.065910 0.226036 0.255712
    37 -0.033419 -1.397129 -0.011256 -1.320160 0.000000 -0.000001
    38 -0.022362 -0.957434 0.018782 -1.212891 0.000000 0.000000
    39 0.250028 -2.820664 -0.238397 -0.351554 0.323527 0.088427
    40 -0.049759 -1.680546 0.100479 -1.768838 0.000000 -0.000002
    41 -0.034141 -1.148309 0.084778 -1.256851 0.000000 0.000000
    42 -0.488517 -2.755600 -0.228262 -0.026880 0.205465 0.134464
    43 0.039889 -1.479791 0.029853 -1.802101 0.000000 0.000001
    44 0.028786 -1.075733 -0.023111 -0.828849 0.000000 0.000000
    45 -1.180679 -2.507216 -0.193861 0.389766 0.205059 0.256395
    46 -0.024966 -1.123935 0.017594 -1.277148 0.000000 0.000001
    47 -0.020058 -0.890966 0.010091 -1.347617 0.000000 0.000000
    48 0.120152 -0.050267 -0.054488 0.287569 3.110905 1.561085
  time 26
    0 10.325613 7.204031 -6.482952 -0.329401 -2.083094 0.057396
    1 -0.071918 -8.498734 -0.104135 -0.156339 0.644757 -0.203585
    2 0.905662 -2.864319 0.551975 1.139257 1.326962 1.104567
    3 -0.000001 -12.629979 7.375443 -0.467747 0.000000 0.000000
    4 0.000002 -6.800288 -4.748858 0.000000 0.000000 0.000000
    5 -0.000002 14.232141 1.630652 -0.926992 0.000000 0.000000
    6 -3.961862 10.013004 -7.304515 1.570797 0.000000 0.000001
    7 -0.001366 0.001477 3.589092 0.000000 0.000000 0.000000
    8 -3.772527 -8.158155 -1.854879 0.628104 -2.445420 -0.435841
    9 0.062478 0.000000 1.425783 0.000000 -0.354719 0.000000
    10 -0.026257 0.000000 1.400207 0.000000 -0.186690 0.000000
    11 -0.023174 0.000001 1.707046 0.000000 0.000000 0.000000
    12 -0.043764 0.000000 1.936484 0.000000 -0.117869 0.000000
    13 -0.159953 0.000001 2.091296 0.000000 -0.081107 0.000000
    14 -5.737540 -2.969197 -6.226753 -1.237292 -1.687326 0.177561
    15 -0.085749 -0.255579 -8.907138 1.612055 0.412066 -1.485401
    16 0.096946 -8.450419 -0.009364 -0.055973 0.031798 0.497161
    17 -0.591284 -1.257741 0.232708 -0.332619 -0.727338 -2.455737
    18 1.522835 0.058680 0.016851 0.000916 -0.604842 1.084862
    19 1.117948 0.048424 -0.005765 -0.017752 -0.017886 0.837603
    20 -0.963867 -2.785143 -0.085346 -0.440241 0.199105 -0.035589
    21 0.028478 -1.403067 0.006271 -1.982635 0.000000 0.000000
    22 0.021414 -0.957782 0.020047 -0.828378 0.000000 0.000000
    23 -0.249534 -2.846964 -0.174215 -0.582568 0.189339 0.156524
    24 0.043234 -1.683941 0.096014 -2.290566 0.002823 -0.000167
    25 0.031729 -1.160830 0.058836 -0.397437 0.000642 0.008372
    26 0.447952 -2.798983 -0.200441 -1.000615 0.126731 0.357302
    27 -0.032910 -1.480208 0.004936 -2.042292 0.000000 0.000002
    28 -0.027022 -1.076920 -0.020212 -0.781662 0.000000 0.000000
    29 1.164475 -2.543939 -0.170327 -1.029806 -0.013294 0.477914
    30 0.024033 -1.129040 0.017806 -1.505504 0.000000 0.000000
    31 0.014896 -0.883991 -0.019845 -0.844587 0.000000 0.000000
    32 0.012949 0.028930 -0.024667 0.273657 0.065994 1.247189
    33 0.583509 -1.197273 0.185379 -0.186067 -0.292868 -0.073208
    34 1.535925 0.010247 0.005009 0.002286 -0.013111 -0.396295
    35 1.100770 0.004527 -0.010675 0.000992 0.016177 0.238445
    36 0.957766 -2.746777 -0.090301 -0.065910 0.226036 0.255712
    37 -0.033419 -1.397129 -0.011256 -1.320160 0.000000 -0.000001
    38 -0.022362 -0.957434 0.018782 -1.212891 0.000000 0.000000
    39 0.250028 -2.820664 -0.238397 -0.351554 0.323527 0.088427
    40 -0.049759 -1.680546 0.100479 -1.768838 0.000000 -0.000002
    41 -0.034141 -1.148309 0.084778 -1.256851 0.000000 0.000000
    42 -0.488517 -2.755600 -0.228262 -0.026880 0.205465 0.134464
    43 0.039889 -1.479791 0.029853 -1.802101 0.000000 0.000001
    44 0.028786 -1.075733 -0.023111 -0.828849 0.000000 0.000000
    45 -1.180679 -2.507216 -0.193861 0.389766 0.205059 0.256395
    46 -0.024966 -1.123935 0.017594 -1.277148 0.000000 0.000001
    47 -0.020058 -0.890966 0.010091 -1.347617 0.000000 0.000000
    48 0.120152 -0.050267 -0.054488 0.287569 3.110905 1.561085
  time 27
    0 10.325613 6.965742 -6.482952 -0.329401 -2.083094 0.057396
    1 -0.071918 -8.498734 -0.104135 -0.162361 0.676813 -0.193303
    2 0.905662 -2.864319 0.551975 1.139257 1.326962 1.104567
    3 -0.000001 -12.629979 7.375443 -0.467747 0.000000 0.000000
    4 0.000002 -6.940917 -4.748858 0.000000 -3.141496 0.000000
    5 -0.000002 14.232141 1.630652 -0.926992 0.000000 0.000000
    6 -3.961862 10.013004 -7.304515 1.570797 0.000000 0.000001
    7 -0.001366 0.001477 3.589092 0.000000 0.000000 0.000000
    8 -3.772527 -8.158155 -1.854879 0.628104 -2.445420 -0.435841
    9 0.062478 0.000000 1.425783 0.000000 -0.354719 0.000000
    10 -0.026257 0.000000 1.400207 0.000000 -0.186690 0.000000
    11 -0.023174 0.000001 1.707046 0.000000 0.000000 0.000000
    12 -0.043764 0.000000 1.936484 0.000000 -0.117869 0.000000
    13 -0.159953 0.000001 2.091296 0.000000 -0.081107 0.000000
    14 -5.616442 -2.969197 -6.226753 -1.190498 -1.715510 0.172857
    15 -0.085749 -0.255579 -8.907138 1.599388 0.309206 -1.484568
    16 0.096946 -8.450419 -0.009364 -0.066677 0.085308 0.436804
    17 -0.591284 -1.257741 0.232708 -0.332619 -0.727338 -2.455737
    18 1.522835 0.058680 0.016851 0.000916 -0.604842 1.084862
    19 1.117948 0.048424 -0.005765 -0.017752 -0.017886 0.837603
    20 -0.963867 -2.785143 -0.085346 -0.440241 0.199105 -0.035589
    21 0.028478 -1.403067 0.006271 -1.982635 0.000000 0.000000
    22 0.021414 -0.957782 0.020047 -0.828378 0.000000 0.000000
    23 -0.249534 -2.846964 -0.174215 -0.582568 0.189339 0.156524
    24 0.043234 -1.683941 0.096014 -2.290566 0.002823 -0.000167
    25 0.031729 -1.160830 0.058836 -0.397437 0.000642 0.008372
    26 0.447952 -2.798983 -0.200441 -1.000615 0.126731 0.357302
    27 -0.032910 -1.480208 0.004936 -2.042292 0.000000 0.000002
    28 -0.027022 -1.076920 -0.020212 -0.781662 0.000000 0.000000
    29 1.164475 -2.543939 -0.170327 -1.029806 -0.013294 0.477914
    30 0.024033 -1.129040 0.017806 -1.505504 0.000000 0.000000
    31 0.014896 -0.883991 -0.019845 -0.844587 0.000000 0.000000
    32 0.012949 0.028930 -0.024667 0.273657 0.065994 1.247189
    33 0.583509 -1.197273 0.185379 -0.186067 -0.292868 -0.073208
    34 1.535925 0.010247 0.005009 0.002286 -0.013111 -0.396295
    35 1.100770 0.004527 -0.010675 0.000992 0.016177 0.238445
    36 0.957766 -2.746777 -0.090301 -0.065910 0.226036 0.255712
    37 -0.033419 -1.397129 -0.011256 -1.320160 0.000000 -0.000001
    38 -0.022362 -0.957434 0.018782 -1.212891 0.000000 0.000000
    39 0.250028 -2.820664 -0.238397 -0.351554 0.323527 0.088427
    40 -0.049759 -1.680546 0.100479 -1.768838 0.000000 -0.000002
    41 -0.034141 -1.148309 0.084778 -1.256851 0.000000 0.000000
    42 -0.488517 -2.755600 -0.228262 -0.026880 0.205465 0.134464
    43 0.039889 -1.479791 0.029853 -1.802101 0.000000 0.000001
    44 0.028786 -1.075733 -0.023111 -0.828849 0.000000 0.000000
    45 -1.180679 -2.507216 -0.193861 0.389766 0.205059 0.256395
    46 -0.024966 -1.123935 0.017594 -1.277148 0.000000 0.000001
    47 -0.020058 -0.890966 0.010091 -1.347617 0.000000 0.000000
    48 0.120152 -0.050267 -0.054488 0.287569 3.110905 1.561085
  time 28
    0 10.325613 7.293877 -6.482952 -0.329401 -2.083094 0.057396
    1 -0.071918 -8.498734 -0.104135 -0.156339 0.644757 -0.203585
    2 0.905662 -2.864319 0.551975 1.139257 1.326962 1.104567
    3 -0.000001 -12.629979 7.375443 -0.467747 0.000000 0.000000
    4 0.000002 -7.050295 -4.748858 0.000000 0.000000 0.000000
    5 -0.000002 14.232141 1.630652 -0.926992 0.000000 0.000000
    6 -3.961862 10.013004 -7.304515 1.570797 0.000000 0.000001
    7 -0.001366 0.001477 3.589092 0.000000 0.000000 0.000000
    8 -3.772527 -8.158155 -1.854879 0.628104 -2.445420 -0.435841
    9 0.062478 0.000000 1.425783 0.000000 -0.354719 0.000000
    10 -0.026257 0.000000 1.400207 0.000000 -0.186690 0.000000
    11 -0.023174 0.000001 1.707046 0.000000 0.000000 0.000000
    12 -0.043764 0.000000 1.936484 0.000000 -0.117869 0.000000
    13 -0.159953 0.000001 2.091296 0.000000 -0.081107 0.000000
    14 -5.776603 -2.969197 -6.226753 -1.128107 -1.666908 0.062433
    15 -0.085749 -0.255579 -8.907138 1.614653 0.433704 -1.485587
    16 0.096946 -8.450419 -0.009364 -0.063327 0.011323 0.518685
    17 -0.591284 -1.257741 0.232708 -0.332619 -0.727338 -2.455737
    18 1.522835 0.058680 0.016851 0.000916 -0.604842 1.084862
    19 1.117948 0.048424 -0.005765 -0.017752 -0.017886 0.837603
    20 -0.963867 -2.785143 -0.085346 -0.440241 0.199105 -0.035589
    21 0.028478 -1.403067 0.006271 -1.982635 0.000000 0.000000
    22 0.021414 -0.957782 0.020047 -0.828378 0.000000 0.000000
    23 -0.249534 -2.846964 -0.174215 -0.582568 0.189339 0.156524
    24 0.043234 -1.683941 0.096014 -2.290566 0.002823 -0.000167
    25 0.031729 -1.160830 0.058836 -0.397437 0.000642 0.008372
    26 0.447952 -2.798983 -0.200441 -1.000615 0.126731 0.357302
    27 -0.032910 -1.480208 0.004936 -2.042292 0.000000 0.000002
    28 -0.027022 -1.076920 -0.020212 -0.781662 0.000000 0.000000
    29 1.164475 -2.543939 -0.170327 -1.029806 -0.013294 0.477914
    30 0.024033 -1.129040 0.017806 -1.505504 0.000000 0.000000
    31 0.014896 -0.883991 -0.019845 -0.844587 0.000000 0.000000
    32 0.012949 0.028930 -0.024667 0.273657 0.065994 1.247189
    33 0.583509 -1.197273 0.185379 -0.186067 -0.292868 -0.073208
    34 1.535925 0.010247 0.005009 0.002286 -0.013111 -0.396295
    35 1.100770 0.004527 -0.010675 0.000992 0.016177 0.238445
    36 0.957766 -2.746777 -0.090301 -0.065910 0.226036 0.255712
    37 -0.033419 -1.397129 -0.011256 -1.320160 0.000000 -0.000001
    38 -0.022362 -0.957434 0.018782 -1.212891 0.000000 0.000000
    39 0.250028 -2.820664 -0.238397 -0.351554 0.323527 0.088427
    40 -0.049759 -1.680546 0.100479 -1.768838 0.000000 -0.000002
    41 -0.034141 -1.148309 0.084778 -1.256851 0.000000 0.000000
    42 -0.488517 -2.755600 -0.228262 -0.026880 0.205465 0.134464
    43 0.039889 -1.479791 0.029853 -1.802101 0.000000 0.000001
    44 0.028786 -1.075733 -0.023111 -0.828849 0.000000 0.000000
    45 -1.180679 -2.507216 -0.193861 0.389766 0.205059 0.256395
    46 -0.024966 -1.123935 0.017594 -1.277148 0.000000 0.000001
    47 -0.020058 -0.890966 0.010091 -1.347617 0.000000 0.000000
    48 0.120152 -0.050267 -0.054488 0.287569 3.110905 1.561085
  time 29
    0 10.325613 7.184499 -6.482952 -0.329401 -2.083094 0.057396
    1 -0.071918 -8.498734 -0.104135 -0.168822 0.674822 -0.194503
    2 0.905662 -2.864319 0.551975 1.139257 1.326962 1.104567
    3 -0.000001 -12.629979 7.375443 -0.467747 0.000000 0.000000
    4 0.000002 -6.800288 -4.748858 0.000000 -3.141496 0.000000
    5 -0.000002 14.232141 1.630652 -0.926992 0.000000 0.000000
    6 -3.961862 10.013004 -7.304515 1.570797 0.000000 0.000001
    7 -0.001366 0.001477 3.589092 0.000000 0.000000 0.000000
    8 -3.772527 -8.158155 -1.854879 0.628104 -2.445420 -0.435841
    9 0.062478 0.000000 1.425783 0.000000 -0.354719 0.000000
    10 -0.026257 0.000000 1.400207 0.000000 -0.186690 0.000000
    11 -0.023174 0.000001 1.707046 0.000000 0.000000 0.000000
    12 -0.043764 0.000000 1.936484 0.000000 -0.117869 0.000000
    13 -0.159953 0.000001 2.091296 0.000000 -0.081107 0.000000
    14 -5.737540 -2.969197 -6.226753 -1.024499 -1.674800 -0.033962
    15 -0.085749 -0.255579 -8.907138 1.611892 0.410427 -1.485401
    16 0.096946 -8.450419 -0.009364 -0.075842 0.068184 0.490990
    17 -0.591284 -1.257741 0.232708 -0.332619 -0.727338 -2.455737
    18 1.522835 0.058680 0.016851 0.000916 -0.604842 1.084862
    19 1.117948 0.048424 -0.005765 -0.017752 -0.017886 0.837603
    20 -0.963867 -2.785143 -0.085346 -0.440241 0.199105 -0.035589
    21 0.028478 -1.403067 0.006271 -1.982635 0.000000 0.000000
    22 0.021414 -0.957782 0.020047 -0.828378 0.000000 0.000000
    23 -0.249534 -2.846964 -0.174215 -0.582568 0.189339 0.156524
    24 0.043234 -1.683941 0.096014 -2.290566 0.002823 -0.000167
    25 0.031729 -1.160830 0.058836 -0.397437 0.000642 0.008372
    26 0.447952 -2.798983 -0.200441 -1.000615 0.126731 0.357302
    27 -0.032910 -1.480208 0.004936 -2.042292 0.000000 0.000002
    28 -0.027022 -1.076920 -0.020212 -0.781662 0.000000 0.000000
    29 1.164475 -2.543939 -0.170327 -1.029806 -0.013294 0.477914
    30 0.024033 -1.129040 0.017806 -1.505504 0.000000 0.000000
    31 0.014896 -0.883991 -0.019845 -0.844587 0.000000 0.000000
    32 0.012949 0.028930 -0.024667 0.273657 0.065994 1.247189
    33 0.583509 -1.197273 0.185379 -0.186067 -0.292868 -0.073208
    34 1.535925 0.010247 0.005009 0.002286 -0.013111 -0.396295
    35 1.100770 0.004527 -0.010675 0.000992 0.016177 0.238445
    36 0.957766 -2.746777 -0.090301 -0.065910 0.226036 0.255712
    37 -0.033419 -1.397129 -0.011256 -1.320160 0.000000 -0.000001
    38 -0.022362 -0.957434 0.018782 -1.212891 0.000000 0.000000
    39 0.250028 -2.820664 -0.238397 -0.351554 0.323527 0.088427
    40 -0.049759 -1.680546 0.100479 -1.768838 0.000000 -0.000002
    41 -0.034141 -1.148309 0.084778 -1.256851 0.000000 0.000000
    42 -0.488517 -2.755600 -0.228262 -0.026880 0.205465 0.134464
    43 0.039889 -1.479791 0.029853 -1.802101 0.000000 0.000001
    44 0.028786 -1.075733 -0.023111 -0.828849 0.000000 0.000000
    45 -1.180679 -2.507216 -0.193861 0.389766 0.205059 0.256395
    46 -0.024966 -1.123935 0.017594 -1.277148 0.000000 0.000001
    47 -0.020058 -0.890966 0.010091 -1.347617 0.000000 0.000000
    48 0.120152 -0.050267 -0.054488 0.287569 3.110905 1.561085
  time 30
    0 10.325613 6.965742 -6.482952 -0.329401 -2.083094 0.057396
    1 -0.071918 -8.498734 -0.104135 -0.156339 0.644757 -0.203585
    2 0.905662 -2.864319 0.551975 1.139257 1.326962 1.104567
    3 -0.000001 -12.629979 7.375443 -0.467747 0.000000 0.000000
    4 0.000002 -6.940917 -4.748858 0.000000 0.000000 0.000000
    5 -0.000002 14.232141 1.630652 -0.926992 0.000000 0.000000
    6 -3.961862 10.013004 -7.304515 1.570797 0.000000 0.000001
    7 -0.001366 0.001477 3.589092 0.000000 0.000000 0.000000
    8 -3.772527 -8.158155 -1.854879 0.628104 -2.445420 -0.435841
    9 0.062478 0.000000 1.425783 0.000000 -0.354719 0.000000
    10 -0.026257 0.000000 1.400207 0.000000 -0.186690 0.000000
    11 -0.023174 0.000001 1.707046 0.000000 0.000000 0.000000
    12 -0.043764 0.000000 1.936484 0.000000 -0.117869 0.000000
    13 -0.159953 0.000001 2.091296 0.000000 -0.081107 0.000000
    14 -5.616442 -2.969197 -6.226753 -1.287016 -1.709726 0.244162
    15 -0.085749 -0.255579 -8.907138 1.604341 0.349448 -1.484846
    16 0.096946 -8.450419 -0.009364 -0.048072 0.050554 0.455167
    17 -0.591284 -1.257741 0.232708 -0.332619 -0.727338 -2.455737
    18 1.522835 0.058680 0.016851 0.000916 -0.604842 1.084862
    19 1.117948 0.048424 -0.005765 -0.017752 -0.017886 0.837603
    20 -0.963867 -2.785143 -0.085346 -0.440241 0.199105 -0.035589
    21 0.028478 -1.403067 0.006271 -1.982635 0.000000 0.000000
    22 0.021414 -0.957782 0.020047 -0.828378 0.000000 0.000000
    23 -0.249534 -2.846964 -0.174215 -0.582568 0.189339 0.156524
    24 0.043234 -1.683941 0.096014 -2.290566 0.002823 -0.000167
    25 0.031729 -1.160830 0.058836 -0.397437 0.000642 0.008372
    26 0.447952 -2.798983 -0.200441 -1.000615 0.126731 0.357302
    27 -0.032910 -1.480208 0.004936 -2.042292 0.000000 0.000002
    28 -0.027022 -1.076920 -0.020212 -0.781662 0.000000 0.000000
    29 1.164475 -2.543939 -0.170327 -1.029806 -0.013294 0.477914
    30 0.024033 -1.129040 0.017806 -1.505504 0.000000 0.000000
    31 0.014896 -0.883991 -0.019845 -0.844587 0.000000 0.000000
    32 0.012949 0.028930 -0.024667 0.273657 0.065994 1.247189
    33 0.583509 -1.197273 0.185379 -0.186067 -0.292868 -0.073208
    34 1.535925 0.010247 0.005009 0.002286 -0.013111 -0.396295
    35 1.100770 0.004527 -0.010675 0.000992 0.016177 0.238445
    36 0.957766 -2.746777 -0.090301 -0.065910 0.226036 0.255712
    37 -0.033419 -1.397129 -0.011256 -1.320160 0.000000 -0.000001
    38 -0.022362 -0.957434 0.018782 -1.212891 0.000000 0.000000
    39 0.250028 -2.820664 -0.238397 -0.351554 0.323527 0.088427
    40 -0.049759 -1.680546 0.100479 -1.768838 0.000000 -0.000002
    41 -0.034141 -1.148309 0.084778 -1.256851 0.000000 0.000000
    42 -0.488517 -2.755600 -0.228262 -0.026880 0.205465 0.134464
    43 0.039889 -1.479791 0.029853 -1.802101 0.000000 0.000001
    44 0.028786 -1.075733 -0.023111 -0.828849 0.000000 0.000000
    45 -1.180679 -2.507216 -0.193861 0.389766 0.205059 0.256395
    46 -0.024966 -1.123935 0.017594 -1.277148 0.000000 0.000001
    47 -0.020058 -0.890966 0.010091 -1.347617 0.000000 0.000000
    48 0.120152 -0.050267 -0.054488 0.287569 3.110905 1.561085
end
