// Created by Crowbar 0.34.0.0

$ModelName "weapons/tfa_cso/w_janus11.mdl"

$BodyGroup "studio"
{
	studio "v_janus11_1"
}

$collisionmodel "v_janus11_1.smd"
{
	$mass 9
}

$CDMaterials "models\weapons\tfa_cso\janus11"

$attachment "0" "root" -0.10 -12.60 -1.70 rotate -0 0 0

$Sequence "idle" {
	"anims\idle.smd"
	fps 30
}