// Created by Crowbar 0.34.0.0

$ModelName "weapons/tfa_cso/w_windrider.mdl"

$BodyGroup "studio"
{
	studio "v_gunkatam_ref_right"
}

$collisionmodel "v_gunkatam_ref_right.smd"
{
	$mass 9
}

$CDMaterials "models\weapons\tfa_cso\windrider"

$attachment "0" "root" 0.00 -8.70 1.20 rotate -0 0 0
$attachment "1" "root" 16.00 -8.70 3.20 rotate -0 0 0
$attachment "2" "root" 16.00 -8.70 3.20 rotate -0 0 0
$attachment "3" "root" 16.00 -8.70 3.20 rotate -0 0 0
$attachment "4" "root" 16.00 -8.70 3.20 rotate -0 0 0
$attachment "5" "root" 16.00 -8.70 3.20 rotate -0 0 0

$Sequence "idle" {
	"anims\idle.smd"
	fps 30
}