version 1
nodes
  0 "lock_root" -1
  1 "magazine" 0
  2 "lock_scope01" 0
  3 "smokeR_root" -1
  4 "smokeL_root" -1
  5 "magicR" 0
  6 "magic_point001" 5
  7 "magic_bone001" 6
  8 "magic_bone002" 6
  9 "magic_bone003" 6
  10 "magic_bone004" 6
  11 "magic_point002" 5
  12 "magic_bone005" 11
  13 "magic_bone006" 11
  14 "magic_bone007" 11
  15 "magic_bone008" 11
  16 "magic_point003" 5
  17 "magic_bone009" 16
  18 "magic_bone010" 16
  19 "magic_bone011" 16
  20 "magic_bone012" 16
  21 "magicL" 0
  22 "magic_point004" 21
  23 "magic_bone013" 22
  24 "magic_bone014" 22
  25 "magic_bone015" 22
  26 "magic_bone016" 22
  27 "magic_point005" 21
  28 "magic_bone017" 27
  29 "magic_bone018" 27
  30 "magic_bone019" 27
  31 "magic_bone020" 27
  32 "magic_point006" 21
  33 "magic_bone021" 32
  34 "magic_bone022" 32
  35 "magic_bone023" 32
  36 "magic_bone024" 32
  37 "root" -1
  38 "Bone01" 37
  39 "Bone_L_Upper" 38
  40 "Bone_Lefthand" 38
  41 "Bone13" 40
  42 "Bone14" 41
  43 "Bone15" 42
  44 "Bone17" 40
  45 "Bone18" 44
  46 "Bone19" 45
  47 "Bone21" 40
  48 "Bone22" 47
  49 "Bone23" 48
  50 "Bone09" 40
  51 "Bone10" 50
  52 "Bone11" 51
  53 "Bone05" 40
  54 "Bone06" 53
  55 "Bone07" 54
  56 "Bone_Se_Hand-L" 40
  57 "Bone04" 37
  58 "Bone_Righthand" 57
  59 "Bone39" 58
  60 "Bone40" 59
  61 "Bone41" 60
  62 "Bone35" 58
  63 "Bone36" 62
  64 "Bone37" 63
  65 "Bone31" 58
  66 "Bone32" 65
  67 "Bone33" 66
  68 "Bone43" 58
  69 "Bone44" 68
  70 "Bone45" 69
  71 "Bone27" 58
  72 "Bone28" 71
  73 "Bone29" 72
  74 "Bone_Se_Hand-R" 58
  75 "Bone_R_Upper" 57
end
skeleton
  time 0
    0 4.631690 -10.581280 -5.135945 -0.000001 -0.000001 0.000001
    1 -0.009866 5.508934 0.331835 0.000000 1.570796 0.000000
    2 0.000002 3.046418 4.144344 -1.570798 -1.221731 -1.570795
    3 11.661550 -18.242617 -0.610043 1.570796 0.000000 0.000000
    4 -14.695475 -20.405123 -0.859386 1.570796 0.000000 0.000000
    5 -2.542575 30.124657 2.612532 1.570797 -0.000001 1.570796
    6 0.000000 0.000000 0.000000 3.141592 0.000000 1.570796
    7 2.000000 2.000000 0.000000 0.000000 -1.570796 0.000000
    8 2.000000 -2.000000 -0.000001 0.000000 -1.570796 0.000000
    9 -2.000000 -1.999998 0.000000 0.000000 -1.570796 0.000000
    10 -2.000000 2.000002 0.000000 0.000000 -1.570796 0.000000
    11 0.771729 0.632752 0.000000 3.141592 0.000000 1.570796
    12 2.000000 2.000000 0.000000 0.000000 -1.570796 0.000000
    13 2.000000 -2.000000 -0.000001 0.000000 -1.570796 0.000000
    14 -2.000000 -1.999998 0.000000 0.000000 -1.570796 0.000000
    15 -2.000000 2.000002 0.000000 0.000000 -1.570796 0.000000
    16 0.771729 -0.808472 0.000000 3.141592 0.000000 1.570796
    17 2.000000 1.999998 0.000000 0.000000 -1.570796 0.000000
    18 2.000000 -2.000002 -0.000001 0.000000 -1.570796 0.000000
    19 -2.000000 -2.000000 0.000000 0.000000 -1.570796 0.000000
    20 -2.000000 2.000000 0.000000 0.000000 -1.570796 0.000000
    21 2.542155 30.124657 2.612530 -1.570796 -3.141592 1.570796
    22 0.000000 0.000000 0.000000 3.141592 0.000000 1.570796
    23 2.000000 1.999998 0.000001 0.000000 -1.570796 0.000000
    24 2.000000 -2.000002 0.000000 0.000000 -1.570796 0.000000
    25 -2.000000 -2.000000 0.000000 0.000000 -1.570796 0.000000
    26 -2.000000 2.000000 0.000000 0.000000 -1.570796 0.000000
    27 -0.771727 0.632753 -0.000001 3.141592 0.000000 1.570796
    28 2.000000 2.000000 0.000001 0.000000 -1.570796 0.000000
    29 2.000000 -2.000000 0.000000 0.000000 -1.570796 0.000000
    30 -2.000000 -2.000000 0.000000 0.000000 -1.570796 0.000000
    31 -2.000000 2.000000 0.000000 0.000000 -1.570796 0.000000
    32 -0.771730 -0.808470 0.000000 3.141592 0.000000 1.570796
    33 2.000000 2.000000 0.000001 0.000000 -1.570796 0.000000
    34 2.000000 -2.000000 0.000000 0.000000 -1.570796 0.000000
    35 -2.000000 -2.000000 0.000000 0.000000 -1.570796 0.000000
    36 -2.000000 2.000000 0.000000 0.000000 -1.570796 0.000000
    37 0.001265 -0.569176 -20.601572 0.000000 0.000000 0.000000
    38 9.310103 -5.299614 -12.557959 3.138909 -0.000224 -1.566807
    39 1.257180 8.762585 -0.153713 -1.570562 0.002683 -1.566807
    40 -0.071921 -8.498736 -0.104134 -0.025046 0.287591 0.014898
    41 -0.488518 -2.755602 -0.228260 0.106454 0.010332 -0.264490
    42 0.039887 -1.479790 0.029854 -0.055395 0.000000 0.000001
    43 0.028786 -1.075731 -0.023109 0.002099 0.000000 0.000000
    44 0.250027 -2.820665 -0.238396 0.041826 -0.002921 0.008443
    45 -0.049759 -1.680544 0.100479 0.019826 0.000000 -0.000002
    46 -0.034142 -1.148312 0.084782 -0.040115 0.000000 0.000000
    47 0.957766 -2.746780 -0.090302 -0.017221 -0.162277 0.191558
    48 -0.033420 -1.397129 -0.011257 0.013931 0.000000 -0.000001
    49 -0.022360 -0.957436 0.018784 0.003845 0.000000 0.000000
    50 -1.180681 -2.507217 -0.193859 0.082999 0.013294 -0.477915
    51 -0.024967 -1.123934 0.017597 -0.018065 0.000000 0.000001
    52 -0.020057 -0.890968 0.010090 -0.060797 0.000000 0.000000
    53 0.583510 -1.197277 0.185379 0.158049 -0.404973 -0.364290
    54 1.535927 0.010246 0.005009 -0.002964 -0.012979 0.000887
    55 1.100771 0.004527 -0.010679 -0.002796 0.015973 0.003458
    56 0.120153 -0.050270 -0.054489 0.287569 3.110905 1.561085
    57 -9.310107 -5.231260 -12.513384 0.004984 -3.131565 -1.566847
    58 0.096944 -8.450418 -0.009365 -0.032965 -0.297907 -0.004663
    59 0.447953 -2.798986 -0.200443 0.106456 -0.010396 0.265094
    60 -0.032909 -1.480204 0.004940 -0.055403 0.000000 0.000002
    61 -0.027022 -1.076920 -0.020210 0.002094 0.000000 0.000000
    62 -0.249534 -2.846964 -0.174213 0.041903 -0.000125 -0.008396
    63 0.043235 -1.683941 0.096012 0.019757 0.002823 -0.000167
    64 0.031729 -1.160830 0.058838 -0.040181 0.000642 0.008372
    65 -0.963866 -2.785145 -0.085350 -0.017227 0.162276 -0.191556
    66 0.028479 -1.403067 0.006271 0.013941 0.000000 0.000000
    67 0.021413 -0.957781 0.020046 0.003851 0.000000 0.000000
    68 1.164475 -2.543940 -0.170330 0.083003 -0.013294 0.477915
    69 0.024032 -1.129042 0.017807 -0.018074 0.000000 0.000001
    70 0.014898 -0.883989 -0.019848 -0.060801 0.000000 0.000000
    71 -0.586770 -1.264477 0.200161 -0.152092 -0.410513 -2.814816
    72 1.522835 0.058681 0.016848 0.001410 0.008985 -0.046880
    73 1.117947 0.048424 -0.005766 -0.000243 -0.025198 0.065422
    74 -0.139399 -0.111698 0.014397 0.285382 -0.030687 1.580508
    75 -1.393470 8.839177 -0.239433 1.580804 -0.005023 -1.566847
end
triangles
$0b_y21s2lockongunmb_scope.bmp
  0 3.771683 -6.251278 -2.145950 -0.955074 -0.216039 0.202880 0.137255 0.537255
  0 3.691683 -6.201278 -2.445950 -0.955074 -0.216039 0.202880 0.117647 0.439216
  0 3.861683 -6.651277 -2.155950 -0.953378 -0.267260 0.140153 0.266667 0.537255
$0b_y21s2lockongunmb_scope.bmp
  0 3.861683 -6.651277 -2.155950 -0.953378 -0.267260 0.140153 0.266667 0.537255
  0 3.691683 -6.201278 -2.445950 -0.955074 -0.216039 0.202880 0.117647 0.439216
  0 3.861683 -6.731278 -2.325950 -0.943018 -0.284168 0.173105 0.290196 0.482353
$0b_y21s2lockongunmb_scope.bmp
  0 3.691683 -6.201278 -2.445950 -0.955074 -0.216039 0.202880 0.117647 0.439216
  0 3.691684 -6.461278 -2.735950 -0.937716 -0.242721 0.248546 0.200000 0.345098
  0 3.861683 -6.731278 -2.325950 -0.943018 -0.284168 0.173105 0.290196 0.482353
$0b_y21s2lockongunmb_scope.bmp
  0 3.861683 -6.731278 -2.325950 -0.943018 -0.284168 0.173105 0.290196 0.482353
  0 3.691684 -6.461278 -2.735950 -0.937716 -0.242721 0.248546 0.200000 0.345098
  0 3.861684 -6.881278 -2.505949 -0.921792 -0.289649 0.257688 0.333333 0.427451
$0b_y21s2lockongunmb_scope.bmp
  0 3.691684 -6.461278 -2.735950 -0.937716 -0.242721 0.248546 0.200000 0.345098
  0 3.701684 -6.751279 -2.955950 -0.929194 -0.222988 0.294746 0.290196 0.278431
  0 3.861684 -6.881278 -2.505949 -0.921792 -0.289649 0.257688 0.333333 0.427451
$0b_y21s2lockongunmb_scope.bmp
  0 3.861684 -6.881278 -2.505949 -0.921792 -0.289649 0.257688 0.333333 0.427451
  0 3.701684 -6.751279 -2.955950 -0.929194 -0.222988 0.294746 0.290196 0.278431
  0 3.861684 -7.051278 -2.665949 -0.906200 -0.271007 0.324586 0.388235 0.372549
$0b_y21s2lockongunmb_scope.bmp
  0 3.701684 -6.751279 -2.955950 -0.929194 -0.222988 0.294746 0.290196 0.278431
  0 3.711685 -7.131279 -3.125949 -0.914524 -0.178044 0.363244 0.407843 0.219608
  0 3.861684 -7.051278 -2.665949 -0.906200 -0.271007 0.324586 0.388235 0.372549
$0b_y21s2lockongunmb_scope.bmp
  0 3.861684 -7.051278 -2.665949 -0.906200 -0.271007 0.324586 0.388235 0.372549
  0 3.711685 -7.131279 -3.125949 -0.914524 -0.178044 0.363244 0.407843 0.219608
  0 3.871684 -7.301278 -2.835949 -0.887877 -0.217952 0.405182 0.466667 0.317647
$0b_y21s2lockongunmb_scope.bmp
  0 3.711685 -7.131279 -3.125949 -0.914524 -0.178044 0.363244 0.407843 0.219608
  0 3.731685 -7.521279 -3.225949 -0.901602 -0.099089 0.421064 0.533333 0.188235
  0 3.871684 -7.301278 -2.835949 -0.887877 -0.217952 0.405182 0.466667 0.317647
$0b_y21s2lockongunmb_scope.bmp
  0 3.871684 -7.301278 -2.835949 -0.887877 -0.217952 0.405182 0.466667 0.317647
  0 3.731685 -7.521279 -3.225949 -0.901602 -0.099089 0.421064 0.533333 0.188235
  0 3.871685 -7.601278 -2.935949 -0.877078 -0.112963 0.466876 0.560784 0.282353
$0b_y21s2lockongunmb_scope.bmp
  0 3.731685 -7.521279 -3.225949 -0.901602 -0.099089 0.421064 0.533333 0.188235
  0 3.751685 -7.951279 -3.225948 -0.884298 0.021633 0.466421 0.670588 0.188235
  0 3.871685 -7.601278 -2.935949 -0.877078 -0.112963 0.466876 0.560784 0.282353
$0b_y21s2lockongunmb_scope.bmp
  0 3.871685 -7.601278 -2.935949 -0.877078 -0.112963 0.466876 0.560784 0.282353
  0 3.751685 -7.951279 -3.225948 -0.884298 0.021633 0.466421 0.670588 0.188235
  0 3.881685 -7.931278 -2.975948 -0.884298 0.021633 0.466421 0.666667 0.274510
$0b_y21s2lockongunmb_scope.bmp
  0 3.751685 -7.951279 -3.225948 -0.884298 0.021633 0.466421 0.670588 0.188235
  0 3.761686 -8.311279 -3.105948 -0.866712 0.177798 0.466046 0.788235 0.227451
  0 3.881685 -7.931278 -2.975948 -0.884298 0.021633 0.466421 0.666667 0.274510
$0b_y21s2lockongunmb_scope.bmp
  0 3.881685 -7.931278 -2.975948 -0.884298 0.021633 0.466421 0.666667 0.274510
  0 3.761686 -8.311279 -3.105948 -0.866712 0.177798 0.466046 0.788235 0.227451
  0 3.881685 -8.251278 -2.915948 -0.893249 0.166406 0.417630 0.764706 0.294118
$0b_y21s2lockongunmb_scope.bmp
  0 3.761686 -8.311279 -3.105948 -0.866712 0.177798 0.466046 0.788235 0.227451
  0 3.771686 -8.581278 -2.925948 -0.858871 0.309513 0.408096 0.874510 0.286275
  0 3.881685 -8.251278 -2.915948 -0.893249 0.166406 0.417630 0.764706 0.294118
$0b_y21s2lockongunmb_scope.bmp
  0 3.881685 -8.251278 -2.915948 -0.893249 0.166406 0.417630 0.764706 0.294118
  0 3.771686 -8.581278 -2.925948 -0.858871 0.309513 0.408096 0.874510 0.286275
  0 3.891686 -8.471278 -2.765948 -0.909468 0.262181 0.322691 0.835294 0.341176
$0b_y21s2lockongunmb_scope.bmp
  0 3.771686 -8.581278 -2.925948 -0.858871 0.309513 0.408096 0.874510 0.286275
  0 3.781686 -8.811278 -2.685947 -0.858871 0.309513 0.408096 0.945098 0.364706
  0 3.891686 -8.471278 -2.765948 -0.909468 0.262181 0.322691 0.835294 0.341176
$0b_y21s2lockongunmb_scope.bmp
  0 3.891686 -8.471278 -2.765948 -0.909468 0.262181 0.322691 0.835294 0.341176
  0 3.781686 -8.811278 -2.685947 -0.858871 0.309513 0.408096 0.945098 0.364706
  0 3.891686 -8.651278 -2.565948 -0.904013 0.296324 0.308145 0.890196 0.407843
$0b_y21s2lockongunmb_scope.bmp
  0 3.781686 -8.811278 -2.685947 -0.858871 0.309513 0.408096 0.945098 0.364706
  0 3.791686 -8.911278 -2.615947 -0.859925 0.257955 0.440442 0.972549 0.392157
  0 3.891686 -8.651278 -2.565948 -0.904013 0.296324 0.308145 0.890196 0.407843
$0b_y21s2lockongunmb_scope.bmp
  0 3.821683 -6.001278 -2.485950 -0.822376 0.444338 -0.355334 0.050980 0.415686
  0 3.821683 -6.281278 -2.845950 -0.833462 0.398210 -0.383106 0.141176 0.301961
  0 3.691683 -6.201278 -2.445950 -0.822376 0.444338 -0.355334 0.117647 0.439216
$0b_y21s2lockongunmb_scope.bmp
  0 3.691683 -6.201278 -2.445950 -0.822376 0.444338 -0.355334 0.117647 0.439216
  0 3.821683 -6.281278 -2.845950 -0.833462 0.398210 -0.383106 0.141176 0.301961
  0 3.691684 -6.461278 -2.735950 -0.847071 0.363873 -0.387384 0.200000 0.345098
$0b_y21s2lockongunmb_scope.bmp
  0 3.821683 -6.281278 -2.845950 -0.833462 0.398210 -0.383106 0.141176 0.301961
  0 3.821684 -6.601279 -3.125950 -0.868003 0.253487 -0.426985 0.243137 0.215686
  0 3.691684 -6.461278 -2.735950 -0.847071 0.363873 -0.387384 0.200000 0.345098
$0b_y21s2lockongunmb_scope.bmp
  0 3.691684 -6.461278 -2.735950 -0.847071 0.363873 -0.387384 0.200000 0.345098
  0 3.821684 -6.601279 -3.125950 -0.868003 0.253487 -0.426985 0.243137 0.215686
  0 3.701684 -6.751279 -2.955950 -0.868003 0.253487 -0.426985 0.290196 0.278431
$0b_y21s2lockongunmb_scope.bmp
  0 3.821684 -6.601279 -3.125950 -0.868003 0.253487 -0.426985 0.243137 0.215686
  0 3.821685 -7.021279 -3.305949 -0.885086 0.121261 -0.449354 0.376471 0.156863
  0 3.701684 -6.751279 -2.955950 -0.868003 0.253487 -0.426985 0.290196 0.278431
$0b_y21s2lockongunmb_scope.bmp
  0 3.701684 -6.751279 -2.955950 -0.868003 0.253487 -0.426985 0.290196 0.278431
  0 3.821685 -7.021279 -3.305949 -0.885086 0.121261 -0.449354 0.376471 0.156863
  0 3.711685 -7.131279 -3.125949 -0.885086 0.121261 -0.449354 0.407843 0.219608
$0b_y21s2lockongunmb_scope.bmp
  0 3.821685 -7.021279 -3.305949 -0.885086 0.121261 -0.449354 0.376471 0.156863
  0 3.821685 -7.501279 -3.405949 -0.893886 0.029446 -0.447326 0.529412 0.129412
  0 3.711685 -7.131279 -3.125949 -0.885086 0.121261 -0.449354 0.407843 0.219608
$0b_y21s2lockongunmb_scope.bmp
  0 3.711685 -7.131279 -3.125949 -0.885086 0.121261 -0.449354 0.407843 0.219608
  0 3.821685 -7.501279 -3.405949 -0.893886 0.029446 -0.447326 0.529412 0.129412
  0 3.731685 -7.521279 -3.225949 -0.893886 0.029446 -0.447326 0.533333 0.188235
$0b_y21s2lockongunmb_scope.bmp
  0 3.821685 -7.501279 -3.405949 -0.893886 0.029446 -0.447326 0.529412 0.129412
  0 3.821686 -7.961279 -3.385948 -0.903092 -0.080080 -0.421914 0.674510 0.137255
  0 3.731685 -7.521279 -3.225949 -0.893886 0.029446 -0.447326 0.533333 0.188235
$0b_y21s2lockongunmb_scope.bmp
  0 3.731685 -7.521279 -3.225949 -0.893886 0.029446 -0.447326 0.533333 0.188235
  0 3.821686 -7.961279 -3.385948 -0.903092 -0.080080 -0.421914 0.674510 0.137255
  0 3.751685 -7.951279 -3.225948 -0.903092 -0.080080 -0.421914 0.670588 0.188235
$0b_y21s2lockongunmb_scope.bmp
  0 3.821686 -7.961279 -3.385948 -0.903092 -0.080080 -0.421914 0.674510 0.137255
  0 3.821686 -8.361279 -3.245948 -0.926607 -0.199706 -0.318617 0.800000 0.180392
  0 3.751685 -7.951279 -3.225948 -0.903092 -0.080080 -0.421914 0.670588 0.188235
$0b_y21s2lockongunmb_scope.bmp
  0 3.751685 -7.951279 -3.225948 -0.903092 -0.080080 -0.421914 0.670588 0.188235
  0 3.821686 -8.361279 -3.245948 -0.926607 -0.199706 -0.318617 0.800000 0.180392
  0 3.761686 -8.311279 -3.105948 -0.926607 -0.199706 -0.318617 0.788235 0.227451
$0b_y21s2lockongunmb_scope.bmp
  0 3.821686 -8.361279 -3.245948 -0.926607 -0.199706 -0.318617 0.800000 0.180392
  0 3.821686 -8.651278 -3.015948 -0.925257 -0.254925 -0.280914 0.894118 0.258824
  0 3.761686 -8.311279 -3.105948 -0.926607 -0.199706 -0.318617 0.788235 0.227451
$0b_y21s2lockongunmb_scope.bmp
  0 3.761686 -8.311279 -3.105948 -0.926607 -0.199706 -0.318617 0.788235 0.227451
  0 3.821686 -8.651278 -3.015948 -0.925257 -0.254925 -0.280914 0.894118 0.258824
  0 3.771686 -8.581278 -2.925948 -0.925257 -0.254925 -0.280914 0.874510 0.286275
$0b_y21s2lockongunmb_scope.bmp
  0 3.821686 -8.651278 -3.015948 -0.925257 -0.254925 -0.280914 0.894118 0.258824
  0 3.821686 -8.891278 -2.765947 -0.950744 -0.208721 -0.229175 0.968627 0.341176
  0 3.771686 -8.581278 -2.925948 -0.925257 -0.254925 -0.280914 0.874510 0.286275
$0b_y21s2lockongunmb_scope.bmp
  0 3.771686 -8.581278 -2.925948 -0.925257 -0.254925 -0.280914 0.874510 0.286275
  0 3.821686 -8.891278 -2.765947 -0.950744 -0.208721 -0.229175 0.968627 0.341176
  0 3.781686 -8.811278 -2.685947 -0.950744 -0.208721 -0.229175 0.945098 0.364706
$0b_y21s2lockongunmb_scope.bmp
  0 3.821686 -8.891278 -2.765947 -0.950744 -0.208721 -0.229175 0.968627 0.341176
  0 3.791686 -8.911278 -2.615947 -0.960466 -0.140604 -0.240284 0.972549 0.392157
  0 3.781686 -8.811278 -2.685947 -0.950744 -0.208721 -0.229175 0.945098 0.364706
$0b_y21s2lockongunmb_scope.bmp
  0 3.701682 -5.941278 -2.135950 -0.913164 -0.188459 -0.361406 0.043137 0.537255
  0 3.771683 -6.251278 -2.145950 -0.907806 -0.154171 -0.390024 0.137255 0.537255
  0 3.641682 -6.041278 -1.935950 -0.907806 -0.154171 -0.390024 0.074510 0.611765
$0b_y21s2lockongunmb_scope.bmp
  0 3.641682 -6.041278 -1.935950 -0.907806 -0.154171 -0.390024 0.074510 0.611765
  0 3.771683 -6.251278 -2.145950 -0.907806 -0.154171 -0.390024 0.137255 0.537255
  0 3.661683 -6.361278 -1.875950 -0.878229 -0.131083 -0.459925 0.172549 0.631373
$0b_y21s2lockongunmb_scope.bmp
  0 3.771683 -6.251278 -2.145950 -0.907806 -0.154171 -0.390024 0.137255 0.537255
  0 3.861683 -6.651277 -2.155950 -0.862872 -0.104039 -0.494598 0.266667 0.537255
  0 3.661683 -6.361278 -1.875950 -0.878229 -0.131083 -0.459925 0.172549 0.631373
$0b_y21s2lockongunmb_scope.bmp
  0 3.661683 -6.361278 -1.875950 -0.878229 -0.131083 -0.459925 0.172549 0.631373
  0 3.861683 -6.651277 -2.155950 -0.862872 -0.104039 -0.494598 0.266667 0.537255
  0 3.681683 -6.741278 -1.845950 -0.839737 -0.075664 -0.537696 0.294118 0.643137
$0b_y21s2lockongunmb_scope.bmp
  0 3.861683 -6.651277 -2.155950 -0.862872 -0.104039 -0.494598 0.266667 0.537255
  0 3.871684 -7.261278 -2.075949 -0.846578 -0.029265 -0.531459 0.458824 0.572549
  0 3.681683 -6.741278 -1.845950 -0.839737 -0.075664 -0.537696 0.294118 0.643137
$0b_y21s2lockongunmb_scope.bmp
  0 3.681683 -6.741278 -1.845950 -0.839737 -0.075664 -0.537696 0.294118 0.643137
  0 3.871684 -7.261278 -2.075949 -0.846578 -0.029265 -0.531459 0.458824 0.572549
  0 3.711683 -7.261277 -1.865949 -0.788154 0.000292 -0.615478 0.458824 0.650980
$0b_y21s2lockongunmb_scope.bmp
  0 3.871684 -7.261278 -2.075949 -0.846578 -0.029265 -0.531459 0.458824 0.572549
  0 3.871684 -7.671277 -2.095949 -0.817754 0.086454 -0.569038 0.588235 0.568627
  0 3.711683 -7.261277 -1.865949 -0.788154 0.000292 -0.615478 0.458824 0.650980
$0b_y21s2lockongunmb_scope.bmp
  0 3.711683 -7.261277 -1.865949 -0.788154 0.000292 -0.615478 0.458824 0.650980
  0 3.871684 -7.671277 -2.095949 -0.817754 0.086454 -0.569038 0.588235 0.568627
  0 3.741684 -7.721278 -1.945949 -0.752277 0.120559 -0.647722 0.603922 0.627451
$0b_y21s2lockongunmb_scope.bmp
  0 3.871684 -7.671277 -2.095949 -0.817754 0.086454 -0.569038 0.588235 0.568627
  0 3.881685 -8.101278 -2.215948 -0.800546 0.232953 -0.552141 0.725490 0.529412
  0 3.741684 -7.721278 -1.945949 -0.752277 0.120559 -0.647722 0.603922 0.627451
$0b_y21s2lockongunmb_scope.bmp
  0 3.741684 -7.721278 -1.945949 -0.752277 0.120559 -0.647722 0.603922 0.627451
  0 3.881685 -8.101278 -2.215948 -0.800546 0.232953 -0.552141 0.725490 0.529412
  0 3.761685 -8.181278 -2.115948 -0.690745 0.298938 -0.658413 0.752941 0.572549
$0b_y21s2lockongunmb_scope.bmp
  0 3.881685 -8.101278 -2.215948 -0.800546 0.232953 -0.552141 0.725490 0.529412
  0 3.881685 -8.361278 -2.365948 -0.813362 0.306764 -0.494306 0.803922 0.478431
  0 3.761685 -8.181278 -2.115948 -0.690745 0.298938 -0.658413 0.752941 0.572549
$0b_y21s2lockongunmb_scope.bmp
  0 3.761685 -8.181278 -2.115948 -0.690745 0.298938 -0.658413 0.752941 0.572549
  0 3.881685 -8.361278 -2.365948 -0.813362 0.306764 -0.494306 0.803922 0.478431
  0 3.771685 -8.471278 -2.295948 -0.697964 0.382392 -0.605494 0.843137 0.509804
$0b_y21s2lockongunmb_scope.bmp
  0 3.881685 -8.361278 -2.365948 -0.813362 0.306764 -0.494306 0.803922 0.478431
  0 3.891686 -8.651278 -2.565948 -0.778940 0.350383 -0.520081 0.890196 0.407843
  0 3.771685 -8.471278 -2.295948 -0.697964 0.382392 -0.605494 0.843137 0.509804
$0b_y21s2lockongunmb_scope.bmp
  0 3.771685 -8.471278 -2.295948 -0.697964 0.382392 -0.605494 0.843137 0.509804
  0 3.891686 -8.651278 -2.565948 -0.778940 0.350383 -0.520081 0.890196 0.407843
  0 3.781686 -8.781278 -2.515948 -0.755143 0.386635 -0.529408 0.937255 0.431373
$0b_y21s2lockongunmb_scope.bmp
  0 3.891686 -8.651278 -2.565948 -0.778940 0.350383 -0.520081 0.890196 0.407843
  0 3.791686 -8.911278 -2.615947 -0.755143 0.386635 -0.529408 0.972549 0.392157
  0 3.781686 -8.781278 -2.515948 -0.755143 0.386635 -0.529408 0.937255 0.431373
$0b_y21s2lockongunmb_scope.bmp
  0 3.871686 -8.911278 -2.475947 -0.755757 -0.404486 0.514998 0.980392 0.447059
  0 3.871685 -8.591278 -2.225948 -0.778058 -0.372131 0.506107 0.886275 0.537255
  0 3.781686 -8.781278 -2.515948 -0.755757 -0.404486 0.514998 0.937255 0.431373
$0b_y21s2lockongunmb_scope.bmp
  0 3.781686 -8.781278 -2.515948 -0.755757 -0.404486 0.514998 0.937255 0.431373
  0 3.871685 -8.591278 -2.225948 -0.778058 -0.372131 0.506107 0.886275 0.537255
  0 3.771685 -8.471278 -2.295948 -0.778058 -0.372131 0.506107 0.843137 0.509804
$0b_y21s2lockongunmb_scope.bmp
  0 3.871685 -8.591278 -2.225948 -0.778058 -0.372131 0.506107 0.886275 0.537255
  0 3.861685 -8.281277 -2.015948 -0.787828 -0.309838 0.532285 0.788235 0.611765
  0 3.771685 -8.471278 -2.295948 -0.778058 -0.372131 0.506107 0.843137 0.509804
$0b_y21s2lockongunmb_scope.bmp
  0 3.771685 -8.471278 -2.295948 -0.778058 -0.372131 0.506107 0.843137 0.509804
  0 3.861685 -8.281277 -2.015948 -0.787828 -0.309838 0.532285 0.788235 0.611765
  0 3.761685 -8.181278 -2.115948 -0.787828 -0.309838 0.532285 0.752941 0.572549
$0b_y21s2lockongunmb_scope.bmp
  0 3.861685 -8.281277 -2.015948 -0.787828 -0.309838 0.532285 0.788235 0.611765
  0 3.861684 -7.841277 -1.825948 -0.778244 -0.223021 0.587025 0.647059 0.674510
  0 3.761685 -8.181278 -2.115948 -0.787828 -0.309838 0.532285 0.752941 0.572549
$0b_y21s2lockongunmb_scope.bmp
  0 3.761685 -8.181278 -2.115948 -0.787828 -0.309838 0.532285 0.752941 0.572549
  0 3.861684 -7.841277 -1.825948 -0.778244 -0.223021 0.587025 0.647059 0.674510
  0 3.741684 -7.721278 -1.945949 -0.778244 -0.223021 0.587025 0.603922 0.627451
$0b_y21s2lockongunmb_scope.bmp
  0 3.861684 -7.841277 -1.825948 -0.778244 -0.223021 0.587025 0.647059 0.674510
  0 3.841683 -7.341277 -1.715949 -0.777980 -0.132587 0.614140 0.486275 0.709804
  0 3.741684 -7.721278 -1.945949 -0.778244 -0.223021 0.587025 0.603922 0.627451
$0b_y21s2lockongunmb_scope.bmp
  0 3.741684 -7.721278 -1.945949 -0.778244 -0.223021 0.587025 0.603922 0.627451
  0 3.841683 -7.341277 -1.715949 -0.777980 -0.132587 0.614140 0.486275 0.709804
  0 3.711683 -7.261277 -1.865949 -0.777980 -0.132587 0.614140 0.458824 0.650980
$0b_y21s2lockongunmb_scope.bmp
  0 3.841683 -7.341277 -1.715949 -0.777980 -0.132587 0.614140 0.486275 0.709804
  0 3.831683 -6.841277 -1.655949 -0.805471 -0.052820 0.590277 0.329412 0.721569
  0 3.711683 -7.261277 -1.865949 -0.777980 -0.132587 0.614140 0.458824 0.650980
$0b_y21s2lockongunmb_scope.bmp
  0 3.711683 -7.261277 -1.865949 -0.777980 -0.132587 0.614140 0.458824 0.650980
  0 3.831683 -6.841277 -1.655949 -0.805471 -0.052820 0.590277 0.329412 0.721569
  0 3.681683 -6.741278 -1.845950 -0.805471 -0.052820 0.590277 0.294118 0.643137
$0b_y21s2lockongunmb_scope.bmp
  0 3.831683 -6.841277 -1.655949 -0.805471 -0.052820 0.590277 0.329412 0.721569
  0 3.811682 -6.441277 -1.655950 -0.786364 0.049559 0.615772 0.200000 0.721569
  0 3.681683 -6.741278 -1.845950 -0.805471 -0.052820 0.590277 0.294118 0.643137
$0b_y21s2lockongunmb_scope.bmp
  0 3.681683 -6.741278 -1.845950 -0.805471 -0.052820 0.590277 0.294118 0.643137
  0 3.811682 -6.441277 -1.655950 -0.786364 0.049559 0.615772 0.200000 0.721569
  0 3.661683 -6.361278 -1.875950 -0.812074 0.037400 0.582355 0.172549 0.631373
$0b_y21s2lockongunmb_scope.bmp
  0 3.811682 -6.441277 -1.655950 -0.786364 0.049559 0.615772 0.200000 0.721569
  0 3.641682 -6.041278 -1.935950 -0.678811 0.198117 0.707082 0.074510 0.611765
  0 3.661683 -6.361278 -1.875950 -0.812074 0.037400 0.582355 0.172549 0.631373
$0b_y21s2lockongunmb_scope.bmp
  0 4.121684 -7.641278 -2.525948 -0.901602 -0.099089 0.421064 0.576471 0.423529
  0 3.891686 -8.471278 -2.765948 -0.909468 0.262181 0.322691 0.835294 0.341176
  0 3.891686 -8.651278 -2.565948 -0.904013 0.296324 0.308145 0.890196 0.407843
$0b_y21s2lockongunmb_scope.bmp
  0 4.121684 -7.641278 -2.525948 -0.901602 -0.099089 0.421064 0.576471 0.423529
  0 3.881685 -8.251278 -2.915948 -0.893249 0.166406 0.417630 0.764706 0.294118
  0 3.891686 -8.471278 -2.765948 -0.909468 0.262181 0.322691 0.835294 0.341176
$0b_y21s2lockongunmb_scope.bmp
  0 4.121684 -7.641278 -2.525948 -0.901602 -0.099089 0.421064 0.576471 0.423529
  0 3.881685 -7.931278 -2.975948 -0.884298 0.021633 0.466421 0.666667 0.274510
  0 3.881685 -8.251278 -2.915948 -0.893249 0.166406 0.417630 0.764706 0.294118
$0b_y21s2lockongunmb_scope.bmp
  0 4.121684 -7.641278 -2.525948 -0.901602 -0.099089 0.421064 0.576471 0.423529
  0 3.871685 -7.601278 -2.935949 -0.877078 -0.112963 0.466876 0.560784 0.282353
  0 3.881685 -7.931278 -2.975948 -0.884298 0.021633 0.466421 0.666667 0.274510
$0b_y21s2lockongunmb_scope.bmp
  0 4.121684 -7.641278 -2.525948 -0.901602 -0.099089 0.421064 0.576471 0.423529
  0 3.871684 -7.301278 -2.835949 -0.887877 -0.217952 0.405182 0.466667 0.317647
  0 3.871685 -7.601278 -2.935949 -0.877078 -0.112963 0.466876 0.560784 0.282353
$0b_y21s2lockongunmb_scope.bmp
  0 4.121684 -7.641278 -2.525948 -0.901602 -0.099089 0.421064 0.576471 0.423529
  0 3.861684 -7.051278 -2.665949 -0.906200 -0.271007 0.324586 0.388235 0.372549
  0 3.871684 -7.301278 -2.835949 -0.887877 -0.217952 0.405182 0.466667 0.317647
$0b_y21s2lockongunmb_scope.bmp
  0 4.121684 -7.641278 -2.525948 -0.901602 -0.099089 0.421064 0.576471 0.423529
  0 3.861684 -6.881278 -2.505949 -0.921792 -0.289649 0.257688 0.333333 0.427451
  0 3.861684 -7.051278 -2.665949 -0.906200 -0.271007 0.324586 0.388235 0.372549
$0b_y21s2lockongunmb_scope.bmp
  0 4.121684 -7.641278 -2.525948 -0.901602 -0.099089 0.421064 0.576471 0.423529
  0 3.861683 -6.731278 -2.325950 -0.943018 -0.284168 0.173105 0.290196 0.482353
  0 3.861684 -6.881278 -2.505949 -0.921792 -0.289649 0.257688 0.333333 0.427451
$0b_y21s2lockongunmb_scope.bmp
  0 4.121684 -7.641278 -2.525948 -0.901602 -0.099089 0.421064 0.576471 0.423529
  0 3.861683 -6.651277 -2.155950 -0.953378 -0.267260 0.140153 0.266667 0.537255
  0 3.861683 -6.731278 -2.325950 -0.943018 -0.284168 0.173105 0.290196 0.482353
$0b_y21s2lockongunmb_scope.bmp
  0 4.631683 -7.601276 -1.395948 0.000001 0.951156 0.308710 0.933333 0.827451
  0 4.981683 -7.631276 -1.305948 0.000001 0.951156 0.308710 0.898039 0.964706
  0 4.911683 -7.601276 -1.395948 0.000001 0.951156 0.308710 0.933333 0.937255
$0b_y21s2lockongunmb_scope.bmp
  0 4.631683 -7.601276 -1.395948 0.000001 0.951156 0.308710 0.933333 0.827451
  0 4.941683 -7.861275 -0.575947 0.000001 0.951156 0.308710 0.603922 0.949020
  0 4.981683 -7.631276 -1.305948 0.000001 0.951156 0.308710 0.898039 0.964706
$0b_y21s2lockongunmb_scope.bmp
  0 4.631683 -7.601276 -1.395948 0.000001 0.951156 0.308710 0.933333 0.827451
  0 4.631683 -7.901275 -0.455948 0.000001 0.951156 0.308710 0.556863 0.827451
  0 4.941683 -7.861275 -0.575947 0.000001 0.951156 0.308710 0.603922 0.949020
$0b_y21s2lockongunmb_scope.bmp
  0 4.631683 -7.601276 -1.395948 0.000001 0.951156 0.308710 0.933333 0.827451
  0 4.321683 -7.861275 -0.575948 0.000001 0.951156 0.308710 0.603922 0.949020
  0 4.631683 -7.901275 -0.455948 0.000001 0.951156 0.308710 0.556863 0.827451
$0b_y21s2lockongunmb_scope.bmp
  0 4.631683 -7.601276 -1.395948 0.000001 0.951156 0.308710 0.933333 0.827451
  0 4.281683 -7.631276 -1.305948 0.000001 0.951156 0.308710 0.898039 0.964706
  0 4.321683 -7.861275 -0.575948 0.000001 0.951156 0.308710 0.603922 0.949020
$0b_y21s2lockongunmb_scope.bmp
  0 4.631683 -7.601276 -1.395948 0.000001 0.951156 0.308710 0.933333 0.827451
  0 4.351683 -7.601276 -1.395948 0.000001 0.951156 0.308710 0.933333 0.937255
  0 4.281683 -7.631276 -1.305948 0.000001 0.951156 0.308710 0.898039 0.964706
$0b_y21s2lockongunmb_scope.bmp
  0 4.121684 -7.641278 -2.525948 -0.887342 0.077603 -0.454534 0.576471 0.423529
  0 3.871684 -7.261278 -2.075949 -0.846578 -0.029265 -0.531459 0.458824 0.572549
  0 3.861683 -6.651277 -2.155950 -0.862872 -0.104039 -0.494598 0.266667 0.537255
$0b_y21s2lockongunmb_scope.bmp
  0 4.121684 -7.641278 -2.525948 -0.887342 0.077603 -0.454534 0.576471 0.423529
  0 3.871684 -7.671277 -2.095949 -0.817754 0.086454 -0.569038 0.588235 0.568627
  0 3.871684 -7.261278 -2.075949 -0.846578 -0.029265 -0.531459 0.458824 0.572549
$0b_y21s2lockongunmb_scope.bmp
  0 4.121684 -7.641278 -2.525948 -0.887342 0.077603 -0.454534 0.576471 0.423529
  0 3.881685 -8.101278 -2.215948 -0.800546 0.232953 -0.552141 0.725490 0.529412
  0 3.871684 -7.671277 -2.095949 -0.817754 0.086454 -0.569038 0.588235 0.568627
$0b_y21s2lockongunmb_scope.bmp
  0 4.121684 -7.641278 -2.525948 -0.887342 0.077603 -0.454534 0.576471 0.423529
  0 3.881685 -8.361278 -2.365948 -0.813362 0.306764 -0.494306 0.803922 0.478431
  0 3.881685 -8.101278 -2.215948 -0.800546 0.232953 -0.552141 0.725490 0.529412
$0b_y21s2lockongunmb_scope.bmp
  0 4.121684 -7.641278 -2.525948 -0.887342 0.077603 -0.454534 0.576471 0.423529
  0 3.891686 -8.651278 -2.565948 -0.778940 0.350383 -0.520081 0.890196 0.407843
  0 3.881685 -8.361278 -2.365948 -0.813362 0.306764 -0.494306 0.803922 0.478431
$0b_y21s2lockongunmb_scope.bmp
  3 11.551550 23.357364 -56.560057 0.000000 1.000000 0.000000 0.000000 1.000000
  3 11.771550 23.357364 -56.560057 0.000000 1.000000 0.000000 1.000000 1.000000
  3 11.551550 23.357364 -56.780054 0.000000 1.000000 0.000000 0.000000 0.000000
$0b_y21s2lockongunmb_scope.bmp
  3 11.551550 23.357364 -56.780054 0.000000 1.000000 0.000000 0.000000 0.000000
  3 11.771550 23.357364 -56.560057 0.000000 1.000000 0.000000 1.000000 1.000000
  3 11.771550 23.357364 -56.780054 0.000000 1.000000 0.000000 1.000000 0.000000
$0b_y21s2lockongunmb_scope.bmp
  4 -14.805475 21.194858 -56.819398 0.000000 1.000000 0.000000 0.000000 1.000000
  4 -14.585475 21.194858 -56.819398 0.000000 1.000000 0.000000 1.000000 1.000000
  4 -14.805475 21.194858 -57.039399 0.000000 1.000000 0.000000 0.000000 0.000000
$0b_y21s2lockongunmb_scope.bmp
  4 -14.805475 21.194858 -57.039399 0.000000 1.000000 0.000000 0.000000 0.000000
  4 -14.585475 21.194858 -56.819398 0.000000 1.000000 0.000000 1.000000 1.000000
  4 -14.585475 21.194858 -57.039399 0.000000 1.000000 0.000000 1.000000 0.000000
$0b_y21s2lockongunmb_scope.bmp
  0 4.631683 -7.901275 -0.455948 0.000001 0.951156 0.308710 0.556863 0.827451
  0 4.321683 -7.861275 -0.575948 0.000001 0.951156 0.308710 0.603922 0.949020
  0 4.391683 -7.901275 -0.455948 0.000001 0.951156 0.308710 0.556863 0.921569
$0b_y21s2lockongunmb_scope.bmp
  0 4.871683 -7.901275 -0.455947 0.000001 0.951156 0.308710 0.556863 0.921569
  0 4.941683 -7.861275 -0.575947 0.000001 0.951156 0.308710 0.603922 0.949020
  0 4.631683 -7.901275 -0.455948 0.000001 0.951156 0.308710 0.556863 0.827451
$0b_y21s2lockongunmb_scope.bmp
  0 3.691683 -6.201278 -2.445950 -0.955074 -0.216039 0.202880 0.117647 0.439216
  0 3.771683 -6.251278 -2.145950 -0.955074 -0.216039 0.202880 0.137255 0.537255
  0 3.701682 -5.941278 -2.135950 -0.955074 -0.216039 0.202880 0.043137 0.537255
$0b_y21s2lockongunmb_scope.bmp
  0 3.791686 -8.911278 -2.615947 -0.960466 -0.140604 -0.240284 0.972549 0.392157
  0 3.821686 -8.891278 -2.765947 -0.950744 -0.208721 -0.229175 0.968627 0.341176
  0 3.821686 -9.001278 -2.705947 -0.960466 -0.140604 -0.240284 1.000000 0.360784
$0b_y21s2lockongunmb_scope.bmp
  0 3.641682 -6.041278 -1.935950 -0.678811 0.198117 0.707082 0.074510 0.611765
  0 3.811682 -6.441277 -1.655950 -0.786364 0.049559 0.615772 0.200000 0.721569
  0 3.821682 -6.031277 -1.795950 -0.599087 0.265767 0.755290 0.070588 0.682353
end
