version 1
nodes
  0 "Bip01 L Clavicle" -1
  1 "Bip01 L UpperArm" 0
  2 "Bip01 L Forearm" 1
  3 "Bip01 L Hand" 2
  4 "buffaug_root" 3
  5 "Bone02" 4
  6 "trigger" 4
  7 "Point_chain11" 4
  8 "Point_chain12" 4
  9 "Point_chain13" 4
  10 "Point_chain14" 4
  11 "Point_chain15" 4
  12 "Point_chain16" 4
  13 "Point_chain22" 4
  14 "Point_chain23" 4
  15 "Point_chain24" 4
  16 "Point_chain25" 4
  17 "Point_chain26" 4
  18 "Point_chain27" 4
  19 "Point_chain28" 4
  20 "Point_chain29" 4
  21 "Point_chain31" 4
  22 "Point_chain32" 4
  23 "Point_chain33" 4
  24 "Point_chain34" 4
  25 "Point_chain35" 4
  26 "Point_chain36" 4
  27 "Point_chain37" 4
  28 "Point_chain41" 4
  29 "Point_chain42" 4
  30 "Point_chain43" 4
  31 "Point_chain44" 4
  32 "Point_chain45" 4
  33 "Point_chain46" 4
  34 "Bone_chain1" 4
  35 "Bone_chain2" 34
  36 "Bone_chain3" 35
  37 "Bone_h1" 4
  38 "Bone_h11" 4
  39 "Bone_h12" 4
  40 "Bone_h13" 4
  41 "Bone_h14" 4
  42 "Bone_cover3" 4
  43 "Bone_cover2" 4
  44 "Bone_cover1" 4
  45 "Bone08" 4
  46 "ef_glow" 45
  47 "root" -1
  48 "Bone01" 47
  49 "Bone_L_Upper" 48
  50 "Bone_Lefthand" 48
  51 "Bone13" 50
  52 "Bone14" 51
  53 "Bone15" 52
  54 "Bone17" 50
  55 "Bone18" 54
  56 "Bone19" 55
  57 "Bone21" 50
  58 "Bone22" 57
  59 "Bone23" 58
  60 "Bone09" 50
  61 "Bone10" 60
  62 "Bone11" 61
  63 "Bone05" 50
  64 "Bone06" 63
  65 "Bone07" 64
  66 "Bone_Se_Hand-L" 50
  67 "Bone04" 47
  68 "Bone_Righthand" 67
  69 "Bone39" 68
  70 "Bone40" 69
  71 "Bone41" 70
  72 "Bone35" 68
  73 "Bone36" 72
  74 "Bone37" 73
  75 "Bone31" 68
  76 "Bone32" 75
  77 "Bone33" 76
  78 "Bone43" 68
  79 "Bone44" 78
  80 "Bone45" 79
  81 "Bone27" 68
  82 "Bone28" 81
  83 "Bone29" 82
  84 "Bone_Se_Hand-R" 68
  85 "Bone_R_Upper" 67
end
skeleton
  time 0
    0 7.533154 -2.666832 -6.188106 -0.045701 -0.055167 0.431226
    1 4.065896 0.000000 0.000000 -0.263195 1.399754 -0.891250
    2 5.727315 0.000000 0.000000 0.000000 0.000000 -1.806258
    3 9.229776 0.000002 -0.000001 -1.451821 0.076720 0.036446
    4 5.023368 0.240867 -1.892860 -1.009743 1.236817 -1.150161
    5 -1.313646 -0.000004 -7.557351 0.000000 -2.960321 0.000000
    6 -1.230141 0.000000 -0.423579 0.000000 0.000000 0.000000
    7 -0.293285 1.156249 -11.923380 -1.570796 -1.570796 0.000000
    8 -0.384495 1.156249 -10.230849 -1.570796 -1.570796 0.000000
    9 -0.032454 1.156249 -8.797919 -1.570796 -1.570796 0.000000
    10 0.861015 1.156249 -7.175449 -1.570796 -1.570796 0.000000
    11 2.357821 1.156249 -5.807925 -1.570796 -1.570796 0.000000
    12 4.305367 1.156249 -4.852006 -1.570796 -1.570796 0.000000
    13 -0.528715 1.240935 -14.130713 -1.570796 -1.570796 0.000000
    14 -1.116583 1.240935 -12.661799 -1.570796 -1.570796 0.000000
    15 -1.324877 1.240935 -11.031783 -1.570796 -1.570796 0.000000
    16 -0.967184 1.240936 -9.045153 -1.570796 -1.570796 0.000000
    17 -0.342440 1.240935 -7.040544 -1.570796 -1.570796 0.000000
    18 0.919218 1.240935 -5.557764 -1.570796 -1.570796 0.000000
    19 2.415254 1.240935 -4.550376 -1.570796 -1.570796 0.000000
    20 4.010098 1.240935 -4.322865 -1.570796 -1.570796 0.000000
    21 2.631672 0.953461 4.146291 -1.570796 -1.570796 0.000000
    22 1.971862 0.953461 5.155814 -1.570796 -1.570796 0.000000
    23 1.421954 0.953461 6.272000 -1.570796 -1.570796 0.000000
    24 1.164978 0.953461 7.838477 -1.570796 -1.570796 0.000000
    25 1.200788 0.953461 9.209808 -1.570796 -1.570796 0.000000
    26 1.498324 0.953462 10.704045 -1.570796 -1.570796 0.000000
    27 2.038589 0.953461 12.114276 -1.570796 -1.570796 0.000000
    28 2.474358 0.953461 3.239715 -1.570796 -1.570796 0.000000
    29 1.432257 0.953461 4.600692 -1.570796 -1.570796 0.000000
    30 0.732178 0.953461 6.467402 -1.570796 -1.570796 0.000000
    31 0.590816 0.953463 8.487933 -1.570796 -1.570796 0.000000
    32 0.921433 0.953462 10.555390 -1.570796 -1.570796 0.000000
    33 1.602937 0.953462 12.350110 -1.570796 -1.570796 0.000000
    34 3.606761 -0.042286 2.212451 1.570796 0.181848 1.570796
    35 1.290828 0.000000 0.000000 -0.181848 1.570796 0.000000
    36 1.630795 0.000001 0.000000 0.000003 0.000000 0.000000
    37 1.878663 1.999800 0.970551 -1.570796 1.570796 0.000000
    38 1.911319 1.762200 0.860135 -1.570797 1.081573 -0.000001
    39 2.260609 1.762200 0.784943 -1.570796 1.570796 0.000000
    40 2.094463 1.762200 0.784943 -1.570796 1.206398 3.141592
    41 1.911636 1.762200 0.704861 -1.570796 0.871975 -3.141592
    42 3.347115 0.000000 6.530137 1.570797 1.349596 0.000000
    43 3.347114 0.000000 9.495782 -1.570797 1.349596 -0.000001
    44 3.347113 0.000000 12.433053 1.570796 1.349595 0.000000
    45 2.034362 2.017065 0.000001 -1.570798 0.000000 0.000000
    46 -0.262070 0.530560 0.269226 0.000001 0.000000 0.000000
    47 4.563793 -2.399776 -6.370669 -0.041035 -0.058713 0.349493
    48 6.892061 -2.108110 -5.460086 0.951328 -1.891199 -1.528805
    49 7.940978 -0.757237 -0.395908 -1.569603 -0.027812 -3.158162
    50 -0.091453 -8.447954 -0.135385 -0.089657 0.132319 -0.027880
    51 -0.488518 -2.755602 -0.228260 -0.630893 0.142055 -0.194752
    52 0.039887 -1.538386 0.022041 -1.693464 -0.009588 0.037992
    53 0.028786 -1.157765 -0.116862 -0.991854 -0.014957 0.020733
    54 0.250027 -2.820665 -0.238396 -0.314440 0.066242 -0.069001
    55 -0.049759 -1.598510 0.030164 -1.596375 -0.000551 -0.042535
    56 -0.034142 -1.167844 0.045718 -1.175350 0.006508 -0.030956
    57 0.957766 -2.746780 -0.090302 0.144164 0.043990 0.117961
    58 -0.033420 -1.397129 -0.011257 -0.189057 0.004758 -0.009049
    59 -0.022360 -0.957436 0.010971 -0.400820 0.007323 -0.018936
    60 -1.180681 -2.507217 -0.193859 -0.817928 0.355478 -0.254846
    61 -0.024967 -1.123934 0.017597 -0.990583 0.004111 -0.042436
    62 -0.020057 -0.906594 0.037435 -1.203215 0.001450 -0.049317
    63 0.610855 -1.197277 0.185379 0.342983 -0.927688 -0.466842
    64 1.453893 -0.243668 0.075324 0.073450 -0.242819 -0.904700
    65 1.018737 -0.175166 0.040104 0.074529 -0.230826 -0.970947
    66 0.120153 -0.050270 -0.054489 0.287569 3.110905 1.561085
    67 -4.946693 -8.180569 -4.950653 1.044276 -4.321645 0.991303
    68 0.104757 -8.450418 -0.017178 0.086370 -0.208219 0.085748
    69 0.447953 -2.798986 -0.200443 -0.516377 0.045980 0.099611
    70 -0.032909 -1.499736 0.036191 -1.729928 0.022195 -0.036024
    71 -0.027022 -1.108171 -0.028023 -0.904795 0.020877 -0.013650
    72 -0.249534 -2.846964 -0.174213 -0.291531 0.103961 0.010600
    73 0.043235 -1.656596 0.056948 -1.803618 -0.024766 0.014538
    74 0.031729 -1.153017 0.058838 -0.789192 -0.008299 0.005316
    75 -0.963866 -2.785145 -0.085350 -0.404578 0.151837 -0.025438
    76 0.028479 -1.410880 -0.024980 -1.292811 -0.039489 -0.038291
    77 0.021413 -0.946062 0.012233 -1.015785 -0.027469 -0.034576
    78 1.164475 -2.543940 -0.170330 -0.476471 -0.073085 0.076283
    79 0.024032 -1.148574 -0.009538 -1.422645 0.029782 0.066288
    80 0.014898 -0.903521 -0.012035 -1.077230 0.011397 0.053511
    81 -0.586770 -1.264477 0.200161 -0.238045 -0.967630 -2.834243
    82 1.565805 0.039149 0.016848 -0.019971 -0.007134 0.934340
    83 1.117947 0.040611 -0.005766 -0.028587 -0.034378 1.029586
    84 -0.033927 -0.111698 0.022210 0.254138 0.099765 1.535254
    85 -4.428719 7.667266 -0.321467 1.581535 -0.015569 -1.168539
  time 1
    0 7.533154 -2.666832 -6.188106 -0.053670 -0.047437 0.586592
    1 4.065896 0.000000 0.000000 0.205509 1.398544 -0.561180
    2 5.727315 0.000000 0.000000 0.000000 0.000000 -1.887287
    3 9.229776 0.000002 -0.000001 -1.451821 0.076720 0.036219
    4 5.023368 0.240867 -1.892860 -1.009743 1.236817 -1.150161
    5 -1.313646 -0.000004 -7.557351 0.000000 -2.960321 0.000000
    6 -1.230141 0.000000 -0.423579 0.000000 0.000000 0.000000
    7 -0.293285 1.156249 -11.923380 -1.570796 -1.570796 0.000000
    8 -0.384495 1.156249 -10.230849 -1.570796 -1.570796 0.000000
    9 -0.032454 1.250002 -8.797919 -1.570796 -1.570796 0.000000
    10 0.861015 1.250002 -7.175449 -1.570796 -1.570796 0.000000
    11 2.357821 1.250002 -5.807925 -1.570796 -1.570796 0.000000
    12 4.305367 1.226564 -4.852006 -1.570796 -1.570796 0.000000
    13 -0.528715 1.240935 -14.130713 -1.570796 -1.570796 0.000000
    14 -1.116583 1.240935 -12.661799 -1.570796 -1.570796 0.000000
    15 -1.324877 1.240935 -11.031783 -1.570796 -1.570796 0.000000
    16 -0.967184 1.240936 -9.045153 -1.570796 -1.570796 0.000000
    17 -0.342440 1.334688 -7.040544 -1.570796 -1.570796 0.000000
    18 0.919218 1.334688 -5.557764 -1.570796 -1.570796 0.000000
    19 2.415254 1.377658 -4.550376 -1.570796 -1.570796 0.000000
    20 4.010098 1.322969 -4.322865 -1.627351 -1.570796 0.000000
    21 2.631672 1.023776 4.146291 -1.570796 -1.570796 0.000000
    22 1.971862 1.109716 5.155814 -1.570796 -1.570796 0.000000
    23 1.421954 1.164405 6.272000 -1.570796 -1.570796 0.000000
    24 1.125914 1.207375 7.838477 -1.570796 -1.570796 0.000000
    25 1.161724 1.207375 9.209808 -1.570796 -1.570796 0.000000
    26 1.498324 1.172219 10.704045 -1.570796 -1.570796 0.000000
    27 2.038589 1.047214 12.114276 -1.570796 -1.570796 0.000000
    28 2.474358 1.090184 3.239715 -1.570796 -1.570796 0.000000
    29 1.432257 1.176124 4.600692 -1.570796 -1.570796 0.000000
    30 0.650144 1.172218 6.467402 -1.570796 -1.570796 0.000000
    31 0.434561 1.226909 8.487933 -1.570796 -1.570796 0.000000
    32 0.839399 1.219095 10.555390 -1.570796 -1.570796 0.000000
    33 1.602937 1.133155 12.350110 -1.570796 -1.570796 0.000000
    34 3.606761 -0.042286 2.212451 1.570796 0.181848 1.570796
    35 1.290828 0.000000 0.000000 -0.785351 1.467856 -0.603503
    36 1.630795 0.000001 0.000000 0.000003 0.000000 0.000000
    37 1.878663 1.999800 0.970551 -1.570796 1.570796 0.000000
    38 1.911319 1.762200 0.860135 -1.570797 1.081573 -0.000001
    39 2.260609 1.762200 0.784943 -1.570796 1.570796 0.000000
    40 2.094463 1.762200 0.784943 -1.570796 1.206398 3.141592
    41 1.911636 1.762200 0.704861 -1.570796 0.871975 -3.141592
    42 3.347115 0.000000 6.530137 1.570797 1.349596 0.000000
    43 3.347114 0.000000 9.495782 -1.570797 1.349596 -0.000001
    44 3.347113 0.000000 12.433053 1.570796 1.349595 0.000000
    45 2.034362 2.017065 0.000001 -1.570798 0.000000 0.000000
    46 -0.262070 0.530560 0.269226 0.000001 0.000000 0.000000
    47 4.563793 -2.399776 -6.370669 -0.041035 -0.058713 0.349493
    48 7.052222 -1.100267 -5.460086 0.943296 -1.893783 -1.511237
    49 7.796442 -1.405694 -0.403721 -1.568261 -0.029055 -3.239218
    50 -0.099266 -8.447954 -0.135385 -0.089716 0.132319 -0.027681
    51 -0.488518 -2.755602 -0.228260 -0.630893 0.142055 -0.194752
    52 0.039887 -1.538386 0.022041 -1.693464 -0.009588 0.037992
    53 0.028786 -1.157765 -0.116862 -0.991854 -0.014957 0.020733
    54 0.250027 -2.820665 -0.238396 -0.314440 0.066242 -0.069001
    55 -0.049759 -1.598510 0.030164 -1.596375 -0.000551 -0.042535
    56 -0.034142 -1.167844 0.045718 -1.175350 0.006508 -0.030956
    57 0.957766 -2.746780 -0.090302 0.144164 0.043990 0.117961
    58 -0.033420 -1.397129 -0.019070 -0.736032 0.007718 -0.036182
    59 -0.022360 -0.957436 -0.008561 -1.058160 0.002049 -0.051114
    60 -1.180681 -2.507217 -0.193859 -0.817928 0.355478 -0.254846
    61 -0.024967 -1.123934 0.017597 -0.990583 0.004111 -0.042436
    62 -0.020057 -0.906594 0.037435 -1.203215 0.001450 -0.049317
    63 0.610855 -1.197277 0.185379 0.342983 -0.927688 -0.466842
    64 1.453893 -0.243668 0.075324 0.073450 -0.242819 -0.904700
    65 1.018737 -0.175166 0.040104 0.074529 -0.230826 -0.970947
    66 0.120153 -0.050270 -0.054489 0.287569 3.110905 1.561085
    67 -4.989663 -7.715711 -5.958496 1.164348 -4.202758 1.137465
    68 0.096944 -8.430887 -0.017178 0.090398 -0.211636 0.215263
    69 0.447953 -2.798986 -0.200443 -0.516377 0.045980 0.099611
    70 -0.032909 -1.499736 0.036191 -1.729928 0.022195 -0.036024
    71 -0.027022 -1.108171 -0.028023 -0.904795 0.020877 -0.013650
    72 -0.249534 -2.846964 -0.174213 -0.291531 0.103961 0.010600
    73 0.043235 -1.656596 0.056948 -1.803618 -0.024766 0.014538
    74 0.031729 -1.153017 0.058838 -0.789192 -0.008299 0.005316
    75 -0.963866 -2.785145 -0.085350 -0.404578 0.151837 -0.025438
    76 0.028479 -1.410880 -0.024980 -1.292811 -0.039489 -0.038291
    77 0.021413 -0.946062 0.012233 -1.015785 -0.027469 -0.034576
    78 1.164475 -2.543940 -0.170330 -0.476471 -0.073085 0.076283
    79 0.024032 -1.148574 -0.009538 -1.422645 0.029782 0.066288
    80 0.014898 -0.903521 -0.012035 -1.077230 0.011397 0.053511
    81 -0.586770 -1.264477 0.200161 -0.238045 -0.967630 -2.834243
    82 1.565805 0.039149 0.016848 -0.019971 -0.007134 0.934340
    83 1.117947 0.040611 -0.005766 -0.028587 -0.034378 1.029586
    84 -0.033927 -0.111698 0.022210 0.254138 0.099765 1.535254
    85 -6.491282 5.803928 -0.387875 1.578922 -0.024186 -0.829579
  time 2
    0 7.533154 -2.666832 -6.188106 -0.054318 -0.046718 0.600019
    1 4.065896 0.000000 0.000000 -0.133933 1.396870 -0.908625
    2 5.727315 0.000000 0.000000 0.000000 0.000000 -1.852897
    3 9.229776 0.000002 -0.000001 -1.459439 0.078330 0.022905
    4 5.023368 0.240867 -1.892860 -1.009743 1.236817 -1.150161
    5 -1.313646 -0.000004 -7.557351 0.000000 -2.960321 0.000000
    6 -1.230141 0.000000 -0.423579 0.000000 0.000000 0.000000
    7 -0.293285 1.156249 -11.923380 -1.570796 -1.570796 0.000000
    8 -0.384495 1.156249 -10.230849 -1.570796 -1.570796 0.000000
    9 -0.032454 1.437508 -8.797919 -1.570796 -1.570796 0.000000
    10 0.861015 1.437508 -7.175449 -1.570796 -1.570796 0.000000
    11 2.357821 1.437508 -5.807925 -1.570796 -1.570796 0.000000
    12 4.305367 1.367193 -4.852006 -1.570796 -1.570796 0.000000
    13 -0.528715 1.240935 -14.130713 -1.570796 -1.570796 0.000000
    14 -1.116583 1.240935 -12.661799 -1.570796 -1.570796 0.000000
    15 -1.324877 1.240935 -11.031783 -1.570796 -1.570796 0.000000
    16 -0.967184 1.240936 -9.045153 -1.570796 -1.570796 0.000000
    17 -0.342440 1.522194 -7.040544 -1.570796 -1.570796 0.000000
    18 0.919218 1.522194 -5.557764 -1.570796 -1.570796 0.000000
    19 2.415254 1.631572 -4.550376 -1.570796 -1.570796 0.000000
    20 4.017911 1.490943 -4.322865 -1.732396 -1.570796 0.000000
    21 2.631672 1.164405 4.146291 -1.570796 -1.570796 0.000000
    22 1.971862 1.394881 5.155814 -1.570796 -1.570796 0.000000
    23 1.421954 1.555042 6.272000 -1.570796 -1.570796 0.000000
    24 1.059506 1.680046 7.838477 -1.570796 -1.570796 0.000000
    25 1.095316 1.680046 9.209808 -1.570796 -1.570796 0.000000
    26 1.498324 1.574575 10.704045 -1.570796 -1.570796 0.000000
    27 2.038589 1.223000 12.114276 -1.570796 -1.570796 0.000000
    28 2.474358 1.344098 3.239715 -1.570796 -1.570796 0.000000
    29 1.432257 1.605825 4.600692 -1.570796 -1.570796 0.000000
    30 0.501702 1.578480 6.467402 -1.570796 -1.570796 0.000000
    31 0.125958 1.734737 8.487933 -1.570796 -1.570796 0.000000
    32 0.690957 1.726923 10.555390 -1.570796 -1.570796 0.000000
    33 1.602937 1.488635 12.350110 -1.570796 -1.570796 0.000000
    34 3.606761 -0.042286 2.212451 1.570796 0.181848 1.570796
    35 1.290828 0.000000 0.000000 -0.000072 1.364877 0.181761
    36 1.630795 0.000001 0.000000 0.000003 0.000000 0.000000
    37 1.878663 1.999800 0.970551 -1.570796 1.570796 0.000000
    38 1.911319 1.762200 0.860135 -1.570797 1.081573 -0.000001
    39 2.260609 1.762200 0.784943 -1.570796 1.570796 0.000000
    40 2.094463 1.762200 0.784943 -1.570796 1.206398 3.141592
    41 1.911636 1.762200 0.704861 -1.570796 0.871975 -3.141592
    42 3.347115 0.000000 6.530137 1.570797 1.349596 0.000000
    43 3.347114 0.000000 9.495782 -1.570797 1.349596 -0.000001
    44 3.347113 0.000000 12.433053 1.570796 1.349595 0.000000
    45 2.034362 2.017065 0.000001 -1.570798 0.000000 0.000000
    46 -0.262070 0.530560 0.269226 0.000001 0.000000 0.000000
    47 4.563793 -2.399776 -6.370669 -0.041035 -0.058713 0.349493
    48 6.895967 -1.334649 -5.444460 0.973818 -1.916058 -1.533798
    49 7.858944 -1.132249 -0.395908 -1.568836 -0.028577 -3.204793
    50 -0.091453 -8.455766 -0.131479 -0.091157 0.139714 -0.014987
    51 -0.488518 -2.755602 -0.228260 -0.630893 0.142055 -0.194752
    52 0.039887 -1.538386 0.022041 -1.693464 -0.009588 0.037992
    53 0.028786 -1.157765 -0.116862 -0.991854 -0.014957 0.020733
    54 0.250027 -2.820665 -0.238396 -0.314440 0.066242 -0.069001
    55 -0.049759 -1.598510 0.030164 -1.596375 -0.000551 -0.042535
    56 -0.034142 -1.167844 0.045718 -1.175350 0.006508 -0.030956
    57 0.957766 -2.746780 -0.090302 0.144164 0.043990 0.117961
    58 -0.033420 -1.397129 -0.019070 -0.736972 0.007706 -0.036218
    59 -0.022360 -0.965249 -0.008561 -1.100700 0.001019 -0.052996
    60 -1.180681 -2.507217 -0.193859 -0.817928 0.355478 -0.254846
    61 -0.024967 -1.123934 0.017597 -0.990583 0.004111 -0.042436
    62 -0.020057 -0.906594 0.037435 -1.203215 0.001450 -0.049317
    63 0.610855 -1.197277 0.185379 0.342983 -0.927688 -0.466842
    64 1.453893 -0.243668 0.075324 0.073450 -0.242819 -0.904700
    65 1.018737 -0.175166 0.040104 0.074529 -0.230826 -0.970947
    66 0.120153 -0.050270 -0.054489 0.287569 3.110905 1.561085
    67 -4.981850 -7.938374 -5.458481 1.174522 -4.192560 1.137647
    68 0.096944 -8.430887 -0.017178 0.079680 -0.194174 0.196087
    69 0.447953 -2.798986 -0.200443 -0.516377 0.045980 0.099611
    70 -0.032909 -1.499736 0.036191 -1.729928 0.022195 -0.036024
    71 -0.027022 -1.108171 -0.028023 -0.904795 0.020877 -0.013650
    72 -0.249534 -2.846964 -0.174213 -0.291531 0.103961 0.010600
    73 0.043235 -1.656596 0.056948 -1.803618 -0.024766 0.014538
    74 0.031729 -1.153017 0.058838 -0.789192 -0.008299 0.005316
    75 -0.963866 -2.785145 -0.085350 -0.404578 0.151837 -0.025438
    76 0.028479 -1.410880 -0.024980 -1.292811 -0.039489 -0.038291
    77 0.021413 -0.946062 0.012233 -1.015785 -0.027469 -0.034576
    78 1.164475 -2.543940 -0.170330 -0.476471 -0.073085 0.076283
    79 0.024032 -1.148574 -0.009538 -1.422645 0.029782 0.066288
    80 0.014898 -0.903521 -0.012035 -1.077230 0.011397 0.053511
    81 -0.586770 -1.264477 0.200161 -0.238045 -0.967630 -2.834243
    82 1.565805 0.039149 0.016848 -0.019971 -0.007134 0.934340
    83 1.117947 0.040611 -0.005766 -0.028587 -0.034378 1.029586
    84 -0.033927 -0.111698 0.022210 0.254138 0.099765 1.535254
    85 -6.038143 6.331288 -0.376156 1.579857 -0.022137 -0.914485
  time 3
    0 7.533154 -2.666832 -6.188106 -0.053299 -0.047856 0.578334
    1 4.065896 0.000000 0.000000 -0.478490 1.374361 -1.230699
    2 5.727315 0.000000 0.000000 0.000000 0.000000 -1.804174
    3 9.229776 0.000002 -0.000001 -1.466787 0.079587 0.011734
    4 5.023368 0.240867 -1.892860 -1.009743 1.236817 -1.150161
    5 -1.313646 -0.000004 -7.557351 0.000000 -2.960321 0.000000
    6 -1.230141 0.000000 -0.423579 0.000000 0.000000 0.000000
    7 -0.293285 1.156249 -11.923380 -1.570796 -1.570796 0.000000
    8 -0.384495 1.156249 -10.230849 -1.570796 -1.570796 0.000000
    9 -0.032454 1.535167 -8.797919 -1.570796 -1.570796 0.000000
    10 0.861015 1.535167 -7.175449 -1.570796 -1.570796 0.000000
    11 2.357821 1.535167 -5.807925 -1.570796 -1.570796 0.000000
    12 4.305367 1.437508 -4.852006 -1.570796 -1.570796 0.000000
    13 -0.528715 1.240935 -14.130713 -1.570796 -1.570796 0.000000
    14 -1.116583 1.240935 -12.661799 -1.570796 -1.570796 0.000000
    15 -1.324877 1.240935 -11.031783 -1.570796 -1.570796 0.000000
    16 -0.967184 1.240936 -9.045153 -1.570796 -1.570796 0.000000
    17 -0.342440 1.619853 -7.040544 -1.570796 -1.570796 0.000000
    18 0.919218 1.619853 -5.557764 -1.570796 -1.570796 0.000000
    19 2.415254 1.768295 -4.550376 -1.570796 -1.570796 0.000000
    20 4.021817 1.576883 -4.322865 -1.788964 -1.570796 0.000000
    21 2.631672 1.238626 4.146291 -1.570796 -1.570796 0.000000
    22 1.971862 1.555042 5.155814 -1.570796 -1.570796 0.000000
    23 1.421954 1.765986 6.272000 -1.570796 -1.570796 0.000000
    24 1.016536 1.933960 7.838477 -1.570796 -1.570796 0.000000
    25 1.052346 1.933960 9.209808 -1.570796 -1.570796 0.000000
    26 1.498324 1.797238 10.704045 -1.570796 -1.570796 0.000000
    27 2.038589 1.312847 12.114276 -1.570796 -1.570796 0.000000
    28 2.474358 1.480821 3.239715 -1.570796 -1.570796 0.000000
    29 1.432257 1.840207 4.600692 -1.570796 -1.570796 0.000000
    30 0.415762 1.801143 6.467402 -1.570796 -1.570796 0.000000
    31 -0.034203 2.008183 8.487933 -1.570796 -1.570796 0.000000
    32 0.605017 2.000369 10.555390 -1.570796 -1.570796 0.000000
    33 1.602937 1.672234 12.350110 -1.570796 -1.570796 0.000000
    34 3.606761 -0.042286 2.212451 1.570796 0.181848 1.570796
    35 1.290828 0.000000 0.000000 -0.000072 1.379721 0.181761
    36 1.630795 0.000001 0.000000 0.000003 0.000000 0.000000
    37 1.878663 1.999800 0.970551 -1.570796 1.570796 0.000000
    38 1.911319 1.762200 0.860135 -1.570797 1.081573 -0.000001
    39 2.260609 1.762200 0.784943 -1.570796 1.570796 0.000000
    40 2.094463 1.762200 0.784943 -1.570796 1.206398 3.141592
    41 1.911636 1.762200 0.704861 -1.570796 0.871975 -3.141592
    42 3.347115 0.000000 6.530137 1.570797 1.349596 0.000000
    43 3.347114 0.000000 9.495782 -1.570797 1.349596 -0.000001
    44 3.347113 0.000000 12.433053 1.570796 1.349595 0.000000
    45 2.034362 2.017065 0.000001 -1.570798 0.000000 0.000000
    46 -0.262070 0.530560 0.269226 0.000001 0.000000 0.000000
    47 4.563793 -2.399776 -6.370669 -0.041035 -0.058713 0.349493
    48 6.743619 -1.756537 -5.405397 0.997726 -1.933167 -1.552845
    49 7.944884 -0.745518 -0.395908 -1.569603 -0.027812 -3.156116
    50 -0.091453 -8.455766 -0.131479 -0.092333 0.146923 -0.004402
    51 -0.488518 -2.755602 -0.228260 -0.630893 0.142055 -0.194752
    52 0.039887 -1.538386 0.022041 -1.693464 -0.009588 0.037992
    53 0.028786 -1.157765 -0.116862 -0.991854 -0.014957 0.020733
    54 0.250027 -2.820665 -0.238396 -0.314440 0.066242 -0.069001
    55 -0.049759 -1.598510 0.030164 -1.596375 -0.000551 -0.042535
    56 -0.034142 -1.167844 0.045718 -1.175350 0.006508 -0.030956
    57 0.957766 -2.746780 -0.090302 0.144164 0.043990 0.117961
    58 -0.033420 -1.397129 -0.019070 -0.622508 0.008329 -0.030490
    59 -0.022360 -0.957436 -0.000748 -0.948340 0.004398 -0.046105
    60 -1.180681 -2.507217 -0.193859 -0.817928 0.355478 -0.254846
    61 -0.024967 -1.123934 0.017597 -0.990583 0.004111 -0.042436
    62 -0.020057 -0.906594 0.037435 -1.203215 0.001450 -0.049317
    63 0.610855 -1.197277 0.185379 0.342983 -0.927656 -0.466842
    64 1.453893 -0.243668 0.075324 0.073450 -0.242819 -0.904700
    65 1.018737 -0.175166 0.040104 0.074529 -0.230826 -0.970947
    66 0.120153 -0.050270 -0.054489 0.287569 3.110905 1.561085
    67 -4.946693 -8.176662 -4.770960 1.159211 -4.217585 1.109325
    68 0.104757 -8.442606 -0.017178 0.070885 -0.177811 0.145998
    69 0.447953 -2.798986 -0.200443 -0.516377 0.045980 0.099611
    70 -0.032909 -1.499736 0.036191 -1.729928 0.022195 -0.036024
    71 -0.027022 -1.108171 -0.028023 -0.904795 0.020877 -0.013650
    72 -0.249534 -2.846964 -0.174213 -0.291531 0.103961 0.010600
    73 0.043235 -1.656596 0.056948 -1.803618 -0.024766 0.014538
    74 0.031729 -1.153017 0.058838 -0.789192 -0.008299 0.005316
    75 -0.963866 -2.785145 -0.085350 -0.404578 0.151837 -0.025438
    76 0.028479 -1.410880 -0.024980 -1.292811 -0.039489 -0.038291
    77 0.021413 -0.946062 0.012233 -1.015785 -0.027469 -0.034576
    78 1.164475 -2.543940 -0.170330 -0.476471 -0.073085 0.076283
    79 0.024032 -1.148574 -0.009538 -1.422645 0.029782 0.066288
    80 0.014898 -0.903521 -0.012035 -1.077230 0.011397 0.053511
    81 -0.586770 -1.264477 0.200161 -0.238045 -0.967630 -2.834243
    82 1.565805 0.039149 0.016848 -0.019971 -0.007134 0.934340
    83 1.117947 0.040611 -0.005766 -0.028587 -0.034378 1.029586
    84 -0.033927 -0.111698 0.022210 0.254138 0.099765 1.535254
    85 -5.084989 7.210221 -0.344905 1.581104 -0.018110 -1.071883
  time 4
    0 7.533154 -2.666832 -6.188106 -0.051657 -0.049618 0.544927
    1 4.065896 0.000000 0.000000 -0.534608 1.369648 -1.258235
    2 5.727315 0.000000 0.000000 0.000000 0.000000 -1.783022
    3 9.229776 0.000002 -0.000001 -1.469219 0.079351 0.013550
    4 5.023368 0.240867 -1.892860 -1.009743 1.236817 -1.150161
    5 -1.313646 -0.000004 -7.557351 0.000000 -2.960321 0.000000
    6 -1.230141 0.000000 -0.423579 0.000000 0.000000 0.000000
    7 -0.293285 1.156249 -11.923380 -1.570796 -1.570796 0.000000
    8 -0.384495 1.156249 -10.230849 -1.570796 -1.570796 0.000000
    9 -0.032454 1.523448 -8.797919 -1.570796 -1.570796 0.000000
    10 0.861015 1.523448 -7.175449 -1.570796 -1.570796 0.000000
    11 2.357821 1.484384 -5.807925 -1.531882 -1.570796 0.000000
    12 4.305367 1.410163 -4.852006 -1.570796 -1.570796 0.000000
    13 -0.528715 1.240935 -14.130713 -1.570796 -1.570796 0.000000
    14 -1.116583 1.240935 -12.661799 -1.570796 -1.570796 0.000000
    15 -1.324877 1.240935 -11.031783 -1.570796 -1.570796 0.000000
    16 -0.967184 1.240936 -9.045153 -1.570796 -1.570796 0.000000
    17 -0.342440 1.580789 -7.040544 -1.570796 -1.570796 0.000000
    18 0.919218 1.580789 -5.557764 -1.570796 -1.570796 0.000000
    19 2.415254 1.717512 -4.550376 -1.570796 -1.570796 0.000000
    20 4.017911 1.537819 -4.322865 -1.766289 -1.570329 0.000000
    21 2.631672 1.226907 4.146291 -1.570796 -1.570796 0.000000
    22 1.971862 1.449570 5.155814 -1.570796 -1.570796 0.000000
    23 1.421954 1.629263 6.272000 -1.570796 -1.570796 0.000000
    24 1.039974 1.769892 7.838477 -1.570796 -1.570796 0.000000
    25 1.075784 1.769892 9.209808 -1.570796 -1.570796 0.000000
    26 1.498324 1.652702 10.704045 -1.570796 -1.570796 0.000000
    27 2.038589 1.301128 12.114276 -1.570796 -1.570796 0.000000
    28 2.474358 1.457383 3.239715 -1.570796 -1.570796 0.000000
    29 1.432257 1.703484 4.600692 -1.570796 -1.570796 0.000000
    30 0.462638 1.648795 6.467402 -1.570796 -1.570796 0.000000
    31 0.063456 1.820677 8.487933 -1.570796 -1.570796 0.000000
    32 0.651893 1.808957 10.555390 -1.570796 -1.570796 0.000000
    33 1.602937 1.555043 12.350110 -1.570796 -1.570796 0.000000
    34 3.606761 -0.042286 2.212451 1.570796 0.181848 1.570796
    35 1.290828 0.000000 0.000000 -0.000072 1.417988 0.181761
    36 1.630795 0.000001 0.000000 0.000003 0.000000 0.000000
    37 1.878663 1.999800 0.970551 -1.570796 1.570796 0.000000
    38 1.911319 1.762200 0.860135 -1.570797 1.081573 -0.000001
    39 2.260609 1.762200 0.784943 -1.570796 1.570796 0.000000
    40 2.094463 1.762200 0.784943 -1.570796 1.206398 3.141592
    41 1.911636 1.762200 0.704861 -1.570796 0.871975 -3.141592
    42 3.347115 0.000000 6.530137 1.570797 1.349596 0.000000
    43 3.347114 0.000000 9.495782 -1.570797 1.349596 -0.000001
    44 3.347113 0.000000 12.433053 1.570796 1.349595 0.000000
    45 2.034362 2.017065 0.000001 -1.570798 0.000000 0.000000
    46 -0.262070 0.530560 0.269226 0.000001 0.000000 0.000000
    47 4.563793 -2.399776 -6.370669 -0.041035 -0.058713 0.349493
    48 6.724087 -1.947949 -5.405397 0.988087 -1.924927 -1.546003
    49 7.976135 -0.573638 -0.395908 -1.570083 -0.027621 -3.134920
    50 -0.091453 -8.455766 -0.131479 -0.092098 0.149317 -0.006352
    51 -0.488518 -2.755602 -0.228260 -0.630893 0.142055 -0.194752
    52 0.039887 -1.538386 0.022041 -1.693464 -0.009588 0.037992
    53 0.028786 -1.157765 -0.116862 -0.991854 -0.014957 0.020733
    54 0.250027 -2.820665 -0.238396 -0.314440 0.066242 -0.069001
    55 -0.049759 -1.598510 0.030164 -1.596375 -0.000551 -0.042535
    56 -0.034142 -1.167844 0.045718 -1.175350 0.006508 -0.030956
    57 0.957766 -2.746780 -0.090302 0.144164 0.043990 0.117961
    58 -0.033420 -1.397129 -0.019070 -0.512375 0.008305 -0.024929
    59 -0.022360 -0.957436 0.007065 -0.571349 0.008018 -0.027517
    60 -1.180681 -2.507217 -0.193859 -0.817928 0.355478 -0.254846
    61 -0.024967 -1.123934 0.017597 -0.990583 0.004111 -0.042436
    62 -0.020057 -0.906594 0.037435 -1.203215 0.001450 -0.049317
    63 0.610855 -1.197277 0.185379 0.342983 -0.927688 -0.466842
    64 1.453893 -0.243668 0.075324 0.073450 -0.242819 -0.904700
    65 1.018737 -0.175166 0.040104 0.074529 -0.230826 -0.970947
    66 0.120153 -0.050270 -0.054489 0.287569 3.110905 1.561085
    67 -4.938880 -8.235258 -4.614705 1.124710 -4.256297 1.070440
    68 0.104757 -8.450418 -0.017178 0.071328 -0.178883 0.115014
    69 0.447953 -2.798986 -0.200443 -0.516377 0.045980 0.099611
    70 -0.032909 -1.499736 0.036191 -1.729928 0.022195 -0.036024
    71 -0.027022 -1.108171 -0.028023 -0.904795 0.020877 -0.013650
    72 -0.249534 -2.846964 -0.174213 -0.291531 0.103961 0.010600
    73 0.043235 -1.656596 0.056948 -1.803618 -0.024766 0.014538
    74 0.031729 -1.153017 0.058838 -0.789192 -0.008299 0.005316
    75 -0.963866 -2.785145 -0.085350 -0.404578 0.151837 -0.025438
    76 0.028479 -1.410880 -0.024980 -1.292811 -0.039489 -0.038291
    77 0.021413 -0.946062 0.012233 -1.015785 -0.027469 -0.034576
    78 1.164475 -2.543940 -0.170330 -0.476471 -0.073085 0.076283
    79 0.024032 -1.148574 -0.009538 -1.422645 0.029782 0.066288
    80 0.014898 -0.903521 -0.012035 -1.077297 0.011397 0.053511
    81 -0.586770 -1.264477 0.200161 -0.238045 -0.967630 -2.834243
    82 1.565805 0.039149 0.016848 -0.019971 -0.007134 0.934340
    83 1.117947 0.040611 -0.005766 -0.028587 -0.034378 1.029586
    84 -0.033927 -0.111698 0.022210 0.254138 0.099765 1.535254
    85 -4.577161 7.569607 -0.325373 1.581463 -0.016145 -1.146898
  time 5
    0 7.533154 -2.666832 -6.188106 -0.049560 -0.051715 0.503368
    1 4.065896 0.000000 0.000000 -0.516252 1.374696 -1.205448
    2 5.727315 0.000000 0.000000 0.000000 0.000000 -1.770205
    3 9.229776 0.000002 -0.000001 -1.469597 0.078566 0.020434
    4 5.023368 0.240867 -1.892860 -1.009743 1.236817 -1.150161
    5 -1.313646 -0.000004 -7.557351 0.000000 -2.960321 0.000000
    6 -1.230141 0.000000 -0.423579 0.000000 0.000000 0.000000
    7 -0.293285 1.156249 -11.923380 -1.570796 -1.570796 0.000000
    8 -0.384495 1.156249 -10.230849 -1.570796 -1.570796 0.000000
    9 -0.032454 1.503916 -8.797919 -1.570796 -1.570796 0.000000
    10 0.861015 1.492197 -7.175449 -1.570796 -1.570796 0.000000
    11 2.357821 1.367193 -5.807925 -1.439073 -1.570796 0.000000
    12 4.305367 1.335942 -4.852006 -1.570796 -1.570796 0.000000
    13 -0.528715 1.240935 -14.130713 -1.570796 -1.570796 0.000000
    14 -1.116583 1.240935 -12.661799 -1.570796 -1.570796 0.000000
    15 -1.324877 1.240935 -11.031783 -1.570796 -1.570796 0.000000
    16 -0.967184 1.240936 -9.045153 -1.570796 -1.570796 0.000000
    17 -0.342440 1.502662 -7.040544 -1.570796 -1.570796 0.000000
    18 0.919218 1.494849 -5.557764 -1.570796 -1.570796 0.000000
    19 2.415254 1.588602 -4.550376 -1.570796 -1.570796 0.000000
    20 4.017911 1.451879 -4.322865 -1.712166 -1.570796 0.000000
    21 2.631672 1.195656 4.146291 -1.570796 -1.570796 0.000000
    22 1.971862 1.223000 5.155814 -1.570796 -1.570796 0.000000
    23 1.421954 1.332379 6.272000 -1.570796 -1.570796 0.000000
    24 1.090757 1.418319 7.838477 -1.570796 -1.570796 0.000000
    25 1.126567 1.418319 9.209808 -1.570796 -1.570796 0.000000
    26 1.498324 1.344099 10.704045 -1.570796 -1.570796 0.000000
    27 2.038589 1.258158 12.114276 -1.570796 -1.570796 0.000000
    28 2.474358 1.394881 3.239715 -1.570796 -1.570796 0.000000
    29 1.432257 1.402693 4.600692 -1.570796 -1.570796 0.000000
    30 0.575923 1.301128 6.467402 -1.570796 -1.570796 0.000000
    31 0.278306 1.406602 8.487933 -1.570796 -1.570796 0.000000
    32 0.765178 1.398788 10.555390 -1.570796 -1.570796 0.000000
    33 1.602937 1.289410 12.350110 -1.570796 -1.570796 0.000000
    34 3.606761 -0.042286 2.212451 1.570796 0.181848 1.570796
    35 1.290828 0.000000 0.000000 -0.000072 1.470307 0.181761
    36 1.630795 0.000001 0.000000 0.000003 0.000000 0.000000
    37 1.878663 1.999800 0.970551 -1.570796 1.570796 0.000000
    38 1.911319 1.762200 0.860135 -1.570797 1.081573 -0.000001
    39 2.260609 1.762200 0.784943 -1.570796 1.570796 0.000000
    40 2.094463 1.762200 0.784943 -1.570796 1.206398 3.141592
    41 1.911636 1.762200 0.704861 -1.570796 0.871975 -3.141592
    42 3.347115 0.000000 6.530137 1.570797 1.349596 0.000000
    43 3.347114 0.000000 9.495782 -1.570797 1.349596 -0.000001
    44 3.347113 0.000000 12.433053 1.570796 1.349595 0.000000
    45 2.034362 2.017065 0.000001 -1.570798 0.000000 0.000000
    46 -0.262070 0.530560 0.269226 0.000001 0.000000 0.000000
    47 4.563793 -2.399776 -6.370669 -0.041035 -0.058713 0.349493
    48 6.743619 -2.084672 -5.428835 0.965786 -1.907888 -1.529637
    49 7.987854 -0.472072 -0.392002 -1.570274 -0.027334 -3.122130
    50 -0.091453 -8.455766 -0.131479 -0.091392 0.149796 -0.013196
    51 -0.488518 -2.755602 -0.228260 -0.630893 0.142055 -0.194752
    52 0.039887 -1.538386 0.022041 -1.693464 -0.009588 0.037992
    53 0.028786 -1.157765 -0.116862 -0.991854 -0.014957 0.020733
    54 0.250027 -2.820665 -0.238396 -0.314440 0.066242 -0.069001
    55 -0.049759 -1.598510 0.030164 -1.596375 -0.000551 -0.042535
    56 -0.034142 -1.167844 0.045718 -1.175350 0.006508 -0.030956
    57 0.957766 -2.746780 -0.090302 0.144164 0.043990 0.117961
    58 -0.033420 -1.397129 -0.011257 -0.391151 0.007574 -0.018853
    59 -0.022360 -0.957436 0.018784 -0.229415 0.005153 -0.010546
    60 -1.180681 -2.507217 -0.193859 -0.817928 0.355478 -0.254846
    61 -0.024967 -1.123934 0.017597 -0.990583 0.004111 -0.042436
    62 -0.020057 -0.906594 0.037435 -1.203215 0.001450 -0.049317
    63 0.610855 -1.197277 0.185379 0.342983 -0.927688 -0.466842
    64 1.453893 -0.243668 0.075324 0.073450 -0.242819 -0.904700
    65 1.018737 -0.175166 0.040104 0.074529 -0.230826 -0.970947
    66 0.120153 -0.050270 -0.054489 0.287569 3.110905 1.561085
    67 -4.931067 -8.250883 -4.642050 1.074244 -4.300779 1.017894
    68 0.104757 -8.450418 -0.017178 0.074617 -0.186441 0.088932
    69 0.447953 -2.798986 -0.200443 -0.516377 0.045980 0.099611
    70 -0.032909 -1.499736 0.036191 -1.729928 0.022195 -0.036024
    71 -0.027022 -1.108171 -0.028023 -0.904795 0.020877 -0.013650
    72 -0.249534 -2.846964 -0.174213 -0.291531 0.103961 0.010600
    73 0.043235 -1.656596 0.056948 -1.803618 -0.024766 0.014538
    74 0.031729 -1.153017 0.058838 -0.789192 -0.008299 0.005316
    75 -0.963866 -2.785145 -0.085350 -0.404578 0.151837 -0.025438
    76 0.028479 -1.410880 -0.024980 -1.292811 -0.039489 -0.038291
    77 0.021413 -0.946062 0.012233 -1.015785 -0.027469 -0.034576
    78 1.164475 -2.543940 -0.170330 -0.476471 -0.073085 0.076283
    79 0.024032 -1.148574 -0.009538 -1.422645 0.029782 0.066288
    80 0.014898 -0.903521 -0.012035 -1.077230 0.011397 0.053511
    81 -0.586770 -1.264477 0.200161 -0.238045 -0.967630 -2.834243
    82 1.565805 0.039149 0.016848 -0.019971 -0.007134 0.934340
    83 1.117947 0.040611 -0.005766 -0.028587 -0.034378 1.029586
    84 -0.033927 -0.111698 0.022210 0.254138 0.099765 1.535254
    85 -4.221681 7.796177 -0.313654 1.581643 -0.014754 -1.198877
  time 6
    0 7.533154 -2.666832 -6.188106 -0.047390 -0.053717 0.462395
    1 4.065896 0.000000 0.000000 -0.489700 1.380516 -1.145025
    2 5.727315 0.000000 0.000000 0.000000 0.000000 -1.758777
    3 9.229776 0.000002 -0.000001 -1.469705 0.077702 0.027822
    4 5.023368 0.240867 -1.892860 -1.009743 1.236817 -1.150161
    5 -1.313646 -0.000004 -7.557351 0.000000 -2.960321 0.000000
    6 -1.230141 0.000000 -0.423579 0.000000 0.000000 0.000000
    7 -0.293285 1.156249 -11.923380 -1.570796 -1.570796 0.000000
    8 -0.384495 1.156249 -10.230849 -1.570796 -1.570796 0.000000
    9 -0.032454 1.472665 -8.797919 -1.570796 -1.570796 0.000000
    10 0.861015 1.441414 -7.175449 -1.570796 -1.570796 0.000000
    11 2.357821 1.230470 -5.807925 -1.328324 -1.570796 0.000000
    12 4.305367 1.250002 -4.852006 -1.570796 -1.570796 0.000000
    13 -0.528715 1.240935 -14.130713 -1.570796 -1.570796 0.000000
    14 -1.116583 1.240935 -12.661799 -1.570796 -1.570796 0.000000
    15 -1.324877 1.240935 -11.031783 -1.570796 -1.570796 0.000000
    16 -0.967184 1.240936 -9.045153 -1.570796 -1.570796 0.000000
    17 -0.342440 1.408909 -7.040544 -1.570796 -1.570796 0.000000
    18 0.919218 1.373752 -5.557764 -1.570796 -1.570796 0.000000
    19 2.415254 1.428441 -4.550376 -1.570796 -1.570796 0.000000
    20 4.010098 1.346407 -4.322865 -1.647581 -1.570796 0.000000
    21 2.631672 1.144873 4.146291 -1.570796 -1.570796 0.000000
    22 1.971862 0.996431 5.155814 -1.570796 -1.570796 0.000000
    23 1.421954 1.027682 6.272000 -1.570796 -1.570796 0.000000
    24 1.145446 1.058933 7.838477 -1.570796 -1.570796 0.000000
    25 1.181256 1.058933 9.209808 -1.570796 -1.570796 0.000000
    26 1.498324 1.035496 10.704045 -1.570796 -1.570796 0.000000
    27 2.038589 1.203469 12.114276 -1.570796 -1.570796 0.000000
    28 2.474358 1.312847 3.239715 -1.570796 -1.570796 0.000000
    29 1.432257 1.097997 4.600692 -1.570796 -1.570796 0.000000
    30 0.689208 0.953461 6.467402 -1.570796 -1.570796 0.000000
    31 0.497063 0.984714 8.487933 -1.570796 -1.570796 0.000000
    32 0.878463 0.984713 10.555390 -1.570796 -1.570796 0.000000
    33 1.602937 1.027683 12.350110 -1.570796 -1.570796 0.000000
    34 3.606761 -0.042286 2.212451 1.570796 0.181848 1.570796
    35 1.290828 0.000000 0.000000 -0.000072 1.527272 0.181761
    36 1.630795 0.000001 0.000000 0.000003 0.000000 0.000000
    37 1.878663 1.999800 0.970551 -1.570796 1.570796 0.000000
    38 1.911319 1.762200 0.860135 -1.570797 1.081573 -0.000001
    39 2.260609 1.762200 0.784943 -1.570796 1.570796 0.000000
    40 2.094463 1.762200 0.784943 -1.570796 1.206398 3.141592
    41 1.911636 1.762200 0.704861 -1.570796 0.871975 -3.141592
    42 3.347115 0.000000 6.530137 1.570797 1.349596 0.000000
    43 3.347114 0.000000 9.495782 -1.570797 1.349596 -0.000001
    44 3.347113 0.000000 12.433053 1.570796 1.349595 0.000000
    45 2.034362 2.017065 0.000001 -1.570798 0.000000 0.000000
    46 -0.262070 0.530560 0.269226 0.000001 0.000000 0.000000
    47 4.563793 -2.399776 -6.370669 -0.041035 -0.058713 0.349493
    48 6.767057 -2.209676 -5.444460 0.940839 -1.891060 -1.510867
    49 8.003480 -0.378319 -0.392002 -1.570370 -0.027143 -3.110655
    50 -0.091453 -8.455766 -0.131479 -0.090657 0.150009 -0.020518
    51 -0.488518 -2.755602 -0.228260 -0.630893 0.142055 -0.194752
    52 0.039887 -1.538386 0.022041 -1.693464 -0.009588 0.037992
    53 0.028786 -1.157765 -0.116862 -0.991854 -0.014957 0.020733
    54 0.250027 -2.820665 -0.238396 -0.314440 0.066242 -0.069001
    55 -0.049759 -1.598510 0.030164 -1.596375 -0.000551 -0.042535
    56 -0.034142 -1.167844 0.045718 -1.175350 0.006508 -0.030956
    57 0.957766 -2.746780 -0.090302 0.144164 0.043990 0.117961
    58 -0.033420 -1.397129 -0.011257 -0.273112 0.006160 -0.013052
    59 -0.022360 -0.957436 0.010971 -0.272359 0.005825 -0.012620
    60 -1.180681 -2.507217 -0.193859 -0.817928 0.355478 -0.254846
    61 -0.024967 -1.123934 0.017597 -0.990583 0.004111 -0.042436
    62 -0.020057 -0.906594 0.037435 -1.203215 0.001450 -0.049317
    63 0.610855 -1.197277 0.185379 0.342983 -0.927688 -0.466842
    64 1.453893 -0.243668 0.075324 0.073450 -0.242819 -0.904700
    65 1.018737 -0.175166 0.040104 0.074529 -0.230826 -0.970947
    66 0.120153 -0.050270 -0.054489 0.287569 3.110905 1.561085
    67 -4.923255 -8.266509 -4.653769 1.010129 -4.344859 0.951780
    68 0.104757 -8.450418 -0.017178 0.077759 -0.194724 0.062098
    69 0.447953 -2.798986 -0.200443 -0.516377 0.045980 0.099611
    70 -0.032909 -1.499736 0.036191 -1.729928 0.022195 -0.036024
    71 -0.027022 -1.108171 -0.028023 -0.904795 0.020877 -0.013650
    72 -0.249534 -2.846964 -0.174213 -0.291531 0.103961 0.010600
    73 0.043235 -1.656596 0.056948 -1.803618 -0.024766 0.014538
    74 0.031729 -1.153017 0.058838 -0.789192 -0.008299 0.005316
    75 -0.963866 -2.785145 -0.085350 -0.404578 0.151837 -0.025438
    76 0.028479 -1.410880 -0.024980 -1.292811 -0.039489 -0.038291
    77 0.021413 -0.946062 0.012233 -1.015785 -0.027469 -0.034576
    78 1.164475 -2.543940 -0.170330 -0.476471 -0.073085 0.076283
    79 0.024032 -1.148574 -0.009538 -1.422645 0.029782 0.066288
    80 0.014898 -0.903521 -0.012035 -1.077230 0.011397 0.053511
    81 -0.586770 -1.264477 0.200161 -0.238045 -0.967630 -2.834243
    82 1.565805 0.039149 0.016848 -0.019971 -0.007134 0.934340
    83 1.117947 0.040611 -0.005766 -0.028587 -0.034378 1.029586
    84 -0.033927 -0.111698 0.022210 0.254138 0.099765 1.535254
    85 -3.827138 8.018840 -0.301935 1.581751 -0.013316 -1.252914
  time 7
    0 7.533154 -2.666832 -6.188106 -0.045701 -0.055167 0.431226
    1 4.065896 0.000000 0.000000 -0.451026 1.386646 -1.080755
    2 5.727315 0.000000 0.000000 0.000000 0.000000 -1.753620
    3 9.229776 0.000002 -0.000001 -1.468597 0.076720 0.036446
    4 5.023368 0.240867 -1.892860 -1.009743 1.236817 -1.150161
    5 -1.313646 -0.000004 -7.557351 0.000000 -2.960321 0.000000
    6 -1.230141 0.000000 -0.423579 0.000000 0.000000 0.000000
    7 -0.293285 1.156249 -11.923380 -1.570796 -1.570796 0.000000
    8 -0.384495 1.156249 -10.230849 -1.570796 -1.570796 0.000000
    9 -0.032454 1.437508 -8.797919 -1.570796 -1.570796 0.000000
    10 0.861015 1.386725 -7.175449 -1.570796 -1.570796 0.000000
    11 2.357821 1.124998 -5.807925 -1.235503 -1.570796 0.000000
    12 4.305367 1.183594 -4.852006 -1.570796 -1.570796 0.000000
    13 -0.528715 1.240935 -14.130713 -1.570796 -1.570796 0.000000
    14 -1.116583 1.240935 -12.661799 -1.570796 -1.570796 0.000000
    15 -1.324877 1.240935 -11.031783 -1.570796 -1.570796 0.000000
    16 -0.967184 1.240936 -9.045153 -1.570796 -1.570796 0.000000
    17 -0.342440 1.346407 -7.040544 -1.570796 -1.570796 0.000000
    18 0.919218 1.240935 -5.557764 -1.570796 -1.570796 0.000000
    19 2.415254 1.268280 -4.550376 -1.570796 -1.570796 0.000000
    20 4.010098 1.260467 -4.322865 -1.593483 -1.570796 0.000000
    21 2.631672 1.090184 4.146291 -1.570796 -1.570796 0.000000
    22 1.971862 0.902678 5.155814 -1.570796 -1.570796 0.000000
    23 1.421954 0.902678 6.272000 -1.570796 -1.570796 0.000000
    24 1.164978 0.902678 7.838477 -1.570796 -1.570796 0.000000
    25 1.200788 0.902678 9.209808 -1.570796 -1.570796 0.000000
    26 1.498324 0.902679 10.704045 -1.570796 -1.570796 0.000000
    27 2.038589 1.133154 12.114276 -1.570796 -1.570796 0.000000
    28 2.474358 1.215188 3.239715 -1.570796 -1.570796 0.000000
    29 1.432257 0.961274 4.600692 -1.570796 -1.570796 0.000000
    30 0.732178 0.808925 6.467402 -1.570796 -1.570796 0.000000
    31 0.590816 0.805021 8.487933 -1.570796 -1.570796 0.000000
    32 0.921433 0.805020 10.555390 -1.570796 -1.570796 0.000000
    33 1.602937 0.914398 12.350110 -1.570796 -1.570796 0.000000
    34 3.606761 -0.042286 2.212451 1.570796 0.181848 1.570796
    35 1.290828 0.000000 0.000000 -0.000072 1.579552 0.181761
    36 1.630795 0.000001 0.000000 0.000003 0.000000 0.000000
    37 1.878663 1.999800 0.970551 -1.570796 1.570796 0.000000
    38 1.911319 1.762200 0.860135 -1.570797 1.081573 -0.000001
    39 2.260609 1.762200 0.784943 -1.570796 1.570796 0.000000
    40 2.094463 1.762200 0.784943 -1.570796 1.206398 3.141592
    41 1.911636 1.762200 0.704861 -1.570796 0.871975 -3.141592
    42 3.347115 0.000000 6.530137 1.570797 1.349596 0.000000
    43 3.347114 0.000000 9.495782 -1.570797 1.349596 -0.000001
    44 3.347113 0.000000 12.433053 1.570796 1.349595 0.000000
    45 2.034362 2.017065 0.000001 -1.570798 0.000000 0.000000
    46 -0.262070 0.530560 0.269226 0.000001 0.000000 0.000000
    47 4.563793 -2.399776 -6.370669 -0.041035 -0.058713 0.349493
    48 6.790495 -2.287803 -5.460086 0.920428 -1.878071 -1.495241
    49 8.011292 -0.339256 -0.392002 -1.570370 -0.027143 -3.105539
    50 -0.091453 -8.447954 -0.131479 -0.089804 0.149078 -0.028914
    51 -0.488518 -2.755602 -0.228260 -0.630893 0.142055 -0.194752
    52 0.039887 -1.538386 0.022041 -1.693464 -0.009588 0.037992
    53 0.028786 -1.157765 -0.116862 -0.991854 -0.014957 0.020733
    54 0.250027 -2.820665 -0.238396 -0.314440 0.066242 -0.069001
    55 -0.049759 -1.598510 0.030164 -1.596375 -0.000551 -0.042535
    56 -0.034142 -1.167844 0.045718 -1.175350 0.006508 -0.030956
    57 0.957766 -2.746780 -0.090302 0.144164 0.043990 0.117961
    58 -0.033420 -1.397129 -0.011257 -0.189057 0.004758 -0.009049
    59 -0.022360 -0.957436 0.010971 -0.400820 0.007323 -0.018936
    60 -1.180681 -2.507217 -0.193859 -0.817928 0.355478 -0.254846
    61 -0.024967 -1.123934 0.017597 -0.990583 0.004111 -0.042436
    62 -0.020057 -0.906594 0.037435 -1.203215 0.001450 -0.049317
    63 0.610855 -1.197277 0.185379 0.342983 -0.927688 -0.466842
    64 1.453893 -0.243668 0.075324 0.073450 -0.242819 -0.904700
    65 1.018737 -0.175166 0.040104 0.074529 -0.230826 -0.970947
    66 0.120153 -0.050270 -0.054489 0.287569 3.110905 1.561085
    67 -4.919348 -8.270415 -4.692833 0.948783 -4.377868 0.889581
    68 0.104757 -8.450418 -0.017178 0.080309 -0.203267 0.043065
    69 0.447953 -2.798986 -0.200443 -0.516377 0.045980 0.099611
    70 -0.032909 -1.499736 0.036191 -1.729928 0.022195 -0.036024
    71 -0.027022 -1.108171 -0.028023 -0.904795 0.020877 -0.013650
    72 -0.249534 -2.846964 -0.174213 -0.291531 0.103961 0.010600
    73 0.043235 -1.656596 0.056948 -1.803618 -0.024766 0.014538
    74 0.031729 -1.153017 0.058838 -0.789192 -0.008299 0.005316
    75 -0.963866 -2.785145 -0.085350 -0.404578 0.151837 -0.025438
    76 0.028479 -1.410880 -0.024980 -1.292811 -0.039489 -0.038291
    77 0.021413 -0.946062 0.012233 -1.015785 -0.027469 -0.034576
    78 1.164475 -2.543940 -0.170330 -0.476471 -0.073085 0.076283
    79 0.024032 -1.148574 -0.009538 -1.422645 0.029782 0.066288
    80 0.014898 -0.903521 -0.012035 -1.077230 0.011397 0.053511
    81 -0.586770 -1.264477 0.200161 -0.238045 -0.967630 -2.834243
    82 1.565805 0.039149 0.016848 -0.019971 -0.007134 0.934340
    83 1.117947 0.040611 -0.005766 -0.028587 -0.034378 1.029586
    84 -0.033927 -0.111698 0.022210 0.254138 0.099765 1.535254
    85 -3.557599 8.155563 -0.298029 1.581775 -0.012322 -1.290421
  time 8
    0 7.533154 -2.666832 -6.188106 -0.045053 -0.055670 0.419824
    1 4.065896 0.000000 0.000000 -0.423843 1.389891 -1.043840
    2 5.727315 0.000000 0.000000 0.000000 0.000000 -1.756440
    3 9.229776 0.000002 -0.000001 -1.466058 0.075581 0.047213
    4 5.023368 0.240867 -1.892860 -1.009743 1.236817 -1.150161
    5 -1.313646 -0.000004 -7.557351 0.000000 -2.960321 0.000000
    6 -1.230141 0.000000 -0.423579 0.000000 0.000000 0.000000
    7 -0.293285 1.156249 -11.923380 -1.570796 -1.570796 0.000000
    8 -0.384495 1.156249 -10.230849 -1.570796 -1.570796 0.000000
    9 -0.032454 1.394538 -8.797919 -1.570796 -1.570796 0.000000
    10 0.861015 1.332036 -7.175449 -1.570796 -1.570796 0.000000
    11 2.357821 1.074215 -5.807925 -1.196589 -1.570796 0.000000
    12 4.305367 1.156249 -4.852006 -1.570796 -1.570796 0.000000
    13 -0.528715 1.240935 -14.130713 -1.570796 -1.570796 0.000000
    14 -1.116583 1.240935 -12.661799 -1.570796 -1.570796 0.000000
    15 -1.324877 1.240935 -11.031783 -1.570796 -1.570796 0.000000
    16 -0.967184 1.240936 -9.045153 -1.570796 -1.570796 0.000000
    17 -0.342440 1.322969 -7.040544 -1.570796 -1.570796 0.000000
    18 0.919218 1.127650 -5.557764 -1.570796 -1.570796 0.000000
    19 2.415254 1.147182 -4.550376 -1.570796 -1.570796 0.000000
    20 4.010098 1.225309 -4.322865 -1.570796 -1.570796 0.000000
    21 2.631672 1.043307 4.146291 -1.570796 -1.570796 0.000000
    22 1.971862 0.910491 5.155814 -1.570796 -1.570796 0.000000
    23 1.421954 0.910491 6.272000 -1.570796 -1.570796 0.000000
    24 1.164978 0.910491 7.838477 -1.570796 -1.570796 0.000000
    25 1.200788 0.910491 9.209808 -1.570796 -1.570796 0.000000
    26 1.498324 0.910492 10.704045 -1.570796 -1.570796 0.000000
    27 2.038589 1.066746 12.114276 -1.570796 -1.570796 0.000000
    28 2.474358 1.113622 3.239715 -1.570796 -1.570796 0.000000
    29 1.432257 0.953461 4.600692 -1.570796 -1.570796 0.000000
    30 0.732178 0.828457 6.467402 -1.570796 -1.570796 0.000000
    31 0.590816 0.828459 8.487933 -1.570796 -1.570796 0.000000
    32 0.921433 0.828458 10.555390 -1.570796 -1.570796 0.000000
    33 1.602937 0.922211 12.350110 -1.570796 -1.570796 0.000000
    34 3.606761 -0.042286 2.212451 1.570796 0.181848 1.570796
    35 1.290828 0.000000 0.000000 -0.000072 1.617819 0.181761
    36 1.630795 0.000001 0.000000 0.000003 0.000000 0.000000
    37 1.878663 1.999800 0.970551 -1.570796 1.570796 0.000000
    38 1.911319 1.762200 0.860135 -1.570797 1.081573 -0.000001
    39 2.260609 1.762200 0.784943 -1.570796 1.570796 0.000000
    40 2.094463 1.762200 0.784943 -1.570796 1.206398 3.141592
    41 1.911636 1.762200 0.704861 -1.570796 0.871975 -3.141592
    42 3.347115 0.000000 6.530137 1.570797 1.349596 0.000000
    43 3.347114 0.000000 9.495782 -1.570797 1.349596 -0.000001
    44 3.347113 0.000000 12.433053 1.570796 1.349595 0.000000
    45 2.034362 2.017065 0.000001 -1.570798 0.000000 0.000000
    46 -0.262070 0.530560 0.269226 0.000001 0.000000 0.000000
    47 4.563793 -2.399776 -6.370669 -0.041035 -0.058713 0.349493
    48 6.798308 -2.307335 -5.463992 0.916459 -1.875139 -1.493300
    49 8.007386 -0.362694 -0.392002 -1.570370 -0.027143 -3.108389
    50 -0.091453 -8.447954 -0.131479 -0.088775 0.146657 -0.039420
    51 -0.488518 -2.755602 -0.228260 -0.630893 0.142055 -0.194752
    52 0.039887 -1.538386 0.022041 -1.693464 -0.009588 0.037992
    53 0.028786 -1.157765 -0.116862 -0.991854 -0.014957 0.020733
    54 0.250027 -2.820665 -0.238396 -0.314440 0.066242 -0.069001
    55 -0.049759 -1.598510 0.030164 -1.596375 -0.000551 -0.042535
    56 -0.034142 -1.167844 0.045718 -1.175350 0.006508 -0.030956
    57 0.957766 -2.746780 -0.090302 0.144164 0.043990 0.117961
    58 -0.033420 -1.397129 -0.011257 -0.171091 0.004398 -0.008210
    59 -0.022360 -0.957436 0.010971 -0.416022 0.007430 -0.019691
    60 -1.180681 -2.507217 -0.193859 -0.817928 0.355478 -0.254846
    61 -0.024967 -1.123934 0.017597 -0.990583 0.004111 -0.042436
    62 -0.020057 -0.906594 0.037435 -1.203215 0.001450 -0.049317
    63 0.610855 -1.197277 0.185379 0.342983 -0.927688 -0.466842
    64 1.453893 -0.243668 0.075324 0.073450 -0.242819 -0.904700
    65 1.018737 -0.175166 0.040104 0.074529 -0.230826 -0.970947
    66 0.120153 -0.050270 -0.054489 0.287569 3.110905 1.561085
    67 -4.911536 -8.270415 -4.724084 0.918715 -4.391287 0.860713
    68 0.104757 -8.454325 -0.017178 0.081122 -0.210652 0.037269
    69 0.447953 -2.798986 -0.200443 -0.516377 0.045980 0.099611
    70 -0.032909 -1.499736 0.036191 -1.729928 0.022195 -0.036024
    71 -0.027022 -1.108171 -0.028023 -0.904795 0.020877 -0.013650
    72 -0.249534 -2.846964 -0.174213 -0.291531 0.103961 0.010600
    73 0.043235 -1.656596 0.056948 -1.803618 -0.024766 0.014538
    74 0.031729 -1.153017 0.058838 -0.789192 -0.008299 0.005316
    75 -0.963866 -2.785145 -0.085350 -0.404578 0.151837 -0.025438
    76 0.028479 -1.410880 -0.024980 -1.292811 -0.039489 -0.038291
    77 0.021413 -0.946062 0.012233 -1.015785 -0.027469 -0.034576
    78 1.164475 -2.543940 -0.170330 -0.476471 -0.073085 0.076283
    79 0.024032 -1.148574 -0.009538 -1.422645 0.029782 0.066288
    80 0.014898 -0.903521 -0.012035 -1.077230 0.011397 0.053511
    81 -0.586770 -1.264477 0.200161 -0.238045 -0.967630 -2.834243
    82 1.565805 0.039149 0.016848 -0.019971 -0.007134 0.934340
    83 1.117947 0.040611 -0.005766 -0.028587 -0.034378 1.029586
    84 -0.033927 -0.111698 0.022210 0.254138 0.099765 1.535254
    85 -3.456033 8.198533 -0.290216 1.581775 -0.011974 -1.303300
  time 9
    0 7.533154 -2.666832 -6.188106 -0.044898 -0.055814 0.416734
    1 4.065896 0.000000 0.000000 -0.398481 1.392105 -1.015763
    2 5.727315 0.000000 0.000000 0.000000 0.000000 -1.762965
    3 9.229776 0.000002 -0.000001 -1.462816 0.074324 0.058258
    4 5.023368 0.240867 -1.892860 -1.009743 1.236817 -1.150161
    5 -1.313646 -0.000004 -7.557351 0.000000 -2.960321 0.000000
    6 -1.230141 0.000000 -0.423579 0.000000 0.000000 0.000000
    7 -0.293285 1.156249 -11.923380 -1.570796 -1.570796 0.000000
    8 -0.384495 1.156249 -10.230849 -1.570796 -1.570796 0.000000
    9 -0.032454 1.343755 -8.797919 -1.570796 -1.570796 0.000000
    10 0.861015 1.281253 -7.175449 -1.570796 -1.570796 0.000000
    11 2.357821 1.082028 -5.807925 -1.217322 -1.570796 0.000000
    12 4.305367 1.156249 -4.852006 -1.570796 -1.570796 0.000000
    13 -0.528715 1.240935 -14.130713 -1.570796 -1.570796 0.000000
    14 -1.116583 1.240935 -12.661799 -1.570796 -1.570796 0.000000
    15 -1.324877 1.240935 -11.031783 -1.570796 -1.570796 0.000000
    16 -0.967184 1.240936 -9.045153 -1.570796 -1.570796 0.000000
    17 -0.342440 1.299531 -7.040544 -1.570796 -1.570796 0.000000
    18 0.919218 1.033897 -5.557764 -1.570796 -1.570796 0.000000
    19 2.415254 1.096399 -4.550376 -1.570796 -1.570796 0.000000
    20 4.010098 1.233122 -4.322865 -1.570796 -1.570796 0.000000
    21 2.631672 0.992525 4.146291 -1.570796 -1.570796 0.000000
    22 1.971862 0.926116 5.155814 -1.570796 -1.570796 0.000000
    23 1.421954 0.926116 6.272000 -1.570796 -1.570796 0.000000
    24 1.164978 0.926116 7.838477 -1.570796 -1.570796 0.000000
    25 1.200788 0.926116 9.209808 -1.570796 -1.570796 0.000000
    26 1.498324 0.926117 10.704045 -1.570796 -1.570796 0.000000
    27 2.038589 1.004244 12.114276 -1.570796 -1.570796 0.000000
    28 2.474358 1.035495 3.239715 -1.570796 -1.570796 0.000000
    29 1.432257 0.953461 4.600692 -1.570796 -1.570796 0.000000
    30 0.732178 0.879240 6.467402 -1.570796 -1.570796 0.000000
    31 0.590816 0.879242 8.487933 -1.570796 -1.570796 0.000000
    32 0.921433 0.879241 10.555390 -1.570796 -1.570796 0.000000
    33 1.602937 0.933930 12.350110 -1.570796 -1.570796 0.000000
    34 3.606761 -0.042286 2.212451 1.570796 0.181848 1.570796
    35 1.290828 0.000000 0.000000 -0.000072 1.632663 0.181761
    36 1.630795 0.000001 0.000000 0.000003 0.000000 0.000000
    37 1.878663 1.999800 0.970551 -1.570796 1.570796 0.000000
    38 1.911319 1.762200 0.860135 -1.570797 1.081573 -0.000001
    39 2.260609 1.762200 0.784943 -1.570796 1.570796 0.000000
    40 2.094463 1.762200 0.784943 -1.570796 1.206398 3.141592
    41 1.911636 1.762200 0.704861 -1.570796 0.871975 -3.141592
    42 3.347115 0.000000 6.530137 1.570797 1.349596 0.000000
    43 3.347114 0.000000 9.495782 -1.570797 1.349596 -0.000001
    44 3.347113 0.000000 12.433053 1.570796 1.349595 0.000000
    45 2.034362 2.017065 0.000001 -1.570798 0.000000 0.000000
    46 -0.262070 0.530560 0.269226 0.000001 0.000000 0.000000
    47 4.563793 -2.399776 -6.370669 -0.041035 -0.058713 0.349493
    48 6.813933 -2.295616 -5.463992 0.919861 -1.876046 -1.497275
    49 7.999573 -0.413477 -0.392002 -1.570274 -0.027334 -3.114821
    50 -0.091453 -8.444047 -0.131479 -0.087716 0.143651 -0.050084
    51 -0.488518 -2.755602 -0.228260 -0.630893 0.142055 -0.194752
    52 0.039887 -1.538386 0.022041 -1.693464 -0.009588 0.037992
    53 0.028786 -1.157765 -0.116862 -0.991854 -0.014957 0.020733
    54 0.250027 -2.820665 -0.238396 -0.314440 0.066242 -0.069001
    55 -0.049759 -1.598510 0.030164 -1.596375 -0.000551 -0.042535
    56 -0.034142 -1.167844 0.045718 -1.175350 0.006508 -0.030956
    57 0.957766 -2.746780 -0.090302 0.144164 0.043990 0.117961
    58 -0.033420 -1.397129 -0.011257 -0.180074 0.004578 -0.008642
    59 -0.022360 -0.957436 0.010971 -0.408438 0.007383 -0.019307
    60 -1.180681 -2.507217 -0.193859 -0.817928 0.355478 -0.254846
    61 -0.024967 -1.123934 0.017597 -0.990583 0.004111 -0.042436
    62 -0.020057 -0.906594 0.037435 -1.203215 0.001450 -0.049317
    63 0.610855 -1.197277 0.185379 0.342983 -0.927688 -0.466842
    64 1.453893 -0.243668 0.075324 0.073450 -0.242819 -0.904700
    65 1.018737 -0.175166 0.040104 0.074529 -0.230826 -0.970947
    66 0.120153 -0.050270 -0.054489 0.287569 3.110905 1.561085
    67 -4.903723 -8.258696 -4.770960 0.907736 -4.395648 0.852062
    68 0.104757 -8.454325 -0.009365 0.081380 -0.217283 0.038270
    69 0.447953 -2.798986 -0.200443 -0.516377 0.045980 0.099611
    70 -0.032909 -1.499736 0.036191 -1.729928 0.022195 -0.036024
    71 -0.027022 -1.108171 -0.028023 -0.904795 0.020877 -0.013650
    72 -0.249534 -2.846964 -0.174213 -0.291531 0.103961 0.010600
    73 0.043235 -1.656596 0.056948 -1.803618 -0.024766 0.014538
    74 0.031729 -1.153017 0.058838 -0.789192 -0.008299 0.005316
    75 -0.963866 -2.785145 -0.085350 -0.404578 0.151837 -0.025438
    76 0.028479 -1.410880 -0.024980 -1.292811 -0.039489 -0.038291
    77 0.021413 -0.946062 0.012233 -1.015785 -0.027469 -0.034576
    78 1.164475 -2.543940 -0.170330 -0.476471 -0.073085 0.076283
    79 0.024032 -1.148574 -0.009538 -1.422645 0.029782 0.066288
    80 0.014898 -0.903521 -0.012035 -1.077230 0.011397 0.053511
    81 -0.586770 -1.264477 0.200161 -0.238045 -0.967630 -2.834243
    82 1.565805 0.039149 0.016848 -0.019971 -0.007134 0.934340
    83 1.117947 0.040611 -0.005766 -0.028587 -0.034378 1.029586
    84 -0.033927 -0.111698 0.022210 0.254138 0.099765 1.535254
    85 -3.467752 8.194626 -0.290216 1.581775 -0.012010 -1.301773
  time 10
    0 7.533154 -2.666832 -6.188106 -0.044910 -0.055802 0.416787
    1 4.065896 0.000000 0.000000 -0.374731 1.393934 -0.991714
    2 5.727315 0.000000 0.000000 0.000000 0.000000 -1.770163
    3 9.229776 0.000002 -0.000001 -1.460142 0.073735 0.063301
    4 5.023368 0.240867 -1.892860 -1.009743 1.236817 -1.150161
    5 -1.313646 -0.000004 -7.557351 0.000000 -2.960321 0.000000
    6 -1.230141 0.000000 -0.423579 0.000000 0.000000 0.000000
    7 -0.293285 1.156249 -11.923380 -1.570796 -1.570796 0.000000
    8 -0.384495 1.156249 -10.230849 -1.570796 -1.570796 0.000000
    9 -0.032454 1.292972 -8.797919 -1.570796 -1.570796 0.000000
    10 0.861015 1.238283 -7.175449 -1.570796 -1.570796 0.000000
    11 2.357821 1.093747 -5.807925 -1.270786 -1.570796 0.000000
    12 4.305367 1.156249 -4.852006 -1.570796 -1.570796 0.000000
    13 -0.528715 1.240935 -14.130713 -1.570796 -1.570796 0.000000
    14 -1.116583 1.240935 -12.661799 -1.570796 -1.570796 0.000000
    15 -1.324877 1.240935 -11.031783 -1.570796 -1.570796 0.000000
    16 -0.967184 1.240936 -9.045153 -1.570796 -1.570796 0.000000
    17 -0.342440 1.279999 -7.040544 -1.570796 -1.570796 0.000000
    18 0.919218 0.998740 -5.557764 -1.570796 -1.570796 0.000000
    19 2.415254 1.108118 -4.550376 -1.570796 -1.570796 0.000000
    20 4.010098 1.233122 -4.322865 -1.570796 -1.570796 0.000000
    21 2.631672 0.961274 4.146291 -1.570796 -1.570796 0.000000
    22 1.971862 0.945648 5.155814 -1.570796 -1.570796 0.000000
    23 1.421954 0.945648 6.272000 -1.570796 -1.570796 0.000000
    24 1.164978 0.945648 7.838477 -1.570796 -1.570796 0.000000
    25 1.200788 0.945648 9.209808 -1.570796 -1.570796 0.000000
    26 1.498324 0.945649 10.704045 -1.570796 -1.570796 0.000000
    27 2.038589 0.965180 12.114276 -1.570796 -1.570796 0.000000
    28 2.474358 0.972993 3.239715 -1.570796 -1.570796 0.000000
    29 1.432257 0.953461 4.600692 -1.570796 -1.570796 0.000000
    30 0.732178 0.933929 6.467402 -1.570796 -1.570796 0.000000
    31 0.590816 0.933931 8.487933 -1.570796 -1.570796 0.000000
    32 0.921433 0.933930 10.555390 -1.570796 -1.570796 0.000000
    33 1.602937 0.953462 12.350110 -1.570796 -1.570796 0.000000
    34 3.606761 -0.042286 2.212451 1.570796 0.181848 1.570796
    35 1.290828 0.000000 0.000000 -0.116376 1.628097 0.065415
    36 1.630795 0.000001 0.000000 0.000003 0.000000 0.000000
    37 1.878663 1.999800 0.970551 -1.570796 1.570796 0.000000
    38 1.911319 1.762200 0.860135 -1.570797 1.081573 -0.000001
    39 2.260609 1.762200 0.784943 -1.570796 1.570796 0.000000
    40 2.094463 1.762200 0.784943 -1.570796 1.206398 3.141592
    41 1.911636 1.762200 0.704861 -1.570796 0.871975 -3.141592
    42 3.347115 0.000000 6.530137 1.570797 1.349596 0.000000
    43 3.347114 0.000000 9.495782 -1.570797 1.349596 -0.000001
    44 3.347113 0.000000 12.433053 1.570796 1.349595 0.000000
    45 2.034362 2.017065 0.000001 -1.570798 0.000000 0.000000
    46 -0.262070 0.530560 0.269226 0.000001 0.000000 0.000000
    47 4.563793 -2.399776 -6.370669 -0.041035 -0.058713 0.349493
    48 6.829559 -2.268271 -5.463992 0.924775 -1.878211 -1.502638
    49 7.987854 -0.472072 -0.392002 -1.570274 -0.027334 -3.122057
    50 -0.091453 -8.444047 -0.131479 -0.087157 0.140991 -0.054899
    51 -0.488518 -2.755602 -0.228260 -0.630893 0.142055 -0.194752
    52 0.039887 -1.538386 0.022041 -1.693464 -0.009588 0.037992
    53 0.028786 -1.157765 -0.116862 -0.991854 -0.014957 0.020733
    54 0.250027 -2.820665 -0.238396 -0.314440 0.066242 -0.069001
    55 -0.049759 -1.598510 0.030164 -1.596375 -0.000551 -0.042535
    56 -0.034142 -1.167844 0.045718 -1.175350 0.006508 -0.030956
    57 0.957766 -2.746780 -0.090302 0.144164 0.043990 0.117961
    58 -0.033420 -1.397129 -0.011257 -0.189057 0.004758 -0.009049
    59 -0.022360 -0.957436 0.010971 -0.400820 0.007323 -0.018936
    60 -1.180681 -2.507217 -0.193859 -0.817928 0.355478 -0.254846
    61 -0.024967 -1.123934 0.017597 -0.990583 0.004111 -0.042436
    62 -0.020057 -0.906594 0.037435 -1.203215 0.001450 -0.049317
    63 0.610855 -1.197277 0.185379 0.342983 -0.927688 -0.466842
    64 1.453893 -0.243668 0.075324 0.073450 -0.242819 -0.904700
    65 1.018737 -0.175166 0.040104 0.074529 -0.230826 -0.970947
    66 0.120153 -0.050270 -0.054489 0.287569 3.110905 1.561085
    67 -4.895910 -8.250883 -4.813930 0.915693 -4.392092 0.861806
    68 0.104757 -8.450418 -0.009365 0.081898 -0.220556 0.043351
    69 0.447953 -2.798986 -0.200443 -0.516377 0.045980 0.099611
    70 -0.032909 -1.499736 0.036191 -1.729928 0.022195 -0.036024
    71 -0.027022 -1.108171 -0.028023 -0.904795 0.020877 -0.013650
    72 -0.249534 -2.846964 -0.174213 -0.291531 0.103961 0.010600
    73 0.043235 -1.656596 0.056948 -1.803618 -0.024766 0.014538
    74 0.031729 -1.153017 0.058838 -0.789192 -0.008299 0.005316
    75 -0.963866 -2.785145 -0.085350 -0.404578 0.151837 -0.025438
    76 0.028479 -1.410880 -0.024980 -1.292811 -0.039489 -0.038291
    77 0.021413 -0.946062 0.012233 -1.015785 -0.027469 -0.034576
    78 1.164475 -2.543940 -0.170330 -0.476471 -0.073085 0.076283
    79 0.024032 -1.148574 -0.009538 -1.422645 0.029782 0.066288
    80 0.014898 -0.903521 -0.012035 -1.077230 0.011397 0.053511
    81 -0.586770 -1.264477 0.200161 -0.238045 -0.967630 -2.834243
    82 1.565805 0.039149 0.016848 -0.019971 -0.007134 0.934340
    83 1.117947 0.040611 -0.005766 -0.028587 -0.034378 1.029586
    84 -0.033927 -0.111698 0.022210 0.254138 0.099765 1.535254
    85 -3.561505 8.151656 -0.298029 1.581775 -0.012370 -1.289027
  time 11
    0 7.533154 -2.666832 -6.188106 -0.044982 -0.055742 0.418332
    1 4.065896 0.000000 0.000000 -0.348458 1.395634 -0.966583
    2 5.727315 0.000000 0.000000 0.000000 0.000000 -1.778055
    3 9.229776 0.000002 -0.000001 -1.457899 0.074010 0.060578
    4 5.023368 0.240867 -1.892860 -1.009743 1.236817 -1.150161
    5 -1.313646 -0.000004 -7.557351 0.000000 -2.960321 0.000000
    6 -1.230141 0.000000 -0.423579 0.000000 0.000000 0.000000
    7 -0.293285 1.156249 -11.923380 -1.570796 -1.570796 0.000000
    8 -0.384495 1.156249 -10.230849 -1.570796 -1.570796 0.000000
    9 -0.032454 1.250002 -8.797919 -1.570796 -1.570796 0.000000
    10 0.861015 1.214845 -7.175449 -1.570796 -1.570796 0.000000
    11 2.357821 1.105466 -5.807925 -1.343880 -1.570796 0.000000
    12 4.305367 1.156249 -4.852006 -1.570796 -1.570796 0.000000
    13 -0.528715 1.240935 -14.130713 -1.570796 -1.570796 0.000000
    14 -1.116583 1.240935 -12.661799 -1.570796 -1.570796 0.000000
    15 -1.324877 1.240935 -11.031783 -1.570796 -1.570796 0.000000
    16 -0.967184 1.240936 -9.045153 -1.570796 -1.570796 0.000000
    17 -0.342440 1.260467 -7.040544 -1.570796 -1.570796 0.000000
    18 0.919218 1.029991 -5.557764 -1.570796 -1.570796 0.000000
    19 2.415254 1.135463 -4.550376 -1.570796 -1.570796 0.000000
    20 4.010098 1.233122 -4.322865 -1.570796 -1.570796 0.000000
    21 2.631672 0.953461 4.146291 -1.570796 -1.570796 0.000000
    22 1.971862 0.953461 5.155814 -1.570796 -1.570796 0.000000
    23 1.421954 0.953461 6.272000 -1.570796 -1.570796 0.000000
    24 1.164978 0.953461 7.838477 -1.570796 -1.570796 0.000000
    25 1.200788 0.953461 9.209808 -1.570796 -1.570796 0.000000
    26 1.498324 0.953462 10.704045 -1.570796 -1.570796 0.000000
    27 2.038589 0.953461 12.114276 -1.570796 -1.570796 0.000000
    28 2.474358 0.953461 3.239715 -1.570796 -1.570796 0.000000
    29 1.432257 0.953461 4.600692 -1.570796 -1.570796 0.000000
    30 0.732178 0.953461 6.467402 -1.570796 -1.570796 0.000000
    31 0.590816 0.953463 8.487933 -1.570796 -1.570796 0.000000
    32 0.921433 0.953462 10.555390 -1.570796 -1.570796 0.000000
    33 1.602937 0.953462 12.350110 -1.570796 -1.570796 0.000000
    34 3.606761 -0.042286 2.212451 1.570796 0.181848 1.570796
    35 1.290828 0.000000 0.000000 -0.407208 1.616633 -0.225308
    36 1.630795 0.000001 0.000000 0.000003 0.000000 0.000000
    37 1.878663 1.999800 0.970551 -1.570796 1.570796 0.000000
    38 1.911319 1.762200 0.860135 -1.570797 1.081573 -0.000001
    39 2.260609 1.762200 0.784943 -1.570796 1.570796 0.000000
    40 2.094463 1.762200 0.784943 -1.570796 1.206398 3.141592
    41 1.911636 1.762200 0.704861 -1.570796 0.871975 -3.141592
    42 3.347115 0.000000 6.530137 1.570797 1.349596 0.000000
    43 3.347114 0.000000 9.495782 -1.570797 1.349596 -0.000001
    44 3.347113 0.000000 12.433053 1.570796 1.349595 0.000000
    45 2.034362 2.017065 0.000001 -1.570798 0.000000 0.000000
    46 -0.262070 0.530560 0.269226 0.000001 0.000000 0.000000
    47 4.563793 -2.399776 -6.370669 -0.041035 -0.058713 0.349493
    48 6.841278 -2.237020 -5.463992 0.930161 -1.880515 -1.508093
    49 7.980041 -0.534574 -0.395908 -1.570179 -0.027429 -3.129950
    50 -0.091453 -8.444047 -0.131479 -0.087422 0.138783 -0.052074
    51 -0.488518 -2.755602 -0.228260 -0.630893 0.142055 -0.194752
    52 0.039887 -1.538386 0.022041 -1.693464 -0.009588 0.037992
    53 0.028786 -1.157765 -0.116862 -0.991854 -0.014957 0.020733
    54 0.250027 -2.820665 -0.238396 -0.314440 0.066242 -0.069001
    55 -0.049759 -1.598510 0.030164 -1.596375 -0.000551 -0.042535
    56 -0.034142 -1.167844 0.045718 -1.175350 0.006508 -0.030956
    57 0.957766 -2.746780 -0.090302 0.144164 0.043990 0.117961
    58 -0.033420 -1.397129 -0.011257 -0.189057 0.004758 -0.009049
    59 -0.022360 -0.957436 0.010971 -0.400820 0.007323 -0.018936
    60 -1.180681 -2.507217 -0.193859 -0.817928 0.355478 -0.254846
    61 -0.024967 -1.123934 0.017597 -0.990583 0.004111 -0.042436
    62 -0.020057 -0.906594 0.037435 -1.203215 0.001450 -0.049317
    63 0.610855 -1.197277 0.185379 0.342983 -0.927688 -0.466842
    64 1.453893 -0.243668 0.075324 0.073450 -0.242819 -0.904700
    65 1.018737 -0.175166 0.040104 0.074529 -0.230826 -0.970947
    66 0.120153 -0.050270 -0.054489 0.287569 3.110905 1.561085
    67 -4.907629 -8.235258 -4.852994 0.941833 -4.380284 0.888671
    68 0.104757 -8.450418 -0.009365 0.082859 -0.219687 0.051794
    69 0.447953 -2.798986 -0.200443 -0.516377 0.045980 0.099611
    70 -0.032909 -1.499736 0.036191 -1.729928 0.022195 -0.036024
    71 -0.027022 -1.108171 -0.028023 -0.904795 0.020877 -0.013650
    72 -0.249534 -2.846964 -0.174213 -0.291531 0.103961 0.010600
    73 0.043235 -1.656596 0.056948 -1.803618 -0.024766 0.014538
    74 0.031729 -1.153017 0.058838 -0.789192 -0.008299 0.005316
    75 -0.963866 -2.785145 -0.085350 -0.404578 0.151837 -0.025438
    76 0.028479 -1.410880 -0.024980 -1.292811 -0.039489 -0.038291
    77 0.021413 -0.946062 0.012233 -1.015785 -0.027469 -0.034576
    78 1.164475 -2.543940 -0.170330 -0.476471 -0.073085 0.076283
    79 0.024032 -1.148574 -0.009538 -1.422645 0.029782 0.066288
    80 0.014898 -0.903521 -0.012035 -1.077230 0.011397 0.053511
    81 -0.586770 -1.264477 0.200161 -0.238045 -0.967630 -2.834243
    82 1.565805 0.039149 0.016848 -0.019971 -0.007134 0.934340
    83 1.117947 0.040611 -0.005766 -0.028587 -0.034378 1.029586
    84 -0.033927 -0.111698 0.022210 0.254138 0.099765 1.535254
    85 -3.741198 8.061810 -0.301935 1.581763 -0.013017 -1.264797
  time 12
    0 7.533154 -2.666832 -6.188106 -0.045173 -0.055586 0.421795
    1 4.065896 0.000000 0.000000 -0.319523 1.397282 -0.940189
    2 5.727315 0.000000 0.000000 0.000000 0.000000 -1.787442
    3 9.229776 0.000002 -0.000001 -1.455684 0.074717 0.053996
    4 5.023368 0.240867 -1.892860 -1.009743 1.236817 -1.150161
    5 -1.313646 -0.000004 -7.557351 0.000000 -2.960321 0.000000
    6 -1.230141 0.000000 -0.423579 0.000000 0.000000 0.000000
    7 -0.293285 1.156249 -11.923380 -1.570796 -1.570796 0.000000
    8 -0.384495 1.156249 -10.230849 -1.570796 -1.570796 0.000000
    9 -0.032454 1.214845 -8.797919 -1.570796 -1.570796 0.000000
    10 0.861015 1.187500 -7.175449 -1.570796 -1.570796 0.000000
    11 2.357821 1.124998 -5.807925 -1.423517 -1.570796 0.000000
    12 4.305367 1.156249 -4.852006 -1.570796 -1.570796 0.000000
    13 -0.528715 1.240935 -14.130713 -1.570796 -1.570796 0.000000
    14 -1.116583 1.240935 -12.661799 -1.570796 -1.570796 0.000000
    15 -1.324877 1.240935 -11.031783 -1.570796 -1.570796 0.000000
    16 -0.967184 1.240936 -9.045153 -1.570796 -1.570796 0.000000
    17 -0.342440 1.248748 -7.040544 -1.570796 -1.570796 0.000000
    18 0.919218 1.084680 -5.557764 -1.570796 -1.570796 0.000000
    19 2.415254 1.170620 -4.550376 -1.570796 -1.570796 0.000000
    20 4.010098 1.240935 -4.322865 -1.570796 -1.570796 0.000000
    21 2.631672 0.953461 4.146291 -1.570796 -1.570796 0.000000
    22 1.971862 0.953461 5.155814 -1.570796 -1.570796 0.000000
    23 1.421954 0.953461 6.272000 -1.570796 -1.570796 0.000000
    24 1.164978 0.953461 7.838477 -1.570796 -1.570796 0.000000
    25 1.200788 0.953461 9.209808 -1.570796 -1.570796 0.000000
    26 1.498324 0.953462 10.704045 -1.570796 -1.570796 0.000000
    27 2.038589 0.953461 12.114276 -1.570796 -1.570796 0.000000
    28 2.474358 0.953461 3.239715 -1.570796 -1.570796 0.000000
    29 1.432257 0.953461 4.600692 -1.570796 -1.570796 0.000000
    30 0.732178 0.953461 6.467402 -1.570796 -1.570796 0.000000
    31 0.590816 0.953463 8.487933 -1.570796 -1.570796 0.000000
    32 0.921433 0.953462 10.555390 -1.570796 -1.570796 0.000000
    33 1.602937 0.953462 12.350110 -1.570796 -1.570796 0.000000
    34 3.606761 -0.042286 2.212451 1.570796 0.181848 1.570796
    35 1.290828 0.000000 0.000000 -0.785351 1.601709 -0.603503
    36 1.630795 0.000001 0.000000 0.000003 0.000000 0.000000
    37 1.878663 1.999800 0.970551 -1.570796 1.570796 0.000000
    38 1.911319 1.762200 0.860135 -1.570797 1.081573 -0.000001
    39 2.260609 1.762200 0.784943 -1.570796 1.570796 0.000000
    40 2.094463 1.762200 0.784943 -1.570796 1.206398 3.141592
    41 1.911636 1.762200 0.704861 -1.570796 0.871975 -3.141592
    42 3.347115 0.000000 6.530137 1.570797 1.349596 0.000000
    43 3.347114 0.000000 9.495782 -1.570797 1.349596 -0.000001
    44 3.347113 0.000000 12.433053 1.570796 1.349595 0.000000
    45 2.034362 2.017065 0.000001 -1.570798 0.000000 0.000000
    46 -0.262070 0.530560 0.269226 0.000001 0.000000 0.000000
    47 4.563793 -2.399776 -6.370669 -0.041035 -0.058713 0.349493
    48 6.860810 -2.201863 -5.463992 0.937154 -1.883937 -1.515028
    49 7.964416 -0.612701 -0.395908 -1.569987 -0.027621 -3.139379
    50 -0.091453 -8.447954 -0.131479 -0.088010 0.136442 -0.045428
    51 -0.488518 -2.755602 -0.228260 -0.630893 0.142055 -0.194752
    52 0.039887 -1.538386 0.022041 -1.693464 -0.009588 0.037992
    53 0.028786 -1.157765 -0.116862 -0.991854 -0.014957 0.020733
    54 0.250027 -2.820665 -0.238396 -0.314440 0.066242 -0.069001
    55 -0.049759 -1.598510 0.030164 -1.596375 -0.000551 -0.042535
    56 -0.034142 -1.167844 0.045718 -1.175350 0.006508 -0.030956
    57 0.957766 -2.746780 -0.090302 0.144164 0.043990 0.117961
    58 -0.033420 -1.397129 -0.011257 -0.189057 0.004758 -0.009049
    59 -0.022360 -0.957436 0.010971 -0.400820 0.007323 -0.018936
    60 -1.180681 -2.507217 -0.193859 -0.817928 0.355478 -0.254846
    61 -0.024967 -1.123934 0.017597 -0.990583 0.004111 -0.042436
    62 -0.020057 -0.906594 0.037435 -1.203215 0.001450 -0.049317
    63 0.610855 -1.197277 0.185379 0.342983 -0.927688 -0.466842
    64 1.453893 -0.243668 0.075324 0.073450 -0.242819 -0.904700
    65 1.018737 -0.175166 0.040104 0.074529 -0.230826 -0.970947
    66 0.120153 -0.050270 -0.054489 0.287569 3.110905 1.561085
    67 -4.919348 -8.219632 -4.895964 0.977341 -4.362370 0.924460
    68 0.104757 -8.450418 -0.009365 0.083967 -0.216762 0.063029
    69 0.447953 -2.798986 -0.200443 -0.516377 0.045980 0.099611
    70 -0.032909 -1.499736 0.036191 -1.729928 0.022195 -0.036024
    71 -0.027022 -1.108171 -0.028023 -0.904795 0.020877 -0.013650
    72 -0.249534 -2.846964 -0.174213 -0.291531 0.103961 0.010600
    73 0.043235 -1.656596 0.056948 -1.803618 -0.024766 0.014538
    74 0.031729 -1.153017 0.058838 -0.789192 -0.008299 0.005316
    75 -0.963866 -2.785145 -0.085350 -0.404578 0.151837 -0.025438
    76 0.028479 -1.410880 -0.024980 -1.292811 -0.039489 -0.038291
    77 0.021413 -0.946062 0.012233 -1.015785 -0.027469 -0.034576
    78 1.164475 -2.543940 -0.170330 -0.476471 -0.073085 0.076283
    79 0.024032 -1.148574 -0.009538 -1.422645 0.029782 0.066288
    80 0.014898 -0.903521 -0.012035 -1.077230 0.011397 0.053511
    81 -0.586770 -1.264477 0.200161 -0.238045 -0.967630 -2.834243
    82 1.565805 0.039149 0.016848 -0.019971 -0.007134 0.934340
    83 1.117947 0.040611 -0.005766 -0.028587 -0.034378 1.029586
    84 -0.033927 -0.111698 0.022210 0.254138 0.099765 1.535254
    85 -3.975580 7.940712 -0.309748 1.581715 -0.013868 -1.232932
  time 13
    0 7.533154 -2.666832 -6.188106 -0.045413 -0.055407 0.426058
    1 4.065896 0.000000 0.000000 -0.292410 1.398570 -0.916381
    2 5.727315 0.000000 0.000000 0.000000 0.000000 -1.796471
    3 9.229776 0.000002 -0.000001 -1.453766 0.075620 0.046154
    4 5.023368 0.240867 -1.892860 -1.009743 1.236817 -1.150161
    5 -1.313646 -0.000004 -7.557351 0.000000 -2.960321 0.000000
    6 -1.230141 0.000000 -0.423579 0.000000 0.000000 0.000000
    7 -0.293285 1.156249 -11.923380 -1.570796 -1.570796 0.000000
    8 -0.384495 1.156249 -10.230849 -1.570796 -1.570796 0.000000
    9 -0.032454 1.183594 -8.797919 -1.570796 -1.570796 0.000000
    10 0.861015 1.171875 -7.175449 -1.570796 -1.570796 0.000000
    11 2.357821 1.144530 -5.807925 -1.496611 -1.570796 0.000000
    12 4.305367 1.156249 -4.852006 -1.570796 -1.570796 0.000000
    13 -0.528715 1.240935 -14.130713 -1.570796 -1.570796 0.000000
    14 -1.116583 1.240935 -12.661799 -1.570796 -1.570796 0.000000
    15 -1.324877 1.240935 -11.031783 -1.570796 -1.570796 0.000000
    16 -0.967184 1.240936 -9.045153 -1.570796 -1.570796 0.000000
    17 -0.342440 1.240935 -7.040544 -1.570796 -1.570796 0.000000
    18 0.919218 1.158901 -5.557764 -1.570796 -1.570796 0.000000
    19 2.415254 1.209684 -4.550376 -1.570796 -1.570796 0.000000
    20 4.010098 1.240935 -4.322865 -1.570796 -1.570796 0.000000
    21 2.631672 0.953461 4.146291 -1.570796 -1.570796 0.000000
    22 1.971862 0.953461 5.155814 -1.570796 -1.570796 0.000000
    23 1.421954 0.953461 6.272000 -1.570796 -1.570796 0.000000
    24 1.164978 0.953461 7.838477 -1.570796 -1.570796 0.000000
    25 1.200788 0.953461 9.209808 -1.570796 -1.570796 0.000000
    26 1.498324 0.953462 10.704045 -1.570796 -1.570796 0.000000
    27 2.038589 0.953461 12.114276 -1.570796 -1.570796 0.000000
    28 2.474358 0.953461 3.239715 -1.570796 -1.570796 0.000000
    29 1.432257 0.953461 4.600692 -1.570796 -1.570796 0.000000
    30 0.732178 0.953461 6.467402 -1.570796 -1.570796 0.000000
    31 0.590816 0.953463 8.487933 -1.570796 -1.570796 0.000000
    32 0.921433 0.953462 10.555390 -1.570796 -1.570796 0.000000
    33 1.602937 0.953462 12.350110 -1.570796 -1.570796 0.000000
    34 3.606761 -0.042286 2.212451 1.570796 0.181848 1.570796
    35 1.290828 0.000000 0.000000 -1.163494 1.586826 -0.981651
    36 1.630795 0.000001 0.000000 0.000003 0.000000 0.000000
    37 1.878663 1.999800 0.970551 -1.570796 1.570796 0.000000
    38 1.911319 1.762200 0.860135 -1.570797 1.081573 -0.000001
    39 2.260609 1.762200 0.784943 -1.570796 1.570796 0.000000
    40 2.094463 1.762200 0.784943 -1.570796 1.206398 3.141592
    41 1.911636 1.762200 0.704861 -1.570796 0.871975 -3.141592
    42 3.347115 0.000000 6.530137 1.570797 1.349596 0.000000
    43 3.347114 0.000000 9.495782 -1.570797 1.349596 -0.000001
    44 3.347113 0.000000 12.433053 1.570796 1.349595 0.000000
    45 2.034362 2.017065 0.000001 -1.570798 0.000000 0.000000
    46 -0.262070 0.530560 0.269226 0.000001 0.000000 0.000000
    47 4.563793 -2.399776 -6.370669 -0.041035 -0.058713 0.349493
    48 6.872529 -2.158893 -5.463992 0.944052 -1.887359 -1.521685
    49 7.952697 -0.683016 -0.395908 -1.569795 -0.027812 -3.148369
    50 -0.091453 -8.447954 -0.135385 -0.088716 0.134394 -0.037549
    51 -0.488518 -2.755602 -0.228260 -0.630893 0.142055 -0.194752
    52 0.039887 -1.538386 0.022041 -1.693464 -0.009588 0.037992
    53 0.028786 -1.157765 -0.116862 -0.991854 -0.014957 0.020733
    54 0.250027 -2.820665 -0.238396 -0.314440 0.066242 -0.069001
    55 -0.049759 -1.598510 0.030164 -1.596375 -0.000551 -0.042535
    56 -0.034142 -1.167844 0.045718 -1.175350 0.006508 -0.030956
    57 0.957766 -2.746780 -0.090302 0.144164 0.043990 0.117961
    58 -0.033420 -1.397129 -0.011257 -0.189057 0.004758 -0.009049
    59 -0.022360 -0.957436 0.010971 -0.400820 0.007323 -0.018936
    60 -1.180681 -2.507217 -0.193859 -0.817928 0.355478 -0.254846
    61 -0.024967 -1.123934 0.017597 -0.990583 0.004111 -0.042436
    62 -0.020057 -0.906594 0.037435 -1.203215 0.001450 -0.049317
    63 0.610855 -1.197277 0.185379 0.342983 -0.927688 -0.466842
    64 1.453893 -0.243668 0.075324 0.073450 -0.242819 -0.904700
    65 1.018737 -0.175166 0.040104 0.074529 -0.230826 -0.970947
    66 0.120153 -0.050270 -0.054489 0.287569 3.110905 1.561085
    67 -4.931067 -8.196194 -4.927215 1.010632 -4.343450 0.957699
    68 0.104757 -8.450418 -0.017178 0.085113 -0.212997 0.074013
    69 0.447953 -2.798986 -0.200443 -0.516377 0.045980 0.099611
    70 -0.032909 -1.499736 0.036191 -1.729928 0.022195 -0.036024
    71 -0.027022 -1.108171 -0.028023 -0.904795 0.020877 -0.013650
    72 -0.249534 -2.846964 -0.174213 -0.291531 0.103961 0.010600
    73 0.043235 -1.656596 0.056948 -1.803618 -0.024766 0.014538
    74 0.031729 -1.153017 0.058838 -0.789192 -0.008299 0.005316
    75 -0.963866 -2.785145 -0.085350 -0.404578 0.151837 -0.025438
    76 0.028479 -1.410880 -0.024980 -1.292811 -0.039489 -0.038291
    77 0.021413 -0.946062 0.012233 -1.015785 -0.027469 -0.034576
    78 1.164475 -2.543940 -0.170330 -0.476471 -0.073085 0.076283
    79 0.024032 -1.148574 -0.009538 -1.422645 0.029782 0.066288
    80 0.014898 -0.903521 -0.012035 -1.077297 0.011397 0.053511
    81 -0.586770 -1.264477 0.200161 -0.238045 -0.967630 -2.834243
    82 1.565805 0.039149 0.016848 -0.019971 -0.007134 0.934340
    83 1.117947 0.040611 -0.005766 -0.028587 -0.034378 1.029586
    84 -0.033927 -0.111698 0.022210 0.254138 0.099765 1.535254
    85 -4.198243 7.811802 -0.313654 1.581655 -0.014695 -1.201864
  time 14
    0 7.533154 -2.666832 -6.188106 -0.045617 -0.055239 0.429681
    1 4.065896 0.000000 0.000000 -0.271952 1.399420 -0.898705
    2 5.727315 0.000000 0.000000 0.000000 0.000000 -1.803332
    3 9.229776 0.000002 -0.000001 -1.452361 0.076406 0.039497
    4 5.023368 0.240867 -1.892860 -1.009743 1.236817 -1.150161
    5 -1.313646 -0.000004 -7.557351 0.000000 -2.960321 0.000000
    6 -1.230141 0.000000 -0.423579 0.000000 0.000000 0.000000
    7 -0.293285 1.156249 -11.923380 -1.570796 -1.570796 0.000000
    8 -0.384495 1.156249 -10.230849 -1.570796 -1.570796 0.000000
    9 -0.032454 1.156249 -8.797919 -1.570796 -1.570796 0.000000
    10 0.861015 1.156249 -7.175449 -1.570796 -1.570796 0.000000
    11 2.357821 1.156249 -5.807925 -1.550087 -1.570796 0.000000
    12 4.305367 1.156249 -4.852006 -1.570796 -1.570796 0.000000
    13 -0.528715 1.240935 -14.130713 -1.570796 -1.570796 0.000000
    14 -1.116583 1.240935 -12.661799 -1.570796 -1.570796 0.000000
    15 -1.324877 1.240935 -11.031783 -1.570796 -1.570796 0.000000
    16 -0.967184 1.240936 -9.045153 -1.570796 -1.570796 0.000000
    17 -0.342440 1.240935 -7.040544 -1.570796 -1.570796 0.000000
    18 0.919218 1.221403 -5.557764 -1.570796 -1.570796 0.000000
    19 2.415254 1.233122 -4.550376 -1.570796 -1.570796 0.000000
    20 4.010098 1.240935 -4.322865 -1.570796 -1.570796 0.000000
    21 2.631672 0.953461 4.146291 -1.570796 -1.570796 0.000000
    22 1.971862 0.953461 5.155814 -1.570796 -1.570796 0.000000
    23 1.421954 0.953461 6.272000 -1.570796 -1.570796 0.000000
    24 1.164978 0.953461 7.838477 -1.570796 -1.570796 0.000000
    25 1.200788 0.953461 9.209808 -1.570796 -1.570796 0.000000
    26 1.498324 0.953462 10.704045 -1.570796 -1.570796 0.000000
    27 2.038589 0.953461 12.114276 -1.570796 -1.570796 0.000000
    28 2.474358 0.953461 3.239715 -1.570796 -1.570796 0.000000
    29 1.432257 0.953461 4.600692 -1.570796 -1.570796 0.000000
    30 0.732178 0.953461 6.467402 -1.570796 -1.570796 0.000000
    31 0.590816 0.953463 8.487933 -1.570796 -1.570796 0.000000
    32 0.921433 0.953462 10.555390 -1.570796 -1.570796 0.000000
    33 1.602937 0.953462 12.350110 -1.570796 -1.570796 0.000000
    34 3.606761 -0.042286 2.212451 1.570796 0.181848 1.570796
    35 1.290828 0.000000 0.000000 -1.454421 1.575362 -1.272563
    36 1.630795 0.000001 0.000000 0.000003 0.000000 0.000000
    37 1.878663 1.999800 0.970551 -1.570796 1.570796 0.000000
    38 1.911319 1.762200 0.860135 -1.570797 1.081573 -0.000001
    39 2.260609 1.762200 0.784943 -1.570796 1.570796 0.000000
    40 2.094463 1.762200 0.784943 -1.570796 1.206398 3.141592
    41 1.911636 1.762200 0.704861 -1.570796 0.871975 -3.141592
    42 3.347115 0.000000 6.530137 1.570797 1.349596 0.000000
    43 3.347114 0.000000 9.495782 -1.570797 1.349596 -0.000001
    44 3.347113 0.000000 12.433053 1.570796 1.349595 0.000000
    45 2.034362 2.017065 0.000001 -1.570798 0.000000 0.000000
    46 -0.262070 0.530560 0.269226 0.000001 0.000000 0.000000
    47 4.563793 -2.399776 -6.370669 -0.041035 -0.058713 0.349493
    48 6.884248 -2.123736 -5.460086 0.949155 -1.890152 -1.526678
    49 7.948790 -0.737705 -0.395908 -1.569603 -0.027812 -3.155239
    50 -0.091453 -8.447954 -0.135385 -0.089363 0.132904 -0.030904
    51 -0.488518 -2.755602 -0.228260 -0.630893 0.142055 -0.194752
    52 0.039887 -1.538386 0.022041 -1.693464 -0.009588 0.037992
    53 0.028786 -1.157765 -0.116862 -0.991854 -0.014957 0.020733
    54 0.250027 -2.820665 -0.238396 -0.314440 0.066242 -0.069001
    55 -0.049759 -1.598510 0.030164 -1.596375 -0.000551 -0.042535
    56 -0.034142 -1.167844 0.045718 -1.175350 0.006508 -0.030956
    57 0.957766 -2.746780 -0.090302 0.144164 0.043990 0.117961
    58 -0.033420 -1.397129 -0.011257 -0.189057 0.004758 -0.009049
    59 -0.022360 -0.957436 0.010971 -0.400820 0.007323 -0.018936
    60 -1.180681 -2.507217 -0.193859 -0.817928 0.355478 -0.254846
    61 -0.024967 -1.123934 0.017597 -0.990583 0.004111 -0.042436
    62 -0.020057 -0.906594 0.037435 -1.203215 0.001450 -0.049317
    63 0.610855 -1.197277 0.185379 0.342983 -0.927688 -0.466842
    64 1.453893 -0.243668 0.075324 0.073450 -0.242819 -0.904700
    65 1.018737 -0.175166 0.040104 0.074529 -0.230826 -0.970947
    66 0.120153 -0.050270 -0.054489 0.287569 3.110905 1.561085
    67 -4.942786 -8.188381 -4.946747 1.034506 -4.328287 0.981650
    68 0.104757 -8.450418 -0.017178 0.085963 -0.209754 0.082241
    69 0.447953 -2.798986 -0.200443 -0.516377 0.045980 0.099611
    70 -0.032909 -1.499736 0.036191 -1.729928 0.022195 -0.036024
    71 -0.027022 -1.108171 -0.028023 -0.904795 0.020877 -0.013650
    72 -0.249534 -2.846964 -0.174213 -0.291531 0.103961 0.010600
    73 0.043235 -1.656596 0.056948 -1.803618 -0.024766 0.014538
    74 0.031729 -1.153017 0.058838 -0.789192 -0.008299 0.005316
    75 -0.963866 -2.785145 -0.085350 -0.404578 0.151837 -0.025438
    76 0.028479 -1.410880 -0.024980 -1.292811 -0.039489 -0.038291
    77 0.021413 -0.946062 0.012233 -1.015785 -0.027469 -0.034576
    78 1.164475 -2.543940 -0.170330 -0.476471 -0.073085 0.076283
    79 0.024032 -1.148574 -0.009538 -1.422645 0.029782 0.066288
    80 0.014898 -0.903521 -0.012035 -1.077230 0.011397 0.053511
    81 -0.586770 -1.264477 0.200161 -0.238045 -0.967630 -2.834243
    82 1.565805 0.039149 0.016848 -0.019971 -0.007134 0.934340
    83 1.117947 0.040611 -0.005766 -0.028587 -0.034378 1.029586
    84 -0.033927 -0.111698 0.022210 0.254138 0.099765 1.535254
    85 -4.366217 7.714143 -0.321467 1.581583 -0.015318 -1.178364
  time 15
    0 7.533154 -2.666832 -6.188106 -0.045701 -0.055167 0.431226
    1 4.065896 0.000000 0.000000 -0.263195 1.399754 -0.891250
    2 5.727315 0.000000 0.000000 0.000000 0.000000 -1.806258
    3 9.229776 0.000002 -0.000001 -1.451821 0.076720 0.036446
    4 5.023368 0.240867 -1.892860 -1.009743 1.236817 -1.150161
    5 -1.313646 -0.000004 -7.557351 0.000000 -2.960321 0.000000
    6 -1.230141 0.000000 -0.423579 0.000000 0.000000 0.000000
    7 -0.293285 1.156249 -11.923380 -1.570796 -1.570796 0.000000
    8 -0.384495 1.156249 -10.230849 -1.570796 -1.570796 0.000000
    9 -0.032454 1.156249 -8.797919 -1.570796 -1.570796 0.000000
    10 0.861015 1.156249 -7.175449 -1.570796 -1.570796 0.000000
    11 2.357821 1.156249 -5.807925 -1.570796 -1.570796 0.000000
    12 4.305367 1.156249 -4.852006 -1.570796 -1.570796 0.000000
    13 -0.528715 1.240935 -14.130713 -1.570796 -1.570796 0.000000
    14 -1.116583 1.240935 -12.661799 -1.570796 -1.570796 0.000000
    15 -1.324877 1.240935 -11.031783 -1.570796 -1.570796 0.000000
    16 -0.967184 1.240936 -9.045153 -1.570796 -1.570796 0.000000
    17 -0.342440 1.240935 -7.040544 -1.570796 -1.570796 0.000000
    18 0.919218 1.240935 -5.557764 -1.570796 -1.570796 0.000000
    19 2.415254 1.240935 -4.550376 -1.570796 -1.570796 0.000000
    20 4.010098 1.240935 -4.322865 -1.570796 -1.570796 0.000000
    21 2.631672 0.953461 4.146291 -1.570796 -1.570796 0.000000
    22 1.971862 0.953461 5.155814 -1.570796 -1.570796 0.000000
    23 1.421954 0.953461 6.272000 -1.570796 -1.570796 0.000000
    24 1.164978 0.953461 7.838477 -1.570796 -1.570796 0.000000
    25 1.200788 0.953461 9.209808 -1.570796 -1.570796 0.000000
    26 1.498324 0.953462 10.704045 -1.570796 -1.570796 0.000000
    27 2.038589 0.953461 12.114276 -1.570796 -1.570796 0.000000
    28 2.474358 0.953461 3.239715 -1.570796 -1.570796 0.000000
    29 1.432257 0.953461 4.600692 -1.570796 -1.570796 0.000000
    30 0.732178 0.953461 6.467402 -1.570796 -1.570796 0.000000
    31 0.590816 0.953463 8.487933 -1.570796 -1.570796 0.000000
    32 0.921433 0.953462 10.555390 -1.570796 -1.570796 0.000000
    33 1.602937 0.953462 12.350110 -1.570796 -1.570796 0.000000
    34 3.606761 -0.042286 2.212451 1.570796 0.181848 1.570796
    35 1.290828 0.000000 0.000000 -0.181848 1.570796 0.000000
    36 1.630795 0.000001 0.000000 0.000003 0.000000 0.000000
    37 1.878663 1.999800 0.970551 -1.570796 1.570796 0.000000
    38 1.911319 1.762200 0.860135 -1.570797 1.081573 -0.000001
    39 2.260609 1.762200 0.784943 -1.570796 1.570796 0.000000
    40 2.094463 1.762200 0.784943 -1.570796 1.206398 3.141592
    41 1.911636 1.762200 0.704861 -1.570796 0.871975 -3.141592
    42 3.347115 0.000000 6.530137 1.570797 1.349596 0.000000
    43 3.347114 0.000000 9.495782 -1.570797 1.349596 -0.000001
    44 3.347113 0.000000 12.433053 1.570796 1.349595 0.000000
    45 2.034362 2.017065 0.000001 -1.570798 0.000000 0.000000
    46 -0.262070 0.530560 0.269226 0.000001 0.000000 0.000000
    47 4.563793 -2.399776 -6.370669 -0.041035 -0.058713 0.349493
    48 6.892061 -2.108110 -5.460086 0.951328 -1.891199 -1.528805
    49 7.940978 -0.757237 -0.395908 -1.569603 -0.027812 -3.158162
    50 -0.091453 -8.447954 -0.135385 -0.089657 0.132319 -0.027880
    51 -0.488518 -2.755602 -0.228260 -0.630893 0.142055 -0.194752
    52 0.039887 -1.538386 0.022041 -1.693464 -0.009588 0.037992
    53 0.028786 -1.157765 -0.116862 -0.991854 -0.014957 0.020733
    54 0.250027 -2.820665 -0.238396 -0.314440 0.066242 -0.069001
    55 -0.049759 -1.598510 0.030164 -1.596375 -0.000551 -0.042535
    56 -0.034142 -1.167844 0.045718 -1.175350 0.006508 -0.030956
    57 0.957766 -2.746780 -0.090302 0.144164 0.043990 0.117961
    58 -0.033420 -1.397129 -0.011257 -0.189057 0.004758 -0.009049
    59 -0.022360 -0.957436 0.010971 -0.400820 0.007323 -0.018936
    60 -1.180681 -2.507217 -0.193859 -0.817928 0.355478 -0.254846
    61 -0.024967 -1.123934 0.017597 -0.990583 0.004111 -0.042436
    62 -0.020057 -0.906594 0.037435 -1.203215 0.001450 -0.049317
    63 0.610855 -1.197277 0.185379 0.342983 -0.927688 -0.466842
    64 1.453893 -0.243668 0.075324 0.073450 -0.242819 -0.904700
    65 1.018737 -0.175166 0.040104 0.074529 -0.230826 -0.970947
    66 0.120153 -0.050270 -0.054489 0.287569 3.110905 1.561085
    67 -4.946693 -8.180569 -4.950653 1.044276 -4.321645 0.991303
    68 0.104757 -8.450418 -0.017178 0.086370 -0.208219 0.085748
    69 0.447953 -2.798986 -0.200443 -0.516377 0.045980 0.099611
    70 -0.032909 -1.499736 0.036191 -1.729928 0.022195 -0.036024
    71 -0.027022 -1.108171 -0.028023 -0.904795 0.020877 -0.013650
    72 -0.249534 -2.846964 -0.174213 -0.291531 0.103961 0.010600
    73 0.043235 -1.656596 0.056948 -1.803618 -0.024766 0.014538
    74 0.031729 -1.153017 0.058838 -0.789192 -0.008299 0.005316
    75 -0.963866 -2.785145 -0.085350 -0.404578 0.151837 -0.025438
    76 0.028479 -1.410880 -0.024980 -1.292811 -0.039489 -0.038291
    77 0.021413 -0.946062 0.012233 -1.015785 -0.027469 -0.034576
    78 1.164475 -2.543940 -0.170330 -0.476471 -0.073085 0.076283
    79 0.024032 -1.148574 -0.009538 -1.422645 0.029782 0.066288
    80 0.014898 -0.903521 -0.012035 -1.077230 0.011397 0.053511
    81 -0.586770 -1.264477 0.200161 -0.238045 -0.967630 -2.834243
    82 1.565805 0.039149 0.016848 -0.019971 -0.007134 0.934340
    83 1.117947 0.040611 -0.005766 -0.028587 -0.034378 1.029586
    84 -0.033927 -0.111698 0.022210 0.254138 0.099765 1.535254
    85 -4.428719 7.667266 -0.321467 1.581535 -0.015569 -1.168539
end
