version 1
nodes
  0 "root" -1
  1 "Bone01" 0
  2 "Bone_L_Upper" 1
  3 "Bone_Lefthand" 1
  4 "Bone13" 3
  5 "Bone14" 4
  6 "Bone15" 5
  7 "Bone17" 3
  8 "Bone18" 7
  9 "Bone19" 8
  10 "Bone21" 3
  11 "Bone22" 10
  12 "Bone23" 11
  13 "Bone09" 3
  14 "Bone10" 13
  15 "Bone11" 14
  16 "Bone05" 3
  17 "Bone06" 16
  18 "Bone07" 17
  19 "Bone_Se_Hand-L" 3
  20 "Bone04" 0
  21 "Bone_Righthand" 20
  22 "Bone39" 21
  23 "Bone40" 22
  24 "Bone41" 23
  25 "Bone35" 21
  26 "Bone36" 25
  27 "Bone37" 26
  28 "Bone31" 21
  29 "Bone32" 28
  30 "Bone33" 29
  31 "Bone43" 21
  32 "Bone44" 31
  33 "Bone45" 32
  34 "Bone27" 21
  35 "Bone28" 34
  36 "Bone29" 35
  37 "Bone_Se_Hand-R" 21
  38 "Bone_R_Upper" 20
  39 "Bone02" 3
  40 "Bone08" 39
  41 "Bone12" 40
  42 "Bone16" 41
  43 "Bone20" 42
  44 "Bone24" 43
  45 "Bone25" 44
  46 "Bone26" 45
  47 "Bone30" 46
  48 "Dummy01" 39
  49 "Bone51" 48
  50 "Bone47" 48
  51 "Bone34" 39
  52 "Bone42" 51
  53 "Bone49" 39
end
skeleton
  time 0
    0 -0.350419 1.162833 0.199844 0.000000 0.000000 0.000000
    1 10.064033 2.942825 -9.010975 4.627279 -1.256904 1.304889
    2 1.257180 8.762585 -0.153713 -1.570562 0.002683 -1.566807
    3 -0.071921 -8.498736 -0.104134 0.218828 0.130509 -0.373012
    4 -0.488518 -2.755602 -0.228260 -1.043629 0.109301 -0.409563
    5 0.039887 -1.479790 0.029854 -1.667534 0.000000 0.000001
    6 0.028786 -1.075731 -0.023109 -0.454494 0.000000 0.000000
    7 0.250027 -2.820665 -0.238396 -0.736464 0.165690 -0.428552
    8 -0.049759 -1.680544 0.100479 -1.752456 0.000000 -0.000002
    9 -0.034142 -1.148312 0.084782 -0.832785 0.000000 0.000000
    10 0.957766 -2.746780 -0.090302 -0.011001 -0.038416 -0.284218
    11 -0.033420 -1.397129 -0.011257 -0.387585 0.000000 -0.000001
    12 -0.022360 -0.957436 0.018784 -0.378742 0.000000 0.000000
    13 -1.180681 -2.507217 -0.193859 -1.338388 0.249247 -0.349932
    14 -0.024967 -1.123934 0.017597 -1.138797 0.000000 0.000001
    15 -0.020057 -0.890968 0.010090 -0.444208 0.000000 0.000000
    16 0.583510 -1.197277 0.185379 0.285937 -0.802989 -0.784582
    17 1.535927 0.010246 0.005009 -0.002964 -0.012979 -0.887970
    18 1.100771 0.004527 -0.010679 -0.012432 0.010412 -0.697598
    19 0.120153 -0.050270 -0.054489 0.287569 3.110905 1.561085
    20 2.026176 -11.985372 -11.720391 -1.689940 -5.322974 -1.161598
    21 0.096944 -8.450418 -0.009365 0.223430 -1.129377 0.243387
    22 0.447953 -2.798986 -0.200443 -1.421048 0.011476 0.381620
    23 -0.032909 -1.480204 0.004940 -1.593719 0.000000 0.000002
    24 -0.027022 -1.076920 -0.020210 -0.292132 0.000000 0.000000
    25 -0.249534 -2.846964 -0.174213 -0.963919 -0.083142 0.196672
    26 0.043235 -1.683941 0.096012 -1.994781 0.002823 -0.000167
    27 0.031729 -1.160830 0.058838 -0.247055 0.000642 0.008372
    28 -0.963866 -2.785145 -0.085350 -0.496398 -0.004118 0.093893
    29 0.028479 -1.403067 0.006271 -1.337886 0.000000 0.000000
    30 0.021413 -0.957781 0.020046 -1.052170 0.000000 0.000000
    31 1.164475 -2.543940 -0.170330 -1.824606 0.034788 0.508563
    32 0.024032 -1.129042 0.017807 -0.900850 0.000000 0.000001
    33 0.014898 -0.883989 -0.019848 -0.472474 0.000000 0.000000
    34 -0.586770 -1.264477 0.200161 0.295271 0.033680 -2.556409
    35 1.522835 0.058681 0.016848 0.001410 0.008985 0.564782
    36 1.117947 0.048424 -0.005766 0.000584 -0.025198 0.032179
    37 -0.139399 -0.111698 0.014397 0.756526 0.088632 1.606227
    38 -6.260806 6.983652 -0.294122 1.580804 -0.005023 -0.912799
    39 2.991449 -9.374510 0.325510 0.095528 0.119434 -1.488343
    40 19.322884 -1.520438 0.000001 0.000000 -0.042630 -2.627673
    41 4.079369 0.000000 0.000000 -0.000026 -0.008514 -0.236855
    42 2.865587 0.000000 0.000000 0.013163 0.052843 -0.048393
    43 3.536545 0.000001 0.000000 0.001776 -0.007169 -0.042890
    44 3.559710 -0.000013 0.000000 -0.010111 0.004322 -0.112907
    45 4.710207 -0.000101 0.000000 0.004584 0.021793 -0.110334
    46 3.905177 -0.000001 0.000000 0.010182 0.009681 -0.025467
    47 4.815569 0.000000 0.000000 0.026430 -0.006849 -0.054245
    48 -1.212046 -0.202562 -0.094716 0.000000 0.000000 0.000000
    49 -0.000912 -0.003783 0.001647 0.000000 0.000000 0.000000
    50 -25.772302 -1.628261 -8.433167 -0.859184 -1.433102 1.359335
    51 -4.582671 -0.007939 0.000000 0.000000 0.000000 -3.141592
    52 -2.200086 0.067634 0.000000 -1.570796 -1.570796 0.000000
    53 -4.271043 -2.117736 0.000000 0.000000 0.000000 -1.570796
  time 1
    0 -0.350419 1.162833 0.199844 0.000000 0.000000 0.000000
    1 10.087471 2.970170 -8.460177 4.820399 -1.287670 1.126690
    2 1.257180 8.762585 -0.153713 -1.570562 0.002683 -1.566807
    3 -0.071921 -8.498736 -0.104134 0.223407 0.126938 -0.339549
    4 -0.488518 -2.755602 -0.228260 -1.043629 0.109301 -0.409563
    5 0.039887 -1.479790 0.029854 -1.667534 0.000000 0.000001
    6 0.028786 -1.075731 -0.023109 -0.454494 0.000000 0.000000
    7 0.250027 -2.820665 -0.238396 -0.736464 0.165690 -0.428552
    8 -0.049759 -1.680544 0.100479 -1.752456 0.000000 -0.000002
    9 -0.034142 -1.148312 0.084782 -0.832761 0.000000 0.000000
    10 0.957766 -2.746780 -0.090302 -0.011001 -0.038416 -0.284218
    11 -0.033420 -1.397129 -0.011257 -0.387585 0.000000 -0.000001
    12 -0.022360 -0.957436 0.018784 -0.378742 0.000000 0.000000
    13 -1.180681 -2.507217 -0.193859 -1.338388 0.249247 -0.349932
    14 -0.024967 -1.123934 0.017597 -1.138797 0.000000 0.000001
    15 -0.020057 -0.890968 0.010090 -0.444208 0.000000 0.000000
    16 0.583510 -1.197277 0.185379 0.285937 -0.802989 -0.784582
    17 1.535927 0.010246 0.005009 -0.002964 -0.012979 -0.887970
    18 1.100771 0.004527 -0.010679 -0.012432 0.010412 -0.697598
    19 0.120153 -0.050270 -0.054489 0.287569 3.110905 1.561085
    20 1.006614 -10.536109 -11.849301 -1.918895 -5.308147 -1.399693
    21 0.096944 -8.450418 -0.009365 0.413066 -1.158051 0.101464
    22 0.447953 -2.798986 -0.200443 -1.225249 0.001888 0.345343
    23 -0.032909 -1.480204 0.004940 -1.593719 0.000000 0.000002
    24 -0.027022 -1.076920 -0.020210 -0.292132 0.000000 0.000000
    25 -0.249534 -2.846964 -0.174213 -0.819981 -0.089099 0.182543
    26 0.043235 -1.683941 0.096012 -1.933853 0.002823 -0.000167
    27 0.031729 -1.160830 0.058838 -0.312921 0.000642 0.008372
    28 -0.963866 -2.785145 -0.085350 -0.394347 -0.006527 0.080470
    29 0.028479 -1.403067 0.006271 -1.269427 0.000000 0.000000
    30 0.021413 -0.957781 0.020046 -0.983926 0.000000 0.000000
    31 1.164475 -2.543940 -0.170330 -1.585216 -0.003934 0.465758
    32 0.024032 -1.129042 0.017807 -0.962147 0.000000 0.000001
    33 0.014898 -0.883989 -0.019848 -0.472474 0.000000 0.000000
    34 -0.586770 -1.264477 0.200161 0.288383 -0.034613 -2.563309
    35 1.522835 0.058681 0.016848 0.001410 0.008985 0.564782
    36 1.117947 0.048424 -0.005766 0.000584 -0.025198 0.032179
    37 -0.139399 -0.111698 0.014397 0.756526 0.088632 1.606227
    38 -6.260806 6.983652 -0.294122 1.580804 -0.005023 -0.912799
    39 2.991449 -9.374510 0.325510 0.095528 0.119434 -1.488343
    40 19.322884 -1.520438 0.000001 -0.023274 -0.042648 -2.626647
    41 4.079369 0.000000 0.000000 -0.000026 -0.008514 -0.236855
    42 2.865587 0.000000 0.000000 0.013175 0.056726 -0.048341
    43 3.536545 0.000001 0.000000 0.001776 -0.002555 -0.042878
    44 3.559710 -0.000013 0.000000 -0.010111 0.008948 -0.112923
    45 4.710207 -0.000101 0.000000 0.004584 0.026407 -0.110226
    46 3.905177 -0.000001 0.000000 0.010182 0.014295 -0.025323
    47 4.815569 0.000000 0.000000 0.026394 -0.002235 -0.053981
    48 -1.212046 -0.202562 -0.094716 0.000000 0.000000 0.000000
    49 -0.000912 -0.003783 0.001647 0.000000 0.000000 0.000000
    50 -25.858243 -4.530694 -11.159813 -1.480269 -1.332486 2.011898
    51 -4.516263 -0.007939 0.000000 0.000000 0.000000 -3.141592
    52 -2.200086 0.067634 0.000000 -3.141546 -1.545048 1.570749
    53 -4.271043 -2.117736 0.000000 0.000000 0.000000 -1.570796
  time 2
    0 -0.350419 1.162833 0.199844 0.000000 0.000000 0.000000
    1 10.107003 2.993608 -7.925005 5.061391 -1.309021 0.900341
    2 1.257180 8.762585 -0.153713 -1.570562 0.002683 -1.566807
    3 -0.071921 -8.498736 -0.104134 0.228284 0.122108 -0.300161
    4 -0.488518 -2.755602 -0.228260 -1.043629 0.109301 -0.409563
    5 0.039887 -1.479790 0.029854 -1.667534 0.000000 0.000001
    6 0.028786 -1.075731 -0.023109 -0.454494 0.000000 0.000000
    7 0.250027 -2.820665 -0.238396 -0.736464 0.165690 -0.428552
    8 -0.049759 -1.680544 0.100479 -1.752456 0.000000 -0.000002
    9 -0.034142 -1.148312 0.084782 -0.832761 0.000000 0.000000
    10 0.957766 -2.746780 -0.090302 -0.011001 -0.038416 -0.284218
    11 -0.033420 -1.397129 -0.011257 -0.387585 0.000000 -0.000001
    12 -0.022360 -0.957436 0.018784 -0.378742 0.000000 0.000000
    13 -1.180681 -2.507217 -0.193859 -1.338388 0.249247 -0.349932
    14 -0.024967 -1.123934 0.017597 -1.138797 0.000000 0.000001
    15 -0.020057 -0.890968 0.010090 -0.444208 0.000000 0.000000
    16 0.583510 -1.197277 0.185379 0.285937 -0.802989 -0.784582
    17 1.535927 0.010246 0.005009 -0.002964 -0.012979 -0.887970
    18 1.100771 0.004527 -0.010679 -0.012432 0.010412 -0.697598
    19 0.120153 -0.050270 -0.054489 0.287569 3.110905 1.561085
    20 0.315187 -9.254820 -11.755548 1.022505 -4.082027 1.546858
    21 0.096944 -8.450418 -0.009365 0.648033 -1.195542 -0.083428
    22 0.447953 -2.798986 -0.200443 -0.758370 -0.020966 0.258826
    23 -0.032909 -1.480204 0.004940 -1.593719 0.000000 0.000002
    24 -0.027022 -1.076920 -0.020210 -0.292132 0.000000 0.000000
    25 -0.249534 -2.846964 -0.174213 -0.476711 -0.103324 0.148842
    26 0.043235 -1.683941 0.096012 -1.788451 0.002823 -0.000167
    27 0.031729 -1.160830 0.058838 -0.469952 0.000642 0.008372
    28 -0.963866 -2.785145 -0.085350 -0.151008 -0.012256 0.048483
    29 0.028479 -1.403067 0.006271 -1.106072 0.000000 0.000000
    30 0.021413 -0.957781 0.020046 -0.817409 0.000000 0.000000
    31 1.164475 -2.543940 -0.170330 -1.014278 -0.096263 0.362357
    32 0.024032 -1.129042 0.017807 -1.108254 0.000000 0.000001
    33 0.014898 -0.883989 -0.019848 -0.472474 0.000000 0.000000
    34 -0.586770 -1.264477 0.200161 0.271953 -0.197479 -2.579742
    35 1.522835 0.058681 0.016848 0.001410 0.008985 0.564782
    36 1.117947 0.048424 -0.005766 0.000584 -0.025198 0.032179
    37 -0.139399 -0.111698 0.014397 0.756540 0.088632 1.606227
    38 -6.260806 6.983652 -0.294122 1.580804 -0.005023 -0.912799
    39 2.991449 -9.374510 0.325510 0.095528 0.119434 -1.488343
    40 19.322884 -1.520438 0.000001 -0.047687 -0.045517 -2.625336
    41 4.079369 0.000000 0.000000 -0.000026 -0.008514 -0.236855
    42 2.865587 0.000000 0.000000 0.013175 0.060921 -0.048290
    43 3.536545 0.000001 0.000000 0.001776 0.003497 -0.042854
    44 3.559710 -0.000013 0.000000 -0.010111 0.015001 -0.112923
    45 4.710207 -0.000101 0.000000 0.004584 0.032459 -0.110083
    46 3.905177 -0.000001 0.000000 0.010158 0.020347 -0.025120
    47 4.815569 0.000000 0.000000 0.026346 0.003805 -0.053633
    48 -1.212046 -0.202562 -0.094716 0.000000 0.000000 0.000000
    49 -0.000912 -0.003783 0.001647 0.000000 0.000000 0.000000
    50 -25.326976 -9.819918 -13.144248 1.560140 -1.966001 -0.925124
    51 -4.453761 -0.007939 0.000000 0.000000 0.000000 -3.141592
    52 -2.200086 0.067634 0.000000 -3.141546 -1.518566 1.570749
    53 -4.271043 -2.117736 0.000000 0.000000 0.000000 -1.570796
  time 3
    0 -0.350419 1.162833 0.199844 0.000000 0.000000 0.000000
    1 10.114815 3.001421 -7.428896 5.319714 -1.313639 0.656734
    2 1.257180 8.762585 -0.153713 -1.570562 0.002683 -1.566807
    3 -0.071921 -8.498736 -0.104134 0.232779 0.117650 -0.263785
    4 -0.488518 -2.755602 -0.228260 -1.043629 0.109301 -0.409563
    5 0.039887 -1.479790 0.029854 -1.667534 0.000000 0.000001
    6 0.028786 -1.075731 -0.023109 -0.454494 0.000000 0.000000
    7 0.250027 -2.820665 -0.238396 -0.736464 0.165690 -0.428552
    8 -0.049759 -1.680544 0.100479 -1.752456 0.000000 -0.000002
    9 -0.034142 -1.148312 0.084782 -0.832785 0.000000 0.000000
    10 0.957766 -2.746780 -0.090302 -0.011001 -0.038416 -0.284218
    11 -0.033420 -1.397129 -0.011257 -0.387585 0.000000 -0.000001
    12 -0.022360 -0.957436 0.018784 -0.378742 0.000000 0.000000
    13 -1.180681 -2.507217 -0.193859 -1.338388 0.249247 -0.349932
    14 -0.024967 -1.123934 0.017597 -1.138797 0.000000 0.000001
    15 -0.020057 -0.890968 0.010090 -0.444208 0.000000 0.000000
    16 0.583510 -1.197277 0.185379 0.285937 -0.802989 -0.784582
    17 1.535927 0.010246 0.005009 -0.002964 -0.012979 -0.887970
    18 1.100771 0.004527 -0.010679 -0.012432 0.010412 -0.697598
    19 0.120153 -0.050270 -0.054489 0.287569 3.110905 1.561085
    20 0.194089 -8.047752 -11.587574 0.899862 -3.976362 1.446145
    21 0.096944 -8.450418 -0.009365 0.895570 -1.205050 -0.282365
    22 0.447953 -2.798986 -0.200443 -0.201129 -0.048267 0.155555
    23 -0.032909 -1.480204 0.004940 -1.593719 0.000000 0.000002
    24 -0.027022 -1.076920 -0.020210 -0.292132 0.000000 0.000000
    25 -0.249534 -2.846964 -0.174213 -0.067024 -0.120294 0.108622
    26 0.043235 -1.683941 0.096012 -1.614891 0.002823 -0.000167
    27 0.031729 -1.160830 0.058838 -0.657430 0.000642 0.008372
    28 -0.963866 -2.785145 -0.085350 0.139451 -0.019111 0.010300
    29 0.028479 -1.403067 0.006271 -0.911152 0.000000 0.000000
    30 0.021413 -0.957781 0.020046 -0.610175 0.000000 0.000000
    31 1.164475 -2.543940 -0.170330 -0.332902 -0.206474 0.236024
    32 0.024032 -1.129042 0.017807 -1.282632 0.000000 0.000001
    33 0.014898 -0.883989 -0.019848 -0.472474 0.000000 0.000000
    34 -0.586770 -1.264477 0.200161 0.252333 -0.391869 -2.599377
    35 1.522835 0.058681 0.016848 0.001410 0.008985 0.564782
    36 1.117947 0.048424 -0.005766 0.000584 -0.025198 0.032179
    37 -0.139399 -0.111698 0.014397 0.756540 0.088632 1.606227
    38 -6.260806 6.983652 -0.294122 1.580804 -0.005023 -0.912799
    39 2.991449 -9.374510 0.325510 0.095528 0.119434 -1.488343
    40 19.322884 -1.520438 0.000001 -0.072687 -0.049786 -2.623785
    41 4.079369 0.000000 0.000000 -0.000026 -0.008514 -0.236855
    42 2.865587 0.000000 0.000000 0.013175 0.065283 -0.048225
    43 3.536545 0.000001 0.000000 0.001776 0.010269 -0.042830
    44 3.559710 -0.000013 0.000000 -0.010111 0.021760 -0.112938
    45 4.710207 -0.000101 0.000000 0.004584 0.039218 -0.109915
    46 3.905177 -0.000001 0.000000 0.010146 0.027106 -0.024892
    47 4.815569 0.000000 0.000000 0.026298 0.010564 -0.053238
    48 -1.212046 -0.202562 -0.094716 0.000000 0.000000 0.000000
    49 -0.000912 -0.003783 0.001647 0.000000 0.000000 0.000000
    50 -23.541766 -16.722472 -14.511478 -1.558221 -1.004780 2.377479
    51 -4.391259 -0.007939 0.000000 0.000000 0.000000 -3.141592
    52 -2.200086 0.067634 0.000000 -3.141546 -1.492451 1.570749
    53 -4.271043 -2.117736 0.000000 0.000000 0.000000 -1.570796
  time 4
    0 -0.350419 1.162833 0.199844 0.000000 0.000000 0.000000
    1 10.103096 2.985795 -6.991382 5.542227 -1.301524 0.449454
    2 1.257180 8.762585 -0.153713 -1.570562 0.002683 -1.566807
    3 -0.071921 -8.498736 -0.104134 0.236374 0.115372 -0.239345
    4 -0.488518 -2.755602 -0.228260 -1.043629 0.109301 -0.409563
    5 0.039887 -1.479790 0.029854 -1.667534 0.000000 0.000001
    6 0.028786 -1.075731 -0.023109 -0.454494 0.000000 0.000000
    7 0.250027 -2.820665 -0.238396 -0.736464 0.165690 -0.428552
    8 -0.049759 -1.680544 0.100479 -1.752456 0.000000 -0.000002
    9 -0.034142 -1.148312 0.084782 -0.832761 0.000000 0.000000
    10 0.957766 -2.746780 -0.090302 -0.011001 -0.038416 -0.284218
    11 -0.033420 -1.397129 -0.011257 -0.387585 0.000000 -0.000001
    12 -0.022360 -0.957436 0.018784 -0.378742 0.000000 0.000000
    13 -1.180681 -2.507217 -0.193859 -1.338388 0.249247 -0.349932
    14 -0.024967 -1.123934 0.017597 -1.138797 0.000000 0.000001
    15 -0.020057 -0.890968 0.010090 -0.444208 0.000000 0.000000
    16 0.583510 -1.197277 0.185379 0.285937 -0.802989 -0.784582
    17 1.535927 0.010246 0.005009 -0.002964 -0.012979 -0.887970
    18 1.100771 0.004527 -0.010679 -0.012432 0.010412 -0.697598
    19 0.120153 -0.050270 -0.054489 0.287569 3.110905 1.561085
    20 0.283936 -6.887560 -11.384443 0.832679 -3.861710 1.414360
    21 0.096944 -8.450418 -0.009365 1.052446 -1.165604 -0.395437
    22 0.447953 -2.798986 -0.200443 0.265698 -0.071134 0.069026
    23 -0.032909 -1.480204 0.004940 -1.593719 0.000000 0.000002
    24 -0.027022 -1.076920 -0.020210 -0.292132 0.000000 0.000000
    25 -0.249534 -2.846964 -0.174213 0.276164 -0.134508 0.074909
    26 0.043235 -1.683941 0.096012 -1.469490 0.002823 -0.000167
    27 0.031729 -1.160830 0.058838 -0.814461 0.000642 0.008372
    28 -0.963866 -2.785145 -0.085350 0.382790 -0.024839 -0.021686
    29 0.028479 -1.403067 0.006271 -0.747847 0.000000 0.000000
    30 0.021413 -0.957781 0.020046 -0.419694 0.000000 0.000000
    31 1.164475 -2.543940 -0.170330 0.237978 -0.298815 0.124339
    32 0.024032 -1.129042 0.017807 -1.428740 0.000000 0.000001
    33 0.014898 -0.883989 -0.019848 -0.472474 0.000000 0.000000
    34 -0.586770 -1.264477 0.200161 0.235903 -0.554720 -2.615810
    35 1.522835 0.058681 0.016848 0.001410 0.008985 0.564782
    36 1.117947 0.048424 -0.005766 0.000584 -0.025198 0.032179
    37 -0.139399 -0.111698 0.014397 0.756526 0.088632 1.606227
    38 -6.260806 6.983652 -0.294122 1.580804 -0.005023 -0.912799
    39 2.991449 -9.374510 0.325510 0.095528 0.119434 -1.488343
    40 19.322884 -1.520438 0.000001 -0.097698 -0.054019 -2.622140
    41 4.079369 0.000000 0.000000 -0.000026 -0.008514 -0.236855
    42 2.865587 0.000000 0.000000 0.013175 0.069646 -0.048173
    43 3.536545 0.000001 0.000000 0.001776 0.017028 -0.042806
    44 3.559710 -0.000013 0.000000 -0.010111 0.028531 -0.112938
    45 4.710207 -0.000101 0.000000 0.004584 0.045978 -0.109747
    46 3.905177 -0.000001 0.000000 0.010134 0.033866 -0.024676
    47 4.815569 0.000000 0.000000 0.026250 0.017312 -0.052854
    48 -1.212046 -0.202562 -0.094716 0.000000 0.000000 0.000000
    49 -0.000912 -0.003783 0.001647 0.000000 0.000000 0.000000
    50 -20.299479 -22.812502 -15.109152 -1.513359 -0.829587 2.527112
    51 -4.328757 -0.007939 0.000000 0.000000 0.000000 -3.141592
    52 -2.200086 0.067634 0.000000 -3.141546 -1.467656 1.570749
    53 -4.271043 -2.117736 0.000000 0.000000 0.000000 -1.570796
  time 5
    0 -0.350419 1.162833 0.199844 0.000000 0.000000 0.000000
    1 10.064033 2.942825 -6.631997 5.691016 -1.279094 0.316924
    2 1.257180 8.762585 -0.153713 -1.570562 0.002683 -1.566807
    3 -0.071921 -8.498736 -0.104134 0.238639 0.117098 -0.235696
    4 -0.488518 -2.755602 -0.228260 -1.043629 0.109301 -0.409563
    5 0.039887 -1.479790 0.029854 -1.667534 0.000000 0.000001
    6 0.028786 -1.075731 -0.023109 -0.454494 0.000000 0.000000
    7 0.250027 -2.820665 -0.238396 -0.736464 0.165690 -0.428552
    8 -0.049759 -1.680544 0.100479 -1.752456 0.000000 -0.000002
    9 -0.034142 -1.148312 0.084782 -0.832785 0.000000 0.000000
    10 0.957766 -2.746780 -0.090302 -0.011001 -0.038416 -0.284218
    11 -0.033420 -1.397129 -0.011257 -0.387585 0.000000 -0.000001
    12 -0.022360 -0.957436 0.018784 -0.378742 0.000000 0.000000
    13 -1.180681 -2.507217 -0.193859 -1.338388 0.249247 -0.349932
    14 -0.024967 -1.123934 0.017597 -1.138797 0.000000 0.000001
    15 -0.020057 -0.890968 0.010090 -0.444208 0.000000 0.000000
    16 0.583510 -1.197277 0.185379 0.285937 -0.802989 -0.784582
    17 1.535927 0.010246 0.005009 -0.002964 -0.012979 -0.887970
    18 1.100771 0.004527 -0.010679 -0.012432 0.010412 -0.697598
    19 0.120153 -0.050270 -0.054489 0.287569 3.110905 1.561085
    20 0.201902 -6.024253 -10.935211 0.817400 -3.843738 1.452272
    21 0.096944 -8.450418 -0.009365 1.052396 -1.066913 -0.359756
    22 0.447953 -2.798986 -0.200443 0.461443 -0.080734 0.032737
    23 -0.032909 -1.480204 0.004940 -1.593719 0.000000 0.000002
    24 -0.027022 -1.076920 -0.020210 -0.292132 0.000000 0.000000
    25 -0.249534 -2.846964 -0.174213 0.420101 -0.140477 0.060779
    26 0.043235 -1.683941 0.096012 -1.408501 0.002823 -0.000167
    27 0.031729 -1.160830 0.058838 -0.880327 0.000642 0.008372
    28 -0.963866 -2.785145 -0.085350 0.484841 -0.027248 -0.035097
    29 0.028479 -1.403067 0.006271 -0.679389 0.000000 0.000000
    30 0.021413 -0.957781 0.020046 -0.303522 0.000000 0.000000
    31 1.164475 -2.543940 -0.170330 0.477368 -0.337537 0.064922
    32 0.024032 -1.129042 0.017807 -1.490037 0.000000 0.000001
    33 0.014898 -0.883989 -0.019848 -0.472474 0.000000 0.000000
    34 -0.586770 -1.264477 0.200161 0.229015 -0.623027 -2.622711
    35 1.522835 0.058681 0.016848 0.001410 0.008985 0.564782
    36 1.117947 0.048424 -0.005766 0.000584 -0.025198 0.032179
    37 -0.139399 -0.111698 0.014397 0.756526 0.088632 1.606227
    38 -6.260806 6.983652 -0.294122 1.580804 -0.005023 -0.912799
    39 2.991449 -9.374510 0.325510 0.095528 0.119434 -1.488343
    40 19.322884 -1.520438 0.000001 -0.122135 -0.056783 -2.620590
    41 4.079369 0.000000 0.000000 -0.000026 -0.008514 -0.236855
    42 2.865587 0.000000 0.000000 0.013187 0.073840 -0.048109
    43 3.536545 0.000001 0.000000 0.001776 0.023080 -0.042794
    44 3.559710 -0.000013 0.000000 -0.010111 0.034583 -0.112954
    45 4.710207 -0.000101 0.000000 0.004584 0.052030 -0.109603
    46 3.905177 -0.000001 0.000000 0.010122 0.039918 -0.024472
    47 4.815569 0.000000 0.000000 0.026214 0.023352 -0.052507
    48 -1.212046 -0.202562 -0.094716 0.000000 0.000000 0.000000
    49 -0.000912 -0.003783 0.001647 0.000000 0.000000 0.000000
    50 -18.170508 -25.363361 -15.249781 -1.499467 -0.714511 2.607136
    51 -4.277974 -0.007939 0.000000 0.000000 0.000000 -3.141592
    52 -2.200086 0.067634 0.000000 -3.141546 -1.445135 1.570749
    53 -4.271043 -2.117736 0.000000 0.000000 0.000000 -1.570796
  time 6
    0 -0.350419 1.162833 0.199844 0.000000 0.000000 0.000000
    1 9.993718 2.852979 -6.354644 5.758517 -1.254085 0.266678
    2 1.257180 8.762585 -0.153713 -1.570562 0.002683 -1.566807
    3 -0.071921 -8.498736 -0.104134 0.239118 0.124517 -0.260504
    4 -0.488518 -2.755602 -0.228260 -1.043629 0.109301 -0.409563
    5 0.039887 -1.479790 0.029854 -1.667534 0.000000 0.000001
    6 0.028786 -1.075731 -0.023109 -0.454494 0.000000 0.000000
    7 0.250027 -2.820665 -0.238396 -0.736464 0.165690 -0.428552
    8 -0.049759 -1.680544 0.100479 -1.752456 0.000000 -0.000002
    9 -0.034142 -1.148312 0.084782 -0.832761 0.000000 0.000000
    10 0.957766 -2.746780 -0.090302 -0.011001 -0.038416 -0.284218
    11 -0.033420 -1.397129 -0.011257 -0.387585 0.000000 -0.000001
    12 -0.022360 -0.957436 0.018784 -0.378742 0.000000 0.000000
    13 -1.180681 -2.507217 -0.193859 -1.338388 0.249247 -0.349932
    14 -0.024967 -1.123934 0.017597 -1.138797 0.000000 0.000001
    15 -0.020057 -0.890968 0.010090 -0.444208 0.000000 0.000000
    16 0.583510 -1.197277 0.185379 0.285937 -0.802989 -0.784582
    17 1.535927 0.010246 0.005009 -0.002964 -0.012979 -0.887970
    18 1.100771 0.004527 -0.010679 -0.012432 0.010412 -0.697598
    19 0.120153 -0.050270 -0.054489 0.287569 3.110905 1.561085
    20 -0.227799 -5.649241 -10.005495 -2.236375 -5.411715 -1.533435
    21 0.096944 -8.450418 -0.009365 0.845736 -0.750501 -0.117507
    22 0.447953 -2.798986 -0.200443 0.416316 -0.080734 0.032737
    23 -0.032909 -1.480204 0.004940 -1.579976 0.000000 0.000002
    24 -0.027022 -1.076920 -0.020210 -0.293430 0.000000 0.000000
    25 -0.249534 -2.846964 -0.174213 0.397645 -0.140477 0.060779
    26 0.043235 -1.683941 0.096012 -1.410161 0.002823 -0.000167
    27 0.031729 -1.160830 0.058838 -0.855738 0.000642 0.008372
    28 -0.963866 -2.785145 -0.085350 0.464901 -0.027248 -0.035097
    29 0.028479 -1.403067 0.006271 -0.709948 0.000000 0.000000
    30 0.021413 -0.957781 0.020046 -0.250251 0.000000 0.000000
    31 1.164475 -2.543940 -0.170330 0.434636 -0.327806 0.046300
    32 0.024032 -1.129042 0.017807 -1.482480 0.000000 0.000001
    33 0.014898 -0.883989 -0.019848 -0.464025 0.000000 0.000000
    34 -0.586770 -1.264477 0.200161 0.238161 -0.616372 -2.614147
    35 1.522835 0.058681 0.016848 0.001410 0.008985 0.555616
    36 1.117947 0.048424 -0.005766 -0.000207 -0.024874 0.067022
    37 -0.139399 -0.111698 0.014397 0.756526 0.088632 1.606227
    38 -6.260806 6.983652 -0.294122 1.580804 -0.005023 -0.912799
    39 2.991449 -9.374510 0.325510 0.095528 0.119434 -1.488343
    40 19.322884 -1.520438 0.000001 -0.145433 -0.056643 -2.619373
    41 4.079369 0.000000 0.000000 -0.000026 -0.008514 -0.236855
    42 2.865587 0.000000 0.000000 0.013187 0.077723 -0.048057
    43 3.536545 0.000001 0.000000 0.001776 0.027706 -0.042782
    44 3.559710 -0.000013 0.000000 -0.010111 0.039209 -0.112954
    45 4.710207 -0.000101 0.000000 0.004584 0.056656 -0.109495
    46 3.905177 -0.000001 0.000000 0.010122 0.044544 -0.024329
    47 4.815569 0.000000 0.000000 0.026178 0.027978 -0.052243
    48 -1.212046 -0.202562 -0.094716 0.000000 0.000000 0.000000
    49 -0.000912 -0.003783 0.001647 0.000000 0.000000 0.000000
    50 -18.037691 -26.949347 -12.523136 -1.401762 -0.550598 2.509932
    51 -4.277974 -0.007939 0.000000 0.000000 0.000000 -3.141592
    52 -2.200086 0.067634 0.000000 -3.141546 -1.445135 1.570749
    53 -4.271043 -2.117736 0.000000 0.000000 0.000000 -1.570796
  time 7
    0 -0.350419 1.162833 0.199844 0.000000 0.000000 0.000000
    1 9.892152 2.720162 -6.151513 5.773837 -1.230096 0.269633
    2 1.257180 8.762585 -0.153713 -1.570562 0.002683 -1.566807
    3 -0.071921 -8.498736 -0.104134 0.237764 0.136417 -0.307878
    4 -0.488518 -2.755602 -0.228260 -1.043629 0.109301 -0.409563
    5 0.039887 -1.479790 0.029854 -1.667534 0.000000 0.000001
    6 0.028786 -1.075731 -0.023109 -0.454494 0.000000 0.000000
    7 0.250027 -2.820665 -0.238396 -0.736464 0.165690 -0.428552
    8 -0.049759 -1.680544 0.100479 -1.752456 0.000000 -0.000002
    9 -0.034142 -1.148312 0.084782 -0.832785 0.000000 0.000000
    10 0.957766 -2.746780 -0.090302 -0.011001 -0.038416 -0.284218
    11 -0.033420 -1.397129 -0.011257 -0.387585 0.000000 -0.000001
    12 -0.022360 -0.957436 0.018784 -0.378742 0.000000 0.000000
    13 -1.180681 -2.507217 -0.193859 -1.338388 0.249247 -0.349932
    14 -0.024967 -1.123934 0.017597 -1.138797 0.000000 0.000001
    15 -0.020057 -0.890968 0.010090 -0.444208 0.000000 0.000000
    16 0.583510 -1.197277 0.185379 0.285937 -0.802989 -0.784582
    17 1.535927 0.010246 0.005009 -0.002964 -0.012979 -0.887970
    18 1.100771 0.004527 -0.010679 -0.012432 0.010412 -0.697598
    19 0.120153 -0.050270 -0.054489 0.287569 3.110905 1.561085
    20 -0.735627 -5.653148 -8.817959 -1.928596 -5.177470 -1.168491
    21 0.096944 -8.450418 -0.009365 0.692523 -0.273595 0.057159
    22 0.447953 -2.798986 -0.200443 0.297282 -0.080734 0.032737
    23 -0.032909 -1.480204 0.004940 -1.541697 0.000000 0.000002
    24 -0.027022 -1.076920 -0.020210 -0.297972 0.000000 0.000000
    25 -0.249534 -2.846964 -0.174213 0.338313 -0.140477 0.060779
    26 0.043235 -1.683941 0.096012 -1.414464 0.002823 -0.000167
    27 0.031729 -1.160830 0.058838 -0.790893 0.000642 0.008372
    28 -0.963866 -2.785145 -0.085350 0.412245 -0.027248 -0.035097
    29 0.028479 -1.403067 0.006271 -0.790470 0.000000 0.000000
    30 0.021413 -0.957781 0.020046 -0.209236 0.000000 0.000000
    31 1.164475 -2.543940 -0.170330 0.321985 -0.302171 0.031581
    32 0.024032 -1.129042 0.017807 -1.460551 0.000000 0.000001
    33 0.014898 -0.883989 -0.019848 -0.441708 0.000000 0.000000
    34 -0.586770 -1.264477 0.200161 0.262298 -0.598797 -2.591558
    35 1.522835 0.058681 0.016848 0.001410 0.008985 0.531489
    36 1.117947 0.048424 -0.005766 -0.002280 -0.024035 0.159030
    37 -0.139399 -0.111698 0.014397 0.756526 0.088632 1.606227
    38 -6.260806 6.983652 -0.294122 1.580804 -0.005023 -0.912799
    39 2.991449 -9.374510 0.325510 0.095528 0.119434 -1.488343
    40 19.322884 -1.520438 0.000001 -0.166981 -0.052182 -2.618849
    41 4.079369 0.000000 0.000000 -0.000026 -0.008514 -0.236855
    42 2.865587 0.000000 0.000000 0.013187 0.081127 -0.048018
    43 3.536545 0.000001 0.000000 0.001776 0.030187 -0.042770
    44 3.559710 -0.000013 0.000000 -0.010111 0.041678 -0.112954
    45 4.710207 -0.000101 0.000000 0.004584 0.059137 -0.109435
    46 3.905177 -0.000001 0.000000 0.010122 0.047013 -0.024245
    47 4.815569 0.000000 0.000000 0.026166 0.030447 -0.052099
    48 -1.212046 -0.202562 -0.094716 0.000000 0.000000 0.000000
    49 -0.000912 -0.003783 0.001647 0.000000 0.000000 0.000000
    50 -19.697898 -28.386890 -5.561986 -1.207010 -0.324587 2.337868
    51 -4.172502 -0.007939 0.000000 0.000000 0.000000 -3.141592
    52 -2.200086 0.067634 0.000000 -0.000046 -1.246484 -1.570797
    53 -4.271043 -2.117736 0.000000 0.000000 0.000000 -1.570796
  time 8
    0 -0.350419 1.162833 0.199844 0.000000 0.000000 0.000000
    1 9.771055 2.571720 -6.003071 5.767900 -1.206586 0.294232
    2 1.257180 8.762585 -0.153713 -1.570562 0.002683 -1.566807
    3 -0.071921 -8.498736 -0.104134 0.234780 0.150284 -0.366450
    4 -0.488518 -2.755602 -0.228260 -1.043629 0.109301 -0.409563
    5 0.039887 -1.479790 0.029854 -1.667534 0.000000 0.000001
    6 0.028786 -1.075731 -0.023109 -0.454494 0.000000 0.000000
    7 0.250027 -2.820665 -0.238396 -0.736464 0.165690 -0.428552
    8 -0.049759 -1.680544 0.100479 -1.752456 0.000000 -0.000002
    9 -0.034142 -1.148312 0.084782 -0.832761 0.000000 0.000000
    10 0.957766 -2.746780 -0.090302 -0.011001 -0.038416 -0.284218
    11 -0.033420 -1.397129 -0.011257 -0.387585 0.000000 -0.000001
    12 -0.022360 -0.957436 0.018784 -0.378742 0.000000 0.000000
    13 -1.180681 -2.507217 -0.193859 -1.338388 0.249247 -0.349932
    14 -0.024967 -1.123934 0.017597 -1.138797 0.000000 0.000001
    15 -0.020057 -0.890968 0.010090 -0.444208 0.000000 0.000000
    16 0.583510 -1.197277 0.185379 0.285937 -0.802989 -0.784582
    17 1.535927 0.010246 0.005009 -0.002964 -0.012979 -0.887970
    18 1.100771 0.004527 -0.010679 -0.012432 0.010412 -0.697598
    19 0.120153 -0.050270 -0.054489 0.287569 3.110905 1.561085
    20 -1.040324 -5.832841 -7.817928 -1.488069 -5.072703 -0.700727
    21 0.096944 -8.450418 -0.009365 0.613343 -0.016488 0.097381
    22 0.447953 -2.798986 -0.200443 0.128993 -0.080734 0.032737
    23 -0.032909 -1.480204 0.004940 -1.483042 0.000000 0.000002
    24 -0.027022 -1.076920 -0.020210 -0.306908 0.000000 0.000000
    25 -0.249534 -2.846964 -0.174213 0.254495 -0.140477 0.060779
    26 0.043235 -1.683941 0.096012 -1.420612 0.002823 -0.000167
    27 0.031729 -1.160830 0.058838 -0.699240 0.000642 0.008372
    28 -0.963866 -2.785145 -0.085350 0.337792 -0.027248 -0.035097
    29 0.028479 -1.403067 0.006271 -0.904316 0.000000 0.000000
    30 0.021413 -0.957781 0.020046 -0.178826 0.000000 0.000000
    31 1.164475 -2.543940 -0.170330 0.162644 -0.265917 0.020341
    32 0.024032 -1.129042 0.017807 -1.425411 0.000000 0.000001
    33 0.014898 -0.883989 -0.019848 -0.410161 0.000000 0.000000
    34 -0.586770 -1.264477 0.200161 0.296400 -0.573973 -2.559611
    35 1.522835 0.058681 0.016848 0.001410 0.008985 0.497363
    36 1.117947 0.048424 -0.005766 -0.005241 -0.022849 0.289120
    37 -0.139399 -0.111698 0.014397 0.756526 0.088632 1.606227
    38 -6.260806 6.983652 -0.294122 1.580804 -0.005023 -0.912799
    39 2.991449 -9.374510 0.325510 0.095528 0.119434 -1.488343
    40 19.322884 -1.520438 0.000001 -0.186205 -0.042035 -2.619373
    41 4.079369 0.000000 0.000000 -0.000026 -0.008514 -0.236855
    42 2.865587 0.000000 0.000000 0.013199 0.083895 -0.047979
    43 3.536545 0.000001 0.000000 0.001776 0.029815 -0.042770
    44 3.559710 -0.000013 0.000000 -0.010111 0.041307 -0.112954
    45 4.710207 -0.000101 0.000000 0.004584 0.058753 -0.109435
    46 3.905177 -0.000001 0.000000 0.010122 0.046641 -0.024257
    47 4.815569 0.000000 0.000000 0.026166 0.030075 -0.052123
    48 -1.212046 -0.202562 -0.094716 0.000000 0.000000 0.000000
    49 -0.000912 -0.003783 0.001647 0.000000 0.000000 0.000000
    50 -22.569080 -27.011848 -0.128226 -1.059695 -0.249470 2.203457
    51 -4.000622 -0.007939 0.000000 0.000000 0.000000 -3.141592
    52 -2.200086 0.067634 0.000000 -0.000046 -0.780960 -1.570749
    53 -4.271043 -2.117736 0.000000 0.000000 0.000000 -1.570796
  time 9
    0 -0.350419 1.162833 0.199844 0.000000 0.000000 0.000000
    1 9.653864 2.431091 -5.905412 5.764262 -1.182657 0.317020
    2 1.257180 8.762585 -0.153713 -1.570562 0.002683 -1.566807
    3 -0.071921 -8.498736 -0.104134 0.230861 0.163646 -0.424738
    4 -0.488518 -2.755602 -0.228260 -1.043629 0.109301 -0.409563
    5 0.039887 -1.479790 0.029854 -1.667534 0.000000 0.000001
    6 0.028786 -1.075731 -0.023109 -0.454494 0.000000 0.000000
    7 0.250027 -2.820665 -0.238396 -0.736464 0.165690 -0.428552
    8 -0.049759 -1.680544 0.100479 -1.752456 0.000000 -0.000002
    9 -0.034142 -1.148312 0.084782 -0.832761 0.000000 0.000000
    10 0.957766 -2.746780 -0.090302 -0.011001 -0.038416 -0.284218
    11 -0.033420 -1.397129 -0.011257 -0.387585 0.000000 -0.000001
    12 -0.022360 -0.957436 0.018784 -0.378742 0.000000 0.000000
    13 -1.180681 -2.507217 -0.193859 -1.338388 0.249247 -0.349932
    14 -0.024967 -1.123934 0.017597 -1.138797 0.000000 0.000001
    15 -0.020057 -0.890968 0.010090 -0.444208 0.000000 0.000000
    16 0.583510 -1.197277 0.185379 0.285937 -0.802989 -0.784582
    17 1.535927 0.010246 0.005009 -0.002964 -0.012979 -0.887970
    18 1.100771 0.004527 -0.010679 -0.012432 0.010412 -0.697598
    19 0.120153 -0.050270 -0.054489 0.287569 3.110905 1.561085
    20 -0.833286 -6.321137 -7.310100 -1.575706 -5.075474 -0.780283
    21 0.096944 -8.450418 -0.009365 0.582116 -0.474738 -0.042901
    22 0.447953 -2.798986 -0.200443 -0.063896 -0.080734 0.032737
    23 -0.032909 -1.480204 0.004940 -1.408274 0.000000 0.000002
    24 -0.027022 -1.076920 -0.020210 -0.321385 0.000000 0.000000
    25 -0.249534 -2.846964 -0.174213 0.158412 -0.140477 0.060779
    26 0.043235 -1.683941 0.096012 -1.427621 0.002823 -0.000167
    27 0.031729 -1.160830 0.058838 -0.594183 0.000642 0.008372
    28 -0.963866 -2.785145 -0.085350 0.252496 -0.027248 -0.035097
    29 0.028479 -1.403067 0.006271 -1.034799 0.000000 0.000000
    30 0.021413 -0.957781 0.020046 -0.157534 0.000000 0.000000
    31 1.164475 -2.543940 -0.170330 -0.019925 -0.224367 0.012144
    32 0.024032 -1.129042 0.017807 -1.378276 0.000000 0.000001
    33 0.014898 -0.883989 -0.019848 -0.374022 0.000000 0.000000
    34 -0.586770 -1.264477 0.200161 0.335499 -0.545524 -2.523022
    35 1.522835 0.058681 0.016848 0.001410 0.008985 0.458237
    36 1.117947 0.048424 -0.005766 -0.008632 -0.021483 0.438212
    37 -0.139399 -0.111698 0.014397 0.756540 0.088632 1.606227
    38 -6.260806 6.983652 -0.294122 1.580804 -0.005023 -0.912799
    39 2.991449 -9.374510 0.325510 0.095528 0.119434 -1.488343
    40 19.322884 -1.520438 0.000001 -0.202528 -0.024803 -2.621281
    41 4.079369 0.000000 0.000000 -0.000026 -0.008514 -0.236855
    42 2.865587 0.000000 0.000000 0.013199 0.085873 -0.047954
    43 3.536545 0.000001 0.000000 0.001776 0.025861 -0.042782
    44 3.559710 -0.000013 0.000000 -0.010111 0.037364 -0.112954
    45 4.710207 -0.000101 0.000000 0.004584 0.054810 -0.109531
    46 3.905177 -0.000001 0.000000 0.010122 0.042698 -0.024388
    47 4.815569 0.000000 0.000000 0.026190 0.026132 -0.052351
    48 -1.212046 -0.202562 -0.094716 0.000000 0.000000 0.000000
    49 -0.000912 -0.003783 0.001647 0.000000 0.000000 0.000000
    50 -26.834835 -22.453116 1.574951 -0.869944 -0.685412 1.976737
    51 -3.969371 -0.007939 0.000000 0.000000 0.000000 -3.141592
    52 -2.200086 0.067634 0.000000 -0.000046 -0.554727 -1.570797
    53 -4.271043 -2.117736 0.000000 0.000000 0.000000 -1.570796
  time 10
    0 -0.350419 1.162833 0.199844 0.000000 0.000000 0.000000
    1 9.544486 2.321712 -5.839004 5.780826 -1.157648 0.319689
    2 1.257180 8.762585 -0.153713 -1.570562 0.002683 -1.566807
    3 -0.071921 -8.498736 -0.104134 0.227290 0.174241 -0.471157
    4 -0.488518 -2.755602 -0.228260 -1.043629 0.109301 -0.409563
    5 0.039887 -1.479790 0.029854 -1.667534 0.000000 0.000001
    6 0.028786 -1.075731 -0.023109 -0.454494 0.000000 0.000000
    7 0.250027 -2.820665 -0.238396 -0.736464 0.165690 -0.428552
    8 -0.049759 -1.680544 0.100479 -1.752456 0.000000 -0.000002
    9 -0.034142 -1.148312 0.084782 -0.832761 0.000000 0.000000
    10 0.957766 -2.746780 -0.090302 -0.011001 -0.038416 -0.284218
    11 -0.033420 -1.397129 -0.011257 -0.387585 0.000000 -0.000001
    12 -0.022360 -0.957436 0.018784 -0.378742 0.000000 0.000000
    13 -1.180681 -2.507217 -0.193859 -1.338388 0.249247 -0.349932
    14 -0.024967 -1.123934 0.017597 -1.138797 0.000000 0.000001
    15 -0.020057 -0.890968 0.010090 -0.444208 0.000000 0.000000
    16 0.583510 -1.197277 0.185379 0.285937 -0.802989 -0.784582
    17 1.535927 0.010246 0.005009 -0.002964 -0.012979 -0.887970
    18 1.100771 0.004527 -0.010679 -0.012432 0.010412 -0.697598
    19 0.120153 -0.050270 -0.054489 0.287569 3.110905 1.561085
    20 -0.520777 -6.766463 -7.290568 -2.017930 -5.175448 -1.244792
    21 0.096944 -8.450418 -0.009365 0.704993 -1.034989 -0.300262
    22 0.447953 -2.798986 -0.200443 -0.256784 -0.080734 0.032737
    23 -0.032909 -1.480204 0.004940 -1.321712 0.000000 0.000002
    24 -0.027022 -1.076920 -0.020210 -0.342500 0.000000 0.000000
    25 -0.249534 -2.846964 -0.174213 0.062329 -0.140477 0.060779
    26 0.043235 -1.683941 0.096012 -1.434630 0.002823 -0.000167
    27 0.031729 -1.160830 0.058838 -0.489081 0.000642 0.008372
    28 -0.963866 -2.785145 -0.085350 0.167163 -0.027248 -0.035097
    29 0.028479 -1.403067 0.006271 -1.165332 0.000000 0.000000
    30 0.021413 -0.957781 0.020046 -0.143664 0.000000 0.000000
    31 1.164475 -2.543940 -0.170330 -0.202553 -0.182804 0.006538
    32 0.024032 -1.129042 0.017807 -1.320150 0.000000 0.000001
    33 0.014898 -0.883989 -0.019848 -0.337883 0.000000 0.000000
    34 -0.586770 -1.264477 0.200161 0.374598 -0.517060 -2.486408
    35 1.522835 0.058681 0.016848 0.001410 0.008985 0.419112
    36 1.117947 0.048424 -0.005766 -0.012024 -0.020117 0.587305
    37 -0.139399 -0.111698 0.014397 0.756526 0.088632 1.606227
    38 -6.260806 6.983652 -0.294122 1.580804 -0.005023 -0.912799
    39 2.991449 -9.374510 0.325510 0.095528 0.119434 -1.488343
    40 19.322884 -1.520438 0.000001 -0.216310 0.015732 -2.625264
    41 4.079369 0.000000 0.000000 -0.000002 -0.008322 -0.239692
    42 2.865587 0.000000 0.000000 0.013247 0.084279 -0.046531
    43 3.536545 0.000001 0.000000 0.001788 0.008183 -0.043190
    44 3.559710 -0.000013 0.000000 -0.010063 0.021928 -0.111433
    45 4.710207 -0.000101 0.000000 0.004440 0.039386 -0.113570
    46 3.905177 -0.000001 0.000000 0.010158 0.027250 -0.024712
    47 4.815569 0.000000 0.000000 0.026286 0.010696 -0.052938
    48 -1.212046 -0.202562 -0.094716 0.000000 0.000000 0.000000
    49 -0.000912 -0.003783 0.001647 0.000000 0.000000 0.000000
    50 -26.616078 -22.273423 6.266500 -0.385312 -1.012219 1.611690
    51 -4.277974 -0.007939 0.000000 0.000000 0.000000 -3.141592
    52 -2.200086 0.067634 0.000000 -0.000046 -0.351821 -1.570797
    53 -4.271043 -2.117736 0.000000 0.000000 0.000000 -1.570796
  time 11
    0 -0.350419 1.162833 0.199844 0.000000 0.000000 0.000000
    1 9.474171 2.263117 -5.885880 5.828891 -1.128081 0.291658
    2 1.257180 8.762585 -0.153713 -1.570562 0.002683 -1.566807
    3 -0.071921 -8.498736 -0.104134 0.224449 0.181192 -0.501824
    4 -0.488518 -2.755602 -0.228260 -1.043629 0.109301 -0.409563
    5 0.039887 -1.479790 0.029854 -1.667534 0.000000 0.000001
    6 0.028786 -1.075731 -0.023109 -0.454494 0.000000 0.000000
    7 0.250027 -2.820665 -0.238396 -0.736464 0.165690 -0.428552
    8 -0.049759 -1.680544 0.100479 -1.752456 0.000000 -0.000002
    9 -0.034142 -1.148312 0.084782 -0.832785 0.000000 0.000000
    10 0.957766 -2.746780 -0.090302 -0.011001 -0.038416 -0.284218
    11 -0.033420 -1.397129 -0.011257 -0.387585 0.000000 -0.000001
    12 -0.022360 -0.957436 0.018784 -0.378742 0.000000 0.000000
    13 -1.180681 -2.507217 -0.193859 -1.338388 0.249247 -0.349932
    14 -0.024967 -1.123934 0.017597 -1.138797 0.000000 0.000001
    15 -0.020057 -0.890968 0.010090 -0.444208 0.000000 0.000000
    16 0.583510 -1.197277 0.185379 0.285937 -0.802989 -0.784582
    17 1.535927 0.010246 0.005009 -0.002964 -0.012979 -0.887970
    18 1.100771 0.004527 -0.010679 -0.012432 0.010412 -0.697598
    19 0.120153 -0.050270 -0.054489 0.287569 3.110905 1.561085
    20 -0.466087 -6.696148 -7.720269 0.788942 -3.986771 1.494108
    21 0.096944 -8.450418 -0.009365 0.720879 -1.122426 -0.377807
    22 0.447953 -2.798986 -0.200443 -0.425073 -0.080734 0.032737
    23 -0.032909 -1.480204 0.004940 -1.227569 0.000000 0.000002
    24 -0.027022 -1.076920 -0.020210 -0.371354 0.000000 0.000000
    25 -0.249534 -2.846964 -0.174213 -0.021489 -0.140477 0.060779
    26 0.043235 -1.683941 0.096012 -1.440778 0.002823 -0.000167
    27 0.031729 -1.160830 0.058838 -0.397428 0.000642 0.008372
    28 -0.963866 -2.785145 -0.085350 0.092709 -0.027248 -0.035097
    29 0.028479 -1.403067 0.006271 -1.279178 0.000000 0.000000
    30 0.021413 -0.957781 0.020046 -0.135733 0.000000 0.000000
    31 1.164475 -2.543940 -0.170330 -0.361836 -0.146563 0.003073
    32 0.024032 -1.129042 0.017807 -1.252354 0.000000 0.000001
    33 0.014898 -0.883989 -0.019848 -0.306335 0.000000 0.000000
    34 -0.586770 -1.264477 0.200161 0.408700 -0.492236 -2.454461
    35 1.522835 0.058681 0.016848 0.001410 0.008985 0.384986
    36 1.117947 0.048424 -0.005766 -0.014984 -0.018930 0.717395
    37 -0.139399 -0.111698 0.014397 0.756540 0.088632 1.606227
    38 -6.260806 6.983652 -0.294122 1.580804 -0.005023 -0.912799
    39 2.991449 -9.374510 0.325510 0.095528 0.119434 -1.488343
    40 19.322884 -1.520438 0.000001 -0.226677 0.082387 -2.632133
    41 4.079369 0.000000 0.000000 0.000070 -0.007938 -0.245393
    42 2.865587 0.000000 0.000000 0.013343 0.078790 -0.043726
    43 3.536545 0.000001 0.000000 0.001848 -0.024690 -0.044017
    44 3.559710 -0.000013 0.000000 -0.010051 -0.006440 -0.108376
    45 4.710207 -0.000101 0.000000 0.004320 0.011043 -0.121588
    46 3.905177 -0.000001 0.000000 0.010218 -0.001129 -0.025287
    47 4.815569 0.000000 0.000000 0.026466 -0.017671 -0.053969
    48 -1.212046 -0.202562 -0.094716 0.000000 0.000000 0.000000
    49 -0.000912 -0.003783 0.001647 0.000000 0.000000 0.000000
    50 -22.295634 -26.714964 7.950145 -0.495393 -0.866125 1.933922
    51 -5.293630 -0.007939 0.000000 0.000000 0.000000 -3.141592
    52 -2.200086 0.067634 0.000000 -0.000046 -0.015552 -1.570749
    53 -4.271043 -2.117736 0.000000 0.000000 0.000000 -1.570796
  time 12
    0 -0.350419 1.162833 0.199844 0.000000 0.000000 0.000000
    1 9.411669 2.243585 -6.046041 5.887583 -1.095756 0.253615
    2 1.257180 8.762585 -0.153713 -1.570562 0.002683 -1.566807
    3 -0.071921 -8.498736 -0.104134 0.222424 0.185219 -0.520506
    4 -0.488518 -2.755602 -0.228260 -1.043629 0.109301 -0.409563
    5 0.039887 -1.479790 0.029854 -1.667534 0.000000 0.000001
    6 0.028786 -1.075731 -0.023109 -0.454494 0.000000 0.000000
    7 0.250027 -2.820665 -0.238396 -0.736464 0.165690 -0.428552
    8 -0.049759 -1.680544 0.100479 -1.752456 0.000000 -0.000002
    9 -0.034142 -1.148312 0.084782 -0.832761 0.000000 0.000000
    10 0.957766 -2.746780 -0.090302 -0.011001 -0.038416 -0.284218
    11 -0.033420 -1.397129 -0.011257 -0.387585 0.000000 -0.000001
    12 -0.022360 -0.957436 0.018784 -0.378742 0.000000 0.000000
    13 -1.180681 -2.507217 -0.193859 -1.338388 0.249247 -0.349932
    14 -0.024967 -1.123934 0.017597 -1.138797 0.000000 0.000001
    15 -0.020057 -0.890968 0.010090 -0.444208 0.000000 0.000000
    16 0.583510 -1.197277 0.185379 0.285937 -0.802989 -0.784582
    17 1.535927 0.010246 0.005009 -0.002964 -0.012979 -0.887970
    18 1.100771 0.004527 -0.010679 -0.012432 0.010412 -0.697598
    19 0.120153 -0.050270 -0.054489 0.287569 3.110905 1.561085
    20 -0.536402 -6.426609 -8.399977 0.643097 -3.616606 1.268938
    21 0.096944 -8.450418 -0.009365 0.633682 -1.079460 -0.333654
    22 0.447953 -2.798986 -0.200443 -0.544107 -0.080734 0.032737
    23 -0.032909 -1.480204 0.004940 -1.130107 0.000000 0.000002
    24 -0.027022 -1.076920 -0.020210 -0.409043 0.000000 0.000000
    25 -0.249534 -2.846964 -0.174213 -0.080779 -0.140477 0.060779
    26 0.043235 -1.683941 0.096012 -1.445082 0.002823 -0.000167
    27 0.031729 -1.160830 0.058838 -0.332583 0.000642 0.008372
    28 -0.963866 -2.785145 -0.085350 0.040092 -0.027248 -0.035097
    29 0.028479 -1.403067 0.006271 -1.359700 0.000000 0.000000
    30 0.021413 -0.957781 0.020046 -0.132128 0.000000 0.000000
    31 1.164475 -2.543940 -0.170330 -0.474545 -0.120916 0.001326
    32 0.024032 -1.129042 0.017807 -1.175892 0.000000 0.000001
    33 0.014898 -0.883989 -0.019848 -0.284018 0.000000 0.000000
    34 -0.586770 -1.264477 0.200161 0.432837 -0.474661 -2.431872
    35 1.522835 0.058681 0.016848 0.001410 0.008985 0.360822
    36 1.117947 0.048424 -0.005766 -0.017069 -0.018091 0.809363
    37 -0.139399 -0.111698 0.014397 0.756526 0.088632 1.606227
    38 -6.260806 6.983652 -0.294122 1.580804 -0.005023 -0.912799
    39 2.991449 -9.374510 0.325510 0.095528 0.119434 -1.488343
    40 19.322884 -1.520438 0.000001 -0.231303 0.156653 -2.641768
    41 4.079369 0.000000 0.000000 0.000118 -0.007651 -0.249691
    42 2.865587 0.000000 0.000000 0.013391 0.072929 -0.041632
    43 3.536545 0.000001 0.000000 0.001932 -0.060357 -0.044676
    44 3.559710 -0.000013 0.000000 -0.010123 -0.038762 -0.106055
    45 4.710207 -0.000101 0.000000 0.004476 -0.021244 -0.127856
    46 3.905177 -0.000001 0.000000 0.010326 -0.033464 -0.026078
    47 4.815569 0.000000 0.000000 0.026730 -0.049970 -0.055383
    48 -1.212046 -0.202562 -0.094716 0.000000 0.000000 0.000000
    49 -0.000912 -0.003783 0.001647 0.000000 0.000000 0.000000
    50 -17.557208 -30.410390 8.625947 -0.700148 -0.527199 2.343387
    51 -6.801489 -0.007939 0.000000 0.000000 0.000000 -3.141592
    52 -2.200086 0.067634 0.000000 -0.000046 0.354094 -1.570749
    53 -4.271043 -2.117736 0.000000 0.000000 0.000000 -1.570796
  time 13
    0 -0.350419 1.162833 0.199844 0.000000 0.000000 0.000000
    1 9.278852 2.243585 -6.178858 5.930573 -1.069008 0.229588
    2 1.257180 8.762585 -0.153713 -1.570562 0.002683 -1.566807
    3 -0.071921 -8.498736 -0.104134 0.222220 0.186525 -0.527035
    4 -0.488518 -2.755602 -0.228260 -1.043629 0.109301 -0.409563
    5 0.039887 -1.479790 0.029854 -1.667534 0.000000 0.000001
    6 0.028786 -1.075731 -0.023109 -0.454494 0.000000 0.000000
    7 0.250027 -2.820665 -0.238396 -0.736464 0.165690 -0.428552
    8 -0.049759 -1.680544 0.100479 -1.752456 0.000000 -0.000002
    9 -0.034142 -1.148312 0.084782 -0.832785 0.000000 0.000000
    10 0.957766 -2.746780 -0.090302 -0.011001 -0.038416 -0.284218
    11 -0.033420 -1.397129 -0.011257 -0.387585 0.000000 -0.000001
    12 -0.022360 -0.957436 0.018784 -0.378742 0.000000 0.000000
    13 -1.180681 -2.507217 -0.193859 -1.338388 0.249247 -0.349932
    14 -0.024967 -1.123934 0.017597 -1.138797 0.000000 0.000001
    15 -0.020057 -0.890968 0.010090 -0.444208 0.000000 0.000000
    16 0.583510 -1.197277 0.185379 0.285937 -0.802989 -0.784582
    17 1.535927 0.010246 0.005009 -0.002964 -0.012979 -0.887970
    18 1.100771 0.004527 -0.010679 -0.012432 0.010412 -0.697598
    19 0.120153 -0.050270 -0.054489 0.287569 3.110905 1.561085
    20 -0.735627 -6.231290 -8.911711 0.599036 -3.293320 1.158268
    21 0.096944 -8.450418 -0.009365 0.566280 -1.034989 -0.300262
    22 0.447953 -2.798986 -0.200443 -0.589288 -0.080734 0.032737
    23 -0.032909 -1.480204 0.004940 -1.033594 0.000000 0.000002
    24 -0.027022 -1.076920 -0.020210 -0.456716 0.000000 0.000000
    25 -0.249534 -2.846964 -0.174213 -0.103236 -0.140477 0.060779
    26 0.043235 -1.683941 0.096012 -1.446742 0.002823 -0.000167
    27 0.031729 -1.160830 0.058838 -0.307994 0.000642 0.008372
    28 -0.963866 -2.785145 -0.085350 0.020113 -0.027248 -0.035097
    29 0.028479 -1.403067 0.006271 -1.390260 0.000000 0.000000
    30 0.021413 -0.957781 0.020046 -0.131280 0.000000 0.000000
    31 1.164475 -2.543940 -0.170330 -0.517276 -0.111196 0.000831
    32 0.024032 -1.129042 0.017807 -1.091979 0.000000 0.000001
    33 0.014898 -0.883989 -0.019848 -0.275569 0.000000 0.000000
    34 -0.586770 -1.264477 0.200161 0.441983 -0.468006 -2.423308
    35 1.522835 0.058681 0.016848 0.001410 0.008985 0.351693
    36 1.117947 0.048424 -0.005766 -0.017872 -0.017768 0.844286
    37 -0.139399 -0.111698 0.014397 0.756540 0.088632 1.606227
    38 -6.260806 6.983652 -0.294122 1.580804 -0.005023 -0.912799
    39 2.991449 -9.374510 0.325510 0.095528 0.119434 -1.488343
    40 19.322884 -1.520438 0.000001 -0.227492 0.219966 -2.653263
    41 4.079369 0.000000 0.000000 0.000094 -0.007747 -0.248258
    42 2.865587 0.000000 0.000000 0.013355 0.070245 -0.042394
    43 3.536545 0.000001 0.000000 0.001944 -0.086507 -0.044580
    44 3.559710 -0.000013 0.000000 -0.010219 -0.066027 -0.106776
    45 4.710207 -0.000101 0.000000 0.004740 -0.048509 -0.126681
    46 3.905177 -0.000001 0.000000 0.010434 -0.060705 -0.027073
    47 4.815569 0.000000 0.000000 0.027029 -0.077163 -0.057109
    48 -1.212046 -0.202562 -0.094716 0.000000 0.000000 0.000000
    49 -0.000912 -0.003783 0.001647 0.000000 0.000000 0.000000
    50 -13.674277 -32.476859 9.180652 -0.788810 -0.210052 2.598323
    51 -8.110123 -0.007939 0.000000 0.000000 0.000000 -3.141592
    52 -2.200086 0.067634 0.000000 -0.000046 0.667109 -1.570749
    53 -4.271043 -2.117736 0.000000 0.000000 0.000000 -1.570796
  time 14
    0 -0.350419 1.162833 0.199844 0.000000 0.000000 0.000000
    1 8.860871 2.227960 -6.210109 5.952594 -1.045198 0.228063
    2 1.257180 8.762585 -0.153713 -1.570562 0.002683 -1.566807
    3 -0.071921 -8.498736 -0.104134 0.227685 0.180401 -0.500000
    4 -0.488518 -2.755602 -0.228260 -1.043629 0.109301 -0.409563
    5 0.039887 -1.479790 0.029854 -1.667534 0.000000 0.000001
    6 0.028786 -1.075731 -0.023109 -0.454494 0.000000 0.000000
    7 0.250027 -2.820665 -0.238396 -0.736464 0.165690 -0.428552
    8 -0.049759 -1.680544 0.100479 -1.752456 0.000000 -0.000002
    9 -0.034142 -1.148312 0.084782 -0.832761 0.000000 0.000000
    10 0.957766 -2.746780 -0.090302 -0.011001 -0.038416 -0.284218
    11 -0.033420 -1.397129 -0.011257 -0.387585 0.000000 -0.000001
    12 -0.022360 -0.957436 0.018784 -0.378742 0.000000 0.000000
    13 -1.180681 -2.507217 -0.193859 -1.338388 0.249247 -0.349932
    14 -0.024967 -1.123934 0.017597 -1.138797 0.000000 0.000001
    15 -0.020057 -0.890968 0.010090 -0.444208 0.000000 0.000000
    16 0.583510 -1.197277 0.185379 0.285937 -0.802989 -0.784582
    17 1.535927 0.010246 0.005009 -0.002964 -0.012979 -0.887970
    18 1.100771 0.004527 -0.010679 -0.012432 0.010412 -0.697598
    19 0.120153 -0.050270 -0.054489 0.287569 3.110905 1.561085
    20 -1.149702 -6.578957 -8.845303 0.595479 -3.106029 1.109251
    21 0.096944 -8.450418 -0.009365 0.555195 -1.042270 -0.309269
    22 0.447953 -2.798986 -0.200443 -0.589288 -0.080734 0.032737
    23 -0.032909 -1.480204 0.004940 -0.903277 0.000000 0.000002
    24 -0.027022 -1.076920 -0.020210 -0.613064 0.000000 0.000000
    25 -0.249534 -2.846964 -0.174213 -0.103236 -0.140477 0.060779
    26 0.043235 -1.683941 0.096012 -1.384093 0.002823 -0.000167
    27 0.031729 -1.160830 0.058838 -0.307994 0.000642 0.008372
    28 -0.963866 -2.785145 -0.085350 0.020113 -0.027248 -0.035097
    29 0.028479 -1.403067 0.006271 -1.296871 0.000000 0.000000
    30 0.021413 -0.957781 0.020046 -0.131280 0.000000 0.000000
    31 1.164475 -2.543940 -0.170330 -0.517276 -0.111196 0.000831
    32 0.024032 -1.129042 0.017807 -0.959557 0.000000 0.000001
    33 0.014898 -0.883989 -0.019848 -0.381828 0.000000 0.000000
    34 -0.586770 -1.264477 0.200161 0.441983 -0.468006 -2.423308
    35 1.522835 0.058681 0.016848 0.001410 0.008985 0.351693
    36 1.117947 0.048424 -0.005766 -0.016338 -0.018523 0.775320
    37 -0.139399 -0.111698 0.014397 0.756526 0.088632 1.606227
    38 -6.260806 6.983652 -0.294122 1.580804 -0.005023 -0.912799
    39 2.991449 -9.374510 0.325510 0.095528 0.119434 -1.488343
    40 19.322884 -1.520438 0.000001 -0.212055 0.253976 -2.665546
    41 4.079369 0.000000 0.000000 -0.000026 -0.008514 -0.236855
    42 2.865587 0.000000 0.000000 0.013187 0.074248 -0.048109
    43 3.536545 0.000001 0.000000 0.001788 -0.090750 -0.043142
    44 3.559710 -0.000013 0.000000 -0.010135 -0.079246 -0.112813
    45 4.710207 -0.000101 0.000000 0.004704 -0.061764 -0.112348
    46 3.905177 -0.000001 0.000000 0.010506 -0.073852 -0.028236
    47 4.815569 0.000000 0.000000 0.027293 -0.090274 -0.059086
    48 -1.212046 -0.202562 -0.094716 0.000000 0.000000 0.000000
    49 -0.000912 -0.003783 0.001647 0.000000 0.000000 0.000000
    50 -9.889005 -33.332354 8.778296 -0.825437 -0.108476 2.749113
    51 -8.196063 -0.007939 0.000000 0.000000 0.000000 -3.141592
    52 -2.200086 0.067634 0.000000 -0.000046 0.667109 -1.570749
    53 -4.271043 -2.117736 0.000000 0.000000 0.000000 -1.570796
  time 15
    0 -0.350419 1.162833 0.199844 0.000000 0.000000 0.000000
    1 8.548361 2.313900 -6.182764 5.943498 -1.056653 0.243318
    2 1.257180 8.762585 -0.153713 -1.570562 0.002683 -1.566807
    3 -0.071921 -8.498736 -0.104134 0.232443 0.174217 -0.473183
    4 -0.488518 -2.755602 -0.228260 -1.043629 0.109301 -0.409563
    5 0.039887 -1.479790 0.029854 -1.667534 0.000000 0.000001
    6 0.028786 -1.075731 -0.023109 -0.454494 0.000000 0.000000
    7 0.250027 -2.820665 -0.238396 -0.736464 0.165690 -0.428552
    8 -0.049759 -1.680544 0.100479 -1.752456 0.000000 -0.000002
    9 -0.034142 -1.148312 0.084782 -0.832761 0.000000 0.000000
    10 0.957766 -2.746780 -0.090302 -0.011001 -0.038416 -0.284218
    11 -0.033420 -1.397129 -0.011257 -0.387585 0.000000 -0.000001
    12 -0.022360 -0.957436 0.018784 -0.378742 0.000000 0.000000
    13 -1.180681 -2.507217 -0.193859 -1.338388 0.249247 -0.349932
    14 -0.024967 -1.123934 0.017597 -1.138797 0.000000 0.000001
    15 -0.020057 -0.890968 0.010090 -0.444208 0.000000 0.000000
    16 0.583510 -1.197277 0.185379 0.285937 -0.802989 -0.784582
    17 1.535927 0.010246 0.005009 -0.002964 -0.012979 -0.887970
    18 1.100771 0.004527 -0.010679 -0.012432 0.010412 -0.697598
    19 0.120153 -0.050270 -0.054489 0.287569 3.110905 1.561085
    20 -1.575496 -6.668804 -8.911711 0.606231 -3.096443 1.105422
    21 0.096944 -8.450418 -0.009365 0.544654 -1.034989 -0.300262
    22 0.447953 -2.798986 -0.200443 -0.589288 -0.080734 0.032737
    23 -0.032909 -1.480204 0.004940 -0.729469 0.000000 0.000002
    24 -0.027022 -1.076920 -0.020210 -0.909187 0.000000 0.000000
    25 -0.249534 -2.846964 -0.174213 -0.103236 -0.140477 0.060779
    26 0.043235 -1.683941 0.096012 -1.234633 0.002823 -0.000167
    27 0.031729 -1.160830 0.058838 -0.307994 0.000642 0.008372
    28 -0.963866 -2.785145 -0.085350 0.020113 -0.027248 -0.035097
    29 0.028479 -1.403067 0.006271 -1.074105 0.000000 0.000000
    30 0.021413 -0.957781 0.020046 -0.131280 0.000000 0.000000
    31 1.164475 -2.543940 -0.170330 -0.517276 -0.111196 0.000831
    32 0.024032 -1.129042 0.017807 -0.770014 0.000000 0.000001
    33 0.014898 -0.883989 -0.019848 -0.635307 0.000000 0.000000
    34 -0.586770 -1.264477 0.200161 0.441983 -0.468006 -2.423308
    35 1.522835 0.058681 0.016848 0.001410 0.008985 0.351693
    36 1.117947 0.048424 -0.005766 -0.012683 -0.020320 0.610907
    37 -0.139399 -0.111698 0.014397 0.756526 0.088632 1.606227
    38 -6.260806 6.983652 -0.294122 1.580804 -0.005023 -0.912799
    39 2.991449 -9.374510 0.325510 0.095528 0.119434 -1.488343
    40 19.322884 -1.520438 0.000001 -0.159383 0.223203 -2.687535
    41 4.079369 0.000000 0.000000 -0.000613 -0.011306 -0.192559
    42 2.865587 0.000000 0.000000 0.012336 0.098013 -0.068729
    43 3.536545 0.000001 0.000000 0.001357 -0.038245 -0.037749
    44 3.559710 -0.000013 0.000000 -0.009883 -0.059316 -0.134812
    45 4.710207 -0.000101 0.000000 0.004620 -0.041965 -0.058765
    46 3.905177 -0.000001 0.000000 0.010386 -0.053682 -0.030153
    47 4.815569 0.000000 0.000000 0.027377 -0.070080 -0.062274
    48 -1.212046 -0.202562 -0.094716 0.000000 0.000000 0.000000
    49 -0.000912 -0.003783 0.001647 0.000000 0.000000 0.000000
    50 -5.849819 -33.765961 7.149340 -0.850898 -0.192052 2.852014
    51 -8.203875 -0.007939 0.000000 0.000000 0.000000 -3.141592
    52 -2.200086 0.067634 0.000000 -0.000046 0.667109 -1.570749
    53 -4.271043 -2.117736 0.000000 0.000000 0.000000 -1.570796
  time 16
    0 -0.350419 1.162833 0.199844 0.000000 0.000000 0.000000
    1 8.685084 2.591252 -6.171045 5.876285 -1.129641 0.290800
    2 1.257180 8.762585 -0.153713 -1.570562 0.002683 -1.566807
    3 -0.071921 -8.498736 -0.104134 0.230010 0.177429 -0.487077
    4 -0.488518 -2.755602 -0.228260 -1.043629 0.109301 -0.409563
    5 0.039887 -1.479790 0.029854 -1.667534 0.000000 0.000001
    6 0.028786 -1.075731 -0.023109 -0.454494 0.000000 0.000000
    7 0.250027 -2.820665 -0.238396 -0.736464 0.165690 -0.428552
    8 -0.049759 -1.680544 0.100479 -1.752456 0.000000 -0.000002
    9 -0.034142 -1.148312 0.084782 -0.832761 0.000000 0.000000
    10 0.957766 -2.746780 -0.090302 -0.011001 -0.038416 -0.284218
    11 -0.033420 -1.397129 -0.011257 -0.387585 0.000000 -0.000001
    12 -0.022360 -0.957436 0.018784 -0.378742 0.000000 0.000000
    13 -1.180681 -2.507217 -0.193859 -1.338388 0.249247 -0.349932
    14 -0.024967 -1.123934 0.017597 -1.138797 0.000000 0.000001
    15 -0.020057 -0.890968 0.010090 -0.444208 0.000000 0.000000
    16 0.583510 -1.197277 0.185379 0.285937 -0.802989 -0.784582
    17 1.535927 0.010246 0.005009 -0.002964 -0.012979 -0.887970
    18 1.100771 0.004527 -0.010679 -0.012432 0.010412 -0.697598
    19 0.120153 -0.050270 -0.054489 0.287569 3.110905 1.561085
    20 -1.770815 -5.731275 -9.689079 0.632910 -3.306351 1.185648
    21 0.096944 -8.450418 -0.009365 0.505262 -0.988321 -0.248057
    22 0.447953 -2.798986 -0.200443 -0.589288 -0.080734 0.032737
    23 -0.032909 -1.480204 0.004940 -0.553766 0.000000 0.000002
    24 -0.027022 -1.076920 -0.020210 -1.244796 0.000000 0.000000
    25 -0.249534 -2.846964 -0.174213 -0.103236 -0.140477 0.060779
    26 0.043235 -1.683941 0.096012 -1.056278 0.002823 -0.000167
    27 0.031729 -1.160830 0.058838 -0.307994 0.000642 0.008372
    28 -0.963866 -2.785145 -0.085350 0.020113 -0.027248 -0.035097
    29 0.028479 -1.403067 0.006271 -0.808313 0.000000 0.000000
    30 0.021413 -0.957781 0.020046 -0.131280 0.000000 0.000000
    31 1.164475 -2.543940 -0.170330 -0.517276 -0.111196 0.000831
    32 0.024032 -1.129042 0.017807 -0.573019 0.000000 0.000001
    33 0.014898 -0.883989 -0.019848 -0.937828 0.000000 0.000000
    34 -0.586770 -1.264477 0.200161 0.441983 -0.468006 -2.423308
    35 1.522835 0.058681 0.016848 0.001410 0.008985 0.351693
    36 1.117947 0.048424 -0.005766 -0.008333 -0.022466 0.414691
    37 -0.139399 -0.111698 0.014397 0.756526 0.088632 1.606227
    38 -6.260806 6.983652 -0.294122 1.580804 -0.005023 -0.912799
    39 2.991449 -9.374510 0.325510 0.095528 0.119434 -1.488343
    40 19.322884 -1.520438 0.000001 -0.077337 0.147363 -2.718181
    41 4.079369 0.000000 0.000000 -0.001692 -0.015381 -0.128436
    42 2.865587 0.000000 0.000000 0.010131 0.133811 -0.099381
    43 3.536545 0.000001 0.000000 0.001309 0.052191 -0.029767
    44 3.559710 -0.000013 0.000000 -0.010638 -0.017022 -0.167301
    45 4.710207 -0.000101 0.000000 0.007245 0.000053 0.020741
    46 3.905177 -0.000001 0.000000 0.010074 -0.011053 -0.032586
    47 4.815569 0.000000 0.000000 0.027197 -0.027427 -0.066241
    48 -1.212046 -0.202562 -0.094716 0.000000 0.000000 0.000000
    49 -0.000912 -0.003783 0.001647 0.000000 0.000000 0.000000
    50 -3.947418 -34.324572 3.992993 -0.869035 -0.433723 2.882457
    51 -8.199969 -0.007939 0.000000 0.000000 0.000000 -3.141592
    52 -2.200086 0.067634 0.000000 -0.000046 0.667109 -1.570749
    53 -4.271043 -2.117736 0.000000 0.000000 0.000000 -1.570796
  time 17
    0 -0.350419 1.162833 0.199844 0.000000 0.000000 0.000000
    1 8.985875 2.938919 -6.135888 5.753251 -1.224338 0.383761
    2 1.257180 8.762585 -0.153713 -1.570562 0.002683 -1.566807
    3 -0.071921 -8.498736 -0.104134 0.225204 0.183409 -0.513274
    4 -0.488518 -2.755602 -0.228260 -1.043629 0.109301 -0.409563
    5 0.039887 -1.479790 0.029854 -1.667534 0.000000 0.000001
    6 0.028786 -1.075731 -0.023109 -0.454494 0.000000 0.000000
    7 0.250027 -2.820665 -0.238396 -0.736464 0.165690 -0.428552
    8 -0.049759 -1.680544 0.100479 -1.752456 0.000000 -0.000002
    9 -0.034142 -1.148312 0.084782 -0.832761 0.000000 0.000000
    10 0.957766 -2.746780 -0.090302 -0.011001 -0.038416 -0.284218
    11 -0.033420 -1.397129 -0.011257 -0.387585 0.000000 -0.000001
    12 -0.022360 -0.957436 0.018784 -0.378742 0.000000 0.000000
    13 -1.180681 -2.507217 -0.193859 -1.338388 0.249247 -0.349932
    14 -0.024967 -1.123934 0.017597 -1.138797 0.000000 0.000001
    15 -0.020057 -0.890968 0.010090 -0.444208 0.000000 0.000000
    16 0.583510 -1.197277 0.185379 0.285937 -0.802989 -0.784582
    17 1.535927 0.010246 0.005009 -0.002964 -0.012979 -0.887970
    18 1.100771 0.004527 -0.010679 -0.012432 0.010412 -0.697598
    19 0.120153 -0.050270 -0.054489 0.287569 3.110905 1.561085
    20 -1.743470 -4.422641 -10.814113 0.714241 -3.588374 1.339495
    21 0.096944 -8.450418 -0.009365 0.467701 -0.927271 -0.190281
    22 0.447953 -2.798986 -0.200443 -0.589288 -0.080734 0.032737
    23 -0.032909 -1.480204 0.004940 -0.417815 0.000000 0.000002
    24 -0.027022 -1.076920 -0.020210 -1.519753 0.000000 0.000000
    25 -0.249534 -2.846964 -0.174213 -0.103236 -0.140477 0.060779
    26 0.043235 -1.683941 0.096012 -0.906880 0.002823 -0.000167
    27 0.031729 -1.160830 0.058838 -0.307994 0.000642 0.008372
    28 -0.963866 -2.785145 -0.085350 0.020113 -0.027248 -0.035097
    29 0.028479 -1.403067 0.006271 -0.585598 0.000000 0.000000
    30 0.021413 -0.957781 0.020046 -0.131280 0.000000 0.000000
    31 1.164475 -2.543940 -0.170330 -0.517276 -0.111196 0.000831
    32 0.024032 -1.129042 0.017807 -0.418351 0.000000 0.000001
    33 0.014898 -0.883989 -0.019848 -1.191307 0.000000 0.000000
    34 -0.586770 -1.264477 0.200161 0.441983 -0.468006 -2.423308
    35 1.522835 0.058681 0.016848 0.001410 0.008985 0.351693
    36 1.117947 0.048424 -0.005766 -0.004677 -0.024251 0.250277
    37 -0.139399 -0.111698 0.014397 0.756526 0.088632 1.606227
    38 -6.260806 6.983652 -0.294122 1.580804 -0.005023 -0.912799
    39 2.991449 -9.374510 0.325510 0.095528 0.119434 -1.488343
    40 19.322884 -1.520438 0.000001 -0.014322 0.087356 -2.734136
    41 4.079369 0.000000 0.000000 -0.002399 -0.018018 -0.094111
    42 2.865587 0.000000 0.000000 0.008070 0.154017 -0.119614
    43 3.536545 0.000001 0.000000 0.001680 0.112521 -0.024506
    44 3.559710 -0.000013 0.000000 -0.011921 0.011753 -0.188579
    45 4.710207 -0.000101 0.000000 0.010876 0.028516 0.072898
    46 3.905177 -0.000001 0.000000 0.009798 0.017962 -0.034144
    47 4.815569 0.000000 0.000000 0.026969 0.001624 -0.068770
    48 -1.212046 -0.202562 -0.094716 0.000000 0.000000 0.000000
    49 -0.000912 -0.003783 0.001647 0.000000 0.000000 0.000000
    50 -5.529497 -34.973029 0.254598 -0.893587 -0.704372 2.842044
    51 -8.196063 -0.007939 0.000000 0.000000 0.000000 -3.141592
    52 -2.200086 0.067634 0.000000 -0.000046 0.667109 -1.570749
    53 -4.271043 -2.117736 0.000000 0.000000 0.000000 -1.570796
  time 18
    0 -0.350419 1.162833 0.199844 0.000000 0.000000 0.000000
    1 9.286665 3.243616 -5.956195 5.613654 -1.306922 0.491883
    2 1.257180 8.762585 -0.153713 -1.570562 0.002683 -1.566807
    3 -0.071921 -8.498736 -0.104134 0.221861 0.187316 -0.530717
    4 -0.488518 -2.755602 -0.228260 -1.043629 0.109301 -0.409563
    5 0.039887 -1.479790 0.029854 -1.667534 0.000000 0.000001
    6 0.028786 -1.075731 -0.023109 -0.454494 0.000000 0.000000
    7 0.250027 -2.820665 -0.238396 -0.736464 0.165690 -0.428552
    8 -0.049759 -1.680544 0.100479 -1.752456 0.000000 -0.000002
    9 -0.034142 -1.148312 0.084782 -0.832761 0.000000 0.000000
    10 0.957766 -2.746780 -0.090302 -0.011001 -0.038416 -0.284218
    11 -0.033420 -1.397129 -0.011257 -0.387585 0.000000 -0.000001
    12 -0.022360 -0.957436 0.018784 -0.378742 0.000000 0.000000
    13 -1.180681 -2.507217 -0.193859 -1.338388 0.249247 -0.349932
    14 -0.024967 -1.123934 0.017597 -1.138797 0.000000 0.000001
    15 -0.020057 -0.890968 0.010090 -0.444208 0.000000 0.000000
    16 0.583510 -1.197277 0.185379 0.285937 -0.802989 -0.784582
    17 1.535927 0.010246 0.005009 -0.002964 -0.012979 -0.887970
    18 1.100771 0.004527 -0.010679 -0.012432 0.010412 -0.697598
    19 0.120153 -0.050270 -0.054489 0.287569 3.110905 1.561085
    20 -1.559871 -3.262450 -12.181342 0.796461 -3.757468 1.445379
    21 0.096944 -8.450418 -0.009365 0.446965 -0.884455 -0.155020
    22 0.447953 -2.798986 -0.200443 -0.589288 -0.080734 0.032737
    23 -0.032909 -1.480204 0.004940 -0.363214 0.000000 0.000002
    24 -0.027022 -1.076920 -0.020210 -1.633619 0.000000 0.000000
    25 -0.249534 -2.846964 -0.174213 -0.103236 -0.140477 0.060779
    26 0.043235 -1.683941 0.096012 -0.844231 0.002823 -0.000167
    27 0.031729 -1.160830 0.058838 -0.307994 0.000642 0.008372
    28 -0.963866 -2.785145 -0.085350 0.020113 -0.027248 -0.035097
    29 0.028479 -1.403067 0.006271 -0.492158 0.000000 0.000000
    30 0.021413 -0.957781 0.020046 -0.131280 0.000000 0.000000
    31 1.164475 -2.543940 -0.170330 -0.517276 -0.111196 0.000831
    32 0.024032 -1.129042 0.017807 -0.355733 0.000000 0.000001
    33 0.014898 -0.883989 -0.019848 -1.297611 0.000000 0.000000
    34 -0.586770 -1.264477 0.200161 0.441983 -0.468006 -2.423308
    35 1.522835 0.058681 0.016848 0.001410 0.008985 0.351693
    36 1.117947 0.048424 -0.005766 -0.003155 -0.025006 0.181351
    37 -0.139399 -0.111698 0.014397 0.756526 0.088632 1.606227
    38 -6.260806 6.983652 -0.294122 1.580804 -0.005023 -0.912799
    39 2.991449 -9.374510 0.325510 0.095528 0.119434 -1.488343
    40 19.322884 -1.520438 0.000001 0.018109 0.055918 -2.726552
    41 4.079369 0.000000 0.000000 -0.002794 -0.018317 -0.099240
    42 2.865587 0.000000 0.000000 0.006931 0.152951 -0.125406
    43 3.536545 0.000001 0.000000 0.001321 0.128556 -0.023343
    44 3.559710 -0.000013 0.000000 -0.012820 0.019243 -0.194631
    45 4.710207 -0.000101 0.000000 0.011559 0.035899 0.086740
    46 3.905177 -0.000001 0.000000 0.009247 0.025536 -0.034863
    47 4.815569 0.000000 0.000000 0.026454 0.009198 -0.069789
    48 -1.212046 -0.202562 -0.094716 0.000000 0.000000 0.000000
    49 -0.000912 -0.003783 0.001647 0.000000 0.000000 0.000000
    50 -7.873319 -35.945715 -0.604803 -0.868277 -0.811647 2.750449
    51 -8.196063 -0.007939 0.000000 0.000000 0.000000 -3.141592
    52 -2.200086 0.067634 0.000000 -0.000046 0.667109 -1.570749
    53 -4.271043 -2.117736 0.000000 0.000000 0.000000 -1.570796
  time 19
    0 -0.350419 1.162833 0.199844 0.000000 0.000000 0.000000
    1 9.556205 3.501436 -5.553839 5.479897 -1.379909 0.591899
    2 1.257180 8.762585 -0.153713 -1.570562 0.002683 -1.566807
    3 -0.071921 -8.498736 -0.104134 0.221141 0.187975 -0.533613
    4 -0.488518 -2.755602 -0.228260 -1.043629 0.109301 -0.409563
    5 0.039887 -1.479790 0.029854 -1.667534 0.000000 0.000001
    6 0.028786 -1.075731 -0.023109 -0.454494 0.000000 0.000000
    7 0.250027 -2.820665 -0.238396 -0.736464 0.165690 -0.428552
    8 -0.049759 -1.680544 0.100479 -1.752456 0.000000 -0.000002
    9 -0.034142 -1.148312 0.084782 -0.832785 0.000000 0.000000
    10 0.957766 -2.746780 -0.090302 -0.011001 -0.038416 -0.284218
    11 -0.033420 -1.397129 -0.011257 -0.387585 0.000000 -0.000001
    12 -0.022360 -0.957436 0.018784 -0.378742 0.000000 0.000000
    13 -1.180681 -2.507217 -0.193859 -1.338388 0.249247 -0.349932
    14 -0.024967 -1.123934 0.017597 -1.138797 0.000000 0.000001
    15 -0.020057 -0.890968 0.010090 -0.444208 0.000000 0.000000
    16 0.583510 -1.197277 0.185379 0.285937 -0.802989 -0.784582
    17 1.535927 0.010246 0.005009 -0.002964 -0.012979 -0.887970
    18 1.100771 0.004527 -0.010679 -0.012432 0.010412 -0.697598
    19 0.120153 -0.050270 -0.054489 0.287569 3.110905 1.561085
    20 -0.981728 -2.012412 -13.966553 0.788942 -3.791841 1.355387
    21 0.096944 -8.450418 -0.009365 0.450083 -0.868568 -0.132886
    22 0.447953 -2.798986 -0.200443 -0.589288 -0.080734 0.032737
    23 -0.032909 -1.480204 0.004940 -0.363214 0.000000 0.000002
    24 -0.027022 -1.076920 -0.020210 -1.633619 0.000000 0.000000
    25 -0.249534 -2.846964 -0.174213 -0.103236 -0.140477 0.060779
    26 0.043235 -1.683941 0.096012 -0.844231 0.002823 -0.000167
    27 0.031729 -1.160830 0.058838 -0.307994 0.000642 0.008372
    28 -0.963866 -2.785145 -0.085350 0.020113 -0.027248 -0.035097
    29 0.028479 -1.403067 0.006271 -0.492158 0.000000 0.000000
    30 0.021413 -0.957781 0.020046 -0.131280 0.000000 0.000000
    31 1.164475 -2.543940 -0.170330 -0.517276 -0.111196 0.000831
    32 0.024032 -1.129042 0.017807 -0.355733 0.000000 0.000001
    33 0.014898 -0.883989 -0.019848 -1.297611 0.000000 0.000000
    34 -0.586770 -1.264477 0.200161 0.441983 -0.468006 -2.423308
    35 1.522835 0.058681 0.016848 0.001410 0.008985 0.351693
    36 1.117947 0.048424 -0.005766 -0.003155 -0.025006 0.181351
    37 -0.139399 -0.111698 0.014397 0.756526 0.088632 1.606227
    38 -6.260806 6.983652 -0.294122 1.580804 -0.005023 -0.912799
    39 2.991449 -9.374510 0.325510 0.095528 0.119434 -1.488343
    40 19.322884 -1.520438 0.000001 0.043456 0.027594 -2.710955
    41 4.079369 0.000000 0.000000 -0.003502 -0.017550 -0.116975
    42 2.865587 0.000000 0.000000 0.005661 0.145113 -0.127422
    43 3.536545 0.000001 0.000000 0.000266 0.133710 -0.023571
    44 3.559710 -0.000013 0.000000 -0.013982 0.022251 -0.196701
    45 4.710207 -0.000101 0.000000 0.010852 0.038919 0.089665
    46 3.905177 -0.000001 0.000000 0.008193 0.028592 -0.035594
    47 4.815569 0.000000 0.000000 0.025411 0.012266 -0.070604
    48 -1.212046 -0.202562 -0.094716 0.000000 0.000000 0.000000
    49 -0.000912 -0.003783 0.001647 0.000000 0.000000 0.000000
    50 -8.799128 -38.973151 0.293662 -0.886363 -0.689012 2.786232
    51 -8.156999 -0.007939 0.000000 0.000000 0.000000 -3.141592
    52 -2.200086 0.067634 0.000000 -0.000046 0.667109 -1.570749
    53 -4.271043 -2.117736 0.000000 0.000000 0.000000 -1.570796
  time 20
    0 -0.350419 1.162833 0.199844 0.000000 0.000000 0.000000
    1 9.860901 3.767069 -5.022572 5.239574 -1.454396 0.793745
    2 1.257180 8.762585 -0.153713 -1.570562 0.002683 -1.566807
    3 -0.071921 -8.498736 -0.104134 0.221261 0.187592 -0.531856
    4 -0.488518 -2.755602 -0.228260 -1.043629 0.109301 -0.409563
    5 0.039887 -1.479790 0.029854 -1.667534 0.000000 0.000001
    6 0.028786 -1.075731 -0.023109 -0.454494 0.000000 0.000000
    7 0.250027 -2.820665 -0.238396 -0.736464 0.165690 -0.428552
    8 -0.049759 -1.680544 0.100479 -1.752456 0.000000 -0.000002
    9 -0.034142 -1.148312 0.084782 -0.832761 0.000000 0.000000
    10 0.957766 -2.746780 -0.090302 -0.011001 -0.038416 -0.284218
    11 -0.033420 -1.397129 -0.011257 -0.387585 0.000000 -0.000001
    12 -0.022360 -0.957436 0.018784 -0.378742 0.000000 0.000000
    13 -1.180681 -2.507217 -0.193859 -1.338388 0.249247 -0.349932
    14 -0.024967 -1.123934 0.017597 -1.138797 0.000000 0.000001
    15 -0.020057 -0.890968 0.010090 -0.444208 0.000000 0.000000
    16 0.583510 -1.197277 0.185379 0.285937 -0.802989 -0.784582
    17 1.535927 0.010246 0.005009 -0.002964 -0.012979 -0.887970
    18 1.100771 0.004527 -0.010679 -0.012432 0.010412 -0.697598
    19 0.120153 -0.050270 -0.054489 0.287569 3.110905 1.561085
    20 0.166744 -0.531898 -16.001772 0.732027 -3.777987 1.155300
    21 0.096944 -8.450418 -0.009365 0.465375 -0.864476 -0.113042
    22 0.447953 -2.798986 -0.200443 -0.589288 -0.080734 0.032737
    23 -0.032909 -1.480204 0.004940 -0.363214 0.000000 0.000002
    24 -0.027022 -1.076920 -0.020210 -1.633619 0.000000 0.000000
    25 -0.249534 -2.846964 -0.174213 -0.103236 -0.140477 0.060779
    26 0.043235 -1.683941 0.096012 -0.844231 0.002823 -0.000167
    27 0.031729 -1.160830 0.058838 -0.307994 0.000642 0.008372
    28 -0.963866 -2.785145 -0.085350 0.020113 -0.027248 -0.035097
    29 0.028479 -1.403067 0.006271 -0.492158 0.000000 0.000000
    30 0.021413 -0.957781 0.020046 -0.131280 0.000000 0.000000
    31 1.164475 -2.543940 -0.170330 -0.517276 -0.111196 0.000831
    32 0.024032 -1.129042 0.017807 -0.355733 0.000000 0.000001
    33 0.014898 -0.883989 -0.019848 -1.297611 0.000000 0.000000
    34 -0.586770 -1.264477 0.200161 0.441983 -0.468006 -2.423308
    35 1.522835 0.058681 0.016848 0.001410 0.008985 0.351693
    36 1.117947 0.048424 -0.005766 -0.003155 -0.025006 0.181351
    37 -0.139399 -0.111698 0.014397 0.756526 0.088632 1.606227
    38 -6.260806 6.983652 -0.294122 1.580804 -0.005023 -0.912799
    39 2.991449 -9.374510 0.325510 0.095528 0.119434 -1.488343
    40 19.322884 -1.520438 0.000001 0.063075 0.002104 -2.690635
    41 4.079369 0.000000 0.000000 -0.004077 -0.016472 -0.142189
    42 2.865587 0.000000 0.000000 0.004702 0.133404 -0.126750
    43 3.536545 0.000001 0.000000 -0.000885 0.131349 -0.024506
    44 3.559710 -0.000013 0.000000 -0.014917 0.021892 -0.195979
    45 4.710207 -0.000101 0.000000 0.009546 0.038607 0.085698
    46 3.905177 -0.000001 0.000000 0.007174 0.028245 -0.036097
    47 4.815569 0.000000 0.000000 0.024405 0.011919 -0.071059
    48 -1.212046 -0.202562 -0.094716 0.000000 0.000000 0.000000
    49 -0.000912 -0.003783 0.001647 0.000000 0.000000 0.000000
    50 -8.846005 -43.254532 1.074935 -0.907884 -0.467981 2.902040
    51 -8.110123 -0.007939 0.000000 0.000000 0.000000 -3.141592
    52 -2.200086 0.067634 0.000000 -0.000046 0.667109 -1.570749
    53 -4.271043 -2.117736 0.000000 0.000000 0.000000 -1.570796
  time 21
    0 -0.350419 1.162833 0.199844 0.000000 0.000000 0.000000
    1 10.146066 4.005358 -4.475681 4.616460 -1.509691 1.380117
    2 1.257180 8.762585 -0.153713 -1.570562 0.002683 -1.566807
    3 -0.071921 -8.498736 -0.104134 0.221837 0.186681 -0.527671
    4 -0.488518 -2.755602 -0.228260 -1.043629 0.109301 -0.409563
    5 0.039887 -1.479790 0.029854 -1.667534 0.000000 0.000001
    6 0.028786 -1.075731 -0.023109 -0.454494 0.000000 0.000000
    7 0.250027 -2.820665 -0.238396 -0.736464 0.165690 -0.428552
    8 -0.049759 -1.680544 0.100479 -1.752456 0.000000 -0.000002
    9 -0.034142 -1.148312 0.084782 -0.832785 0.000000 0.000000
    10 0.957766 -2.746780 -0.090302 -0.011001 -0.038416 -0.284218
    11 -0.033420 -1.397129 -0.011257 -0.387585 0.000000 -0.000001
    12 -0.022360 -0.957436 0.018784 -0.378742 0.000000 0.000000
    13 -1.180681 -2.507217 -0.193859 -1.338388 0.249247 -0.349932
    14 -0.024967 -1.123934 0.017597 -1.138797 0.000000 0.000001
    15 -0.020057 -0.890968 0.010090 -0.444208 0.000000 0.000000
    16 0.583510 -1.197277 0.185379 0.285937 -0.802989 -0.784582
    17 1.535927 0.010246 0.005009 -0.002964 -0.012979 -0.887970
    18 1.100771 0.004527 -0.010679 -0.012432 0.010412 -0.697598
    19 0.120153 -0.050270 -0.054489 0.287569 3.110905 1.561085
    20 1.326936 0.479852 -17.771357 0.649484 -3.737998 0.953872
    21 0.096944 -8.450418 -0.009365 0.470917 -0.869591 -0.113538
    22 0.447953 -2.798986 -0.200443 -0.589288 -0.080734 0.032737
    23 -0.032909 -1.480204 0.004940 -0.363214 0.000000 0.000002
    24 -0.027022 -1.076920 -0.020210 -1.633619 0.000000 0.000000
    25 -0.249534 -2.846964 -0.174213 -0.103236 -0.140477 0.060779
    26 0.043235 -1.683941 0.096012 -0.844231 0.002823 -0.000167
    27 0.031729 -1.160830 0.058838 -0.307994 0.000642 0.008372
    28 -0.963866 -2.785145 -0.085350 0.020113 -0.027248 -0.035097
    29 0.028479 -1.403067 0.006271 -0.492158 0.000000 0.000000
    30 0.021413 -0.957781 0.020046 -0.131280 0.000000 0.000000
    31 1.164475 -2.543940 -0.170330 -0.517276 -0.111196 0.000831
    32 0.024032 -1.129042 0.017807 -0.355733 0.000000 0.000001
    33 0.014898 -0.883989 -0.019848 -1.297611 0.000000 0.000000
    34 -0.586770 -1.264477 0.200161 0.441983 -0.468006 -2.423308
    35 1.522835 0.058681 0.016848 0.001410 0.008985 0.351693
    36 1.117947 0.048424 -0.005766 -0.003155 -0.025006 0.181351
    37 -0.139399 -0.111698 0.014397 0.756526 0.088632 1.606227
    38 -6.260806 6.983652 -0.294122 1.580804 -0.005023 -0.912799
    39 2.991449 -9.374510 0.325510 0.095528 0.119434 -1.488343
    40 19.322884 -1.520438 0.000001 0.078523 -0.020639 -2.669004
    41 4.079369 0.000000 0.000000 -0.004077 -0.015764 -0.169666
    42 2.865587 0.000000 0.000000 0.004474 0.120712 -0.124539
    43 3.536545 0.000001 0.000000 -0.001448 0.124793 -0.025417
    44 3.559710 -0.000013 0.000000 -0.015192 0.019291 -0.193596
    45 4.710207 -0.000101 0.000000 0.008527 0.036054 0.078902
    46 3.905177 -0.000001 0.000000 0.006742 0.025620 -0.036157
    47 4.815569 0.000000 0.000000 0.023973 0.009282 -0.070999
    48 -1.212046 -0.202562 -0.094716 0.000000 0.000000 0.000000
    49 -0.000912 -0.003783 0.001647 0.000000 0.000000 0.000000
    50 -7.650656 -45.559289 3.360161 -0.857820 -0.280489 2.916727
    51 -8.063246 -0.007939 0.000000 0.000000 0.000000 -3.141592
    52 -2.200086 0.067634 0.000000 -0.000046 0.667109 -1.570749
    53 -4.271043 -2.117736 0.000000 0.000000 0.000000 -1.570796
  time 22
    0 -0.350419 1.162833 0.199844 0.000000 0.000000 0.000000
    1 10.368729 4.177238 -4.022542 0.469226 -1.629758 -0.784501
    2 1.257180 8.762585 -0.153713 -1.570562 0.002683 -1.566807
    3 -0.071921 -8.498736 -0.104134 0.222472 0.185722 -0.523318
    4 -0.488518 -2.755602 -0.228260 -1.043629 0.109301 -0.409563
    5 0.039887 -1.479790 0.029854 -1.667534 0.000000 0.000001
    6 0.028786 -1.075731 -0.023109 -0.454494 0.000000 0.000000
    7 0.250027 -2.820665 -0.238396 -0.736464 0.165690 -0.428552
    8 -0.049759 -1.680544 0.100479 -1.752456 0.000000 -0.000002
    9 -0.034142 -1.148312 0.084782 -0.832761 0.000000 0.000000
    10 0.957766 -2.746780 -0.090302 -0.011001 -0.038416 -0.284218
    11 -0.033420 -1.397129 -0.011257 -0.387585 0.000000 -0.000001
    12 -0.022360 -0.957436 0.018784 -0.378742 0.000000 0.000000
    13 -1.180681 -2.507217 -0.193859 -1.338388 0.249247 -0.349932
    14 -0.024967 -1.123934 0.017597 -1.138797 0.000000 0.000001
    15 -0.020057 -0.890968 0.010090 -0.444208 0.000000 0.000000
    16 0.583510 -1.197277 0.185379 0.285937 -0.802989 -0.784582
    17 1.535927 0.010246 0.005009 -0.002964 -0.012979 -0.887970
    18 1.100771 0.004527 -0.010679 -0.012432 0.010412 -0.697598
    19 0.120153 -0.050270 -0.054489 0.287569 3.110905 1.561085
    20 1.639446 0.343129 -18.966706 0.563464 -3.696735 0.858807
    21 0.096944 -8.450418 -0.009365 0.445530 -0.881356 -0.152654
    22 0.447953 -2.798986 -0.200443 -0.589288 -0.080734 0.032737
    23 -0.032909 -1.480204 0.004940 -0.363214 0.000000 0.000002
    24 -0.027022 -1.076920 -0.020210 -1.633619 0.000000 0.000000
    25 -0.249534 -2.846964 -0.174213 -0.103236 -0.140477 0.060779
    26 0.043235 -1.683941 0.096012 -0.844231 0.002823 -0.000167
    27 0.031729 -1.160830 0.058838 -0.307994 0.000642 0.008372
    28 -0.963866 -2.785145 -0.085350 0.020113 -0.027248 -0.035097
    29 0.028479 -1.403067 0.006271 -0.492158 0.000000 0.000000
    30 0.021413 -0.957781 0.020046 -0.131280 0.000000 0.000000
    31 1.164475 -2.543940 -0.170330 -0.517276 -0.111196 0.000831
    32 0.024032 -1.129042 0.017807 -0.355733 0.000000 0.000001
    33 0.014898 -0.883989 -0.019848 -1.297611 0.000000 0.000000
    34 -0.586770 -1.264477 0.200161 0.441983 -0.468006 -2.423308
    35 1.522835 0.058681 0.016848 0.001410 0.008985 0.351693
    36 1.117947 0.048424 -0.005766 -0.003155 -0.025006 0.181351
    37 -0.139399 -0.111698 0.014397 0.756526 0.088632 1.606227
    38 -6.260806 6.983652 -0.294122 1.580804 -0.005023 -0.912799
    39 2.991449 -9.374510 0.325510 0.095528 0.119434 -1.488343
    40 19.322884 -1.520438 0.000001 0.091574 -0.040671 -2.649567
    41 4.079369 0.000000 0.000000 -0.002974 -0.016112 -0.194278
    42 2.865587 0.000000 0.000000 0.005409 0.109926 -0.121915
    43 3.536545 0.000001 0.000000 -0.000801 0.117399 -0.025644
    44 3.559710 -0.000013 0.000000 -0.014342 0.015540 -0.190727
    45 4.710207 -0.000101 0.000000 0.008695 0.032327 0.073294
    46 3.905177 -0.000001 0.000000 0.007438 0.021821 -0.035582
    47 4.815569 0.000000 0.000000 0.024656 0.005483 -0.070280
    48 -1.212046 -0.202562 -0.094716 0.000000 0.000000 0.000000
    49 -0.000912 -0.003783 0.001647 0.000000 0.000000 0.000000
    50 -5.205269 -42.266220 7.926707 -0.775119 -0.226611 2.685290
    51 -8.028089 -0.007939 0.000000 0.000000 0.000000 -3.141592
    52 -2.200086 0.067634 0.000000 -0.000046 0.667109 -1.570749
    53 -4.271043 -2.117736 0.000000 0.000000 0.000000 -1.570796
  time 23
    0 -0.350419 1.162833 0.199844 0.000000 0.000000 0.000000
    1 10.482014 4.243646 -3.780347 0.105008 -1.645651 -0.434871
    2 1.257180 8.762585 -0.153713 -1.570562 0.002683 -1.566807
    3 -0.071921 -8.498736 -0.104134 0.222795 0.185219 -0.521042
    4 -0.488518 -2.755602 -0.228260 -1.043629 0.109301 -0.409563
    5 0.039887 -1.479790 0.029854 -1.667534 0.000000 0.000001
    6 0.028786 -1.075731 -0.023109 -0.454494 0.000000 0.000000
    7 0.250027 -2.820665 -0.238396 -0.736464 0.165690 -0.428552
    8 -0.049759 -1.680544 0.100479 -1.752456 0.000000 -0.000002
    9 -0.034142 -1.148312 0.084782 -0.832785 0.000000 0.000000
    10 0.957766 -2.746780 -0.090302 -0.011001 -0.038416 -0.284218
    11 -0.033420 -1.397129 -0.011257 -0.387585 0.000000 -0.000001
    12 -0.022360 -0.957436 0.018784 -0.378742 0.000000 0.000000
    13 -1.180681 -2.507217 -0.193859 -1.338388 0.249247 -0.349932
    14 -0.024967 -1.123934 0.017597 -1.138797 0.000000 0.000001
    15 -0.020057 -0.890968 0.010090 -0.444208 0.000000 0.000000
    16 0.583510 -1.197277 0.185379 0.285937 -0.802989 -0.784582
    17 1.535927 0.010246 0.005009 -0.002964 -0.012979 -0.887970
    18 1.100771 0.004527 -0.010679 -0.012432 0.010412 -0.697598
    19 0.120153 -0.050270 -0.054489 0.287569 3.110905 1.561085
    20 -4.446678 -7.223508 -17.685417 0.501294 -3.690295 1.410339
    21 0.096944 -8.450418 -0.009365 0.218778 -0.981702 -0.479622
    22 0.447953 -2.798986 -0.200443 -1.276619 -0.080734 0.032737
    23 -0.032909 -1.480204 0.004940 -1.780690 0.000000 0.000002
    24 -0.027022 -1.076920 -0.020210 -1.273100 0.000000 0.000000
    25 -0.249534 -2.846964 -0.174213 -1.136321 -0.140477 0.060779
    26 0.043235 -1.683941 0.096012 -1.877291 0.002823 -0.000167
    27 0.031729 -1.160830 0.058838 -1.340989 0.007377 -0.007184
    28 -0.963866 -2.785145 -0.085350 -0.645646 -0.027248 -0.035097
    29 0.028479 -1.403067 0.006271 -0.932765 0.000000 0.000000
    30 0.021413 -0.957781 0.020046 -1.385925 0.000000 0.000000
    31 1.164475 -2.543940 -0.170330 -1.324926 -0.111196 0.000831
    32 0.024032 -1.129042 0.017807 -1.749596 0.000000 0.000001
    33 0.014898 -0.883989 -0.019848 -1.297611 0.000000 0.000000
    34 -0.586770 -1.264477 0.200161 0.408446 -0.433035 -2.711974
    35 1.522835 0.058681 0.016848 0.001410 0.008985 0.825256
    36 1.117947 0.048424 -0.005766 -0.008632 -0.023676 0.405570
    37 -0.139399 -0.111698 0.014397 0.756526 0.088632 1.606227
    38 -6.260806 6.983652 -0.294122 1.580804 -0.005023 -0.912799
    39 2.991449 -9.374510 0.325510 0.095528 0.119434 -1.488343
    40 19.322884 -1.520438 0.000001 0.104098 -0.057973 -2.635996
    41 4.079369 0.000000 0.000000 -0.000278 -0.018173 -0.210896
    42 2.865587 0.000000 0.000000 0.008010 0.103922 -0.120015
    43 3.536545 0.000001 0.000000 0.001680 0.112521 -0.024506
    44 3.559710 -0.000013 0.000000 -0.011921 0.011753 -0.188579
    45 4.710207 -0.000101 0.000000 0.010876 0.028516 0.072898
    46 3.905177 -0.000001 0.000000 0.009798 0.017962 -0.034144
    47 4.815569 0.000000 0.000000 0.026969 0.001624 -0.068770
    48 -1.212046 -0.202562 -0.094716 0.000000 0.000000 0.000000
    49 -0.000912 -0.003783 0.001647 0.000000 0.000000 0.000000
    50 -0.400434 -5.659634 3.086716 -1.137091 0.266149 0.788131
    51 -8.004651 -0.007939 0.000000 0.000000 0.000000 -3.141592
    52 -2.200086 0.067634 0.000000 -0.000046 0.667109 -1.570749
    53 -4.271043 -2.117736 0.000000 0.000000 0.000000 -1.570796
end
