// Created by Crowbar 0.68

$modelname "weapons/tfa_cso/c_blazenova.mdl"

$include "csonline_gmod.qci"

$bodygroup "weapon"
{
	studio "v_summonknifeex03"
}
$bodygroup "weapon"
{
	studio "v_summonknifeex01"
}
$bodygroup "weapon"
{
	studio "v_summonknifeex02"
}
$bodygroup "weapon"
{
	studio "v_summonknifeex_ef"
}

$CDMaterials "models\weapons\tfa_cso\blazenova\"

$attachment 0 "root" -9 -31 -6.5
$attachment 1 "root" 13.5 -31 -6.5
$attachment 2 "root" -30 -31 -4.5
$attachment 3 "root" 32 -31 -4.5
$attachment 4 "root" 2 -20 1
$attachment 5 "root" -2 -20 1
$attachment 6 "epic_dual" 0 0 10
$attachment 7 "root" -3.2 -5 0.4
$attachment 8 "root" 0 -5.8 0.1
$attachment 9 "root" 0 -6 1
$attachment 10 "root" 0 -10 0
$attachment 11 "root" 0 -10 1

$sequence "idle_a" {
	"v_summonknifeex_anims\idle_a"
	fps 30
	activity "ACT_VM_IDLE" 1
	snap
	loop
}
$sequence "slash_1" {
	"v_summonknifeex_anims\slash_1"
	{ event 5004 1 "Dreadnova.Slash1" }
	{ event 5004 19 "Dreadnova.SlashEnd" }
	fps 30
	activity "ACT_VM_HITLEFT" 1
	snap
}
$sequence "slash_2" {
	"v_summonknifeex_anims\slash_2"
	{ event 5004 1 "Dreadnova.Slash2" }
	{ event 5004 19 "Dreadnova.SlashEnd" }
	fps 30
	activity "ACT_VM_HITRIGHT" 1
	snap
}
$sequence "slash_3" {
	"v_summonknifeex_anims\slash_3"
	{ event 5001 0 "#I187 S0.12 R0 F0 P30 T999 A1 L0 O0 X10" }
	{ event 5004 1 "Dreadnova.Slash3" }
	{ event 5004 19 "Dreadnova.SlashEnd" }
	fps 30
	activity "ACT_VM_PRIMARYATTACK" 2
	snap
}
$sequence "slash_4" {
	"v_summonknifeex_anims\slash_4"
	{ event 5001 0 "#I188 S0.07 R0 F0 P30 T999 A1 L0 O0 X11" }
	{ event 5004 1 "Dreadnova.Slash4" }
	{ event 5004 19 "Dreadnova.SlashEnd" }
	fps 30
	activity "ACT_VM_PULLBACK" 2
	snap
}
$sequence "slash_end" {
	"v_summonknifeex_anims\slash_end"
	{ event 5004 3 "weapons/slash_end.wav" }
	fps 30
}
$sequence "draw_a" {
	"v_summonknifeex_anims\draw_a"
	{ event 5004 3 "Dreadnova.Draw" }
	fps 30
	activity "ACT_VM_DRAW" 1
	snap
}
$sequence "idle_b" {
	"v_summonknifeex_anims\idle_b"
	fps 30
	loop
}
$sequence "stab1" {
	"v_summonknifeex_anims\stab1"
	{ event 5001 14 "#I199 S0.027 R0 F0 P30 T999 A1 L0 O0 X9" }
	{ event 5004 1 "Dreadnova.Stab" }
	{ event 5004 29 "Dreadnova.Draw" }
	activity "ACT_VM_MISSLEFT" 1
	fps 30
	snap
}
$sequence "stab2" {
	"v_summonknifeex_anims\stab2"
	{ event 5001 8 "#I199 S0.027 R0 F0 P30 T999 A1 L0 O0 X9" }
	fps 30
}
$sequence "stab_end" {
	"v_summonknifeex_anims\stab_end"
	{ event 5004 5 "weapons/slash_end.wav" }
	fps 30
}
$sequence "draw_b" {
	"v_summonknifeex_anims\draw_b"
	{ event 5004 5 "weapons/summonknife_draw_b.wav" }
	fps 30
}
$sequence "charging_start" {
	"v_summonknifeex_anims\charging_start"
	{ event 5004 4 "weapons/summonknife_charging_start.wav" }
	fps 30
}
$sequence "charging_loop" {
	"v_summonknifeex_anims\charging_loop"
	fps 30
	loop
}
$sequence "charging_release" {
	"v_summonknifeex_anims\charging_release"
	{ event 5001 12 "#I199 S0.035 R0 F0 P30 T999 A1 L0 O0 X9" }
	fps 30
}
$sequence "summoning_a" {
	"v_summonknifeex_anims\summoning_a"
	{ event 5004 1 "weapons/summoning_a.wav" }
	fps 30
}
