version 1
nodes
  0 "Box01" -1
  1 "SMDImport" 0
end
skeleton
  time 0
    0 0.000000 0.000000 0.000000 0.000000 0.000000 0.000000
    1 0.000000 0.000000 0.000000 0.000000 0.000000 0.000000
  time 1
    0 0.000000 0.000000 0.000000 0.000000 0.000000 0.000000
    1 0.000000 0.000000 0.000000 0.000000 0.000000 0.000000
end
