version 1
nodes
  0 "Bone01" -1
  1 "Bone07" 0
  2 "Bone06" 1
  3 "Bone05" 2
  4 "Bone02" 0
  5 "Bone03" 4
  6 "Bone04" 5
  7 "Bone08" 0
  8 "Bone09" 7
  9 "Bone10" 0
  10 "Bone11" 9
  11 "Bone12" 10
  12 "Bone13" 11
end
skeleton
  time 0
    0 -0.004443 -0.972682 -1.036217 0.000003 -0.734660 1.570793
    1 5.511326 1.741799 7.085753 -0.181246 0.064519 1.187150
    2 3.337297 0.175467 0.013900 -0.018259 -0.002680 -0.303003
    3 5.666880 0.527704 -0.042336 -0.026581 -0.003888 -0.427429
    4 5.485359 -1.485244 6.967264 0.228364 0.080611 -1.266419
    5 3.806644 -0.026301 -0.028546 0.000000 0.000000 0.395058
    6 5.546515 -0.000001 0.028551 0.000000 0.000000 0.436332
    7 5.187491 0.000003 7.253718 -0.000001 -2.321553 0.000002
    8 6.035933 -0.000001 0.000000 0.000000 -0.335193 0.000000
    9 5.558173 0.000001 -2.290799 0.000000 1.059249 0.000000
    10 3.332470 0.000000 0.000000 0.000000 -0.182279 0.000000
    11 4.081922 0.000001 0.000000 0.000000 0.085407 0.000000
    12 4.159205 -0.000001 -0.000001 0.016588 0.062084 -0.008423
  time 1
    0 -0.004443 -0.972682 -0.954183 0.000003 -0.732934 1.570793
    1 5.511326 1.741799 7.085753 -0.179568 0.060097 1.235422
    2 3.337297 0.175467 0.013900 -0.018990 -0.002644 -0.307425
    3 5.666880 0.527704 -0.042336 -0.028966 -0.003385 -0.429708
    4 5.485359 -1.485244 6.967264 0.225320 0.078010 -1.314864
    5 3.806644 -0.026301 -0.028546 0.000000 0.000000 0.399442
    6 5.546515 -0.000001 0.028551 0.000000 0.000000 0.438649
    7 5.187491 0.000003 7.253718 -0.000001 -2.339662 0.000002
    8 6.035933 -0.000001 0.000000 0.000000 -0.322238 0.000000
    9 5.558173 0.000001 -2.290799 0.000000 1.064438 0.000000
    10 3.332470 0.000000 0.000000 0.000000 -0.179690 0.000000
    11 4.081922 0.000001 0.000000 0.000000 0.079537 0.000000
    12 4.159205 -0.000001 -0.000001 0.016600 0.047798 -0.008651
  time 2
    0 -0.004443 -0.972682 -0.848711 0.000003 -0.731616 1.570793
    1 5.511326 1.741799 7.085753 -0.177639 0.054428 1.295745
    2 3.337297 0.175467 0.013900 -0.019841 -0.002632 -0.314794
    3 5.666880 0.527704 -0.042336 -0.031698 -0.002749 -0.435282
    4 5.485359 -1.485244 6.967264 0.221569 0.074607 -1.375432
    5 3.806644 -0.026301 -0.028546 0.000000 0.000000 0.406851
    6 5.546515 -0.000001 0.028551 0.000000 0.000000 0.444300
    7 5.187491 0.000003 7.253718 -0.000001 -2.357087 0.000002
    8 6.035933 -0.000001 0.000000 0.000000 -0.310433 0.000000
    9 5.558173 0.000001 -2.290799 0.000000 1.073858 0.000000
    10 3.332470 0.000000 0.000000 0.000000 -0.175879 0.000000
    11 4.081922 0.000001 0.000000 0.000000 0.064660 0.000000
    12 4.159205 -0.000001 -0.000001 0.016648 0.025204 -0.009022
  time 3
    0 -0.004443 -0.972682 -0.743239 0.000003 -0.730633 1.570793
    1 5.511326 1.741799 7.085753 -0.175517 0.047800 1.365368
    2 3.337297 0.175467 0.013900 -0.020548 -0.002572 -0.316268
    3 5.666880 0.527704 -0.042336 -0.034635 -0.002078 -0.442294
    4 5.485359 -1.485244 6.967264 0.217290 0.070556 -1.445364
    5 3.806644 -0.026301 -0.028546 0.000000 0.000000 0.408325
    6 5.546515 -0.000001 0.028551 0.000000 0.000000 0.451285
    7 5.187491 0.000003 7.253718 -0.000001 -2.373830 0.000002
    8 6.035933 -0.000001 0.000000 0.000000 -0.299767 0.000000
    9 5.558173 0.000001 -2.290799 0.000000 1.086921 0.000000
    10 3.332470 0.000000 0.000000 0.000000 -0.171037 0.000000
    11 4.081922 0.000001 0.000000 0.000000 0.042136 0.000000
    12 4.159205 -0.000001 -0.000001 0.016708 -0.004206 -0.009538
  time 4
    0 -0.004443 -0.972682 -0.626048 0.000003 -0.729986 1.570793
    1 5.511326 1.741799 7.085753 -0.173276 0.040502 1.441666
    2 3.337297 0.175467 0.013900 -0.020980 -0.002404 -0.303003
    3 5.666880 0.527704 -0.042336 -0.037583 -0.001407 -0.448570
    4 5.485359 -1.485244 6.967264 0.212652 0.066050 -1.521949
    5 3.806644 -0.026301 -0.028546 0.000000 0.000000 0.395058
    6 5.546515 -0.000001 0.028551 0.000000 0.000000 0.457674
    7 5.187491 0.000003 7.253718 -0.000001 -2.389757 0.000002
    8 6.035933 -0.000001 0.000000 0.000000 -0.290203 0.000000
    9 5.558173 0.000001 -2.290799 0.000000 1.103077 0.000000
    10 3.332470 0.000000 0.000000 0.000000 -0.165345 0.000000
    11 4.081922 0.000001 0.000000 0.000000 0.013244 0.000000
    12 4.159205 -0.000001 -0.000001 0.016780 -0.039062 -0.010137
  time 5
    0 -0.004443 -0.972682 -0.501044 0.000003 -0.729638 1.570793
    1 5.511326 1.741799 7.085753 -0.170987 0.032772 1.521891
    2 3.337297 0.175467 0.013900 -0.020896 -0.002069 -0.264644
    3 5.666880 0.527704 -0.042336 -0.040375 -0.000808 -0.452216
    4 5.485359 -1.485244 6.967264 0.207798 0.061232 -1.602526
    5 3.806644 -0.026301 -0.028546 0.000000 0.000000 0.356694
    6 5.546515 -0.000001 0.028551 0.000000 0.000000 0.461325
    7 5.187491 0.000003 7.253718 -0.000001 -2.404858 0.000002
    8 6.035933 -0.000001 0.000000 0.000000 -0.281706 0.000000
    9 5.558173 0.000001 -2.290799 0.000000 1.121725 0.000000
    10 3.332470 0.000000 0.000000 0.000000 -0.158945 0.000000
    11 4.081922 0.000001 0.000000 0.000000 -0.020697 0.000000
    12 4.159205 -0.000001 -0.000001 0.016876 -0.077952 -0.010808
  time 6
    0 -0.004443 -0.972682 -0.379947 0.000003 -0.729555 1.570793
    1 5.511326 1.741799 7.085753 -0.168722 0.024874 1.603417
    2 3.337297 0.175467 0.013900 -0.020308 -0.001517 -0.200056
    3 5.666880 0.527704 -0.042336 -0.042856 -0.000293 -0.451164
    4 5.485359 -1.485244 6.967264 0.202909 0.056282 -1.684360
    5 3.806644 -0.026301 -0.028546 0.000000 0.000000 0.292138
    6 5.546515 -0.000001 0.028551 0.000000 0.000000 0.460342
    7 5.187491 0.000003 7.253718 -0.000001 -2.419048 0.000002
    8 6.035933 -0.000001 0.000000 0.000000 -0.274227 0.000000
    9 5.558173 0.000001 -2.290799 0.000000 1.142314 0.000000
    10 3.332470 0.000000 0.000000 0.000000 -0.152042 0.000000
    11 4.081922 0.000001 0.000000 0.000000 -0.058394 0.000000
    12 4.159205 -0.000001 -0.000001 0.016972 -0.119398 -0.011515
  time 7
    0 -0.004443 -0.972682 -0.254943 0.000003 -0.729674 1.570793
    1 5.511326 1.741799 7.085753 -0.166553 0.017072 1.683544
    2 3.337297 0.175467 0.013900 -0.019326 -0.000798 -0.114003
    3 5.666880 0.527704 -0.042336 -0.044858 0.000091 -0.443451
    4 5.485359 -1.485244 6.967264 0.198115 0.051405 -1.764838
    5 3.806644 -0.026301 -0.028546 0.000000 0.000000 0.206075
    6 5.546515 -0.000001 0.028551 0.000000 0.000000 0.452619
    7 5.187491 0.000003 7.253718 -0.000001 -2.432279 0.000002
    8 6.035933 -0.000001 0.000000 0.000000 -0.267780 0.000000
    9 5.558173 0.000001 -2.290799 0.000000 1.164270 0.000000
    10 3.332470 0.000000 0.000000 0.000000 -0.144779 0.000000
    11 4.081922 0.000001 0.000000 0.000000 -0.098528 0.000000
    12 4.159205 -0.000001 -0.000001 0.017067 -0.162016 -0.012246
  time 8
    0 -0.004443 -0.972682 -0.129939 0.000003 -0.729998 1.570793
    1 5.511326 1.741799 7.085753 -0.164516 0.009654 1.759597
    2 3.337297 0.175467 0.013900 -0.018019 0.000029 -0.011321
    3 5.666880 0.527704 -0.042336 -0.046212 0.000247 -0.427184
    4 5.485359 -1.485244 6.967264 0.193573 0.046719 -1.841177
    5 3.806644 -0.026301 -0.028546 0.000000 0.000000 0.103343
    6 5.546515 -0.000001 0.028551 0.000000 0.000000 0.436332
    7 5.187491 0.000003 7.253718 -0.000001 -2.444479 0.000002
    8 6.035933 -0.000001 0.000000 0.000000 -0.262279 0.000000
    9 5.558173 0.000001 -2.290799 0.000000 1.187041 0.000000
    10 3.332470 0.000000 0.000000 0.000000 -0.137361 0.000000
    11 4.081922 0.000001 0.000000 0.000000 -0.139806 0.000000
    12 4.159205 -0.000001 -0.000001 0.017175 -0.204354 -0.012977
  time 9
    0 -0.004443 -0.972682 -0.008842 0.000003 -0.730477 1.570793
    1 5.511326 1.741799 7.085753 -0.162706 0.002834 1.828877
    2 3.337297 0.175467 0.013900 -0.016461 0.000927 0.103190
    3 5.666880 0.527704 -0.042336 -0.046715 0.000115 -0.397909
    4 5.485359 -1.485244 6.967264 0.189438 0.042392 -1.910763
    5 3.806644 -0.026301 -0.028546 0.000000 0.000000 -0.011181
    6 5.546515 -0.000001 0.028551 0.000000 0.000000 0.407092
    7 5.187491 0.000003 7.253718 -0.000001 -2.455589 0.000002
    8 6.035933 -0.000001 0.000000 0.000000 -0.257725 0.000000
    9 5.558173 0.000001 -2.290799 0.000000 1.210027 0.000000
    10 3.332470 0.000000 0.000000 0.000000 -0.129930 0.000000
    11 4.081922 0.000001 0.000000 0.000000 -0.180923 0.000000
    12 4.159205 -0.000001 -0.000001 0.017283 -0.245028 -0.013684
  time 10
    0 -0.004443 -0.972682 0.104443 0.000003 -0.731089 1.570793
    1 5.511326 1.741799 7.085753 -0.161184 -0.003074 1.888733
    2 3.337297 0.175467 0.013900 -0.014759 0.001886 0.224692
    3 5.666880 0.527704 -0.042336 -0.046427 -0.000317 -0.354191
    4 5.485359 -1.485244 6.967264 0.185915 0.038629 -1.970839
    5 3.806644 -0.026301 -0.028546 0.000000 0.000000 -0.132697
    6 5.546515 -0.000001 0.028551 0.000000 0.000000 0.363320
    7 5.187491 0.000003 7.253718 -0.000001 -2.465560 0.000002
    8 6.035933 -0.000001 0.000000 0.000000 -0.254033 0.000000
    9 5.558173 0.000001 -2.290799 0.000000 1.232690 0.000000
    10 3.332470 0.000000 0.000000 0.000000 -0.122680 0.000000
    11 4.081922 0.000001 0.000000 0.000000 -0.220545 0.000000
    12 4.159205 -0.000001 -0.000001 0.017403 -0.282613 -0.014331
  time 11
    0 -0.004443 -0.972682 0.209915 0.000003 -0.731772 1.570793
    1 5.511326 1.741799 7.085753 -0.159997 -0.007844 1.936441
    2 3.337297 0.175467 0.013900 -0.012962 0.002869 0.348349
    3 5.666880 0.527704 -0.042336 -0.045421 -0.001000 -0.297886
    4 5.485359 -1.485244 6.967264 0.183086 0.035573 -2.018741
    5 3.806644 -0.026301 -0.028546 0.000000 0.000000 -0.256367
    6 5.546515 -0.000001 0.028551 0.000000 0.000000 0.306946
    7 5.187491 0.000003 7.253718 -0.000001 -2.474297 0.000002
    8 6.035933 -0.000001 0.000000 0.000000 -0.251241 0.000000
    9 5.558173 0.000001 -2.290799 0.000000 1.254442 0.000000
    10 3.332470 0.000000 0.000000 0.000000 -0.115777 0.000000
    11 4.081922 0.000001 0.000000 0.000000 -0.257394 0.000000
    12 4.159205 -0.000001 -0.000001 0.017499 -0.315658 -0.014919
  time 12
    0 -0.004443 -0.972682 0.307574 0.000003 -0.732503 1.570793
    1 5.511326 1.741799 7.085753 -0.159254 -0.011188 1.969326
    2 3.337297 0.175467 0.013900 -0.011164 0.003804 0.469436
    3 5.666880 0.527704 -0.042336 -0.043767 -0.001899 -0.231099
    4 5.485359 -1.485244 6.967264 0.181181 0.033404 -2.051785
    5 3.806644 -0.026301 -0.028546 0.000000 0.000000 -0.377506
    6 5.546515 -0.000001 0.028551 0.000000 0.000000 0.240042
    7 5.187491 0.000003 7.253718 -0.000001 -2.481811 0.000002
    8 6.035933 -0.000001 0.000000 0.000000 -0.249252 0.000000
    9 5.558173 0.000001 -2.290799 0.000000 1.274732 0.000000
    10 3.332470 0.000000 0.000000 0.000000 -0.109377 0.000000
    11 4.081922 0.000001 0.000000 0.000000 -0.290177 0.000000
    12 4.159205 -0.000001 -0.000001 0.017595 -0.342752 -0.015374
  time 13
    0 -0.004443 -0.972682 0.389608 0.000003 -0.733258 1.570793
    1 5.511326 1.741799 7.085753 -0.158979 -0.013069 1.986922
    2 3.337297 0.175467 0.013900 -0.009474 0.004679 0.583078
    3 5.666880 0.527704 -0.042336 -0.041598 -0.002977 -0.155652
    4 5.485359 -1.485244 6.967264 0.180198 0.032097 -2.069429
    5 3.806644 -0.026301 -0.028546 0.000000 0.000000 -0.491123
    6 5.546515 -0.000001 0.028551 0.000000 0.000000 0.164538
    7 5.187491 0.000003 7.253718 -0.000001 -2.487971 0.000002
    8 6.035933 -0.000001 0.000000 0.000000 -0.248065 0.000000
    9 5.558173 0.000001 -2.290799 0.000000 1.292973 0.000000
    10 3.332470 0.000000 0.000000 0.000000 -0.103660 0.000000
    11 4.081922 0.000001 0.000000 0.000000 -0.317561 0.000000
    12 4.159205 -0.000001 -0.000001 0.017667 -0.362483 -0.015734
  time 14
    0 -0.004443 -0.972682 0.463829 0.000003 -0.733989 1.570793
    1 5.511326 1.741799 7.085753 -0.159110 -0.013752 1.991265
    2 3.337297 0.175467 0.013900 -0.007964 0.005458 0.684475
    3 5.666880 0.527704 -0.042336 -0.038961 -0.004188 -0.073579
    4 5.485359 -1.485244 6.967264 0.180018 0.031522 -2.073864
    5 3.806644 -0.026301 -0.028546 0.000000 0.000000 -0.592569
    6 5.546515 -0.000001 0.028551 0.000000 0.000000 0.082294
    7 5.187491 0.000003 7.253718 -0.000001 -2.492753 0.000002
    8 6.035933 -0.000001 0.000000 0.000000 -0.247646 0.000000
    9 5.558173 0.000001 -2.290799 0.000000 1.308588 0.000000
    10 3.332470 0.000000 0.000000 0.000000 -0.098830 0.000000
    11 4.081922 0.000001 0.000000 0.000000 -0.338227 0.000000
    12 4.159205 -0.000001 -0.000001 0.017739 -0.373454 -0.015913
  time 15
    0 -0.004443 -0.972682 0.514612 0.000003 -0.734660 1.570793
    1 5.511326 1.741799 7.085753 -0.159662 -0.013357 1.983756
    2 3.337297 0.175467 0.013900 -0.006718 0.006081 0.768790
    3 5.666880 0.527704 -0.042336 -0.036025 -0.005530 0.013157
    4 5.485359 -1.485244 6.967264 0.180581 0.031606 -2.066250
    5 3.806644 -0.026301 -0.028546 0.000000 0.000000 -0.676855
    6 5.546515 -0.000001 0.028551 0.000000 0.000000 -0.004548
    7 5.187491 0.000003 7.253718 -0.000001 -2.496085 0.000002
    8 6.035933 -0.000001 0.000000 0.000000 -0.247933 0.000000
    9 5.558173 0.000001 -2.290799 0.000000 1.321028 0.000000
    10 3.332470 0.000000 0.000000 0.000000 -0.095019 0.000000
    11 4.081922 0.000001 0.000000 0.000000 -0.350923 0.000000
    12 4.159205 -0.000001 -0.000001 0.017774 -0.374186 -0.015937
  time 16
    0 -0.004443 -0.972682 0.545863 0.000003 -0.735511 1.570793
    1 5.511326 1.741799 7.085753 -0.160549 -0.011967 1.965571
    2 3.337297 0.175467 0.013900 -0.005807 0.006536 0.831261
    3 5.666880 0.527704 -0.042336 -0.032813 -0.006932 0.102592
    4 5.485359 -1.485244 6.967264 0.181816 0.032277 -2.048015
    5 3.806644 -0.026301 -0.028546 0.000000 0.000000 -0.739371
    6 5.546515 -0.000001 0.028551 0.000000 0.000000 -0.094163
    7 5.187491 0.000003 7.253718 -0.000001 -2.496732 0.000002
    8 6.035933 -0.000001 0.000000 0.000000 -0.250174 0.000000
    9 5.558173 0.000001 -2.290799 0.000000 1.331012 0.000000
    10 3.332470 0.000000 0.000000 0.000000 -0.092143 0.000000
    11 4.081922 0.000001 0.000000 0.000000 -0.355756 0.000000
    12 4.159205 -0.000001 -0.000001 0.017798 -0.363149 -0.015770
  time 17
    0 -0.004443 -0.972682 0.557582 0.000003 -0.736745 1.570793
    1 5.511326 1.741799 7.085753 -0.161723 -0.009726 1.938036
    2 3.337297 0.175467 0.013900 -0.005208 0.006836 0.874760
    3 5.666880 0.527704 -0.042336 -0.029445 -0.008370 0.192799
    4 5.485359 -1.485244 6.967264 0.183614 0.033476 -2.020442
    5 3.806644 -0.026301 -0.028546 0.000000 0.000000 -0.782913
    6 5.546515 -0.000001 0.028551 0.000000 0.000000 -0.184445
    7 5.187491 0.000003 7.253718 -0.000001 -2.493688 0.000002
    8 6.035933 -0.000001 0.000000 0.000000 -0.255472 0.000000
    9 5.558173 0.000001 -2.290799 0.000000 1.339605 0.000000
    10 3.332470 0.000000 0.000000 0.000000 -0.089902 0.000000
    11 4.081922 0.000001 0.000000 0.000000 -0.354329 0.000000
    12 4.159205 -0.000001 -0.000001 0.017822 -0.340875 -0.015374
  time 18
    0 -0.004443 -0.972682 0.545863 0.000003 -0.738363 1.570793
    1 5.511326 1.741799 7.085753 -0.163173 -0.006717 1.902476
    2 3.337297 0.175467 0.013900 -0.004740 0.007016 0.906014
    3 5.666880 0.527704 -0.042336 -0.026066 -0.009808 0.281743
    4 5.485359 -1.485244 6.967264 0.185915 0.035106 -1.984737
    5 3.806644 -0.026301 -0.028546 0.000000 0.000000 -0.814133
    6 5.546515 -0.000001 0.028551 0.000000 0.000000 -0.273604
    7 5.187491 0.000003 7.253718 -0.000001 -2.487240 0.000002
    8 6.035933 -0.000001 0.000000 0.000000 -0.263525 0.000000
    9 5.558173 0.000001 -2.290799 0.000000 1.346855 0.000000
    10 3.332470 0.000000 0.000000 0.000000 -0.088284 0.000000
    11 4.081922 0.000001 0.000000 0.000000 -0.347530 0.000000
    12 4.159205 -0.000001 -0.000001 0.017834 -0.309028 -0.014847
  time 19
    0 -0.004443 -0.972682 0.518518 0.000003 -0.740317 1.570793
    1 5.511326 1.741799 7.085753 -0.164839 -0.003098 1.860142
    2 3.337297 0.175467 0.013900 -0.004465 0.007087 0.925931
    3 5.666880 0.527704 -0.042336 -0.022674 -0.011211 0.367532
    4 5.485359 -1.485244 6.967264 0.188623 0.037107 -1.942255
    5 3.806644 -0.026301 -0.028546 0.000000 0.000000 -0.834014
    6 5.546515 -0.000001 0.028551 0.000000 0.000000 -0.359498
    7 5.187491 0.000003 7.253718 -0.000001 -2.477628 0.000002
    8 6.035933 -0.000001 0.000000 0.000000 -0.274155 0.000000
    9 5.558173 0.000001 -2.290799 0.000000 1.352872 0.000000
    10 3.332470 0.000000 0.000000 0.000000 -0.087241 0.000000
    11 4.081922 0.000001 0.000000 0.000000 -0.336221 0.000000
    12 4.159205 -0.000001 -0.000001 0.017834 -0.269286 -0.014176
  time 20
    0 -0.004443 -0.972682 0.471642 0.000003 -0.742558 1.570793
    1 5.511326 1.741799 7.085753 -0.166709 0.001037 1.812336
    2 3.337297 0.175467 0.013900 -0.004321 0.007063 0.935341
    3 5.666880 0.527704 -0.042336 -0.019426 -0.012517 0.448203
    4 5.485359 -1.485244 6.967264 0.191679 0.039420 -1.894254
    5 3.806644 -0.026301 -0.028546 0.000000 0.000000 -0.843463
    6 5.546515 -0.000001 0.028551 0.000000 0.000000 -0.440303
    7 5.187491 0.000003 7.253718 -0.000001 -2.465188 0.000002
    8 6.035933 -0.000001 0.000000 0.000000 -0.287087 0.000000
    9 5.558173 0.000001 -2.290799 0.000000 1.357665 0.000000
    10 3.332470 0.000000 0.000000 0.000000 -0.086774 0.000000
    11 4.081922 0.000001 0.000000 0.000000 -0.321277 0.000000
    12 4.159205 -0.000001 -0.000001 0.017834 -0.223353 -0.013397
  time 21
    0 -0.004443 -0.972682 0.413046 0.000003 -0.745051 1.570793
    1 5.511326 1.741799 7.085753 -0.168674 0.005567 1.760333
    2 3.337297 0.175467 0.013900 -0.004297 0.006956 0.935228
    3 5.666880 0.527704 -0.042336 -0.016406 -0.013703 0.521721
    4 5.485359 -1.485244 6.967264 0.195011 0.041973 -1.842064
    5 3.806644 -0.026301 -0.028546 0.000000 0.000000 -0.843312
    6 5.546515 -0.000001 0.028551 0.000000 0.000000 -0.513982
    7 5.187491 0.000003 7.253718 -0.000001 -2.450160 0.000002
    8 6.035933 -0.000001 0.000000 0.000000 -0.302092 0.000000
    9 5.558173 0.000001 -2.290799 0.000000 1.361297 0.000000
    10 3.332470 0.000000 0.000000 0.000000 -0.086810 0.000000
    11 4.081922 0.000001 0.000000 0.000000 -0.303546 0.000000
    12 4.159205 -0.000001 -0.000001 0.017822 -0.172920 -0.012546
  time 22
    0 -0.004443 -0.972682 0.338825 0.000003 -0.747759 1.570793
    1 5.511326 1.741799 7.085753 -0.170747 0.010361 1.705459
    2 3.337297 0.175467 0.013900 -0.004393 0.006776 0.926498
    3 5.666880 0.527704 -0.042336 -0.013722 -0.014734 0.586230
    4 5.485359 -1.485244 6.967264 0.198498 0.044681 -1.786966
    5 3.806644 -0.026301 -0.028546 0.000000 0.000000 -0.834581
    6 5.546515 -0.000001 0.028551 0.000000 0.000000 -0.578534
    7 5.187491 0.000003 7.253718 -0.000001 -2.432806 0.000002
    8 6.035933 -0.000001 0.000000 0.000000 -0.318918 0.000000
    9 5.558173 0.000001 -2.290799 0.000000 1.363801 0.000000
    10 3.332470 0.000000 0.000000 0.000000 -0.087313 0.000000
    11 4.081922 0.000001 0.000000 0.000000 -0.283903 0.000000
    12 4.159205 -0.000001 -0.000001 0.017798 -0.119611 -0.011635
  time 23
    0 -0.004443 -0.972682 0.245072 0.000003 -0.750659 1.570793
    1 5.511326 1.741799 7.085753 -0.172881 0.015310 1.648965
    2 3.337297 0.175467 0.013900 -0.004585 0.006500 0.909944
    3 5.666880 0.527704 -0.042336 -0.011432 -0.015585 0.639660
    4 5.485359 -1.485244 6.967264 0.202106 0.047498 -1.730291
    5 3.806644 -0.026301 -0.028546 0.000000 0.000000 -0.818064
    6 5.546515 -0.000001 0.028551 0.000000 0.000000 -0.632100
    7 5.187491 0.000003 7.253718 -0.000001 -2.413427 0.000002
    8 6.035933 -0.000001 0.000000 0.000000 -0.337290 0.000000
    9 5.558173 0.000001 -2.290799 0.000000 1.365276 0.000000
    10 3.332470 0.000000 0.000000 0.000000 -0.088296 0.000000
    11 4.081922 0.000001 0.000000 0.000000 -0.263210 0.000000
    12 4.159205 -0.000001 -0.000001 0.017786 -0.065144 -0.010700
  time 24
    0 -0.004443 -0.972682 0.147413 0.000003 -0.753728 1.570793
    1 5.511326 1.741799 7.085753 -0.175002 0.020332 1.592128
    2 3.337297 0.175467 0.013900 -0.004848 0.006201 0.886627
    3 5.666880 0.527704 -0.042336 -0.009671 -0.016184 0.680118
    4 5.485359 -1.485244 6.967264 0.205713 0.050350 -1.673222
    5 3.806644 -0.026301 -0.028546 0.000000 0.000000 -0.794705
    6 5.546515 -0.000001 0.028551 0.000000 0.000000 -0.672572
    7 5.187491 0.000003 7.253718 -0.000001 -2.392286 0.000002
    8 6.035933 -0.000001 0.000000 0.000000 -0.357065 0.000000
    9 5.558173 0.000001 -2.290799 0.000000 1.365707 0.000000
    10 3.332470 0.000000 0.000000 0.000000 -0.089662 0.000000
    11 4.081922 0.000001 0.000000 0.000000 -0.242342 0.000000
    12 4.159205 -0.000001 -0.000001 0.017762 -0.011196 -0.009777
  time 25
    0 -0.004443 -0.972682 0.041941 0.000003 -0.756903 1.570745
    1 5.511326 1.741799 7.085753 -0.177099 0.025245 1.536297
    2 3.337297 0.175467 0.013900 -0.005196 0.005829 0.857375
    3 5.666880 0.527704 -0.042336 -0.008484 -0.016532 0.705570
    4 5.485359 -1.485244 6.967264 0.209297 0.053142 -1.617187
    5 3.806644 -0.026301 -0.028546 0.000000 0.000000 -0.765451
    6 5.546515 -0.000001 0.028551 0.000000 0.000000 -0.698091
    7 5.187491 0.000003 7.253718 -0.000001 -2.369659 0.000002
    8 6.035933 -0.000001 0.000000 0.000000 -0.377906 0.000000
    9 5.558173 0.000001 -2.290799 0.000000 1.365216 0.000000
    10 3.332470 0.000000 0.000000 0.000000 -0.091436 0.000000
    11 4.081922 0.000001 0.000000 0.000000 -0.222174 0.000000
    12 4.159205 -0.000001 -0.000001 0.017751 0.040542 -0.008902
  time 26
    0 -0.004443 -0.972682 -0.075250 0.000003 -0.760175 1.570793
    1 5.511326 1.741799 7.085753 -0.179125 0.029979 1.482699
    2 3.337297 0.175467 0.013900 -0.005591 0.005446 0.823135
    3 5.666880 0.527704 -0.042336 -0.007825 -0.016628 0.718016
    4 5.485359 -1.485244 6.967264 0.212712 0.055839 -1.563396
    5 3.806644 -0.026301 -0.028546 0.000000 0.000000 -0.731245
    6 5.546515 -0.000001 0.028551 0.000000 0.000000 -0.710552
    7 5.187491 0.000003 7.253718 -0.000001 -2.345846 0.000002
    8 6.035933 -0.000001 0.000000 0.000000 -0.399634 0.000000
    9 5.558173 0.000001 -2.290799 0.000000 1.363789 0.000000
    10 3.332470 0.000000 0.000000 0.000000 -0.093533 0.000000
    11 4.081922 0.000001 0.000000 0.000000 -0.203541 0.000000
    12 4.159205 -0.000001 -0.000001 0.017727 0.088406 -0.008111
  time 27
    0 -0.004443 -0.972682 -0.192441 0.000003 -0.763507 1.570793
    1 5.511326 1.741799 7.085753 -0.181018 0.034426 1.432635
    2 3.337297 0.175467 0.013900 -0.006047 0.005002 0.784776
    3 5.666880 0.527704 -0.042336 -0.007478 -0.016532 0.721347
    4 5.485359 -1.485244 6.967264 0.215924 0.058356 -1.513127
    5 3.806644 -0.026301 -0.028546 0.000000 0.000000 -0.692843
    6 5.546515 -0.000001 0.028551 0.000000 0.000000 -0.713887
    7 5.187491 0.000003 7.253718 -0.000001 -2.321110 0.000002
    8 6.035933 -0.000001 0.000000 0.000000 -0.421973 0.000000
    9 5.558173 0.000001 -2.290799 0.000000 1.361524 0.000000
    10 3.332470 0.000000 0.000000 0.000000 -0.095966 0.000000
    11 4.081922 0.000001 0.000000 0.000000 -0.187318 0.000000
    12 4.159205 -0.000001 -0.000001 0.017715 0.130704 -0.007404
  time 28
    0 -0.004443 -0.972682 -0.321351 0.000003 -0.766851 1.570793
    1 5.511326 1.741799 7.085753 -0.182720 0.038429 1.387406
    2 3.337297 0.175467 0.013900 -0.006502 0.004559 0.743204
    3 5.666880 0.527704 -0.042336 -0.007382 -0.016268 0.716228
    4 5.485359 -1.485244 6.967264 0.218848 0.060621 -1.467763
    5 3.806644 -0.026301 -0.028546 0.000000 0.000000 -0.651305
    6 5.546515 -0.000001 0.028551 0.000000 0.000000 -0.708762
    7 5.187491 0.000003 7.253718 -0.000001 -2.295678 0.000002
    8 6.035933 -0.000001 0.000000 0.000000 -0.444696 0.000000
    9 5.558173 0.000001 -2.290799 0.000000 1.358456 0.000000
    10 3.332470 0.000000 0.000000 0.000000 -0.098651 0.000000
    11 4.081922 0.000001 0.000000 0.000000 -0.174393 0.000000
    12 4.159205 -0.000001 -0.000001 0.017691 0.165786 -0.006805
  time 29
    0 -0.004443 -0.972682 -0.458074 0.000003 -0.770158 1.570793
    1 5.511326 1.741799 7.085753 -0.184254 0.041880 1.348312
    2 3.337297 0.175467 0.013900 -0.006982 0.004079 0.699327
    3 5.666880 0.527704 -0.042336 -0.007537 -0.015885 0.703642
    4 5.485359 -1.485244 6.967264 0.221401 0.062550 -1.428485
    5 3.806644 -0.026301 -0.028546 0.000000 0.000000 -0.607423
    6 5.546515 -0.000001 0.028551 0.000000 0.000000 -0.696196
    7 5.187491 0.000003 7.253718 -0.000001 -2.269887 0.000002
    8 6.035933 -0.000001 0.000000 0.000000 -0.467575 0.000000
    9 5.558173 0.000001 -2.290799 0.000000 1.354633 0.000000
    10 3.332470 0.000000 0.000000 0.000000 -0.101587 0.000000
    11 4.081922 0.000001 0.000000 0.000000 -0.165588 0.000000
    12 4.159205 -0.000001 -0.000001 0.017679 0.191948 -0.006386
  time 30
    0 -0.004443 -0.972682 -0.590891 0.000003 -0.773430 1.570793
    1 5.511326 1.741799 7.085753 -0.185536 0.044685 1.316629
    2 3.337297 0.175467 0.013900 -0.007461 0.003636 0.654090
    3 5.666880 0.527704 -0.042336 -0.007861 -0.015357 0.684465
    4 5.485359 -1.485244 6.967264 0.223486 0.064108 -1.396673
    5 3.806644 -0.026301 -0.028546 0.000000 0.000000 -0.562105
    6 5.546515 -0.000001 0.028551 0.000000 0.000000 -0.676925
    7 5.187491 0.000003 7.253718 -0.000001 -2.244001 0.000002
    8 6.035933 -0.000001 0.000000 0.000000 -0.490334 0.000000
    9 5.558173 0.000001 -2.290799 0.000000 1.350115 0.000000
    10 3.332470 0.000000 0.000000 0.000000 -0.104727 0.000000
    11 4.081922 0.000001 0.000000 0.000000 -0.161832 0.000000
    12 4.159205 -0.000001 -0.000001 0.017667 0.207485 -0.006122
  time 31
    0 -0.004443 -0.972682 -0.723707 0.000003 -0.776606 1.570793
    1 5.511326 1.741799 7.085753 -0.186723 0.047105 1.289020
    2 3.337297 0.175467 0.013900 -0.007916 0.003168 0.608323
    3 5.666880 0.527704 -0.042336 -0.008376 -0.014746 0.659433
    4 5.485359 -1.485244 6.967264 0.225356 0.065439 -1.368976
    5 3.806644 -0.026301 -0.028546 0.000000 0.000000 -0.516371
    6 5.546515 -0.000001 0.028551 0.000000 0.000000 -0.651862
    7 5.187491 0.000003 7.253718 -0.000001 -2.218282 0.000002
    8 6.035933 -0.000001 0.000000 0.000000 -0.512745 0.000000
    9 5.558173 0.000001 -2.290799 0.000000 1.344974 0.000000
    10 3.332470 0.000000 0.000000 0.000000 -0.108022 0.000000
    11 4.081922 0.000001 0.000000 0.000000 -0.163542 0.000000
    12 4.159205 -0.000001 -0.000001 0.017655 0.212531 -0.006026
  time 32
    0 -0.004443 -0.972682 -0.860430 0.000003 -0.779674 1.570793
    1 5.511326 1.741799 7.085753 -0.187921 0.049538 1.261436
    2 3.337297 0.175467 0.013900 -0.008360 0.002737 0.563010
    3 5.666880 0.527704 -0.042336 -0.009024 -0.014087 0.629493
    4 5.485359 -1.485244 6.967264 0.227237 0.066745 -1.341255
    5 3.806644 -0.026301 -0.028546 0.000000 0.000000 -0.471052
    6 5.546515 -0.000001 0.028551 0.000000 0.000000 -0.621850
    7 5.187491 0.000003 7.253718 -0.000001 -2.192982 0.000002
    8 6.035933 -0.000001 0.000000 0.000000 -0.534569 0.000000
    9 5.558173 0.000001 -2.290799 0.000000 1.339197 0.000000
    10 3.332470 0.000000 0.000000 0.000000 -0.111474 0.000000
    11 4.081922 0.000001 0.000000 0.000000 -0.170058 0.000000
    12 4.159205 -0.000001 -0.000001 0.017643 0.209043 -0.006110
  time 33
    0 -0.004443 -0.972682 -0.997153 0.000003 -0.782574 1.570793
    1 5.511326 1.741799 7.085753 -0.189180 0.051947 1.234122
    2 3.337297 0.175467 0.013900 -0.008731 0.002342 0.519020
    3 5.666880 0.527704 -0.042336 -0.009755 -0.013356 0.595380
    4 5.485359 -1.485244 6.967264 0.229119 0.068015 -1.313853
    5 3.806644 -0.026301 -0.028546 0.000000 0.000000 -0.427095
    6 5.546515 -0.000001 0.028551 0.000000 0.000000 -0.587731
    7 5.187491 0.000003 7.253718 -0.000001 -2.168450 0.000002
    8 6.035933 -0.000001 0.000000 0.000000 -0.555566 0.000000
    9 5.558173 0.000001 -2.290799 0.000000 1.332893 0.000000
    10 3.332470 0.000000 0.000000 0.000000 -0.115033 0.000000
    11 4.081922 0.000001 0.000000 0.000000 -0.180573 0.000000
    12 4.159205 -0.000001 -0.000001 0.017643 0.198179 -0.006314
  time 34
    0 -0.004443 -0.972682 -1.118251 0.000003 -0.785307 1.570793
    1 5.511326 1.741799 7.085753 -0.190414 0.054308 1.207323
    2 3.337297 0.175467 0.013900 -0.009067 0.001958 0.477259
    3 5.666880 0.527704 -0.042336 -0.010534 -0.012613 0.558113
    4 5.485359 -1.485244 6.967264 0.231025 0.069274 -1.286970
    5 3.806644 -0.026301 -0.028546 0.000000 0.000000 -0.385330
    6 5.546515 -0.000001 0.028551 0.000000 0.000000 -0.550312
    7 5.187491 0.000003 7.253718 -0.000001 -2.144876 0.000002
    8 6.035933 -0.000001 0.000000 0.000000 -0.575484 0.000000
    9 5.558173 0.000001 -2.290799 0.000000 1.326122 0.000000
    10 3.332470 0.000000 0.000000 0.000000 -0.118665 0.000000
    11 4.081922 0.000001 0.000000 0.000000 -0.194265 0.000000
    12 4.159205 -0.000001 -0.000001 0.017643 0.181137 -0.006601
  time 35
    0 -0.004443 -0.972682 -1.243255 0.000003 -0.787800 1.570793
    1 5.511326 1.741799 7.085753 -0.191649 0.056609 1.181260
    2 3.337297 0.175467 0.013900 -0.009318 0.001634 0.438635
    3 5.666880 0.527704 -0.042336 -0.011337 -0.011858 0.518391
    4 5.485359 -1.485244 6.967264 0.232870 0.070472 -1.260825
    5 3.806644 -0.026301 -0.028546 0.000000 0.000000 -0.346664
    6 5.546515 -0.000001 0.028551 0.000000 0.000000 -0.510577
    7 5.187491 0.000003 7.253718 -0.000001 -2.122621 0.000002
    8 6.035933 -0.000001 0.000000 0.000000 -0.594096 0.000000
    9 5.558173 0.000001 -2.290799 0.000000 1.318871 0.000000
    10 3.332470 0.000000 0.000000 0.000000 -0.122308 0.000000
    11 4.081922 0.000001 0.000000 0.000000 -0.210313 0.000000
    12 4.159205 -0.000001 -0.000001 0.017643 0.159036 -0.007009
  time 36
    0 -0.004443 -0.972682 -1.360446 0.000003 -0.790041 1.570793
    1 5.511326 1.741799 7.085753 -0.192835 0.058850 1.156155
    2 3.337297 0.175467 0.013900 -0.009522 0.001335 0.398424
    3 5.666880 0.527704 -0.042336 -0.012128 -0.011127 0.477091
    4 5.485359 -1.485244 6.967264 0.234680 0.071659 -1.235642
    5 3.806644 -0.026301 -0.028546 0.000000 0.000000 -0.306410
    6 5.546515 -0.000001 0.028551 0.000000 0.000000 -0.469227
    7 5.187491 0.000003 7.253718 -0.000001 -2.101887 0.000002
    8 6.035933 -0.000001 0.000000 0.000000 -0.611174 0.000000
    9 5.558173 0.000001 -2.290799 0.000000 1.311261 0.000000
    10 3.332470 0.000000 0.000000 0.000000 -0.125963 0.000000
    11 4.081922 0.000001 0.000000 0.000000 -0.227923 0.000000
    12 4.159205 -0.000001 -0.000001 0.017631 0.133034 -0.007452
  time 37
    0 -0.004443 -0.972682 -1.469824 0.000003 -0.791970 1.570793
    1 5.511326 1.741799 7.085753 -0.193986 0.060996 1.132251
    2 3.337297 0.175467 0.013900 -0.009702 0.000975 0.351977
    3 5.666880 0.527704 -0.042336 -0.012859 -0.010444 0.435161
    4 5.485359 -1.485244 6.967264 0.236406 0.072773 -1.211642
    5 3.806644 -0.026301 -0.028546 0.000000 0.000000 -0.259996
    6 5.546515 -0.000001 0.028551 0.000000 0.000000 -0.427210
    7 5.187491 0.000003 7.253718 -0.000001 -2.083000 0.000002
    8 6.035933 -0.000001 0.000000 0.000000 -0.626455 0.000000
    9 5.558173 0.000001 -2.290799 0.000000 1.303303 0.000000
    10 3.332470 0.000000 0.000000 0.000000 -0.129607 0.000000
    11 4.081922 0.000001 0.000000 0.000000 -0.246260 0.000000
    12 4.159205 -0.000001 -0.000001 0.017631 0.104356 -0.007968
  time 38
    0 -0.004443 -0.972682 -1.575296 0.000003 -0.793588 1.570793
    1 5.511326 1.741799 7.085753 -0.195040 0.063033 1.109772
    2 3.337297 0.175467 0.013900 -0.009894 0.000616 0.300466
    3 5.666880 0.527704 -0.042336 -0.013506 -0.009808 0.393336
    4 5.485359 -1.485244 6.967264 0.238024 0.073852 -1.189045
    5 3.806644 -0.026301 -0.028546 0.000000 0.000000 -0.208441
    6 5.546515 -0.000001 0.028551 0.000000 0.000000 -0.385298
    7 5.187491 0.000003 7.253718 -0.000001 -2.066185 0.000002
    8 6.035933 -0.000001 0.000000 0.000000 -0.639686 0.000000
    9 5.558173 0.000001 -2.290799 0.000000 1.295070 0.000000
    10 3.332470 0.000000 0.000000 0.000000 -0.133142 0.000000
    11 4.081922 0.000001 0.000000 0.000000 -0.264543 0.000000
    12 4.159205 -0.000001 -0.000001 0.017631 0.074093 -0.008471
  time 39
    0 -0.004443 -0.972682 -1.661236 0.000003 -0.794847 1.570793
    1 5.511326 1.741799 7.085753 -0.196023 0.064903 1.088985
    2 3.337297 0.175467 0.013900 -0.010074 0.000208 0.244987
    3 5.666880 0.527704 -0.042336 -0.014021 -0.009281 0.352492
    4 5.485359 -1.485244 6.967264 0.239522 0.074858 -1.168174
    5 3.806644 -0.026301 -0.028546 0.000000 0.000000 -0.152994
    6 5.546515 -0.000001 0.028551 0.000000 0.000000 -0.344440
    7 5.187491 0.000003 7.253718 -0.000001 -2.051780 0.000002
    8 6.035933 -0.000001 0.000000 0.000000 -0.650651 0.000000
    9 5.558173 0.000001 -2.290799 0.000000 1.286597 0.000000
    10 3.332470 0.000000 0.000000 0.000000 -0.136606 0.000000
    11 4.081922 0.000001 0.000000 0.000000 -0.281924 0.000000
    12 4.159205 -0.000001 -0.000001 0.017619 0.043484 -0.008998
  time 40
    0 -0.004443 -0.972682 -1.743270 0.000003 -0.795710 1.570793
    1 5.511326 1.741799 7.085753 -0.196874 0.066664 1.070064
    2 3.337297 0.175467 0.013900 -0.010229 -0.000175 0.186673
    3 5.666880 0.527704 -0.042336 -0.014405 -0.008874 0.313471
    4 5.485359 -1.485244 6.967264 0.240864 0.075817 -1.149201
    5 3.806644 -0.026301 -0.028546 0.000000 0.000000 -0.094636
    6 5.546515 -0.000001 0.028551 0.000000 0.000000 -0.305371
    7 5.187491 0.000003 7.253718 -0.000001 -2.040011 0.000002
    8 6.035933 -0.000001 0.000000 0.000000 -0.659113 0.000000
    9 5.558173 0.000001 -2.290799 0.000000 1.277944 0.000000
    10 3.332470 0.000000 0.000000 0.000000 -0.139913 0.000000
    11 4.081922 0.000001 0.000000 0.000000 -0.297595 0.000000
    12 4.159205 -0.000001 -0.000001 0.017607 0.013621 -0.009526
  time 41
    0 -0.004443 -0.972682 -1.809678 0.000003 -0.796117 1.570793
    1 5.511326 1.741799 7.085753 -0.197593 0.068258 1.053278
    2 3.337297 0.175467 0.013900 -0.010397 -0.000595 0.126697
    3 5.666880 0.527704 -0.042336 -0.014572 -0.008562 0.271927
    4 5.485359 -1.485244 6.967264 0.242038 0.076716 -1.132321
    5 3.806644 -0.026301 -0.028546 0.000000 0.000000 -0.034652
    6 5.546515 -0.000001 0.028551 0.000000 0.000000 -0.263740
    7 5.187491 0.000003 7.253718 -0.000001 -2.031178 0.000002
    8 6.035933 -0.000001 0.000000 0.000000 -0.664793 0.000000
    9 5.558173 0.000001 -2.290799 0.000000 1.269147 0.000000
    10 3.332470 0.000000 0.000000 0.000000 -0.143053 0.000000
    11 4.081922 0.000001 0.000000 0.000000 -0.310735 0.000000
    12 4.159205 -0.000001 -0.000001 0.017595 -0.014298 -0.010017
  time 42
    0 -0.004443 -0.972682 -1.860461 0.000003 -0.796081 1.570793
    1 5.511326 1.741799 7.085753 -0.198132 0.069684 1.038872
    2 3.337297 0.175467 0.013900 -0.010601 -0.000978 0.066115
    3 5.666880 0.527704 -0.042336 -0.014572 -0.008274 0.223580
    4 5.485359 -1.485244 6.967264 0.243033 0.077555 -1.117832
    5 3.806644 -0.026301 -0.028546 0.000000 0.000000 0.025860
    6 5.546515 -0.000001 0.028551 0.000000 0.000000 -0.215405
    7 5.187491 0.000003 7.253718 -0.000001 -2.025558 0.000002
    8 6.035933 -0.000001 0.000000 0.000000 -0.667502 0.000000
    9 5.558173 0.000001 -2.290799 0.000000 1.260303 0.000000
    10 3.332470 0.000000 0.000000 0.000000 -0.145990 0.000000
    11 4.081922 0.000001 0.000000 0.000000 -0.320550 0.000000
    12 4.159205 -0.000001 -0.000001 0.017583 -0.039115 -0.010436
  time 43
    0 -0.004443 -0.972682 -1.899525 0.000003 -0.795554 1.570793
    1 5.511326 1.741799 7.085753 -0.198528 0.070919 1.027068
    2 3.337297 0.175467 0.013900 -0.010793 -0.001386 0.006139
    3 5.666880 0.527704 -0.042336 -0.014453 -0.008071 0.169835
    4 5.485359 -1.485244 6.967264 0.243824 0.078310 -1.106004
    5 3.806644 -0.026301 -0.028546 0.000000 0.000000 0.085881
    6 5.546515 -0.000001 0.028551 0.000000 0.000000 -0.161594
    7 5.187491 0.000003 7.253718 -0.000001 -2.023412 0.000002
    8 6.035933 -0.000001 0.000000 0.000000 -0.666938 0.000000
    9 5.558173 0.000001 -2.290799 0.000000 1.251422 0.000000
    10 3.332470 0.000000 0.000000 0.000000 -0.148674 0.000000
    11 4.081922 0.000001 0.000000 0.000000 -0.326218 0.000000
    12 4.159205 -0.000001 -0.000001 0.017559 -0.059672 -0.010796
  time 44
    0 -0.004443 -0.972682 -1.915150 0.000003 -0.794463 1.570793
    1 5.511326 1.741799 7.085753 -0.198720 0.071925 1.018061
    2 3.337297 0.175467 0.013900 -0.010984 -0.001745 -0.052175
    3 5.666880 0.527704 -0.042336 -0.014225 -0.007891 0.111918
    4 5.485359 -1.485244 6.967264 0.244375 0.078969 -1.096936
    5 3.806644 -0.026301 -0.028546 0.000000 0.000000 0.144202
    6 5.546515 -0.000001 0.028551 0.000000 0.000000 -0.103605
    7 5.187491 0.000003 7.253718 -0.000001 -2.025018 0.000002
    8 6.035933 -0.000001 0.000000 0.000000 -0.662924 0.000000
    9 5.558173 0.000001 -2.290799 0.000000 1.242541 0.000000
    10 3.332470 0.000000 0.000000 0.000000 -0.151095 0.000000
    11 4.081922 0.000001 0.000000 0.000000 -0.326891 0.000000
    12 4.159205 -0.000001 -0.000001 0.017535 -0.074783 -0.011060
  time 45
    0 -0.004443 -0.972682 -1.915150 0.000003 -0.792821 1.570793
    1 5.511326 1.741799 7.085753 -0.198696 0.072704 1.012147
    2 3.337297 0.175467 0.013900 -0.011212 -0.002117 -0.107616
    3 5.666880 0.527704 -0.042336 -0.013937 -0.007723 0.051090
    4 5.485359 -1.485244 6.967264 0.244675 0.079568 -1.090973
    5 3.806644 -0.026301 -0.028546 0.000000 0.000000 0.199649
    6 5.546515 -0.000001 0.028551 0.000000 0.000000 -0.042809
    7 5.187491 0.000003 7.253718 -0.000001 -2.030675 0.000002
    8 6.035933 -0.000001 0.000000 0.000000 -0.655170 0.000000
    9 5.558173 0.000001 -2.290799 0.000000 1.233781 0.000000
    10 3.332470 0.000000 0.000000 0.000000 -0.153192 0.000000
    11 4.081922 0.000001 0.000000 0.000000 -0.321829 0.000000
    12 4.159205 -0.000001 -0.000001 0.017499 -0.083317 -0.011191
  time 46
    0 -0.004443 -0.972682 -1.891712 0.000003 -0.790508 1.570793
    1 5.511326 1.741799 7.085753 -0.198432 0.073364 1.008638
    2 3.337297 0.175467 0.013900 -0.011476 -0.002416 -0.159127
    3 5.666880 0.527704 -0.042336 -0.013662 -0.007591 -0.011174
    4 5.485359 -1.485244 6.967264 0.244747 0.080168 -1.087474
    5 3.806644 -0.026301 -0.028546 0.000000 0.000000 0.251166
    6 5.546515 -0.000001 0.028551 0.000000 0.000000 0.019567
    7 5.187491 0.000003 7.253718 -0.000001 -2.040179 0.000002
    8 6.035933 -0.000001 0.000000 0.000000 -0.643485 0.000000
    9 5.558173 0.000001 -2.290799 0.000000 1.223762 0.000000
    10 3.332470 0.000000 0.000000 0.000000 -0.155386 0.000000
    11 4.081922 0.000001 0.000000 0.000000 -0.309389 0.000000
    12 4.159205 -0.000001 -0.000001 0.017451 -0.085088 -0.011215
  time 47
    0 -0.004443 -0.972682 -1.872180 0.000003 -0.787524 1.570793
    1 5.511326 1.741799 7.085753 -0.197929 0.073963 1.006797
    2 3.337297 0.175467 0.013900 -0.011751 -0.002692 -0.205574
    3 5.666880 0.527704 -0.042336 -0.013386 -0.007471 -0.073790
    4 5.485359 -1.485244 6.967264 0.244615 0.080791 -1.085601
    5 3.806644 -0.026301 -0.028546 0.000000 0.000000 0.297580
    6 5.546515 -0.000001 0.028551 0.000000 0.000000 0.082224
    7 5.187491 0.000003 7.253718 -0.000001 -2.052882 0.000002
    8 6.035933 -0.000001 0.000000 0.000000 -0.628180 0.000000
    9 5.558173 0.000001 -2.290799 0.000000 1.211501 0.000000
    10 3.332470 0.000000 0.000000 0.000000 -0.157974 0.000000
    11 4.081922 0.000001 0.000000 0.000000 -0.289423 0.000000
    12 4.159205 -0.000001 -0.000001 0.017403 -0.081307 -0.011144
  time 48
    0 -0.004443 -0.972682 -1.837023 0.000003 -0.783989 1.570793
    1 5.511326 1.741799 7.085753 -0.197221 0.074466 1.006748
    2 3.337297 0.175467 0.013900 -0.012087 -0.002932 -0.245785
    3 5.666880 0.527704 -0.042336 -0.013170 -0.007364 -0.135318
    4 5.485359 -1.485244 6.967264 0.244304 0.081462 -1.085552
    5 3.806644 -0.026301 -0.028546 0.000000 0.000000 0.337796
    6 5.546515 -0.000001 0.028551 0.000000 0.000000 0.143793
    7 5.187491 0.000003 7.253718 -0.000001 -2.068379 0.000002
    8 6.035933 -0.000001 0.000000 0.000000 -0.609784 0.000000
    9 5.558173 0.000001 -2.290799 0.000000 1.197455 0.000000
    10 3.332470 0.000000 0.000000 0.000000 -0.160887 0.000000
    11 4.081922 0.000001 0.000000 0.000000 -0.263183 0.000000
    12 4.159205 -0.000001 -0.000001 0.017319 -0.072839 -0.010988
  time 49
    0 -0.004443 -0.972682 -1.797959 0.000003 -0.779974 1.570793
    1 5.511326 1.741799 7.085753 -0.196347 0.074886 1.008589
    2 3.337297 0.175467 0.013900 -0.012434 -0.003099 -0.278627
    3 5.666880 0.527704 -0.042336 -0.013062 -0.007244 -0.194497
    4 5.485359 -1.485244 6.967264 0.243812 0.082109 -1.087351
    5 3.806644 -0.026301 -0.028546 0.000000 0.000000 0.370679
    6 5.546515 -0.000001 0.028551 0.000000 0.000000 0.203045
    7 5.187491 0.000003 7.253718 -0.000001 -2.086248 0.000002
    8 6.035933 -0.000001 0.000000 0.000000 -0.588799 0.000000
    9 5.558173 0.000001 -2.290799 0.000000 1.182103 0.000000
    10 3.332470 0.000000 0.000000 0.000000 -0.164003 0.000000
    11 4.081922 0.000001 0.000000 0.000000 -0.231908 0.000000
    12 4.159205 -0.000001 -0.000001 0.017235 -0.060657 -0.010760
  time 50
    0 -0.004443 -0.972682 -1.743270 0.000003 -0.775575 1.570793
    1 5.511326 1.741799 7.085753 -0.195316 0.075161 1.012466
    2 3.337297 0.175467 0.013900 -0.012830 -0.003231 -0.303003
    3 5.666880 0.527704 -0.042336 -0.013098 -0.007112 -0.250066
    4 5.485359 -1.485244 6.967264 0.243165 0.082744 -1.091244
    5 3.806644 -0.026301 -0.028546 0.000000 0.000000 0.395058
    6 5.546515 -0.000001 0.028551 0.000000 0.000000 0.258611
    7 5.187491 0.000003 7.253718 -0.000001 -2.106082 0.000002
    8 6.035933 -0.000001 0.000000 0.000000 -0.565741 0.000000
    9 5.558173 0.000001 -2.290799 0.000000 1.165900 0.000000
    10 3.332470 0.000000 0.000000 0.000000 -0.167202 0.000000
    11 4.081922 0.000001 0.000000 0.000000 -0.196850 0.000000
    12 4.159205 -0.000001 -0.000001 0.017163 -0.045612 -0.010460
  time 51
    0 -0.004443 -0.972682 -1.692487 0.000003 -0.770949 1.570793
    1 5.511326 1.741799 7.085753 -0.194117 0.075269 1.018479
    2 3.337297 0.175467 0.013900 -0.013261 -0.003303 -0.319027
    3 5.666880 0.527704 -0.042336 -0.013314 -0.006944 -0.300656
    4 5.485359 -1.485244 6.967264 0.242326 0.083332 -1.097232
    5 3.806644 -0.026301 -0.028546 0.000000 0.000000 0.411046
    6 5.546515 -0.000001 0.028551 0.000000 0.000000 0.309228
    7 5.187491 0.000003 7.253718 -0.000001 -2.127487 0.000002
    8 6.035933 -0.000001 0.000000 0.000000 -0.541124 0.000000
    9 5.558173 0.000001 -2.290799 0.000000 1.149289 0.000000
    10 3.332470 0.000000 0.000000 0.000000 -0.170414 0.000000
    11 4.081922 0.000001 0.000000 0.000000 -0.159274 0.000000
    12 4.159205 -0.000001 -0.000001 0.017067 -0.028637 -0.010161
  time 52
    0 -0.004443 -0.972682 -1.629985 0.000003 -0.766168 1.570793
    1 5.511326 1.741799 7.085753 -0.192835 0.075197 1.026724
    2 3.337297 0.175467 0.013900 -0.013765 -0.003315 -0.328324
    3 5.666880 0.527704 -0.042336 -0.013757 -0.006764 -0.344970
    4 5.485359 -1.485244 6.967264 0.241331 0.083811 -1.105536
    5 3.806644 -0.026301 -0.028546 0.000000 0.000000 0.420344
    6 5.546515 -0.000001 0.028551 0.000000 0.000000 0.353667
    7 5.187491 0.000003 7.253718 -0.000001 -2.150018 0.000002
    8 6.035933 -0.000001 0.000000 0.000000 -0.515477 0.000000
    9 5.558173 0.000001 -2.290799 0.000000 1.132763 0.000000
    10 3.332470 0.000000 0.000000 0.000000 -0.173530 0.000000
    11 4.081922 0.000001 0.000000 0.000000 -0.120446 0.000000
    12 4.159205 -0.000001 -0.000001 0.016983 -0.010637 -0.009813
  time 53
    0 -0.004443 -0.972682 -1.571390 0.000003 -0.761326 1.570793
    1 5.511326 1.741799 7.085753 -0.191469 0.074934 1.037351
    2 3.337297 0.175467 0.013900 -0.014268 -0.003291 -0.332065
    3 5.666880 0.527704 -0.042336 -0.014453 -0.006549 -0.381782
    4 5.485359 -1.485244 6.967264 0.240205 0.084146 -1.116157
    5 3.806644 -0.026301 -0.028546 0.000000 0.000000 0.424124
    6 5.546515 -0.000001 0.028551 0.000000 0.000000 0.390524
    7 5.187491 0.000003 7.253718 -0.000001 -2.173268 0.000002
    8 6.035933 -0.000001 0.000000 0.000000 -0.489339 0.000000
    9 5.558173 0.000001 -2.290799 0.000000 1.116787 0.000000
    10 3.332470 0.000000 0.000000 0.000000 -0.176443 0.000000
    11 4.081922 0.000001 0.000000 0.000000 -0.081591 0.000000
    12 4.159205 -0.000001 -0.000001 0.016912 0.007510 -0.009490
  time 54
    0 -0.004443 -0.972682 -1.501075 0.000003 -0.756532 1.570793
    1 5.511326 1.741799 7.085753 -0.190019 0.074382 1.050431
    2 3.337297 0.175467 0.013900 -0.014819 -0.003219 -0.331461
    3 5.666880 0.527704 -0.042336 -0.015435 -0.006273 -0.409759
    4 5.485359 -1.485244 6.967264 0.238898 0.084338 -1.129241
    5 3.806644 -0.026301 -0.028546 0.000000 0.000000 0.423519
    6 5.546515 -0.000001 0.028551 0.000000 0.000000 0.418465
    7 5.187491 0.000003 7.253718 -0.000001 -2.196829 0.000002
    8 6.035933 -0.000001 0.000000 0.000000 -0.463164 0.000000
    9 5.558173 0.000001 -2.290799 0.000000 1.101818 0.000000
    10 3.332470 0.000000 0.000000 0.000000 -0.179031 0.000000
    11 4.081922 0.000001 0.000000 0.000000 -0.043975 0.000000
    12 4.159205 -0.000001 -0.000001 0.016828 0.024858 -0.009154
  time 55
    0 -0.004443 -0.972682 -1.426854 0.000003 -0.751894 1.570793
    1 5.511326 1.741799 7.085753 -0.188533 0.073579 1.066088
    2 3.337297 0.175467 0.013900 -0.015395 -0.003135 -0.327719
    3 5.666880 0.527704 -0.042336 -0.016778 -0.005937 -0.427534
    4 5.485359 -1.485244 6.967264 0.237460 0.084350 -1.144962
    5 3.806644 -0.026301 -0.028546 0.000000 0.000000 0.419739
    6 5.546515 -0.000001 0.028551 0.000000 0.000000 0.436332
    7 5.187491 0.000003 7.253718 -0.000001 -2.220283 0.000002
    8 6.035933 -0.000001 0.000000 0.000000 -0.437529 0.000000
    9 5.558173 0.000001 -2.290799 0.000000 1.088336 0.000000
    10 3.332470 0.000000 0.000000 0.000000 -0.181212 0.000000
    11 4.081922 0.000001 0.000000 0.000000 -0.008836 0.000000
    12 4.159205 -0.000001 -0.000001 0.016756 0.040542 -0.008866
  time 56
    0 -0.004443 -0.972682 -1.352633 0.000003 -0.747508 1.570793
    1 5.511326 1.741799 7.085753 -0.187023 0.072489 1.084445
    2 3.337297 0.175467 0.013900 -0.015982 -0.003052 -0.321975
    3 5.666880 0.527704 -0.042336 -0.018443 -0.005566 -0.435422
    4 5.485359 -1.485244 6.967264 0.235890 0.084146 -1.163369
    5 3.806644 -0.026301 -0.028546 0.000000 0.000000 0.414032
    6 5.546515 -0.000001 0.028551 0.000000 0.000000 0.444230
    7 5.187491 0.000003 7.253718 -0.000001 -2.243246 0.000002
    8 6.035933 -0.000001 0.000000 0.000000 -0.412913 0.000000
    9 5.558173 0.000001 -2.290799 0.000000 1.076771 0.000000
    10 3.332470 0.000000 0.000000 0.000000 -0.182842 0.000000
    11 4.081922 0.000001 0.000000 0.000000 0.022520 0.000000
    12 4.159205 -0.000001 -0.000001 0.016696 0.053656 -0.008627
  time 57
    0 -0.004443 -0.972682 -1.270599 0.000003 -0.743493 1.570793
    1 5.511326 1.741799 7.085753 -0.185513 0.071051 1.105624
    2 3.337297 0.175467 0.013900 -0.016557 -0.002944 -0.315437
    3 5.666880 0.527704 -0.042336 -0.020385 -0.005146 -0.436369
    4 5.485359 -1.485244 6.967264 0.234201 0.083703 -1.184610
    5 3.806644 -0.026301 -0.028546 0.000000 0.000000 0.407455
    6 5.546515 -0.000001 0.028551 0.000000 0.000000 0.445213
    7 5.187491 0.000003 7.253718 -0.000001 -2.265237 0.000002
    8 6.035933 -0.000001 0.000000 0.000000 -0.389879 0.000000
    9 5.558173 0.000001 -2.290799 0.000000 1.067614 0.000000
    10 3.332470 0.000000 0.000000 0.000000 -0.183897 0.000000
    11 4.081922 0.000001 0.000000 0.000000 0.048881 0.000000
    12 4.159205 -0.000001 -0.000001 0.016648 0.063229 -0.008435
  time 58
    0 -0.004443 -0.972682 -1.192472 0.000003 -0.739933 1.570793
    1 5.511326 1.741799 7.085753 -0.184014 0.069265 1.129724
    2 3.337297 0.175467 0.013900 -0.017132 -0.002836 -0.309314
    3 5.666880 0.527704 -0.042336 -0.022446 -0.004739 -0.433354
    4 5.485359 -1.485244 6.967264 0.232367 0.082996 -1.208783
    5 3.806644 -0.026301 -0.028546 0.000000 0.000000 0.401332
    6 5.546515 -0.000001 0.028551 0.000000 0.000000 0.442229
    7 5.187491 0.000003 7.253718 -0.000001 -2.285923 0.000002
    8 6.035933 -0.000001 0.000000 0.000000 -0.368882 0.000000
    9 5.558173 0.000001 -2.290799 0.000000 1.061322 0.000000
    10 3.332470 0.000000 0.000000 0.000000 -0.184221 0.000000
    11 4.081922 0.000001 0.000000 0.000000 0.068995 0.000000
    12 4.159205 -0.000001 -0.000001 0.016600 0.068435 -0.008339
  time 59
    0 -0.004443 -0.972682 -1.110438 0.000003 -0.736949 1.570793
    1 5.511326 1.741799 7.085753 -0.182588 0.067096 1.156866
    2 3.337297 0.175467 0.013900 -0.017720 -0.002752 -0.304741
    3 5.666880 0.527704 -0.042336 -0.024568 -0.004295 -0.429392
    4 5.485359 -1.485244 6.967264 0.230413 0.081953 -1.236036
    5 3.806644 -0.026301 -0.028546 0.000000 0.000000 0.396797
    6 5.546515 -0.000001 0.028551 0.000000 0.000000 0.438298
    7 5.187491 0.000003 7.253718 -0.000001 -2.304823 0.000002
    8 6.035933 -0.000001 0.000000 0.000000 -0.350473 0.000000
    9 5.558173 0.000001 -2.290799 0.000000 1.058398 0.000000
    10 3.332470 0.000000 0.000000 0.000000 -0.183705 0.000000
    11 4.081922 0.000001 0.000000 0.000000 0.081583 0.000000
    12 4.159205 -0.000001 -0.000001 0.016588 0.068355 -0.008327
  time 60
    0 -0.004443 -0.972682 -1.036217 0.000003 -0.734660 1.570793
    1 5.511326 1.741799 7.085753 -0.181246 0.064519 1.187150
    2 3.337297 0.175467 0.013900 -0.018259 -0.002680 -0.303003
    3 5.666880 0.527704 -0.042336 -0.026581 -0.003888 -0.427429
    4 5.485359 -1.485244 6.967264 0.228364 0.080611 -1.266419
    5 3.806644 -0.026301 -0.028546 0.000000 0.000000 0.395058
    6 5.546515 -0.000001 0.028551 0.000000 0.000000 0.436332
    7 5.187491 0.000003 7.253718 -0.000001 -2.321553 0.000002
    8 6.035933 -0.000001 0.000000 0.000000 -0.335193 0.000000
    9 5.558173 0.000001 -2.290799 0.000000 1.059249 0.000000
    10 3.332470 0.000000 0.000000 0.000000 -0.182279 0.000000
    11 4.081922 0.000001 0.000000 0.000000 0.085407 0.000000
    12 4.159205 -0.000001 -0.000001 0.016588 0.062084 -0.008423
end
