version 1
nodes
  0 "root" -1
  1 "Bone04" 0
  2 "Bone_Righthand" 1
  3 "Bone77" 2
  4 "Bone75" 3
  5 "Bone73" 3
  6 "Bone64" 3
  7 "Bone65" 6
  8 "Bone61" 3
  9 "Bone62" 8
  10 "Bone67" 3
  11 "Bone68" 10
  12 "Bone70" 3
  13 "Bone71" 12
  14 "Bone03" 3
  15 "Bone12" 14
  16 "Bone08" 3
  17 "Bone02" 3
  18 "Bone16" 3
  19 "Bone24" 3
  20 "Bone26" 3
  21 "Bone34" 3
  22 "Bone51" 3
  23 "Bone53" 3
  24 "Bone49" 3
  25 "Bone59" 3
  26 "Bone55" 3
  27 "Bone57" 3
  28 "Bone42" 3
  29 "Bone47" 3
  30 "Bone01" 0
  31 "Bone_L_Upper" 30
  32 "Bone_Lefthand" 30
  33 "Bone13" 32
  34 "Bone14" 33
  35 "Bone15" 34
  36 "Bone17" 32
  37 "Bone18" 36
  38 "Bone19" 37
  39 "Bone21" 32
  40 "Bone22" 39
  41 "Bone23" 40
  42 "Bone09" 32
  43 "Bone10" 42
  44 "Bone11" 43
  45 "Bone05" 32
  46 "Bone06" 45
  47 "Bone07" 46
  48 "Bone_Se_Hand-L" 32
  49 "Bone39" 2
  50 "Bone40" 49
  51 "Bone41" 50
  52 "Bone35" 2
  53 "Bone36" 52
  54 "Bone37" 53
  55 "Bone31" 2
  56 "Bone32" 55
  57 "Bone33" 56
  58 "Bone43" 2
  59 "Bone44" 58
  60 "Bone45" 59
  61 "Bone27" 2
  62 "Bone28" 61
  63 "Bone29" 62
  64 "Bone_Se_Hand-R" 2
  65 "Bone_R_Upper" 1
end
skeleton
  time 0
    0 -0.349714 1.166272 0.203512 0.000000 0.000000 0.000000
    1 -7.840547 -5.190883 -7.895697 0.044028 2.893650 0.063320
    2 0.096945 -8.450413 -0.009363 -0.013155 -1.210566 -0.023131
    3 -0.340342 -2.096980 0.791132 1.488104 0.113576 -3.094425
    4 3.633263 -0.211122 1.390361 0.012533 -0.718652 -2.423151
    5 3.666809 -0.017837 1.459444 0.000000 -0.355342 2.779049
    6 3.258935 -0.049178 0.820162 0.000000 0.000000 1.666797
    7 0.978815 0.000000 0.000000 0.000000 0.000000 0.121111
    8 3.258934 -0.114130 0.820162 0.000000 0.000000 -1.653938
    9 1.042863 0.000000 0.000001 0.000000 0.000000 -0.151871
    10 3.065432 -0.514180 0.338106 -0.259646 0.166127 -2.326339
    11 1.291185 0.000000 0.000001 0.000000 -0.183614 0.042976
    12 3.053355 0.148159 0.487154 0.433365 0.203567 2.390709
    13 1.216673 0.000000 0.000000 0.022804 -0.231752 -0.134430
    14 3.842182 -0.109581 1.029757 0.000000 0.000000 0.278824
    15 0.915625 0.000000 0.000000 0.000000 -0.333357 -0.070936
    16 13.924593 -1.190989 -0.497869 1.570796 -1.570796 0.000000
    17 14.794136 -1.666349 0.279738 1.570797 -1.570796 0.000000
    18 12.844973 -1.528065 -0.003635 1.570796 -1.570796 0.000000
    19 11.481966 -2.753950 -0.252725 1.570796 -1.570796 0.000000
    20 9.752300 -0.866352 0.127275 1.570796 -1.570796 0.000000
    21 9.285522 -1.536350 0.640840 1.570796 -1.570796 0.000000
    22 6.370589 0.420616 0.934658 1.570796 -1.570796 0.000000
    23 6.036494 0.295585 -0.394884 1.570796 -1.570796 0.000000
    24 6.975470 -1.133364 -0.010631 1.570796 -1.570796 0.000000
    25 8.073859 -0.247474 -0.206337 1.570796 -1.570796 0.000000
    26 5.112854 -0.339510 1.000032 1.570796 -1.570796 0.000000
    27 4.295047 0.636864 0.303885 1.570796 -1.570796 0.000000
    28 8.307305 -2.137158 1.418377 1.570796 -1.570796 0.000000
    29 7.710078 -1.005476 1.057521 1.570796 -1.570796 0.000000
    30 9.310103 -5.299614 -12.557959 3.138909 -0.000224 -1.566807
    31 1.257180 8.762585 -0.153713 -1.570562 0.002683 -1.566807
    32 -0.071921 -8.498736 -0.104134 -0.025046 0.287591 0.014898
    33 -0.488518 -2.755602 -0.228260 0.106454 0.010332 -0.264490
    34 0.039887 -1.479790 0.029854 -0.055395 0.000000 0.000001
    35 0.028786 -1.075731 -0.023109 0.002099 0.000000 0.000000
    36 0.250027 -2.820665 -0.238396 0.041826 -0.002921 0.008443
    37 -0.049759 -1.680544 0.100479 0.019826 0.000000 -0.000002
    38 -0.034142 -1.148312 0.084782 -0.040115 0.000000 0.000000
    39 0.957766 -2.746780 -0.090302 -0.017221 -0.162277 0.191558
    40 -0.033420 -1.397129 -0.011257 0.013931 0.000000 -0.000001
    41 -0.022360 -0.957436 0.018784 0.003845 0.000000 0.000000
    42 -1.180681 -2.507217 -0.193859 0.082999 0.013294 -0.477915
    43 -0.024967 -1.123934 0.017597 -0.018065 0.000000 0.000001
    44 -0.020057 -0.890968 0.010090 -0.060797 0.000000 0.000000
    45 0.583510 -1.197277 0.185379 0.158049 -0.404973 -0.364290
    46 1.535927 0.010246 0.005009 -0.002964 -0.012979 0.000887
    47 1.100771 0.004527 -0.010679 -0.002796 0.015973 0.003458
    48 0.120153 -0.050270 -0.054489 0.287569 3.110905 1.561085
    49 0.447953 -2.798986 -0.200443 0.106456 -0.010396 0.265094
    50 -0.032909 -1.480204 0.004940 -0.055403 0.000000 0.000002
    51 -0.027022 -1.076920 -0.020210 0.002094 0.000000 0.000000
    52 -0.249534 -2.846964 -0.174213 0.041903 -0.000125 -0.008396
    53 0.043235 -1.683941 0.096012 0.019757 0.002823 -0.000167
    54 0.031729 -1.160830 0.058838 -0.040181 0.000642 0.008372
    55 -0.963866 -2.785145 -0.085350 -0.017227 0.162276 -0.191556
    56 0.028479 -1.403067 0.006271 0.013941 0.000000 0.000000
    57 0.021413 -0.957781 0.020046 0.003851 0.000000 0.000000
    58 1.164475 -2.543940 -0.170330 0.083003 -0.013294 0.477915
    59 0.024032 -1.129042 0.017807 -0.018074 0.000000 0.000001
    60 0.014898 -0.883989 -0.019848 -0.060801 0.000000 0.000000
    61 -0.586770 -1.264477 0.200161 -0.152092 -0.410513 -2.814816
    62 1.522835 0.058681 0.016848 0.001410 0.008985 -0.046880
    63 1.117947 0.048424 -0.005766 -0.000243 -0.025198 0.065422
    64 -0.139399 -0.111698 0.014397 0.285382 -0.030687 1.580508
    65 -1.393470 8.839177 -0.239433 1.580804 -0.005023 -1.566847
end
triangles
$0b_tomahawk_xmas_all_blur_on.bmp
  16 -7.259648 -14.241717 6.174593 0.000000 1.000000 0.000000 0.952381 0.952381
  16 -8.439648 -14.241717 6.174592 0.000000 1.000000 0.000000 0.142857 0.952381
  16 -7.259649 -14.241718 7.354593 0.000000 1.000000 0.000000 0.952381 0.142857
$0b_tomahawk_xmas_all_blur_on.bmp
  16 -7.259649 -14.241718 7.354593 0.000000 1.000000 0.000000 0.952381 0.142857
  16 -8.439648 -14.241717 6.174592 0.000000 1.000000 0.000000 0.142857 0.952381
  16 -8.439649 -14.241718 7.354592 0.000000 1.000000 0.000000 0.952381 0.952381
$0b_tomahawk_xmas_all_blur_on.bmp
  22 -5.738042 -12.849183 -1.249410 0.000000 1.000000 0.000000 0.015873 0.031746
  22 -6.918042 -12.849184 -1.249411 0.000000 1.000000 0.000000 0.015873 0.793651
  22 -5.738043 -12.849185 -0.069410 0.000000 1.000000 0.000000 0.793651 0.031746
$0b_tomahawk_xmas_all_blur_on.bmp
  22 -5.738043 -12.849185 -0.069410 0.000000 1.000000 0.000000 0.793651 0.031746
  22 -6.918042 -12.849184 -1.249411 0.000000 1.000000 0.000000 0.015873 0.793651
  22 -6.918043 -12.849185 -0.069411 0.000000 1.000000 0.000000 0.015873 0.031746
$0b_tomahawk_xmas_all_blur_on.bmp
  26 -6.648168 -12.953809 -2.357145 0.000000 1.000000 0.000000 0.952381 0.952381
  26 -7.828168 -12.953810 -2.357146 0.000000 1.000000 0.000000 0.142857 0.952381
  26 -6.648169 -12.953810 -1.177145 0.000000 1.000000 0.000000 0.952381 0.142857
$0b_tomahawk_xmas_all_blur_on.bmp
  26 -6.648169 -12.953810 -1.177145 0.000000 1.000000 0.000000 0.952381 0.142857
  26 -7.828168 -12.953810 -2.357146 0.000000 1.000000 0.000000 0.142857 0.952381
  26 -7.828169 -12.953811 -1.177146 0.000000 1.000000 0.000000 0.952381 0.952381
$0b_tomahawk_xmas_all_blur_on.bmp
  20 -6.995011 -13.786569 2.182300 -0.000001 1.000000 0.000000 0.952381 0.952381
  20 -8.175011 -13.786570 2.182300 -0.000001 1.000000 0.000000 0.142857 0.952381
  20 -6.995011 -13.786571 3.362300 -0.000001 1.000000 0.000000 0.952381 0.142857
$0b_tomahawk_xmas_all_blur_on.bmp
  20 -6.995011 -13.786571 3.362300 -0.000001 1.000000 0.000000 0.952381 0.142857
  20 -8.175011 -13.786570 2.182300 -0.000001 1.000000 0.000000 0.142857 0.952381
  20 -8.175011 -13.786571 3.362300 -0.000001 1.000000 0.000000 0.952381 0.952381
$0b_tomahawk_xmas_all_blur_on.bmp
  21 -7.735009 -13.283004 1.585523 -0.000001 1.000000 0.000000 0.015873 0.031746
  21 -8.915009 -13.283005 1.585522 -0.000001 1.000000 0.000000 0.015873 0.793651
  21 -7.735009 -13.283006 2.765523 -0.000001 1.000000 0.000000 0.793651 0.031746
$0b_tomahawk_xmas_all_blur_on.bmp
  21 -7.735009 -13.283006 2.765523 -0.000001 1.000000 0.000000 0.793651 0.031746
  21 -8.915009 -13.283005 1.585522 -0.000001 1.000000 0.000000 0.015873 0.793651
  21 -8.915009 -13.283006 2.765522 -0.000001 1.000000 0.000000 0.015873 0.031746
$0b_tomahawk_xmas_all_blur_on.bmp
  19 -8.922609 -13.986572 3.821966 -0.000001 1.000000 0.000000 0.952381 0.952381
  19 -10.102609 -13.986572 3.821965 -0.000001 1.000000 0.000000 0.142857 0.952381
  19 -8.922609 -13.986573 5.001966 -0.000001 1.000000 0.000000 0.952381 0.142857
$0b_tomahawk_xmas_all_blur_on.bmp
  19 -8.922609 -13.986573 5.001966 -0.000001 1.000000 0.000000 0.952381 0.142857
  19 -10.102609 -13.986572 3.821965 -0.000001 1.000000 0.000000 0.142857 0.952381
  19 -10.102609 -13.986573 5.001965 -0.000001 1.000000 0.000000 0.952381 0.952381
$0b_tomahawk_xmas_all_blur_on.bmp
  18 -7.696724 -13.867482 5.304973 -0.000001 1.000000 0.000000 0.015873 0.031746
  18 -8.876724 -13.867483 5.304972 -0.000001 1.000000 0.000000 0.015873 0.793651
  18 -7.696725 -13.867483 6.474973 -0.000001 1.000000 0.000000 0.793651 0.031746
$0b_tomahawk_xmas_all_blur_on.bmp
  18 -7.696725 -13.867483 6.474973 -0.000001 1.000000 0.000000 0.793651 0.031746
  18 -8.876724 -13.867483 5.304972 -0.000001 1.000000 0.000000 0.015873 0.793651
  18 -8.876725 -13.867484 6.474972 -0.000001 1.000000 0.000000 0.015873 0.031746
$0b_tomahawk_xmas_all_blur_on.bmp
  17 -7.915009 -13.724111 7.264136 -0.000001 1.000000 0.000000 0.015873 0.031746
  17 -9.095009 -13.724111 7.264136 -0.000001 1.000000 0.000000 0.793651 0.031746
  17 -7.915009 -13.724112 8.444135 -0.000001 1.000000 0.000000 0.015873 0.793651
$0b_tomahawk_xmas_all_blur_on.bmp
  17 -7.915009 -13.724112 8.444135 -0.000001 1.000000 0.000000 0.015873 0.793651
  17 -9.095009 -13.724111 7.264136 -0.000001 1.000000 0.000000 0.793651 0.031746
  17 -9.095009 -13.724113 8.444136 -0.000001 1.000000 0.000000 0.015873 0.031746
$0b_tomahawk_xmas_all_blur_on.bmp
  24 -7.402022 -13.794473 -0.674530 0.000000 1.000000 0.000000 0.015873 0.031746
  24 -8.582022 -13.794474 -0.674530 0.000000 1.000000 0.000000 0.015873 0.793651
  24 -7.402023 -13.794475 0.505470 0.000000 1.000000 0.000000 0.793651 0.031746
$0b_tomahawk_xmas_all_blur_on.bmp
  24 -7.402023 -13.794475 0.505470 0.000000 1.000000 0.000000 0.793651 0.031746
  24 -8.582022 -13.794474 -0.674530 0.000000 1.000000 0.000000 0.015873 0.793651
  24 -8.582023 -13.794475 0.505470 0.000000 1.000000 0.000000 0.015873 0.031746
$0b_tomahawk_xmas_all_blur_on.bmp
  27 -5.501794 -13.689955 -3.314953 -0.000001 1.000000 0.000000 0.015873 0.031746
  27 -6.681793 -13.689955 -3.314953 -0.000001 1.000000 0.000000 0.015873 0.793651
  27 -5.501794 -13.689956 -2.134953 -0.000001 1.000000 0.000000 0.793651 0.031746
$0b_tomahawk_xmas_all_blur_on.bmp
  27 -5.501794 -13.689956 -2.134953 -0.000001 1.000000 0.000000 0.793651 0.031746
  27 -6.681793 -13.689955 -3.314953 -0.000001 1.000000 0.000000 0.015873 0.793651
  27 -6.681794 -13.689956 -2.134953 -0.000001 1.000000 0.000000 0.015873 0.031746
$0b_tomahawk_xmas_all_blur_on.bmp
  23 -5.993072 -14.468725 -1.533506 0.000000 1.000000 0.000000 0.952381 0.952381
  23 -7.173072 -14.468726 -1.533507 0.000000 1.000000 0.000000 0.142857 0.952381
  23 -5.993073 -14.468726 -0.353506 0.000000 1.000000 0.000000 0.952381 0.142857
$0b_tomahawk_xmas_all_blur_on.bmp
  23 -5.993073 -14.468726 -0.353506 0.000000 1.000000 0.000000 0.952381 0.142857
  23 -7.173072 -14.468726 -1.533507 0.000000 1.000000 0.000000 0.142857 0.952381
  23 -7.173073 -14.468727 -0.353507 0.000000 1.000000 0.000000 0.952381 0.952381
$0b_tomahawk_xmas_all_blur_on.bmp
  25 -6.446132 -14.310180 0.643859 0.000000 1.000000 0.000000 0.952381 0.952381
  25 -7.626132 -14.310181 0.643858 0.000000 1.000000 0.000000 0.142857 0.952381
  25 -6.446133 -14.310181 1.813859 0.000000 1.000000 0.000000 0.952381 0.142857
$0b_tomahawk_xmas_all_blur_on.bmp
  25 -6.446133 -14.310181 1.813859 0.000000 1.000000 0.000000 0.952381 0.142857
  25 -7.626132 -14.310181 0.643858 0.000000 1.000000 0.000000 0.142857 0.952381
  25 -7.626133 -14.310182 1.813858 0.000000 1.000000 0.000000 0.952381 0.952381
tomahawk_xmas_all_on.bmp
  3 -7.398659 -14.413845 2.810000 0.796123 0.313601 -0.517536 0.952381 0.952381
  3 -7.578658 -14.473845 2.489999 0.796123 0.313601 -0.517536 0.142857 0.952381
  3 -7.538659 -14.063845 2.810000 0.796123 0.313601 -0.517536 0.952381 0.142857
tomahawk_xmas_all_on.bmp
  3 -7.538659 -14.063845 2.810000 0.796123 0.313601 -0.517536 0.952381 0.142857
  3 -7.578658 -14.473845 2.489999 0.796123 0.313601 -0.517536 0.142857 0.952381
  3 -7.718659 -14.133845 2.489999 0.796123 0.313601 -0.517536 0.952381 0.952381
tomahawk_xmas_all_on.bmp
  3 -6.428658 -14.863842 -0.690001 0.859622 0.423138 0.286362 0.952381 0.952381
  3 -6.278658 -14.943842 -1.030001 0.859622 0.423138 0.286362 0.142857 0.952381
  3 -6.558658 -14.533842 -0.820001 0.859622 0.423138 0.286362 0.952381 0.142857
tomahawk_xmas_all_on.bmp
  3 -6.558658 -14.533842 -0.820001 0.859622 0.423138 0.286362 0.952381 0.142857
  3 -6.278658 -14.943842 -1.030001 0.859622 0.423138 0.286362 0.142857 0.952381
  3 -6.408658 -14.613842 -1.160001 0.859622 0.423138 0.286362 0.952381 0.952381
tomahawk_xmas_all_on.bmp
  3 -6.368657 -14.403841 -2.840001 -0.984661 -0.149618 0.089763 0.015873 0.031746
  3 -6.348658 -14.313841 -2.470000 -0.984661 -0.149618 0.089763 0.793651 0.031746
  3 -6.428658 -14.043841 -2.920000 -0.984661 -0.149618 0.089763 0.015873 0.793651
tomahawk_xmas_all_on.bmp
  3 -6.038658 -13.893841 -2.590000 0.984661 0.149618 -0.089763 0.015873 0.793651
  3 -5.978658 -14.253841 -2.500000 0.984661 0.149618 -0.089763 0.015873 0.031746
  3 -5.988657 -14.353840 -2.870000 0.984661 0.149618 -0.089763 0.793651 0.031746
tomahawk_xmas_all_on.bmp
  3 -5.978658 -14.253841 -2.500000 0.166749 -0.958384 0.231721 0.015873 0.793651
  3 -6.348658 -14.313841 -2.470000 0.166749 -0.958384 0.231721 0.015873 0.031746
  3 -6.368657 -14.403841 -2.840001 0.166749 -0.958384 0.231721 0.793651 0.031746
tomahawk_xmas_all_on.bmp
  3 -5.988657 -14.353840 -2.870000 -0.051358 -0.243134 -0.968632 0.015873 0.793651
  3 -6.368657 -14.403841 -2.840001 -0.051358 -0.243134 -0.968632 0.015873 0.031746
  3 -6.428658 -14.043841 -2.920000 -0.051358 -0.243134 -0.968632 0.793651 0.031746
tomahawk_xmas_all_on.bmp
  3 -6.058658 -13.983840 -2.960000 -0.166749 0.958384 -0.231721 0.015873 0.793651
  3 -6.428658 -14.043841 -2.920000 -0.166749 0.958384 -0.231721 0.015873 0.031746
  3 -6.408658 -13.953841 -2.560000 -0.166749 0.958384 -0.231721 0.793651 0.031746
tomahawk_xmas_all_on.bmp
  3 -6.038658 -13.893841 -2.590000 0.051358 0.243134 0.968632 0.015873 0.793651
  3 -6.408658 -13.953841 -2.560000 0.051358 0.243134 0.968632 0.015873 0.031746
  3 -6.348658 -14.313841 -2.470000 0.051358 0.243134 0.968632 0.793651 0.031746
tomahawk_xmas_all_on.bmp
  3 -7.228658 -13.603841 -2.180000 0.132893 -0.974293 -0.181912 0.952381 0.952381
  3 -6.908658 -13.603841 -1.980000 0.132893 -0.974293 -0.181912 0.142857 0.952381
  3 -7.428658 -13.693842 -1.870000 0.132893 -0.974293 -0.181912 0.952381 0.142857
tomahawk_xmas_all_on.bmp
  3 -7.158658 -13.313842 -1.590000 -0.132893 0.974293 0.181912 0.952381 0.142857
  3 -6.958658 -13.233842 -1.910000 -0.132893 0.974293 0.181912 0.952381 0.952381
  3 -7.278658 -13.233841 -2.110000 -0.132893 0.974293 0.181912 0.142857 0.952381
tomahawk_xmas_all_on.bmp
  3 -6.958658 -13.233842 -1.910000 0.521690 0.224819 -0.822980 0.952381 0.142857
  3 -6.908658 -13.603841 -1.980000 0.521690 0.224819 -0.822980 0.952381 0.952381
  3 -7.228658 -13.603841 -2.180000 0.521690 0.224819 -0.822980 0.142857 0.952381
tomahawk_xmas_all_on.bmp
  3 -7.278658 -13.233841 -2.110000 -0.842721 -0.014467 -0.538156 0.952381 0.142857
  3 -7.228658 -13.603841 -2.180000 -0.842721 -0.014467 -0.538156 0.952381 0.952381
  3 -7.428658 -13.693842 -1.870000 -0.842721 -0.014467 -0.538156 0.142857 0.952381
tomahawk_xmas_all_on.bmp
  3 -7.478658 -13.323842 -1.800000 -0.521689 -0.224819 0.822980 0.952381 0.142857
  3 -7.428658 -13.693842 -1.870000 -0.521689 -0.224819 0.822980 0.952381 0.952381
  3 -7.108658 -13.683842 -1.660000 -0.521689 -0.224819 0.822980 0.142857 0.952381
tomahawk_xmas_all_on.bmp
  3 -7.158658 -13.313842 -1.590000 0.842721 0.014467 0.538156 0.952381 0.142857
  3 -7.108658 -13.683842 -1.660000 0.842721 0.014467 0.538156 0.952381 0.952381
  3 -6.908658 -13.603841 -1.980000 0.842721 0.014467 0.538156 0.142857 0.952381
tomahawk_xmas_all_on.bmp
  3 -6.748658 -13.533842 -0.740000 -0.580541 -0.811059 0.071805 0.015873 0.031746
  3 -6.468658 -13.743842 -0.890000 -0.580541 -0.811059 0.071805 0.793651 0.031746
  3 -6.608658 -13.603842 -0.390000 -0.580541 -0.811059 0.071805 0.015873 0.793651
tomahawk_xmas_all_on.bmp
  3 -6.108658 -13.503842 -0.570000 0.580541 0.811059 -0.071805 0.015873 0.793651
  3 -6.248658 -13.433842 -0.920000 0.580541 0.811059 -0.071805 0.015873 0.031746
  3 -6.528658 -13.223842 -0.770000 0.580541 0.811059 -0.071805 0.793651 0.031746
tomahawk_xmas_all_on.bmp
  3 -6.248658 -13.433842 -0.920000 -0.360731 0.177135 -0.915694 0.015873 0.793651
  3 -6.468658 -13.743842 -0.890000 -0.360731 0.177135 -0.915694 0.015873 0.031746
  3 -6.748658 -13.533842 -0.740000 -0.360731 0.177135 -0.915694 0.793651 0.031746
tomahawk_xmas_all_on.bmp
  3 -6.528658 -13.223842 -0.770000 -0.729963 0.557500 0.395408 0.015873 0.793651
  3 -6.748658 -13.533842 -0.740000 -0.729963 0.557500 0.395408 0.015873 0.031746
  3 -6.608658 -13.603842 -0.390000 -0.729963 0.557500 0.395408 0.793651 0.031746
tomahawk_xmas_all_on.bmp
  3 -6.388658 -13.293842 -0.420000 0.360731 -0.177135 0.915694 0.015873 0.793651
  3 -6.608658 -13.603842 -0.390000 0.360731 -0.177135 0.915694 0.015873 0.031746
  3 -6.328658 -13.813842 -0.540000 0.360731 -0.177135 0.915694 0.793651 0.031746
tomahawk_xmas_all_on.bmp
  3 -6.108658 -13.503842 -0.570000 0.729963 -0.557500 -0.395408 0.015873 0.793651
  3 -6.328658 -13.813842 -0.540000 0.729963 -0.557500 -0.395408 0.015873 0.031746
  3 -6.468658 -13.743842 -0.890000 0.729963 -0.557500 -0.395408 0.793651 0.031746
tomahawk_xmas_all_on.bmp
  3 -8.498659 -13.963845 2.020000 -0.261032 -0.965311 0.006022 0.015873 0.031746
  3 -8.168659 -14.053845 2.180000 -0.261032 -0.965311 0.006022 0.793651 0.031746
  3 -8.658659 -13.913846 2.369999 -0.261032 -0.965311 0.006022 0.015873 0.793651
tomahawk_xmas_all_on.bmp
  3 -8.228659 -13.633846 2.529999 0.261032 0.965311 -0.006021 0.015873 0.793651
  3 -8.068659 -13.683845 2.180000 0.261032 0.965311 -0.006021 0.015873 0.031746
  3 -8.398659 -13.593845 2.020000 0.261032 0.965311 -0.006021 0.793651 0.031746
tomahawk_xmas_all_on.bmp
  3 -8.068659 -13.683845 2.180000 0.406104 -0.115471 -0.906502 0.015873 0.793651
  3 -8.168659 -14.053845 2.180000 0.406104 -0.115471 -0.906502 0.015873 0.031746
  3 -8.498659 -13.963845 2.020000 0.406104 -0.115471 -0.906502 0.793651 0.031746
tomahawk_xmas_all_on.bmp
  3 -8.398659 -13.593845 2.020000 -0.875752 0.234181 -0.422158 0.015873 0.793651
  3 -8.498659 -13.963845 2.020000 -0.875752 0.234181 -0.422158 0.015873 0.031746
  3 -8.658659 -13.913846 2.369999 -0.875752 0.234181 -0.422158 0.793651 0.031746
tomahawk_xmas_all_on.bmp
  3 -8.558659 -13.553845 2.370000 -0.406103 0.115469 0.906503 0.015873 0.793651
  3 -8.658659 -13.913846 2.369999 -0.406103 0.115469 0.906503 0.015873 0.031746
  3 -8.328659 -14.003846 2.529999 -0.406103 0.115469 0.906503 0.793651 0.031746
tomahawk_xmas_all_on.bmp
  3 -8.228659 -13.633846 2.529999 0.875752 -0.234181 0.422159 0.015873 0.793651
  3 -8.328659 -14.003846 2.529999 0.875752 -0.234181 0.422159 0.015873 0.031746
  3 -8.168659 -14.053845 2.180000 0.875752 -0.234181 0.422159 0.793651 0.031746
tomahawk_xmas_all_on.bmp
  3 -7.878658 -14.593845 2.679999 0.366502 -0.930417 0.000000 0.952381 0.952381
  3 -7.578658 -14.473845 2.489999 0.366502 -0.930417 0.000000 0.142857 0.952381
  3 -7.698659 -14.523846 3.009999 0.366502 -0.930417 0.000000 0.952381 0.142857
tomahawk_xmas_all_on.bmp
  3 -7.538659 -14.063845 2.810000 -0.366501 0.930418 0.000000 0.952381 0.142857
  3 -7.718659 -14.133845 2.489999 -0.366501 0.930418 0.000000 0.952381 0.952381
  3 -8.018659 -14.253846 2.680000 -0.366501 0.930418 0.000000 0.142857 0.952381
tomahawk_xmas_all_on.bmp
  3 -7.718659 -14.133845 2.489999 -0.481523 -0.189677 -0.855662 0.952381 0.142857
  3 -7.578658 -14.473845 2.489999 -0.481523 -0.189677 -0.855662 0.952381 0.952381
  3 -7.878658 -14.593845 2.679999 -0.481523 -0.189677 -0.855662 0.142857 0.952381
tomahawk_xmas_all_on.bmp
  3 -8.018659 -14.253846 2.680000 -0.796123 -0.313601 0.517535 0.952381 0.142857
  3 -7.878658 -14.593845 2.679999 -0.796123 -0.313601 0.517535 0.952381 0.952381
  3 -7.698659 -14.523846 3.009999 -0.796123 -0.313601 0.517535 0.142857 0.952381
tomahawk_xmas_all_on.bmp
  3 -7.838659 -14.183846 3.010000 0.481525 0.189678 0.855661 0.952381 0.142857
  3 -7.698659 -14.523846 3.009999 0.481525 0.189678 0.855661 0.952381 0.952381
  3 -7.398659 -14.413845 2.810000 0.481525 0.189678 0.855661 0.142857 0.952381
tomahawk_xmas_all_on.bmp
  3 -9.808659 -14.853848 4.309999 -0.167864 -0.985468 -0.025972 0.952381 0.952381
  3 -9.438658 -14.913847 4.249998 -0.167864 -0.985468 -0.025972 0.142857 0.952381
  3 -9.748659 -14.873848 4.679999 -0.167864 -0.985468 -0.025972 0.952381 0.142857
tomahawk_xmas_all_on.bmp
  3 -9.318659 -14.563848 4.629999 0.167864 0.985468 0.025973 0.952381 0.142857
  3 -9.378659 -14.543847 4.259999 0.167864 0.985468 0.025973 0.952381 0.952381
  3 -9.748659 -14.483848 4.319998 0.167864 0.985468 0.025973 0.142857 0.952381
tomahawk_xmas_all_on.bmp
  3 -9.378659 -14.543847 4.259999 -0.148744 0.051363 -0.987541 0.952381 0.142857
  3 -9.438658 -14.913847 4.249998 -0.148744 0.051363 -0.987541 0.952381 0.952381
  3 -9.808659 -14.853848 4.309999 -0.148744 0.051363 -0.987541 0.142857 0.952381
tomahawk_xmas_all_on.bmp
  3 -9.748659 -14.483848 4.319998 -0.974524 0.161909 0.155204 0.952381 0.142857
  3 -9.808659 -14.853848 4.309999 -0.974524 0.161909 0.155204 0.952381 0.952381
  3 -9.748659 -14.873848 4.679999 -0.974524 0.161909 0.155204 0.142857 0.952381
tomahawk_xmas_all_on.bmp
  3 -9.688659 -14.503848 4.689998 0.148744 -0.051363 0.987541 0.952381 0.142857
  3 -9.748659 -14.873848 4.679999 0.148744 -0.051363 0.987541 0.952381 0.952381
  3 -9.378659 -14.933848 4.619998 0.148744 -0.051363 0.987541 0.142857 0.952381
tomahawk_xmas_all_on.bmp
  3 -9.318659 -14.563848 4.629999 0.974524 -0.161909 -0.155205 0.952381 0.142857
  3 -9.378659 -14.933848 4.619998 0.974524 -0.161909 -0.155205 0.952381 0.952381
  3 -9.438658 -14.913847 4.249998 0.974524 -0.161909 -0.155205 0.142857 0.952381
tomahawk_xmas_all_on.bmp
  3 -8.688659 -14.483848 5.759999 -0.516103 -0.854663 0.056464 0.015873 0.031746
  3 -8.408659 -14.663848 5.589999 -0.516103 -0.854663 0.056464 0.793651 0.031746
  3 -8.538659 -14.553848 6.089999 -0.516103 -0.854663 0.056464 0.015873 0.793651
tomahawk_xmas_all_on.bmp
  3 -8.058659 -14.423848 5.899999 0.516103 0.854663 -0.056464 0.015873 0.793651
  3 -8.208659 -14.353848 5.560000 0.516103 0.854663 -0.056464 0.015873 0.031746
  3 -8.498659 -14.173848 5.729999 0.516103 0.854663 -0.056464 0.793651 0.031746
tomahawk_xmas_all_on.bmp
  3 -8.208659 -14.353848 5.560000 -0.409710 0.188447 -0.892539 0.015873 0.793651
  3 -8.408659 -14.663848 5.589999 -0.409710 0.188447 -0.892539 0.015873 0.031746
  3 -8.688659 -14.483848 5.759999 -0.409710 0.188447 -0.892539 0.793651 0.031746
tomahawk_xmas_all_on.bmp
  3 -8.498659 -14.173848 5.729999 -0.752180 0.483777 0.447420 0.015873 0.793651
  3 -8.688659 -14.483848 5.759999 -0.752180 0.483777 0.447420 0.015873 0.031746
  3 -8.538659 -14.553848 6.089999 -0.752180 0.483777 0.447420 0.793651 0.031746
tomahawk_xmas_all_on.bmp
  3 -8.338659 -14.243848 6.069999 0.409709 -0.188445 0.892540 0.015873 0.793651
  3 -8.538659 -14.553848 6.089999 0.409709 -0.188445 0.892540 0.015873 0.031746
  3 -8.248659 -14.743848 5.919999 0.409709 -0.188445 0.892540 0.793651 0.031746
tomahawk_xmas_all_on.bmp
  3 -8.058659 -14.423848 5.899999 0.752180 -0.483777 -0.447420 0.015873 0.793651
  3 -8.248659 -14.743848 5.919999 0.752180 -0.483777 -0.447420 0.015873 0.031746
  3 -8.408659 -14.663848 5.589999 0.752180 -0.483777 -0.447420 0.793651 0.031746
tomahawk_xmas_all_on.bmp
  3 -8.448660 -14.373849 7.539999 0.366502 -0.930417 0.000000 0.015873 0.031746
  3 -8.148660 -14.233849 7.720000 0.366502 -0.930417 0.000000 0.793651 0.031746
  3 -8.618659 -14.443850 7.869999 0.366502 -0.930417 0.000000 0.015873 0.793651
tomahawk_xmas_all_on.bmp
  3 -8.468660 -13.963850 8.050000 -0.398749 0.917060 0.000000 0.015873 0.793651
  3 -8.298660 -13.893849 7.720000 -0.398749 0.917060 0.000000 0.015873 0.031746
  3 -8.598660 -14.023849 7.539999 -0.398749 0.917060 0.000000 0.793651 0.031746
tomahawk_xmas_all_on.bmp
  3 -8.298660 -13.893849 7.720000 0.446490 0.194139 -0.873474 0.015873 0.793651
  3 -8.148660 -14.233849 7.720000 0.446490 0.194139 -0.873474 0.015873 0.031746
  3 -8.448660 -14.373849 7.539999 0.446490 0.194139 -0.873474 0.793651 0.031746
tomahawk_xmas_all_on.bmp
  3 -8.598660 -14.023849 7.539999 -0.801028 -0.348297 -0.486870 0.015873 0.793651
  3 -8.448660 -14.373849 7.539999 -0.801028 -0.348297 -0.486870 0.015873 0.031746
  3 -8.618659 -14.443850 7.869999 -0.801028 -0.348297 -0.486870 0.793651 0.031746
tomahawk_xmas_all_on.bmp
  3 -8.768660 -14.093850 7.869999 -0.446490 -0.194136 0.873475 0.015873 0.793651
  3 -8.618659 -14.443850 7.869999 -0.446490 -0.194136 0.873475 0.015873 0.031746
  3 -8.318660 -14.313850 8.049999 -0.446490 -0.194136 0.873475 0.793651 0.031746
tomahawk_xmas_all_on.bmp
  3 -8.468660 -13.963850 8.050000 0.801028 0.348296 0.486871 0.015873 0.793651
  3 -8.318660 -14.313850 8.049999 0.801028 0.348296 0.486871 0.015873 0.031746
  3 -8.148660 -14.233849 7.720000 0.801028 0.348296 0.486871 0.793651 0.031746
tomahawk_xmas_all_on.bmp
  3 -7.018658 -14.933844 0.929999 0.576166 -0.712255 0.400905 0.952381 0.952381
  3 -6.768658 -14.663844 1.020000 0.576166 -0.712255 0.400905 0.142857 0.952381
  3 -7.188658 -14.873844 1.269999 0.576166 -0.712255 0.400905 0.952381 0.142857
tomahawk_xmas_all_on.bmp
  3 -7.148658 -14.353844 1.209999 -0.576166 0.712255 -0.400906 0.952381 0.142857
  3 -6.978658 -14.403844 0.869999 -0.576166 0.712255 -0.400906 0.952381 0.952381
  3 -7.238658 -14.663844 0.779999 -0.576166 0.712255 -0.400906 0.142857 0.952381
tomahawk_xmas_all_on.bmp
  3 -6.978658 -14.403844 0.869999 0.444277 -0.138790 -0.885074 0.952381 0.142857
  3 -6.768658 -14.663844 1.020000 0.444277 -0.138790 -0.885074 0.952381 0.952381
  3 -7.018658 -14.933844 0.929999 0.444277 -0.138790 -0.885074 0.142857 0.952381
tomahawk_xmas_all_on.bmp
  3 -7.238658 -14.663844 0.779999 -0.686040 -0.688063 -0.236471 0.952381 0.142857
  3 -7.018658 -14.933844 0.929999 -0.686040 -0.688063 -0.236471 0.952381 0.952381
  3 -7.188658 -14.873844 1.269999 -0.686040 -0.688063 -0.236471 0.142857 0.952381
tomahawk_xmas_all_on.bmp
  3 -7.408658 -14.603844 1.119999 -0.444277 0.138790 0.885074 0.952381 0.142857
  3 -7.188658 -14.873844 1.269999 -0.444277 0.138790 0.885074 0.952381 0.952381
  3 -6.928658 -14.613844 1.359999 -0.444277 0.138790 0.885074 0.142857 0.952381
tomahawk_xmas_all_on.bmp
  3 -7.148658 -14.353844 1.209999 0.686040 0.688063 0.236471 0.952381 0.142857
  3 -6.928658 -14.613844 1.359999 0.686040 0.688063 0.236471 0.952381 0.952381
  3 -6.768658 -14.663844 1.020000 0.686040 0.688063 0.236471 0.142857 0.952381
tomahawk_xmas_all_on.bmp
  3 -6.608657 -15.103842 -1.140001 0.321489 -0.883568 0.340518 0.952381 0.952381
  3 -6.278658 -14.943842 -1.030001 0.321489 -0.883568 0.340518 0.142857 0.952381
  3 -6.758658 -15.033842 -0.800001 0.321489 -0.883568 0.340518 0.952381 0.142857
tomahawk_xmas_all_on.bmp
  3 -6.558658 -14.533842 -0.820001 -0.321489 0.883568 -0.340518 0.952381 0.142857
  3 -6.408658 -14.613842 -1.160001 -0.321489 0.883568 -0.340518 0.952381 0.952381
  3 -6.728658 -14.773842 -1.270001 -0.321489 0.883568 -0.340518 0.142857 0.952381
tomahawk_xmas_all_on.bmp
  3 -6.408658 -14.613842 -1.160001 0.397107 -0.200654 -0.895569 0.952381 0.142857
  3 -6.278658 -14.943842 -1.030001 0.397107 -0.200654 -0.895569 0.952381 0.952381
  3 -6.608657 -15.103842 -1.140001 0.397107 -0.200654 -0.895569 0.142857 0.952381
tomahawk_xmas_all_on.bmp
  3 -6.728658 -14.773842 -1.270001 -0.859623 -0.423138 -0.286362 0.952381 0.142857
  3 -6.608657 -15.103842 -1.140001 -0.859623 -0.423138 -0.286362 0.952381 0.952381
  3 -6.758658 -15.033842 -0.800001 -0.859623 -0.423138 -0.286362 0.142857 0.952381
tomahawk_xmas_all_on.bmp
  3 -6.868658 -14.693842 -0.930001 -0.397108 0.200653 0.895569 0.952381 0.142857
  3 -6.758658 -15.033842 -0.800001 -0.397108 0.200653 0.895569 0.952381 0.952381
  3 -6.428658 -14.863842 -0.690001 -0.397108 0.200653 0.895569 0.142857 0.952381
tomahawk_xmas_all_on.bmp
  3 -7.978658 -14.673843 -0.250001 0.166749 -0.958384 0.231721 0.015873 0.031746
  3 -7.668658 -14.563843 -0.050001 0.166749 -0.958384 0.231721 0.793651 0.031746
  3 -8.188658 -14.633844 0.059999 0.166749 -0.958384 0.231721 0.015873 0.793651
tomahawk_xmas_all_on.bmp
  3 -7.948658 -14.173844 0.169999 -0.166749 0.958384 -0.231721 0.015873 0.793651
  3 -7.738658 -14.213843 -0.140001 -0.166749 0.958384 -0.231721 0.015873 0.031746
  3 -8.038658 -14.323843 -0.340001 -0.166749 0.958384 -0.231721 0.793651 0.031746
tomahawk_xmas_all_on.bmp
  3 -7.738658 -14.213843 -0.140001 0.568280 -0.103963 -0.816241 0.015873 0.793651
  3 -7.668658 -14.563843 -0.050001 0.568280 -0.103963 -0.816241 0.015873 0.031746
  3 -7.978658 -14.673843 -0.250001 0.568280 -0.103963 -0.816241 0.793651 0.031746
tomahawk_xmas_all_on.bmp
  3 -8.038658 -14.323843 -0.340001 -0.803357 -0.284662 -0.523053 0.015873 0.793651
  3 -7.978658 -14.673843 -0.250001 -0.803357 -0.284662 -0.523053 0.015873 0.031746
  3 -8.188658 -14.633844 0.059999 -0.803357 -0.284662 -0.523053 0.793651 0.031746
tomahawk_xmas_all_on.bmp
  3 -8.258658 -14.283844 -0.030001 -0.568279 0.103961 0.816242 0.015873 0.793651
  3 -8.188658 -14.633844 0.059999 -0.568279 0.103961 0.816242 0.015873 0.031746
  3 -7.888658 -14.533844 0.259999 -0.568279 0.103961 0.816242 0.793651 0.031746
tomahawk_xmas_all_on.bmp
  3 -7.948658 -14.173844 0.169999 0.803357 0.284663 0.523053 0.015873 0.793651
  3 -7.888658 -14.533844 0.259999 0.803357 0.284663 0.523053 0.015873 0.031746
  3 -7.668658 -14.563843 -0.050001 0.803357 0.284663 0.523053 0.793651 0.031746
tomahawk_xmas_all_on.bmp
  3 -8.228659 -13.633846 2.529999 0.261032 0.965311 -0.006021 0.793651 0.031746
  3 -8.398659 -13.593845 2.020000 0.261032 0.965311 -0.006021 0.015873 0.793651
  3 -8.558659 -13.553845 2.370000 0.261032 0.965311 -0.006021 0.015873 0.031746
tomahawk_xmas_all_on.bmp
  3 -8.228659 -13.633846 2.529999 0.875752 -0.234181 0.422159 0.793651 0.031746
  3 -8.168659 -14.053845 2.180000 0.875752 -0.234181 0.422159 0.015873 0.793651
  3 -8.068659 -13.683845 2.180000 0.875752 -0.234181 0.422159 0.015873 0.031746
tomahawk_xmas_all_on.bmp
  3 -8.068659 -13.683845 2.180000 0.406104 -0.115471 -0.906502 0.793651 0.031746
  3 -8.498659 -13.963845 2.020000 0.406104 -0.115471 -0.906502 0.015873 0.793651
  3 -8.398659 -13.593845 2.020000 0.406104 -0.115471 -0.906502 0.015873 0.031746
tomahawk_xmas_all_on.bmp
  3 -8.398659 -13.593845 2.020000 -0.875752 0.234181 -0.422158 0.793651 0.031746
  3 -8.658659 -13.913846 2.369999 -0.875752 0.234181 -0.422158 0.015873 0.793651
  3 -8.558659 -13.553845 2.370000 -0.875752 0.234181 -0.422158 0.015873 0.031746
tomahawk_xmas_all_on.bmp
  3 -8.558659 -13.553845 2.370000 -0.406103 0.115469 0.906503 0.793651 0.031746
  3 -8.328659 -14.003846 2.529999 -0.406103 0.115469 0.906503 0.015873 0.793651
  3 -8.228659 -13.633846 2.529999 -0.406103 0.115469 0.906503 0.015873 0.031746
tomahawk_xmas_all_on.bmp
  3 -8.658659 -13.913846 2.369999 -0.261032 -0.965311 0.006022 0.793651 0.031746
  3 -8.168659 -14.053845 2.180000 -0.261032 -0.965311 0.006022 0.015873 0.793651
  3 -8.328659 -14.003846 2.529999 -0.261032 -0.965311 0.006022 0.015873 0.031746
tomahawk_xmas_all_on.bmp
  3 -8.018659 -14.253846 2.680000 -0.796123 -0.313601 0.517535 0.142857 0.952381
  3 -7.698659 -14.523846 3.009999 -0.796123 -0.313601 0.517535 0.952381 0.142857
  3 -7.838659 -14.183846 3.010000 -0.796123 -0.313601 0.517535 0.952381 0.952381
tomahawk_xmas_all_on.bmp
  3 -7.718659 -14.133845 2.489999 -0.481523 -0.189677 -0.855662 0.142857 0.952381
  3 -7.878658 -14.593845 2.679999 -0.481523 -0.189677 -0.855662 0.952381 0.142857
  3 -8.018659 -14.253846 2.680000 -0.481523 -0.189677 -0.855662 0.952381 0.952381
tomahawk_xmas_all_on.bmp
  3 -7.538659 -14.063845 2.810000 -0.366501 0.930418 0.000000 0.142857 0.952381
  3 -8.018659 -14.253846 2.680000 -0.366501 0.930418 0.000000 0.952381 0.142857
  3 -7.838659 -14.183846 3.010000 -0.366501 0.930418 0.000000 0.952381 0.952381
tomahawk_xmas_all_on.bmp
  3 -7.838659 -14.183846 3.010000 0.481525 0.189678 0.855661 0.142857 0.952381
  3 -7.398659 -14.413845 2.810000 0.481525 0.189678 0.855661 0.952381 0.142857
  3 -7.538659 -14.063845 2.810000 0.481525 0.189678 0.855661 0.952381 0.952381
tomahawk_xmas_all_on.bmp
  3 -7.698659 -14.523846 3.009999 0.366502 -0.930417 0.000000 0.142857 0.952381
  3 -7.578658 -14.473845 2.489999 0.366502 -0.930417 0.000000 0.952381 0.142857
  3 -7.398659 -14.413845 2.810000 0.366502 -0.930417 0.000000 0.952381 0.952381
tomahawk_xmas_all_on.bmp
  3 -7.148658 -14.353844 1.209999 0.686040 0.688063 0.236471 0.142857 0.952381
  3 -6.768658 -14.663844 1.020000 0.686040 0.688063 0.236471 0.952381 0.142857
  3 -6.978658 -14.403844 0.869999 0.686040 0.688063 0.236471 0.952381 0.952381
tomahawk_xmas_all_on.bmp
  3 -6.978658 -14.403844 0.869999 0.444277 -0.138790 -0.885074 0.142857 0.952381
  3 -7.018658 -14.933844 0.929999 0.444277 -0.138790 -0.885074 0.952381 0.142857
  3 -7.238658 -14.663844 0.779999 0.444277 -0.138790 -0.885074 0.952381 0.952381
tomahawk_xmas_all_on.bmp
  3 -7.148658 -14.353844 1.209999 -0.576166 0.712255 -0.400906 0.142857 0.952381
  3 -7.238658 -14.663844 0.779999 -0.576166 0.712255 -0.400906 0.952381 0.142857
  3 -7.408658 -14.603844 1.119999 -0.576166 0.712255 -0.400906 0.952381 0.952381
tomahawk_xmas_all_on.bmp
  3 -7.408658 -14.603844 1.119999 -0.444277 0.138790 0.885074 0.142857 0.952381
  3 -6.928658 -14.613844 1.359999 -0.444277 0.138790 0.885074 0.952381 0.142857
  3 -7.148658 -14.353844 1.209999 -0.444277 0.138790 0.885074 0.952381 0.952381
tomahawk_xmas_all_on.bmp
  3 -7.238658 -14.663844 0.779999 -0.686040 -0.688063 -0.236471 0.142857 0.952381
  3 -7.188658 -14.873844 1.269999 -0.686040 -0.688063 -0.236471 0.952381 0.142857
  3 -7.408658 -14.603844 1.119999 -0.686040 -0.688063 -0.236471 0.952381 0.952381
tomahawk_xmas_all_on.bmp
  3 -7.188658 -14.873844 1.269999 0.576166 -0.712255 0.400905 0.142857 0.952381
  3 -6.768658 -14.663844 1.020000 0.576166 -0.712255 0.400905 0.952381 0.142857
  3 -6.928658 -14.613844 1.359999 0.576166 -0.712255 0.400905 0.952381 0.952381
tomahawk_xmas_all_on.bmp
  3 -7.948658 -14.173844 0.169999 0.803357 0.284663 0.523053 0.793651 0.031746
  3 -7.668658 -14.563843 -0.050001 0.803357 0.284663 0.523053 0.015873 0.793651
  3 -7.738658 -14.213843 -0.140001 0.803357 0.284663 0.523053 0.015873 0.031746
tomahawk_xmas_all_on.bmp
  3 -7.948658 -14.173844 0.169999 -0.166749 0.958384 -0.231721 0.793651 0.031746
  3 -8.038658 -14.323843 -0.340001 -0.166749 0.958384 -0.231721 0.015873 0.793651
  3 -8.258658 -14.283844 -0.030001 -0.166749 0.958384 -0.231721 0.015873 0.031746
tomahawk_xmas_all_on.bmp
  3 -7.738658 -14.213843 -0.140001 0.568280 -0.103963 -0.816241 0.793651 0.031746
  3 -7.978658 -14.673843 -0.250001 0.568280 -0.103963 -0.816241 0.015873 0.793651
  3 -8.038658 -14.323843 -0.340001 0.568280 -0.103963 -0.816241 0.015873 0.031746
tomahawk_xmas_all_on.bmp
  3 -8.188658 -14.633844 0.059999 0.166749 -0.958384 0.231721 0.793651 0.031746
  3 -7.668658 -14.563843 -0.050001 0.166749 -0.958384 0.231721 0.015873 0.793651
  3 -7.888658 -14.533844 0.259999 0.166749 -0.958384 0.231721 0.015873 0.031746
tomahawk_xmas_all_on.bmp
  3 -8.258658 -14.283844 -0.030001 -0.568279 0.103961 0.816242 0.793651 0.031746
  3 -7.888658 -14.533844 0.259999 -0.568279 0.103961 0.816242 0.015873 0.793651
  3 -7.948658 -14.173844 0.169999 -0.568279 0.103961 0.816242 0.015873 0.031746
tomahawk_xmas_all_on.bmp
  3 -8.038658 -14.323843 -0.340001 -0.803357 -0.284662 -0.523053 0.793651 0.031746
  3 -8.188658 -14.633844 0.059999 -0.803357 -0.284662 -0.523053 0.015873 0.793651
  3 -8.258658 -14.283844 -0.030001 -0.803357 -0.284662 -0.523053 0.015873 0.031746
tomahawk_xmas_all_on.bmp
  3 -6.108658 -13.503842 -0.570000 0.580541 0.811059 -0.071805 0.793651 0.031746
  3 -6.528658 -13.223842 -0.770000 0.580541 0.811059 -0.071805 0.015873 0.793651
  3 -6.388658 -13.293842 -0.420000 0.580541 0.811059 -0.071805 0.015873 0.031746
tomahawk_xmas_all_on.bmp
  3 -6.388658 -13.293842 -0.420000 0.360731 -0.177135 0.915694 0.793651 0.031746
  3 -6.328658 -13.813842 -0.540000 0.360731 -0.177135 0.915694 0.015873 0.793651
  3 -6.108658 -13.503842 -0.570000 0.360731 -0.177135 0.915694 0.015873 0.031746
tomahawk_xmas_all_on.bmp
  3 -6.108658 -13.503842 -0.570000 0.729963 -0.557500 -0.395408 0.793651 0.031746
  3 -6.468658 -13.743842 -0.890000 0.729963 -0.557500 -0.395408 0.015873 0.793651
  3 -6.248658 -13.433842 -0.920000 0.729963 -0.557500 -0.395408 0.015873 0.031746
tomahawk_xmas_all_on.bmp
  3 -6.248658 -13.433842 -0.920000 -0.360731 0.177135 -0.915694 0.793651 0.031746
  3 -6.748658 -13.533842 -0.740000 -0.360731 0.177135 -0.915694 0.015873 0.793651
  3 -6.528658 -13.223842 -0.770000 -0.360731 0.177135 -0.915694 0.015873 0.031746
tomahawk_xmas_all_on.bmp
  3 -6.528658 -13.223842 -0.770000 -0.729963 0.557500 0.395408 0.793651 0.031746
  3 -6.608658 -13.603842 -0.390000 -0.729963 0.557500 0.395408 0.015873 0.793651
  3 -6.388658 -13.293842 -0.420000 -0.729963 0.557500 0.395408 0.015873 0.031746
tomahawk_xmas_all_on.bmp
  3 -6.608658 -13.603842 -0.390000 -0.580541 -0.811059 0.071805 0.793651 0.031746
  3 -6.468658 -13.743842 -0.890000 -0.580541 -0.811059 0.071805 0.015873 0.793651
  3 -6.328658 -13.813842 -0.540000 -0.580541 -0.811059 0.071805 0.015873 0.031746
tomahawk_xmas_all_on.bmp
  3 -6.758658 -15.033842 -0.800001 0.321489 -0.883568 0.340518 0.142857 0.952381
  3 -6.278658 -14.943842 -1.030001 0.321489 -0.883568 0.340518 0.952381 0.142857
  3 -6.428658 -14.863842 -0.690001 0.321489 -0.883568 0.340518 0.952381 0.952381
tomahawk_xmas_all_on.bmp
  3 -6.868658 -14.693842 -0.930001 -0.397108 0.200653 0.895569 0.142857 0.952381
  3 -6.428658 -14.863842 -0.690001 -0.397108 0.200653 0.895569 0.952381 0.142857
  3 -6.558658 -14.533842 -0.820001 -0.397108 0.200653 0.895569 0.952381 0.952381
tomahawk_xmas_all_on.bmp
  3 -6.728658 -14.773842 -1.270001 -0.859623 -0.423138 -0.286362 0.142857 0.952381
  3 -6.758658 -15.033842 -0.800001 -0.859623 -0.423138 -0.286362 0.952381 0.142857
  3 -6.868658 -14.693842 -0.930001 -0.859623 -0.423138 -0.286362 0.952381 0.952381
tomahawk_xmas_all_on.bmp
  3 -6.408658 -14.613842 -1.160001 0.397107 -0.200654 -0.895569 0.142857 0.952381
  3 -6.608657 -15.103842 -1.140001 0.397107 -0.200654 -0.895569 0.952381 0.142857
  3 -6.728658 -14.773842 -1.270001 0.397107 -0.200654 -0.895569 0.952381 0.952381
tomahawk_xmas_all_on.bmp
  3 -6.558658 -14.533842 -0.820001 -0.321489 0.883568 -0.340518 0.142857 0.952381
  3 -6.728658 -14.773842 -1.270001 -0.321489 0.883568 -0.340518 0.952381 0.142857
  3 -6.868658 -14.693842 -0.930001 -0.321489 0.883568 -0.340518 0.952381 0.952381
tomahawk_xmas_all_on.bmp
  3 -7.278658 -13.233841 -2.110000 -0.842721 -0.014467 -0.538156 0.142857 0.952381
  3 -7.428658 -13.693842 -1.870000 -0.842721 -0.014467 -0.538156 0.952381 0.142857
  3 -7.478658 -13.323842 -1.800000 -0.842721 -0.014467 -0.538156 0.952381 0.952381
tomahawk_xmas_all_on.bmp
  3 -7.478658 -13.323842 -1.800000 -0.521689 -0.224819 0.822980 0.142857 0.952381
  3 -7.108658 -13.683842 -1.660000 -0.521689 -0.224819 0.822980 0.952381 0.142857
  3 -7.158658 -13.313842 -1.590000 -0.521689 -0.224819 0.822980 0.952381 0.952381
tomahawk_xmas_all_on.bmp
  3 -7.158658 -13.313842 -1.590000 -0.132893 0.974293 0.181912 0.142857 0.952381
  3 -7.278658 -13.233841 -2.110000 -0.132893 0.974293 0.181912 0.952381 0.142857
  3 -7.478658 -13.323842 -1.800000 -0.132893 0.974293 0.181912 0.952381 0.952381
tomahawk_xmas_all_on.bmp
  3 -7.158658 -13.313842 -1.590000 0.842721 0.014467 0.538156 0.142857 0.952381
  3 -6.908658 -13.603841 -1.980000 0.842721 0.014467 0.538156 0.952381 0.142857
  3 -6.958658 -13.233842 -1.910000 0.842721 0.014467 0.538156 0.952381 0.952381
tomahawk_xmas_all_on.bmp
  3 -7.428658 -13.693842 -1.870000 0.132893 -0.974293 -0.181912 0.142857 0.952381
  3 -6.908658 -13.603841 -1.980000 0.132893 -0.974293 -0.181912 0.952381 0.142857
  3 -7.108658 -13.683842 -1.660000 0.132893 -0.974293 -0.181912 0.952381 0.952381
tomahawk_xmas_all_on.bmp
  3 -6.958658 -13.233842 -1.910000 0.521690 0.224819 -0.822980 0.142857 0.952381
  3 -7.228658 -13.603841 -2.180000 0.521690 0.224819 -0.822980 0.952381 0.142857
  3 -7.278658 -13.233841 -2.110000 0.521690 0.224819 -0.822980 0.952381 0.952381
tomahawk_xmas_all_on.bmp
  3 -6.038658 -13.893841 -2.590000 0.984661 0.149618 -0.089763 0.793651 0.031746
  3 -5.988657 -14.353840 -2.870000 0.984661 0.149618 -0.089763 0.015873 0.793651
  3 -6.058658 -13.983840 -2.960000 0.984661 0.149618 -0.089763 0.015873 0.031746
tomahawk_xmas_all_on.bmp
  3 -5.978658 -14.253841 -2.500000 0.166749 -0.958384 0.231721 0.793651 0.031746
  3 -6.368657 -14.403841 -2.840001 0.166749 -0.958384 0.231721 0.015873 0.793651
  3 -5.988657 -14.353840 -2.870000 0.166749 -0.958384 0.231721 0.015873 0.031746
tomahawk_xmas_all_on.bmp
  3 -5.988657 -14.353840 -2.870000 -0.051358 -0.243134 -0.968632 0.793651 0.031746
  3 -6.428658 -14.043841 -2.920000 -0.051358 -0.243134 -0.968632 0.015873 0.793651
  3 -6.058658 -13.983840 -2.960000 -0.051358 -0.243134 -0.968632 0.015873 0.031746
tomahawk_xmas_all_on.bmp
  3 -6.428658 -14.043841 -2.920000 -0.984661 -0.149618 0.089763 0.793651 0.031746
  3 -6.348658 -14.313841 -2.470000 -0.984661 -0.149618 0.089763 0.015873 0.793651
  3 -6.408658 -13.953841 -2.560000 -0.984661 -0.149618 0.089763 0.015873 0.031746
tomahawk_xmas_all_on.bmp
  3 -6.058658 -13.983840 -2.960000 -0.166749 0.958384 -0.231721 0.793651 0.031746
  3 -6.408658 -13.953841 -2.560000 -0.166749 0.958384 -0.231721 0.015873 0.793651
  3 -6.038658 -13.893841 -2.590000 -0.166749 0.958384 -0.231721 0.015873 0.031746
tomahawk_xmas_all_on.bmp
  3 -6.038658 -13.893841 -2.590000 0.051358 0.243134 0.968632 0.793651 0.031746
  3 -6.348658 -14.313841 -2.470000 0.051358 0.243134 0.968632 0.015873 0.793651
  3 -5.978658 -14.253841 -2.500000 0.051358 0.243134 0.968632 0.015873 0.031746
tomahawk_xmas_all_on.bmp
  3 -8.468660 -13.963850 8.050000 0.801028 0.348296 0.486871 0.793651 0.031746
  3 -8.148660 -14.233849 7.720000 0.801028 0.348296 0.486871 0.015873 0.793651
  3 -8.298660 -13.893849 7.720000 0.801028 0.348296 0.486871 0.015873 0.031746
tomahawk_xmas_all_on.bmp
  3 -8.618659 -14.443850 7.869999 0.366502 -0.930417 0.000000 0.793651 0.031746
  3 -8.148660 -14.233849 7.720000 0.366502 -0.930417 0.000000 0.015873 0.793651
  3 -8.318660 -14.313850 8.049999 0.366502 -0.930417 0.000000 0.015873 0.031746
tomahawk_xmas_all_on.bmp
  3 -8.298660 -13.893849 7.720000 0.446490 0.194139 -0.873474 0.793651 0.031746
  3 -8.448660 -14.373849 7.539999 0.446490 0.194139 -0.873474 0.015873 0.793651
  3 -8.598660 -14.023849 7.539999 0.446490 0.194139 -0.873474 0.015873 0.031746
tomahawk_xmas_all_on.bmp
  3 -8.598660 -14.023849 7.539999 -0.801028 -0.348297 -0.486870 0.793651 0.031746
  3 -8.618659 -14.443850 7.869999 -0.801028 -0.348297 -0.486870 0.015873 0.793651
  3 -8.768660 -14.093850 7.869999 -0.801028 -0.348297 -0.486870 0.015873 0.031746
tomahawk_xmas_all_on.bmp
  3 -8.768660 -14.093850 7.869999 -0.446490 -0.194136 0.873475 0.793651 0.031746
  3 -8.318660 -14.313850 8.049999 -0.446490 -0.194136 0.873475 0.015873 0.793651
  3 -8.468660 -13.963850 8.050000 -0.446490 -0.194136 0.873475 0.015873 0.031746
tomahawk_xmas_all_on.bmp
  3 -8.468660 -13.963850 8.050000 -0.398749 0.917060 0.000000 0.793651 0.031746
  3 -8.598660 -14.023849 7.539999 -0.398749 0.917060 0.000000 0.015873 0.793651
  3 -8.768660 -14.093850 7.869999 -0.398749 0.917060 0.000000 0.015873 0.031746
tomahawk_xmas_all_on.bmp
  3 -8.058659 -14.423848 5.899999 0.516103 0.854663 -0.056464 0.793651 0.031746
  3 -8.498659 -14.173848 5.729999 0.516103 0.854663 -0.056464 0.015873 0.793651
  3 -8.338659 -14.243848 6.069999 0.516103 0.854663 -0.056464 0.015873 0.031746
tomahawk_xmas_all_on.bmp
  3 -8.058659 -14.423848 5.899999 0.752180 -0.483777 -0.447420 0.793651 0.031746
  3 -8.408659 -14.663848 5.589999 0.752180 -0.483777 -0.447420 0.015873 0.793651
  3 -8.208659 -14.353848 5.560000 0.752180 -0.483777 -0.447420 0.015873 0.031746
tomahawk_xmas_all_on.bmp
  3 -8.338659 -14.243848 6.069999 0.409709 -0.188445 0.892540 0.793651 0.031746
  3 -8.248659 -14.743848 5.919999 0.409709 -0.188445 0.892540 0.015873 0.793651
  3 -8.058659 -14.423848 5.899999 0.409709 -0.188445 0.892540 0.015873 0.031746
tomahawk_xmas_all_on.bmp
  3 -8.538659 -14.553848 6.089999 -0.516103 -0.854663 0.056464 0.793651 0.031746
  3 -8.408659 -14.663848 5.589999 -0.516103 -0.854663 0.056464 0.015873 0.793651
  3 -8.248659 -14.743848 5.919999 -0.516103 -0.854663 0.056464 0.015873 0.031746
tomahawk_xmas_all_on.bmp
  3 -8.498659 -14.173848 5.729999 -0.752180 0.483777 0.447420 0.793651 0.031746
  3 -8.538659 -14.553848 6.089999 -0.752180 0.483777 0.447420 0.015873 0.793651
  3 -8.338659 -14.243848 6.069999 -0.752180 0.483777 0.447420 0.015873 0.031746
tomahawk_xmas_all_on.bmp
  3 -8.208659 -14.353848 5.560000 -0.409710 0.188447 -0.892539 0.793651 0.031746
  3 -8.688659 -14.483848 5.759999 -0.409710 0.188447 -0.892539 0.015873 0.793651
  3 -8.498659 -14.173848 5.729999 -0.409710 0.188447 -0.892539 0.015873 0.031746
tomahawk_xmas_all_on.bmp
  3 -9.318659 -14.563848 4.629999 0.974524 -0.161909 -0.155205 0.142857 0.952381
  3 -9.438658 -14.913847 4.249998 0.974524 -0.161909 -0.155205 0.952381 0.142857
  3 -9.378659 -14.543847 4.259999 0.974524 -0.161909 -0.155205 0.952381 0.952381
tomahawk_xmas_all_on.bmp
  3 -9.378659 -14.543847 4.259999 -0.148744 0.051363 -0.987541 0.142857 0.952381
  3 -9.808659 -14.853848 4.309999 -0.148744 0.051363 -0.987541 0.952381 0.142857
  3 -9.748659 -14.483848 4.319998 -0.148744 0.051363 -0.987541 0.952381 0.952381
tomahawk_xmas_all_on.bmp
  3 -9.748659 -14.873848 4.679999 -0.167864 -0.985468 -0.025972 0.142857 0.952381
  3 -9.438658 -14.913847 4.249998 -0.167864 -0.985468 -0.025972 0.952381 0.142857
  3 -9.378659 -14.933848 4.619998 -0.167864 -0.985468 -0.025972 0.952381 0.952381
tomahawk_xmas_all_on.bmp
  3 -9.688659 -14.503848 4.689998 0.148744 -0.051363 0.987541 0.142857 0.952381
  3 -9.378659 -14.933848 4.619998 0.148744 -0.051363 0.987541 0.952381 0.142857
  3 -9.318659 -14.563848 4.629999 0.148744 -0.051363 0.987541 0.952381 0.952381
tomahawk_xmas_all_on.bmp
  3 -9.748659 -14.483848 4.319998 -0.974524 0.161909 0.155204 0.142857 0.952381
  3 -9.748659 -14.873848 4.679999 -0.974524 0.161909 0.155204 0.952381 0.142857
  3 -9.688659 -14.503848 4.689998 -0.974524 0.161909 0.155204 0.952381 0.952381
tomahawk_xmas_all_on.bmp
  3 -9.318659 -14.563848 4.629999 0.167864 0.985468 0.025973 0.142857 0.952381
  3 -9.748659 -14.483848 4.319998 0.167864 0.985468 0.025973 0.952381 0.142857
  3 -9.688659 -14.503848 4.689998 0.167864 0.985468 0.025973 0.952381 0.952381
tomahawk_xmas_all_on.bmp
  3 -8.248659 -15.153849 6.829998 -0.167864 -0.897206 0.408464 0.952381 0.952381
  3 -7.878659 -15.233849 6.809999 -0.167864 -0.897206 0.408464 0.142857 0.952381
  3 -8.188659 -15.003849 7.179999 -0.167864 -0.897206 0.408464 0.952381 0.142857
tomahawk_xmas_all_on.bmp
  3 -7.758659 -14.743849 6.999999 0.167864 0.897206 -0.408463 0.952381 0.142857
  3 -7.808659 -14.893848 6.649998 0.167864 0.897206 -0.408463 0.952381 0.952381
  3 -8.178659 -14.813849 6.679999 0.167864 0.897206 -0.408463 0.142857 0.952381
tomahawk_xmas_all_on.bmp
  3 -7.808659 -14.893848 6.649998 -0.148746 -0.386546 -0.910196 0.952381 0.142857
  3 -7.878659 -15.233849 6.809999 -0.148746 -0.386546 -0.910196 0.952381 0.952381
  3 -8.248659 -15.153849 6.829998 -0.148746 -0.386546 -0.910196 0.142857 0.952381
tomahawk_xmas_all_on.bmp
  3 -8.178659 -14.813849 6.679999 -0.974524 0.213545 0.068566 0.952381 0.142857
  3 -8.248659 -15.153849 6.829998 -0.974524 0.213545 0.068566 0.952381 0.952381
  3 -8.188659 -15.003849 7.179999 -0.974524 0.213545 0.068566 0.142857 0.952381
tomahawk_xmas_all_on.bmp
  3 -8.128659 -14.663849 7.029999 0.148745 0.386552 0.910194 0.952381 0.142857
  3 -8.188659 -15.003849 7.179999 0.148745 0.386552 0.910194 0.952381 0.952381
  3 -7.818659 -15.083849 7.149998 0.148745 0.386552 0.910194 0.142857 0.952381
tomahawk_xmas_all_on.bmp
  3 -7.758659 -14.743849 6.999999 0.974524 -0.213545 -0.068567 0.952381 0.142857
  3 -7.818659 -15.083849 7.149998 0.974524 -0.213545 -0.068567 0.952381 0.952381
  3 -7.878659 -15.233849 6.809999 0.974524 -0.213545 -0.068567 0.142857 0.952381
tomahawk_xmas_all_on.bmp
  3 -7.758659 -14.743849 6.999999 0.974524 -0.213545 -0.068567 0.142857 0.952381
  3 -7.878659 -15.233849 6.809999 0.974524 -0.213545 -0.068567 0.952381 0.142857
  3 -7.808659 -14.893848 6.649998 0.974524 -0.213545 -0.068567 0.952381 0.952381
tomahawk_xmas_all_on.bmp
  3 -7.808659 -14.893848 6.649998 -0.148746 -0.386546 -0.910196 0.142857 0.952381
  3 -8.248659 -15.153849 6.829998 -0.148746 -0.386546 -0.910196 0.952381 0.142857
  3 -8.178659 -14.813849 6.679999 -0.148746 -0.386546 -0.910196 0.952381 0.952381
tomahawk_xmas_all_on.bmp
  3 -8.188659 -15.003849 7.179999 -0.167864 -0.897206 0.408464 0.142857 0.952381
  3 -7.878659 -15.233849 6.809999 -0.167864 -0.897206 0.408464 0.952381 0.142857
  3 -7.818659 -15.083849 7.149998 -0.167864 -0.897206 0.408464 0.952381 0.952381
tomahawk_xmas_all_on.bmp
  3 -8.128659 -14.663849 7.029999 0.148745 0.386552 0.910194 0.142857 0.952381
  3 -7.818659 -15.083849 7.149998 0.148745 0.386552 0.910194 0.952381 0.142857
  3 -7.758659 -14.743849 6.999999 0.148745 0.386552 0.910194 0.952381 0.952381
tomahawk_xmas_all_on.bmp
  3 -8.178659 -14.813849 6.679999 -0.974524 0.213545 0.068566 0.142857 0.952381
  3 -8.188659 -15.003849 7.179999 -0.974524 0.213545 0.068566 0.952381 0.142857
  3 -8.128659 -14.663849 7.029999 -0.974524 0.213545 0.068566 0.952381 0.952381
tomahawk_xmas_all_on.bmp
  3 -7.758659 -14.743849 6.999999 0.167864 0.897206 -0.408463 0.142857 0.952381
  3 -8.178659 -14.813849 6.679999 0.167864 0.897206 -0.408463 0.952381 0.142857
  3 -8.128659 -14.663849 7.029999 0.167864 0.897206 -0.408463 0.952381 0.952381
end
