version 1
nodes
  0 "thanatos1_root" -1
  1 "triger" 0
  2 "reload" 0
  3 "megazine" 0
  4 "ambrum" 0
  5 "Sp01" 0
  6 "Sp02" 0
  7 "Sp03" 0
  8 "reloader_L" 0
  9 "Fb04" 8
  10 "reloader_R" 0
  11 "Fb01" 10
  12 "reloader_Lsub" 0
  13 "wing01" 0
  14 "wing02" 13
  15 "reloader_UR" 0
  16 "Fb02" 15
  17 "reloader_UL" 0
  18 "Fb03" 17
  19 "wing04" 0
  20 "wing03" 19
  21 "Sp04" 0
  22 "Sp05" 0
  23 "Sp06" 0
  24 "pipe" 0
  25 "bullet" 24
  26 "blade04" 25
  27 "blade01" 25
  28 "blade03" 25
  29 "blade02" 25
  30 "mask" 25
  31 "root" -1
  32 "Bone01" 31
  33 "Bone_L_Upper" 32
  34 "Bone_Lefthand" 32
  35 "Bone13" 34
  36 "Bone14" 35
  37 "Bone15" 36
  38 "Bone17" 34
  39 "Bone18" 38
  40 "Bone19" 39
  41 "Bone21" 34
  42 "Bone22" 41
  43 "Bone23" 42
  44 "Bone09" 34
  45 "Bone10" 44
  46 "Bone11" 45
  47 "Bone05" 34
  48 "Bone06" 47
  49 "Bone07" 48
  50 "Bone_Se_Hand-L" 34
  51 "Bone04" 31
  52 "Bone_Righthand" 51
  53 "Bone39" 52
  54 "Bone40" 53
  55 "Bone41" 54
  56 "Bone35" 52
  57 "Bone36" 56
  58 "Bone37" 57
  59 "Bone31" 52
  60 "Bone32" 59
  61 "Bone33" 60
  62 "Bone43" 52
  63 "Bone44" 62
  64 "Bone45" 63
  65 "Bone27" 52
  66 "Bone28" 65
  67 "Bone29" 66
  68 "Bone_Se_Hand-R" 52
  69 "Bone_R_Upper" 51
end
skeleton
  time 0
    0 4.525297 -10.781579 -2.397274 0.157955 -1.536400 1.373245
    1 0.175067 0.000001 -0.441901 0.000000 3.141592 0.000000
    2 1.308148 0.000002 -2.773321 0.000000 2.567629 0.000000
    3 0.288223 0.000002 -1.760515 0.000001 2.906820 0.000000
    4 1.777917 0.000003 -1.538403 0.000000 0.000000 0.000000
    5 1.370997 0.000001 0.465008 0.000000 0.000000 0.000000
    6 1.370997 0.000001 1.858715 0.000000 0.000000 0.000000
    7 1.370997 0.000002 3.205663 0.000000 0.000000 0.000000
    8 1.100837 -0.299999 0.795626 0.000000 0.000000 0.000000
    9 0.500512 -0.050225 4.281536 0.000000 0.000000 -0.698132
    10 1.100836 0.300001 0.795626 0.000000 0.000000 0.000000
    11 0.500512 0.048657 4.281537 0.000001 -3.141592 0.698132
    12 0.766094 -0.199999 0.795625 0.000000 0.000000 0.000000
    13 1.364395 0.318640 5.371607 0.000000 0.000001 1.570797
    14 0.271427 0.000000 0.000000 0.000000 1.570451 0.000000
    15 0.041745 0.300001 3.408082 0.000000 0.000000 0.000000
    16 0.429286 0.052139 1.669081 -3.141592 0.000000 -0.698131
    17 0.041745 -0.299999 3.408082 0.000000 0.000000 0.000000
    18 0.429287 -0.053707 1.669081 0.000000 0.000000 -2.443461
    19 1.364395 -0.317138 5.371605 0.000000 3.141592 -1.570796
    20 -0.271838 -0.000001 0.000000 0.000000 1.570451 0.000000
    21 0.335183 0.000002 0.465008 0.000000 0.000000 0.000000
    22 0.335183 0.000002 1.858715 0.000000 0.000000 0.000000
    23 0.335183 0.000002 3.205663 0.000000 0.000000 0.000000
    24 0.209940 0.000002 0.944198 0.000000 0.000000 0.000000
    25 0.807932 0.000004 -20.785281 0.000000 0.000000 -1.570796
    26 0.000000 0.246335 0.508674 0.000000 -0.959931 1.570796
    27 0.000000 0.508898 -0.245509 0.000000 0.610866 1.570796
    28 0.000000 -0.508816 0.248039 -3.141592 -0.610865 -1.570796
    29 0.000000 -0.243886 -0.509852 -3.141592 0.959931 -1.570796
    30 -0.354571 0.000000 0.000000 0.000000 0.000000 0.000000
    31 -0.002752 3.342587 0.258440 0.000000 0.000000 0.000000
    32 6.763151 -1.549500 -7.729686 0.724653 -2.129841 -0.756082
    33 8.062075 0.219355 -0.384189 1.570205 -3.115401 0.104545
    34 -0.009419 -8.408890 -0.096321 -0.244611 0.511983 -0.246660
    35 -0.488518 -2.755602 -0.228260 -0.766236 0.150576 -0.247340
    36 0.039887 -1.542292 0.018135 -1.761766 -0.008545 0.039514
    37 0.028786 -1.204641 -0.132487 -1.335364 -0.014549 0.029914
    38 0.250027 -2.820665 -0.238396 -0.453644 0.111448 -0.153181
    39 -0.049759 -1.594604 0.018445 -1.732233 -0.003667 -0.045064
    40 -0.034142 -1.175657 0.045718 -1.262271 0.005501 -0.033317
    41 0.957766 -2.746780 -0.090302 0.362403 -0.102270 0.147011
    42 -0.033420 -1.397129 -0.030789 -1.014562 0.003523 -0.049569
    43 -0.022360 -0.957436 0.003159 -0.609401 0.007982 -0.029434
    44 -1.180681 -2.507217 -0.193859 -0.514868 0.292895 -0.210814
    45 -0.024967 -1.127840 0.017597 -1.148218 0.000863 -0.048860
    46 -0.020057 -0.906594 0.045247 -1.424518 -0.004650 -0.057334
    47 0.626480 -1.197277 0.185379 0.471830 -1.045322 -0.449285
    48 1.446081 -0.251481 0.079230 0.075080 -0.244437 -0.913110
    49 0.975767 -0.198604 0.051823 0.125319 -0.269236 -1.207133
    50 0.120153 -0.050270 -0.054489 0.287569 3.110905 1.561085
    51 -1.860661 -3.606210 -8.564045 -1.864745 -4.906005 -1.122248
    52 -0.114000 -8.559797 0.049231 0.878732 -1.015507 -0.789429
    53 0.447953 -2.798986 -0.200443 -0.829257 -0.079427 0.328181
    54 -0.032909 -1.495829 0.012753 -0.820298 0.017977 -0.011359
    55 -0.027022 -1.096452 -0.028023 -0.513435 0.013471 -0.005429
    56 -0.249534 -2.846964 -0.174213 -0.495269 0.063861 -0.074779
    57 0.043235 -1.660503 0.080387 -1.014692 -0.016652 0.001691
    58 0.031729 -1.153017 0.058838 -0.561639 -0.005362 0.005508
    59 -0.963866 -2.785145 -0.085350 -0.322832 0.147259 -0.237960
    60 0.028479 -1.403067 -0.017167 -0.880540 -0.021932 -0.032406
    61 0.021413 -0.957781 0.020046 -0.175962 -0.002013 -0.007862
    62 1.164475 -2.543940 -0.170330 -1.089862 -0.224115 0.413438
    63 0.024032 -1.132948 0.002182 -0.585536 0.000108 0.031473
    64 0.014898 -0.887895 -0.019848 -0.270719 -0.002253 0.011553
    65 -0.586770 -1.264477 0.200161 0.285016 -0.389971 -2.736796
    66 1.554086 0.035243 0.016848 -0.012995 -0.005109 0.677633
    67 1.114041 0.044518 -0.005766 -0.023493 -0.034846 0.870265
    68 -0.139399 -0.111698 0.014397 0.285382 -0.030687 1.580508
    69 -7.624129 3.850744 -0.434751 1.574764 -0.030215 -0.555200
  time 1
    0 4.685458 -9.883114 -2.330865 -0.498985 -1.503367 -4.235603
    1 0.175067 0.000001 -0.441901 0.000000 2.239203 0.000000
    2 1.308148 0.000002 -2.773321 0.000000 1.570796 0.000000
    3 0.288223 0.000002 -1.760515 0.000001 2.906820 0.000000
    4 1.777917 0.000003 -2.382179 0.000000 0.000000 0.000000
    5 1.370997 0.000001 0.465008 0.000000 0.000000 0.000000
    6 1.370997 0.000001 1.858715 0.000000 0.000000 0.000000
    7 1.370997 0.000002 3.205663 0.000000 0.000000 0.000000
    8 1.100837 -0.299999 -0.048150 0.000000 0.000000 0.000000
    9 0.500512 -0.050225 4.281536 0.000000 0.000000 -0.698132
    10 1.100836 0.300001 -0.048150 0.000000 0.000000 0.000000
    11 0.500512 0.048657 4.281537 0.000001 -3.141592 0.698132
    12 0.766094 -0.199999 0.795625 0.000000 0.000000 0.000000
    13 1.364395 0.318640 5.371607 0.000000 0.000001 1.570797
    14 0.271427 0.000000 0.000000 0.000000 1.570451 0.000000
    15 0.041745 0.300001 3.408082 0.000000 0.000000 0.000000
    16 0.429286 0.052139 1.669081 -3.141592 0.000000 -0.698131
    17 0.041745 -0.299999 3.408082 0.000000 0.000000 0.000000
    18 0.429287 -0.053707 1.669081 0.000000 0.000000 -2.443461
    19 1.364395 -0.317138 5.371605 0.000000 3.141592 -1.570796
    20 -0.271838 -0.000001 0.000000 0.000000 1.570451 0.000000
    21 0.335183 0.000002 0.465008 0.000000 0.000000 0.000000
    22 0.335183 0.000002 1.858715 0.000000 0.000000 0.000000
    23 0.335183 0.000002 3.205663 0.000000 0.000000 0.000000
    24 0.209940 0.000002 0.944198 0.000000 0.000000 0.000000
    25 0.807932 0.000004 -20.785281 0.000000 0.000000 -1.570796
    26 0.000000 0.246335 0.508674 0.000000 -0.959931 1.570796
    27 0.000000 0.508898 -0.245509 0.000000 0.610866 1.570796
    28 0.000000 -0.508816 0.248039 -3.141592 -0.610865 -1.570796
    29 0.000000 -0.243886 -0.509852 -3.141592 0.959931 -1.570796
    30 -0.354571 0.000000 0.000000 0.000000 0.000000 0.000000
    31 -0.002752 3.342587 0.258440 0.000000 0.000000 0.000000
    32 6.825653 -0.725256 -7.874222 0.744307 -2.146572 -0.759869
    33 7.878476 -1.065840 -0.399814 -1.569028 -0.028448 -3.196311
    34 -0.017232 -8.408890 -0.100228 -0.240837 0.479553 -0.238561
    35 -0.488518 -2.755602 -0.228260 -0.766236 0.150576 -0.247340
    36 0.039887 -1.542292 0.018135 -1.761766 -0.008545 0.039514
    37 0.028786 -1.204641 -0.132487 -1.335364 -0.014549 0.029914
    38 0.250027 -2.820665 -0.238396 -0.453644 0.111448 -0.153181
    39 -0.049759 -1.594604 0.018445 -1.732233 -0.003667 -0.045064
    40 -0.034142 -1.175657 0.045718 -1.262271 0.005501 -0.033317
    41 0.957766 -2.746780 -0.090302 0.321979 -0.100628 0.145777
    42 -0.033420 -1.397129 -0.030789 -1.210944 -0.001570 -0.058066
    43 -0.022360 -0.957436 -0.000748 -0.845529 0.006088 -0.041179
    44 -1.180681 -2.507217 -0.193859 -0.514868 0.292895 -0.210814
    45 -0.024967 -1.127840 0.017597 -1.148218 0.000863 -0.048860
    46 -0.020057 -0.906594 0.045247 -1.424518 -0.004650 -0.057334
    47 0.626480 -1.197277 0.185379 0.471830 -1.045322 -0.449285
    48 1.446081 -0.251481 0.079230 0.075080 -0.244437 -0.913110
    49 0.975767 -0.198604 0.051823 0.125319 -0.269236 -1.207133
    50 0.120153 -0.050270 -0.054489 0.287569 3.110905 1.561085
    51 -1.923163 -3.153071 -8.751550 -1.771055 -4.915984 -0.973954
    52 -0.110094 -8.567610 0.049231 0.906447 -0.978050 -0.841371
    53 0.447953 -2.798986 -0.200443 -0.829257 -0.079427 0.328181
    54 -0.032909 -1.495829 0.012753 -0.820298 0.017977 -0.011359
    55 -0.027022 -1.096452 -0.028023 -0.513435 0.013471 -0.005429
    56 -0.249534 -2.846964 -0.174213 -0.495269 0.063861 -0.074779
    57 0.043235 -1.660503 0.080387 -1.014692 -0.016652 0.001691
    58 0.031729 -1.153017 0.058838 -0.561639 -0.005362 0.005508
    59 -0.963866 -2.785145 -0.085350 -0.322832 0.147259 -0.237960
    60 0.028479 -1.403067 -0.017167 -0.880540 -0.021932 -0.032406
    61 0.021413 -0.957781 0.020046 -0.175962 -0.002013 -0.007862
    62 1.164475 -2.543940 -0.170330 -1.089862 -0.224115 0.413438
    63 0.024032 -1.132948 0.002182 -0.585536 0.000108 0.031473
    64 0.014898 -0.887895 -0.019848 -0.270719 -0.002253 0.011553
    65 -0.586770 -1.264477 0.200161 0.285016 -0.389971 -2.736796
    66 1.554086 0.035243 0.016848 -0.012995 -0.005109 0.677633
    67 1.114041 0.044518 -0.005766 -0.023493 -0.034846 0.870265
    68 -0.139399 -0.111698 0.014397 0.285382 -0.030687 1.580508
    69 -7.866324 3.178848 -0.446471 1.573122 -0.031856 -0.468293
  time 2
    0 4.708896 -9.785455 -2.182423 -0.361835 -1.489072 -4.373112
    1 0.175067 0.000001 -0.441901 0.000000 2.239203 0.000000
    2 1.308148 0.000002 -2.773321 0.000000 1.570796 0.000000
    3 0.288223 0.000002 -1.760515 0.000001 2.906820 0.000000
    4 1.777917 0.000003 -1.960291 0.000000 0.000000 0.000000
    5 1.370997 0.000001 0.465008 0.000000 0.000000 0.000000
    6 1.370997 0.000001 1.858715 0.000000 0.000000 0.000000
    7 1.370997 0.000002 3.205663 0.000000 0.000000 0.000000
    8 1.100837 -0.299999 0.373738 0.000000 0.000000 0.000000
    9 0.500512 -0.050225 4.281536 0.000000 0.000000 -0.698132
    10 1.100836 0.300001 0.373738 0.000000 0.000000 0.000000
    11 0.500512 0.048657 4.281537 0.000001 -3.141592 0.698132
    12 0.766094 -0.199999 0.795625 0.000000 0.000000 0.000000
    13 1.364395 0.318640 5.371607 0.000000 0.000001 1.570797
    14 0.271427 0.000000 0.000000 0.000000 1.570451 0.000000
    15 0.041745 0.300001 3.408082 0.000000 0.000000 0.000000
    16 0.429286 0.052139 1.669081 -3.141592 0.000000 -0.698131
    17 0.041745 -0.299999 3.408082 0.000000 0.000000 0.000000
    18 0.429287 -0.053707 1.669081 0.000000 0.000000 -2.443461
    19 1.364395 -0.317138 5.371605 0.000000 3.141592 -1.570796
    20 -0.271838 -0.000001 0.000000 0.000000 1.570451 0.000000
    21 0.335183 0.000002 0.465008 0.000000 0.000000 0.000000
    22 0.335183 0.000002 1.858715 0.000000 0.000000 0.000000
    23 0.335183 0.000002 3.205663 0.000000 0.000000 0.000000
    24 0.209940 0.000002 0.944198 0.000000 0.000000 0.000000
    25 0.807932 0.000004 -20.785281 0.000000 0.000000 -1.570796
    26 0.000000 0.246335 0.508674 0.000000 -0.959931 1.570796
    27 0.000000 0.508898 -0.245509 0.000000 0.610866 1.570796
    28 0.000000 -0.508816 0.248039 -3.141592 -0.610865 -1.570796
    29 0.000000 -0.243886 -0.509852 -3.141592 0.959931 -1.570796
    30 -0.354571 0.000000 0.000000 0.000000 0.000000 0.000000
    31 -0.002752 3.342587 0.258440 0.000000 0.000000 0.000000
    32 6.837372 -0.690098 -7.870316 0.752456 -2.153283 -0.764952
    33 7.855038 -1.167406 -0.399814 -1.568740 -0.028640 -3.209055
    34 -0.017232 -8.408890 -0.096321 -0.238113 0.485370 -0.228181
    35 -0.488518 -2.755602 -0.228260 -0.766236 0.150576 -0.247340
    36 0.039887 -1.542292 0.018135 -1.761766 -0.008545 0.039514
    37 0.028786 -1.204641 -0.132487 -1.335364 -0.014549 0.029914
    38 0.250027 -2.820665 -0.238396 -0.453644 0.111448 -0.153181
    39 -0.049759 -1.594604 0.018445 -1.732233 -0.003667 -0.045064
    40 -0.034142 -1.175657 0.045718 -1.262271 0.005501 -0.033317
    41 0.957766 -2.746780 -0.090302 0.318611 -0.100496 0.145669
    42 -0.033420 -1.397129 -0.030789 -1.227316 -0.002061 -0.058725
    43 -0.022360 -0.961342 -0.004654 -0.865204 0.005801 -0.042138
    44 -1.180681 -2.507217 -0.193859 -0.514868 0.292895 -0.210814
    45 -0.024967 -1.127840 0.017597 -1.148218 0.000863 -0.048860
    46 -0.020057 -0.906594 0.045247 -1.424518 -0.004650 -0.057334
    47 0.626480 -1.197277 0.185379 0.471830 -1.045322 -0.449285
    48 1.446081 -0.251481 0.079230 0.075080 -0.244437 -0.913110
    49 0.975767 -0.198604 0.051823 0.125319 -0.269236 -1.207133
    50 0.120153 -0.050270 -0.054489 0.287569 3.110905 1.561085
    51 -1.915350 -3.153071 -8.743738 -1.762669 -4.924538 -0.963897
    52 -0.106187 -8.567610 0.049231 0.886022 -0.968240 -0.824998
    53 0.447953 -2.798986 -0.200443 -0.829257 -0.079427 0.328181
    54 -0.032909 -1.495829 0.012753 -0.820298 0.017977 -0.011359
    55 -0.027022 -1.096452 -0.028023 -0.513435 0.013471 -0.005429
    56 -0.249534 -2.846964 -0.174213 -0.495269 0.063861 -0.074779
    57 0.043235 -1.660503 0.080387 -1.014692 -0.016652 0.001691
    58 0.031729 -1.153017 0.058838 -0.561639 -0.005362 0.005508
    59 -0.963866 -2.785145 -0.085350 -0.322832 0.147259 -0.237960
    60 0.028479 -1.403067 -0.017167 -0.880540 -0.021932 -0.032406
    61 0.021413 -0.957781 0.020046 -0.175962 -0.002013 -0.007862
    62 1.164475 -2.543940 -0.170330 -1.089862 -0.224115 0.413438
    63 0.024032 -1.132948 0.002182 -0.585536 0.000108 0.031473
    64 0.014898 -0.887895 -0.019848 -0.270719 -0.002253 0.011553
    65 -0.586770 -1.264477 0.200161 0.285016 -0.389971 -2.736796
    66 1.554086 0.035243 0.016848 -0.012995 -0.005109 0.677633
    67 1.114041 0.044518 -0.005766 -0.023493 -0.034846 0.870265
    68 -0.139399 -0.111698 0.014397 0.285382 -0.030687 1.580508
    69 -7.885856 3.120253 -0.446471 1.572978 -0.032000 -0.460913
  time 3
    0 4.704990 -9.855770 -2.014449 -0.170324 -1.474161 -4.569650
    1 0.175067 0.000001 -0.441901 0.000000 2.239203 0.000000
    2 1.308148 0.000002 -2.773321 0.000000 1.570461 0.000000
    3 0.288223 0.000002 -1.760515 0.000001 2.906820 0.000000
    4 1.777917 0.000003 -1.538403 0.000000 0.000000 0.000000
    5 1.370997 0.000001 0.465008 0.000000 0.000000 0.000000
    6 1.370997 0.000001 1.858715 0.000000 0.000000 0.000000
    7 1.370997 0.000002 3.205663 0.000000 0.000000 0.000000
    8 1.100837 -0.299999 0.795626 0.000000 0.000000 0.000000
    9 0.500512 -0.050225 4.281536 0.000000 0.000000 -0.698132
    10 1.100836 0.300001 0.795626 0.000000 0.000000 0.000000
    11 0.500512 0.048657 4.281537 0.000001 -3.141592 0.698132
    12 0.766094 -0.199999 0.795625 0.000000 0.000000 0.000000
    13 1.364395 0.318640 5.371607 0.000000 0.000001 1.570797
    14 0.271427 0.000000 0.000000 0.000000 1.570451 0.000000
    15 0.041745 0.300001 3.408082 0.000000 0.000000 0.000000
    16 0.429286 0.052139 1.669081 -3.141592 0.000000 -0.698131
    17 0.041745 -0.299999 3.408082 0.000000 0.000000 0.000000
    18 0.429287 -0.053707 1.669081 0.000000 0.000000 -2.443461
    19 1.364395 -0.317138 5.371605 0.000000 3.141592 -1.570796
    20 -0.271838 -0.000001 0.000000 0.000000 1.570451 0.000000
    21 0.335183 0.000002 0.465008 0.000000 0.000000 0.000000
    22 0.335183 0.000002 1.858715 0.000000 0.000000 0.000000
    23 0.335183 0.000002 3.205663 0.000000 0.000000 0.000000
    24 0.209940 0.000002 0.944198 0.000000 0.000000 0.000000
    25 0.807932 0.000004 -20.785281 0.000000 0.000000 -1.570796
    26 0.000000 0.246335 0.508674 0.000000 -0.959931 1.570796
    27 0.000000 0.508898 -0.245509 0.000000 0.610866 1.570796
    28 0.000000 -0.508816 0.248039 -6.283184 -2.530670 1.570700
    29 0.000000 -0.243886 -0.509852 -3.141592 0.959931 -1.570796
    30 -0.354571 0.000000 0.000000 0.000000 0.000000 0.000000
    31 -0.002752 3.342587 0.258440 0.000000 0.000000 0.000000
    32 6.841278 -0.822915 -7.846877 0.757729 -2.156868 -0.770035
    33 7.890195 -1.015057 -0.399814 -1.569124 -0.028352 -3.189816
    34 -0.017232 -8.412796 -0.096321 -0.234244 0.499525 -0.212554
    35 -0.488518 -2.755602 -0.228260 -0.766236 0.150576 -0.247340
    36 0.039887 -1.542292 0.018135 -1.761766 -0.008545 0.039514
    37 0.028786 -1.204641 -0.132487 -1.335364 -0.014549 0.029914
    38 0.250027 -2.820665 -0.238396 -0.453644 0.111448 -0.153181
    39 -0.049759 -1.594604 0.018445 -1.732233 -0.003667 -0.045064
    40 -0.034142 -1.175657 0.045718 -1.262271 0.005501 -0.033317
    41 0.957766 -2.746780 -0.090302 0.321979 -0.100628 0.145777
    42 -0.033420 -1.397129 -0.030789 -1.210944 -0.001570 -0.058066
    43 -0.022360 -0.957436 -0.000748 -0.845529 0.006088 -0.041179
    44 -1.180681 -2.507217 -0.193859 -0.514868 0.292895 -0.210814
    45 -0.024967 -1.127840 0.017597 -1.148218 0.000863 -0.048860
    46 -0.020057 -0.906594 0.045247 -1.424518 -0.004650 -0.057334
    47 0.626480 -1.197277 0.185379 0.471830 -1.045322 -0.449285
    48 1.446081 -0.251481 0.079230 0.075080 -0.244437 -0.913110
    49 0.975767 -0.198604 0.051823 0.125319 -0.269236 -1.207133
    50 0.120153 -0.050270 -0.054489 0.287569 3.110905 1.561085
    51 -1.884099 -3.254637 -8.692955 -1.772579 -4.931190 -0.984106
    52 -0.102281 -8.563703 0.049231 0.853314 -0.962399 -0.795928
    53 0.447953 -2.798986 -0.200443 -0.829257 -0.079427 0.328181
    54 -0.032909 -1.495829 0.012753 -0.820298 0.017977 -0.011359
    55 -0.027022 -1.096452 -0.028023 -0.513435 0.013471 -0.005429
    56 -0.249534 -2.846964 -0.174213 -0.495269 0.063861 -0.074779
    57 0.043235 -1.660503 0.080387 -1.014692 -0.016652 0.001691
    58 0.031729 -1.153017 0.058838 -0.561639 -0.005362 0.005508
    59 -0.963866 -2.785145 -0.085350 -0.322832 0.147259 -0.237960
    60 0.028479 -1.403067 -0.017167 -0.880540 -0.021932 -0.032406
    61 0.021413 -0.957781 0.020046 -0.175962 -0.002013 -0.007862
    62 1.164475 -2.543940 -0.170330 -1.089862 -0.224115 0.413438
    63 0.024032 -1.132948 0.002182 -0.585536 0.000108 0.031473
    64 0.014898 -0.887895 -0.019848 -0.270719 -0.002253 0.011553
    65 -0.586770 -1.264477 0.200161 0.285016 -0.389971 -2.736796
    66 1.554086 0.035243 0.016848 -0.012995 -0.005109 0.677633
    67 1.114041 0.044518 -0.005766 -0.023493 -0.034846 0.870265
    68 -0.139399 -0.111698 0.014397 0.285382 -0.030687 1.580508
    69 -7.854605 3.210099 -0.446471 1.573206 -0.031785 -0.472532
  time 4
    0 4.693270 -9.887020 -1.791786 -0.018435 -1.442580 1.553492
    1 0.175067 0.000001 -0.441901 0.000000 2.239203 0.000000
    2 1.308148 0.000002 -2.773321 0.000000 1.570796 0.000000
    3 0.288223 0.000002 -1.760515 0.000001 2.906820 0.000000
    4 1.777917 0.000003 -1.538403 0.000000 0.000000 0.000000
    5 1.370997 0.000001 0.465008 0.000000 0.000000 0.000000
    6 1.370997 0.000001 1.858715 0.000000 0.000000 0.000000
    7 1.370997 0.000002 3.205663 0.000000 0.000000 0.000000
    8 1.100837 -0.299999 0.795626 0.000000 0.000000 0.000000
    9 0.500512 -0.050225 4.281536 0.000000 0.000000 -0.698132
    10 1.100836 0.300001 0.795626 0.000000 0.000000 0.000000
    11 0.500512 0.048657 4.281537 0.000001 -3.141592 0.698132
    12 0.766094 -0.199999 0.795625 0.000000 0.000000 0.000000
    13 1.364395 0.318640 5.371607 0.000000 0.000001 1.570797
    14 0.271427 0.000000 0.000000 0.000000 1.570451 0.000000
    15 0.041745 0.300001 3.408082 0.000000 0.000000 0.000000
    16 0.429286 0.052139 1.669081 -3.141592 0.000000 -0.698131
    17 0.041745 -0.299999 3.408082 0.000000 0.000000 0.000000
    18 0.429287 -0.053707 1.669081 0.000000 0.000000 -2.443461
    19 1.364395 -0.317138 5.371605 0.000000 3.141592 -1.570796
    20 -0.271838 -0.000001 0.000000 0.000000 1.570451 0.000000
    21 0.335183 0.000002 0.465008 0.000000 0.000000 0.000000
    22 0.335183 0.000002 1.858715 0.000000 0.000000 0.000000
    23 0.335183 0.000002 3.205663 0.000000 0.000000 0.000000
    24 0.209940 0.000002 0.944198 0.000000 0.000000 0.000000
    25 0.807932 0.000004 -20.785281 0.000000 0.000000 -1.570796
    26 0.000000 0.246335 0.508674 0.000000 -0.959931 1.570796
    27 0.000000 0.508898 -0.245509 0.000000 0.610866 1.570796
    28 0.000000 -0.508816 0.248039 -3.141592 -0.610865 -1.570796
    29 0.000000 -0.243886 -0.509852 -3.141592 0.959931 -1.570796
    30 -0.354571 0.000000 0.000000 0.000000 0.000000 0.000000
    31 -0.002752 3.342587 0.258440 0.000000 0.000000 0.000000
    32 6.841278 -0.955731 -7.819533 0.761852 -2.159350 -0.774321
    33 7.925352 -0.854896 -0.399814 -1.569412 -0.028161 -3.169674
    34 -0.017232 -8.416703 -0.092415 -0.225358 0.515715 -0.179531
    35 -0.488518 -2.755602 -0.228260 -0.766236 0.150576 -0.247340
    36 0.039887 -1.542292 0.018135 -1.761766 -0.008545 0.039514
    37 0.028786 -1.204641 -0.132487 -1.335364 -0.014549 0.029914
    38 0.250027 -2.820665 -0.238396 -0.453644 0.111448 -0.153181
    39 -0.049759 -1.594604 0.018445 -1.732233 -0.003667 -0.045064
    40 -0.034142 -1.175657 0.045718 -1.262271 0.005501 -0.033317
    41 0.957766 -2.746780 -0.090302 0.320685 -0.100568 0.145741
    42 -0.033420 -1.397129 -0.030789 -1.217232 -0.001762 -0.058318
    43 -0.022360 -0.957436 -0.004654 -0.853096 0.005980 -0.041551
    44 -1.180681 -2.507217 -0.193859 -0.514868 0.292895 -0.210814
    45 -0.024967 -1.127840 0.017597 -1.148218 0.000863 -0.048860
    46 -0.020057 -0.906594 0.045247 -1.424518 -0.004650 -0.057334
    47 0.626480 -1.197277 0.185379 0.471830 -1.045322 -0.449285
    48 1.446081 -0.251481 0.079230 0.075080 -0.244437 -0.913110
    49 0.975767 -0.198604 0.051823 0.125319 -0.269236 -1.207133
    50 0.120153 -0.050270 -0.054489 0.287569 3.110905 1.561085
    51 -1.856755 -3.371828 -8.630453 -1.783597 -4.937707 -1.007256
    52 -0.094468 -8.559797 0.053137 0.806873 -0.948933 -0.764895
    53 0.447953 -2.798986 -0.200443 -0.829257 -0.079427 0.328181
    54 -0.032909 -1.495829 0.012753 -0.820298 0.017977 -0.011359
    55 -0.027022 -1.096452 -0.028023 -0.513435 0.013471 -0.005429
    56 -0.249534 -2.846964 -0.174213 -0.495269 0.063861 -0.074779
    57 0.043235 -1.660503 0.080387 -1.014692 -0.016652 0.001691
    58 0.031729 -1.153017 0.058838 -0.561639 -0.005362 0.005508
    59 -0.963866 -2.785145 -0.085350 -0.322832 0.147259 -0.237960
    60 0.028479 -1.403067 -0.017167 -0.880540 -0.021932 -0.032406
    61 0.021413 -0.957781 0.020046 -0.175962 -0.002013 -0.007862
    62 1.164475 -2.543940 -0.170330 -1.089862 -0.224115 0.413438
    63 0.024032 -1.132948 0.002182 -0.585536 0.000108 0.031473
    64 0.014898 -0.887895 -0.019848 -0.270719 -0.002253 0.011553
    65 -0.586770 -1.264477 0.200161 0.285016 -0.389971 -2.736796
    66 1.554086 0.035243 0.016848 -0.012995 -0.005109 0.677633
    67 1.114041 0.044518 -0.005766 -0.023493 -0.034846 0.870265
    68 -0.139399 -0.111698 0.014397 0.285382 -0.030687 1.580508
    69 -7.819447 3.327290 -0.442564 1.573493 -0.031521 -0.487291
  time 5
    0 4.669832 -9.961241 -1.627719 0.065501 -1.416805 1.461883
    1 0.175067 0.000001 -0.441901 0.000000 2.239203 0.000000
    2 1.308148 0.000002 -2.773321 0.000000 1.570461 0.000000
    3 0.288223 0.000002 -1.760515 0.000001 2.906820 0.000000
    4 1.777917 0.000003 -1.538403 0.000000 0.000000 0.000000
    5 1.370997 0.000001 0.465008 0.000000 0.000000 0.000000
    6 1.370997 0.000001 1.858715 0.000000 0.000000 0.000000
    7 1.370997 0.000002 3.205663 0.000000 0.000000 0.000000
    8 1.100837 -0.299999 0.795626 0.000000 0.000000 0.000000
    9 0.500512 -0.050225 4.281536 0.000000 0.000000 -0.698132
    10 1.100836 0.300001 0.795626 0.000000 0.000000 0.000000
    11 0.500512 0.048657 4.281537 0.000001 -3.141592 0.698132
    12 0.766094 -0.199999 0.795625 0.000000 0.000000 0.000000
    13 1.364395 0.318640 5.371607 0.000000 0.000001 1.570797
    14 0.271427 0.000000 0.000000 0.000000 1.570451 0.000000
    15 0.041745 0.300001 3.408082 0.000000 0.000000 0.000000
    16 0.429286 0.052139 1.669081 -3.141592 0.000000 -0.698131
    17 0.041745 -0.299999 3.408082 0.000000 0.000000 0.000000
    18 0.429287 -0.053707 1.669081 0.000000 0.000000 -2.443461
    19 1.364395 -0.317138 5.371605 0.000000 3.141592 -1.570796
    20 -0.271838 -0.000001 0.000000 0.000000 1.570451 0.000000
    21 0.335183 0.000002 0.465008 0.000000 0.000000 0.000000
    22 0.335183 0.000002 1.858715 0.000000 0.000000 0.000000
    23 0.335183 0.000002 3.205663 0.000000 0.000000 0.000000
    24 0.209940 0.000002 0.944198 0.000000 0.000000 0.000000
    25 0.807932 0.000004 -20.785281 0.000000 0.000000 -1.570796
    26 0.000000 0.246335 0.508674 0.000000 -0.959931 1.570796
    27 0.000000 0.508898 -0.245509 0.000000 0.610866 1.570796
    28 0.000000 -0.508816 0.248039 -3.141592 -0.610865 -1.570796
    29 0.000000 -0.243886 -0.509852 -3.141592 0.959931 -1.570796
    30 -0.354571 0.000000 0.000000 0.000000 0.000000 0.000000
    31 -0.002752 3.342587 0.258440 0.000000 0.000000 0.000000
    32 6.837372 -1.100267 -7.792188 0.762427 -2.159074 -0.776414
    33 7.964416 -0.647859 -0.395908 -1.569795 -0.027778 -3.144105
    34 -0.017232 -8.420609 -0.092415 -0.217284 0.529192 -0.150843
    35 -0.488518 -2.755602 -0.228260 -0.766236 0.150576 -0.247340
    36 0.039887 -1.542292 0.018135 -1.761766 -0.008545 0.039514
    37 0.028786 -1.204641 -0.132487 -1.335364 -0.014549 0.029914
    38 0.250027 -2.820665 -0.238396 -0.453644 0.111448 -0.153181
    39 -0.049759 -1.594604 0.018445 -1.732233 -0.003667 -0.045064
    40 -0.034142 -1.175657 0.045718 -1.262271 0.005501 -0.033317
    41 0.957766 -2.746780 -0.090302 0.321979 -0.100628 0.145777
    42 -0.033420 -1.397129 -0.030789 -1.210944 -0.001570 -0.058066
    43 -0.022360 -0.957436 -0.000748 -0.845529 0.006088 -0.041179
    44 -1.180681 -2.507217 -0.193859 -0.514868 0.292895 -0.210814
    45 -0.024967 -1.127840 0.017597 -1.148218 0.000863 -0.048860
    46 -0.020057 -0.906594 0.045247 -1.424518 -0.004650 -0.057334
    47 0.626480 -1.197277 0.185379 0.471830 -1.045322 -0.449285
    48 1.446081 -0.251481 0.079230 0.075080 -0.244437 -0.913110
    49 0.975767 -0.198604 0.051823 0.125319 -0.269236 -1.207133
    50 0.120153 -0.050270 -0.054489 0.287569 3.110905 1.561085
    51 -1.829410 -3.485113 -8.571857 -1.796418 -4.940762 -1.032873
    52 -0.090562 -8.559797 0.053137 0.769720 -0.939256 -0.741367
    53 0.447953 -2.798986 -0.200443 -0.829257 -0.079427 0.328181
    54 -0.032909 -1.495829 0.012753 -0.820298 0.017977 -0.011359
    55 -0.027022 -1.096452 -0.028023 -0.513435 0.013471 -0.005429
    56 -0.249534 -2.846964 -0.174213 -0.495269 0.063861 -0.074779
    57 0.043235 -1.660503 0.080387 -1.014692 -0.016652 0.001691
    58 0.031729 -1.153017 0.058838 -0.561639 -0.005362 0.005508
    59 -0.963866 -2.785145 -0.085350 -0.322832 0.147259 -0.237960
    60 0.028479 -1.403067 -0.017167 -0.880540 -0.021932 -0.032406
    61 0.021413 -0.957781 0.020046 -0.175962 -0.002013 -0.007862
    62 1.164475 -2.543940 -0.170330 -1.089862 -0.224115 0.413438
    63 0.024032 -1.132948 0.002182 -0.585536 0.000108 0.031473
    64 0.014898 -0.887895 -0.019848 -0.270719 -0.002253 0.011553
    65 -0.586770 -1.264477 0.200161 0.285016 -0.389971 -2.736796
    66 1.554086 0.035243 0.016848 -0.012995 -0.005109 0.677633
    67 1.114041 0.044518 -0.005766 -0.023493 -0.034846 0.870265
    68 -0.139399 -0.111698 0.014397 0.285382 -0.030687 1.580508
    69 -7.768665 3.467919 -0.442564 1.573841 -0.031185 -0.505191
  time 6
    0 4.638581 -10.101871 -1.670689 0.095458 -1.420588 1.428920
    1 0.175067 0.000001 -0.441901 0.000000 2.419692 0.000000
    2 1.308148 0.000002 -2.773321 0.000000 1.570796 0.000000
    3 0.288223 0.000002 -1.760515 0.000001 2.906820 0.000000
    4 1.777917 0.000003 -1.538403 0.000000 0.000000 0.000000
    5 1.370997 0.000001 0.465008 0.000000 0.000000 0.000000
    6 1.370997 0.000001 1.858715 0.000000 0.000000 0.000000
    7 1.370997 0.000002 3.205663 0.000000 0.000000 0.000000
    8 1.100837 -0.299999 0.795626 0.000000 0.000000 0.000000
    9 0.500512 -0.050225 4.281536 0.000000 0.000000 -0.698132
    10 1.100836 0.300001 0.795626 0.000000 0.000000 0.000000
    11 0.500512 0.048657 4.281537 0.000001 -3.141592 0.698132
    12 0.766094 -0.199999 0.795625 0.000000 0.000000 0.000000
    13 1.364395 0.318640 5.371607 0.000000 0.000001 1.570797
    14 0.271427 0.000000 0.000000 0.000000 1.570451 0.000000
    15 0.041745 0.300001 3.408082 0.000000 0.000000 0.000000
    16 0.429286 0.052139 1.669081 -3.141592 0.000000 -0.698131
    17 0.041745 -0.299999 3.408082 0.000000 0.000000 0.000000
    18 0.429287 -0.053707 1.669081 0.000000 0.000000 -2.443461
    19 1.364395 -0.317138 5.371605 0.000000 3.141592 -1.570796
    20 -0.271838 -0.000001 0.000000 0.000000 1.570451 0.000000
    21 0.335183 0.000002 0.465008 0.000000 0.000000 0.000000
    22 0.335183 0.000002 1.858715 0.000000 0.000000 0.000000
    23 0.335183 0.000002 3.205663 0.000000 0.000000 0.000000
    24 0.209940 0.000002 0.944198 0.000000 0.000000 0.000000
    25 0.807932 0.000004 -20.785281 0.000000 0.000000 -1.570796
    26 0.000000 0.246335 0.508674 0.000000 -0.959931 1.570796
    27 0.000000 0.508898 -0.245509 0.000000 0.610866 1.570796
    28 0.000000 -0.508816 0.248039 -3.141592 -0.610865 -1.570796
    29 0.000000 -0.243886 -0.509852 -3.141592 0.959931 -1.570796
    30 -0.354571 0.000000 0.000000 0.000000 0.000000 0.000000
    31 -0.002752 3.342587 0.258440 0.000000 0.000000 0.000000
    32 6.825653 -1.221364 -7.772656 0.756387 -2.153742 -0.773773
    33 7.995667 -0.440821 -0.392002 -1.570179 -0.027394 -3.118454
    34 -0.013325 -8.420609 -0.092415 -0.216616 0.531809 -0.148676
    35 -0.488518 -2.755602 -0.228260 -0.766236 0.150576 -0.247340
    36 0.039887 -1.542292 0.018135 -1.761766 -0.008545 0.039514
    37 0.028786 -1.204641 -0.132487 -1.335364 -0.014549 0.029914
    38 0.250027 -2.820665 -0.238396 -0.453644 0.111448 -0.153181
    39 -0.049759 -1.594604 0.018445 -1.732233 -0.003667 -0.045064
    40 -0.034142 -1.175657 0.045718 -1.262271 0.005501 -0.033317
    41 0.957766 -2.746780 -0.090302 0.331614 -0.101012 0.146076
    42 -0.033420 -1.397129 -0.030789 -1.164162 -0.000204 -0.056137
    43 -0.022360 -0.957436 -0.000748 -0.789265 0.006783 -0.038435
    44 -1.180681 -2.507217 -0.193859 -0.514868 0.292895 -0.210814
    45 -0.024967 -1.127840 0.017597 -1.148218 0.000863 -0.048860
    46 -0.020057 -0.906594 0.045247 -1.424518 -0.004650 -0.057334
    47 0.626480 -1.197277 0.185379 0.471830 -1.045322 -0.449285
    48 1.446081 -0.251481 0.079230 0.075080 -0.244437 -0.913110
    49 0.975767 -0.198604 0.051823 0.125319 -0.269236 -1.207133
    50 0.120153 -0.050270 -0.054489 0.287569 3.110905 1.561085
    51 -1.825504 -3.551521 -8.548419 -1.811247 -4.935603 -1.056118
    52 -0.090562 -8.555890 0.053137 0.767273 -0.944919 -0.739553
    53 0.447953 -2.798986 -0.200443 -0.829257 -0.079427 0.328181
    54 -0.032909 -1.495829 0.012753 -0.820298 0.017977 -0.011359
    55 -0.027022 -1.096452 -0.028023 -0.513435 0.013471 -0.005429
    56 -0.249534 -2.846964 -0.174213 -0.495269 0.063861 -0.074779
    57 0.043235 -1.660503 0.080387 -1.014692 -0.016652 0.001691
    58 0.031729 -1.153017 0.058838 -0.561639 -0.005362 0.005508
    59 -0.963866 -2.785145 -0.085350 -0.322832 0.147259 -0.237960
    60 0.028479 -1.403067 -0.017167 -0.880540 -0.021932 -0.032406
    61 0.021413 -0.957781 0.020046 -0.175962 -0.002013 -0.007862
    62 1.164475 -2.543940 -0.170330 -1.089862 -0.224115 0.413438
    63 0.024032 -1.132948 0.002182 -0.585536 0.000108 0.031473
    64 0.014898 -0.887895 -0.019848 -0.270719 -0.002253 0.011553
    65 -0.586770 -1.264477 0.200161 0.285016 -0.389971 -2.736796
    66 1.554086 0.035243 0.016848 -0.012995 -0.005109 0.677633
    67 1.114041 0.044518 -0.005766 -0.023493 -0.034846 0.870265
    68 -0.139399 -0.111698 0.014397 0.285382 -0.030687 1.580508
    69 -7.725695 3.589017 -0.438658 1.574129 -0.030886 -0.521049
  time 7
    0 4.603424 -10.277657 -1.815225 0.110579 -1.440865 1.413588
    1 0.175067 0.000001 -0.441901 0.000000 2.600181 0.000000
    2 1.308148 0.000002 -2.773321 0.000000 1.570796 0.000000
    3 0.288223 0.000002 -1.760515 0.000001 2.906820 0.000000
    4 1.777917 0.000003 -1.538403 0.000000 0.000000 0.000000
    5 1.370997 0.000001 0.465008 0.000000 0.000000 0.000000
    6 1.370997 0.000001 1.858715 0.000000 0.000000 0.000000
    7 1.370997 0.000002 3.205663 0.000000 0.000000 0.000000
    8 1.100837 -0.299999 0.795626 0.000000 0.000000 0.000000
    9 0.500512 -0.050225 4.281536 0.000000 0.000000 -0.698132
    10 1.100836 0.300001 0.795626 0.000000 0.000000 0.000000
    11 0.500512 0.048657 4.281537 0.000001 -3.141592 0.698132
    12 0.766094 -0.199999 0.795625 0.000000 0.000000 0.000000
    13 1.364395 0.318640 5.371607 0.000000 0.000001 1.570797
    14 0.271427 0.000000 0.000000 0.000000 1.570451 0.000000
    15 0.041745 0.300001 3.408082 0.000000 0.000000 0.000000
    16 0.429286 0.052139 1.669081 -3.141592 0.000000 -0.698131
    17 0.041745 -0.299999 3.408082 0.000000 0.000000 0.000000
    18 0.429287 -0.053707 1.669081 0.000000 0.000000 -2.443461
    19 1.364395 -0.317138 5.371605 0.000000 3.141592 -1.570796
    20 -0.271838 -0.000001 0.000000 0.000000 1.570451 0.000000
    21 0.335183 0.000002 0.465008 0.000000 0.000000 0.000000
    22 0.335183 0.000002 1.858715 0.000000 0.000000 0.000000
    23 0.335183 0.000002 3.205663 0.000000 0.000000 0.000000
    24 0.209940 0.000002 0.944198 0.000000 0.000000 0.000000
    25 0.807932 0.000004 -20.785281 0.000000 0.000000 -1.570796
    26 0.000000 0.246335 0.508674 0.000000 -0.959931 1.570796
    27 0.000000 0.508898 -0.245509 0.000000 0.610866 1.570796
    28 0.000000 -0.508816 0.248039 -3.141592 -0.610865 -1.570796
    29 0.000000 -0.243886 -0.509852 -3.141592 0.959931 -1.570796
    30 -0.354571 0.000000 0.000000 0.000000 0.000000 0.000000
    31 -0.002752 3.342587 0.258440 0.000000 0.000000 0.000000
    32 6.810027 -1.319024 -7.760937 0.747662 -2.146664 -0.769188
    33 8.023011 -0.245503 -0.392002 -1.570562 -0.027011 -3.094118
    34 -0.013325 -8.420609 -0.092415 -0.220676 0.529192 -0.162478
    35 -0.488518 -2.755602 -0.228260 -0.766236 0.150576 -0.247340
    36 0.039887 -1.542292 0.018135 -1.761766 -0.008545 0.039514
    37 0.028786 -1.204641 -0.132487 -1.335364 -0.014549 0.029914
    38 0.250027 -2.820665 -0.238396 -0.453644 0.111448 -0.153181
    39 -0.049759 -1.594604 0.018445 -1.732233 -0.003667 -0.045064
    40 -0.034142 -1.175657 0.045718 -1.262271 0.005501 -0.033317
    41 0.957766 -2.746780 -0.090302 0.342688 -0.101455 0.146424
    42 -0.033420 -1.397129 -0.030789 -1.110301 0.001246 -0.053836
    43 -0.022360 -0.957436 -0.000748 -0.724531 0.007406 -0.035223
    44 -1.180681 -2.507217 -0.193859 -0.514868 0.292895 -0.210814
    45 -0.024967 -1.127840 0.017597 -1.148218 0.000863 -0.048860
    46 -0.020057 -0.906594 0.045247 -1.424518 -0.004650 -0.057334
    47 0.626480 -1.197277 0.185379 0.471830 -1.045322 -0.449285
    48 1.446081 -0.251481 0.079230 0.075080 -0.244437 -0.913110
    49 0.975767 -0.198604 0.051823 0.125319 -0.269236 -1.207133
    50 0.120153 -0.050270 -0.054489 0.287569 3.110905 1.561085
    51 -1.829410 -3.586678 -8.540606 -1.827047 -4.927389 -1.077561
    52 -0.094468 -8.555890 0.053137 0.783702 -0.958965 -0.747715
    53 0.447953 -2.798986 -0.200443 -0.829257 -0.079427 0.328181
    54 -0.032909 -1.495829 0.012753 -0.820298 0.017977 -0.011359
    55 -0.027022 -1.096452 -0.028023 -0.513435 0.013471 -0.005429
    56 -0.249534 -2.846964 -0.174213 -0.495269 0.063861 -0.074779
    57 0.043235 -1.660503 0.080387 -1.014692 -0.016652 0.001691
    58 0.031729 -1.153017 0.058838 -0.561639 -0.005362 0.005508
    59 -0.963866 -2.785145 -0.085350 -0.322832 0.147259 -0.237960
    60 0.028479 -1.403067 -0.017167 -0.880540 -0.021932 -0.032406
    61 0.021413 -0.957781 0.020046 -0.175962 -0.002013 -0.007862
    62 1.164475 -2.543940 -0.170330 -1.089862 -0.224115 0.413438
    63 0.024032 -1.132948 0.002182 -0.585536 0.000108 0.031473
    64 0.014898 -0.887895 -0.019848 -0.270719 -0.002253 0.011553
    65 -0.586770 -1.264477 0.200161 0.285016 -0.389971 -2.736796
    66 1.554086 0.035243 0.016848 -0.012995 -0.005109 0.677633
    67 1.114041 0.044518 -0.005766 -0.023493 -0.034846 0.870265
    68 -0.139399 -0.111698 0.014397 0.285382 -0.030687 1.580508
    69 -7.686631 3.690583 -0.438658 1.574380 -0.030622 -0.534239
  time 8
    0 4.572173 -10.476882 -2.022262 0.124553 -1.474601 1.401705
    1 0.175067 0.000001 -0.441901 0.000000 2.780642 0.000000
    2 1.308148 0.000002 -2.773321 0.000000 1.570461 0.000000
    3 0.288223 0.000002 -1.760515 0.000001 2.906820 0.000000
    4 1.777917 0.000003 -1.538403 0.000000 0.000000 0.000000
    5 1.370997 0.000001 0.465008 0.000000 0.000000 0.000000
    6 1.370997 0.000001 1.858715 0.000000 0.000000 0.000000
    7 1.370997 0.000002 3.205663 0.000000 0.000000 0.000000
    8 1.100837 -0.299999 0.795626 0.000000 0.000000 0.000000
    9 0.500512 -0.050225 4.281536 0.000000 0.000000 -0.698132
    10 1.100836 0.300001 0.795626 0.000000 0.000000 0.000000
    11 0.500512 0.048657 4.281537 0.000001 -3.141592 0.698132
    12 0.766094 -0.199999 0.795625 0.000000 0.000000 0.000000
    13 1.364395 0.318640 5.371607 0.000000 0.000001 1.570797
    14 0.271427 0.000000 0.000000 0.000000 1.570451 0.000000
    15 0.041745 0.300001 3.408082 0.000000 0.000000 0.000000
    16 0.429286 0.052139 1.669081 -3.141592 0.000000 -0.698131
    17 0.041745 -0.299999 3.408082 0.000000 0.000000 0.000000
    18 0.429287 -0.053707 1.669081 0.000000 0.000000 -2.443461
    19 1.364395 -0.317138 5.371605 0.000000 3.141592 -1.570796
    20 -0.271838 -0.000001 0.000000 0.000000 1.570451 0.000000
    21 0.335183 0.000002 0.465008 0.000000 0.000000 0.000000
    22 0.335183 0.000002 1.858715 0.000000 0.000000 0.000000
    23 0.335183 0.000002 3.205663 0.000000 0.000000 0.000000
    24 0.209940 0.000002 0.944198 0.000000 0.000000 0.000000
    25 0.807932 0.000004 -20.785281 0.000000 0.000000 -1.570796
    26 0.000000 0.246335 0.508674 0.000000 -0.959931 1.570796
    27 0.000000 0.508898 -0.245509 0.000000 0.610866 1.570796
    28 0.000000 -0.508816 0.248039 -3.141592 -0.610865 -1.570796
    29 0.000000 -0.243886 -0.509852 -3.141592 0.959931 -1.570796
    30 -0.354571 0.000000 0.000000 0.000000 0.000000 0.000000
    31 -0.002752 3.342587 0.258440 0.000000 0.000000 0.000000
    32 6.790495 -1.416683 -7.749218 0.738938 -2.139953 -0.764304
    33 8.042543 -0.057997 -0.388095 1.570684 -3.114922 0.070754
    34 -0.013325 -8.416703 -0.092415 -0.229132 0.523665 -0.191565
    35 -0.488518 -2.755602 -0.228260 -0.766236 0.150576 -0.247340
    36 0.039887 -1.542292 0.018135 -1.761766 -0.008545 0.039514
    37 0.028786 -1.204641 -0.132487 -1.335364 -0.014549 0.029914
    38 0.250027 -2.820665 -0.238396 -0.453644 0.111448 -0.153181
    39 -0.049759 -1.594604 0.018445 -1.732233 -0.003667 -0.045064
    40 -0.034142 -1.175657 0.045718 -1.262271 0.005501 -0.033317
    41 0.957766 -2.746780 -0.090302 0.351053 -0.101803 0.146676
    42 -0.033420 -1.397129 -0.030789 -1.069649 0.002265 -0.052050
    43 -0.022360 -0.957436 0.003159 -0.675649 0.007730 -0.032766
    44 -1.180681 -2.507217 -0.193859 -0.514868 0.292895 -0.210814
    45 -0.024967 -1.127840 0.017597 -1.148218 0.000863 -0.048860
    46 -0.020057 -0.906594 0.045247 -1.424518 -0.004650 -0.057334
    47 0.626480 -1.197277 0.185379 0.471830 -1.045322 -0.449285
    48 1.446081 -0.251481 0.079230 0.075080 -0.244437 -0.913110
    49 0.975767 -0.198604 0.051823 0.125319 -0.269236 -1.207133
    50 0.120153 -0.050270 -0.054489 0.287569 3.110905 1.561085
    51 -1.837223 -3.602304 -8.544513 -1.842016 -4.918903 -1.096157
    52 -0.102281 -8.555890 0.053137 0.815162 -0.979611 -0.760965
    53 0.447953 -2.798986 -0.200443 -0.829257 -0.079427 0.328181
    54 -0.032909 -1.495829 0.012753 -0.820298 0.017977 -0.011359
    55 -0.027022 -1.096452 -0.028023 -0.513435 0.013471 -0.005429
    56 -0.249534 -2.846964 -0.174213 -0.495269 0.063861 -0.074779
    57 0.043235 -1.660503 0.080387 -1.014692 -0.016652 0.001691
    58 0.031729 -1.153017 0.058838 -0.561639 -0.005362 0.005508
    59 -0.963866 -2.785145 -0.085350 -0.322832 0.147259 -0.237960
    60 0.028479 -1.403067 -0.017167 -0.880540 -0.021932 -0.032406
    61 0.021413 -0.957781 0.020046 -0.175962 -0.002013 -0.007862
    62 1.164475 -2.543940 -0.170330 -1.089862 -0.224115 0.413438
    63 0.024032 -1.132948 0.002182 -0.585536 0.000108 0.031473
    64 0.014898 -0.887895 -0.019848 -0.270719 -0.002253 0.011553
    65 -0.586770 -1.264477 0.200161 0.285016 -0.389971 -2.736796
    66 1.554086 0.035243 0.016848 -0.012995 -0.005109 0.677633
    67 1.114041 0.044518 -0.005766 -0.023493 -0.034846 0.870265
    68 -0.139399 -0.111698 0.014397 0.285382 -0.030687 1.580508
    69 -7.659286 3.764804 -0.434751 1.574560 -0.030430 -0.544131
  time 9
    0 4.544828 -10.676107 -2.260551 0.140249 -1.513660 1.389056
    1 0.175067 0.000001 -0.441901 0.000000 2.961131 0.000000
    2 1.308148 0.000002 -2.773321 0.000000 1.570796 0.000000
    3 0.288223 0.000002 -1.760515 0.000001 2.906820 0.000000
    4 1.777917 0.000003 -1.538403 0.000000 0.000000 0.000000
    5 1.370997 0.000001 0.465008 0.000000 0.000000 0.000000
    6 1.370997 0.000001 1.858715 0.000000 0.000000 0.000000
    7 1.370997 0.000002 3.205663 0.000000 0.000000 0.000000
    8 1.100837 -0.299999 0.795626 0.000000 0.000000 0.000000
    9 0.500512 -0.050225 4.281536 0.000000 0.000000 -0.698132
    10 1.100836 0.300001 0.795626 0.000000 0.000000 0.000000
    11 0.500512 0.048657 4.281537 0.000001 -3.141592 0.698132
    12 0.766094 -0.199999 0.795625 0.000000 0.000000 0.000000
    13 1.364395 0.318640 5.371607 0.000000 0.000001 1.570797
    14 0.271427 0.000000 0.000000 0.000000 1.570451 0.000000
    15 0.041745 0.300001 3.408082 0.000000 0.000000 0.000000
    16 0.429286 0.052139 1.669081 -3.141592 0.000000 -0.698131
    17 0.041745 -0.299999 3.408082 0.000000 0.000000 0.000000
    18 0.429287 -0.053707 1.669081 0.000000 0.000000 -2.443461
    19 1.364395 -0.317138 5.371605 0.000000 3.141592 -1.570796
    20 -0.271838 -0.000001 0.000000 0.000000 1.570451 0.000000
    21 0.335183 0.000002 0.465008 0.000000 0.000000 0.000000
    22 0.335183 0.000002 1.858715 0.000000 0.000000 0.000000
    23 0.335183 0.000002 3.205663 0.000000 0.000000 0.000000
    24 0.209940 0.000002 0.944198 0.000000 0.000000 0.000000
    25 0.807932 0.000004 -20.785281 0.000000 0.000000 -1.570796
    26 0.000000 0.246335 0.508674 0.000000 -0.959931 1.570796
    27 0.000000 0.508898 -0.245509 0.000000 0.610866 1.570796
    28 0.000000 -0.508816 0.248039 -3.141592 -0.610865 -1.570796
    29 0.000000 -0.243886 -0.509852 -3.141592 0.959931 -1.570796
    30 -0.354571 0.000000 0.000000 0.000000 0.000000 0.000000
    31 -0.002752 3.342587 0.258440 0.000000 0.000000 0.000000
    32 6.774870 -1.502623 -7.733593 0.729830 -2.133426 -0.759121
    33 8.058169 0.121696 -0.384189 1.570397 -3.115209 0.092541
    34 -0.013325 -8.412796 -0.096321 -0.239021 0.516394 -0.226356
    35 -0.488518 -2.755602 -0.228260 -0.766236 0.150576 -0.247340
    36 0.039887 -1.542292 0.018135 -1.761766 -0.008545 0.039514
    37 0.028786 -1.204641 -0.132487 -1.335364 -0.014549 0.029914
    38 0.250027 -2.820665 -0.238396 -0.453644 0.111448 -0.153181
    39 -0.049759 -1.594604 0.018445 -1.732233 -0.003667 -0.045064
    40 -0.034142 -1.175657 0.045718 -1.262271 0.005501 -0.033317
    41 0.957766 -2.746780 -0.090302 0.358412 -0.102102 0.146891
    42 -0.033420 -1.397129 -0.030789 -1.033939 0.003104 -0.050456
    43 -0.022360 -0.957436 0.003159 -0.632688 0.007922 -0.030609
    44 -1.180681 -2.507217 -0.193859 -0.514868 0.292895 -0.210814
    45 -0.024967 -1.127840 0.017597 -1.148218 0.000863 -0.048860
    46 -0.020057 -0.906594 0.045247 -1.424518 -0.004650 -0.057334
    47 0.626480 -1.197277 0.185379 0.471830 -1.045322 -0.449285
    48 1.446081 -0.251481 0.079230 0.075080 -0.244437 -0.913110
    49 0.975767 -0.198604 0.051823 0.125319 -0.269236 -1.207133
    50 0.120153 -0.050270 -0.054489 0.287569 3.110905 1.561085
    51 -1.852848 -3.606210 -8.556232 -1.856568 -4.910553 -1.112950
    52 -0.106187 -8.555890 0.053137 0.854612 -1.002441 -0.778346
    53 0.447953 -2.798986 -0.200443 -0.829257 -0.079427 0.328181
    54 -0.032909 -1.495829 0.012753 -0.820298 0.017977 -0.011359
    55 -0.027022 -1.096452 -0.028023 -0.513435 0.013471 -0.005429
    56 -0.249534 -2.846964 -0.174213 -0.495269 0.063861 -0.074779
    57 0.043235 -1.660503 0.080387 -1.014692 -0.016652 0.001691
    58 0.031729 -1.153017 0.058838 -0.561639 -0.005362 0.005508
    59 -0.963866 -2.785145 -0.085350 -0.322832 0.147259 -0.237960
    60 0.028479 -1.403067 -0.017167 -0.880540 -0.021932 -0.032406
    61 0.021413 -0.957781 0.020046 -0.175962 -0.002013 -0.007862
    62 1.164475 -2.543940 -0.170330 -1.089862 -0.224115 0.413438
    63 0.024032 -1.132948 0.002182 -0.585536 0.000108 0.031473
    64 0.014898 -0.887895 -0.019848 -0.270719 -0.002253 0.011553
    65 -0.586770 -1.264477 0.200161 0.285016 -0.389971 -2.736796
    66 1.554086 0.035243 0.016848 -0.012995 -0.005109 0.677633
    67 1.114041 0.044518 -0.005766 -0.023493 -0.034846 0.870265
    68 -0.139399 -0.111698 0.014397 0.285382 -0.030687 1.580508
    69 -7.635848 3.823399 -0.434751 1.574692 -0.030287 -0.551589
  time 10
    0 4.525297 -10.781579 -2.397274 0.157955 -1.536400 1.373245
    1 0.175067 0.000001 -0.441901 0.000000 3.141592 0.000000
    2 1.308148 0.000002 -2.773321 0.000000 1.570796 0.000000
    3 0.288223 0.000002 -1.760515 0.000001 2.906820 0.000000
    4 1.777917 0.000003 -1.538403 0.000000 0.000000 0.000000
    5 1.370997 0.000001 0.465008 0.000000 0.000000 0.000000
    6 1.370997 0.000001 1.858715 0.000000 0.000000 0.000000
    7 1.370997 0.000002 3.205663 0.000000 0.000000 0.000000
    8 1.100837 -0.299999 0.795626 0.000000 0.000000 0.000000
    9 0.500512 -0.050225 4.281536 0.000000 0.000000 -0.698132
    10 1.100836 0.300001 0.795626 0.000000 0.000000 0.000000
    11 0.500512 0.048657 4.281537 0.000001 -3.141592 0.698132
    12 0.766094 -0.199999 0.795625 0.000000 0.000000 0.000000
    13 1.364395 0.318640 5.371607 0.000000 0.000001 1.570797
    14 0.271427 0.000000 0.000000 0.000000 1.570451 0.000000
    15 0.041745 0.300001 3.408082 0.000000 0.000000 0.000000
    16 0.429286 0.052139 1.669081 -3.141592 0.000000 -0.698131
    17 0.041745 -0.299999 3.408082 0.000000 0.000000 0.000000
    18 0.429287 -0.053707 1.669081 0.000000 0.000000 -2.443461
    19 1.364395 -0.317138 5.371605 0.000000 3.141592 -1.570796
    20 -0.271838 -0.000001 0.000000 0.000000 1.570451 0.000000
    21 0.335183 0.000002 0.465008 0.000000 0.000000 0.000000
    22 0.335183 0.000002 1.858715 0.000000 0.000000 0.000000
    23 0.335183 0.000002 3.205663 0.000000 0.000000 0.000000
    24 0.209940 0.000002 0.944198 0.000000 0.000000 0.000000
    25 0.807932 0.000004 -20.785281 0.000000 0.000000 -1.570796
    26 0.000000 0.246335 0.508674 0.000000 -0.959931 1.570796
    27 0.000000 0.508898 -0.245509 0.000000 0.610866 1.570796
    28 0.000000 -0.508816 0.248039 -3.141592 -0.610865 -1.570796
    29 0.000000 -0.243886 -0.509852 -3.141592 0.959931 -1.570796
    30 -0.354571 0.000000 0.000000 0.000000 0.000000 0.000000
    31 -0.002752 3.342587 0.258440 0.000000 0.000000 0.000000
    32 6.763151 -1.549500 -7.729686 0.724653 -2.129841 -0.756082
    33 8.062075 0.219355 -0.384189 1.570205 -3.115401 0.104545
    34 -0.009419 -8.408890 -0.096321 -0.244611 0.511983 -0.246660
    35 -0.488518 -2.755602 -0.228260 -0.766236 0.150576 -0.247340
    36 0.039887 -1.542292 0.018135 -1.761766 -0.008545 0.039514
    37 0.028786 -1.204641 -0.132487 -1.335364 -0.014549 0.029914
    38 0.250027 -2.820665 -0.238396 -0.453644 0.111448 -0.153181
    39 -0.049759 -1.594604 0.018445 -1.732233 -0.003667 -0.045064
    40 -0.034142 -1.175657 0.045718 -1.262271 0.005501 -0.033317
    41 0.957766 -2.746780 -0.090302 0.362403 -0.102270 0.147011
    42 -0.033420 -1.397129 -0.030789 -1.014562 0.003523 -0.049569
    43 -0.022360 -0.957436 0.003159 -0.609401 0.007982 -0.029434
    44 -1.180681 -2.507217 -0.193859 -0.514868 0.292895 -0.210814
    45 -0.024967 -1.127840 0.017597 -1.148218 0.000863 -0.048860
    46 -0.020057 -0.906594 0.045247 -1.424518 -0.004650 -0.057334
    47 0.626480 -1.197277 0.185379 0.471830 -1.045322 -0.449285
    48 1.446081 -0.251481 0.079230 0.075080 -0.244437 -0.913110
    49 0.975767 -0.198604 0.051823 0.125319 -0.269236 -1.207133
    50 0.120153 -0.050270 -0.054489 0.287569 3.110905 1.561085
    51 -1.860661 -3.606210 -8.564045 -1.864745 -4.906005 -1.122248
    52 -0.114000 -8.559797 0.049231 0.878732 -1.015507 -0.789429
    53 0.447953 -2.798986 -0.200443 -0.829257 -0.079427 0.328181
    54 -0.032909 -1.495829 0.012753 -0.820298 0.017977 -0.011359
    55 -0.027022 -1.096452 -0.028023 -0.513435 0.013471 -0.005429
    56 -0.249534 -2.846964 -0.174213 -0.495269 0.063861 -0.074779
    57 0.043235 -1.660503 0.080387 -1.014692 -0.016652 0.001691
    58 0.031729 -1.153017 0.058838 -0.561639 -0.005362 0.005508
    59 -0.963866 -2.785145 -0.085350 -0.322832 0.147259 -0.237960
    60 0.028479 -1.403067 -0.017167 -0.880540 -0.021932 -0.032406
    61 0.021413 -0.957781 0.020046 -0.175962 -0.002013 -0.007862
    62 1.164475 -2.543940 -0.170330 -1.089862 -0.224115 0.413438
    63 0.024032 -1.132948 0.002182 -0.585536 0.000108 0.031473
    64 0.014898 -0.887895 -0.019848 -0.270719 -0.002253 0.011553
    65 -0.586770 -1.264477 0.200161 0.285016 -0.389971 -2.736796
    66 1.554086 0.035243 0.016848 -0.012995 -0.005109 0.677633
    67 1.114041 0.044518 -0.005766 -0.023493 -0.034846 0.870265
    68 -0.139399 -0.111698 0.014397 0.285382 -0.030687 1.580508
    69 -7.624129 3.850744 -0.434751 1.574764 -0.030215 -0.555200
  time 11
    0 4.521390 -10.812830 -2.432431 0.168770 -1.542382 1.362704
    1 0.175067 0.000001 -0.441901 0.000000 3.141592 0.000000
    2 1.308148 0.000002 -2.773321 0.000000 1.570796 0.000000
    3 0.288223 0.000002 -1.760515 0.000001 2.906820 0.000000
    4 1.777917 0.000003 -1.538403 0.000000 0.000000 0.000000
    5 1.370997 0.000001 0.465008 0.000000 0.000000 0.000000
    6 1.370997 0.000001 1.858715 0.000000 0.000000 0.000000
    7 1.370997 0.000002 3.205663 0.000000 0.000000 0.000000
    8 1.100837 -0.299999 0.795626 0.000000 0.000000 0.000000
    9 0.500512 -0.050225 4.281536 0.000000 0.000000 -0.698132
    10 1.100836 0.300001 0.795626 0.000000 0.000000 0.000000
    11 0.500512 0.048657 4.281537 0.000001 -3.141592 0.698132
    12 0.766094 -0.199999 0.795625 0.000000 0.000000 0.000000
    13 1.364395 0.318640 5.371607 0.000000 0.000001 1.570797
    14 0.271427 0.000000 0.000000 0.000000 1.570451 0.000000
    15 0.041745 0.300001 3.408082 0.000000 0.000000 0.000000
    16 0.429286 0.052139 1.669081 -3.141592 0.000000 -0.698131
    17 0.041745 -0.299999 3.408082 0.000000 0.000000 0.000000
    18 0.429287 -0.053707 1.669081 0.000000 0.000000 -2.443461
    19 1.364395 -0.317138 5.371605 0.000000 3.141592 -1.570796
    20 -0.271838 -0.000001 0.000000 0.000000 1.570451 0.000000
    21 0.335183 0.000002 0.465008 0.000000 0.000000 0.000000
    22 0.335183 0.000002 1.858715 0.000000 0.000000 0.000000
    23 0.335183 0.000002 3.205663 0.000000 0.000000 0.000000
    24 0.209940 0.000002 0.944198 0.000000 0.000000 0.000000
    25 0.807932 0.000004 -20.785281 0.000000 0.000000 -1.570796
    26 0.000000 0.246335 0.508674 0.000000 -0.959931 1.570796
    27 0.000000 0.508898 -0.245509 0.000000 0.610866 1.570796
    28 0.000000 -0.508816 0.248039 -3.141592 -0.610865 -1.570796
    29 0.000000 -0.243886 -0.509852 -3.141592 0.959931 -1.570796
    30 -0.354571 0.000000 0.000000 0.000000 0.000000 0.000000
    31 -0.002752 3.342587 0.258440 0.000000 0.000000 0.000000
    32 6.763151 -1.561219 -7.725780 0.723119 -2.128830 -0.755234
    33 8.065982 0.246700 -0.384189 1.570109 -3.115497 0.108080
    34 -0.009419 -8.408890 -0.096321 -0.246044 0.510819 -0.251850
    35 -0.488518 -2.755602 -0.228260 -0.766236 0.150576 -0.247340
    36 0.039887 -1.542292 0.018135 -1.761766 -0.008545 0.039514
    37 0.028786 -1.204641 -0.132487 -1.335364 -0.014549 0.029914
    38 0.250027 -2.820665 -0.238396 -0.453644 0.111448 -0.153181
    39 -0.049759 -1.594604 0.018445 -1.732233 -0.003667 -0.045064
    40 -0.034142 -1.175657 0.045718 -1.262271 0.005501 -0.033317
    41 0.957766 -2.746780 -0.090302 0.363625 -0.102318 0.147047
    42 -0.033420 -1.397129 -0.026882 -1.008591 0.003655 -0.049306
    43 -0.022360 -0.957436 0.003159 -0.602232 0.007994 -0.029075
    44 -1.180681 -2.507217 -0.193859 -0.514868 0.292895 -0.210814
    45 -0.024967 -1.127840 0.017597 -1.148218 0.000863 -0.048860
    46 -0.020057 -0.906594 0.045247 -1.424518 -0.004650 -0.057334
    47 0.626480 -1.197277 0.185379 0.471830 -1.045322 -0.449285
    48 1.446081 -0.251481 0.079230 0.075080 -0.244437 -0.913110
    49 0.975767 -0.198604 0.051823 0.125319 -0.269236 -1.207133
    50 0.120153 -0.050270 -0.054489 0.287569 3.110905 1.561085
    51 -1.860661 -3.606210 -8.564045 -1.867240 -4.904783 -1.125095
    52 -0.114000 -8.559797 0.049231 0.885124 -1.018985 -0.792402
    53 0.447953 -2.798986 -0.200443 -0.829257 -0.079427 0.328181
    54 -0.032909 -1.495829 0.012753 -0.820298 0.017977 -0.011359
    55 -0.027022 -1.096452 -0.028023 -0.513435 0.013471 -0.005429
    56 -0.249534 -2.846964 -0.174213 -0.495269 0.063861 -0.074779
    57 0.043235 -1.660503 0.080387 -1.014692 -0.016652 0.001691
    58 0.031729 -1.153017 0.058838 -0.561639 -0.005362 0.005508
    59 -0.963866 -2.785145 -0.085350 -0.322832 0.147259 -0.237960
    60 0.028479 -1.403067 -0.017167 -0.880540 -0.021932 -0.032406
    61 0.021413 -0.957781 0.020046 -0.175962 -0.002013 -0.007862
    62 1.164475 -2.543940 -0.170330 -1.089862 -0.224115 0.413438
    63 0.024032 -1.132948 0.002182 -0.585536 0.000108 0.031473
    64 0.014898 -0.887895 -0.019848 -0.270719 -0.002253 0.011553
    65 -0.586770 -1.264477 0.200161 0.285016 -0.389971 -2.736796
    66 1.554086 0.035243 0.016848 -0.012995 -0.005109 0.677633
    67 1.114041 0.044518 -0.005766 -0.023493 -0.034846 0.870265
    68 -0.139399 -0.111698 0.014397 0.285382 -0.030687 1.580508
    69 -7.620223 3.858556 -0.434751 1.574788 -0.030203 -0.556378
  time 12
    0 4.517484 -10.828455 -2.455869 0.177097 -1.545813 1.354655
    1 0.175067 0.000001 -0.441901 0.000000 3.141592 0.000000
    2 1.308148 0.000002 -2.773321 0.000000 1.570796 0.000000
    3 0.288223 0.000002 -1.760515 0.000001 2.906820 0.000000
    4 1.777917 0.000003 -1.538403 0.000000 0.000000 0.000000
    5 1.370997 0.000001 0.465008 0.000000 0.000000 0.000000
    6 1.370997 0.000001 1.858715 0.000000 0.000000 0.000000
    7 1.370997 0.000002 3.205663 0.000000 0.000000 0.000000
    8 1.100837 -0.299999 0.795626 0.000000 0.000000 0.000000
    9 0.500512 -0.050225 4.281536 0.000000 0.000000 -0.698132
    10 1.100836 0.300001 0.795626 0.000000 0.000000 0.000000
    11 0.500512 0.048657 4.281537 0.000001 -3.141592 0.698132
    12 0.766094 -0.199999 0.795625 0.000000 0.000000 0.000000
    13 1.364395 0.318640 5.371607 0.000000 0.000001 1.570797
    14 0.271427 0.000000 0.000000 0.000000 1.570451 0.000000
    15 0.041745 0.300001 3.408082 0.000000 0.000000 0.000000
    16 0.429286 0.052139 1.669081 -3.141592 0.000000 -0.698131
    17 0.041745 -0.299999 3.408082 0.000000 0.000000 0.000000
    18 0.429287 -0.053707 1.669081 0.000000 0.000000 -2.443461
    19 1.364395 -0.317138 5.371605 0.000000 3.141592 -1.570796
    20 -0.271838 -0.000001 0.000000 0.000000 1.570451 0.000000
    21 0.335183 0.000002 0.465008 0.000000 0.000000 0.000000
    22 0.335183 0.000002 1.858715 0.000000 0.000000 0.000000
    23 0.335183 0.000002 3.205663 0.000000 0.000000 0.000000
    24 0.209940 0.000002 0.944198 0.000000 0.000000 0.000000
    25 0.807932 0.000004 -20.785281 0.000000 0.000000 -1.570796
    26 0.000000 0.246335 0.508674 0.000000 -0.959931 1.570796
    27 0.000000 0.508898 -0.245509 0.000000 0.610866 1.570796
    28 0.000000 -0.508816 0.248039 -3.141592 -0.610865 -1.570796
    29 0.000000 -0.243886 -0.509852 -3.141592 0.959931 -1.570796
    30 -0.354571 0.000000 0.000000 0.000000 0.000000 0.000000
    31 -0.002752 3.342587 0.258440 0.000000 0.000000 0.000000
    32 6.759244 -1.572938 -7.725780 0.722352 -2.128186 -0.754736
    33 8.065982 0.262325 -0.384189 1.570109 -3.115497 0.110136
    34 -0.009419 -8.408890 -0.096321 -0.246904 0.510189 -0.254873
    35 -0.488518 -2.755602 -0.228260 -0.766236 0.150576 -0.247340
    36 0.039887 -1.542292 0.018135 -1.761766 -0.008545 0.039514
    37 0.028786 -1.204641 -0.132487 -1.335364 -0.014549 0.029914
    38 0.250027 -2.820665 -0.238396 -0.453644 0.111448 -0.153181
    39 -0.049759 -1.594604 0.018445 -1.732233 -0.003667 -0.045064
    40 -0.034142 -1.175657 0.045718 -1.262271 0.005501 -0.033317
    41 0.957766 -2.746780 -0.090302 0.364332 -0.102342 0.147071
    42 -0.033420 -1.397129 -0.026882 -1.005111 0.003727 -0.049138
    43 -0.022360 -0.957436 0.003159 -0.598064 0.008006 -0.028859
    44 -1.180681 -2.507217 -0.193859 -0.514868 0.292895 -0.210814
    45 -0.024967 -1.127840 0.017597 -1.148218 0.000863 -0.048860
    46 -0.020057 -0.906594 0.045247 -1.424518 -0.004650 -0.057334
    47 0.626480 -1.197277 0.185379 0.471830 -1.045322 -0.449285
    48 1.446081 -0.251481 0.079230 0.075080 -0.244437 -0.913110
    49 0.975767 -0.198604 0.051823 0.125319 -0.269236 -1.207133
    50 0.120153 -0.050270 -0.054489 0.287569 3.110905 1.561085
    51 -1.860661 -3.606210 -8.564045 -1.868695 -4.904104 -1.126802
    52 -0.114000 -8.559797 0.049231 0.888819 -1.020991 -0.794165
    53 0.447953 -2.798986 -0.200443 -0.829257 -0.079427 0.328181
    54 -0.032909 -1.495829 0.012753 -0.820298 0.017977 -0.011359
    55 -0.027022 -1.096452 -0.028023 -0.513435 0.013471 -0.005429
    56 -0.249534 -2.846964 -0.174213 -0.495269 0.063861 -0.074779
    57 0.043235 -1.660503 0.080387 -1.014692 -0.016652 0.001691
    58 0.031729 -1.153017 0.058838 -0.561639 -0.005362 0.005508
    59 -0.963866 -2.785145 -0.085350 -0.322832 0.147259 -0.237960
    60 0.028479 -1.403067 -0.017167 -0.880540 -0.021932 -0.032406
    61 0.021413 -0.957781 0.020046 -0.175962 -0.002013 -0.007862
    62 1.164475 -2.543940 -0.170330 -1.089862 -0.224115 0.413438
    63 0.024032 -1.132948 0.002182 -0.585536 0.000108 0.031473
    64 0.014898 -0.887895 -0.019848 -0.270719 -0.002253 0.011553
    65 -0.586770 -1.264477 0.200161 0.285016 -0.389971 -2.736796
    66 1.554086 0.035243 0.016848 -0.012995 -0.005109 0.677633
    67 1.114041 0.044518 -0.005766 -0.023493 -0.034846 0.870265
    68 -0.139399 -0.111698 0.014397 0.285382 -0.030687 1.580508
    69 -7.616316 3.866369 -0.434751 1.574800 -0.030179 -0.557006
  time 13
    0 4.517484 -10.836268 -2.463682 0.180829 -1.547220 1.351109
    1 0.175067 0.000001 -0.441901 0.000000 3.141592 0.000000
    2 1.308148 0.000002 -2.773321 0.000000 1.570796 0.000000
    3 0.288223 0.000002 -1.760515 0.000001 2.906820 0.000000
    4 1.777917 0.000003 -1.538403 0.000000 0.000000 0.000000
    5 1.370997 0.000001 0.465008 0.000000 0.000000 0.000000
    6 1.370997 0.000001 1.858715 0.000000 0.000000 0.000000
    7 1.370997 0.000002 3.205663 0.000000 0.000000 0.000000
    8 1.100837 -0.299999 0.795626 0.000000 0.000000 0.000000
    9 0.500512 -0.050225 4.281536 0.000000 0.000000 -0.698132
    10 1.100836 0.300001 0.795626 0.000000 0.000000 0.000000
    11 0.500512 0.048657 4.281537 0.000001 -3.141592 0.698132
    12 0.766094 -0.199999 0.795625 0.000000 0.000000 0.000000
    13 1.364395 0.318640 5.371607 0.000000 0.000001 1.570797
    14 0.271427 0.000000 0.000000 0.000000 1.570451 0.000000
    15 0.041745 0.300001 3.408082 0.000000 0.000000 0.000000
    16 0.429286 0.052139 1.669081 -3.141592 0.000000 -0.698131
    17 0.041745 -0.299999 3.408082 0.000000 0.000000 0.000000
    18 0.429287 -0.053707 1.669081 0.000000 0.000000 -2.443461
    19 1.364395 -0.317138 5.371605 0.000000 3.141592 -1.570796
    20 -0.271838 -0.000001 0.000000 0.000000 1.570451 0.000000
    21 0.335183 0.000002 0.465008 0.000000 0.000000 0.000000
    22 0.335183 0.000002 1.858715 0.000000 0.000000 0.000000
    23 0.335183 0.000002 3.205663 0.000000 0.000000 0.000000
    24 0.209940 0.000002 0.944198 0.000000 0.000000 0.000000
    25 0.807932 0.000004 -20.785281 0.000000 0.000000 -1.570796
    26 0.000000 0.246335 0.508674 0.000000 -0.959931 1.570796
    27 0.000000 0.508898 -0.245509 0.000000 0.610866 1.570796
    28 0.000000 -0.508816 0.248039 -3.141592 -0.610865 -1.570796
    29 0.000000 -0.243886 -0.509852 -3.141592 0.959931 -1.570796
    30 -0.354571 0.000000 0.000000 0.000000 0.000000 0.000000
    31 -0.002752 3.342587 0.258440 0.000000 0.000000 0.000000
    32 6.759244 -1.572938 -7.721874 0.721969 -2.128002 -0.754537
    33 8.065982 0.270138 -0.384189 1.570109 -3.115497 0.111040
    34 -0.009419 -8.408890 -0.096321 -0.247238 0.509898 -0.256128
    35 -0.488518 -2.755602 -0.228260 -0.766236 0.150576 -0.247340
    36 0.039887 -1.542292 0.018135 -1.761766 -0.008545 0.039514
    37 0.028786 -1.204641 -0.132487 -1.335364 -0.014549 0.029914
    38 0.250027 -2.820665 -0.238396 -0.453644 0.111448 -0.153181
    39 -0.049759 -1.594604 0.018445 -1.732233 -0.003667 -0.045064
    40 -0.034142 -1.175657 0.045718 -1.262271 0.005501 -0.033317
    41 0.957766 -2.746780 -0.090302 0.364620 -0.102354 0.147083
    42 -0.033420 -1.397129 -0.026882 -1.003727 0.003763 -0.049078
    43 -0.022360 -0.957436 0.003159 -0.596391 0.008006 -0.028775
    44 -1.180681 -2.507217 -0.193859 -0.514868 0.292895 -0.210814
    45 -0.024967 -1.127840 0.017597 -1.148218 0.000863 -0.048860
    46 -0.020057 -0.906594 0.045247 -1.424518 -0.004650 -0.057334
    47 0.626480 -1.197277 0.185379 0.471830 -1.045322 -0.449285
    48 1.446081 -0.251481 0.079230 0.075080 -0.244437 -0.913110
    49 0.975767 -0.198604 0.051823 0.125319 -0.269236 -1.207133
    50 0.120153 -0.050270 -0.054489 0.287569 3.110905 1.561085
    51 -1.860661 -3.606210 -8.564045 -1.869250 -4.903833 -1.127467
    52 -0.114000 -8.559797 0.049231 0.890317 -1.021794 -0.794871
    53 0.447953 -2.798986 -0.200443 -0.829257 -0.079427 0.328181
    54 -0.032909 -1.495829 0.012753 -0.820298 0.017977 -0.011359
    55 -0.027022 -1.096452 -0.028023 -0.513435 0.013471 -0.005429
    56 -0.249534 -2.846964 -0.174213 -0.495269 0.063861 -0.074779
    57 0.043235 -1.660503 0.080387 -1.014692 -0.016652 0.001691
    58 0.031729 -1.153017 0.058838 -0.561639 -0.005362 0.005508
    59 -0.963866 -2.785145 -0.085350 -0.322832 0.147259 -0.237960
    60 0.028479 -1.403067 -0.017167 -0.880540 -0.021932 -0.032406
    61 0.021413 -0.957781 0.020046 -0.175962 -0.002013 -0.007862
    62 1.164475 -2.543940 -0.170330 -1.089862 -0.224115 0.413438
    63 0.024032 -1.132948 0.002182 -0.585536 0.000108 0.031473
    64 0.014898 -0.887895 -0.019848 -0.270719 -0.002253 0.011553
    65 -0.586770 -1.264477 0.200161 0.285016 -0.389971 -2.736796
    66 1.554086 0.035243 0.016848 -0.012995 -0.005109 0.677633
    67 1.114041 0.044518 -0.005766 -0.023493 -0.034846 0.870265
    68 -0.139399 -0.111698 0.014397 0.285382 -0.030687 1.580508
    69 -7.616316 3.866369 -0.434751 1.574800 -0.030179 -0.557241
  time 14
    0 4.517484 -10.836268 -2.463682 0.179681 -1.547000 1.352259
    1 0.175067 0.000001 -0.441901 0.000000 3.141592 0.000000
    2 1.308148 0.000002 -2.773321 0.000000 1.570796 0.000000
    3 0.288223 0.000002 -1.760515 0.000001 2.906820 0.000000
    4 1.777917 0.000003 -1.538403 0.000000 0.000000 0.000000
    5 1.370997 0.000001 0.465008 0.000000 0.000000 0.000000
    6 1.370997 0.000001 1.858715 0.000000 0.000000 0.000000
    7 1.370997 0.000002 3.205663 0.000000 0.000000 0.000000
    8 1.100837 -0.299999 0.795626 0.000000 0.000000 0.000000
    9 0.500512 -0.050225 4.281536 0.000000 0.000000 -0.698132
    10 1.100836 0.300001 0.795626 0.000000 0.000000 0.000000
    11 0.500512 0.048657 4.281537 0.000001 -3.141592 0.698132
    12 0.766094 -0.199999 0.795625 0.000000 0.000000 0.000000
    13 1.364395 0.318640 5.371607 0.000000 0.000001 1.570797
    14 0.271427 0.000000 0.000000 0.000000 1.570451 0.000000
    15 0.041745 0.300001 3.408082 0.000000 0.000000 0.000000
    16 0.429286 0.052139 1.669081 -3.141592 0.000000 -0.698131
    17 0.041745 -0.299999 3.408082 0.000000 0.000000 0.000000
    18 0.429287 -0.053707 1.669081 0.000000 0.000000 -2.443461
    19 1.364395 -0.317138 5.371605 0.000000 3.141592 -1.570796
    20 -0.271838 -0.000001 0.000000 0.000000 1.570451 0.000000
    21 0.335183 0.000002 0.465008 0.000000 0.000000 0.000000
    22 0.335183 0.000002 1.858715 0.000000 0.000000 0.000000
    23 0.335183 0.000002 3.205663 0.000000 0.000000 0.000000
    24 0.209940 0.000002 0.944198 0.000000 0.000000 0.000000
    25 0.807932 0.000004 -20.785281 0.000000 0.000000 -1.570796
    26 0.000000 0.246335 0.508674 0.000000 -0.959931 1.570796
    27 0.000000 0.508898 -0.245509 0.000000 0.610866 1.570796
    28 0.000000 -0.508816 0.248039 -3.141592 -0.610865 -1.570796
    29 0.000000 -0.243886 -0.509852 -3.141592 0.959931 -1.570796
    30 -0.354571 0.000000 0.000000 0.000000 0.000000 0.000000
    31 -0.002752 3.342587 0.258440 0.000000 0.000000 0.000000
    32 6.759244 -1.572938 -7.721874 0.722065 -2.128094 -0.754636
    33 8.065982 0.270138 -0.384189 1.570109 -3.115497 0.110875
    34 -0.009419 -8.408890 -0.096321 -0.247190 0.509947 -0.255957
    35 -0.488518 -2.755602 -0.228260 -0.766236 0.150576 -0.247340
    36 0.039887 -1.542292 0.018135 -1.761766 -0.008545 0.039514
    37 0.028786 -1.204641 -0.132487 -1.335364 -0.014549 0.029914
    38 0.250027 -2.820665 -0.238396 -0.453644 0.111448 -0.153181
    39 -0.049759 -1.594604 0.018445 -1.732233 -0.003667 -0.045064
    40 -0.034142 -1.175657 0.045718 -1.262271 0.005501 -0.033317
    41 0.957766 -2.746780 -0.090302 0.364584 -0.102354 0.147083
    42 -0.033420 -1.397129 -0.026882 -1.003964 0.003751 -0.049090
    43 -0.022360 -0.957436 0.003159 -0.596656 0.008006 -0.028787
    44 -1.180681 -2.507217 -0.193859 -0.514868 0.292895 -0.210814
    45 -0.024967 -1.127840 0.017597 -1.148218 0.000863 -0.048860
    46 -0.020057 -0.906594 0.045247 -1.424518 -0.004650 -0.057334
    47 0.626480 -1.197277 0.185379 0.471830 -1.045322 -0.449285
    48 1.446081 -0.251481 0.079230 0.075080 -0.244437 -0.913110
    49 0.975767 -0.198604 0.051823 0.125319 -0.269236 -1.207133
    50 0.120153 -0.050270 -0.054489 0.287569 3.110905 1.561085
    51 -1.860661 -3.606210 -8.564045 -1.869111 -4.903901 -1.127277
    52 -0.114000 -8.559797 0.049231 0.890067 -1.021705 -0.794719
    53 0.447953 -2.798986 -0.200443 -0.829257 -0.079427 0.328181
    54 -0.032909 -1.495829 0.012753 -0.820298 0.017977 -0.011359
    55 -0.027022 -1.096452 -0.028023 -0.513435 0.013471 -0.005429
    56 -0.249534 -2.846964 -0.174213 -0.495269 0.063861 -0.074779
    57 0.043235 -1.660503 0.080387 -1.014692 -0.016652 0.001691
    58 0.031729 -1.153017 0.058838 -0.561639 -0.005362 0.005508
    59 -0.963866 -2.785145 -0.085350 -0.322832 0.147259 -0.237960
    60 0.028479 -1.403067 -0.017167 -0.880540 -0.021932 -0.032406
    61 0.021413 -0.957781 0.020046 -0.175962 -0.002013 -0.007862
    62 1.164475 -2.543940 -0.170330 -1.089862 -0.224115 0.413438
    63 0.024032 -1.132948 0.002182 -0.585536 0.000108 0.031473
    64 0.014898 -0.887895 -0.019848 -0.270719 -0.002253 0.011553
    65 -0.586770 -1.264477 0.200161 0.285016 -0.389971 -2.736796
    66 1.554086 0.035243 0.016848 -0.012995 -0.005109 0.677633
    67 1.114041 0.044518 -0.005766 -0.023493 -0.034846 0.870265
    68 -0.139399 -0.111698 0.014397 0.285382 -0.030687 1.580508
    69 -7.616316 3.866369 -0.434751 1.574800 -0.030179 -0.557241
  time 15
    0 4.517484 -10.828455 -2.451963 0.175278 -1.545593 1.356476
    1 0.175067 0.000001 -0.441901 0.000000 3.141592 0.000000
    2 1.308148 0.000002 -2.773321 0.000000 1.570796 0.000000
    3 0.288223 0.000002 -1.760515 0.000001 2.906820 0.000000
    4 1.777917 0.000003 -1.538403 0.000000 0.000000 0.000000
    5 1.370997 0.000001 0.465008 0.000000 0.000000 0.000000
    6 1.370997 0.000001 1.858715 0.000000 0.000000 0.000000
    7 1.370997 0.000002 3.205663 0.000000 0.000000 0.000000
    8 1.100837 -0.299999 0.795626 0.000000 0.000000 0.000000
    9 0.500512 -0.050225 4.281536 0.000000 0.000000 -0.698132
    10 1.100836 0.300001 0.795626 0.000000 0.000000 0.000000
    11 0.500512 0.048657 4.281537 0.000001 -3.141592 0.698132
    12 0.766094 -0.199999 0.795625 0.000000 0.000000 0.000000
    13 1.364395 0.318640 5.371607 0.000000 0.000001 1.570797
    14 0.271427 0.000000 0.000000 0.000000 1.570451 0.000000
    15 0.041745 0.300001 3.408082 0.000000 0.000000 0.000000
    16 0.429286 0.052139 1.669081 -3.141592 0.000000 -0.698131
    17 0.041745 -0.299999 3.408082 0.000000 0.000000 0.000000
    18 0.429287 -0.053707 1.669081 0.000000 0.000000 -2.443461
    19 1.364395 -0.317138 5.371605 0.000000 3.141592 -1.570796
    20 -0.271838 -0.000001 0.000000 0.000000 1.570451 0.000000
    21 0.335183 0.000002 0.465008 0.000000 0.000000 0.000000
    22 0.335183 0.000002 1.858715 0.000000 0.000000 0.000000
    23 0.335183 0.000002 3.205663 0.000000 0.000000 0.000000
    24 0.209940 0.000002 0.944198 0.000000 0.000000 0.000000
    25 0.807932 0.000004 -20.785281 0.000000 0.000000 -1.570796
    26 0.000000 0.246335 0.508674 0.000000 -0.959931 1.570796
    27 0.000000 0.508898 -0.245509 0.000000 0.610866 1.570796
    28 0.000000 -0.508816 0.248039 -3.141592 -0.610865 -1.570796
    29 0.000000 -0.243886 -0.509852 -3.141592 0.959931 -1.570796
    30 -0.354571 0.000000 0.000000 0.000000 0.000000 0.000000
    31 -0.002752 3.342587 0.258440 0.000000 0.000000 0.000000
    32 6.759244 -1.572938 -7.725780 0.722448 -2.128370 -0.754885
    33 8.065982 0.262325 -0.384189 1.570109 -3.115497 0.109971
    34 -0.009419 -8.408890 -0.096321 -0.246856 0.510189 -0.254759
    35 -0.488518 -2.755602 -0.228260 -0.766236 0.150576 -0.247340
    36 0.039887 -1.542292 0.018135 -1.761766 -0.008545 0.039514
    37 0.028786 -1.204641 -0.132487 -1.335364 -0.014549 0.029914
    38 0.250027 -2.820665 -0.238396 -0.453644 0.111448 -0.153181
    39 -0.049759 -1.594604 0.018445 -1.732233 -0.003667 -0.045064
    40 -0.034142 -1.175657 0.045718 -1.262271 0.005501 -0.033317
    41 0.957766 -2.746780 -0.090302 0.364296 -0.102342 0.147071
    42 -0.033420 -1.397129 -0.026882 -1.005348 0.003727 -0.049150
    43 -0.022360 -0.957436 0.003159 -0.598329 0.007994 -0.028871
    44 -1.180681 -2.507217 -0.193859 -0.514868 0.292895 -0.210814
    45 -0.024967 -1.127840 0.017597 -1.148218 0.000863 -0.048860
    46 -0.020057 -0.906594 0.045247 -1.424518 -0.004650 -0.057334
    47 0.626480 -1.197277 0.185379 0.471830 -1.045322 -0.449285
    48 1.446081 -0.251481 0.079230 0.075080 -0.244437 -0.913110
    49 0.975767 -0.198604 0.051823 0.125319 -0.269236 -1.207133
    50 0.120153 -0.050270 -0.054489 0.287569 3.110905 1.561085
    51 -1.860661 -3.606210 -8.564045 -1.868488 -4.904240 -1.126613
    52 -0.114000 -8.559797 0.049231 0.888569 -1.020857 -0.793964
    53 0.447953 -2.798986 -0.200443 -0.829257 -0.079427 0.328181
    54 -0.032909 -1.495829 0.012753 -0.820298 0.017977 -0.011359
    55 -0.027022 -1.096452 -0.028023 -0.513435 0.013471 -0.005429
    56 -0.249534 -2.846964 -0.174213 -0.495269 0.063861 -0.074779
    57 0.043235 -1.660503 0.080387 -1.014692 -0.016652 0.001691
    58 0.031729 -1.153017 0.058838 -0.561639 -0.005362 0.005508
    59 -0.963866 -2.785145 -0.085350 -0.322832 0.147259 -0.237960
    60 0.028479 -1.403067 -0.017167 -0.880540 -0.021932 -0.032406
    61 0.021413 -0.957781 0.020046 -0.175962 -0.002013 -0.007862
    62 1.164475 -2.543940 -0.170330 -1.089862 -0.224115 0.413438
    63 0.024032 -1.132948 0.002182 -0.585536 0.000108 0.031473
    64 0.014898 -0.887895 -0.019848 -0.270719 -0.002253 0.011553
    65 -0.586770 -1.264477 0.200161 0.285016 -0.389971 -2.736796
    66 1.554086 0.035243 0.016848 -0.012995 -0.005109 0.677633
    67 1.114041 0.044518 -0.005766 -0.023493 -0.034846 0.870265
    68 -0.139399 -0.111698 0.014397 0.285382 -0.030687 1.580508
    69 -7.616316 3.862463 -0.434751 1.574788 -0.030191 -0.556927
  time 16
    0 4.521390 -10.816736 -2.440244 0.169727 -1.543437 1.361938
    1 0.175067 0.000001 -0.441901 0.000000 3.141592 0.000000
    2 1.308148 0.000002 -2.773321 0.000000 1.570796 0.000000
    3 0.288223 0.000002 -1.760515 0.000001 2.906820 0.000000
    4 1.777917 0.000003 -1.538403 0.000000 0.000000 0.000000
    5 1.370997 0.000001 0.465008 0.000000 0.000000 0.000000
    6 1.370997 0.000001 1.858715 0.000000 0.000000 0.000000
    7 1.370997 0.000002 3.205663 0.000000 0.000000 0.000000
    8 1.100837 -0.299999 0.795626 0.000000 0.000000 0.000000
    9 0.500512 -0.050225 4.281536 0.000000 0.000000 -0.698132
    10 1.100836 0.300001 0.795626 0.000000 0.000000 0.000000
    11 0.500512 0.048657 4.281537 0.000001 -3.141592 0.698132
    12 0.766094 -0.199999 0.795625 0.000000 0.000000 0.000000
    13 1.364395 0.318640 5.371607 0.000000 0.000001 1.570797
    14 0.271427 0.000000 0.000000 0.000000 1.570451 0.000000
    15 0.041745 0.300001 3.408082 0.000000 0.000000 0.000000
    16 0.429286 0.052139 1.669081 -3.141592 0.000000 -0.698131
    17 0.041745 -0.299999 3.408082 0.000000 0.000000 0.000000
    18 0.429287 -0.053707 1.669081 0.000000 0.000000 -2.443461
    19 1.364395 -0.317138 5.371605 0.000000 3.141592 -1.570796
    20 -0.271838 -0.000001 0.000000 0.000000 1.570451 0.000000
    21 0.335183 0.000002 0.465008 0.000000 0.000000 0.000000
    22 0.335183 0.000002 1.858715 0.000000 0.000000 0.000000
    23 0.335183 0.000002 3.205663 0.000000 0.000000 0.000000
    24 0.209940 0.000002 0.944198 0.000000 0.000000 0.000000
    25 0.807932 0.000004 -20.785281 0.000000 0.000000 -1.570796
    26 0.000000 0.246335 0.508674 0.000000 -0.959931 1.570796
    27 0.000000 0.508898 -0.245509 0.000000 0.610866 1.570796
    28 0.000000 -0.508816 0.248039 -3.141592 -0.610865 -1.570796
    29 0.000000 -0.243886 -0.509852 -3.141592 0.959931 -1.570796
    30 -0.354571 0.000000 0.000000 0.000000 0.000000 0.000000
    31 -0.002752 3.342587 0.258440 0.000000 0.000000 0.000000
    32 6.759244 -1.565125 -7.725780 0.723023 -2.128738 -0.755184
    33 8.065982 0.250606 -0.384189 1.570109 -3.115497 0.108738
    34 -0.009419 -8.408890 -0.096321 -0.246378 0.510626 -0.252934
    35 -0.488518 -2.755602 -0.228260 -0.766236 0.150576 -0.247340
    36 0.039887 -1.542292 0.018135 -1.761766 -0.008545 0.039514
    37 0.028786 -1.204641 -0.132487 -1.335364 -0.014549 0.029914
    38 0.250027 -2.820665 -0.238396 -0.453644 0.111448 -0.153181
    39 -0.049759 -1.594604 0.018445 -1.732233 -0.003667 -0.045064
    40 -0.034142 -1.175657 0.045718 -1.262271 0.005501 -0.033317
    41 0.957766 -2.746780 -0.090302 0.363853 -0.102330 0.147059
    42 -0.033420 -1.397129 -0.026882 -1.007483 0.003679 -0.049246
    43 -0.022360 -0.957436 0.003159 -0.600905 0.007994 -0.029003
    44 -1.180681 -2.507217 -0.193859 -0.514868 0.292895 -0.210814
    45 -0.024967 -1.127840 0.017597 -1.148218 0.000863 -0.048860
    46 -0.020057 -0.906594 0.045247 -1.424518 -0.004650 -0.057334
    47 0.626480 -1.197277 0.185379 0.471830 -1.045322 -0.449285
    48 1.446081 -0.251481 0.079230 0.075080 -0.244437 -0.913110
    49 0.975767 -0.198604 0.051823 0.125319 -0.269236 -1.207133
    50 0.120153 -0.050270 -0.054489 0.287569 3.110905 1.561085
    51 -1.860661 -3.606210 -8.564045 -1.867517 -4.904715 -1.125474
    52 -0.114000 -8.559797 0.049231 0.886272 -1.019654 -0.792906
    53 0.447953 -2.798986 -0.200443 -0.829257 -0.079427 0.328181
    54 -0.032909 -1.495829 0.012753 -0.820298 0.017977 -0.011359
    55 -0.027022 -1.096452 -0.028023 -0.513435 0.013471 -0.005429
    56 -0.249534 -2.846964 -0.174213 -0.495269 0.063861 -0.074779
    57 0.043235 -1.660503 0.080387 -1.014692 -0.016652 0.001691
    58 0.031729 -1.153017 0.058838 -0.561639 -0.005362 0.005508
    59 -0.963866 -2.785145 -0.085350 -0.322832 0.147259 -0.237960
    60 0.028479 -1.403067 -0.017167 -0.880540 -0.021932 -0.032406
    61 0.021413 -0.957781 0.020046 -0.175962 -0.002013 -0.007862
    62 1.164475 -2.543940 -0.170330 -1.089862 -0.224115 0.413438
    63 0.024032 -1.132948 0.002182 -0.585536 0.000108 0.031473
    64 0.014898 -0.887895 -0.019848 -0.270719 -0.002253 0.011553
    65 -0.586770 -1.264477 0.200161 0.285016 -0.389971 -2.736796
    66 1.554086 0.035243 0.016848 -0.012995 -0.005109 0.677633
    67 1.114041 0.044518 -0.005766 -0.023493 -0.034846 0.870265
    68 -0.139399 -0.111698 0.014397 0.285382 -0.030687 1.580508
    69 -7.620223 3.862463 -0.434751 1.574788 -0.030191 -0.556535
  time 17
    0 4.521390 -10.805017 -2.424618 0.164463 -1.541018 1.367016
    1 0.175067 0.000001 -0.441901 0.000000 3.141592 0.000000
    2 1.308148 0.000002 -2.773321 0.000000 1.570796 0.000000
    3 0.288223 0.000002 -1.760515 0.000001 2.906820 0.000000
    4 1.777917 0.000003 -1.538403 0.000000 0.000000 0.000000
    5 1.370997 0.000001 0.465008 0.000000 0.000000 0.000000
    6 1.370997 0.000001 1.858715 0.000000 0.000000 0.000000
    7 1.370997 0.000002 3.205663 0.000000 0.000000 0.000000
    8 1.100837 -0.299999 0.795626 0.000000 0.000000 0.000000
    9 0.500512 -0.050225 4.281536 0.000000 0.000000 -0.698132
    10 1.100836 0.300001 0.795626 0.000000 0.000000 0.000000
    11 0.500512 0.048657 4.281537 0.000001 -3.141592 0.698132
    12 0.766094 -0.199999 0.795625 0.000000 0.000000 0.000000
    13 1.364395 0.318640 5.371607 0.000000 0.000001 1.570797
    14 0.271427 0.000000 0.000000 0.000000 1.570451 0.000000
    15 0.041745 0.300001 3.408082 0.000000 0.000000 0.000000
    16 0.429286 0.052139 1.669081 -3.141592 0.000000 -0.698131
    17 0.041745 -0.299999 3.408082 0.000000 0.000000 0.000000
    18 0.429287 -0.053707 1.669081 0.000000 0.000000 -2.443461
    19 1.364395 -0.317138 5.371605 0.000000 3.141592 -1.570796
    20 -0.271838 -0.000001 0.000000 0.000000 1.570451 0.000000
    21 0.335183 0.000002 0.465008 0.000000 0.000000 0.000000
    22 0.335183 0.000002 1.858715 0.000000 0.000000 0.000000
    23 0.335183 0.000002 3.205663 0.000000 0.000000 0.000000
    24 0.209940 0.000002 0.944198 0.000000 0.000000 0.000000
    25 0.807932 0.000004 -20.785281 0.000000 0.000000 -1.570796
    26 0.000000 0.246335 0.508674 0.000000 -0.959931 1.570796
    27 0.000000 0.508898 -0.245509 0.000000 0.610866 1.570796
    28 0.000000 -0.508816 0.248039 -3.141592 -0.610865 -1.570796
    29 0.000000 -0.243886 -0.509852 -3.141592 0.959931 -1.570796
    30 -0.354571 0.000000 0.000000 0.000000 0.000000 0.000000
    31 -0.002752 3.342587 0.258440 0.000000 0.000000 0.000000
    32 6.763151 -1.561219 -7.725780 0.723694 -2.129105 -0.755583
    33 8.065982 0.238887 -0.384189 1.570109 -3.115497 0.107258
    34 -0.009419 -8.408890 -0.096321 -0.245757 0.511062 -0.250824
    35 -0.488518 -2.755602 -0.228260 -0.766236 0.150576 -0.247340
    36 0.039887 -1.542292 0.018135 -1.761766 -0.008545 0.039514
    37 0.028786 -1.204641 -0.132487 -1.335364 -0.014549 0.029914
    38 0.250027 -2.820665 -0.238396 -0.453644 0.111448 -0.153181
    39 -0.049759 -1.594604 0.018445 -1.732233 -0.003667 -0.045064
    40 -0.034142 -1.175657 0.045718 -1.262271 0.005501 -0.033317
    41 0.957766 -2.746780 -0.090302 0.363350 -0.102306 0.147047
    42 -0.033420 -1.397129 -0.026882 -1.009896 0.003631 -0.049366
    43 -0.022360 -0.957436 0.003159 -0.603826 0.007994 -0.029147
    44 -1.180681 -2.507217 -0.193859 -0.514868 0.292895 -0.210814
    45 -0.024967 -1.127840 0.017597 -1.148218 0.000863 -0.048860
    46 -0.020057 -0.906594 0.045247 -1.424518 -0.004650 -0.057334
    47 0.626480 -1.197277 0.185379 0.471830 -1.045322 -0.449285
    48 1.446081 -0.251481 0.079230 0.075080 -0.244437 -0.913110
    49 0.975767 -0.198604 0.051823 0.125319 -0.269236 -1.207133
    50 0.120153 -0.050270 -0.054489 0.287569 3.110905 1.561085
    51 -1.860661 -3.606210 -8.564045 -1.866547 -4.905191 -1.124336
    52 -0.114000 -8.559797 0.049231 0.883675 -1.018227 -0.791646
    53 0.447953 -2.798986 -0.200443 -0.829257 -0.079427 0.328181
    54 -0.032909 -1.495829 0.012753 -0.820298 0.017977 -0.011359
    55 -0.027022 -1.096452 -0.028023 -0.513435 0.013471 -0.005429
    56 -0.249534 -2.846964 -0.174213 -0.495269 0.063861 -0.074779
    57 0.043235 -1.660503 0.080387 -1.014692 -0.016652 0.001691
    58 0.031729 -1.153017 0.058838 -0.561639 -0.005362 0.005508
    59 -0.963866 -2.785145 -0.085350 -0.322832 0.147259 -0.237960
    60 0.028479 -1.403067 -0.017167 -0.880540 -0.021932 -0.032406
    61 0.021413 -0.957781 0.020046 -0.175962 -0.002013 -0.007862
    62 1.164475 -2.543940 -0.170330 -1.089862 -0.224115 0.413438
    63 0.024032 -1.132948 0.002182 -0.585536 0.000108 0.031473
    64 0.014898 -0.887895 -0.019848 -0.270719 -0.002253 0.011553
    65 -0.586770 -1.264477 0.200161 0.285016 -0.389971 -2.736796
    66 1.554086 0.035243 0.016848 -0.012995 -0.005109 0.677633
    67 1.114041 0.044518 -0.005766 -0.023493 -0.034846 0.870265
    68 -0.139399 -0.111698 0.014397 0.285382 -0.030687 1.580508
    69 -7.620223 3.858556 -0.434751 1.574776 -0.030203 -0.556064
  time 18
    0 4.525297 -10.793298 -2.408993 0.160539 -1.538731 1.370849
    1 0.175067 0.000001 -0.441901 0.000000 3.141592 0.000000
    2 1.308148 0.000002 -2.773321 0.000000 1.570796 0.000000
    3 0.288223 0.000002 -1.760515 0.000001 2.906820 0.000000
    4 1.777917 0.000003 -1.538403 0.000000 0.000000 0.000000
    5 1.370997 0.000001 0.465008 0.000000 0.000000 0.000000
    6 1.370997 0.000001 1.858715 0.000000 0.000000 0.000000
    7 1.370997 0.000002 3.205663 0.000000 0.000000 0.000000
    8 1.100837 -0.299999 0.795626 0.000000 0.000000 0.000000
    9 0.500512 -0.050225 4.281536 0.000000 0.000000 -0.698132
    10 1.100836 0.300001 0.795626 0.000000 0.000000 0.000000
    11 0.500512 0.048657 4.281537 0.000001 -3.141592 0.698132
    12 0.766094 -0.199999 0.795625 0.000000 0.000000 0.000000
    13 1.364395 0.318640 5.371607 0.000000 0.000001 1.570797
    14 0.271427 0.000000 0.000000 0.000000 1.570451 0.000000
    15 0.041745 0.300001 3.408082 0.000000 0.000000 0.000000
    16 0.429286 0.052139 1.669081 -3.141592 0.000000 -0.698131
    17 0.041745 -0.299999 3.408082 0.000000 0.000000 0.000000
    18 0.429287 -0.053707 1.669081 0.000000 0.000000 -2.443461
    19 1.364395 -0.317138 5.371605 0.000000 3.141592 -1.570796
    20 -0.271838 -0.000001 0.000000 0.000000 1.570451 0.000000
    21 0.335183 0.000002 0.465008 0.000000 0.000000 0.000000
    22 0.335183 0.000002 1.858715 0.000000 0.000000 0.000000
    23 0.335183 0.000002 3.205663 0.000000 0.000000 0.000000
    24 0.209940 0.000002 0.944198 0.000000 0.000000 0.000000
    25 0.807932 0.000004 -20.785281 0.000000 0.000000 -1.570796
    26 0.000000 0.246335 0.508674 0.000000 -0.959931 1.570796
    27 0.000000 0.508898 -0.245509 0.000000 0.610866 1.570796
    28 0.000000 -0.508816 0.248039 -3.141592 -0.610865 -1.570796
    29 0.000000 -0.243886 -0.509852 -3.141592 0.959931 -1.570796
    30 -0.354571 0.000000 0.000000 0.000000 0.000000 0.000000
    31 -0.002752 3.342587 0.258440 0.000000 0.000000 0.000000
    32 6.763151 -1.553406 -7.725780 0.724174 -2.129565 -0.755882
    33 8.065982 0.227168 -0.384189 1.570205 -3.115401 0.105943
    34 -0.009419 -8.408890 -0.096321 -0.245232 0.511498 -0.248827
    35 -0.488518 -2.755602 -0.228260 -0.766236 0.150576 -0.247340
    36 0.039887 -1.542292 0.018135 -1.761766 -0.008545 0.039514
    37 0.028786 -1.204641 -0.132487 -1.335364 -0.014549 0.029914
    38 0.250027 -2.820665 -0.238396 -0.453644 0.111448 -0.153181
    39 -0.049759 -1.594604 0.018445 -1.732233 -0.003667 -0.045064
    40 -0.034142 -1.175657 0.045718 -1.262271 0.005501 -0.033317
    41 0.957766 -2.746780 -0.090302 0.362882 -0.102282 0.147023
    42 -0.033420 -1.397129 -0.026882 -1.012189 0.003583 -0.049461
    43 -0.022360 -0.957436 0.003159 -0.606587 0.007982 -0.029290
    44 -1.180681 -2.507217 -0.193859 -0.514868 0.292895 -0.210814
    45 -0.024967 -1.127840 0.017597 -1.148218 0.000863 -0.048860
    46 -0.020057 -0.906594 0.045247 -1.424518 -0.004650 -0.057334
    47 0.626480 -1.197277 0.185379 0.471830 -1.045322 -0.449285
    48 1.446081 -0.251481 0.079230 0.075080 -0.244437 -0.913110
    49 0.975767 -0.198604 0.051823 0.125319 -0.269236 -1.207133
    50 0.120153 -0.050270 -0.054489 0.287569 3.110905 1.561085
    51 -1.860661 -3.606210 -8.564045 -1.865577 -4.905666 -1.123197
    52 -0.114000 -8.559797 0.049231 0.881228 -1.016889 -0.790538
    53 0.447953 -2.798986 -0.200443 -0.829257 -0.079427 0.328181
    54 -0.032909 -1.495829 0.012753 -0.820298 0.017977 -0.011359
    55 -0.027022 -1.096452 -0.028023 -0.513435 0.013471 -0.005429
    56 -0.249534 -2.846964 -0.174213 -0.495269 0.063861 -0.074779
    57 0.043235 -1.660503 0.080387 -1.014692 -0.016652 0.001691
    58 0.031729 -1.153017 0.058838 -0.561639 -0.005362 0.005508
    59 -0.963866 -2.785145 -0.085350 -0.322832 0.147259 -0.237960
    60 0.028479 -1.403067 -0.017167 -0.880540 -0.021932 -0.032406
    61 0.021413 -0.957781 0.020046 -0.175962 -0.002013 -0.007862
    62 1.164475 -2.543940 -0.170330 -1.089862 -0.224115 0.413438
    63 0.024032 -1.132948 0.002182 -0.585536 0.000108 0.031473
    64 0.014898 -0.887895 -0.019848 -0.270719 -0.002253 0.011553
    65 -0.586770 -1.264477 0.200161 0.285016 -0.389971 -2.736796
    66 1.554086 0.035243 0.016848 -0.012995 -0.005109 0.677633
    67 1.114041 0.044518 -0.005766 -0.023493 -0.034846 0.870265
    68 -0.139399 -0.111698 0.014397 0.285382 -0.030687 1.580508
    69 -7.620223 3.854650 -0.434751 1.574764 -0.030215 -0.555593
  time 19
    0 4.525297 -10.785485 -2.401180 0.158146 -1.537060 1.373053
    1 0.175067 0.000001 -0.441901 0.000000 3.141592 0.000000
    2 1.308148 0.000002 -2.773321 0.000000 1.570796 0.000000
    3 0.288223 0.000002 -1.760515 0.000001 2.906820 0.000000
    4 1.777917 0.000003 -1.538403 0.000000 0.000000 0.000000
    5 1.370997 0.000001 0.465008 0.000000 0.000000 0.000000
    6 1.370997 0.000001 1.858715 0.000000 0.000000 0.000000
    7 1.370997 0.000002 3.205663 0.000000 0.000000 0.000000
    8 1.100837 -0.299999 0.795626 0.000000 0.000000 0.000000
    9 0.500512 -0.050225 4.281536 0.000000 0.000000 -0.698132
    10 1.100836 0.300001 0.795626 0.000000 0.000000 0.000000
    11 0.500512 0.048657 4.281537 0.000001 -3.141592 0.698132
    12 0.766094 -0.199999 0.795625 0.000000 0.000000 0.000000
    13 1.364395 0.318640 5.371607 0.000000 0.000001 1.570797
    14 0.271427 0.000000 0.000000 0.000000 1.570451 0.000000
    15 0.041745 0.300001 3.408082 0.000000 0.000000 0.000000
    16 0.429286 0.052139 1.669081 -3.141592 0.000000 -0.698131
    17 0.041745 -0.299999 3.408082 0.000000 0.000000 0.000000
    18 0.429287 -0.053707 1.669081 0.000000 0.000000 -2.443461
    19 1.364395 -0.317138 5.371605 0.000000 3.141592 -1.570796
    20 -0.271838 -0.000001 0.000000 0.000000 1.570451 0.000000
    21 0.335183 0.000002 0.465008 0.000000 0.000000 0.000000
    22 0.335183 0.000002 1.858715 0.000000 0.000000 0.000000
    23 0.335183 0.000002 3.205663 0.000000 0.000000 0.000000
    24 0.209940 0.000002 0.944198 0.000000 0.000000 0.000000
    25 0.807932 0.000004 -20.785281 0.000000 0.000000 -1.570796
    26 0.000000 0.246335 0.508674 0.000000 -0.959931 1.570796
    27 0.000000 0.508898 -0.245509 0.000000 0.610866 1.570796
    28 0.000000 -0.508816 0.248039 -3.141592 -0.610865 -1.570796
    29 0.000000 -0.243886 -0.509852 -3.141592 0.959931 -1.570796
    30 -0.354571 0.000000 0.000000 0.000000 0.000000 0.000000
    31 -0.002752 3.342587 0.258440 0.000000 0.000000 0.000000
    32 6.763151 -1.549500 -7.725780 0.724557 -2.129749 -0.756082
    33 8.065982 0.219355 -0.384189 1.570205 -3.115401 0.104956
    34 -0.009419 -8.408890 -0.096321 -0.244802 0.511837 -0.247287
    35 -0.488518 -2.755602 -0.228260 -0.766236 0.150576 -0.247340
    36 0.039887 -1.542292 0.018135 -1.761766 -0.008545 0.039514
    37 0.028786 -1.204641 -0.132487 -1.335364 -0.014549 0.029914
    38 0.250027 -2.820665 -0.238396 -0.453644 0.111448 -0.153181
    39 -0.049759 -1.594604 0.018445 -1.732233 -0.003667 -0.045064
    40 -0.034142 -1.175657 0.045718 -1.262271 0.005501 -0.033317
    41 0.957766 -2.746780 -0.090302 0.362535 -0.102270 0.147011
    42 -0.033420 -1.397129 -0.026882 -1.013890 0.003547 -0.049545
    43 -0.022360 -0.957436 0.003159 -0.608605 0.007982 -0.029398
    44 -1.180681 -2.507217 -0.193859 -0.514868 0.292895 -0.210814
    45 -0.024967 -1.127840 0.017597 -1.148218 0.000863 -0.048860
    46 -0.020057 -0.906594 0.045247 -1.424518 -0.004650 -0.057334
    47 0.626480 -1.197277 0.185379 0.471830 -1.045322 -0.449285
    48 1.446081 -0.251481 0.079230 0.075080 -0.244437 -0.913110
    49 0.975767 -0.198604 0.051823 0.125319 -0.269236 -1.207133
    50 0.120153 -0.050270 -0.054489 0.287569 3.110905 1.561085
    51 -1.860661 -3.606210 -8.564045 -1.864953 -4.905937 -1.122438
    52 -0.114000 -8.559797 0.049231 0.879431 -1.015908 -0.789732
    53 0.447953 -2.798986 -0.200443 -0.829257 -0.079427 0.328181
    54 -0.032909 -1.495829 0.012753 -0.820298 0.017977 -0.011359
    55 -0.027022 -1.096452 -0.028023 -0.513435 0.013471 -0.005429
    56 -0.249534 -2.846964 -0.174213 -0.495269 0.063861 -0.074779
    57 0.043235 -1.660503 0.080387 -1.014692 -0.016652 0.001691
    58 0.031729 -1.153017 0.058838 -0.561639 -0.005362 0.005508
    59 -0.963866 -2.785145 -0.085350 -0.322832 0.147259 -0.237960
    60 0.028479 -1.403067 -0.017167 -0.880540 -0.021932 -0.032406
    61 0.021413 -0.957781 0.020046 -0.175962 -0.002013 -0.007862
    62 1.164475 -2.543940 -0.170330 -1.089862 -0.224115 0.413438
    63 0.024032 -1.132948 0.002182 -0.585536 0.000108 0.031473
    64 0.014898 -0.887895 -0.019848 -0.270719 -0.002253 0.011553
    65 -0.586770 -1.264477 0.200161 0.285016 -0.389971 -2.736796
    66 1.554086 0.035243 0.016848 -0.012995 -0.005109 0.677633
    67 1.114041 0.044518 -0.005766 -0.023493 -0.034846 0.870265
    68 -0.139399 -0.111698 0.014397 0.285382 -0.030687 1.580508
    69 -7.624129 3.850744 -0.434751 1.574764 -0.030215 -0.555279
  time 20
    0 4.525297 -10.781579 -2.397274 0.157955 -1.536400 1.373245
    1 0.175067 0.000001 -0.441901 0.000000 3.141592 0.000000
    2 1.308148 0.000002 -2.773321 0.000000 1.570796 0.000000
    3 0.288223 0.000002 -1.760515 0.000001 2.906820 0.000000
    4 1.777917 0.000003 -1.538403 0.000000 0.000000 0.000000
    5 1.370997 0.000001 0.465008 0.000000 0.000000 0.000000
    6 1.370997 0.000001 1.858715 0.000000 0.000000 0.000000
    7 1.370997 0.000002 3.205663 0.000000 0.000000 0.000000
    8 1.100837 -0.299999 0.795626 0.000000 0.000000 0.000000
    9 0.500512 -0.050225 4.281536 0.000000 0.000000 -0.698132
    10 1.100836 0.300001 0.795626 0.000000 0.000000 0.000000
    11 0.500512 0.048657 4.281537 0.000001 -3.141592 0.698132
    12 0.766094 -0.199999 0.795625 0.000000 0.000000 0.000000
    13 1.364395 0.318640 5.371607 0.000000 0.000001 1.570797
    14 0.271427 0.000000 0.000000 0.000000 1.570451 0.000000
    15 0.041745 0.300001 3.408082 0.000000 0.000000 0.000000
    16 0.429286 0.052139 1.669081 -3.141592 0.000000 -0.698131
    17 0.041745 -0.299999 3.408082 0.000000 0.000000 0.000000
    18 0.429287 -0.053707 1.669081 0.000000 0.000000 -2.443461
    19 1.364395 -0.317138 5.371605 0.000000 3.141592 -1.570796
    20 -0.271838 -0.000001 0.000000 0.000000 1.570451 0.000000
    21 0.335183 0.000002 0.465008 0.000000 0.000000 0.000000
    22 0.335183 0.000002 1.858715 0.000000 0.000000 0.000000
    23 0.335183 0.000002 3.205663 0.000000 0.000000 0.000000
    24 0.209940 0.000002 0.944198 0.000000 0.000000 0.000000
    25 0.807932 0.000004 -20.785281 0.000000 0.000000 -1.570796
    26 0.000000 0.246335 0.508674 0.000000 -0.959931 1.570796
    27 0.000000 0.508898 -0.245509 0.000000 0.610866 1.570796
    28 0.000000 -0.508816 0.248039 -3.141592 -0.610865 -1.570796
    29 0.000000 -0.243886 -0.509852 -3.141592 0.959931 -1.570796
    30 -0.354571 0.000000 0.000000 0.000000 0.000000 0.000000
    31 -0.002752 3.342587 0.258440 0.000000 0.000000 0.000000
    32 6.763151 -1.549500 -7.729686 0.724653 -2.129841 -0.756082
    33 8.062075 0.219355 -0.384189 1.570205 -3.115401 0.104545
    34 -0.009419 -8.408890 -0.096321 -0.244611 0.511983 -0.246660
    35 -0.488518 -2.755602 -0.228260 -0.766236 0.150576 -0.247340
    36 0.039887 -1.542292 0.018135 -1.761766 -0.008545 0.039514
    37 0.028786 -1.204641 -0.132487 -1.335364 -0.014549 0.029914
    38 0.250027 -2.820665 -0.238396 -0.453644 0.111448 -0.153181
    39 -0.049759 -1.594604 0.018445 -1.732233 -0.003667 -0.045064
    40 -0.034142 -1.175657 0.045718 -1.262271 0.005501 -0.033317
    41 0.957766 -2.746780 -0.090302 0.362403 -0.102270 0.147011
    42 -0.033420 -1.397129 -0.030789 -1.014562 0.003523 -0.049569
    43 -0.022360 -0.957436 0.003159 -0.609401 0.007982 -0.029434
    44 -1.180681 -2.507217 -0.193859 -0.514868 0.292895 -0.210814
    45 -0.024967 -1.127840 0.017597 -1.148218 0.000863 -0.048860
    46 -0.020057 -0.906594 0.045247 -1.424518 -0.004650 -0.057334
    47 0.626480 -1.197277 0.185379 0.471830 -1.045322 -0.449285
    48 1.446081 -0.251481 0.079230 0.075080 -0.244437 -0.913110
    49 0.975767 -0.198604 0.051823 0.125319 -0.269236 -1.207133
    50 0.120153 -0.050270 -0.054489 0.287569 3.110905 1.561085
    51 -1.860661 -3.606210 -8.564045 -1.864745 -4.906005 -1.122248
    52 -0.114000 -8.559797 0.049231 0.878732 -1.015507 -0.789429
    53 0.447953 -2.798986 -0.200443 -0.829257 -0.079427 0.328181
    54 -0.032909 -1.495829 0.012753 -0.820298 0.017977 -0.011359
    55 -0.027022 -1.096452 -0.028023 -0.513435 0.013471 -0.005429
    56 -0.249534 -2.846964 -0.174213 -0.495269 0.063861 -0.074779
    57 0.043235 -1.660503 0.080387 -1.014692 -0.016652 0.001691
    58 0.031729 -1.153017 0.058838 -0.561639 -0.005362 0.005508
    59 -0.963866 -2.785145 -0.085350 -0.322832 0.147259 -0.237960
    60 0.028479 -1.403067 -0.017167 -0.880540 -0.021932 -0.032406
    61 0.021413 -0.957781 0.020046 -0.175962 -0.002013 -0.007862
    62 1.164475 -2.543940 -0.170330 -1.089862 -0.224115 0.413438
    63 0.024032 -1.132948 0.002182 -0.585536 0.000108 0.031473
    64 0.014898 -0.887895 -0.019848 -0.270719 -0.002253 0.011553
    65 -0.586770 -1.264477 0.200161 0.285016 -0.389971 -2.736796
    66 1.554086 0.035243 0.016848 -0.012995 -0.005109 0.677633
    67 1.114041 0.044518 -0.005766 -0.023493 -0.034846 0.870265
    68 -0.139399 -0.111698 0.014397 0.285382 -0.030687 1.580508
    69 -7.624129 3.850744 -0.434751 1.574764 -0.030215 -0.555200
end
