// Created by Crowbar 0.49.0.0

$modelname "weapons/tfa_cso/c_m95.mdl"

$Include "csonline_gmod.qci"

$bodygroup "weapon"
{
	studio "v_m95_v_ref"
}

$CDMaterials "models\weapons\tfa_cso\m95"

$attachment 0 "m95_root" -22.799999 -1.200001 0
//$attachment 1 "m95_root" 5 -1.3 0.54

$definebone "Bone_Root" "" 0.000000 0.000000 0.000000 0.000000 0.000000 0.000000 0.000000 0.000000 0.000000 -0.000000 0.000000 0.000000
$definebone "Bone01" "Bone_Root" 0.497702 0.002174 -0.149878 -0.012834 -89.771431 179.847612 -0.000000 0.000000 0.000000 0.000000 0.000000 -0.000000
$definebone "Bone_Lefthand" "Bone01" -0.071918 -8.498730 -0.104137 16.477755 0.853593 -1.435030 0.000000 0.000001 -0.000000 0.000005 0.000000 -0.000000
$definebone "m95_root" "Bone_Lefthand" 6.964413 8.716433 7.065907 16.772076 178.913474 88.163536 0.000000 0.000000 0.000000 -0.000000 0.000002 -0.000000
$definebone "magazine" "m95_root" 6.222712 -0.236897 -0.000001 0.000000 90.303701 0.000057 0.000000 0.000000 0.000000 0.000000 -0.000002 -0.000000
$definebone "load" "m95_root" 3.353899 -1.140598 0.000000 -0.000000 0.303669 0.000057 0.000000 0.000000 -0.000000 -0.000000 0.000002 -0.000000
$definebone "trigger" "m95_root" -0.663507 0.613433 -0.000001 0.000057 90.303701 -0.000000 0.000000 0.000000 0.000000 0.000000 -0.000002 -0.000000

$sequence "idle1" {
	"v_m95_anims\idle1"
	fps 15
	loop
	activity "ACT_VM_IDLE" 1
	snap
}
$sequence "shoot1" {
	"v_m95_anims\shoot1"
	{ event 5001 0 "43" }
	{ event 5004 26 "M95.BoltPull" }
	fps 30
	activity "ACT_VM_PRIMARYATTACK" 1
	snap
}
$sequence "shoot2" {
	"v_m95_anims\shoot2"
	{ event 5001 0 "43" }
	{ event 5004 26 "M95.BoltPull" }
	fps 30
	activity "ACT_VM_PRIMARYATTACK" 2
	snap
}
$sequence "reload" {
	"v_m95_anims\reload"
	{ event 5004 28 "M95.ClipOut" }
	{ event 5004 64 "M95.ClipIn" }
	fps 30
	activity "ACT_VM_RELOAD" 1
	snap
}
$sequence "draw" {
	"v_m95_anims\draw"
	fps 30
	activity "ACT_VM_DRAW" 1
	snap
}
