// Created by Crowbar 0.49.0.0

$modelname "weapons/tfa_cso/c_m249ep.mdl"

$Include "csonline_gmod.qci"

$bodygroup "weapon"
{
	studio "v_m249ep"
}

$CDMaterials "models\weapons\tfa_cso\m249ep"

$attachment 0 "Bone02" 22 0 0
//$attachment 1 "Bone02" 5 0 -1.5


$sequence "idle1" {
	"v_m249ep_anims\idle1"
	fps 30
	loop
	activity "ACT_VM_IDLE" 1
	snap
}
$sequence "shoot1" {
	"v_m249ep_anims\shoot1"
	{ event 5001 0 "22" }
	fps 30
	activity "ACT_VM_PRIMARYATTACK" 1
	snap
}
$sequence "shoot2" {
	"v_m249ep_anims\shoot2"
	{ event 5001 0 "22" }
	fps 30
}
$sequence "reload" {
	"v_m249ep_anims\reload"
	{ event 5004 12 "M249EP.CoverUp" }
	{ event 5004 40 "M249EP.BoxOut" }
	{ event 5004 67 "M249EP.BoxIn" }
	{ event 5004 90 "M249EP.Chain" }
	{ event 5004 113 "M249EP.CoverDown" }
	fps 30
	activity "ACT_VM_RELOAD" 1
	snap
}
$sequence "draw" {
	"v_m249ep_anims\draw"
	fps 30
	activity "ACT_VM_DRAW" 1
	snap
}
$sequence "shoot3" {
	"v_m249ep_anims\shoot3"
	{ event 5004 4 "M249EP.Shoot3" }
	fps 30
	activity "ACT_VM_HITCENTER" 1
	snap
}
$sequence "shoot4" {
	"v_m249ep_anims\shoot4"
	{ event 5004 4 "M249EP.Shoot4" }
	fps 30
	activity "ACT_VM_HITCENTER" 2
	snap
}
