// Created by Crowbar 0.58

$modelname "weapons/tfa_cso/c_chainsaw.mdl"

$Include "csonline_gmod.qci"

$bodygroup "weapon"
{
	studio "v_chainsaw_v_ref"
}

$CDMaterials "models\weapons\tfa_cso\chainsaw"

$definebone "root" "" 0.001265 -0.569176 -20.601572 0.000000 0.000000 0.000000 0.000000 0.000000 0.000000 -0.000000 0.000000 0.000000
$definebone "Bone01" "root" 9.310103 -5.299614 -12.557959 -0.012834 -89.771431 179.846260 0.000000 -0.000001 -0.000004 0.000000 0.000000 -0.000000
$definebone "Bone_Lefthand" "Bone01" -0.071921 -8.498736 -0.104137 16.477753 0.853593 -1.435030 0.000000 0.000000 0.000000 0.000002 0.000000 -0.000000
$definebone "chainsaw_root" "Bone_Lefthand" 12.590046 18.063139 -9.831116 -55.140149 -178.028241 86.920394 0.000000 0.000000 0.000000 -0.000000 0.000002 -0.000000
$definebone "chainsaw_diviner" "chainsaw_root" 4.594987 7.785652 3.872274 0.000000 -154.498539 -0.000057 0.000000 0.000000 0.000000 0.000000 -0.000004 0.000000
$definebone "chainsaw_rope01" "chainsaw_diviner" -0.389065 -0.003801 0.000000 0.000000 1.373948 0.000057 0.000000 0.000000 0.000000 0.000000 -0.000004 0.000000
$definebone "chainsaw_rope02" "chainsaw_rope01" -0.350266 0.005619 0.000000 0.000000 -0.573363 0.000000 0.000002 0.000000 0.000000 0.000000 -0.000004 0.000000
$definebone "chainsaw_rope03" "chainsaw_rope02" -0.341038 0.002083 0.000000 0.000000 -0.088468 0.000057 0.000000 0.000000 0.000000 0.000000 -0.000004 0.000000
$definebone "chainsaw_chain_bottom" "chainsaw_root" 2.661498 23.114216 -1.230783 -0.000000 -71.655536 0.000000 0.000000 0.000000 0.000000 -0.000000 0.000003 0.000000
$definebone "chainsaw_chain_top" "chainsaw_root" 0.334483 17.943970 -1.230783 0.000000 108.344485 -0.000000 0.000000 0.000000 0.000000 0.000000 0.000002 -0.000000
$definebone "chainsaw_chain00" "chainsaw_chain_top" 11.169170 -0.192356 -0.011297 0.000000 89.674484 0.000000 0.000002 0.000000 0.000000 0.000000 -0.000002 0.000000
$definebone "chainsaw_rope04" "chainsaw_root" 5.797595 8.373768 3.872274 0.000000 -153.289582 0.000000 0.000002 0.000000 -0.000000 0.000000 -0.000004 0.000000
$definebone "chainsaw_chain04" "chainsaw_root" -2.581529 31.592808 -1.242079 0.000000 121.736990 -0.000000 0.000000 0.000000 0.000000 0.000000 0.000005 -0.000000
$definebone "chainsaw_chain01" "chainsaw_root" -3.143924 29.152088 -1.242079 0.000000 -166.379858 0.000000 0.000000 0.000000 -0.000000 0.000000 -0.000001 0.000000
$definebone "chainsaw_chain02" "chainsaw_root" -3.330982 30.178059 -1.242079 0.000000 -177.248397 0.000000 0.000000 0.000000 0.000000 0.000000 0.000002 0.000000
$definebone "chainsaw_chain03" "chainsaw_root" -3.162556 30.997158 -1.242079 0.000000 150.731130 -0.000000 0.000000 0.000000 0.000000 0.000000 0.000005 -0.000000
$definebone "chainsaw_chain08" "chainsaw_root" -0.017779 30.171257 -1.242080 -0.000000 23.487025 -0.000000 0.000000 0.000000 -0.000000 -0.000000 -0.000004 -0.000000
$definebone "chainsaw_chain05" "chainsaw_root" -1.874652 31.813972 -1.242079 0.000000 94.951945 -0.000000 0.000000 0.000000 0.000000 0.000000 -0.000002 -0.000000
$definebone "chainsaw_chain06" "chainsaw_root" -1.136277 31.689316 -1.242079 -0.000000 63.344548 -0.000000 0.000000 0.000000 0.000000 -0.000000 -0.000007 -0.000000
$definebone "chainsaw_chain07" "chainsaw_root" -0.494658 31.127476 -1.242079 -0.000000 34.404336 0.000057 0.000000 0.000000 0.000000 -0.000000 -0.000005 -0.000000

$sequence "idle1" {
	"v_chainsaw_anims\idle1"
	{ event 5004 1 "Chainsaw.Idle" }
	fps 30
	loop
	activity "ACT_VM_IDLE" 1
	snap
}
$sequence "draw" {
	"v_chainsaw_anims\draw"
	{ event 5004 8 "Chainsaw.Draw" }
	fps 30
	activity "ACT_VM_DRAW" 1
	snap
}
$sequence "draw_empty" {
	"v_chainsaw_anims\draw_empty"
	{ event 5004 11 "Chainsaw.Draw_Empty" }
	fps 30
	activity "ACT_VM_DRAW_EMPTY" 1
	snap
}
$sequence "attack1_start" {
	"v_chainsaw_anims\attack1_start"
	{ event 5004 1 "Chainsaw.Attack_Start" }
	fps 30
	snap
}
$sequence "attack1_loop" {
	"v_chainsaw_anims\attack1_loop"
	{ event 5004 1 "Chainsaw.Attack_Loop" }
	fps 30
	loop
	snap
}
$sequence "attack1_end" {
	"v_chainsaw_anims\attack1_end"
	{ event 5004 1 "Chainsaw.Attack_End" }
	fps 30
	snap
}
$sequence "reload" {
	"v_chainsaw_anims\reload"
	{ event 5004 11 "Chainsaw.Reload" }
	fps 30
	activity "ACT_VM_RELOAD" 1
	snap
}
$sequence "slash1" {
	"v_chainsaw_anims\slash1"
	{ event 5004 1 "Chainsaw.Slash1" }
	fps 30
}
$sequence "slash2" {
	"v_chainsaw_anims\slash2"
	{ event 5004 2 "Chainsaw.Slash2" }
	fps 30
}
$sequence "slash3" {
	"v_chainsaw_anims\slash3"
	{ event 5004 1 "Chainsaw.Slash3" }
	fps 30
}
$sequence "slash4" {
	"v_chainsaw_anims\slash4"
	{ event 5004 2 "Chainsaw.Slash4" }
	fps 30
}
$sequence "empty" {
	"v_chainsaw_anims\empty"
	fps 30
	loop
	activity "ACT_VM_IDLE_EMPTY" 1
	snap
}
