// Created by Crowbar 0.68

$modelname "weapons/tfa_cso/c_hdagger_v6.mdl"

$include "hdagger_bones.qci"

$bodygroup "studio"
{
	studio "v_ref"
}

$cdmaterials "models/weapons/tfa_cso/hdagger_v6"

$sequence "idle" {
	"v_hdaggerb_anims\idle"
	fps 30
	activity "ACT_VM_IDLE" 1
	snap
	loop
}
$sequence "slash1" {
	"v_hdaggerb_anims\slash1"
	{ event 5004 8 "Knife.Slash1" }
	fps 30
	activity "ACT_VM_HITLEFT" 1
	snap
}
$sequence "slash2" {
	"v_hdaggerb_anims\slash2"
	{ event 5004 8 "Knife.Slash1" }
	fps 30
	activity "ACT_VM_HITRIGHT" 1
	snap
}
$sequence "draw" {
	"v_hdaggerb_anims\draw"
	{ event 5004 0 "Knife.Draw" }
	fps 30
	activity "ACT_VM_DRAW" 1
	snap
}
$sequence "stab" {
	"v_hdaggerb_anims\stab"
	{ event 5004 8 "Knife.Slash2" }
	fps 30
	activity "ACT_VM_MISSLEFT" 1
	snap
}
$sequence "stab_miss" {
	"v_hdaggerb_anims\stab_miss"
	fps 30
}
$sequence "midslash1" {
	"v_hdaggerb_anims\midslash1"
	fps 30
}
$sequence "midslash2" {
	"v_hdaggerb_anims\midslash2"
	fps 30
}
