// Created by Crowbar 0.68
version 1
nodes
  0 "QBS_09_3P" -1
end
skeleton
  time 0
    0 0.000000 0.000000 1.053873 1.552974 -0.004473 1.281313
end
triangles
  phy
    0 -1.668087 5.941247 -9.638498 -0.008802 0.999943 -0.006078 0 0
    0 -3.861035 3.395889 -14.407423 -0.077924 0.994130 -0.075056 0 0
    0 -2.311586 6.819477 -12.537195 -0.062931 0.977743 0.200146 0 0
  phy
    0 -1.668087 5.941247 -9.638498 -0.008802 0.999943 -0.006078 0 0
    0 -2.311586 6.819477 -12.537195 -0.062931 0.977743 0.200146 0 0
    0 -1.588791 6.354834 -9.762707 0.034310 0.986276 0.161502 0 0
  phy
    0 -1.668087 5.941247 -9.638498 -0.008802 0.999943 -0.006078 0 0
    0 -1.588791 6.354834 -9.762707 0.034310 0.986276 0.161502 0 0
    0 0.568670 1.011347 3.152908 -0.005394 0.999926 -0.010940 0 0
  phy
    0 0.568670 1.011347 3.152908 -0.005394 0.999926 -0.010940 0 0
    0 -1.588791 6.354834 -9.762707 0.034310 0.986276 0.161502 0 0
    0 2.139085 -0.951230 10.662208 0.013795 0.999878 -0.007293 0 0
  phy
    0 -1.668087 5.941247 -9.638498 -0.008802 0.999943 -0.006078 0 0
    0 0.568670 1.011347 3.152908 -0.005394 0.999926 -0.010940 0 0
    0 -3.861035 3.395889 -14.407423 -0.077924 0.994130 -0.075056 0 0
  phy
    0 -4.672622 -0.385034 -8.201162 -0.060566 -0.914746 -0.399465 0 0
    0 -5.637227 3.885820 -13.904221 -0.198409 -0.974194 -0.107613 0 0
    0 -5.012360 0.856459 -10.571114 -0.451575 -0.399119 -0.797987 0 0
  phy
    0 -4.672622 -0.385034 -8.201162 -0.060566 -0.914746 -0.399465 0 0
    0 -2.501465 3.978534 0.034539 0.011486 -0.999742 -0.019604 0 0
    0 -5.637227 3.885820 -13.904221 -0.198409 -0.974194 -0.107613 0 0
  phy
    0 -4.672622 -0.385034 -8.201162 -0.060566 -0.914746 -0.399465 0 0
    0 -4.128914 0.612773 -10.821390 -0.451866 0.367125 -0.813041 0 0
    0 -3.807776 -0.623585 -8.446179 -0.063835 0.897264 -0.436854 0 0
  phy
    0 -4.128914 0.612773 -10.821390 -0.451866 0.367125 -0.813041 0 0
    0 -4.672622 -0.385034 -8.201162 -0.060566 -0.914746 -0.399465 0 0
    0 -5.012360 0.856459 -10.571114 -0.451575 -0.399119 -0.797987 0 0
  phy
    0 2.054971 -5.457994 18.738557 -0.080499 0.018361 -0.996586 0 0
    0 -4.672622 -0.385034 -8.201162 -0.060566 -0.914746 -0.399465 0 0
    0 -3.807776 -0.623585 -8.446179 -0.063835 0.897264 -0.436854 0 0
  phy
    0 -4.672622 -0.385034 -8.201162 -0.060566 -0.914746 -0.399465 0 0
    0 2.054971 -5.457994 18.738557 -0.080499 0.018361 -0.996586 0 0
    0 1.582237 -5.038600 18.976948 -0.006734 -0.967549 -0.252592 0 0
  phy
    0 1.582237 -5.038600 18.976948 -0.006734 -0.967549 -0.252592 0 0
    0 -2.501465 3.978534 0.034539 0.011486 -0.999742 -0.019604 0 0
    0 -4.672622 -0.385034 -8.201162 -0.060566 -0.914746 -0.399465 0 0
  phy
    0 -4.128914 0.612773 -10.821390 -0.451866 0.367125 -0.813041 0 0
    0 -5.012360 0.856459 -10.571114 -0.451575 -0.399119 -0.797987 0 0
    0 -4.962400 3.061889 -14.325943 -0.615516 0.014961 -0.787983 0 0
  phy
    0 -3.807776 -0.623585 -8.446179 -0.063835 0.897264 -0.436854 0 0
    0 -4.128914 0.612773 -10.821390 -0.451866 0.367125 -0.813041 0 0
    0 -3.861035 3.395889 -14.407423 -0.077924 0.994130 -0.075056 0 0
  phy
    0 -3.861035 3.395889 -14.407423 -0.077924 0.994130 -0.075056 0 0
    0 -4.128914 0.612773 -10.821390 -0.451866 0.367125 -0.813041 0 0
    0 -4.962400 3.061889 -14.325943 -0.615516 0.014961 -0.787983 0 0
  phy
    0 2.139085 -0.951230 10.662208 0.013795 0.999878 -0.007293 0 0
    0 2.352019 -0.103104 10.929680 0.064693 0.982942 0.172165 0 0
    0 3.463777 -3.309197 19.569542 0.258960 0.905369 0.336521 0 0
  phy
    0 2.352019 -0.103104 10.929680 0.064693 0.982942 0.172165 0 0
    0 2.633278 1.283241 12.166873 0.138505 0.899431 0.414536 0 0
    0 3.463777 -3.309197 19.569542 0.258960 0.905369 0.336521 0 0
  phy
    0 2.352019 -0.103104 10.929680 0.064693 0.982942 0.172165 0 0
    0 0.655607 3.236681 1.690151 0.067235 0.962626 0.262357 0 0
    0 2.633278 1.283241 12.166873 0.138505 0.899431 0.414536 0 0
  phy
    0 2.352019 -0.103104 10.929680 0.064693 0.982942 0.172165 0 0
    0 2.139085 -0.951230 10.662208 0.013795 0.999878 -0.007293 0 0
    0 -1.588791 6.354834 -9.762707 0.034310 0.986276 0.161502 0 0
  phy
    0 0.655607 3.236681 1.690151 0.067235 0.962626 0.262357 0 0
    0 2.352019 -0.103104 10.929680 0.064693 0.982942 0.172165 0 0
    0 -1.588791 6.354834 -9.762707 0.034310 0.986276 0.161502 0 0
  phy
    0 -3.807776 -0.623585 -8.446179 -0.063835 0.897264 -0.436854 0 0
    0 1.494344 -2.318041 10.286526 -0.019701 0.991244 -0.130566 0 0
    0 2.726066 -5.354102 18.652892 0.003964 0.960365 -0.278719 0 0
  phy
    0 1.494344 -2.318041 10.286526 -0.019701 0.991244 -0.130566 0 0
    0 -3.807776 -0.623585 -8.446179 -0.063835 0.897264 -0.436854 0 0
    0 -3.861035 3.395889 -14.407423 -0.077924 0.994130 -0.075056 0 0
  phy
    0 1.494344 -2.318041 10.286526 -0.019701 0.991244 -0.130566 0 0
    0 2.139085 -0.951230 10.662208 0.013795 0.999878 -0.007293 0 0
    0 2.726066 -5.354102 18.652892 0.003964 0.960365 -0.278719 0 0
  phy
    0 2.139085 -0.951230 10.662208 0.013795 0.999878 -0.007293 0 0
    0 1.494344 -2.318041 10.286526 -0.019701 0.991244 -0.130566 0 0
    0 -3.861035 3.395889 -14.407423 -0.077924 0.994130 -0.075056 0 0
  phy
    0 0.568670 1.011347 3.152908 -0.005394 0.999926 -0.010940 0 0
    0 2.139085 -0.951230 10.662208 0.013795 0.999878 -0.007293 0 0
    0 -3.861035 3.395889 -14.407423 -0.077924 0.994130 -0.075056 0 0
  phy
    0 -2.311586 6.819477 -12.537195 -0.062931 0.977743 0.200146 0 0
    0 -2.676426 7.543642 -13.125643 -0.597435 0.184529 0.780398 0 0
    0 -1.002211 7.927515 -6.830714 0.120734 0.788839 0.602624 0 0
  phy
    0 -1.588791 6.354834 -9.762707 0.034310 0.986276 0.161502 0 0
    0 -2.311586 6.819477 -12.537195 -0.062931 0.977743 0.200146 0 0
    0 -1.002211 7.927515 -6.830714 0.120734 0.788839 0.602624 0 0
  phy
    0 -2.676426 7.543642 -13.125643 -0.597435 0.184529 0.780398 0 0
    0 -2.311586 6.819477 -12.537195 -0.062931 0.977743 0.200146 0 0
    0 -3.861035 3.395889 -14.407423 -0.077924 0.994130 -0.075056 0 0
  phy
    0 2.054971 -5.457994 18.738557 -0.080499 0.018361 -0.996586 0 0
    0 -3.807776 -0.623585 -8.446179 -0.063835 0.897264 -0.436854 0 0
    0 2.726066 -5.354102 18.652892 0.003964 0.960365 -0.278719 0 0
  phy
    0 2.054971 -5.457994 18.738557 -0.080499 0.018361 -0.996586 0 0
    0 2.726066 -5.354102 18.652892 0.003964 0.960365 -0.278719 0 0
    0 2.674757 -3.968524 19.476083 0.919001 0.006502 -0.394202 0 0
  phy
    0 2.674757 -3.968524 19.476083 0.919001 0.006502 -0.394202 0 0
    0 1.582237 -5.038600 18.976948 -0.006734 -0.967549 -0.252592 0 0
    0 2.054971 -5.457994 18.738557 -0.080499 0.018361 -0.996586 0 0
  phy
    0 2.459439 -3.032170 19.854080 0.172925 -0.965154 0.196404 0 0
    0 3.463777 -3.309197 19.569542 0.258960 0.905369 0.336521 0 0
    0 2.089805 1.921134 11.677148 0.343635 -0.017514 0.938940 0 0
  phy
    0 2.089805 1.921134 11.677148 0.343635 -0.017514 0.938940 0 0
    0 3.463777 -3.309197 19.569542 0.258960 0.905369 0.336521 0 0
    0 2.633278 1.283241 12.166873 0.138505 0.899431 0.414536 0 0
  phy
    0 2.089805 1.921134 11.677148 0.343635 -0.017514 0.938940 0 0
    0 1.628940 1.560267 12.451408 0.151759 -0.897673 0.413705 0 0
    0 2.459439 -3.032170 19.854080 0.172925 -0.965154 0.196404 0 0
  phy
    0 -1.848460 8.160935 -6.590966 0.104296 -0.756427 0.645710 0 0
    0 1.628940 1.560267 12.451408 0.151759 -0.897673 0.413705 0 0
    0 2.089805 1.921134 11.677148 0.343635 -0.017514 0.938940 0 0
  phy
    0 2.089805 1.921134 11.677148 0.343635 -0.017514 0.938940 0 0
    0 -1.002211 7.927515 -6.830714 0.120734 0.788839 0.602624 0 0
    0 -1.848460 8.160935 -6.590966 0.104296 -0.756427 0.645710 0 0
  phy
    0 2.633278 1.283241 12.166873 0.138505 0.899431 0.414536 0 0
    0 -1.002211 7.927515 -6.830714 0.120734 0.788839 0.602624 0 0
    0 2.089805 1.921134 11.677148 0.343635 -0.017514 0.938940 0 0
  phy
    0 2.726066 -5.354102 18.652892 0.003964 0.960365 -0.278719 0 0
    0 2.139085 -0.951230 10.662208 0.013795 0.999878 -0.007293 0 0
    0 3.463777 -3.309197 19.569542 0.258960 0.905369 0.336521 0 0
  phy
    0 2.633278 1.283241 12.166873 0.138505 0.899431 0.414536 0 0
    0 0.655607 3.236681 1.690151 0.067235 0.962626 0.262357 0 0
    0 -1.002211 7.927515 -6.830714 0.120734 0.788839 0.602624 0 0
  phy
    0 0.655607 3.236681 1.690151 0.067235 0.962626 0.262357 0 0
    0 -1.588791 6.354834 -9.762707 0.034310 0.986276 0.161502 0 0
    0 -1.002211 7.927515 -6.830714 0.120734 0.788839 0.602624 0 0
  phy
    0 -2.676426 7.543642 -13.125643 -0.597435 0.184529 0.780398 0 0
    0 -4.290985 7.630225 -12.797913 -0.463308 -0.477921 0.746282 0 0
    0 -1.848460 8.160935 -6.590966 0.104296 -0.756427 0.645710 0 0
  phy
    0 -1.848460 8.160935 -6.590966 0.104296 -0.756427 0.645710 0 0
    0 -1.002211 7.927515 -6.830714 0.120734 0.788839 0.602624 0 0
    0 -2.676426 7.543642 -13.125643 -0.597435 0.184529 0.780398 0 0
  phy
    0 -2.676426 7.543642 -13.125643 -0.597435 0.184529 0.780398 0 0
    0 -5.637227 3.885820 -13.904221 -0.198409 -0.974194 -0.107613 0 0
    0 -4.290985 7.630225 -12.797913 -0.463308 -0.477921 0.746282 0 0
  phy
    0 -5.637227 3.885820 -13.904221 -0.198409 -0.974194 -0.107613 0 0
    0 -2.676426 7.543642 -13.125643 -0.597435 0.184529 0.780398 0 0
    0 -3.861035 3.395889 -14.407423 -0.077924 0.994130 -0.075056 0 0
  phy
    0 -1.848460 8.160935 -6.590966 0.104296 -0.756427 0.645710 0 0
    0 -4.290985 7.630225 -12.797913 -0.463308 -0.477921 0.746282 0 0
    0 -4.227269 7.347878 -11.994468 -0.026751 -0.992499 0.119293 0 0
  phy
    0 -4.227269 7.347878 -11.994468 -0.026751 -0.992499 0.119293 0 0
    0 -2.501465 3.978534 0.034539 0.011486 -0.999742 -0.019604 0 0
    0 -1.848460 8.160935 -6.590966 0.104296 -0.756427 0.645710 0 0
  phy
    0 -4.227269 7.347878 -11.994468 -0.026751 -0.992499 0.119293 0 0
    0 -4.290985 7.630225 -12.797913 -0.463308 -0.477921 0.746282 0 0
    0 -5.637227 3.885820 -13.904221 -0.198409 -0.974194 -0.107613 0 0
  phy
    0 -5.637227 3.885820 -13.904221 -0.198409 -0.974194 -0.107613 0 0
    0 -2.501465 3.978534 0.034539 0.011486 -0.999742 -0.019604 0 0
    0 -4.227269 7.347878 -11.994468 -0.026751 -0.992499 0.119293 0 0
  phy
    0 2.674757 -3.968524 19.476083 0.919001 0.006502 -0.394202 0 0
    0 3.463777 -3.309197 19.569542 0.258960 0.905369 0.336521 0 0
    0 2.459439 -3.032170 19.854080 0.172925 -0.965154 0.196404 0 0
  phy
    0 2.459439 -3.032170 19.854080 0.172925 -0.965154 0.196404 0 0
    0 1.582237 -5.038600 18.976948 -0.006734 -0.967549 -0.252592 0 0
    0 2.674757 -3.968524 19.476083 0.919001 0.006502 -0.394202 0 0
  phy
    0 1.628940 1.560267 12.451408 0.151759 -0.897673 0.413705 0 0
    0 -2.501465 3.978534 0.034539 0.011486 -0.999742 -0.019604 0 0
    0 2.459439 -3.032170 19.854080 0.172925 -0.965154 0.196404 0 0
  phy
    0 2.459439 -3.032170 19.854080 0.172925 -0.965154 0.196404 0 0
    0 -2.501465 3.978534 0.034539 0.011486 -0.999742 -0.019604 0 0
    0 1.582237 -5.038600 18.976948 -0.006734 -0.967549 -0.252592 0 0
  phy
    0 2.726066 -5.354102 18.652892 0.003964 0.960365 -0.278719 0 0
    0 3.463777 -3.309197 19.569542 0.258960 0.905369 0.336521 0 0
    0 2.674757 -3.968524 19.476083 0.919001 0.006502 -0.394202 0 0
  phy
    0 -1.848460 8.160935 -6.590966 0.104296 -0.756427 0.645710 0 0
    0 -2.501465 3.978534 0.034539 0.011486 -0.999742 -0.019604 0 0
    0 1.628940 1.560267 12.451408 0.151759 -0.897673 0.413705 0 0
  phy
    0 -5.012360 0.856459 -10.571114 -0.451575 -0.399119 -0.797987 0 0
    0 -5.637227 3.885820 -13.904221 -0.198409 -0.974194 -0.107613 0 0
    0 -4.962400 3.061889 -14.325943 -0.615516 0.014961 -0.787983 0 0
  phy
    0 -5.637227 3.885820 -13.904221 -0.198409 -0.974194 -0.107613 0 0
    0 -3.861035 3.395889 -14.407423 -0.077924 0.994130 -0.075056 0 0
    0 -4.962400 3.061889 -14.325943 -0.615516 0.014961 -0.787983 0 0
end
