// Created by Crowbar 0.58

$modelname "weapons/tfa_cso/c_jaydagger.mdl"

$Include "csonline_gmod.qci"

$bodygroup "weapon"
{
	studio "v_zbs64knife_v_ref"
}
$bodygroup "weapon"
{
	studio "v_zbs64knife_ref_fx"
}

$CDMaterials "models\weapons\tfa_cso\jaydagger\"

$definebone "6_4bossknife_L" "" 26.448000 -0.000002 29.132999 -89.999983 89.999983 0.000000 0.000000 0.000000 0.000000 -0.000000 0.000000 0.000000
$definebone "Dummy03" "" 24.793407 -38.899429 -125.763962 -27.492465 -179.999966 89.999983 0.000000 0.000000 0.000000 -0.000000 0.000000 0.000000
$definebone "Dummy06" "Dummy03" 0.000008 48.388657 -0.000004 -0.000000 0.000000 0.000000 0.000000 0.000000 0.000000 -0.000000 0.000000 0.000000
$definebone "Dummy04" "" -26.853823 -40.206886 -124.675056 36.344260 -179.999966 89.999983 0.000000 0.000000 0.000000 0.000000 0.000000 0.000000
$definebone "Dummy05" "Dummy04" 0.000008 51.240398 -0.000008 0.000000 0.000000 0.000000 0.000000 0.000004 0.000000 0.000000 0.000000 0.000000
$definebone "6_4bossknife_R" "" -26.447952 -0.000001 29.132931 -89.999983 89.999983 0.000000 0.000000 0.000000 0.000000 -0.000000 0.000000 0.000000

$sequence "idle" {
	"v_zbs64knife_anims\idle"
	fps 30
	loop
	activity "ACT_VM_IDLE" 1
	snap
}
$sequence "slash1" {
	"v_zbs64knife_anims\slash1"
	fps 30
}
$sequence "slash2" {
	"v_zbs64knife_anims\slash2"
	{ event 5004 1 "JayDagger.Stab" }
	fps 30
	activity "ACT_VM_MISSLEFT" 1
	snap
}
$sequence "draw" {
	"v_zbs64knife_anims\draw"
	{ event 5004 2 "JayDagger.Draw" }
	fps 30
	activity "ACT_VM_DRAW" 1
	snap
}
$sequence "stab" {
	"v_zbs64knife_anims\stab"
	fps 30
}
$sequence "stab_miss" {
	"v_zbs64knife_anims\stab_miss"
	fps 30
}
$sequence "midslash1" {
	"v_zbs64knife_anims\midslash1"
	{ event 5004 1 "JayDagger.Midslash1" }
	fps 30
	activity "ACT_VM_HITLEFT" 1
	snap
}
$sequence "midslash2" {
	"v_zbs64knife_anims\midslash2"
	{ event 5004 1 "JayDagger.Midslash2" }
	fps 30
	activity "ACT_VM_HITRIGHT" 1
	snap
}
$sequence "midslash3" {
	"v_zbs64knife_anims\midslash3"
	fps 30
}
