version 1
nodes
  0 "pistol_root" -1
  1 "pistol_body" 0
  2 "reload" 1
  3 "roller" 1
  4 "triger" 1
  5 "R_stick" 1
  6 "M_pipe" 1
  7 "megazin" 6
  8 "bullet" 7
  9 "root" -1
  10 "Bone01" 9
  11 "Bone_L_Upper" 10
  12 "Bone_Lefthand" 10
  13 "Bone13" 12
  14 "Bone14" 13
  15 "Bone15" 14
  16 "Bone17" 12
  17 "Bone18" 16
  18 "Bone19" 17
  19 "Bone21" 12
  20 "Bone22" 19
  21 "Bone23" 20
  22 "Bone09" 12
  23 "Bone10" 22
  24 "Bone11" 23
  25 "Bone05" 12
  26 "Bone06" 25
  27 "Bone07" 26
  28 "Bone_Se_Hand-L" 12
  29 "Bone04" 9
  30 "Bone_Righthand" 29
  31 "Bone39" 30
  32 "Bone40" 31
  33 "Bone41" 32
  34 "Bone35" 30
  35 "Bone36" 34
  36 "Bone37" 35
  37 "Bone31" 30
  38 "Bone32" 37
  39 "Bone33" 38
  40 "Bone43" 30
  41 "Bone44" 40
  42 "Bone45" 41
  43 "Bone27" 30
  44 "Bone28" 43
  45 "Bone29" 44
  46 "Bone_Se_Hand-R" 30
  47 "Bone_R_Upper" 29
end
skeleton
  time 0
    0 5.410321 -10.019837 -4.078249 -1.453868 -1.519474 -3.355815
    1 1.582369 0.000001 1.434247 0.000000 0.000000 0.000000
    2 -0.135354 -0.000002 -4.511380 0.000000 0.872664 0.000000
    3 0.349163 0.565490 -3.526729 1.570796 0.000000 1.570796
    4 -1.667495 -0.000001 -2.433468 -0.000001 -1.570796 0.000000
    5 1.615030 0.000001 -1.639934 0.000000 0.000000 0.000000
    6 -1.517956 0.000000 1.203503 0.000000 0.000000 0.000000
    7 1.517956 0.000000 -0.122468 -0.000001 1.570796 0.000000
    8 2.374435 0.000000 -0.000001 0.000000 0.000000 0.000000
    9 2.497324 4.323086 -0.003287 0.000000 0.000000 -0.087311
    10 4.888093 -0.436184 -5.088981 0.482456 -1.675633 -0.470042
    11 7.569873 3.559301 -0.325593 1.565883 -3.123270 0.522324
    12 -0.095359 -8.444047 -0.131479 -0.022467 0.123881 -0.117609
    13 -0.488518 -2.755602 -0.228260 -1.012917 -0.027455 -0.375635
    14 0.039887 -1.534479 0.014229 -1.560820 -0.011313 0.034888
    15 0.028786 -1.169484 -0.128581 -1.099051 -0.015172 0.023622
    16 0.250027 -2.820665 -0.238396 -0.660699 -0.075727 -0.247692
    17 -0.049759 -1.598510 0.037977 -1.484984 0.001702 -0.040186
    18 -0.034142 -1.175657 0.045718 -1.265289 0.005465 -0.033401
    19 0.957766 -2.746780 -0.090302 -0.143287 -0.192850 0.066846
    20 -0.033420 -1.393223 -0.019070 -0.492238 0.008245 -0.023910
    21 -0.022360 -0.957436 0.007065 -0.473017 0.007802 -0.022555
    22 -1.180681 -2.507217 -0.193859 -0.872301 0.201272 -0.411077
    23 -0.024967 -1.127840 0.017597 -1.281913 -0.002649 -0.053846
    24 -0.020057 -0.906594 0.029622 -0.919408 0.006484 -0.037428
    25 0.626480 -1.197277 0.185379 0.820553 -1.032445 -0.878010
    26 1.481238 -0.208511 0.067511 0.044759 -0.208987 -0.741725
    27 1.065614 -0.132196 0.032291 0.041619 -0.192379 -0.784517
    28 0.120153 -0.050270 -0.054489 0.287569 3.110905 1.561085
    29 -3.837284 -3.973409 -8.251535 -2.226600 -4.852915 -1.419338
    30 -0.090562 -8.485576 0.057043 0.266414 -1.085839 -0.117387
    31 0.447953 -2.798986 -0.200443 -0.854253 0.007833 0.252378
    32 -0.032909 -1.495829 0.016659 -0.948515 0.019918 -0.014439
    33 -0.027022 -1.080826 -0.024116 -0.191942 0.005381 -0.001210
    34 -0.249534 -2.846964 -0.174213 -0.655860 0.041929 0.076311
    35 0.043235 -1.660503 0.084293 -0.936792 -0.015358 0.000852
    36 0.031729 -1.153017 0.058838 -0.444961 -0.003900 0.005867
    37 -0.963866 -2.785145 -0.085350 -0.710521 0.178583 -0.282454
    38 0.028479 -1.403067 -0.009354 -0.577666 -0.011313 -0.023825
    39 0.021413 -0.953875 0.020046 -0.252060 -0.003284 -0.011062
    40 1.164475 -2.543940 -0.170330 -0.953115 -0.183439 0.410106
    41 0.024032 -1.132948 0.002182 -0.738275 0.003164 0.039502
    42 0.014898 -0.903521 -0.015942 -1.007684 0.008941 0.050491
    43 -0.586770 -1.264477 0.200161 0.043111 -0.358024 -2.590196
    44 1.550180 0.039149 0.016848 -0.010934 -0.004102 0.597022
    45 1.114041 0.044518 -0.005766 -0.028287 -0.034438 1.020160
    46 -0.139399 -0.111698 0.014397 0.285382 -0.030687 1.580508
    47 -8.003047 2.682739 -0.454283 1.571852 -0.032951 -0.405731
  time 1
    0 5.468917 -9.328410 -3.964965 -1.075725 -1.511073 -3.733458
    1 1.582369 0.000001 1.434247 0.000000 0.000000 0.000000
    2 -0.135354 -0.000002 -4.511380 0.000000 -0.017452 0.000000
    3 0.349163 0.565490 -3.526729 1.570796 0.000000 1.570796
    4 -1.667495 -0.000001 -2.843637 -0.000001 -1.570796 0.000000
    5 1.615030 0.000001 1.383596 0.000000 0.000000 0.000000
    6 -1.517956 0.000000 1.203503 0.000000 0.000000 0.000000
    7 1.517956 0.000000 -0.122468 -1.256600 1.570796 0.000000
    8 2.374435 0.000000 -0.000001 0.000000 0.000000 0.000000
    9 2.497324 4.323086 -0.003287 0.000000 0.000000 -0.087311
    10 4.892000 0.227898 -5.284299 0.651417 -1.688895 -0.638160
    11 7.901914 2.430360 -0.349031 1.567033 -3.120302 0.377705
    12 -0.095359 -8.444047 -0.131479 -0.022445 0.123881 -0.118128
    13 -0.488518 -2.755602 -0.228260 -1.012917 -0.027455 -0.375635
    14 0.039887 -1.534479 0.014229 -1.560820 -0.011313 0.034888
    15 0.028786 -1.169484 -0.128581 -1.099051 -0.015172 0.023622
    16 0.250027 -2.820665 -0.238396 -0.664977 -0.071629 -0.200832
    17 -0.049759 -1.598510 0.037977 -1.484984 0.001702 -0.040186
    18 -0.034142 -1.175657 0.045718 -1.265289 0.005465 -0.033401
    19 0.957766 -2.746780 -0.090302 -0.141909 -0.085468 0.079358
    20 -0.033420 -1.393223 -0.022976 -0.780653 0.007311 -0.038400
    21 -0.022360 -0.957436 -0.000748 -0.825950 0.006352 -0.040232
    22 -1.180681 -2.507217 -0.193859 -0.872301 0.201272 -0.411077
    23 -0.024967 -1.127840 0.017597 -1.281913 -0.002649 -0.053846
    24 -0.020057 -0.906594 0.029622 -0.919408 0.006484 -0.037428
    25 0.638199 -1.197277 0.193192 0.686153 -1.279194 -0.642728
    26 1.481238 -0.208511 0.067511 0.044759 -0.208987 -0.741725
    27 1.065614 -0.132196 0.032291 0.041619 -0.192379 -0.784517
    28 0.120153 -0.050270 -0.054489 0.287569 3.110905 1.561085
    29 -4.024790 -3.594491 -8.360913 -2.101102 -4.854244 -1.260638
    30 -0.082749 -8.493389 0.057043 0.320089 -1.048774 -0.164047
    31 0.447953 -2.798986 -0.200443 -0.854253 0.007833 0.252378
    32 -0.032909 -1.495829 0.016659 -0.948515 0.019918 -0.014439
    33 -0.027022 -1.080826 -0.024116 -0.191942 0.005381 -0.001210
    34 -0.249534 -2.846964 -0.174213 -0.655860 0.041929 0.076311
    35 0.043235 -1.660503 0.084293 -0.936792 -0.015358 0.000852
    36 0.031729 -1.153017 0.058838 -0.444961 -0.003900 0.005867
    37 -0.963866 -2.785145 -0.085350 -0.710521 0.178583 -0.282454
    38 0.028479 -1.403067 -0.009354 -0.577666 -0.011313 -0.023825
    39 0.021413 -0.953875 0.020046 -0.252060 -0.003284 -0.011062
    40 1.164475 -2.543940 -0.170330 -0.953115 -0.183439 0.410106
    41 0.024032 -1.132948 0.002182 -0.738275 0.003164 0.039502
    42 0.014898 -0.903521 -0.015942 -1.007684 0.008941 0.050491
    43 -0.586770 -1.264477 0.200161 0.074315 -0.361111 -2.583091
    44 1.546273 0.039149 0.016848 -0.008645 -0.002736 0.503276
    45 1.114041 0.044518 -0.005766 -0.024692 -0.034810 0.907613
    46 -0.139399 -0.111698 0.014397 0.285382 -0.030687 1.580508
    47 -8.139770 2.010844 -0.462096 1.570066 -0.034279 -0.322758
  time 2
    0 5.398602 -9.172155 -3.418073 -0.465107 -1.448068 -4.357788
    1 1.582369 0.000001 1.434247 0.000000 0.000000 0.000000
    2 -0.135354 -0.000002 -4.511380 0.000000 0.010256 0.000000
    3 0.349163 0.565490 -3.526729 1.570796 0.000000 1.570796
    4 -1.667495 -0.000001 -2.843637 -0.000001 -1.570796 0.000000
    5 1.615030 0.000001 1.293749 0.000000 0.000000 0.000000
    6 -1.517956 0.000000 1.203503 0.000000 0.000000 0.000000
    7 1.517956 0.000000 -0.122468 -1.256600 1.570796 0.000000
    8 2.374435 0.000000 -0.000001 0.000000 0.000000 0.000000
    9 2.497324 4.323086 -0.003287 0.000000 0.000000 -0.087311
    10 4.892000 0.282588 -5.292112 0.702544 -1.694334 -0.689052
    11 7.929259 2.285825 -0.352938 1.567225 -3.120015 0.359859
    12 -0.099266 -8.455766 -0.131479 -0.031086 0.124426 -0.042332
    13 -0.488518 -2.755602 -0.228260 -1.012917 -0.027455 -0.375635
    14 0.039887 -1.534479 0.014229 -1.560820 -0.011313 0.034888
    15 0.028786 -1.169484 -0.128581 -1.099051 -0.015172 0.023622
    16 0.250027 -2.820665 -0.238396 -0.665326 -0.071281 -0.196925
    17 -0.049759 -1.598510 0.037977 -1.484984 0.001702 -0.040186
    18 -0.034142 -1.175657 0.045718 -1.265289 0.005465 -0.033401
    19 0.957766 -2.746780 -0.090302 -0.152060 -0.075521 0.119674
    20 -0.033420 -1.393223 -0.022976 -0.770938 0.007406 -0.037920
    21 -0.022360 -0.961342 -0.004654 -0.937015 0.004614 -0.045565
    22 -1.180681 -2.507217 -0.193859 -0.872301 0.201272 -0.411077
    23 -0.024967 -1.127840 0.017597 -1.281913 -0.002649 -0.053846
    24 -0.020057 -0.906594 0.029622 -0.919408 0.006484 -0.037428
    25 0.646012 -1.197277 0.201004 0.143524 -1.307888 0.036808
    26 1.496863 -0.188979 0.059698 0.033445 -0.191753 -0.666457
    27 1.092958 -0.081413 0.016666 0.007667 -0.125972 -0.512392
    28 0.120153 -0.050270 -0.054489 0.287569 3.110905 1.561085
    29 -3.981820 -3.696057 -8.325756 -2.092535 -4.865683 -1.262168
    30 -0.067124 -8.493389 0.057043 0.304054 -0.992345 -0.193614
    31 0.447953 -2.798986 -0.200443 -0.854253 0.007833 0.252378
    32 -0.032909 -1.495829 0.016659 -0.948515 0.019918 -0.014439
    33 -0.027022 -1.080826 -0.024116 -0.191942 0.005381 -0.001210
    34 -0.249534 -2.846964 -0.174213 -0.655860 0.041929 0.076311
    35 0.043235 -1.660503 0.084293 -0.936792 -0.015358 0.000852
    36 0.031729 -1.153017 0.058838 -0.444961 -0.003900 0.005867
    37 -0.963866 -2.785145 -0.085350 -0.710521 0.178583 -0.282454
    38 0.028479 -1.403067 -0.009354 -0.577666 -0.011313 -0.023825
    39 0.021413 -0.953875 0.020046 -0.252060 -0.003284 -0.011062
    40 1.164475 -2.543940 -0.170330 -0.953115 -0.183439 0.410106
    41 0.024032 -1.132948 0.002182 -0.738275 0.003164 0.039502
    42 0.014898 -0.903521 -0.015942 -1.007684 0.008941 0.050491
    43 -0.586770 -1.264477 0.200161 0.105545 -0.364408 -2.576091
    44 1.538460 0.043056 0.016848 -0.006500 -0.001154 0.409551
    45 1.114041 0.044518 -0.005766 -0.021072 -0.034774 0.795065
    46 -0.139399 -0.111698 0.014397 0.285382 -0.030687 1.580508
    47 -8.128051 2.073346 -0.458190 1.570234 -0.034157 -0.330327
  time 3
    0 5.332194 -9.148717 -3.015717 -0.331020 -1.390922 -4.503102
    1 1.582369 0.000001 1.434247 0.000000 0.000000 0.000000
    2 -0.135354 -0.000002 -4.511380 0.000000 0.037992 0.000000
    3 0.349163 0.565490 -3.526729 1.570796 0.000000 1.570796
    4 -1.667495 -0.000001 -2.843637 -0.000001 -1.570796 0.000000
    5 1.615030 0.000001 1.196090 0.000000 0.000000 0.000000
    6 -1.517956 0.000000 1.203503 0.000000 0.000000 0.000000
    7 1.517956 0.000000 -0.122468 -1.256600 1.570796 0.000000
    8 2.374435 0.000000 -0.000001 0.000000 0.000000 0.000000
    9 2.497324 4.323086 -0.003287 0.000000 0.000000 -0.087311
    10 4.892000 0.208367 -5.272580 0.708183 -1.694930 -0.694675
    11 7.909727 2.387390 -0.349031 1.567033 -3.120206 0.372480
    12 -0.099266 -8.463579 -0.131479 -0.038119 0.124369 0.019876
    13 -0.488518 -2.755602 -0.228260 -1.012917 -0.027455 -0.375635
    14 0.039887 -1.534479 0.014229 -1.560820 -0.011313 0.034888
    15 0.028786 -1.169484 -0.128581 -1.099051 -0.015172 0.023622
    16 0.250027 -2.820665 -0.238396 -0.664977 -0.071629 -0.200832
    17 -0.049759 -1.598510 0.037977 -1.484984 0.001702 -0.040186
    18 -0.034142 -1.175657 0.045718 -1.265289 0.005465 -0.033401
    19 0.957766 -2.746780 -0.090302 -0.161312 -0.087649 0.151577
    20 -0.033420 -1.393223 -0.022976 -0.717363 0.007874 -0.035260
    21 -0.022360 -0.961342 -0.004654 -0.979075 0.003811 -0.047531
    22 -1.180681 -2.507217 -0.193859 -0.872301 0.201272 -0.411077
    23 -0.024967 -1.127840 0.017597 -1.281913 -0.002649 -0.053846
    24 -0.020057 -0.906594 0.029622 -0.919408 0.006484 -0.037428
    25 0.649918 -1.197277 0.204911 -0.113210 -1.187698 0.417229
    26 1.508582 -0.169447 0.055792 0.022863 -0.172422 -0.586316
    27 1.100771 -0.034537 0.004946 -0.005600 -0.068123 -0.298542
    28 0.120153 -0.050270 -0.054489 0.287569 3.110905 1.561085
    29 -3.915411 -3.848405 -8.278880 -2.114208 -4.871809 -1.298615
    30 -0.059311 -8.493389 0.057043 0.282739 -0.955557 -0.213875
    31 0.447953 -2.798986 -0.200443 -0.854253 0.007833 0.252378
    32 -0.032909 -1.495829 0.016659 -0.948515 0.019918 -0.014439
    33 -0.027022 -1.080826 -0.024116 -0.191942 0.005381 -0.001210
    34 -0.249534 -2.846964 -0.174213 -0.655860 0.041929 0.076311
    35 0.043235 -1.660503 0.084293 -0.936792 -0.015358 0.000852
    36 0.031729 -1.153017 0.058838 -0.444961 -0.003900 0.005867
    37 -0.963866 -2.785145 -0.085350 -0.710521 0.178583 -0.282454
    38 0.028479 -1.403067 -0.009354 -0.577666 -0.011313 -0.023825
    39 0.021413 -0.953875 0.020046 -0.252060 -0.003284 -0.011062
    40 1.164475 -2.543940 -0.170330 -0.953115 -0.183439 0.410106
    41 0.024032 -1.132948 0.002182 -0.738275 0.003164 0.039502
    42 0.014898 -0.903521 -0.015942 -1.007684 0.008941 0.050491
    43 -0.586770 -1.264477 0.200161 0.128643 -0.366358 -2.574606
    44 1.538460 0.043056 0.016848 -0.005026 0.000128 0.340779
    45 1.114041 0.044518 -0.005766 -0.018460 -0.034486 0.713096
    46 -0.139399 -0.111698 0.014397 0.285382 -0.030687 1.580508
    47 -8.092893 2.272570 -0.458190 1.570773 -0.033778 -0.355041
  time 4
    0 5.308756 -9.230750 -3.078219 -0.273499 -1.365614 -4.562835
    1 1.582369 0.000001 1.434247 0.000000 0.000000 0.000000
    2 -0.135354 -0.000002 -4.511380 0.000000 0.036448 0.000000
    3 0.349163 0.565490 -3.526729 1.570796 0.000000 1.570796
    4 -1.667495 -0.000001 -2.843637 -0.000001 -1.570796 0.000000
    5 1.615030 0.000001 1.203903 0.000000 0.000000 0.000000
    6 -1.517956 0.000000 1.203503 0.000000 0.000000 0.000000
    7 1.517956 0.000000 -0.122468 -1.256600 1.570796 0.000000
    8 2.374435 0.000000 -0.000001 0.000000 0.000000 0.000000
    9 2.497324 4.323086 -0.003287 0.000000 0.000000 -0.087311
    10 4.892000 0.161490 -5.264767 0.656386 -1.689119 -0.643497
    11 7.878476 2.520207 -0.349031 1.566937 -3.120589 0.389120
    12 -0.103172 -8.467485 -0.131479 -0.038427 0.120896 0.029666
    13 -0.488518 -2.755602 -0.228260 -1.012917 -0.027455 -0.375635
    14 0.039887 -1.534479 0.014229 -1.569391 -0.011218 0.035104
    15 0.028786 -1.169484 -0.128581 -1.094744 -0.015172 0.023502
    16 0.250027 -2.820665 -0.238396 -0.669058 -0.072432 -0.197428
    17 -0.049759 -1.598510 0.037977 -1.488654 0.001630 -0.040270
    18 -0.034142 -1.175657 0.045718 -1.260500 0.005525 -0.033269
    19 0.957766 -2.746780 -0.090302 -0.163265 -0.103636 0.157917
    20 -0.033420 -1.393223 -0.022976 -0.711719 0.007910 -0.034972
    21 -0.022360 -0.961342 -0.004654 -0.992700 0.003523 -0.048154
    22 -1.180681 -2.507217 -0.193859 -0.872301 0.201272 -0.411077
    23 -0.024967 -1.127840 0.017597 -1.281913 -0.002649 -0.053846
    24 -0.020057 -0.906594 0.029622 -0.919408 0.006484 -0.037428
    25 0.646012 -1.197277 0.197098 -0.058409 -0.959508 0.465486
    26 1.516395 -0.153822 0.047979 0.016044 -0.157525 -0.526988
    27 1.100771 -0.046256 0.008853 -0.003839 -0.080563 -0.343602
    28 0.120153 -0.050270 -0.054489 0.287569 3.110905 1.561085
    29 -3.895880 -3.899188 -8.274973 -2.172930 -4.861329 -1.362899
    30 -0.059311 -8.493389 0.057043 0.278379 -0.960086 -0.224039
    31 0.447953 -2.798986 -0.200443 -0.854253 0.007833 0.252378
    32 -0.032909 -1.495829 0.016659 -0.948515 0.019918 -0.014439
    33 -0.027022 -1.080826 -0.024116 -0.191942 0.005381 -0.001210
    34 -0.249534 -2.846964 -0.174213 -0.655860 0.041929 0.076311
    35 0.043235 -1.660503 0.084293 -0.936792 -0.015358 0.000852
    36 0.031729 -1.153017 0.058838 -0.444961 -0.003900 0.005867
    37 -0.963866 -2.785145 -0.085350 -0.710521 0.178583 -0.282454
    38 0.028479 -1.403067 -0.009354 -0.577666 -0.011313 -0.023825
    39 0.021413 -0.953875 0.020046 -0.252060 -0.003284 -0.011062
    40 1.164475 -2.543940 -0.170330 -0.953115 -0.183439 0.410106
    41 0.024032 -1.132948 0.002182 -0.738275 0.003164 0.039502
    42 0.014898 -0.903521 -0.015942 -1.007684 0.008941 0.050491
    43 -0.586770 -1.264477 0.200161 0.141479 -0.365615 -2.584187
    44 1.534554 0.046962 0.016848 -0.004271 0.000847 0.304157
    45 1.114041 0.044518 -0.005766 -0.017129 -0.034270 0.671316
    46 -0.139399 -0.111698 0.014397 0.285382 -0.030687 1.580508
    47 -8.057736 2.456170 -0.454283 1.571264 -0.033412 -0.377634
  time 5
    0 5.304849 -9.390912 -3.312601 -0.250338 -1.336847 -4.585044
    1 1.582369 0.000001 1.434247 0.000000 0.000000 0.000000
    2 -0.135354 -0.000002 -4.511380 0.000000 0.032230 0.000000
    3 0.349163 0.565490 -3.526729 1.570796 0.000000 1.570796
    4 -1.667495 -0.000001 -2.843637 -0.000001 -1.570796 0.000000
    5 1.615030 0.000001 1.215622 0.000000 0.000000 0.000000
    6 -1.517956 0.000000 1.203503 0.000000 0.000000 0.000000
    7 1.517956 0.000000 -0.122468 -1.256600 1.570796 0.000000
    8 2.374435 0.000000 -0.000001 0.000000 0.000000 0.000000
    9 2.497324 4.323086 -0.003287 0.000000 0.000000 -0.087311
    10 4.888093 0.102895 -5.260861 0.572192 -1.681519 -0.559915
    11 7.839412 2.699900 -0.345125 1.566745 -3.120972 0.411790
    12 -0.103172 -8.463579 -0.135385 -0.036135 0.116190 0.017068
    13 -0.488518 -2.755602 -0.228260 -1.012917 -0.027455 -0.375635
    14 0.039887 -1.534479 0.014229 -1.578009 -0.011110 0.035308
    15 0.028786 -1.169484 -0.128581 -1.090438 -0.015161 0.023382
    16 0.250027 -2.820665 -0.238396 -0.673162 -0.073223 -0.194037
    17 -0.049759 -1.598510 0.037977 -1.492323 0.001558 -0.040354
    18 -0.034142 -1.175657 0.045718 -1.255710 0.005585 -0.033137
    19 0.957766 -2.746780 -0.090302 -0.162294 -0.123603 0.153183
    20 -0.033420 -1.393223 -0.022976 -0.714528 0.007898 -0.035116
    21 -0.022360 -0.961342 -0.004654 -0.985888 0.003667 -0.047842
    22 -1.180681 -2.507217 -0.193859 -0.872301 0.201272 -0.411077
    23 -0.024967 -1.127840 0.017597 -1.281913 -0.002649 -0.053846
    24 -0.020057 -0.906594 0.029622 -0.919408 0.006484 -0.037428
    25 0.638199 -1.197277 0.189285 0.039900 -0.702943 0.459817
    26 1.524208 -0.138196 0.044073 0.010770 -0.144007 -0.474551
    27 1.096865 -0.073600 0.016666 0.004299 -0.115570 -0.472914
    28 0.120153 -0.050270 -0.054489 0.287569 3.110905 1.561085
    29 -3.888067 -3.918720 -8.282786 -2.263649 -4.845388 -1.456168
    30 -0.063217 -8.489482 0.057043 0.279590 -0.982316 -0.228064
    31 0.447953 -2.798986 -0.200443 -0.854253 0.007833 0.252378
    32 -0.032909 -1.495829 0.016659 -0.948515 0.019918 -0.014439
    33 -0.027022 -1.080826 -0.024116 -0.191942 0.005381 -0.001210
    34 -0.249534 -2.846964 -0.174213 -0.655860 0.041929 0.076311
    35 0.043235 -1.660503 0.084293 -0.936792 -0.015358 0.000852
    36 0.031729 -1.153017 0.058838 -0.444961 -0.003900 0.005867
    37 -0.963866 -2.785145 -0.085350 -0.710521 0.178583 -0.282454
    38 0.028479 -1.403067 -0.009354 -0.577666 -0.011313 -0.023825
    39 0.021413 -0.953875 0.020046 -0.252060 -0.003284 -0.011062
    40 1.164475 -2.543940 -0.170330 -0.953115 -0.183439 0.410106
    41 0.024032 -1.132948 0.002182 -0.738275 0.003164 0.039502
    42 0.014898 -0.903521 -0.015942 -1.007684 0.008941 0.050491
    43 -0.586770 -1.264477 0.200161 0.146155 -0.363224 -2.599140
    44 1.534554 0.046962 0.016848 -0.004043 0.001087 0.292510
    45 1.114041 0.044518 -0.005766 -0.016782 -0.034198 0.660113
    46 -0.139399 -0.111698 0.014397 0.285382 -0.030687 1.580508
    47 -8.010859 2.647582 -0.454283 1.571768 -0.033019 -0.401660
  time 6
    0 5.336100 -9.566698 -3.648549 -0.304700 -1.352978 -4.524832
    1 1.582369 0.000001 1.434247 0.000000 0.000000 0.000000
    2 -0.135354 -0.000002 -4.511380 0.000000 0.026027 0.000000
    3 0.349163 0.565490 -3.526729 1.570796 0.000000 1.570796
    4 -1.667495 -0.000001 -2.843637 -0.000001 -1.570796 0.000000
    5 1.615030 0.000001 1.239060 0.000000 0.000000 0.000000
    6 -1.517956 0.000000 1.203503 0.000000 0.000000 0.000000
    7 1.517956 0.000000 -0.122468 -1.256600 1.570796 0.000000
    8 2.374435 0.000000 -0.000001 0.000000 0.000000 0.000000
    9 2.497324 4.323086 -0.003287 0.000000 0.000000 -0.087311
    10 4.888093 0.032580 -5.245235 0.510648 -1.677272 -0.498157
    11 7.796442 2.863967 -0.341219 1.566554 -3.121451 0.432610
    12 -0.099266 -8.459673 -0.135385 -0.032343 0.112833 -0.024686
    13 -0.488518 -2.755602 -0.228260 -1.012917 -0.027455 -0.375635
    14 0.039887 -1.534479 0.014229 -1.560820 -0.011313 0.034888
    15 0.028786 -1.169484 -0.128581 -1.099051 -0.015172 0.023622
    16 0.250027 -2.820665 -0.238396 -0.664977 -0.071629 -0.200832
    17 -0.049759 -1.598510 0.037977 -1.484984 0.001702 -0.040186
    18 -0.034142 -1.175657 0.045718 -1.265289 0.005465 -0.033401
    19 0.957766 -2.746780 -0.090302 -0.158124 -0.134389 0.135302
    20 -0.033420 -1.393223 -0.022976 -0.717363 0.007874 -0.035260
    21 -0.022360 -0.961342 -0.004654 -0.979075 0.003811 -0.047531
    22 -1.180681 -2.507217 -0.193859 -0.872301 0.201272 -0.411077
    23 -0.024967 -1.127840 0.017597 -1.281913 -0.002649 -0.053846
    24 -0.020057 -0.906594 0.029622 -0.919408 0.006484 -0.037428
    25 0.630386 -1.197277 0.185379 0.121271 -0.559329 0.402622
    26 1.528114 -0.122571 0.040166 0.006923 -0.132513 -0.430907
    27 1.092958 -0.081413 0.020572 0.008529 -0.128417 -0.521749
    28 0.120153 -0.050270 -0.054489 0.287569 3.110905 1.561085
    29 -3.888067 -3.903094 -8.298411 -2.332769 -4.833284 -1.522460
    30 -0.074936 -8.489482 0.057043 0.286760 -1.018873 -0.215987
    31 0.447953 -2.798986 -0.200443 -0.854253 0.007833 0.252378
    32 -0.032909 -1.495829 0.016659 -0.948515 0.019918 -0.014439
    33 -0.027022 -1.080826 -0.024116 -0.191942 0.005381 -0.001210
    34 -0.249534 -2.846964 -0.174213 -0.655860 0.041929 0.076311
    35 0.043235 -1.660503 0.084293 -0.936792 -0.015358 0.000852
    36 0.031729 -1.153017 0.058838 -0.444961 -0.003900 0.005867
    37 -0.963866 -2.785145 -0.085350 -0.710521 0.178583 -0.282454
    38 0.028479 -1.403067 -0.009354 -0.577666 -0.011313 -0.023825
    39 0.021413 -0.953875 0.020046 -0.252060 -0.003284 -0.011062
    40 1.164475 -2.543940 -0.170330 -0.953115 -0.183439 0.410106
    41 0.024032 -1.132948 0.002182 -0.738275 0.003164 0.039502
    42 0.014898 -0.903521 -0.015942 -1.007684 0.008941 0.050491
    43 -0.586770 -1.264477 0.200161 0.140933 -0.361343 -2.607960
    44 1.534554 0.046962 0.016848 -0.004379 0.000740 0.309217
    45 1.114041 0.044518 -0.005766 -0.017453 -0.034330 0.681508
    46 -0.139399 -0.111698 0.014397 0.285382 -0.030687 1.580508
    47 -7.987421 2.749148 -0.450377 1.572019 -0.032816 -0.413989
  time 7
    0 5.394696 -9.715140 -4.027467 -0.414573 -1.450680 -4.400770
    1 1.582369 0.000001 1.434247 0.000000 0.000000 0.000000
    2 -0.135354 -0.000002 -4.511380 0.000000 0.018472 0.000000
    3 0.349163 0.565490 -3.526729 1.570796 0.000000 1.570796
    4 -1.667495 -0.000001 -2.843637 -0.000001 -1.570796 0.000000
    5 1.615030 0.000001 1.262498 0.000000 0.000000 0.000000
    6 -1.517956 0.000000 1.203503 0.000000 0.000000 0.000000
    7 1.517956 0.000000 -0.122468 -1.256600 1.570796 0.000000
    8 2.374435 0.000000 -0.000001 0.000000 0.000000 0.000000
    9 2.497324 4.323086 -0.003287 0.000000 0.000000 -0.087311
    10 4.892000 -0.045547 -5.225704 0.484558 -1.676229 -0.471091
    11 7.757378 3.000690 -0.337312 1.566458 -3.121738 0.449814
    12 -0.099266 -8.447954 -0.135385 -0.028132 0.111197 -0.083355
    13 -0.488518 -2.755602 -0.228260 -1.012917 -0.027455 -0.375635
    14 0.039887 -1.534479 0.014229 -1.522159 -0.011733 0.033941
    15 0.028786 -1.173390 -0.128581 -1.118543 -0.015172 0.024137
    16 0.250027 -2.820665 -0.238396 -0.646622 -0.067865 -0.216052
    17 -0.049759 -1.598510 0.037977 -1.468470 0.002013 -0.039815
    18 -0.034142 -1.175657 0.045718 -1.286870 0.005177 -0.033964
    19 0.957766 -2.746780 -0.090302 -0.152347 -0.136115 0.110219
    20 -0.033420 -1.393223 -0.022976 -0.717363 0.007874 -0.035260
    21 -0.022360 -0.961342 -0.004654 -0.979075 0.003811 -0.047531
    22 -1.180681 -2.507217 -0.193859 -0.872301 0.201272 -0.411077
    23 -0.024967 -1.127840 0.017597 -1.281913 -0.002649 -0.053846
    24 -0.020057 -0.906594 0.029622 -0.919408 0.006484 -0.037428
    25 0.622574 -1.197277 0.185379 0.183667 -0.516361 0.307308
    26 1.532021 -0.110851 0.036260 0.003939 -0.122207 -0.392322
    27 1.096865 -0.073600 0.016666 0.004455 -0.116085 -0.474842
    28 0.120153 -0.050270 -0.054489 0.287569 3.110905 1.561085
    29 -3.891973 -3.852311 -8.314037 -2.349536 -4.827159 -1.532505
    30 -0.086655 -8.489482 0.057043 0.297369 -1.061438 -0.191700
    31 0.447953 -2.798986 -0.200443 -0.854253 0.007833 0.252378
    32 -0.032909 -1.495829 0.016659 -0.948515 0.019918 -0.014439
    33 -0.027022 -1.080826 -0.024116 -0.191942 0.005381 -0.001210
    34 -0.249534 -2.846964 -0.174213 -0.655860 0.041929 0.076311
    35 0.043235 -1.660503 0.084293 -0.936792 -0.015358 0.000852
    36 0.031729 -1.153017 0.058838 -0.444961 -0.003900 0.005867
    37 -0.963866 -2.785145 -0.085350 -0.710521 0.178583 -0.282454
    38 0.028479 -1.403067 -0.009354 -0.577666 -0.011313 -0.023825
    39 0.021413 -0.953875 0.020046 -0.252060 -0.003284 -0.011062
    40 1.164475 -2.543940 -0.170330 -0.953115 -0.183439 0.410106
    41 0.024032 -1.132948 0.002182 -0.738275 0.003164 0.039502
    42 0.014898 -0.903521 -0.015942 -1.007684 0.008941 0.050491
    43 -0.586770 -1.264477 0.200161 0.127020 -0.360531 -2.607889
    44 1.538460 0.043056 0.016848 -0.005229 -0.000063 0.350441
    45 1.114041 0.044518 -0.005766 -0.019011 -0.034570 0.730451
    46 -0.139399 -0.111698 0.014397 0.285382 -0.030687 1.580508
    47 -7.991328 2.737428 -0.450377 1.571995 -0.032829 -0.412785
  time 8
    0 5.461104 -9.828425 -4.425916 0.794030 -1.628048 0.695920
    1 1.582369 0.000001 1.434247 0.000000 0.000000 0.000000
    2 -0.135354 -0.000002 -4.511380 0.000000 0.010256 0.000000
    3 0.349163 0.565490 -3.526729 1.570796 0.000000 1.570796
    4 -1.667495 -0.000001 -2.843637 -0.000001 -1.570796 0.000000
    5 1.615030 0.000001 1.293749 0.000000 0.000000 0.000000
    6 -1.517956 0.000000 1.203503 0.000000 0.000000 0.000000
    7 1.517956 0.000000 -0.122468 -1.256600 1.570796 0.000000
    8 2.374435 0.000000 -0.000001 0.000000 0.000000 0.000000
    9 2.497324 4.323086 -0.003287 0.000000 0.000000 -0.087311
    10 4.895906 -0.123675 -5.202265 0.457991 -1.675186 -0.443452
    11 7.714408 3.133507 -0.337312 1.566266 -3.122121 0.467097
    12 -0.095359 -8.440141 -0.135385 -0.023878 0.109820 -0.142024
    13 -0.488518 -2.755602 -0.228260 -1.012917 -0.027455 -0.375635
    14 0.039887 -1.530573 0.014229 -1.483497 -0.012116 0.032983
    15 0.028786 -1.177297 -0.128581 -1.137979 -0.015172 0.024664
    16 0.250027 -2.820665 -0.238396 -0.628332 -0.063815 -0.231189
    17 -0.049759 -1.598510 0.041883 -1.452003 0.002313 -0.039443
    18 -0.034142 -1.175657 0.045718 -1.308450 0.004890 -0.034528
    19 0.957766 -2.746780 -0.090302 -0.146535 -0.137685 0.085111
    20 -0.033420 -1.393223 -0.022976 -0.717363 0.007874 -0.035260
    21 -0.022360 -0.961342 -0.004654 -0.979075 0.003811 -0.047531
    22 -1.180681 -2.507217 -0.193859 -0.872301 0.201272 -0.411077
    23 -0.024967 -1.127840 0.017597 -1.281913 -0.002649 -0.053846
    24 -0.020057 -0.906594 0.029622 -0.919408 0.006484 -0.037428
    25 0.618667 -1.197277 0.181473 0.239752 -0.468586 0.217497
    26 1.532021 -0.099132 0.036260 0.001374 -0.111780 -0.353806
    27 1.096865 -0.061881 0.012759 0.000955 -0.103573 -0.428059
    28 0.120153 -0.050270 -0.054489 0.287569 3.110905 1.561085
    29 -3.899786 -3.797622 -8.329662 -2.344850 -4.823173 -1.520356
    30 -0.098374 -8.489482 0.057043 0.308414 -1.103725 -0.166093
    31 0.447953 -2.798986 -0.200443 -0.854253 0.007833 0.252378
    32 -0.032909 -1.495829 0.016659 -0.948515 0.019918 -0.014439
    33 -0.027022 -1.080826 -0.024116 -0.191942 0.005381 -0.001210
    34 -0.249534 -2.846964 -0.174213 -0.655860 0.041929 0.076311
    35 0.043235 -1.660503 0.084293 -0.936792 -0.015358 0.000852
    36 0.031729 -1.153017 0.058838 -0.444961 -0.003900 0.005867
    37 -0.963866 -2.785145 -0.085350 -0.710521 0.178583 -0.282454
    38 0.028479 -1.403067 -0.009354 -0.577666 -0.011313 -0.023825
    39 0.021413 -0.953875 0.020046 -0.252060 -0.003284 -0.011062
    40 1.164475 -2.543940 -0.170330 -0.953115 -0.183439 0.410106
    41 0.024032 -1.132948 0.002182 -0.738275 0.003164 0.039502
    42 0.014898 -0.903521 -0.015942 -1.007684 0.008941 0.050491
    43 -0.586770 -1.264477 0.200161 0.108157 -0.359950 -2.604778
    44 1.538460 0.043056 0.016848 -0.006416 -0.001094 0.405952
    45 1.114041 0.044518 -0.005766 -0.021096 -0.034774 0.795831
    46 -0.139399 -0.111698 0.014397 0.285382 -0.030687 1.580508
    47 -8.003047 2.690552 -0.450377 1.571875 -0.032938 -0.406821
  time 9
    0 5.531419 -9.906552 -4.828272 0.436560 -1.776578 1.072605
    1 1.582369 0.000001 1.434247 0.000000 0.000000 0.000000
    2 -0.135354 -0.000002 -4.511380 0.000000 0.002068 0.000000
    3 0.349163 0.565490 -3.526729 1.570796 0.000000 1.570796
    4 -1.667495 -0.000001 -2.843637 -0.000001 -1.570796 0.000000
    5 1.615030 0.000001 1.321094 0.000000 0.000000 0.000000
    6 -1.517956 0.000000 1.203503 0.000000 0.000000 0.000000
    7 1.517956 0.000000 -0.122468 -1.256600 1.570796 0.000000
    8 2.374435 0.000000 -0.000001 0.000000 0.000000 0.000000
    9 2.497324 4.323086 -0.003287 0.000000 0.000000 -0.087311
    10 4.903719 -0.201802 -5.178827 0.430945 -1.674218 -0.415433
    11 7.675345 3.270230 -0.333406 1.566170 -3.122504 0.484380
    12 -0.091453 -8.428422 -0.135385 -0.019535 0.108672 -0.200693
    13 -0.488518 -2.755602 -0.228260 -1.012917 -0.027455 -0.375635
    14 0.039887 -1.530573 0.014229 -1.444882 -0.012464 0.032000
    15 0.028786 -1.177297 -0.128581 -1.157471 -0.015161 0.025180
    16 0.250027 -2.820665 -0.238396 -0.610107 -0.059488 -0.246254
    17 -0.049759 -1.598510 0.041883 -1.435535 0.002625 -0.039060
    18 -0.034142 -1.179563 0.045718 -1.330030 0.004578 -0.035079
    19 0.957766 -2.746780 -0.090302 -0.140674 -0.139123 0.059991
    20 -0.033420 -1.393223 -0.022976 -0.717363 0.007874 -0.035260
    21 -0.022360 -0.961342 -0.004654 -0.979075 0.003811 -0.047531
    22 -1.180681 -2.507217 -0.193859 -0.872301 0.201272 -0.411077
    23 -0.024967 -1.127840 0.017597 -1.281913 -0.002649 -0.053846
    24 -0.020057 -0.906594 0.029622 -0.919408 0.006484 -0.037428
    25 0.610855 -1.197277 0.181473 0.289616 -0.416700 0.132822
    26 1.535927 -0.087413 0.032354 -0.000795 -0.101281 -0.315383
    27 1.100771 -0.054069 0.008853 -0.001933 -0.090918 -0.381357
    28 0.120153 -0.050270 -0.054489 0.287569 3.110905 1.561085
    29 -3.911505 -3.739027 -8.345288 -2.322518 -4.821107 -1.490127
    30 -0.110094 -8.489482 0.053137 0.319120 -1.146151 -0.138638
    31 0.447953 -2.798986 -0.200443 -0.854253 0.007833 0.252378
    32 -0.032909 -1.495829 0.016659 -0.948515 0.019918 -0.014439
    33 -0.027022 -1.080826 -0.024116 -0.191942 0.005381 -0.001210
    34 -0.249534 -2.846964 -0.174213 -0.655860 0.041929 0.076311
    35 0.043235 -1.660503 0.084293 -0.936792 -0.015358 0.000852
    36 0.031729 -1.153017 0.058838 -0.444961 -0.003900 0.005867
    37 -0.963866 -2.785145 -0.085350 -0.710521 0.178583 -0.282454
    38 0.028479 -1.403067 -0.009354 -0.577666 -0.011313 -0.023825
    39 0.021413 -0.953875 0.020046 -0.252060 -0.003284 -0.011062
    40 1.164475 -2.543940 -0.170330 -0.953115 -0.183439 0.410106
    41 0.024032 -1.132948 0.002182 -0.738275 0.003164 0.039502
    42 0.014898 -0.903521 -0.015942 -1.007684 0.008941 0.050491
    43 -0.586770 -1.264477 0.200161 0.086475 -0.359416 -2.599900
    44 1.542367 0.043056 0.016848 -0.007854 -0.002197 0.469642
    45 1.114041 0.044518 -0.005766 -0.023505 -0.034846 0.870607
    46 -0.139399 -0.111698 0.014397 0.285382 -0.030687 1.580508
    47 -8.018672 2.616331 -0.454283 1.571684 -0.033087 -0.397646
  time 10
    0 5.539232 -9.922178 -4.734519 0.650180 -1.825641 0.856933
    1 1.582369 0.000001 1.434247 0.000000 0.000000 0.000000
    2 -0.135354 -0.000002 -4.511380 0.000000 -0.005459 0.000000
    3 0.349163 0.565490 -3.526729 1.570796 0.000000 1.570796
    4 -1.667495 -0.000001 -2.734259 -0.000001 -1.570796 0.000000
    5 1.615030 0.000001 1.340626 0.000000 0.000000 0.000000
    6 -1.517956 0.000000 1.203503 0.000000 0.000000 0.000000
    7 1.517956 0.000000 -0.122468 -1.256600 1.570796 0.000000
    8 2.374435 0.000000 -0.000001 0.000000 0.000000 0.000000
    9 2.497324 4.323086 -0.003287 0.000000 0.000000 -0.087311
    10 4.915438 -0.248679 -5.155389 0.498511 -1.679135 -0.480716
    11 7.671438 3.270230 -0.333406 1.566170 -3.122504 0.484541
    12 -0.091453 -8.428422 -0.135385 -0.025685 0.111054 -0.196353
    13 -0.488518 -2.755602 -0.228260 -1.012917 -0.027455 -0.375635
    14 0.039887 -1.530573 0.014229 -1.423502 -0.012644 0.031461
    15 0.028786 -1.165578 -0.124675 -1.060689 -0.015125 0.022591
    16 0.250027 -2.820665 -0.238396 -0.600046 -0.056972 -0.254547
    17 -0.049759 -1.598510 0.041883 -1.426408 0.002780 -0.038844
    18 -0.034142 -1.179563 0.045718 -1.358821 0.004147 -0.035810
    19 0.957766 -2.746780 -0.090302 -0.135940 -0.161774 0.036717
    20 -0.033420 -1.393223 -0.022976 -0.635647 0.008305 -0.031149
    21 -0.022360 -0.957436 -0.000748 -0.795416 0.006723 -0.038734
    22 -1.180681 -2.507217 -0.193859 -0.872301 0.201272 -0.411077
    23 -0.024967 -1.127840 0.017597 -1.281913 -0.002649 -0.053846
    24 -0.020057 -0.906594 0.029622 -0.919408 0.006484 -0.037428
    25 0.614761 -1.197277 0.181473 0.282973 -0.467196 0.141160
    26 1.535927 -0.087413 0.032354 -0.000855 -0.100946 -0.314177
    27 1.100771 -0.054069 0.008853 -0.002017 -0.090498 -0.379839
    28 0.120153 -0.050270 -0.054489 0.287569 3.110905 1.561085
    29 -3.880254 -3.774184 -8.317943 -2.233263 -4.834244 -1.401163
    30 -0.106187 -8.493389 0.057043 0.324546 -1.134921 -0.137912
    31 0.447953 -2.798986 -0.200443 -0.854253 0.007833 0.252378
    32 -0.032909 -1.495829 0.016659 -0.948515 0.019918 -0.014439
    33 -0.027022 -1.080826 -0.024116 -0.191942 0.005381 -0.001210
    34 -0.249534 -2.846964 -0.174213 -0.655860 0.041929 0.076311
    35 0.043235 -1.660503 0.084293 -0.936792 -0.015358 0.000852
    36 0.031729 -1.153017 0.058838 -0.444961 -0.003900 0.005867
    37 -0.963866 -2.785145 -0.085350 -0.710521 0.178583 -0.282454
    38 0.028479 -1.403067 -0.009354 -0.577666 -0.011313 -0.023825
    39 0.021413 -0.953875 0.020046 -0.252060 -0.003284 -0.011062
    40 1.164475 -2.543940 -0.170330 -0.953115 -0.183439 0.410106
    41 0.024032 -1.132948 0.002182 -0.738275 0.003164 0.039502
    42 0.014898 -0.903521 -0.015942 -1.007684 0.008941 0.050491
    43 -0.586770 -1.264477 0.200161 0.064078 -0.358790 -2.594597
    44 1.546273 0.039149 0.016848 -0.009412 -0.003227 0.535383
    45 1.114041 0.044518 -0.005766 -0.025974 -0.034726 0.947740
    46 -0.139399 -0.111698 0.014397 0.285382 -0.030687 1.580508
    47 -8.034298 2.549923 -0.454283 1.571516 -0.033222 -0.389561
  time 11
    0 5.547044 -9.945616 -4.621235 0.840448 -1.834324 0.661363
    1 1.582369 0.000001 1.434247 0.000000 0.000000 0.000000
    2 -0.135354 -0.000002 -4.511380 0.000000 -0.011662 0.000000
    3 0.349163 0.565490 -3.526729 1.570796 0.000000 1.570796
    4 -1.667495 -0.000001 -2.538940 -0.000001 -1.570796 0.000000
    5 1.615030 0.000001 1.364064 0.000000 0.000000 0.000000
    6 -1.517956 0.000000 1.203503 0.000000 0.000000 0.000000
    7 1.517956 0.000000 -0.122468 -1.256600 1.570796 0.000000
    8 2.374435 0.000000 -0.000001 0.000000 0.000000 0.000000
    9 2.497324 4.323086 -0.003287 0.000000 0.000000 -0.087311
    10 4.927157 -0.295555 -5.131951 0.559386 -1.684425 -0.539233
    11 7.671438 3.274136 -0.333406 1.566170 -3.122504 0.484943
    12 -0.091453 -8.428422 -0.135385 -0.031836 0.113493 -0.191918
    13 -0.488518 -2.755602 -0.228260 -1.012917 -0.027455 -0.375635
    14 0.039887 -1.526666 0.014229 -1.402122 -0.012812 0.030909
    15 0.028786 -1.153858 -0.120768 -0.963851 -0.014849 0.020002
    16 0.250027 -2.820665 -0.238396 -0.590028 -0.054383 -0.262816
    17 -0.049759 -1.598510 0.041883 -1.417281 0.002948 -0.038640
    18 -0.034142 -1.179563 0.045718 -1.387665 0.003703 -0.036529
    19 0.957766 -2.746780 -0.090302 -0.130643 -0.184305 0.013239
    20 -0.033420 -1.393223 -0.019070 -0.553931 0.008401 -0.027026
    21 -0.022360 -0.957436 0.003159 -0.611727 0.007970 -0.029554
    22 -1.180681 -2.507217 -0.193859 -0.872301 0.201272 -0.411077
    23 -0.024967 -1.127840 0.017597 -1.281913 -0.002649 -0.053846
    24 -0.020057 -0.906594 0.029622 -0.919408 0.006484 -0.037428
    25 0.618667 -1.197277 0.181473 0.275666 -0.517635 0.150131
    26 1.535927 -0.087413 0.032354 -0.000915 -0.100622 -0.312970
    27 1.100771 -0.050162 0.008853 -0.002113 -0.090079 -0.378279
    28 0.120153 -0.050270 -0.054489 0.287569 3.110905 1.561085
    29 -3.845097 -3.809341 -8.290599 -2.164144 -4.847528 -1.332479
    30 -0.102281 -8.493389 0.057043 0.328663 -1.123598 -0.136460
    31 0.447953 -2.798986 -0.200443 -0.854253 0.007833 0.252378
    32 -0.032909 -1.495829 0.016659 -0.948515 0.019918 -0.014439
    33 -0.027022 -1.080826 -0.024116 -0.191942 0.005381 -0.001210
    34 -0.249534 -2.846964 -0.174213 -0.655860 0.041929 0.076311
    35 0.043235 -1.660503 0.084293 -0.936792 -0.015358 0.000852
    36 0.031729 -1.153017 0.058838 -0.444961 -0.003900 0.005867
    37 -0.963866 -2.785145 -0.085350 -0.710521 0.178583 -0.282454
    38 0.028479 -1.403067 -0.009354 -0.577666 -0.011313 -0.023825
    39 0.021413 -0.953875 0.020046 -0.252060 -0.003284 -0.011062
    40 1.164475 -2.543940 -0.170330 -0.953115 -0.183439 0.410106
    41 0.024032 -1.132948 0.002182 -0.738275 0.003164 0.039502
    42 0.014898 -0.903521 -0.015942 -1.007684 0.008941 0.050491
    43 -0.586770 -1.264477 0.200161 0.043111 -0.358024 -2.590196
    44 1.550180 0.039149 0.016848 -0.010934 -0.004102 0.597022
    45 1.114041 0.044518 -0.005766 -0.028287 -0.034438 1.020160
    46 -0.139399 -0.111698 0.014397 0.285382 -0.030687 1.580508
    47 -8.046017 2.499140 -0.454283 1.571372 -0.033331 -0.382852
  time 12
    0 5.554857 -9.980773 -4.496231 0.914048 -1.830759 0.584685
    1 1.582369 0.000001 1.434247 0.000000 0.000000 0.000000
    2 -0.135354 -0.000002 -4.511380 0.000000 -0.015881 0.000000
    3 0.349163 0.565490 -3.526729 1.570796 0.000000 1.570796
    4 -1.667495 -0.000001 -2.433468 -0.000001 -1.570796 0.000000
    5 1.615030 0.000001 1.375783 0.000000 0.000000 0.000000
    6 -1.517956 0.000000 1.203503 0.000000 0.000000 0.000000
    7 1.517956 0.000000 -0.122468 -1.256600 1.570796 0.000000
    8 2.374435 0.000000 -0.000001 0.000000 0.000000 0.000000
    9 2.497324 4.323086 -0.003287 0.000000 0.000000 -0.087311
    10 4.938876 -0.346338 -5.104606 0.628481 -1.691205 -0.606423
    11 7.675345 3.270230 -0.333406 1.566170 -3.122504 0.484461
    12 -0.087546 -8.428422 -0.135385 -0.036818 0.115961 -0.197509
    13 -0.488518 -2.755602 -0.228260 -1.012917 -0.027455 -0.375635
    14 0.039887 -1.526666 0.014229 -1.397836 -0.012835 0.030801
    15 0.028786 -1.146046 -0.116862 -0.896761 -0.014513 0.018241
    16 0.250027 -2.820665 -0.238396 -0.588020 -0.053856 -0.264482
    17 -0.049759 -1.598510 0.041883 -1.415446 0.002972 -0.038592
    18 -0.034142 -1.179563 0.041812 -1.399613 0.003511 -0.036829
    19 0.957766 -2.746780 -0.090302 -0.126532 -0.201131 -0.003599
    20 -0.033420 -1.393223 -0.019070 -0.492238 0.008245 -0.023910
    21 -0.022360 -0.957436 0.007065 -0.473017 0.007802 -0.022555
    22 -1.180681 -2.507217 -0.193859 -0.872301 0.201272 -0.411077
    23 -0.024967 -1.127840 0.017597 -1.281913 -0.002649 -0.053846
    24 -0.020057 -0.906594 0.029622 -0.919408 0.006484 -0.037428
    25 0.618667 -1.197277 0.181473 0.257089 -0.540132 0.190084
    26 1.535927 -0.091320 0.032354 -0.000291 -0.103906 -0.324942
    27 1.096865 -0.065788 0.012759 0.001854 -0.107013 -0.440863
    28 0.120153 -0.050270 -0.054489 0.287569 3.110905 1.561085
    29 -3.809939 -3.856218 -8.267161 -2.125338 -4.858008 -1.296032
    30 -0.102281 -8.493389 0.057043 0.326047 -1.119808 -0.124316
    31 0.447953 -2.798986 -0.200443 -0.854253 0.007833 0.252378
    32 -0.032909 -1.495829 0.016659 -0.948515 0.019918 -0.014439
    33 -0.027022 -1.080826 -0.024116 -0.191942 0.005381 -0.001210
    34 -0.249534 -2.846964 -0.174213 -0.655860 0.041929 0.076311
    35 0.043235 -1.660503 0.084293 -0.936792 -0.015358 0.000852
    36 0.031729 -1.153017 0.058838 -0.444961 -0.003900 0.005867
    37 -0.963866 -2.785145 -0.085350 -0.710521 0.178583 -0.282454
    38 0.028479 -1.403067 -0.009354 -0.577666 -0.011313 -0.023825
    39 0.021413 -0.953875 0.020046 -0.252060 -0.003284 -0.011062
    40 1.164475 -2.543940 -0.170330 -0.953115 -0.183439 0.410106
    41 0.024032 -1.132948 0.002182 -0.738275 0.003164 0.039502
    42 0.014898 -0.903521 -0.015942 -1.007684 0.008941 0.050491
    43 -0.586770 -1.264477 0.200161 0.043111 -0.358024 -2.590196
    44 1.550180 0.039149 0.016848 -0.010934 -0.004102 0.597022
    45 1.114041 0.044518 -0.005766 -0.028287 -0.034438 1.020160
    46 -0.139399 -0.111698 0.014397 0.285382 -0.030687 1.580508
    47 -8.049923 2.491327 -0.454283 1.571348 -0.033344 -0.381992
  time 13
    0 5.578295 -10.023743 -4.468886 0.741199 -1.838877 0.754696
    1 1.582369 0.000001 1.434247 0.000000 0.000000 0.000000
    2 -0.135354 -0.000002 -4.511380 0.000000 -0.017452 0.000000
    3 0.349163 0.565490 -3.526729 1.570796 0.000000 1.570796
    4 -1.667495 -0.000001 -2.433468 -0.000001 -1.570796 0.000000
    5 1.615030 0.000001 1.383596 0.000000 0.000000 0.000000
    6 -1.517956 0.000000 1.203503 0.000000 0.000000 0.000000
    7 1.517956 0.000000 -0.122468 -1.256600 1.570460 0.000000
    8 2.374435 0.000000 -0.000001 0.000000 0.000000 0.000000
    9 2.497324 4.323086 -0.003287 0.000000 0.000000 -0.087311
    10 4.950595 -0.397121 -5.077262 0.691077 -1.698804 -0.666465
    11 7.675345 3.262417 -0.333406 1.566170 -3.122408 0.483657
    12 -0.083640 -8.424515 -0.131479 -0.042638 0.122159 -0.228247
    13 -0.488518 -2.755602 -0.228260 -1.012917 -0.027455 -0.375635
    14 0.039887 -1.530573 0.014229 -1.435007 -0.012548 0.031748
    15 0.028786 -1.146046 -0.116862 -0.893701 -0.014501 0.018157
    16 0.250027 -2.820665 -0.238396 -0.605458 -0.058338 -0.250089
    17 -0.049759 -1.598510 0.041883 -1.431301 0.002697 -0.038964
    18 -0.034142 -1.179563 0.045718 -1.370243 0.003979 -0.036098
    19 0.957766 -2.746780 -0.090302 -0.125418 -0.204331 -0.008009
    20 -0.033420 -1.393223 -0.019070 -0.481260 0.008197 -0.023359
    21 -0.022360 -0.957436 0.007065 -0.448384 0.007658 -0.021309
    22 -1.180681 -2.507217 -0.193859 -0.872301 0.201272 -0.411077
    23 -0.024967 -1.127840 0.017597 -1.281913 -0.002649 -0.053846
    24 -0.020057 -0.906594 0.029622 -0.919408 0.006484 -0.037428
    25 0.622574 -1.197277 0.185379 0.224408 -0.485003 0.305908
    26 1.532021 -0.103039 0.036260 0.001674 -0.113098 -0.358632
    27 1.077333 -0.108758 0.028385 0.024900 -0.165270 -0.668132
    28 0.120153 -0.050270 -0.054489 0.287569 3.110905 1.561085
    29 -3.794314 -3.864031 -8.251535 -2.081186 -4.869004 -1.250976
    30 -0.106187 -8.493389 0.057043 0.329245 -1.129606 -0.096597
    31 0.447953 -2.798986 -0.200443 -0.854253 0.007833 0.252378
    32 -0.032909 -1.495829 0.016659 -0.948515 0.019918 -0.014439
    33 -0.027022 -1.080826 -0.024116 -0.191942 0.005381 -0.001210
    34 -0.249534 -2.846964 -0.174213 -0.655860 0.041929 0.076311
    35 0.043235 -1.660503 0.084293 -0.936792 -0.015358 0.000852
    36 0.031729 -1.153017 0.058838 -0.444961 -0.003900 0.005867
    37 -0.963866 -2.785145 -0.085350 -0.710521 0.178583 -0.282454
    38 0.028479 -1.403067 -0.009354 -0.577666 -0.011313 -0.023825
    39 0.021413 -0.953875 0.020046 -0.252060 -0.003284 -0.011062
    40 1.164475 -2.543940 -0.170330 -0.953115 -0.183439 0.410106
    41 0.024032 -1.132948 0.002182 -0.738275 0.003164 0.039502
    42 0.014898 -0.903521 -0.015942 -1.007684 0.008941 0.050491
    43 -0.586770 -1.264477 0.200161 0.043111 -0.358024 -2.590196
    44 1.550180 0.039149 0.016848 -0.010934 -0.004102 0.597022
    45 1.114041 0.044518 -0.005766 -0.028287 -0.034438 1.020160
    46 -0.139399 -0.111698 0.014397 0.285382 -0.030687 1.580508
    47 -8.065549 2.413200 -0.454283 1.571144 -0.033507 -0.372358
  time 14
    0 5.629078 -10.070620 -4.453261 0.469770 -1.824582 1.028475
    1 1.582369 0.000001 1.434247 0.000000 0.000000 0.000000
    2 -0.135354 -0.000002 -4.511380 0.000000 0.213314 0.000000
    3 0.349163 0.565490 -3.526729 1.570796 0.000000 1.570796
    4 -1.667495 -0.000001 -2.433468 -0.000001 -1.570796 0.000000
    5 1.615030 0.000001 0.602322 0.000000 0.000000 0.000000
    6 -1.517956 0.000000 1.203503 0.000000 0.000000 0.000000
    7 1.517956 0.000000 -0.122468 -1.256600 1.570796 0.000000
    8 2.374435 0.000000 -0.000001 0.000000 0.000000 0.000000
    9 2.497324 4.323086 -0.003287 0.000000 0.000000 -0.087311
    10 4.962314 -0.443997 -5.049917 0.742873 -1.706180 -0.716119
    11 7.679251 3.254604 -0.333406 1.566170 -3.122408 0.482692
    12 -0.083640 -8.416703 -0.135385 -0.041822 0.120552 -0.257923
    13 -0.488518 -2.755602 -0.228260 -1.012917 -0.027455 -0.375635
    14 0.039887 -1.530573 0.014229 -1.494397 -0.012021 0.033258
    15 0.028786 -1.149952 -0.120768 -0.945605 -0.014777 0.019523
    16 0.250027 -2.820665 -0.238396 -0.633483 -0.064977 -0.226934
    17 -0.049759 -1.598510 0.041883 -1.456660 0.002229 -0.039551
    18 -0.034142 -1.179563 0.045718 -1.319556 0.004734 -0.034815
    19 0.957766 -2.746780 -0.090302 -0.128582 -0.200184 0.004934
    20 -0.033420 -1.393223 -0.019070 -0.492238 0.008245 -0.023910
    21 -0.022360 -0.957436 0.007065 -0.473017 0.007802 -0.022555
    22 -1.180681 -2.507217 -0.193859 -0.872301 0.201272 -0.411077
    23 -0.024967 -1.127840 0.017597 -1.281913 -0.002649 -0.053846
    24 -0.020057 -0.906594 0.029622 -0.919408 0.006484 -0.037428
    25 0.626480 -1.197277 0.185379 0.180058 -0.402280 0.439140
    26 1.528114 -0.122571 0.040166 0.006875 -0.132358 -0.430327
    27 1.038269 -0.159541 0.044010 0.074612 -0.230898 -0.971323
    28 0.120153 -0.050270 -0.054489 0.287569 3.110905 1.561085
    29 -3.763063 -3.883562 -8.232003 -2.053290 -4.876237 -1.221321
    30 -0.110094 -8.493389 0.053137 0.326580 -1.145643 -0.074290
    31 0.447953 -2.798986 -0.200443 -0.854253 0.007833 0.252378
    32 -0.032909 -1.495829 0.016659 -0.948515 0.019918 -0.014439
    33 -0.027022 -1.080826 -0.024116 -0.191942 0.005381 -0.001210
    34 -0.249534 -2.846964 -0.174213 -0.655860 0.041929 0.076311
    35 0.043235 -1.660503 0.084293 -0.936792 -0.015358 0.000852
    36 0.031729 -1.153017 0.058838 -0.444961 -0.003900 0.005867
    37 -0.963866 -2.785145 -0.085350 -0.710521 0.178583 -0.282454
    38 0.028479 -1.403067 -0.009354 -0.577666 -0.011313 -0.023825
    39 0.021413 -0.953875 0.020046 -0.252060 -0.003284 -0.011062
    40 1.164475 -2.543940 -0.170330 -0.953115 -0.183439 0.410106
    41 0.024032 -1.132948 0.002182 -0.738275 0.003164 0.039502
    42 0.014898 -0.903521 -0.015942 -1.007684 0.008941 0.050491
    43 -0.586770 -1.264477 0.200161 0.043111 -0.358024 -2.590196
    44 1.550180 0.039149 0.016848 -0.010934 -0.004102 0.597022
    45 1.114041 0.044518 -0.005766 -0.028287 -0.034438 1.020160
    46 -0.139399 -0.111698 0.014397 0.285382 -0.030687 1.580508
    47 -8.069455 2.401481 -0.454283 1.571120 -0.033534 -0.370753
  time 15
    0 5.761895 -10.129215 -4.281381 0.643768 -1.724338 0.872728
    1 1.582369 0.000001 1.434247 0.000000 0.000000 0.000000
    2 -0.135354 -0.000002 -4.511380 0.000000 0.641871 0.000000
    3 0.349163 0.565490 -3.526729 1.570796 0.000000 1.570796
    4 -1.667495 -0.000001 -2.433468 -0.000001 -1.570796 0.000000
    5 1.615030 0.000001 -0.854754 0.000000 0.000000 0.000000
    6 -1.517956 0.000000 1.203503 0.000000 0.000000 0.000000
    7 1.517956 0.000000 -0.122468 -1.060250 1.570796 0.000000
    8 2.374435 0.000000 -0.000001 0.000000 0.000000 0.000000
    9 2.497324 4.323086 -0.003287 0.000000 0.000000 -0.087311
    10 4.966221 -0.459623 -5.042104 0.760362 -1.709012 -0.732702
    11 7.679251 3.250698 -0.333406 1.566170 -3.122408 0.482210
    12 -0.095359 -8.424515 -0.139291 -0.010254 0.076676 -0.226195
    13 -0.488518 -2.755602 -0.228260 -1.012917 -0.027455 -0.375635
    14 0.039887 -1.534479 0.014229 -1.560820 -0.011313 0.034888
    15 0.028786 -1.169484 -0.128581 -1.099051 -0.015172 0.023622
    16 0.250027 -2.820665 -0.238396 -0.664977 -0.071629 -0.200832
    17 -0.049759 -1.598510 0.037977 -1.484984 0.001702 -0.040186
    18 -0.034142 -1.175657 0.045718 -1.265289 0.005465 -0.033401
    19 0.957766 -2.746780 -0.090302 -0.143287 -0.192850 0.066846
    20 -0.033420 -1.393223 -0.019070 -0.488708 0.008233 -0.023742
    21 -0.022360 -0.957436 0.007065 -0.465110 0.007754 -0.022148
    22 -1.180681 -2.507217 -0.193859 -0.872301 0.201272 -0.411077
    23 -0.024967 -1.127840 0.017597 -1.281913 -0.002649 -0.053846
    24 -0.020057 -0.906594 0.029622 -0.919408 0.006484 -0.037428
    25 0.626480 -1.201183 0.189285 0.057880 -0.375729 0.517679
    26 1.504676 -0.177260 0.055792 0.027525 -0.181410 -0.623092
    27 0.991393 -0.190791 0.055729 0.130353 -0.272101 -1.228632
    28 0.120153 -0.050270 -0.054489 0.287569 3.110905 1.561085
    29 -3.602902 -4.032004 -8.169501 -2.107619 -4.861403 -1.276517
    30 -0.110094 -8.485576 0.053137 0.288892 -1.159091 -0.117321
    31 0.447953 -2.798986 -0.200443 -0.854253 0.007833 0.252378
    32 -0.032909 -1.495829 0.016659 -0.948515 0.019918 -0.014439
    33 -0.027022 -1.080826 -0.024116 -0.191942 0.005381 -0.001210
    34 -0.249534 -2.846964 -0.174213 -0.655860 0.041929 0.076311
    35 0.043235 -1.660503 0.084293 -0.936792 -0.015358 0.000852
    36 0.031729 -1.153017 0.058838 -0.444961 -0.003900 0.005867
    37 -0.963866 -2.785145 -0.085350 -0.710521 0.178583 -0.282454
    38 0.028479 -1.403067 -0.009354 -0.577666 -0.011313 -0.023825
    39 0.021413 -0.953875 0.020046 -0.252060 -0.003284 -0.011062
    40 1.164475 -2.543940 -0.170330 -0.953115 -0.183439 0.410106
    41 0.024032 -1.132948 0.002182 -0.738275 0.003164 0.039502
    42 0.014898 -0.903521 -0.015942 -1.007684 0.008941 0.050491
    43 -0.586770 -1.264477 0.200161 0.043111 -0.358024 -2.590196
    44 1.550180 0.039149 0.016848 -0.010934 -0.004102 0.597022
    45 1.114041 0.044518 -0.005766 -0.028287 -0.034438 1.020160
    46 -0.139399 -0.111698 0.014397 0.285382 -0.030687 1.580508
    47 -7.960077 2.858526 -0.450377 1.572307 -0.032572 -0.428037
  time 16
    0 5.941588 -10.179998 -3.847774 -1.237759 -1.369250 -3.501416
    1 1.582369 0.000001 1.434247 0.000000 0.000000 0.000000
    2 -0.135354 -0.000002 -4.511380 0.000000 0.872664 0.000000
    3 0.349163 0.565490 -3.526729 1.570796 0.000000 1.570796
    4 -1.667495 -0.000001 -2.433468 -0.000001 -1.570796 0.000000
    5 1.615030 0.000001 -1.639934 0.000000 0.000000 0.000000
    6 -1.517956 0.000000 1.203503 0.000000 0.000000 0.000000
    7 1.517956 0.000000 -0.122468 -0.628281 1.570460 0.000000
    8 2.374435 0.000000 -0.000001 0.000000 0.000000 0.000000
    9 2.497324 4.323086 -0.003287 0.000000 0.000000 -0.087311
    10 4.970127 -0.471342 -5.038198 0.769823 -1.710576 -0.741756
    11 7.679251 3.250698 -0.333406 1.566170 -3.122408 0.481888
    12 -0.114891 -8.447954 -0.154917 0.041729 -0.009957 -0.136929
    13 -0.488518 -2.755602 -0.228260 -1.012917 -0.027455 -0.375635
    14 0.039887 -1.534479 0.014229 -1.560820 -0.011313 0.034888
    15 0.028786 -1.169484 -0.128581 -1.099051 -0.015172 0.023622
    16 0.250027 -2.820665 -0.238396 -0.664977 -0.071629 -0.200832
    17 -0.049759 -1.598510 0.037977 -1.484984 0.001702 -0.040186
    18 -0.034142 -1.175657 0.045718 -1.265289 0.005465 -0.033401
    19 0.957766 -2.746780 -0.090302 -0.143287 -0.192850 0.066846
    20 -0.033420 -1.393223 -0.019070 -0.490177 0.008245 -0.023814
    21 -0.022360 -0.957436 0.007065 -0.468425 0.007778 -0.022315
    22 -1.180681 -2.507217 -0.193859 -0.872301 0.201272 -0.411077
    23 -0.024967 -1.127840 0.017597 -1.281913 -0.002649 -0.053846
    24 -0.020057 -0.906594 0.029622 -0.919408 0.006484 -0.037428
    25 0.646012 -1.189464 0.189285 0.025597 -0.602761 0.728483
    26 1.481238 -0.212417 0.067511 0.046916 -0.211971 -0.755182
    27 0.979674 -0.198604 0.055729 0.146256 -0.280262 -1.294950
    28 0.120153 -0.050270 -0.054489 0.287569 3.110905 1.561085
    29 -3.278673 -4.348420 -8.005434 -2.268189 -4.832841 -1.441053
    30 -0.106187 -8.473857 0.053137 0.219279 -1.165515 -0.222257
    31 0.447953 -2.798986 -0.200443 -0.854253 0.007833 0.252378
    32 -0.032909 -1.495829 0.016659 -0.948515 0.019918 -0.014439
    33 -0.027022 -1.080826 -0.024116 -0.191942 0.005381 -0.001210
    34 -0.249534 -2.846964 -0.174213 -0.655860 0.041929 0.076311
    35 0.043235 -1.660503 0.084293 -0.936792 -0.015358 0.000852
    36 0.031729 -1.153017 0.058838 -0.444961 -0.003900 0.005867
    37 -0.963866 -2.785145 -0.085350 -0.710521 0.178583 -0.282454
    38 0.028479 -1.403067 -0.009354 -0.577666 -0.011313 -0.023825
    39 0.021413 -0.953875 0.020046 -0.252060 -0.003284 -0.011062
    40 1.164475 -2.543940 -0.170330 -0.953115 -0.183439 0.410106
    41 0.024032 -1.132948 0.002182 -0.738275 0.003164 0.039502
    42 0.014898 -0.903521 -0.015942 -1.007684 0.008941 0.050491
    43 -0.586770 -1.264477 0.200161 0.043111 -0.358024 -2.590196
    44 1.550180 0.039149 0.016848 -0.010934 -0.004102 0.597022
    45 1.114041 0.044518 -0.005766 -0.028287 -0.034438 1.020160
    46 -0.139399 -0.111698 0.014397 0.285382 -0.030687 1.580508
    47 -7.639754 3.807774 -0.434751 1.574656 -0.030336 -0.549373
  time 17
    0 5.832209 -10.140934 -3.656362 -1.216703 -1.318563 -3.502947
    1 1.582369 0.000001 1.434247 0.000000 0.000000 0.000000
    2 -0.135354 -0.000002 -4.511380 0.000000 0.872664 0.000000
    3 0.349163 0.565490 -3.526729 1.570796 0.000000 1.570796
    4 -1.667495 -0.000001 -2.433468 -0.000001 -1.570796 0.000000
    5 1.615030 0.000001 -1.639934 0.000000 0.000000 0.000000
    6 -1.517956 0.000000 1.203503 0.000000 0.000000 0.000000
    7 1.517956 0.000000 -0.122468 -0.196312 1.570796 0.000000
    8 2.374435 0.000000 -0.000001 0.000000 0.000000 0.000000
    9 2.497324 4.323086 -0.003287 0.000000 0.000000 -0.087311
    10 4.970127 -0.471342 -5.034292 0.772403 -1.710949 -0.744233
    11 7.679251 3.250698 -0.333406 1.566170 -3.122408 0.481969
    12 -0.114891 -8.451860 -0.151010 0.022307 0.009585 -0.108668
    13 -0.488518 -2.755602 -0.228260 -1.012917 -0.027455 -0.375635
    14 0.039887 -1.534479 0.014229 -1.560820 -0.011313 0.034888
    15 0.028786 -1.169484 -0.128581 -1.099051 -0.015172 0.023622
    16 0.250027 -2.820665 -0.238396 -0.664977 -0.071629 -0.200832
    17 -0.049759 -1.598510 0.037977 -1.484984 0.001702 -0.040186
    18 -0.034142 -1.175657 0.045718 -1.265289 0.005465 -0.033401
    19 0.957766 -2.746780 -0.090302 -0.143287 -0.192850 0.066846
    20 -0.033420 -1.393223 -0.019070 -0.490873 0.008245 -0.023850
    21 -0.022360 -0.957436 0.007065 -0.469946 0.007778 -0.022399
    22 -1.180681 -2.507217 -0.193859 -0.872301 0.201272 -0.411077
    23 -0.024967 -1.127840 0.017597 -1.281913 -0.002649 -0.053846
    24 -0.020057 -0.906594 0.029622 -0.919408 0.006484 -0.037428
    25 0.646012 -1.197277 0.197098 -0.079577 -0.630644 0.719612
    26 1.481238 -0.216323 0.067511 0.047431 -0.212678 -0.758384
    27 0.971861 -0.202511 0.055729 0.157666 -0.285332 -1.341241
    28 0.120153 -0.050270 -0.054489 0.287569 3.110905 1.561085
    29 -3.321643 -4.352327 -8.013247 -2.225795 -4.843321 -1.404607
    30 -0.098374 -8.477763 0.053137 0.231196 -1.131547 -0.225095
    31 0.447953 -2.798986 -0.200443 -0.854253 0.007833 0.252378
    32 -0.032909 -1.495829 0.016659 -0.948515 0.019918 -0.014439
    33 -0.027022 -1.080826 -0.024116 -0.191942 0.005381 -0.001210
    34 -0.249534 -2.846964 -0.174213 -0.655860 0.041929 0.076311
    35 0.043235 -1.660503 0.084293 -0.936792 -0.015358 0.000852
    36 0.031729 -1.153017 0.058838 -0.444961 -0.003900 0.005867
    37 -0.963866 -2.785145 -0.085350 -0.710521 0.178583 -0.282454
    38 0.028479 -1.403067 -0.009354 -0.577666 -0.011313 -0.023825
    39 0.021413 -0.953875 0.020046 -0.252060 -0.003284 -0.011062
    40 1.164475 -2.543940 -0.170330 -0.953115 -0.183439 0.410106
    41 0.024032 -1.132948 0.002182 -0.738275 0.003164 0.039502
    42 0.014898 -0.903521 -0.015942 -1.007684 0.008941 0.050491
    43 -0.586770 -1.264477 0.200161 0.043111 -0.358024 -2.590196
    44 1.550180 0.039149 0.016848 -0.010934 -0.004102 0.597022
    45 1.114041 0.044518 -0.005766 -0.028287 -0.034438 1.020160
    46 -0.139399 -0.111698 0.014397 0.285382 -0.030687 1.580508
    47 -7.694444 3.674957 -0.438658 1.574332 -0.030675 -0.531998
  time 18
    0 5.699393 -10.090152 -3.527451 -1.123292 -1.362084 -3.629594
    1 1.582369 0.000001 1.434247 0.000000 0.000000 0.000000
    2 -0.135354 -0.000002 -4.511380 0.000000 0.872664 0.000000
    3 0.349163 0.565490 -3.526729 1.570796 0.000000 1.570796
    4 -1.667495 -0.000001 -2.433468 -0.000001 -1.570796 0.000000
    5 1.615030 0.000001 -1.639934 0.000000 0.000000 0.000000
    6 -1.517956 0.000000 1.203503 0.000000 0.000000 0.000000
    7 1.517956 0.000000 -0.122468 -0.000001 1.570796 0.000000
    8 2.374435 0.000000 -0.000001 0.000000 0.000000 0.000000
    9 2.497324 4.323086 -0.003287 0.000000 0.000000 -0.087311
    10 4.970127 -0.475248 -5.034292 0.773263 -1.711098 -0.745187
    11 7.679251 3.250698 -0.333406 1.566170 -3.122408 0.482210
    12 -0.107078 -8.447954 -0.147104 -0.006087 0.046631 -0.096283
    13 -0.488518 -2.755602 -0.228260 -1.012917 -0.027455 -0.375635
    14 0.039887 -1.534479 0.014229 -1.560820 -0.011313 0.034888
    15 0.028786 -1.169484 -0.128581 -1.099051 -0.015172 0.023622
    16 0.250027 -2.820665 -0.238396 -0.664977 -0.071629 -0.200832
    17 -0.049759 -1.598510 0.037977 -1.484984 0.001702 -0.040186
    18 -0.034142 -1.175657 0.045718 -1.265289 0.005465 -0.033401
    19 0.957766 -2.746780 -0.090302 -0.143287 -0.192850 0.066846
    20 -0.033420 -1.393223 -0.019070 -0.491311 0.008245 -0.023862
    21 -0.022360 -0.957436 0.007065 -0.470949 0.007790 -0.022447
    22 -1.180681 -2.507217 -0.193859 -0.872301 0.201272 -0.411077
    23 -0.024967 -1.127840 0.017597 -1.281913 -0.002649 -0.053846
    24 -0.020057 -0.906594 0.029622 -0.919408 0.006484 -0.037428
    25 0.642106 -1.197277 0.201004 -0.147286 -0.683717 0.613493
    26 1.485144 -0.204604 0.063605 0.041691 -0.204601 -0.722142
    27 0.987486 -0.194698 0.055729 0.139545 -0.276978 -1.267208
    28 0.120153 -0.050270 -0.054489 0.287569 3.110905 1.561085
    29 -3.427115 -4.293731 -8.048404 -2.160776 -4.859705 -1.344723
    30 -0.090562 -8.481669 0.057043 0.254691 -1.094574 -0.206945
    31 0.447953 -2.798986 -0.200443 -0.854253 0.007833 0.252378
    32 -0.032909 -1.495829 0.016659 -0.948515 0.019918 -0.014439
    33 -0.027022 -1.080826 -0.024116 -0.191942 0.005381 -0.001210
    34 -0.249534 -2.846964 -0.174213 -0.655860 0.041929 0.076311
    35 0.043235 -1.660503 0.084293 -0.936792 -0.015358 0.000852
    36 0.031729 -1.153017 0.058838 -0.444961 -0.003900 0.005867
    37 -0.963866 -2.785145 -0.085350 -0.710521 0.178583 -0.282454
    38 0.028479 -1.403067 -0.009354 -0.577666 -0.011313 -0.023825
    39 0.021413 -0.953875 0.020046 -0.252060 -0.003284 -0.011062
    40 1.164475 -2.543940 -0.170330 -0.953115 -0.183439 0.410106
    41 0.024032 -1.132948 0.002182 -0.738275 0.003164 0.039502
    42 0.014898 -0.903521 -0.015942 -1.007684 0.008941 0.050491
    43 -0.586770 -1.264477 0.200161 0.043111 -0.358024 -2.590196
    44 1.550180 0.039149 0.016848 -0.010934 -0.004102 0.597022
    45 1.114041 0.044518 -0.005766 -0.028287 -0.034438 1.020160
    46 -0.139399 -0.111698 0.014397 0.285382 -0.030687 1.580508
    47 -7.807728 3.358541 -0.442564 1.573577 -0.031434 -0.491572
  time 19
    0 5.629078 -10.054994 -3.437605 -1.082233 -1.408218 -3.700145
    1 1.582369 0.000001 1.434247 0.000000 0.000000 0.000000
    2 -0.135354 -0.000002 -4.511380 0.000000 0.872664 0.000000
    3 0.349163 0.565490 -3.526729 1.570796 0.000000 1.570796
    4 -1.667495 -0.000001 -2.433468 -0.000001 -1.570796 0.000000
    5 1.615030 0.000001 -1.639934 0.000000 0.000000 0.000000
    6 -1.517956 0.000000 1.203503 0.000000 0.000000 0.000000
    7 1.517956 0.000000 -0.122468 -0.000001 1.570796 0.000000
    8 2.374435 0.000000 -0.000001 0.000000 0.000000 0.000000
    9 2.497324 4.323086 -0.003287 0.000000 0.000000 -0.087311
    10 4.970127 -0.475248 -5.034292 0.773837 -1.711172 -0.745663
    11 7.679251 3.250698 -0.333406 1.566170 -3.122408 0.482290
    12 -0.103172 -8.447954 -0.143198 -0.020924 0.066231 -0.089748
    13 -0.488518 -2.755602 -0.228260 -1.012917 -0.027455 -0.375635
    14 0.039887 -1.534479 0.014229 -1.560820 -0.011313 0.034888
    15 0.028786 -1.169484 -0.128581 -1.099051 -0.015172 0.023622
    16 0.250027 -2.820665 -0.238396 -0.664977 -0.071629 -0.200832
    17 -0.049759 -1.598510 0.037977 -1.484984 0.001702 -0.040186
    18 -0.034142 -1.175657 0.045718 -1.265289 0.005465 -0.033401
    19 0.957766 -2.746780 -0.090302 -0.143287 -0.192850 0.066846
    20 -0.033420 -1.393223 -0.019070 -0.491543 0.008245 -0.023874
    21 -0.022360 -0.957436 0.007065 -0.471497 0.007790 -0.022471
    22 -1.180681 -2.507217 -0.193859 -0.872301 0.201272 -0.411077
    23 -0.024967 -1.127840 0.017597 -1.281913 -0.002649 -0.053846
    24 -0.020057 -0.906594 0.029622 -0.919408 0.006484 -0.037428
    25 0.638199 -1.201183 0.193192 -0.002855 -0.906377 0.288499
    26 1.500770 -0.181166 0.059698 0.029346 -0.184706 -0.636804
    27 1.057801 -0.140009 0.036197 0.048378 -0.201559 -0.826335
    28 0.120153 -0.050270 -0.054489 0.287569 3.110905 1.561085
    29 -3.477898 -4.262480 -8.067936 -2.131708 -4.868488 -1.318321
    30 -0.086655 -8.485576 0.057043 0.266559 -1.074655 -0.197244
    31 0.447953 -2.798986 -0.200443 -0.854253 0.007833 0.252378
    32 -0.032909 -1.495829 0.016659 -0.948515 0.019918 -0.014439
    33 -0.027022 -1.080826 -0.024116 -0.191942 0.005381 -0.001210
    34 -0.249534 -2.846964 -0.174213 -0.655860 0.041929 0.076311
    35 0.043235 -1.660503 0.084293 -0.936792 -0.015358 0.000852
    36 0.031729 -1.153017 0.058838 -0.444961 -0.003900 0.005867
    37 -0.963866 -2.785145 -0.085350 -0.710521 0.178583 -0.282454
    38 0.028479 -1.403067 -0.009354 -0.577666 -0.011313 -0.023825
    39 0.021413 -0.953875 0.020046 -0.252060 -0.003284 -0.011062
    40 1.164475 -2.543940 -0.170330 -0.953115 -0.183439 0.410106
    41 0.024032 -1.132948 0.002182 -0.738275 0.003164 0.039502
    42 0.014898 -0.903521 -0.015942 -1.007684 0.008941 0.050491
    43 -0.586770 -1.264477 0.200161 0.043111 -0.358024 -2.590196
    44 1.550180 0.039149 0.016848 -0.010934 -0.004102 0.597022
    45 1.114041 0.044518 -0.005766 -0.028287 -0.034438 1.020160
    46 -0.139399 -0.111698 0.014397 0.285382 -0.030687 1.580508
    47 -7.858511 3.198380 -0.446471 1.573170 -0.031813 -0.470757
  time 20
    0 5.570482 -10.023743 -3.375103 -1.135926 -1.461128 -3.676022
    1 1.582369 0.000001 1.434247 0.000000 0.000000 0.000000
    2 -0.135354 -0.000002 -4.511380 0.000000 0.872664 0.000000
    3 0.349163 0.565490 -3.526729 1.570796 0.000000 1.570796
    4 -1.667495 -0.000001 -2.433468 -0.000001 -1.570796 0.000000
    5 1.615030 0.000001 -1.639934 0.000000 0.000000 0.000000
    6 -1.517956 0.000000 1.203503 0.000000 0.000000 0.000000
    7 1.517956 0.000000 -0.122468 -0.000001 1.570796 0.000000
    8 2.374435 0.000000 -0.000001 0.000000 0.000000 0.000000
    9 2.497324 4.323086 -0.003287 0.000000 0.000000 -0.087311
    10 4.970127 -0.475248 -5.034292 0.773072 -1.711023 -0.744996
    11 7.679251 3.254604 -0.333406 1.566170 -3.122408 0.482532
    12 -0.103172 -8.447954 -0.139291 -0.033600 0.084051 -0.087838
    13 -0.488518 -2.755602 -0.228260 -1.012917 -0.027455 -0.375635
    14 0.039887 -1.534479 0.014229 -1.560820 -0.011313 0.034888
    15 0.028786 -1.169484 -0.128581 -1.099051 -0.015172 0.023622
    16 0.250027 -2.820665 -0.238396 -0.664977 -0.071629 -0.200832
    17 -0.049759 -1.598510 0.037977 -1.484984 0.001702 -0.040186
    18 -0.034142 -1.175657 0.045718 -1.265289 0.005465 -0.033401
    19 0.957766 -2.746780 -0.090302 -0.143287 -0.192850 0.066846
    20 -0.033420 -1.393223 -0.019070 -0.491723 0.008245 -0.023886
    21 -0.022360 -0.957436 0.007065 -0.471862 0.007790 -0.022495
    22 -1.180681 -2.507217 -0.193859 -0.872301 0.201272 -0.411077
    23 -0.024967 -1.127840 0.017597 -1.281913 -0.002649 -0.053846
    24 -0.020057 -0.906594 0.029622 -0.919408 0.006484 -0.037428
    25 0.634293 -1.197277 0.189285 0.349509 -1.092467 -0.198041
    26 1.508582 -0.165541 0.051885 0.021329 -0.169270 -0.573624
    27 1.100771 -0.057975 0.012759 0.000032 -0.099834 -0.414188
    28 0.120153 -0.050270 -0.054489 0.287569 3.110905 1.561085
    29 -3.528681 -4.227323 -8.087468 -2.108497 -4.876089 -1.296797
    30 -0.082749 -8.485576 0.057043 0.277556 -1.059265 -0.186090
    31 0.447953 -2.798986 -0.200443 -0.854253 0.007833 0.252378
    32 -0.032909 -1.495829 0.016659 -0.948515 0.019918 -0.014439
    33 -0.027022 -1.080826 -0.024116 -0.191942 0.005381 -0.001210
    34 -0.249534 -2.846964 -0.174213 -0.655860 0.041929 0.076311
    35 0.043235 -1.660503 0.084293 -0.936792 -0.015358 0.000852
    36 0.031729 -1.153017 0.058838 -0.444961 -0.003900 0.005867
    37 -0.963866 -2.785145 -0.085350 -0.710521 0.178583 -0.282454
    38 0.028479 -1.403067 -0.009354 -0.577666 -0.011313 -0.023825
    39 0.021413 -0.953875 0.020046 -0.252060 -0.003284 -0.011062
    40 1.164475 -2.543940 -0.170330 -0.953115 -0.183439 0.410106
    41 0.024032 -1.132948 0.002182 -0.738275 0.003164 0.039502
    42 0.014898 -0.903521 -0.015942 -1.007684 0.008941 0.050491
    43 -0.586770 -1.264477 0.200161 0.043111 -0.358024 -2.590196
    44 1.550180 0.039149 0.016848 -0.010934 -0.004102 0.597022
    45 1.114041 0.044518 -0.005766 -0.028287 -0.034438 1.020160
    46 -0.139399 -0.111698 0.014397 0.285382 -0.030687 1.580508
    47 -7.905388 3.046032 -0.446471 1.572786 -0.032165 -0.451376
  time 21
    0 5.492355 -9.976867 -3.281350 -1.249818 -1.506308 -3.593984
    1 1.582369 0.000001 1.434247 0.000000 0.000000 0.000000
    2 -0.135354 -0.000002 -4.511380 0.000000 0.872664 0.000000
    3 0.349163 0.565490 -3.526729 1.570796 0.000000 1.570796
    4 -1.667495 -0.000001 -2.433468 -0.000001 -1.570796 0.000000
    5 1.615030 0.000001 -1.639934 0.000000 0.000000 0.000000
    6 -1.517956 0.000000 1.203503 0.000000 0.000000 0.000000
    7 1.517956 0.000000 -0.122468 -0.000001 1.570796 0.000000
    8 2.374435 0.000000 -0.000001 0.000000 0.000000 0.000000
    9 2.497324 4.323086 -0.003287 0.000000 0.000000 -0.087311
    10 4.970127 -0.479154 -5.034292 0.773837 -1.711098 -0.745758
    11 7.679251 3.254604 -0.333406 1.566170 -3.122408 0.482612
    12 -0.099266 -8.444047 -0.135385 -0.051434 0.105716 -0.081987
    13 -0.488518 -2.755602 -0.228260 -1.012917 -0.027455 -0.375635
    14 0.039887 -1.534479 0.014229 -1.560820 -0.011313 0.034888
    15 0.028786 -1.169484 -0.128581 -1.099051 -0.015172 0.023622
    16 0.250027 -2.820665 -0.238396 -0.664977 -0.071629 -0.200832
    17 -0.049759 -1.598510 0.037977 -1.484984 0.001702 -0.040186
    18 -0.034142 -1.175657 0.045718 -1.265289 0.005465 -0.033401
    19 0.957766 -2.746780 -0.090302 -0.143287 -0.192850 0.066846
    20 -0.033420 -1.393223 -0.019070 -0.492006 0.008245 -0.023898
    21 -0.022360 -0.957436 0.007065 -0.472500 0.007790 -0.022519
    22 -1.180681 -2.507217 -0.193859 -0.872301 0.201272 -0.411077
    23 -0.024967 -1.127840 0.017597 -1.281913 -0.002649 -0.053846
    24 -0.020057 -0.906594 0.029622 -0.919408 0.006484 -0.037428
    25 0.642106 -1.197277 0.197098 0.488958 -1.254033 -0.337077
    26 1.500770 -0.181166 0.059698 0.029059 -0.184203 -0.634670
    27 1.100771 -0.054069 0.012759 -0.001178 -0.094489 -0.394490
    28 0.120153 -0.050270 -0.054489 0.287569 3.110905 1.561085
    29 -3.587276 -4.188259 -8.103093 -2.081040 -4.886126 -1.271639
    30 -0.078843 -8.489482 0.057043 0.293930 -1.036943 -0.177246
    31 0.447953 -2.798986 -0.200443 -0.854253 0.007833 0.252378
    32 -0.032909 -1.495829 0.016659 -0.948515 0.019918 -0.014439
    33 -0.027022 -1.080826 -0.024116 -0.191942 0.005381 -0.001210
    34 -0.249534 -2.846964 -0.174213 -0.655860 0.041929 0.076311
    35 0.043235 -1.660503 0.084293 -0.936792 -0.015358 0.000852
    36 0.031729 -1.153017 0.058838 -0.444961 -0.003900 0.005867
    37 -0.963866 -2.785145 -0.085350 -0.710521 0.178583 -0.282454
    38 0.028479 -1.403067 -0.009354 -0.577666 -0.011313 -0.023825
    39 0.021413 -0.953875 0.020046 -0.252060 -0.003284 -0.011062
    40 1.164475 -2.543940 -0.170330 -0.953115 -0.183439 0.410106
    41 0.024032 -1.132948 0.002182 -0.738275 0.003164 0.039502
    42 0.014898 -0.903521 -0.015942 -1.007684 0.008941 0.050491
    43 -0.586770 -1.264477 0.200161 0.043111 -0.358024 -2.590196
    44 1.550180 0.039149 0.016848 -0.010934 -0.004102 0.597022
    45 1.114041 0.044518 -0.005766 -0.028287 -0.034438 1.020160
    46 -0.139399 -0.111698 0.014397 0.285382 -0.030687 1.580508
    47 -7.960077 2.858526 -0.450377 1.572307 -0.032572 -0.427751
  time 22
    0 5.441572 -9.949522 -3.261818 -1.523161 -1.537123 -3.338584
    1 1.582369 0.000001 1.434247 0.000000 0.000000 0.000000
    2 -0.135354 -0.000002 -4.511380 0.000000 0.872664 0.000000
    3 0.349163 0.565490 -3.526729 1.570796 0.000000 1.570796
    4 -1.667495 -0.000001 -2.433468 -0.000001 -1.570796 0.000000
    5 1.615030 0.000001 -1.639934 0.000000 0.000000 0.000000
    6 -1.517956 0.000000 1.203503 0.000000 0.000000 0.000000
    7 1.517956 0.000000 -0.122468 -0.000001 1.570796 0.000000
    8 2.374435 0.000000 -0.000001 0.000000 0.000000 0.000000
    9 2.497324 4.323086 -0.003287 0.000000 0.000000 -0.087311
    10 4.966221 -0.479154 -5.034292 0.766287 -1.709757 -0.738801
    11 7.675345 3.266323 -0.333406 1.566170 -3.122504 0.484139
    12 -0.095359 -8.444047 -0.135385 -0.063317 0.127238 -0.085785
    13 -0.488518 -2.755602 -0.228260 -1.012917 -0.027455 -0.375635
    14 0.039887 -1.534479 0.014229 -1.560820 -0.011313 0.034888
    15 0.028786 -1.169484 -0.128581 -1.099051 -0.015172 0.023622
    16 0.250027 -2.820665 -0.238396 -0.664977 -0.071629 -0.200832
    17 -0.049759 -1.598510 0.037977 -1.484984 0.001702 -0.040186
    18 -0.034142 -1.175657 0.045718 -1.265289 0.005465 -0.033401
    19 0.957766 -2.746780 -0.090302 -0.143287 -0.192850 0.066846
    20 -0.033420 -1.393223 -0.019070 -0.492238 0.008245 -0.023910
    21 -0.022360 -0.957436 0.007065 -0.473017 0.007802 -0.022555
    22 -1.180681 -2.507217 -0.193859 -0.872301 0.201272 -0.411077
    23 -0.024967 -1.127840 0.017597 -1.281913 -0.002649 -0.053846
    24 -0.020057 -0.906594 0.029622 -0.919408 0.006484 -0.037428
    25 0.646012 -1.197277 0.201004 0.585076 -1.353752 -0.421918
    26 1.489051 -0.204604 0.063605 0.040540 -0.202911 -0.714671
    27 1.092958 -0.077507 0.016666 0.006912 -0.123743 -0.503856
    28 0.120153 -0.050270 -0.054489 0.287569 3.110905 1.561085
    29 -3.649778 -4.141383 -8.126531 -2.062296 -4.893728 -1.254420
    30 -0.078843 -8.493389 0.057043 0.303085 -1.023633 -0.157117
    31 0.447953 -2.798986 -0.200443 -0.854253 0.007833 0.252378
    32 -0.032909 -1.495829 0.016659 -0.948515 0.019918 -0.014439
    33 -0.027022 -1.080826 -0.024116 -0.191942 0.005381 -0.001210
    34 -0.249534 -2.846964 -0.174213 -0.655860 0.041929 0.076311
    35 0.043235 -1.660503 0.084293 -0.936792 -0.015358 0.000852
    36 0.031729 -1.153017 0.058838 -0.444961 -0.003900 0.005867
    37 -0.963866 -2.785145 -0.085350 -0.710521 0.178583 -0.282454
    38 0.028479 -1.403067 -0.009354 -0.577666 -0.011313 -0.023825
    39 0.021413 -0.953875 0.020046 -0.252060 -0.003284 -0.011062
    40 1.164475 -2.543940 -0.170330 -0.953115 -0.183439 0.410106
    41 0.024032 -1.132948 0.002182 -0.738275 0.003164 0.039502
    42 0.014898 -0.903521 -0.015942 -1.007684 0.008941 0.050491
    43 -0.586770 -1.264477 0.200161 0.043111 -0.358024 -2.590196
    44 1.550180 0.039149 0.016848 -0.010934 -0.004102 0.597022
    45 1.114041 0.044518 -0.005766 -0.028287 -0.034438 1.020160
    46 -0.139399 -0.111698 0.014397 0.285382 -0.030687 1.580508
    47 -8.006953 2.674927 -0.454283 1.571840 -0.032965 -0.405101
  time 23
    0 5.457198 -9.972961 -3.425886 0.927542 -1.582232 0.502839
    1 1.582369 0.000001 1.434247 0.000000 0.000000 0.000000
    2 -0.135354 -0.000002 -4.511380 0.000000 0.872664 0.000000
    3 0.349163 0.565490 -3.526729 1.570796 0.000000 1.570796
    4 -1.667495 -0.000001 -2.433468 -0.000001 -1.570796 0.000000
    5 1.615030 0.000001 -1.639934 0.000000 0.000000 0.000000
    6 -1.517956 0.000000 1.203503 0.000000 0.000000 0.000000
    7 1.517956 0.000000 -0.122468 -0.000001 1.570796 0.000000
    8 2.374435 0.000000 -0.000001 0.000000 0.000000 0.000000
    9 2.497324 4.323086 -0.003287 0.000000 0.000000 -0.087311
    10 4.958408 -0.475248 -5.042104 0.741058 -1.705361 -0.715261
    11 7.663625 3.301481 -0.333406 1.566170 -3.122600 0.488641
    12 -0.087546 -8.440141 -0.127572 -0.061399 0.150597 -0.114070
    13 -0.488518 -2.755602 -0.228260 -1.012917 -0.027455 -0.375635
    14 0.039887 -1.534479 0.014229 -1.560820 -0.011313 0.034888
    15 0.028786 -1.169484 -0.128581 -1.099051 -0.015172 0.023622
    16 0.250027 -2.820665 -0.238396 -0.665086 -0.071521 -0.199526
    17 -0.049759 -1.598510 0.037977 -1.484984 0.001702 -0.040186
    18 -0.034142 -1.175657 0.045718 -1.265289 0.005465 -0.033401
    19 0.957766 -2.746780 -0.090302 -0.143287 -0.192850 0.066846
    20 -0.033420 -1.393223 -0.019070 -0.492341 0.008245 -0.023922
    21 -0.022360 -0.957436 0.007065 -0.473261 0.007802 -0.022567
    22 -1.180681 -2.507217 -0.193859 -0.872301 0.201272 -0.411077
    23 -0.024967 -1.127840 0.017597 -1.281913 -0.002649 -0.053846
    24 -0.020057 -0.906594 0.029622 -0.919408 0.006484 -0.037428
    25 0.638199 -1.197277 0.193192 0.829543 -1.263935 -0.747613
    26 1.485144 -0.208511 0.067511 0.044315 -0.208388 -0.738987
    27 1.085145 -0.097039 0.024478 0.016715 -0.148671 -0.600871
    28 0.120153 -0.050270 -0.054489 0.287569 3.110905 1.561085
    29 -3.727906 -4.074975 -8.165595 -2.055486 -4.896680 -1.247915
    30 -0.078843 -8.493389 0.057043 0.293106 -1.031813 -0.104847
    31 0.447953 -2.798986 -0.200443 -0.854253 0.007833 0.252378
    32 -0.032909 -1.495829 0.016659 -0.948515 0.019918 -0.014439
    33 -0.027022 -1.080826 -0.024116 -0.191942 0.005381 -0.001210
    34 -0.249534 -2.846964 -0.174213 -0.655860 0.041929 0.076311
    35 0.043235 -1.660503 0.084293 -0.936792 -0.015358 0.000852
    36 0.031729 -1.153017 0.058838 -0.444961 -0.003900 0.005867
    37 -0.963866 -2.785145 -0.085350 -0.710521 0.178583 -0.282454
    38 0.028479 -1.403067 -0.009354 -0.577666 -0.011313 -0.023825
    39 0.021413 -0.953875 0.020046 -0.252060 -0.003284 -0.011062
    40 1.164475 -2.543940 -0.170330 -0.953115 -0.183439 0.410106
    41 0.024032 -1.132948 0.002182 -0.738275 0.003164 0.039502
    42 0.014898 -0.903521 -0.015942 -1.007684 0.008941 0.050491
    43 -0.586770 -1.264477 0.200161 0.043111 -0.358024 -2.590196
    44 1.550180 0.039149 0.016848 -0.010934 -0.004102 0.597022
    45 1.114041 0.044518 -0.005766 -0.028287 -0.034438 1.020160
    46 -0.139399 -0.111698 0.014397 0.285382 -0.030687 1.580508
    47 -8.046017 2.495234 -0.454283 1.571372 -0.033331 -0.382680
  time 24
    0 5.488449 -10.008118 -3.660268 2.533334 -1.561654 -1.082206
    1 1.582369 0.000001 1.434247 0.000000 0.000000 0.000000
    2 -0.135354 -0.000002 -4.511380 0.000000 0.872664 0.000000
    3 0.349163 0.565490 -3.526729 1.570796 0.000000 1.570796
    4 -1.667495 -0.000001 -2.433468 -0.000001 -1.570796 0.000000
    5 1.615030 0.000001 -1.639934 0.000000 0.000000 0.000000
    6 -1.517956 0.000000 1.203503 0.000000 0.000000 0.000000
    7 1.517956 0.000000 -0.122468 -0.000001 1.570796 0.000000
    8 2.374435 0.000000 -0.000001 0.000000 0.000000 0.000000
    9 2.497324 4.323086 -0.003287 0.000000 0.000000 -0.087311
    10 4.946689 -0.467435 -5.049917 0.706367 -1.699847 -0.682762
    11 7.648000 3.344451 -0.333406 1.566074 -3.122696 0.494349
    12 -0.083640 -8.436234 -0.123666 -0.054785 0.173381 -0.149951
    13 -0.488518 -2.755602 -0.228260 -1.012917 -0.027455 -0.375635
    14 0.039887 -1.534479 0.014229 -1.560820 -0.011313 0.034888
    15 0.028786 -1.169484 -0.128581 -1.099051 -0.015172 0.023622
    16 0.250027 -2.820665 -0.238396 -0.665217 -0.071401 -0.198219
    17 -0.049759 -1.598510 0.037977 -1.484984 0.001702 -0.040186
    18 -0.034142 -1.175657 0.045718 -1.265289 0.005465 -0.033401
    19 0.957766 -2.746780 -0.090302 -0.143287 -0.192850 0.066846
    20 -0.033420 -1.393223 -0.019070 -0.492419 0.008245 -0.023922
    21 -0.022360 -0.957436 0.007065 -0.473413 0.007802 -0.022567
    22 -1.180681 -2.507217 -0.193859 -0.872301 0.201272 -0.411077
    23 -0.024967 -1.127840 0.017597 -1.281913 -0.002649 -0.053846
    24 -0.020057 -0.906594 0.029622 -0.919408 0.006484 -0.037428
    25 0.630386 -1.197277 0.185379 0.883569 -1.103470 -0.909226
    26 1.481238 -0.212417 0.067511 0.045681 -0.210281 -0.747549
    27 1.073426 -0.116570 0.028385 0.030737 -0.175565 -0.711263
    28 0.120153 -0.050270 -0.054489 0.287569 3.110905 1.561085
    29 -3.806033 -4.000754 -8.200752 -2.054168 -4.897344 -1.246576
    30 -0.082749 -8.489482 0.057043 0.273923 -1.047804 -0.041292
    31 0.447953 -2.798986 -0.200443 -0.854253 0.007833 0.252378
    32 -0.032909 -1.495829 0.016659 -0.948515 0.019918 -0.014439
    33 -0.027022 -1.080826 -0.024116 -0.191942 0.005381 -0.001210
    34 -0.249534 -2.846964 -0.174213 -0.655860 0.041929 0.076311
    35 0.043235 -1.660503 0.084293 -0.936792 -0.015358 0.000852
    36 0.031729 -1.153017 0.058838 -0.444961 -0.003900 0.005867
    37 -0.963866 -2.785145 -0.085350 -0.710521 0.178583 -0.282454
    38 0.028479 -1.403067 -0.009354 -0.577666 -0.011313 -0.023825
    39 0.021413 -0.953875 0.020046 -0.252060 -0.003284 -0.011062
    40 1.164475 -2.543940 -0.170330 -0.953115 -0.183439 0.410106
    41 0.024032 -1.132948 0.002182 -0.738275 0.003164 0.039502
    42 0.014898 -0.903521 -0.015942 -1.007684 0.008941 0.050491
    43 -0.586770 -1.264477 0.200161 0.043111 -0.358024 -2.590196
    44 1.550180 0.039149 0.016848 -0.010934 -0.004102 0.597022
    45 1.114041 0.044518 -0.005766 -0.028287 -0.034438 1.020160
    46 -0.139399 -0.111698 0.014397 0.285382 -0.030687 1.580508
    47 -8.081174 2.327260 -0.458190 1.570929 -0.033669 -0.361922
  time 25
    0 5.504074 -10.031556 -3.843867 2.663880 -1.555548 -1.199089
    1 1.582369 0.000001 1.434247 0.000000 0.000000 0.000000
    2 -0.135354 -0.000002 -4.511380 0.000000 0.872664 0.000000
    3 0.349163 0.565490 -3.526729 1.570796 0.000000 1.570796
    4 -1.667495 -0.000001 -2.433468 -0.000001 -1.570796 0.000000
    5 1.615030 0.000001 -1.639934 0.000000 0.000000 0.000000
    6 -1.517956 0.000000 1.203503 0.000000 0.000000 0.000000
    7 1.517956 0.000000 -0.122468 -0.000001 1.570796 0.000000
    8 2.374435 0.000000 -0.000001 0.000000 0.000000 0.000000
    9 2.497324 4.323086 -0.003287 0.000000 0.000000 -0.087311
    10 4.934970 -0.463529 -5.057730 0.670434 -1.694856 -0.649024
    11 7.632375 3.387421 -0.329500 1.566074 -3.122791 0.499735
    12 -0.079734 -8.432328 -0.123666 -0.048326 0.183568 -0.169719
    13 -0.488518 -2.755602 -0.228260 -1.012917 -0.027455 -0.375635
    14 0.039887 -1.534479 0.014229 -1.560820 -0.011313 0.034888
    15 0.028786 -1.169484 -0.128581 -1.099051 -0.015172 0.023622
    16 0.250027 -2.820665 -0.238396 -0.664977 -0.071629 -0.200832
    17 -0.049759 -1.598510 0.037977 -1.484984 0.001702 -0.040186
    18 -0.034142 -1.175657 0.045718 -1.265289 0.005465 -0.033401
    19 0.957766 -2.746780 -0.090302 -0.143287 -0.192850 0.066846
    20 -0.033420 -1.393223 -0.019070 -0.492419 0.008245 -0.023922
    21 -0.022360 -0.957436 0.007065 -0.473443 0.007802 -0.022579
    22 -1.180681 -2.507217 -0.193859 -0.872301 0.201272 -0.411077
    23 -0.024967 -1.127840 0.017597 -1.281913 -0.002649 -0.053846
    24 -0.020057 -0.906594 0.029622 -0.919408 0.006484 -0.037428
    25 0.622574 -1.193371 0.181473 0.875930 -0.996570 -0.972257
    26 1.481238 -0.212417 0.067511 0.046149 -0.210928 -0.750426
    27 1.065614 -0.132196 0.032291 0.041451 -0.192127 -0.783409
    28 0.120153 -0.050270 -0.054489 0.287569 3.110905 1.561085
    29 -3.856816 -3.953877 -8.224190 -2.063248 -4.894392 -1.255568
    30 -0.086655 -8.489482 0.057043 0.259390 -1.060606 -0.006115
    31 0.447953 -2.798986 -0.200443 -0.854253 0.007833 0.252378
    32 -0.032909 -1.495829 0.016659 -0.948515 0.019918 -0.014439
    33 -0.027022 -1.080826 -0.024116 -0.191942 0.005381 -0.001210
    34 -0.249534 -2.846964 -0.174213 -0.655860 0.041929 0.076311
    35 0.043235 -1.660503 0.084293 -0.936792 -0.015358 0.000852
    36 0.031729 -1.153017 0.058838 -0.444961 -0.003900 0.005867
    37 -0.963866 -2.785145 -0.085350 -0.710521 0.178583 -0.282454
    38 0.028479 -1.403067 -0.009354 -0.577666 -0.011313 -0.023825
    39 0.021413 -0.953875 0.020046 -0.252060 -0.003284 -0.011062
    40 1.164475 -2.543940 -0.170330 -0.953115 -0.183439 0.410106
    41 0.024032 -1.132948 0.002182 -0.738275 0.003164 0.039502
    42 0.014898 -0.903521 -0.015942 -1.007684 0.008941 0.050491
    43 -0.586770 -1.264477 0.200161 0.043111 -0.358024 -2.590196
    44 1.550180 0.039149 0.016848 -0.010934 -0.004102 0.597022
    45 1.114041 0.044518 -0.005766 -0.028287 -0.034438 1.020160
    46 -0.139399 -0.111698 0.014397 0.285382 -0.030687 1.580508
    47 -8.096800 2.256945 -0.458190 1.570725 -0.033818 -0.352862
  time 26
    0 5.496261 -10.035462 -3.929807 2.971582 -1.551841 -1.503788
    1 1.582369 0.000001 1.434247 0.000000 0.000000 0.000000
    2 -0.135354 -0.000002 -4.511380 0.000000 0.872664 0.000000
    3 0.349163 0.565490 -3.526729 1.570796 0.000000 1.570796
    4 -1.667495 -0.000001 -2.433468 -0.000001 -1.570796 0.000000
    5 1.615030 0.000001 -1.639934 0.000000 0.000000 0.000000
    6 -1.517956 0.000000 1.203503 0.000000 0.000000 0.000000
    7 1.517956 0.000000 -0.122468 -0.000001 1.570796 0.000000
    8 2.374435 0.000000 -0.000001 0.000000 0.000000 0.000000
    9 2.497324 4.323086 -0.003287 0.000000 0.000000 -0.087311
    10 4.927157 -0.455716 -5.065542 0.636699 -1.690534 -0.617097
    11 7.620655 3.422578 -0.329500 1.566074 -3.122887 0.504397
    12 -0.079734 -8.432328 -0.123666 -0.043123 0.179149 -0.168375
    13 -0.488518 -2.755602 -0.228260 -1.012917 -0.027455 -0.375635
    14 0.039887 -1.534479 0.014229 -1.560820 -0.011313 0.034888
    15 0.028786 -1.169484 -0.128581 -1.099051 -0.015172 0.023622
    16 0.250027 -2.820665 -0.238396 -0.664344 -0.072264 -0.207951
    17 -0.049759 -1.598510 0.037977 -1.484984 0.001702 -0.040186
    18 -0.034142 -1.175657 0.045718 -1.265289 0.005465 -0.033401
    19 0.957766 -2.746780 -0.090302 -0.143287 -0.192850 0.066846
    20 -0.033420 -1.393223 -0.019070 -0.492419 0.008245 -0.023922
    21 -0.022360 -0.957436 0.007065 -0.473413 0.007802 -0.022567
    22 -1.180681 -2.507217 -0.193859 -0.872301 0.201272 -0.411077
    23 -0.024967 -1.127840 0.017597 -1.281913 -0.002649 -0.053846
    24 -0.020057 -0.906594 0.029622 -0.919408 0.006484 -0.037428
    25 0.622574 -1.193371 0.181473 0.869885 -0.972480 -0.981995
    26 1.481238 -0.212417 0.067511 0.046389 -0.211264 -0.751980
    27 1.061707 -0.136102 0.036197 0.045070 -0.197173 -0.806185
    28 0.120153 -0.050270 -0.054489 0.287569 3.110905 1.561085
    29 -3.872441 -3.942158 -8.235910 -2.083529 -4.887824 -1.276039
    30 -0.090562 -8.485576 0.057043 0.255708 -1.067446 -0.009877
    31 0.447953 -2.798986 -0.200443 -0.854253 0.007833 0.252378
    32 -0.032909 -1.495829 0.016659 -0.948515 0.019918 -0.014439
    33 -0.027022 -1.080826 -0.024116 -0.191942 0.005381 -0.001210
    34 -0.249534 -2.846964 -0.174213 -0.655860 0.041929 0.076311
    35 0.043235 -1.660503 0.084293 -0.936792 -0.015358 0.000852
    36 0.031729 -1.153017 0.058838 -0.444961 -0.003900 0.005867
    37 -0.963866 -2.785145 -0.085350 -0.710521 0.178583 -0.282454
    38 0.028479 -1.403067 -0.009354 -0.577666 -0.011313 -0.023825
    39 0.021413 -0.953875 0.020046 -0.252060 -0.003284 -0.011062
    40 1.164475 -2.543940 -0.170330 -0.953115 -0.183439 0.410106
    41 0.024032 -1.132948 0.002182 -0.738275 0.003164 0.039502
    42 0.014898 -0.903521 -0.015942 -1.007684 0.008941 0.050491
    43 -0.586770 -1.264477 0.200161 0.043111 -0.358024 -2.590196
    44 1.550180 0.039149 0.016848 -0.010934 -0.004102 0.597022
    45 1.114041 0.044518 -0.005766 -0.028287 -0.034438 1.020160
    46 -0.139399 -0.111698 0.014397 0.285382 -0.030687 1.580508
    47 -8.088987 2.284290 -0.458190 1.570809 -0.033751 -0.356589
  time 27
    0 5.480636 -10.035462 -3.980590 0.436081 -1.588374 1.033836
    1 1.582369 0.000001 1.434247 0.000000 0.000000 0.000000
    2 -0.135354 -0.000002 -4.511380 0.000000 0.872664 0.000000
    3 0.349163 0.565490 -3.526729 1.570796 0.000000 1.570796
    4 -1.667495 -0.000001 -2.433468 -0.000001 -1.570796 0.000000
    5 1.615030 0.000001 -1.639934 0.000000 0.000000 0.000000
    6 -1.517956 0.000000 1.203503 0.000000 0.000000 0.000000
    7 1.517956 0.000000 -0.122468 -0.000001 1.570796 0.000000
    8 2.374435 0.000000 -0.000001 0.000000 0.000000 0.000000
    9 2.497324 4.323086 -0.003287 0.000000 0.000000 -0.087311
    10 4.915438 -0.451810 -5.069449 0.601435 -1.686511 -0.583645
    11 7.608936 3.457735 -0.329500 1.565979 -3.122983 0.508979
    12 -0.083640 -8.436234 -0.123666 -0.037744 0.168216 -0.158986
    13 -0.488518 -2.755602 -0.228260 -1.012917 -0.027455 -0.375635
    14 0.039887 -1.534479 0.014229 -1.560820 -0.011313 0.034888
    15 0.028786 -1.169484 -0.128581 -1.099051 -0.015172 0.023622
    16 0.250027 -2.820665 -0.238396 -0.663515 -0.073079 -0.217035
    17 -0.049759 -1.598510 0.037977 -1.484984 0.001702 -0.040186
    18 -0.034142 -1.175657 0.045718 -1.265289 0.005465 -0.033401
    19 0.957766 -2.746780 -0.090302 -0.143287 -0.192850 0.066846
    20 -0.033420 -1.393223 -0.019070 -0.492367 0.008245 -0.023922
    21 -0.022360 -0.957436 0.007065 -0.473352 0.007802 -0.022567
    22 -1.180681 -2.507217 -0.193859 -0.872301 0.201272 -0.411077
    23 -0.024967 -1.127840 0.017597 -1.281913 -0.002649 -0.053846
    24 -0.020057 -0.906594 0.029622 -0.919408 0.006484 -0.037428
    25 0.622574 -1.193371 0.181473 0.860697 -0.975954 -0.967921
    26 1.481238 -0.212417 0.067511 0.046185 -0.210964 -0.750635
    27 1.061707 -0.136102 0.036197 0.045574 -0.197844 -0.809263
    28 0.120153 -0.050270 -0.054489 0.287569 3.110905 1.561085
    29 -3.872441 -3.942158 -8.243722 -2.111353 -4.879558 -1.303972
    30 -0.090562 -8.485576 0.057043 0.256095 -1.072807 -0.029544
    31 0.447953 -2.798986 -0.200443 -0.854253 0.007833 0.252378
    32 -0.032909 -1.495829 0.016659 -0.948515 0.019918 -0.014439
    33 -0.027022 -1.080826 -0.024116 -0.191942 0.005381 -0.001210
    34 -0.249534 -2.846964 -0.174213 -0.655860 0.041929 0.076311
    35 0.043235 -1.660503 0.084293 -0.936792 -0.015358 0.000852
    36 0.031729 -1.153017 0.058838 -0.444961 -0.003900 0.005867
    37 -0.963866 -2.785145 -0.085350 -0.710521 0.178583 -0.282454
    38 0.028479 -1.403067 -0.009354 -0.577666 -0.011313 -0.023825
    39 0.021413 -0.953875 0.020046 -0.252060 -0.003284 -0.011062
    40 1.164475 -2.543940 -0.170330 -0.953115 -0.183439 0.410106
    41 0.024032 -1.132948 0.002182 -0.738275 0.003164 0.039502
    42 0.014898 -0.903521 -0.015942 -1.007684 0.008941 0.050491
    43 -0.586770 -1.264477 0.200161 0.043111 -0.358024 -2.590196
    44 1.550180 0.039149 0.016848 -0.010934 -0.004102 0.597022
    45 1.114041 0.044518 -0.005766 -0.028287 -0.034438 1.020160
    46 -0.139399 -0.111698 0.014397 0.285382 -0.030687 1.580508
    47 -8.077268 2.362417 -0.458190 1.571013 -0.033602 -0.366166
  time 28
    0 5.457198 -10.031556 -4.015748 1.194472 -1.594410 0.276732
    1 1.582369 0.000001 1.434247 0.000000 0.000000 0.000000
    2 -0.135354 -0.000002 -4.511380 0.000000 0.872664 0.000000
    3 0.349163 0.565490 -3.526729 1.570796 0.000000 1.570796
    4 -1.667495 -0.000001 -2.433468 -0.000001 -1.570796 0.000000
    5 1.615030 0.000001 -1.639934 0.000000 0.000000 0.000000
    6 -1.517956 0.000000 1.203503 0.000000 0.000000 0.000000
    7 1.517956 0.000000 -0.122468 -0.000001 1.570796 0.000000
    8 2.374435 0.000000 -0.000001 0.000000 0.000000 0.000000
    9 2.497324 4.323086 -0.003287 0.000000 0.000000 -0.087311
    10 4.907625 -0.447903 -5.077262 0.564356 -1.682711 -0.548383
    11 7.597217 3.492893 -0.329500 1.565979 -3.123079 0.513401
    12 -0.087546 -8.440141 -0.127572 -0.032431 0.153495 -0.145068
    13 -0.488518 -2.755602 -0.228260 -1.012917 -0.027455 -0.375635
    14 0.039887 -1.534479 0.014229 -1.560820 -0.011313 0.034888
    15 0.028786 -1.169484 -0.128581 -1.099051 -0.015172 0.023622
    16 0.250027 -2.820665 -0.238396 -0.662576 -0.073966 -0.227258
    17 -0.049759 -1.598510 0.037977 -1.484984 0.001702 -0.040186
    18 -0.034142 -1.175657 0.045718 -1.265289 0.005465 -0.033401
    19 0.957766 -2.746780 -0.090302 -0.143287 -0.192850 0.066846
    20 -0.033420 -1.393223 -0.019070 -0.492316 0.008245 -0.023922
    21 -0.022360 -0.957436 0.007065 -0.473230 0.007802 -0.022567
    22 -1.180681 -2.507217 -0.193859 -0.872301 0.201272 -0.411077
    23 -0.024967 -1.127840 0.017597 -1.281913 -0.002649 -0.053846
    24 -0.020057 -0.906594 0.029622 -0.919408 0.006484 -0.037428
    25 0.622574 -1.193371 0.181473 0.848740 -0.994978 -0.939274
    26 1.481238 -0.212417 0.067511 0.045705 -0.210305 -0.747665
    27 1.061707 -0.132196 0.036197 0.044232 -0.196034 -0.801014
    28 0.120153 -0.050270 -0.054489 0.287569 3.110905 1.561085
    29 -3.860722 -3.949971 -8.247629 -2.145839 -4.870480 -1.338505
    30 -0.090562 -8.485576 0.057043 0.259147 -1.077243 -0.058517
    31 0.447953 -2.798986 -0.200443 -0.854253 0.007833 0.252378
    32 -0.032909 -1.495829 0.016659 -0.948515 0.019918 -0.014439
    33 -0.027022 -1.080826 -0.024116 -0.191942 0.005381 -0.001210
    34 -0.249534 -2.846964 -0.174213 -0.655860 0.041929 0.076311
    35 0.043235 -1.660503 0.084293 -0.936792 -0.015358 0.000852
    36 0.031729 -1.153017 0.058838 -0.444961 -0.003900 0.005867
    37 -0.963866 -2.785145 -0.085350 -0.710521 0.178583 -0.282454
    38 0.028479 -1.403067 -0.009354 -0.577666 -0.011313 -0.023825
    39 0.021413 -0.953875 0.020046 -0.252060 -0.003284 -0.011062
    40 1.164475 -2.543940 -0.170330 -0.953115 -0.183439 0.410106
    41 0.024032 -1.132948 0.002182 -0.738275 0.003164 0.039502
    42 0.014898 -0.903521 -0.015942 -1.007684 0.008941 0.050491
    43 -0.586770 -1.264477 0.200161 0.043111 -0.358024 -2.590196
    44 1.550180 0.039149 0.016848 -0.010934 -0.004102 0.597022
    45 1.114041 0.044518 -0.005766 -0.028287 -0.034438 1.020160
    46 -0.139399 -0.111698 0.014397 0.285382 -0.030687 1.580508
    47 -8.053830 2.467889 -0.454283 1.571288 -0.033398 -0.379182
  time 29
    0 5.433760 -10.023743 -4.043092 1.564480 -1.608246 -0.092295
    1 1.582369 0.000001 1.434247 0.000000 0.000000 0.000000
    2 -0.135354 -0.000002 -4.511380 0.000000 0.872664 0.000000
    3 0.349163 0.565490 -3.526729 1.570796 0.000000 1.570796
    4 -1.667495 -0.000001 -2.433468 -0.000001 -1.570796 0.000000
    5 1.615030 0.000001 -1.639934 0.000000 0.000000 0.000000
    6 -1.517956 0.000000 1.203503 0.000000 0.000000 0.000000
    7 1.517956 0.000000 -0.122468 -0.000001 1.570796 0.000000
    8 2.374435 0.000000 -0.000001 0.000000 0.000000 0.000000
    9 2.497324 4.323086 -0.003287 0.000000 0.000000 -0.087311
    10 4.899813 -0.443997 -5.085074 0.524887 -1.679135 -0.510642
    11 7.585498 3.528050 -0.329500 1.565979 -3.123174 0.517822
    12 -0.091453 -8.440141 -0.131479 -0.027339 0.137798 -0.130159
    13 -0.488518 -2.755602 -0.228260 -1.012917 -0.027455 -0.375635
    14 0.039887 -1.534479 0.014229 -1.560820 -0.011313 0.034888
    15 0.028786 -1.169484 -0.128581 -1.099051 -0.015172 0.023622
    16 0.250027 -2.820665 -0.238396 -0.661616 -0.074876 -0.237756
    17 -0.049759 -1.598510 0.037977 -1.484984 0.001702 -0.040186
    18 -0.034142 -1.175657 0.045718 -1.265289 0.005465 -0.033401
    19 0.957766 -2.746780 -0.090302 -0.143287 -0.192850 0.066846
    20 -0.033420 -1.393223 -0.019070 -0.492264 0.008245 -0.023910
    21 -0.022360 -0.957436 0.007065 -0.473109 0.007802 -0.022555
    22 -1.180681 -2.507217 -0.193859 -0.872301 0.201272 -0.411077
    23 -0.024967 -1.127840 0.017597 -1.281913 -0.002649 -0.053846
    24 -0.020057 -0.906594 0.029622 -0.919408 0.006484 -0.037428
    25 0.622574 -1.193371 0.181473 0.834436 -1.017707 -0.905457
    26 1.481238 -0.212417 0.067511 0.045166 -0.209562 -0.744277
    27 1.065614 -0.132196 0.032291 0.042470 -0.193578 -0.789934
    28 0.120153 -0.050270 -0.054489 0.287569 3.110905 1.561085
    29 -3.849003 -3.961690 -8.251535 -2.185158 -4.861329 -1.377822
    30 -0.090562 -8.485576 0.057043 0.263168 -1.081403 -0.090064
    31 0.447953 -2.798986 -0.200443 -0.854253 0.007833 0.252378
    32 -0.032909 -1.495829 0.016659 -0.948515 0.019918 -0.014439
    33 -0.027022 -1.080826 -0.024116 -0.191942 0.005381 -0.001210
    34 -0.249534 -2.846964 -0.174213 -0.655860 0.041929 0.076311
    35 0.043235 -1.660503 0.084293 -0.936792 -0.015358 0.000852
    36 0.031729 -1.153017 0.058838 -0.444961 -0.003900 0.005867
    37 -0.963866 -2.785145 -0.085350 -0.710521 0.178583 -0.282454
    38 0.028479 -1.403067 -0.009354 -0.577666 -0.011313 -0.023825
    39 0.021413 -0.953875 0.020046 -0.252060 -0.003284 -0.011062
    40 1.164475 -2.543940 -0.170330 -0.953115 -0.183439 0.410106
    41 0.024032 -1.132948 0.002182 -0.738275 0.003164 0.039502
    42 0.014898 -0.903521 -0.015942 -1.007684 0.008941 0.050491
    43 -0.586770 -1.264477 0.200161 0.043111 -0.358024 -2.590196
    44 1.550180 0.039149 0.016848 -0.010934 -0.004102 0.597022
    45 1.114041 0.044518 -0.005766 -0.028287 -0.034438 1.020160
    46 -0.139399 -0.111698 0.014397 0.285382 -0.030687 1.580508
    47 -8.026485 2.581174 -0.454283 1.571588 -0.033168 -0.393231
  time 30
    0 5.410321 -10.019837 -4.078249 -1.453868 -1.519474 -3.355815
    1 1.582369 0.000001 1.434247 0.000000 0.000000 0.000000
    2 -0.135354 -0.000002 -4.511380 0.000000 0.872664 0.000000
    3 0.349163 0.565490 -3.526729 1.570796 0.000000 1.570796
    4 -1.667495 -0.000001 -2.433468 -0.000001 -1.570796 0.000000
    5 1.615030 0.000001 -1.639934 0.000000 0.000000 0.000000
    6 -1.517956 0.000000 1.203503 0.000000 0.000000 0.000000
    7 1.517956 0.000000 -0.122468 -0.000001 1.570796 0.000000
    8 2.374435 0.000000 -0.000001 0.000000 0.000000 0.000000
    9 2.497324 4.323086 -0.003287 0.000000 0.000000 -0.087311
    10 4.888093 -0.436184 -5.088981 0.482456 -1.675633 -0.470042
    11 7.569873 3.559301 -0.325593 1.565883 -3.123270 0.522324
    12 -0.095359 -8.444047 -0.131479 -0.022467 0.123881 -0.117609
    13 -0.488518 -2.755602 -0.228260 -1.012917 -0.027455 -0.375635
    14 0.039887 -1.534479 0.014229 -1.560820 -0.011313 0.034888
    15 0.028786 -1.169484 -0.128581 -1.099051 -0.015172 0.023622
    16 0.250027 -2.820665 -0.238396 -0.660699 -0.075727 -0.247692
    17 -0.049759 -1.598510 0.037977 -1.484984 0.001702 -0.040186
    18 -0.034142 -1.175657 0.045718 -1.265289 0.005465 -0.033401
    19 0.957766 -2.746780 -0.090302 -0.143287 -0.192850 0.066846
    20 -0.033420 -1.393223 -0.019070 -0.492238 0.008245 -0.023910
    21 -0.022360 -0.957436 0.007065 -0.473017 0.007802 -0.022555
    22 -1.180681 -2.507217 -0.193859 -0.872301 0.201272 -0.411077
    23 -0.024967 -1.127840 0.017597 -1.281913 -0.002649 -0.053846
    24 -0.020057 -0.906594 0.029622 -0.919408 0.006484 -0.037428
    25 0.626480 -1.197277 0.185379 0.820553 -1.032445 -0.878010
    26 1.481238 -0.208511 0.067511 0.044759 -0.208987 -0.741725
    27 1.065614 -0.132196 0.032291 0.041619 -0.192379 -0.784517
    28 0.120153 -0.050270 -0.054489 0.287569 3.110905 1.561085
    29 -3.837284 -3.973409 -8.251535 -2.226673 -4.852915 -1.419338
    30 -0.090562 -8.485576 0.057043 0.266414 -1.085839 -0.117387
    31 0.447953 -2.798986 -0.200443 -0.854253 0.007833 0.252378
    32 -0.032909 -1.495829 0.016659 -0.948515 0.019918 -0.014439
    33 -0.027022 -1.080826 -0.024116 -0.191942 0.005381 -0.001210
    34 -0.249534 -2.846964 -0.174213 -0.655860 0.041929 0.076311
    35 0.043235 -1.660503 0.084293 -0.936792 -0.015358 0.000852
    36 0.031729 -1.153017 0.058838 -0.444961 -0.003900 0.005867
    37 -0.963866 -2.785145 -0.085350 -0.710521 0.178583 -0.282454
    38 0.028479 -1.403067 -0.009354 -0.577666 -0.011313 -0.023825
    39 0.021413 -0.953875 0.020046 -0.252060 -0.003284 -0.011062
    40 1.164475 -2.543940 -0.170330 -0.953115 -0.183439 0.410106
    41 0.024032 -1.132948 0.002182 -0.738275 0.003164 0.039502
    42 0.014898 -0.903521 -0.015942 -1.007684 0.008941 0.050491
    43 -0.586770 -1.264477 0.200161 0.043111 -0.358024 -2.590196
    44 1.550180 0.039149 0.016848 -0.010934 -0.004102 0.597022
    45 1.114041 0.044518 -0.005766 -0.028287 -0.034438 1.020160
    46 -0.139399 -0.111698 0.014397 0.285382 -0.030687 1.580508
    47 -8.003047 2.682739 -0.454283 1.571852 -0.032951 -0.405731
end
