version 1
nodes
  0 "Bone01" -1
  1 "Bone_Lefthand" 0
  2 "Bone_AK47" 1
  3 "Bone03" 2
  4 "Bone25" 3
  5 "Bone48" 3
  6 "Bone50" 3
  7 "Bone52" 3
  8 "Bone 04" 1
  9 "Bone13" 8
  10 "Bone14" 9
  11 "Bone15" 10
  12 "Bone17" 8
  13 "Bone18" 12
  14 "Bone19" 13
  15 "Bone21" 8
  16 "Bone22" 15
  17 "Bone23" 16
  18 "Bone05" 8
  19 "Bone06" 18
  20 "Bone07" 19
  21 "Bone04" -1
  22 "Bone_Righthand" 21
  23 "Bone26" 22
  24 "Bone35" 23
  25 "Bone36" 24
  26 "Bone37" 25
  27 "Bone31" 23
  28 "Bone32" 27
  29 "Bone33" 28
  30 "Bone39" 23
  31 "Bone40" 30
  32 "Bone41" 31
  33 "Bone43" 23
  34 "Bone44" 33
  35 "Bone45" 34
  36 "Bone27" 23
  37 "Bone28" 36
  38 "Bone29" 37
  39 "Bone09" 8
  40 "Bone10" 39
  41 "Bone11" 40
end
skeleton
  time 0
    0 8.608141 3.168915 -8.096399 -0.774287 -1.331381 0.567209
    1 0.000000 -8.563280 0.000000 0.347509 -0.125220 -0.169570
    2 -0.834451 -3.073735 0.513624 -1.247037 1.437608 -1.233844
    3 0.000000 2.160510 0.950626 0.000000 0.000000 0.000000
    4 0.000001 -3.109920 1.710279 0.218156 0.000000 0.000000
    5 0.000001 -4.793801 0.448359 0.000000 0.000000 0.000000
    6 0.000003 -6.345616 1.761433 0.000000 0.000000 0.000000
    7 0.000002 -5.765819 2.989244 0.000000 0.000000 0.000000
    8 -0.003480 -0.404829 0.000000 0.000000 0.000000 0.000000
    9 -0.519309 -2.501155 -0.278957 -1.003564 0.000000 -0.122173
    10 -0.010598 -1.208185 0.000000 -1.090831 0.000000 0.000000
    11 0.000000 -0.763066 -0.000001 -1.343903 0.000000 0.000000
    12 0.105981 -2.607134 -0.278957 -0.890118 0.000000 -0.148353
    13 0.000000 -1.250579 0.000000 -1.213004 0.000000 0.000000
    14 0.000000 -0.932634 0.000000 -1.483530 0.000000 0.000000
    15 0.763064 -2.490557 -0.278957 -0.235619 0.000000 0.130900
    16 -0.012322 -1.280918 0.000000 -0.898810 0.000000 0.000000
    17 -0.001697 -0.749371 0.000000 -1.169370 0.000000 0.000000
    18 0.354567 0.016267 0.318133 0.342077 -0.443527 -1.083976
    19 1.887165 0.012878 0.000000 -0.305433 0.000000 -0.401426
    20 1.001875 -0.000270 0.000000 0.000000 0.000000 -0.488692
    21 0.172369 -10.373125 -10.080679 -0.554979 0.255020 0.648650
    22 0.089929 -8.543161 0.000000 0.512980 0.031489 0.240363
    23 0.000000 -0.359712 0.000000 0.000000 0.000000 0.000000
    24 -0.170480 -2.636147 -0.277656 -1.692969 0.000000 0.000000
    25 0.010599 -1.261176 0.000001 -0.253073 0.000000 0.000000
    26 -0.000001 -0.943232 -0.000002 -0.532326 0.000000 0.000000
    27 -0.827563 -2.508973 -0.277657 -1.396263 0.000000 0.000000
    28 -0.000001 -1.292972 0.000000 -0.445059 0.000000 0.000000
    29 0.000000 -0.752466 -0.000001 -0.445059 0.000000 0.000000
    30 0.444211 -2.561960 -0.277656 -1.727307 -0.046226 -0.024599
    31 0.021020 -1.208185 0.000000 -0.427606 0.000000 0.000000
    32 0.010596 -0.741866 -0.000001 -0.453786 0.000000 0.000000
    33 1.047444 -2.222821 -0.277656 -1.508123 -0.078971 -0.038609
    34 0.000000 -0.996223 0.000000 -0.863938 0.000000 0.000000
    35 -0.000001 -0.614690 0.000000 -0.523599 0.000000 0.000000
    36 -0.308255 -0.007814 0.307166 -0.145110 -0.159878 -2.467082
    37 1.978379 0.019543 0.000000 -0.087921 -0.056961 -0.023672
    38 0.982426 0.003186 0.000000 0.000000 0.000000 0.418879
    39 -1.118738 -2.201382 -0.281120 -0.933746 0.000013 -0.087266
    40 0.007812 -0.964973 0.000001 -0.610836 0.000000 0.000000
    41 -0.007812 -0.630317 0.000000 -1.213004 0.000000 0.000000
  time 1
    0 8.608141 3.879874 -8.408909 -0.954840 -1.278044 0.751562
    1 0.000000 -8.563280 0.000000 0.356222 -0.102138 -0.238218
    2 -0.834451 -3.073735 0.513624 -1.247037 1.437608 -1.233844
    3 0.000000 2.160510 0.950626 0.000000 0.000000 0.000000
    4 0.000001 -3.137264 1.710279 0.184826 0.000000 0.000000
    5 0.000001 -4.793801 0.448359 0.000000 0.000000 0.000000
    6 0.000003 -6.345616 1.761433 0.000000 0.000000 0.000000
    7 0.011721 -3.765758 2.989244 0.000000 0.000000 0.000000
    8 -0.003480 -0.404829 0.000000 0.000000 0.000000 0.000000
    9 -0.519309 -2.501155 -0.278957 -1.003564 0.000000 -0.122173
    10 -0.010598 -1.208185 0.000000 -1.090831 0.000000 0.000000
    11 0.000000 -0.763066 -0.000001 -1.343903 0.000000 0.000000
    12 0.105981 -2.607134 -0.278957 -0.890118 0.000000 -0.148353
    13 0.000000 -1.250579 0.000000 -1.213004 0.000000 0.000000
    14 0.000000 -0.932634 0.000000 -1.483530 0.000000 0.000000
    15 0.763064 -2.490557 -0.278957 -0.235619 0.000000 0.130900
    16 -0.012322 -1.280918 0.000000 -0.905737 0.000000 0.000000
    17 -0.001697 -0.749371 0.000000 -1.176627 0.000000 0.000000
    18 0.354567 0.016267 0.318133 0.342077 -0.443527 -1.083976
    19 1.887165 0.012878 0.000000 -0.305433 0.000000 -0.401426
    20 1.001875 -0.000270 0.000000 0.000000 0.000000 -0.488692
    21 -0.011231 -10.482503 -9.842390 -0.582510 0.311517 0.750415
    22 0.089929 -8.543161 0.000000 0.519422 -0.008731 0.061573
    23 0.000000 -0.359712 0.000000 0.000000 0.000000 0.000000
    24 -0.170480 -2.636147 -0.277656 -1.692969 0.000000 0.000000
    25 0.010599 -1.261176 0.000001 -0.253073 0.000000 0.000000
    26 -0.000001 -0.943232 -0.000002 -0.532326 0.000000 0.000000
    27 -0.827563 -2.508973 -0.277657 -1.396263 0.000000 0.000000
    28 -0.000001 -1.292972 0.000000 -0.445059 0.000000 0.000000
    29 0.000000 -0.752466 -0.000001 -0.445059 0.000000 0.000000
    30 0.444211 -2.561960 -0.277656 -1.727307 -0.046226 -0.024599
    31 0.021020 -1.208185 0.000000 -0.427606 0.000000 0.000000
    32 0.010596 -0.741866 -0.000001 -0.453786 0.000000 0.000000
    33 1.047444 -2.222821 -0.277656 -1.508123 -0.078971 -0.038609
    34 0.000000 -0.996223 0.000000 -0.863938 0.000000 0.000000
    35 -0.000001 -0.614690 0.000000 -0.523599 0.000000 0.000000
    36 -0.308255 -0.007814 0.307166 -0.145110 -0.159878 -2.467082
    37 1.978379 0.019543 0.000000 -0.087921 -0.056961 -0.023672
    38 0.982426 0.003186 0.000000 0.000000 0.000000 0.418879
    39 -1.118738 -2.201382 -0.281120 -0.933746 0.000013 -0.087266
    40 0.007812 -0.964973 0.000001 -0.610836 0.000000 0.000000
    41 -0.007812 -0.630317 0.000000 -1.213004 0.000000 0.000000
  time 2
    0 8.608141 4.379890 -8.619853 -1.035173 -1.241617 0.834288
    1 0.000000 -8.563280 0.000000 0.360788 -0.087481 -0.280607
    2 -0.834451 -3.073735 0.513624 -1.247037 1.437608 -1.233844
    3 0.000000 2.160510 0.950626 0.000000 0.000000 0.000000
    4 0.000001 -3.195860 1.710279 0.148669 0.000000 0.000000
    5 0.000001 -4.793801 0.448359 0.000000 0.000000 0.000000
    6 0.000003 -6.345616 1.761433 0.000000 0.000000 0.000000
    7 0.000002 -4.769695 2.989244 0.000000 0.000000 0.000000
    8 -0.003480 -0.404829 0.000000 0.000000 0.000000 0.000000
    9 -0.519309 -2.501155 -0.278957 -1.003564 0.000000 -0.122173
    10 -0.010598 -1.208185 0.000000 -1.090831 0.000000 0.000000
    11 0.000000 -0.763066 -0.000001 -1.343903 0.000000 0.000000
    12 0.105981 -2.607134 -0.278957 -0.890118 0.000000 -0.148353
    13 0.000000 -1.250579 0.000000 -1.213004 0.000000 0.000000
    14 0.000000 -0.932634 0.000000 -1.483530 0.000000 0.000000
    15 0.763064 -2.490557 -0.278957 -0.235619 0.000000 0.130900
    16 -0.012322 -1.280918 0.000000 -0.921023 0.000000 0.000000
    17 -0.001697 -0.749371 0.000000 -1.192584 0.000000 0.000000
    18 0.354567 0.016267 0.318133 0.342077 -0.443527 -1.083976
    19 1.887165 0.012878 0.000000 -0.305433 0.000000 -0.401426
    20 1.001875 -0.000270 0.000000 0.000000 0.000000 -0.488692
    21 -0.136235 -10.490316 -9.721293 -0.592802 0.347877 0.814108
    22 0.089929 -8.543161 0.000000 0.524717 -0.034726 -0.053725
    23 0.000000 -0.359712 0.000000 0.000000 0.000000 0.000000
    24 -0.170480 -2.636147 -0.277656 -1.692969 0.000000 0.000000
    25 0.010599 -1.261176 0.000001 -0.253073 0.000000 0.000000
    26 -0.000001 -0.943232 -0.000002 -0.532326 0.000000 0.000000
    27 -0.827563 -2.508973 -0.277657 -1.396263 0.000000 0.000000
    28 -0.000001 -1.292972 0.000000 -0.445059 0.000000 0.000000
    29 0.000000 -0.752466 -0.000001 -0.445059 0.000000 0.000000
    30 0.444211 -2.561960 -0.277656 -1.727307 -0.046226 -0.024599
    31 0.021020 -1.208185 0.000000 -0.427606 0.000000 0.000000
    32 0.010596 -0.741866 -0.000001 -0.453786 0.000000 0.000000
    33 1.047444 -2.222821 -0.277656 -1.508123 -0.078971 -0.038609
    34 0.000000 -0.996223 0.000000 -0.863938 0.000000 0.000000
    35 -0.000001 -0.614690 0.000000 -0.523599 0.000000 0.000000
    36 -0.308255 -0.007814 0.307166 -0.145110 -0.159878 -2.467082
    37 1.978379 0.019543 0.000000 -0.087921 -0.056961 -0.023672
    38 0.982426 0.003186 0.000000 0.000000 0.000000 0.418879
    39 -1.118738 -2.201382 -0.281120 -0.933746 0.000013 -0.087266
    40 0.007812 -0.964973 0.000001 -0.610836 0.000000 0.000000
    41 -0.007812 -0.630317 0.000000 -1.213004 0.000000 0.000000
  time 3
    0 8.608141 4.567395 -8.682355 -1.023856 -1.247165 0.822510
    1 0.000000 -8.563280 0.000000 0.360428 -0.088260 -0.278019
    2 -0.834451 -3.073735 0.513624 -1.247037 1.437608 -1.233844
    3 0.000000 2.160510 0.950626 0.000000 0.000000 0.000000
    4 0.000001 -3.266175 1.710279 0.111756 0.000000 0.000000
    5 0.000001 -4.793801 0.448359 0.000000 0.000000 0.000000
    6 0.000003 -6.345616 1.761433 0.000000 0.000000 0.000000
    7 0.000002 -5.765819 2.989244 0.000000 0.000000 0.000000
    8 -0.003480 -0.404829 0.000000 0.000000 0.000000 0.000000
    9 -0.519309 -2.501155 -0.278957 -1.003564 0.000000 -0.122173
    10 -0.010598 -1.208185 0.000000 -1.090831 0.000000 0.000000
    11 0.000000 -0.763066 -0.000001 -1.343903 0.000000 0.000000
    12 0.105981 -2.607134 -0.278957 -0.890118 0.000000 -0.148353
    13 0.000000 -1.250579 0.000000 -1.213004 0.000000 0.000000
    14 0.000000 -0.932634 0.000000 -1.483530 0.000000 0.000000
    15 0.763064 -2.490557 -0.278957 -0.235619 0.000000 0.130900
    16 -0.012322 -1.280918 0.000000 -0.936290 0.000000 0.000000
    17 -0.001697 -0.749371 0.000000 -1.208599 0.000000 0.000000
    18 0.354567 0.016267 0.318133 0.342077 -0.443527 -1.083976
    19 1.887165 0.012878 0.000000 -0.305433 0.000000 -0.401426
    20 1.001875 -0.000270 0.000000 0.000000 0.000000 -0.488692
    21 -0.175298 -10.349686 -9.744731 -0.579873 0.345640 0.811350
    22 0.089929 -8.543161 0.000000 0.516860 -0.039016 -0.059973
    23 0.000000 -0.359712 0.000000 0.000000 0.000000 0.000000
    24 -0.170480 -2.636147 -0.277656 -1.692969 0.000000 0.000000
    25 0.010599 -1.261176 0.000001 -0.253073 0.000000 0.000000
    26 -0.000001 -0.943232 -0.000002 -0.532326 0.000000 0.000000
    27 -0.827563 -2.508973 -0.277657 -1.396263 0.000000 0.000000
    28 -0.000001 -1.292972 0.000000 -0.445059 0.000000 0.000000
    29 0.000000 -0.752466 -0.000001 -0.445059 0.000000 0.000000
    30 0.444211 -2.561960 -0.277656 -1.727307 -0.046226 -0.024599
    31 0.021020 -1.208185 0.000000 -0.427606 0.000000 0.000000
    32 0.010596 -0.741866 -0.000001 -0.453786 0.000000 0.000000
    33 1.047444 -2.222821 -0.277656 -1.508123 -0.078971 -0.038609
    34 0.000000 -0.996223 0.000000 -0.863938 0.000000 0.000000
    35 -0.000001 -0.614690 0.000000 -0.523599 0.000000 0.000000
    36 -0.308255 -0.007814 0.307166 -0.145110 -0.159878 -2.467082
    37 1.978379 0.019543 0.000000 -0.087921 -0.056961 -0.023672
    38 0.982426 0.003186 0.000000 0.000000 0.000000 0.418879
    39 -1.118738 -2.201382 -0.281120 -0.933746 0.000013 -0.087266
    40 0.007812 -0.964973 0.000001 -0.610836 0.000000 0.000000
    41 -0.007812 -0.630317 0.000000 -1.213004 0.000000 0.000000
  time 4
    0 8.608141 4.450204 -8.596415 -0.986633 -1.264208 0.784484
    1 0.000000 -8.563280 0.000000 0.359074 -0.092322 -0.265746
    2 -0.834451 -3.073735 0.513624 -1.247037 1.437608 -1.233844
    3 0.000000 2.160510 0.950626 0.000000 0.000000 0.000000
    4 0.000001 -3.324770 1.710279 0.076318 0.000000 0.000000
    5 0.000001 -4.793801 0.448359 0.000000 0.000000 0.000000
    6 0.000003 -6.345616 1.761433 0.000000 0.000000 0.000000
    7 0.000002 -5.765819 2.989244 0.000000 0.000000 0.000000
    8 -0.003480 -0.404829 0.000000 0.000000 0.000000 0.000000
    9 -0.519309 -2.501155 -0.278957 -1.003564 0.000000 -0.122173
    10 -0.010598 -1.208185 0.000000 -1.090831 0.000000 0.000000
    11 0.000000 -0.763066 -0.000001 -1.343903 0.000000 0.000000
    12 0.105981 -2.607134 -0.278957 -0.890118 0.000000 -0.148353
    13 0.000000 -1.250579 0.000000 -1.213004 0.000000 0.000000
    14 0.000000 -0.932634 0.000000 -1.483530 0.000000 0.000000
    15 0.763064 -2.490557 -0.278957 -0.235619 0.000000 0.130900
    16 -0.012322 -1.280918 0.000000 -0.943235 0.000000 0.000000
    17 -0.001697 -0.749371 0.000000 -1.215913 0.000000 0.000000
    18 0.354567 0.016267 0.318133 0.342077 -0.443527 -1.083976
    19 1.887165 0.012878 0.000000 -0.305433 0.000000 -0.401426
    20 1.001875 -0.000270 0.000000 0.000000 0.000000 -0.488692
    21 -0.167486 -10.197338 -9.838484 -0.560318 0.335331 0.794271
    22 0.089929 -8.543161 0.000000 0.505025 -0.039388 -0.044570
    23 0.000000 -0.359712 0.000000 0.000000 0.000000 0.000000
    24 -0.170480 -2.636147 -0.277656 -1.692969 0.000000 0.000000
    25 0.010599 -1.261176 0.000001 -0.253073 0.000000 0.000000
    26 -0.000001 -0.943232 -0.000002 -0.532326 0.000000 0.000000
    27 -0.827563 -2.508973 -0.277657 -1.396263 0.000000 0.000000
    28 -0.000001 -1.292972 0.000000 -0.445059 0.000000 0.000000
    29 0.000000 -0.752466 -0.000001 -0.445059 0.000000 0.000000
    30 0.444211 -2.561960 -0.277656 -1.727307 -0.046226 -0.024599
    31 0.021020 -1.208185 0.000000 -0.427606 0.000000 0.000000
    32 0.010596 -0.741866 -0.000001 -0.453786 0.000000 0.000000
    33 1.047444 -2.222821 -0.277656 -1.508123 -0.078971 -0.038609
    34 0.000000 -0.996223 0.000000 -0.863938 0.000000 0.000000
    35 -0.000001 -0.614690 0.000000 -0.523599 0.000000 0.000000
    36 -0.308255 -0.007814 0.307166 -0.145110 -0.159878 -2.467082
    37 1.978379 0.019543 0.000000 -0.087921 -0.056961 -0.023672
    38 0.982426 0.003186 0.000000 0.000000 0.000000 0.418879
    39 -1.118738 -2.201382 -0.281120 -0.933746 0.000013 -0.087266
    40 0.007812 -0.964973 0.000001 -0.610836 0.000000 0.000000
    41 -0.007812 -0.630317 0.000000 -1.213004 0.000000 0.000000
  time 5
    0 8.608141 4.165039 -8.440160 -0.931944 -1.285664 0.728679
    1 0.000000 -8.563280 0.000000 0.357049 -0.098387 -0.247734
    2 -0.834451 -3.073735 0.513624 -1.247037 1.437608 -1.233844
    3 0.000000 2.160510 0.950626 0.000000 0.000000 0.000000
    4 0.000001 -3.344302 1.710279 0.044439 0.000000 0.000000
    5 0.000001 -4.793801 0.448359 0.000000 0.000000 0.000000
    6 0.000003 -6.345616 1.761433 0.000000 0.000000 0.000000
    7 0.000002 -5.765819 2.989244 0.000000 0.000000 0.000000
    8 -0.003480 -0.404829 0.000000 0.000000 0.000000 0.000000
    9 -0.519309 -2.501155 -0.278957 -1.003564 0.000000 -0.122173
    10 -0.010598 -1.208185 0.000000 -1.090831 0.000000 0.000000
    11 0.000000 -0.763066 -0.000001 -1.343903 0.000000 0.000000
    12 0.105981 -2.607134 -0.278957 -0.890118 0.000000 -0.148353
    13 0.000000 -1.250579 0.000000 -1.213004 0.000000 0.000000
    14 0.000000 -0.932634 0.000000 -1.483530 0.000000 0.000000
    15 0.763064 -2.490557 -0.278957 -0.235619 0.000000 0.130900
    16 -0.012322 -1.280918 0.000000 -0.933516 0.000000 0.000000
    17 -0.001697 -0.749371 0.000000 -1.205731 0.000000 0.000000
    18 0.354567 0.016267 0.318133 0.342077 -0.443527 -1.083976
    19 1.887165 0.012878 0.000000 -0.305433 0.000000 -0.401426
    20 1.001875 -0.000270 0.000000 0.000000 0.000000 -0.488692
    21 -0.104984 -10.193432 -9.963488 -0.537997 0.320627 0.768385
    22 0.089929 -8.543161 0.000000 0.491385 -0.036464 -0.014992
    23 0.000000 -0.359712 0.000000 0.000000 0.000000 0.000000
    24 -0.170480 -2.636147 -0.277656 -1.692969 0.000000 0.000000
    25 0.010599 -1.261176 0.000001 -0.253073 0.000000 0.000000
    26 -0.000001 -0.943232 -0.000002 -0.532326 0.000000 0.000000
    27 -0.827563 -2.508973 -0.277657 -1.396263 0.000000 0.000000
    28 -0.000001 -1.292972 0.000000 -0.445059 0.000000 0.000000
    29 0.000000 -0.752466 -0.000001 -0.445059 0.000000 0.000000
    30 0.444211 -2.561960 -0.277656 -1.727307 -0.046226 -0.024599
    31 0.021020 -1.208185 0.000000 -0.427606 0.000000 0.000000
    32 0.010596 -0.741866 -0.000001 -0.453786 0.000000 0.000000
    33 1.047444 -2.222821 -0.277656 -1.508123 -0.078971 -0.038609
    34 0.000000 -0.996223 0.000000 -0.863938 0.000000 0.000000
    35 -0.000001 -0.614690 0.000000 -0.523599 0.000000 0.000000
    36 -0.308255 -0.007814 0.307166 -0.145110 -0.159878 -2.467082
    37 1.978379 0.019543 0.000000 -0.087921 -0.056961 -0.023672
    38 0.982426 0.003186 0.000000 0.000000 0.000000 0.418879
    39 -1.118738 -2.201382 -0.281120 -0.933746 0.000013 -0.087266
    40 0.007812 -0.964973 0.000001 -0.610836 0.000000 0.000000
    41 -0.007812 -0.630317 0.000000 -1.213004 0.000000 0.000000
  time 6
    0 8.608141 3.848623 -8.268280 -0.872872 -1.304891 0.668331
    1 0.000000 -8.563280 0.000000 0.354676 -0.105062 -0.227767
    2 -0.834451 -3.073735 0.513624 -1.247037 1.437608 -1.233844
    3 0.000000 2.160510 0.950626 0.000000 0.000000 0.000000
    4 0.000001 -3.344302 1.710279 0.018277 0.000000 0.000000
    5 0.000001 -4.793801 0.448359 0.000000 0.000000 0.000000
    6 0.000003 -6.345616 1.761433 0.000000 0.000000 0.000000
    7 0.000002 -5.765819 2.989244 0.000000 0.000000 0.000000
    8 -0.003480 -0.404829 0.000000 0.000000 0.000000 0.000000
    9 -0.519309 -2.501155 -0.278957 -1.003564 0.000000 -0.122173
    10 -0.010598 -1.208185 0.000000 -1.090831 0.000000 0.000000
    11 0.000000 -0.763066 -0.000001 -1.343903 0.000000 0.000000
    12 0.105981 -2.607134 -0.278957 -0.890118 0.000000 -0.148353
    13 0.000000 -1.250579 0.000000 -1.213004 0.000000 0.000000
    14 0.000000 -0.932634 0.000000 -1.483530 0.000000 0.000000
    15 0.763064 -2.490557 -0.278957 -0.235619 0.000000 0.130900
    16 -0.012322 -1.280918 0.000000 -0.898810 0.000000 0.000000
    17 -0.001697 -0.749371 0.000000 -1.169370 0.000000 0.000000
    18 0.354567 0.016267 0.318133 0.342077 -0.443527 -1.083976
    19 1.887165 0.012878 0.000000 -0.305433 0.000000 -0.401426
    20 1.001875 -0.000270 0.000000 0.000000 0.000000 -0.488692
    21 -0.015137 -10.201244 -10.018177 -0.516320 0.304965 0.739296
    22 0.089929 -8.543161 0.000000 0.478477 -0.031130 0.021232
    23 0.000000 -0.359712 0.000000 0.000000 0.000000 0.000000
    24 -0.170480 -2.636147 -0.277656 -1.692969 0.000000 0.000000
    25 0.010599 -1.261176 0.000001 -0.253073 0.000000 0.000000
    26 -0.000001 -0.943232 -0.000002 -0.532326 0.000000 0.000000
    27 -0.827563 -2.508973 -0.277657 -1.396263 0.000000 0.000000
    28 -0.000001 -1.292972 0.000000 -0.445059 0.000000 0.000000
    29 0.000000 -0.752466 -0.000001 -0.445059 0.000000 0.000000
    30 0.444211 -2.561960 -0.277656 -1.727307 -0.046226 -0.024599
    31 0.021020 -1.208185 0.000000 -0.427606 0.000000 0.000000
    32 0.010596 -0.741866 -0.000001 -0.453786 0.000000 0.000000
    33 1.047444 -2.222821 -0.277656 -1.508123 -0.078971 -0.038609
    34 0.000000 -0.996223 0.000000 -0.863938 0.000000 0.000000
    35 -0.000001 -0.614690 0.000000 -0.523599 0.000000 0.000000
    36 -0.308255 -0.007814 0.307166 -0.145110 -0.159878 -2.467082
    37 1.978379 0.019543 0.000000 -0.087921 -0.056961 -0.023672
    38 0.982426 0.003186 0.000000 0.000000 0.000000 0.418879
    39 -1.118738 -2.201382 -0.281120 -0.933746 0.000013 -0.087266
    40 0.007812 -0.964973 0.000001 -0.610836 0.000000 0.000000
    41 -0.007812 -0.630317 0.000000 -1.213004 0.000000 0.000000
  time 7
    0 8.608141 3.633773 -8.154995 -0.831855 -1.316342 0.626716
    1 0.000000 -8.563280 0.000000 0.352423 -0.111030 -0.209754
    2 -0.834451 -3.073735 0.513624 -1.247037 1.437608 -1.233844
    3 0.000000 2.160510 0.950626 0.000000 0.000000 0.000000
    4 0.000001 -3.344302 1.710279 0.000000 0.000000 0.000000
    5 0.000001 -4.793801 0.448359 0.000000 0.000000 0.000000
    6 0.000003 -6.345616 1.761433 0.000000 0.000000 0.000000
    7 0.000002 -5.765819 2.989244 0.000000 0.000000 0.000000
    8 -0.003480 -0.404829 0.000000 0.000000 0.000000 0.000000
    9 -0.519309 -2.501155 -0.278957 -1.003564 0.000000 -0.122173
    10 -0.010598 -1.208185 0.000000 -1.090831 0.000000 0.000000
    11 0.000000 -0.763066 -0.000001 -1.343903 0.000000 0.000000
    12 0.105981 -2.607134 -0.278957 -0.890118 0.000000 -0.148353
    13 0.000000 -1.250579 0.000000 -1.213004 0.000000 0.000000
    14 0.000000 -0.932634 0.000000 -1.483530 0.000000 0.000000
    15 0.763064 -2.490557 -0.278957 -0.235619 0.000000 0.130900
    16 -0.012322 -1.280918 0.000000 -0.818446 0.000000 0.000000
    17 -0.001697 -0.749371 0.000000 -1.085136 0.000000 0.000000
    18 0.354567 0.016267 0.318133 0.342077 -0.443527 -1.083976
    19 1.887165 0.012878 0.000000 -0.305433 0.000000 -0.401426
    20 1.001875 -0.000270 0.000000 0.000000 0.000000 -0.488692
    21 0.082522 -10.103585 -9.791608 -0.499081 0.291220 0.712698
    22 0.089929 -8.543161 0.000000 0.468717 -0.024695 0.056734
    23 0.000000 -0.359712 0.000000 0.000000 0.000000 0.000000
    24 -0.170480 -2.636147 -0.277656 -1.692969 0.000000 0.000000
    25 0.010599 -1.261176 0.000001 -0.253073 0.000000 0.000000
    26 -0.000001 -0.943232 -0.000002 -0.532326 0.000000 0.000000
    27 -0.827563 -2.508973 -0.277657 -1.396263 0.000000 0.000000
    28 -0.000001 -1.292972 0.000000 -0.445059 0.000000 0.000000
    29 0.000000 -0.752466 -0.000001 -0.445059 0.000000 0.000000
    30 0.444211 -2.561960 -0.277656 -1.727307 -0.046226 -0.024599
    31 0.021020 -1.208185 0.000000 -0.427606 0.000000 0.000000
    32 0.010596 -0.741866 -0.000001 -0.453786 0.000000 0.000000
    33 1.047444 -2.222821 -0.277656 -1.508123 -0.078971 -0.038609
    34 0.000000 -0.996223 0.000000 -0.863938 0.000000 0.000000
    35 -0.000001 -0.614690 0.000000 -0.523599 0.000000 0.000000
    36 -0.308255 -0.007814 0.307166 -0.145110 -0.159878 -2.467082
    37 1.978379 0.019543 0.000000 -0.087921 -0.056961 -0.023672
    38 0.982426 0.003186 0.000000 0.000000 0.000000 0.418879
    39 -1.118738 -2.201382 -0.281120 -0.933746 0.000013 -0.087266
    40 0.007812 -0.964973 0.000001 -0.610836 0.000000 0.000000
    41 -0.007812 -0.630317 0.000000 -1.213004 0.000000 0.000000
  time 8
    0 8.608141 3.528301 -8.096399 -0.812295 -1.321377 0.606749
    1 0.000000 -8.563280 0.000000 0.350865 -0.115093 -0.197602
    2 -0.834451 -3.073735 0.513624 -1.247037 1.437608 -1.233844
    3 0.000000 2.160510 0.950626 0.000000 0.000000 0.000000
    4 0.000001 -3.344302 1.710279 -0.010738 0.000000 0.000000
    5 0.000001 -4.793801 0.448359 0.000000 0.000000 0.000000
    6 0.000003 -6.345616 1.761433 0.000000 0.000000 0.000000
    7 0.000002 -5.765819 2.989244 0.000000 0.000000 0.000000
    8 -0.003480 -0.404829 0.000000 0.000000 0.000000 0.000000
    9 -0.519309 -2.501155 -0.278957 -1.003564 0.000000 -0.122173
    10 -0.010598 -1.208185 0.000000 -1.090831 0.000000 0.000000
    11 0.000000 -0.763066 -0.000001 -1.343903 0.000000 0.000000
    12 0.105981 -2.607134 -0.278957 -0.890118 0.000000 -0.148353
    13 0.000000 -1.250579 0.000000 -1.213004 0.000000 0.000000
    14 0.000000 -0.932634 0.000000 -1.483530 0.000000 0.000000
    15 0.763064 -2.490557 -0.278957 -0.235619 0.000000 0.130900
    16 -0.012322 -1.280918 0.000000 -0.695689 0.000000 0.000000
    17 -0.001697 -0.749371 0.000000 -0.956563 0.000000 0.000000
    18 0.354567 0.016267 0.318133 0.342077 -0.443527 -1.083976
    19 1.887165 0.012878 0.000000 -0.305433 0.000000 -0.401426
    20 1.001875 -0.000270 0.000000 0.000000 0.000000 -0.488692
    21 0.180181 -10.021551 -9.549413 -0.490590 0.281950 0.694462
    22 0.089929 -8.543161 0.000000 0.464349 -0.018643 0.084109
    23 0.000000 -0.359712 0.000000 0.000000 0.000000 0.000000
    24 -0.170480 -2.636147 -0.277656 -1.692969 0.000000 0.000000
    25 0.010599 -1.261176 0.000001 -0.253073 0.000000 0.000000
    26 -0.000001 -0.943232 -0.000002 -0.532326 0.000000 0.000000
    27 -0.827563 -2.508973 -0.277657 -1.396263 0.000000 0.000000
    28 -0.000001 -1.292972 0.000000 -0.445059 0.000000 0.000000
    29 0.000000 -0.752466 -0.000001 -0.445059 0.000000 0.000000
    30 0.444211 -2.561960 -0.277656 -1.727307 -0.046226 -0.024599
    31 0.021020 -1.208185 0.000000 -0.427606 0.000000 0.000000
    32 0.010596 -0.741866 -0.000001 -0.453786 0.000000 0.000000
    33 1.047444 -2.222821 -0.277656 -1.508123 -0.078971 -0.038609
    34 0.000000 -0.996223 0.000000 -0.863938 0.000000 0.000000
    35 -0.000001 -0.614690 0.000000 -0.523599 0.000000 0.000000
    36 -0.308255 -0.007814 0.307166 -0.145110 -0.159878 -2.467082
    37 1.978379 0.019543 0.000000 -0.087921 -0.056961 -0.023672
    38 0.982426 0.003186 0.000000 0.000000 0.000000 0.418879
    39 -1.118738 -2.201382 -0.281120 -0.933746 0.000013 -0.087266
    40 0.007812 -0.964973 0.000001 -0.610836 0.000000 0.000000
    41 -0.007812 -0.630317 0.000000 -1.213004 0.000000 0.000000
  time 9
    0 8.608141 3.430642 -8.057336 -0.798688 -1.324786 0.592840
    1 0.000000 -8.563280 0.000000 0.349978 -0.117430 -0.190699
    2 -0.834451 -3.073735 0.513624 -1.247037 1.437608 -1.233844
    3 0.000000 2.160510 0.950626 0.000000 0.000000 0.000000
    4 0.000001 -3.344302 1.710279 -0.016491 0.000000 0.000000
    5 0.000001 -4.793801 0.448359 0.000000 0.000000 0.000000
    6 0.000003 -6.345616 1.761433 0.000000 0.000000 0.000000
    7 0.000002 -5.765819 2.989244 0.000000 0.000000 0.000000
    8 -0.003480 -0.404829 0.000000 0.000000 0.000000 0.000000
    9 -0.519309 -2.501155 -0.278957 -1.003564 0.000000 -0.122173
    10 -0.010598 -1.208185 0.000000 -1.090831 0.000000 0.000000
    11 0.000000 -0.763066 -0.000001 -1.343903 0.000000 0.000000
    12 0.105981 -2.607134 -0.278957 -0.890118 0.000000 -0.148353
    13 0.000000 -1.250579 0.000000 -1.213004 0.000000 0.000000
    14 0.000000 -0.932634 0.000000 -1.483530 0.000000 0.000000
    15 0.763064 -2.490557 -0.278957 -0.235619 0.000000 0.130900
    16 -0.012322 -1.280918 0.000000 -0.558153 0.000000 0.000000
    17 -0.001697 -0.749371 0.000000 -0.812469 0.000000 0.000000
    18 0.354567 0.016267 0.318133 0.342077 -0.443527 -1.083976
    19 1.887165 0.012878 0.000000 -0.305433 0.000000 -0.401426
    20 1.001875 -0.000270 0.000000 0.000000 0.000000 -0.488692
    21 0.246590 -10.025458 -9.580664 -0.490204 0.276596 0.683876
    22 0.089929 -8.543161 0.000000 0.464886 -0.013022 0.104641
    23 0.000000 -0.359712 0.000000 0.000000 0.000000 0.000000
    24 -0.170480 -2.636147 -0.277656 -1.692969 0.000000 0.000000
    25 0.010599 -1.261176 0.000001 -0.253073 0.000000 0.000000
    26 -0.000001 -0.943232 -0.000002 -0.532326 0.000000 0.000000
    27 -0.827563 -2.508973 -0.277657 -1.396263 0.000000 0.000000
    28 -0.000001 -1.292972 0.000000 -0.445059 0.000000 0.000000
    29 0.000000 -0.752466 -0.000001 -0.445059 0.000000 0.000000
    30 0.444211 -2.561960 -0.277656 -1.727307 -0.046226 -0.024599
    31 0.021020 -1.208185 0.000000 -0.427606 0.000000 0.000000
    32 0.010596 -0.741866 -0.000001 -0.453786 0.000000 0.000000
    33 1.047444 -2.222821 -0.277656 -1.508123 -0.078971 -0.038609
    34 0.000000 -0.996223 0.000000 -0.863938 0.000000 0.000000
    35 -0.000001 -0.614690 0.000000 -0.523599 0.000000 0.000000
    36 -0.308255 -0.007814 0.307166 -0.145110 -0.159878 -2.467082
    37 1.978379 0.019543 0.000000 -0.087921 -0.056961 -0.023672
    38 0.982426 0.003186 0.000000 0.000000 0.000000 0.418879
    39 -1.118738 -2.201382 -0.281120 -0.933746 0.000013 -0.087266
    40 0.007812 -0.964973 0.000001 -0.610836 0.000000 0.000000
    41 -0.007812 -0.630317 0.000000 -1.213004 0.000000 0.000000
  time 10
    0 8.608141 3.352515 -8.026085 -0.789922 -1.326947 0.583979
    1 0.000000 -8.563280 0.000000 0.349343 -0.119228 -0.185569
    2 -0.834451 -3.073735 0.513624 -1.247037 1.437608 -1.233844
    3 0.000000 2.160510 0.950626 0.000000 0.000000 0.000000
    4 0.000001 -3.344302 1.710279 -0.018169 0.000000 0.000000
    5 0.000001 -4.793801 0.448359 0.000000 0.000000 0.000000
    6 0.000003 -6.345616 1.761433 0.000000 0.000000 0.000000
    7 0.000002 -5.765819 2.989244 0.000000 0.000000 0.000000
    8 -0.003480 -0.404829 0.000000 0.000000 0.000000 0.000000
    9 -0.519309 -2.501155 -0.278957 -1.003564 0.000000 -0.122173
    10 -0.010598 -1.208185 0.000000 -1.090831 0.000000 0.000000
    11 0.000000 -0.763066 -0.000001 -1.343903 0.000000 0.000000
    12 0.105981 -2.607134 -0.278957 -0.890118 0.000000 -0.148353
    13 0.000000 -1.250579 0.000000 -1.213004 0.000000 0.000000
    14 0.000000 -0.932634 0.000000 -1.483530 0.000000 0.000000
    15 0.763064 -2.490557 -0.278957 -0.235619 0.000000 0.130900
    16 -0.012322 -1.280918 0.000000 -0.433419 0.000000 0.000000
    17 -0.001697 -0.749371 0.000000 -0.681749 0.000000 0.000000
    18 0.354567 0.016267 0.318133 0.342077 -0.443527 -1.083976
    19 1.887165 0.012878 0.000000 -0.305433 0.000000 -0.401426
    20 1.001875 -0.000270 0.000000 0.000000 0.000000 -0.488692
    21 0.293466 -10.060615 -9.674417 -0.494321 0.272281 0.675781
    22 0.089929 -8.543161 0.000000 0.468302 -0.006886 0.124577
    23 0.000000 -0.359712 0.000000 0.000000 0.000000 0.000000
    24 -0.170480 -2.636147 -0.277656 -1.692969 0.000000 0.000000
    25 0.010599 -1.261176 0.000001 -0.253073 0.000000 0.000000
    26 -0.000001 -0.943232 -0.000002 -0.532326 0.000000 0.000000
    27 -0.827563 -2.508973 -0.277657 -1.396263 0.000000 0.000000
    28 -0.000001 -1.292972 0.000000 -0.445059 0.000000 0.000000
    29 0.000000 -0.752466 -0.000001 -0.445059 0.000000 0.000000
    30 0.444211 -2.561960 -0.277656 -1.727307 -0.046226 -0.024599
    31 0.021020 -1.208185 0.000000 -0.427606 0.000000 0.000000
    32 0.010596 -0.741866 -0.000001 -0.453786 0.000000 0.000000
    33 1.047444 -2.222821 -0.277656 -1.508123 -0.078971 -0.038609
    34 0.000000 -0.996223 0.000000 -0.863938 0.000000 0.000000
    35 -0.000001 -0.614690 0.000000 -0.523599 0.000000 0.000000
    36 -0.308255 -0.007814 0.307166 -0.145110 -0.159878 -2.467082
    37 1.978379 0.019543 0.000000 -0.087921 -0.056961 -0.023672
    38 0.982426 0.003186 0.000000 0.000000 0.000000 0.418879
    39 -1.118738 -2.201382 -0.281120 -0.933746 0.000013 -0.087266
    40 0.007812 -0.964973 0.000001 -0.610836 0.000000 0.000000
    41 -0.007812 -0.630317 0.000000 -1.213004 0.000000 0.000000
  time 11
    0 8.608141 3.286106 -8.002646 -0.785212 -1.328195 0.578931
    1 0.000000 -8.563280 0.000000 0.348863 -0.120534 -0.181854
    2 -0.834451 -3.073735 0.513624 -1.247037 1.437608 -1.233844
    3 0.000000 2.160510 0.950626 0.000000 0.000000 0.000000
    4 0.000001 -3.344302 1.710279 -0.016802 0.000000 0.000000
    5 0.000001 -4.793801 0.448359 0.000000 0.000000 0.000000
    6 0.000003 -6.345616 1.761433 0.000000 0.000000 0.000000
    7 0.000002 -5.765819 2.989244 0.000000 0.000000 0.000000
    8 -0.003480 -0.404829 0.000000 0.000000 0.000000 0.000000
    9 -0.519309 -2.501155 -0.278957 -1.003564 0.000000 -0.122173
    10 -0.010598 -1.208185 0.000000 -1.090831 0.000000 0.000000
    11 0.000000 -0.763066 -0.000001 -1.343903 0.000000 0.000000
    12 0.105981 -2.607134 -0.278957 -0.890118 0.000000 -0.148353
    13 0.000000 -1.250579 0.000000 -1.213004 0.000000 0.000000
    14 0.000000 -0.932634 0.000000 -1.483530 0.000000 0.000000
    15 0.763064 -2.490557 -0.278957 -0.235619 0.000000 0.130900
    16 -0.012322 -1.280918 0.000000 -0.349066 0.000000 0.000000
    17 -0.001697 -0.749371 0.000000 -0.593412 0.000000 0.000000
    18 0.354567 0.016267 0.318133 0.342077 -0.443527 -1.083976
    19 1.887165 0.012878 0.000000 -0.305433 0.000000 -0.401426
    20 1.001875 -0.000270 0.000000 0.000000 0.000000 -0.488692
    21 0.320811 -10.095772 -9.740825 -0.501911 0.268765 0.669732
    22 0.089929 -8.543161 0.000000 0.473841 -0.000426 0.144097
    23 0.000000 -0.359712 0.000000 0.000000 0.000000 0.000000
    24 -0.170480 -2.636147 -0.277656 -1.692969 0.000000 0.000000
    25 0.010599 -1.261176 0.000001 -0.253073 0.000000 0.000000
    26 -0.000001 -0.943232 -0.000002 -0.532326 0.000000 0.000000
    27 -0.827563 -2.508973 -0.277657 -1.396263 0.000000 0.000000
    28 -0.000001 -1.292972 0.000000 -0.445059 0.000000 0.000000
    29 0.000000 -0.752466 -0.000001 -0.445059 0.000000 0.000000
    30 0.444211 -2.561960 -0.277656 -1.727307 -0.046226 -0.024599
    31 0.021020 -1.208185 0.000000 -0.427606 0.000000 0.000000
    32 0.010596 -0.741866 -0.000001 -0.453786 0.000000 0.000000
    33 1.047444 -2.222821 -0.277656 -1.508123 -0.078971 -0.038609
    34 0.000000 -0.996223 0.000000 -0.863938 0.000000 0.000000
    35 -0.000001 -0.614690 0.000000 -0.523599 0.000000 0.000000
    36 -0.308255 -0.007814 0.307166 -0.145110 -0.159878 -2.467082
    37 1.978379 0.019543 0.000000 -0.087921 -0.056961 -0.023672
    38 0.982426 0.003186 0.000000 0.000000 0.000000 0.418879
    39 -1.118738 -2.201382 -0.281120 -0.933746 0.000013 -0.087266
    40 0.007812 -0.964973 0.000001 -0.610836 0.000000 0.000000
    41 -0.007812 -0.630317 0.000000 -1.213004 0.000000 0.000000
  time 12
    0 8.608141 3.235323 -7.998740 -0.783053 -1.328841 0.576519
    1 0.000000 -8.563280 0.000000 0.348576 -0.121577 -0.179134
    2 -0.834451 -3.073735 0.513624 -1.247037 1.437608 -1.233844
    3 0.000000 2.160510 0.950626 0.000000 0.000000 0.000000
    4 0.000001 -3.344302 1.710279 -0.013459 0.000000 0.000000
    5 0.000001 -4.793801 0.448359 0.000000 0.000000 0.000000
    6 0.000003 -6.345616 1.761433 0.000000 0.000000 0.000000
    7 0.000002 -5.765819 2.989244 0.000000 0.000000 0.000000
    8 -0.003480 -0.404829 0.000000 0.000000 0.000000 0.000000
    9 -0.519309 -2.501155 -0.278957 -1.003564 0.000000 -0.122173
    10 -0.010598 -1.208185 0.000000 -1.090831 0.000000 0.000000
    11 0.000000 -0.763066 -0.000001 -1.343903 0.000000 0.000000
    12 0.105981 -2.607134 -0.278957 -0.890118 0.000000 -0.148353
    13 0.000000 -1.250579 0.000000 -1.213004 0.000000 0.000000
    14 0.000000 -0.932634 0.000000 -1.483530 0.000000 0.000000
    15 0.763064 -2.490557 -0.278957 -0.235619 0.000000 0.130900
    16 -0.012322 -1.280918 0.000000 -0.313889 0.000000 0.000000
    17 -0.001697 -0.749371 0.000000 -0.556557 0.000000 0.000000
    18 0.354567 0.016267 0.318133 0.342077 -0.443527 -1.083976
    19 1.887165 0.012878 0.000000 -0.305433 0.000000 -0.401426
    20 1.001875 -0.000270 0.000000 0.000000 0.000000 -0.488692
    21 0.328623 -10.134836 -9.807233 -0.512010 0.265968 0.665018
    22 0.089929 -8.543161 0.000000 0.481015 0.006213 0.163329
    23 0.000000 -0.359712 0.000000 0.000000 0.000000 0.000000
    24 -0.170480 -2.636147 -0.277656 -1.692969 0.000000 0.000000
    25 0.010599 -1.261176 0.000001 -0.253073 0.000000 0.000000
    26 -0.000001 -0.943232 -0.000002 -0.532326 0.000000 0.000000
    27 -0.827563 -2.508973 -0.277657 -1.396263 0.000000 0.000000
    28 -0.000001 -1.292972 0.000000 -0.445059 0.000000 0.000000
    29 0.000000 -0.752466 -0.000001 -0.445059 0.000000 0.000000
    30 0.444211 -2.561960 -0.277656 -1.727307 -0.046226 -0.024599
    31 0.021020 -1.208185 0.000000 -0.427606 0.000000 0.000000
    32 0.010596 -0.741866 -0.000001 -0.453786 0.000000 0.000000
    33 1.047444 -2.222821 -0.277656 -1.508123 -0.078971 -0.038609
    34 0.000000 -0.996223 0.000000 -0.863938 0.000000 0.000000
    35 -0.000001 -0.614690 0.000000 -0.523599 0.000000 0.000000
    36 -0.308255 -0.007814 0.307166 -0.145110 -0.159878 -2.467082
    37 1.978379 0.019543 0.000000 -0.087921 -0.056961 -0.023672
    38 0.982426 0.003186 0.000000 0.000000 0.000000 0.418879
    39 -1.118738 -2.201382 -0.281120 -0.933746 0.000013 -0.087266
    40 0.007812 -0.964973 0.000001 -0.610836 0.000000 0.000000
    41 -0.007812 -0.630317 0.000000 -1.213004 0.000000 0.000000
  time 13
    0 8.608141 3.192353 -8.002646 -0.782203 -1.329175 0.575734
    1 0.000000 -8.563280 0.000000 0.348336 -0.122440 -0.176953
    2 -0.834451 -3.073735 0.513624 -1.247037 1.437608 -1.233844
    3 0.000000 2.160510 0.950626 0.000000 0.000000 0.000000
    4 0.000001 -3.344302 1.710279 -0.009060 0.000000 0.000000
    5 0.000001 -4.793801 0.448359 0.000000 0.000000 0.000000
    6 0.000003 -6.345616 1.761433 0.000000 0.000000 0.000000
    7 0.000002 -5.765819 2.989244 0.000000 0.000000 0.000000
    8 -0.003480 -0.404829 0.000000 0.000000 0.000000 0.000000
    9 -0.519309 -2.501155 -0.278957 -1.003564 0.000000 -0.122173
    10 -0.010598 -1.208185 0.000000 -1.090831 0.000000 0.000000
    11 0.000000 -0.763066 -0.000001 -1.343903 0.000000 0.000000
    12 0.105981 -2.607134 -0.278957 -0.890118 0.000000 -0.148353
    13 0.000000 -1.250579 0.000000 -1.213004 0.000000 0.000000
    14 0.000000 -0.932634 0.000000 -1.483530 0.000000 0.000000
    15 0.763064 -2.490557 -0.278957 -0.235619 0.000000 0.130900
    16 -0.012322 -1.280918 0.000000 -0.309501 0.000000 0.000000
    17 -0.001697 -0.749371 0.000000 -0.551960 0.000000 0.000000
    18 0.354567 0.016267 0.318133 0.342077 -0.443527 -1.083976
    19 1.887165 0.012878 0.000000 -0.305433 0.000000 -0.401426
    20 1.001875 -0.000270 0.000000 0.000000 0.000000 -0.488692
    21 0.320811 -10.181713 -9.873641 -0.523267 0.263411 0.661193
    22 0.089929 -8.543161 0.000000 0.489116 0.012793 0.182452
    23 0.000000 -0.359712 0.000000 0.000000 0.000000 0.000000
    24 -0.170480 -2.636147 -0.277656 -1.692969 0.000000 0.000000
    25 0.010599 -1.261176 0.000001 -0.253073 0.000000 0.000000
    26 -0.000001 -0.943232 -0.000002 -0.532326 0.000000 0.000000
    27 -0.827563 -2.508973 -0.277657 -1.396263 0.000000 0.000000
    28 -0.000001 -1.292972 0.000000 -0.445059 0.000000 0.000000
    29 0.000000 -0.752466 -0.000001 -0.445059 0.000000 0.000000
    30 0.444211 -2.561960 -0.277656 -1.727307 -0.046226 -0.024599
    31 0.021020 -1.208185 0.000000 -0.427606 0.000000 0.000000
    32 0.010596 -0.741866 -0.000001 -0.453786 0.000000 0.000000
    33 1.047444 -2.222821 -0.277656 -1.508123 -0.078971 -0.038609
    34 0.000000 -0.996223 0.000000 -0.863938 0.000000 0.000000
    35 -0.000001 -0.614690 0.000000 -0.523599 0.000000 0.000000
    36 -0.308255 -0.007814 0.307166 -0.145110 -0.159878 -2.467082
    37 1.978379 0.019543 0.000000 -0.087921 -0.056961 -0.023672
    38 0.982426 0.003186 0.000000 0.000000 0.000000 0.418879
    39 -1.118738 -2.201382 -0.281120 -0.933746 0.000013 -0.087266
    40 0.007812 -0.964973 0.000001 -0.610836 0.000000 0.000000
    41 -0.007812 -0.630317 0.000000 -1.213004 0.000000 0.000000
  time 14
    0 8.608141 3.172822 -8.022178 -0.781287 -1.329509 0.574781
    1 0.000000 -8.563280 0.000000 0.348096 -0.123243 -0.174879
    2 -0.834451 -3.073735 0.513624 -1.247037 1.437608 -1.233844
    3 0.000000 2.160510 0.950626 0.000000 0.000000 0.000000
    4 0.000001 -3.344302 1.710279 -0.004710 0.000000 0.000000
    5 0.000001 -4.793801 0.448359 0.000000 0.000000 0.000000
    6 0.000003 -6.345616 1.761433 0.000000 0.000000 0.000000
    7 0.000002 -5.765819 2.989244 0.000000 0.000000 0.000000
    8 -0.003480 -0.404829 0.000000 0.000000 0.000000 0.000000
    9 -0.519309 -2.501155 -0.278957 -1.003564 0.000000 -0.122173
    10 -0.010598 -1.208185 0.000000 -1.090831 0.000000 0.000000
    11 0.000000 -0.763066 -0.000001 -1.343903 0.000000 0.000000
    12 0.105981 -2.607134 -0.278957 -0.890118 0.000000 -0.148353
    13 0.000000 -1.250579 0.000000 -1.213004 0.000000 0.000000
    14 0.000000 -0.932634 0.000000 -1.483530 0.000000 0.000000
    15 0.763064 -2.490557 -0.278957 -0.235619 0.000000 0.130900
    16 -0.012322 -1.280918 0.000000 -0.322683 0.000000 0.000000
    17 -0.001697 -0.749371 0.000000 -0.565771 0.000000 0.000000
    18 0.354567 0.016267 0.318133 0.342077 -0.443527 -1.083976
    19 1.887165 0.012878 0.000000 -0.305433 0.000000 -0.401426
    20 1.001875 -0.000270 0.000000 0.000000 0.000000 -0.488692
    21 0.293466 -10.240308 -9.947862 -0.534845 0.260933 0.657545
    22 0.089929 -8.543161 0.000000 0.497583 0.019301 0.201575
    23 0.000000 -0.359712 0.000000 0.000000 0.000000 0.000000
    24 -0.170480 -2.636147 -0.277656 -1.692969 0.000000 0.000000
    25 0.010599 -1.261176 0.000001 -0.253073 0.000000 0.000000
    26 -0.000001 -0.943232 -0.000002 -0.532326 0.000000 0.000000
    27 -0.827563 -2.508973 -0.277657 -1.396263 0.000000 0.000000
    28 -0.000001 -1.292972 0.000000 -0.445059 0.000000 0.000000
    29 0.000000 -0.752466 -0.000001 -0.445059 0.000000 0.000000
    30 0.444211 -2.561960 -0.277656 -1.727307 -0.046226 -0.024599
    31 0.021020 -1.208185 0.000000 -0.427606 0.000000 0.000000
    32 0.010596 -0.741866 -0.000001 -0.453786 0.000000 0.000000
    33 1.047444 -2.222821 -0.277656 -1.508123 -0.078971 -0.038609
    34 0.000000 -0.996223 0.000000 -0.863938 0.000000 0.000000
    35 -0.000001 -0.614690 0.000000 -0.523599 0.000000 0.000000
    36 -0.308255 -0.007814 0.307166 -0.145110 -0.159878 -2.467082
    37 1.978379 0.019543 0.000000 -0.087921 -0.056961 -0.023672
    38 0.982426 0.003186 0.000000 0.000000 0.000000 0.418879
    39 -1.118738 -2.201382 -0.281120 -0.933746 0.000013 -0.087266
    40 0.007812 -0.964973 0.000001 -0.610836 0.000000 0.000000
    41 -0.007812 -0.630317 0.000000 -1.213004 0.000000 0.000000
  time 15
    0 8.608141 3.165009 -8.053429 -0.779128 -1.330178 0.572425
    1 0.000000 -8.563280 0.000000 0.347869 -0.124117 -0.172554
    2 -0.834451 -3.073735 0.513624 -1.247037 1.437608 -1.233844
    3 0.000000 2.160510 0.950626 0.000000 0.000000 0.000000
    4 0.000001 -3.344302 1.710279 -0.001318 0.000000 0.000000
    5 0.000001 -4.793801 0.448359 0.000000 0.000000 0.000000
    6 0.000003 -6.345616 1.761433 0.000000 0.000000 0.000000
    7 0.000002 -5.765819 2.989244 0.000000 0.000000 0.000000
    8 -0.003480 -0.404829 0.000000 0.000000 0.000000 0.000000
    9 -0.519309 -2.501155 -0.278957 -1.003564 0.000000 -0.122173
    10 -0.010598 -1.208185 0.000000 -1.090831 0.000000 0.000000
    11 0.000000 -0.763066 -0.000001 -1.343903 0.000000 0.000000
    12 0.105981 -2.607134 -0.278957 -0.890118 0.000000 -0.148353
    13 0.000000 -1.250579 0.000000 -1.213004 0.000000 0.000000
    14 0.000000 -0.932634 0.000000 -1.483530 0.000000 0.000000
    15 0.763064 -2.490557 -0.278957 -0.235619 0.000000 0.130900
    16 -0.012322 -1.280918 0.000000 -0.340272 0.000000 0.000000
    17 -0.001697 -0.749371 0.000000 -0.584198 0.000000 0.000000
    18 0.354567 0.016267 0.318133 0.342077 -0.443527 -1.083976
    19 1.887165 0.012878 0.000000 -0.305433 0.000000 -0.401426
    20 1.001875 -0.000270 0.000000 0.000000 0.000000 -0.488692
    21 0.242683 -10.302810 -10.018177 -0.545909 0.258216 0.653542
    22 0.089929 -8.543161 0.000000 0.505757 0.025569 0.220843
    23 0.000000 -0.359712 0.000000 0.000000 0.000000 0.000000
    24 -0.170480 -2.636147 -0.277656 -1.692969 0.000000 0.000000
    25 0.010599 -1.261176 0.000001 -0.253073 0.000000 0.000000
    26 -0.000001 -0.943232 -0.000002 -0.532326 0.000000 0.000000
    27 -0.827563 -2.508973 -0.277657 -1.396263 0.000000 0.000000
    28 -0.000001 -1.292972 0.000000 -0.445059 0.000000 0.000000
    29 0.000000 -0.752466 -0.000001 -0.445059 0.000000 0.000000
    30 0.444211 -2.561960 -0.277656 -1.727307 -0.046226 -0.024599
    31 0.021020 -1.208185 0.000000 -0.427606 0.000000 0.000000
    32 0.010596 -0.741866 -0.000001 -0.453786 0.000000 0.000000
    33 1.047444 -2.222821 -0.277656 -1.508123 -0.078971 -0.038609
    34 0.000000 -0.996223 0.000000 -0.863938 0.000000 0.000000
    35 -0.000001 -0.614690 0.000000 -0.523599 0.000000 0.000000
    36 -0.308255 -0.007814 0.307166 -0.145110 -0.159878 -2.467082
    37 1.978379 0.019543 0.000000 -0.087921 -0.056961 -0.023672
    38 0.982426 0.003186 0.000000 0.000000 0.000000 0.418879
    39 -1.118738 -2.201382 -0.281120 -0.933746 0.000013 -0.087266
    40 0.007812 -0.964973 0.000001 -0.610836 0.000000 0.000000
    41 -0.007812 -0.630317 0.000000 -1.213004 0.000000 0.000000
  time 16
    0 8.608141 3.168915 -8.096399 -0.774287 -1.331381 0.567209
    1 0.000000 -8.563280 0.000000 0.347509 -0.125220 -0.169570
    2 -0.834451 -3.073735 0.513624 -1.247037 1.437608 -1.233844
    3 0.000000 2.160510 0.950626 0.000000 0.000000 0.000000
    4 0.000001 -3.344302 1.710279 0.000000 0.000000 0.000000
    5 0.000001 -4.793801 0.448359 0.000000 0.000000 0.000000
    6 0.000003 -6.345616 1.761433 0.000000 0.000000 0.000000
    7 0.000002 -5.765819 2.989244 0.000000 0.000000 0.000000
    8 -0.003480 -0.404829 0.000000 0.000000 0.000000 0.000000
    9 -0.519309 -2.501155 -0.278957 -1.003564 0.000000 -0.122173
    10 -0.010598 -1.208185 0.000000 -1.090831 0.000000 0.000000
    11 0.000000 -0.763066 -0.000001 -1.343903 0.000000 0.000000
    12 0.105981 -2.607134 -0.278957 -0.890118 0.000000 -0.148353
    13 0.000000 -1.250579 0.000000 -1.213004 0.000000 0.000000
    14 0.000000 -0.932634 0.000000 -1.483530 0.000000 0.000000
    15 0.763064 -2.490557 -0.278957 -0.235619 0.000000 0.130900
    16 -0.012322 -1.280918 0.000000 -0.349066 0.000000 0.000000
    17 -0.001697 -0.749371 0.000000 -0.593412 0.000000 0.000000
    18 0.354567 0.016267 0.318133 0.342077 -0.443527 -1.083976
    19 1.887165 0.012878 0.000000 -0.305433 0.000000 -0.401426
    20 1.001875 -0.000270 0.000000 0.000000 0.000000 -0.488692
    21 0.172369 -10.373125 -10.080679 -0.554979 0.255020 0.648650
    22 0.089929 -8.543161 0.000000 0.512980 0.031489 0.240363
    23 0.000000 -0.359712 0.000000 0.000000 0.000000 0.000000
    24 -0.170480 -2.636147 -0.277656 -1.692969 0.000000 0.000000
    25 0.010599 -1.261176 0.000001 -0.253073 0.000000 0.000000
    26 -0.000001 -0.943232 -0.000002 -0.532326 0.000000 0.000000
    27 -0.827563 -2.508973 -0.277657 -1.396263 0.000000 0.000000
    28 -0.000001 -1.292972 0.000000 -0.445059 0.000000 0.000000
    29 0.000000 -0.752466 -0.000001 -0.445059 0.000000 0.000000
    30 0.444211 -2.561960 -0.277656 -1.727307 -0.046226 -0.024599
    31 0.021020 -1.208185 0.000000 -0.427606 0.000000 0.000000
    32 0.010596 -0.741866 -0.000001 -0.453786 0.000000 0.000000
    33 1.047444 -2.222821 -0.277656 -1.508123 -0.078971 -0.038609
    34 0.000000 -0.996223 0.000000 -0.863938 0.000000 0.000000
    35 -0.000001 -0.614690 0.000000 -0.523599 0.000000 0.000000
    36 -0.308255 -0.007814 0.307166 -0.145110 -0.159878 -2.467082
    37 1.978379 0.019543 0.000000 -0.087921 -0.056961 -0.023672
    38 0.982426 0.003186 0.000000 0.000000 0.000000 0.418879
    39 -1.118738 -2.201382 -0.281120 -0.933746 0.000013 -0.087266
    40 0.007812 -0.964973 0.000001 -0.610836 0.000000 0.000000
    41 -0.007812 -0.630317 0.000000 -1.213004 0.000000 0.000000
end
