// Created by Crowbar 0.49.0.0

$modelname "weapons/tfa_cso/w_ump45.mdl"

$bodygroup "studio"
{
	studio "f_ump45_template"
}

$collisionmodel "f_ump45_template.smd"
{
	$mass 9
}

$CDMaterials "models\weapons\tfa_cso\ump45"

$attachment "0" "root" -0.10 -10.50 0.40 rotate -0 -90 0

$sequence "idle" {
	"anims\idle"
	fps 30
}
