// Created by Crowbar 0.68

$modelname "weapons/tfa_cso/c_hammer.mdl"

$include "csonline_gmod.qci"

$bodygroup "weapon"
{
	studio "reference_Hammer"
}
$bodygroup "hands"
{
	studio "hand_High_512"
}
$cdmaterials "models/weapons/tfa_cso/hammer"

$definebone "Bone_L_Upper" "" 10.818113 7.298691 -12.417654 47.775284 -157.058228 -51.320175 0.000000 0.000000 0.000000 -0.000000 0.000003 -0.000000
$definebone "Bone01" "Bone_L_Upper" 0.135442 0.191468 8.898222 4.429476 -81.819809 -95.129044 -0.000001 0.000000 0.000000 0.000002 -0.000001 -0.000001
$definebone "Bone_Lefthand" "Bone01" -0.071920 -8.498734 -0.104136 -12.284443 -1.086846 -23.811266 0.000000 0.000000 0.000000 0.000001 -0.000002 0.000001
$definebone "Pyramid01" "Bone_Lefthand" 0.316528 -2.192667 0.899432 0.044554 160.718475 153.214157 0.000000 0.000000 0.000000 -0.000001 0.000003 -0.000002
$definebone "CSO_hammer" "Pyramid01" -16.621065 0.213464 -1.018429 -29.702021 90.000038 -89.999985 0.000000 0.000000 0.000000 0.000003 -0.000005 -0.000001

$sequence "idle" {
	"v_hammer_anims\idle"
	fps 30
	loop
	activity "ACT_VM_IDLE" 1
	snap
}
$sequence "slash1" {
	"v_hammer_anims\slash1"
	{ event 5004 22 "Hammer.Swing" }
	fps 30
	activity "ACT_VM_PRIMARYATTACK" 1
	snap
}
$sequence "draw" {
	"v_hammer_anims\draw"
	{ event 5004 1 "Hammer.Draw" }
	fps 30
	activity "ACT_VM_DRAW" 1
	snap
}
$sequence "idle_stab" {
	"v_hammer_anims\idle_stab"
	fps 30
	loop
	activity "ACT_VM_IDLE_SILENCED" 1
	snap
}
$sequence "stab1" {
	"v_hammer_anims\stab1"
	{ event 5004 0 "Hammer.Swing" }
	fps 30
	activity "ACT_VM_PRIMARYATTACK_SILENCER" 1
	snap
}
$sequence "draw_stab" {
	"v_hammer_anims\draw_stab"
	{ event 5004 1 "Hammer.Draw" }
	fps 30
	activity "ACT_VM_DRAW_SILENCED" 1
	snap
}
$sequence "move_stab" {
	"v_hammer_anims\move_stab"
	fps 30
	activity "ACT_VM_ATTACH_SILENCER" 1
	snap
}
$sequence "move_slash" {
	"v_hammer_anims\move_slash"
	fps 30
	activity "ACT_VM_DETACH_SILENCER" 1
	snap
}
