version 1
nodes
  0 "p_blackhole_mesh" -1
end
skeleton
  time 0
    0 3.283525 2.265533 1.460726 0.252004 -1.243923 -0.735588
  time 1
    0 3.283525 2.265533 1.460726 0.252004 -1.243923 -0.735588
end
